code,date,open,high,low,close,change,volume,money,traded_market_value,market_value,turnover,adjust_price,report_type,report_date,PE_TTM,PS_TTM,PC_TTM,PB
sh600203,2014-12-31,9.33,9.44,9.18,9.21,-0.012862,3029581.0,28100326.0,2206108240.0,3502385660.0,0.012647811428327741,15.38,2014-09-30 00:00:00,2014-10-25 00:00:00,111.8904097785963,0.95746065701151,-20.830384371625726,3.4226779692630087
sh600203,2014-12-30,9.38,9.58,9.3,9.33,-0.015823,3606399.0,34059710.0,2234852320.0,3548019350.0,0.015055895357774693,15.58,2014-09-30 00:00:00,2014-10-25 00:00:00,113.34829555603805,0.9699359735027018,-21.10179566750113,3.467274048069276
sh600203,2014-12-29,9.41,9.78,9.21,9.48,0.055679,8515857.0,81412412.0,2280358070.0,2690224310.0,0.035402477103080573,15.83,2014-09-30 00:00:00,2014-10-25 00:00:00,115.17064060228806,0.9855300149289221,-21.44105752065038,3.523018774132373
sh600203,2014-12-26,8.96,9.1,8.91,8.98,0.0,2157405.0,19344323.0,2160086020.0,2548334850.0,0.008968854351457726,14.99,2014-09-30 00:00:00,2014-10-25 00:00:00,109.09626941739683,0.933550837829418,-20.310205583942068,3.337206455875671
sh600203,2014-12-25,8.95,9.04,8.85,8.98,0.005599,2291038.0,20474871.0,2160086020.0,2548334850.0,0.009524399051478515,14.99,2014-09-30 00:00:00,2014-10-25 00:00:00,109.09626941739683,0.933550837829418,-20.310205583942068,3.337206455875671
sh600203,2014-12-24,8.72,8.93,8.72,8.93,0.027618,2034553.0,18002166.0,2148058810.0,2534145900.0,0.008458128895456078,14.91,2014-09-30 00:00:00,2014-10-25 00:00:00,108.48884039999724,0.9283529894415349,-20.197121898432744,3.3186254718587342
sh600203,2014-12-23,8.69,8.86,8.67,8.69,0.0046240000000000005,2112844.0,18529806.0,2090328230.0,2466038950.0,0.008783603501350599,14.51,2014-09-30 00:00:00,2014-10-25 00:00:00,105.57312191884267,0.9034028106178902,-19.654309187297955,3.2294349377480103
sh600203,2014-12-22,9.14,9.14,8.63,8.65,-0.05876,4448314.0,39007743.0,2080706470.0,2454687800.0,0.01849271709142136,14.44,2014-09-30 00:00:00,2014-10-25 00:00:00,105.08719871199838,0.8992447031107061,-19.56384596356244,3.214570762542016
sh600203,2014-12-19,9.46,9.46,9.07,9.19,-0.028541000000000004,4034430.0,37193139.0,2210600280.0,2607928420.0,0.016772101241206754,15.35,2014-09-30 00:00:00,2014-10-25 00:00:00,111.64761241766008,0.955383008702038,-20.785183336409887,3.415250905764753
sh600203,2014-12-18,9.54,9.55,9.4,9.46,0.004246,2783726.0,26323107.0,2275547190.0,2684548730.0,0.011572622214000317,15.8,2014-09-30 00:00:00,2014-10-25 00:00:00,114.92776578081019,0.9834517037796119,-21.395842064780794,3.5155893411505303
sh600203,2014-12-17,9.7,9.72,9.39,9.42,-0.024845,3736749.0,35392847.0,2265925420.0,2673197580.0,0.015534569350477563,15.73,2014-09-30 00:00:00,2014-10-25 00:00:00,114.44184570395123,0.9792936230561157,-21.305379423747564,3.5007252616893973
sh600203,2014-12-16,9.81,9.85,9.65,9.66,-0.015290999999999999,4478723.0,43622815.0,2323656010.0,2741304520.0,0.018619134671314794,16.13,2014-09-30 00:00:00,2014-10-25 00:00:00,117.35759515559191,1.0042440668982013,-21.848197900587664,3.5899167431735437
sh600203,2014-12-15,9.62,9.84,9.49,9.81,0.019750999999999998,4441538.0,42994501.0,2359737620.0,2783871360.0,0.01846454767288916,16.38,2014-09-30 00:00:00,2014-10-25 00:00:00,119.17997617122612,1.0198384161190783,-22.18746645007577,3.6456625695241374
sh600203,2014-12-12,9.5,9.79,9.5,9.62,0.012631999999999999,4092142.0,39448684.0,2314034240.0,2729953360.0,0.01701202400531463,16.06,2014-09-30 00:00:00,2014-10-25 00:00:00,116.87164432417926,1.0000857230040257,-21.757729534048774,3.575051722944265
sh600203,2014-12-11,9.41,9.57,9.29,9.5,0.013874000000000001,4682792.0,44219232.0,2285168950.0,2695899890.0,0.019467498891055736,15.86,2014-09-30 00:00:00,2014-10-25 00:00:00,115.41373798594086,0.9876102305714471,-21.486314410416394,3.5304550151923553
sh600203,2014-12-10,8.9,9.52,8.9,9.37,0.017372,4678556.0,43555021.0,2253898220.0,2659008630.0,0.01944988878867831,15.65,2014-09-30 00:00:00,2014-10-25 00:00:00,113.83439952690458,0.974095627830921,-21.192292543665577,3.4821437527664734
sh600203,2014-12-09,9.92,10.03,9.2,9.21,-0.068756,8895591.0,86232344.0,2215411160.0,2613604000.0,0.03698112322861099,15.38,2014-09-30 00:00:00,2014-10-25 00:00:00,111.89063540858662,0.9574625877564166,-20.830426376650408,3.4226848711842606
sh600203,2014-12-08,9.9,10.18,9.83,9.89,-0.00503,6827841.0,68024334.0,2378981150.0,2806573680.0,0.028384986358551016,16.51,2014-09-30 00:00:00,2014-10-25 00:00:00,120.15179202076644,1.0281543695920903,-22.368387207488485,3.675389984992398
sh600203,2014-12-05,10.55,10.58,9.8,9.94,-0.061378999999999996,12393493.0,125036094.0,2391008350.0,2820762620.0,0.05152274789002723,16.6,2014-09-30 00:00:00,2014-10-25 00:00:00,120.75921085134873,1.033352130810065,-22.48146899654109,3.6939706573991153
sh600203,2014-12-04,11.0,11.01,10.51,10.59,0.015340000000000001,15101079.0,161706064.0,2547362020.0,3005218930.0,0.06277883761884775,17.68,2014-09-30 00:00:00,2014-10-25 00:00:00,128.65598665632746,1.1009258591167947,-23.951593877125156,3.9355295240561583
sh600203,2014-11-26,10.44,10.55,10.37,10.43,-0.0019140000000000001,4065894.0,42461775.0,2508874960.0,2959814300.0,0.01690290472666681,17.42,2014-09-30 00:00:00,2014-10-25 00:00:00,126.71222118337448,1.084292807450504,-23.589727457920652,3.876070601036262
sh600203,2014-11-25,10.39,10.48,10.29,10.45,0.0077150000000000005,3894054.0,40475911.0,2513685850.0,2965489880.0,0.01618852423424351,17.45,2014-09-30 00:00:00,2014-10-25 00:00:00,126.95521346194063,1.0863721236952568,-23.634964780510547,3.8835036269782983
sh600203,2014-11-24,10.38,10.39,10.26,10.37,0.006795999999999999,3309150.0,34229459.0,2494442320.0,2942787570.0,0.013756936861141772,17.32,2014-09-30 00:00:00,2014-10-25 00:00:00,125.98325266761005,1.0780549299109936,-23.45401703905425,3.853771777713242
sh600203,2014-11-21,10.13,10.41,10.12,10.3,0.01378,3738722.0,38540035.0,2477604230.0,2922923040.0,0.015542771574941978,17.2,2014-09-30 00:00:00,2014-10-25 00:00:00,125.13284982023175,1.0707779231452983,-23.295699465486802,3.8277583320883695
sh600203,2014-11-20,10.12,10.23,9.95,10.16,0.003953,3208920.0,32271843.0,2443928060.0,2883193990.0,0.013340256504931656,16.97,2014-09-30 00:00:00,2014-10-25 00:00:00,123.43195744661737,1.05622316789175,-22.97904818154511,3.7757287893708393
sh600203,2014-11-19,10.08,10.14,10.04,10.12,0.003968,2536310.0,25638662.0,2434306290.0,2871842830.0,0.010544054092716491,16.9,2014-09-30 00:00:00,2014-10-25 00:00:00,122.94595209797407,1.0520643574866053,-22.888569665656767,3.760862101483674
sh600203,2014-11-18,10.09,10.14,9.96,10.08,0.004985,1752331.0,17608492.0,2424684530.0,2860491670.0,0.007284863767411425,16.83,2014-09-30 00:00:00,2014-10-25 00:00:00,122.46003069617167,1.0479062654253974,-22.798106777961817,3.7459979814931095
sh600203,2014-11-17,9.9,10.1,9.89,10.03,0.007028,2471267.0,24774202.0,2412657320.0,2846302730.0,0.01027365461498693,16.75,2014-09-30 00:00:00,2014-10-25 00:00:00,121.85259550756645,1.0427083642297124,-22.685021943573105,3.7274168087017316
sh600203,2014-11-14,9.9,10.0,9.81,9.96,0.0060609999999999995,2461759.0,24383181.0,2395819240.0,2826438200.0,0.01023412752958775,16.63,2014-09-30 00:00:00,2014-10-25 00:00:00,121.00219210147726,1.0354313526830559,-22.526704265991714,3.7014033459861406
sh600203,2014-11-13,10.29,10.29,9.88,9.9,-0.038835,6530899.0,65400519.0,2381386590.0,2809411470.0,0.02715052666018414,16.53,2014-09-30 00:00:00,2014-10-25 00:00:00,120.27321613846203,1.0291934114164605,-22.390992460687485,3.679104294855024
sh600203,2014-11-12,10.15,10.32,10.1,10.3,0.001946,3080754.0,31570118.0,2477604230.0,2922923040.0,0.01280743946744069,17.2,2014-09-30 00:00:00,2014-10-25 00:00:00,125.13274634268001,1.0707770376745516,-23.29568020130517,3.827755166755993
sh600203,2014-11-11,10.7,10.73,10.13,10.28,-0.039251999999999995,8311839.0,85652828.0,2472793350.0,2917247460.0,0.0345543249378279,17.17,2014-09-30 00:00:00,2014-10-25 00:00:00,124.88971096514186,1.0686973526263408,-23.250434855077195,3.8203208224355336
sh600203,2014-11-10,10.66,10.84,10.51,10.7,0.010387,5538991.0,59012390.0,2573821870.0,3036434620.0,0.023026925208308992,17.87,2014-09-30 00:00:00,2014-10-25 00:00:00,129.99216336140367,1.1123596953897805,-24.200346870435524,3.976402576362931
sh600203,2014-11-07,10.63,10.96,10.53,10.59,-0.009355,7646601.0,82269609.0,2547362020.0,3005218930.0,0.031788769697524186,17.68,2014-09-30 00:00:00,2014-10-25 00:00:00,128.6558154067735,1.1009243937122908,-23.951561995983248,3.9355242856083175
sh600203,2014-11-06,10.49,10.76,10.42,10.69,0.015194999999999998,6596585.0,70214405.0,2571416430.0,3033596830.0,0.027423599237872177,17.85,2014-09-30 00:00:00,2014-10-25 00:00:00,129.8707563322618,1.1113207997943673,-24.177744798573908,3.972688789231579
sh600203,2014-11-05,10.73,10.74,10.52,10.53,-0.025,5490894.0,58373346.0,2532929370.0,2988192200.0,0.022826974373943952,17.58,2014-09-30 00:00:00,2014-10-25 00:00:00,127.9269069806902,1.0946870303679264,-23.815862763876797,3.9132273004019704
sh600203,2014-11-04,10.75,10.94,10.61,10.8,-0.004608,8281668.0,88876083.0,2597876280.0,3064812510.0,0.03442889682183018,18.03,2014-09-30 00:00:00,2014-10-25 00:00:00,131.2070840827592,1.1227559285824886,-24.42652591166851,4.013566461950739
sh600203,2014-11-03,10.27,11.18,10.27,10.85,0.061644000000000004,18146684.0,195548695.0,2609903490.0,3079001460.0,0.07544015407251706,18.12,2014-09-30 00:00:00,2014-10-25 00:00:00,131.81448523070225,1.1279535384878405,-24.539604408784182,4.032146593453372
sh600203,2014-10-31,10.45,10.5,10.18,10.22,-0.019194,5933163.0,61195418.0,2458360700.0,2900220730.0,0.024665593564036394,17.07,2014-09-30 00:00:00,2014-10-25 00:00:00,124.1607217020981,1.0624592975496874,-23.11472057373675,3.798021364462448
sh600203,2014-10-30,10.65,10.76,10.39,10.42,-0.019755,7221139.0,76142438.0,2506469520.0,2956976510.0,0.030020021300717833,17.4,2014-09-30 00:00:00,2014-10-25 00:00:00,126.59049975438374,1.0832512214950636,-23.567066854950674,3.872347196553088
sh600203,2014-10-29,10.46,10.75,10.44,10.63,0.020154,10672248.0,113291604.0,2556983780.0,3016570090.0,0.04436711610270755,17.75,2014-09-30 00:00:00,2014-10-25 00:00:00,129.14169391772845,1.1050821187509894,-24.042016898786194,3.950387093586897
sh600203,2014-10-28,10.26,10.43,10.26,10.42,0.016585,3950564.0,41002238.0,2506469520.0,2956976510.0,0.016423450016659288,17.4,2014-09-30 00:00:00,2014-10-25 00:00:00,126.59039117400751,1.0832502923587903,-23.56704664078776,3.8723438751275756
sh600203,2014-10-27,10.58,10.58,10.21,10.25,-0.000975,3830431.0,39788845.0,2465577030.0,2908734090.0,0.015924028035741392,17.12,2014-09-30 00:00:00,2014-10-25 00:00:00,124.52514169893074,1.0655776864293593,-23.18256381983578,3.809168810406976
sh600203,2014-10-24,10.42,10.6,10.25,10.26,-0.018182,4317797.0,45115060.0,2467982470.0,2911571880.0,0.017950126371845745,17.13,2014-06-30 00:00:00,2014-08-23 00:00:00,94.1487390857401,1.2182191254913595,-16.759267983805287,4.447478428586103
sh600203,2014-10-23,10.1,10.47,10.1,10.45,0.025515,4856958.0,50168656.0,2513685850.0,2965489880.0,0.020191549035453255,17.45,2014-06-30 00:00:00,2014-08-23 00:00:00,95.89225201181901,1.240778968700268,-17.069627959362418,4.529839979085843
sh600203,2014-10-22,10.19,10.33,10.17,10.19,0.000982,2187516.0,22410667.0,2451144380.0,2891707360.0,0.009094033065485925,17.02,2014-06-30 00:00:00,2014-08-23 00:00:00,93.50643531476284,1.2099081619481606,-16.64493250646009,4.4171367352850455
sh600203,2014-10-21,10.34,10.41,10.15,10.18,-0.014521000000000001,2376371.0,24378146.0,2448738940.0,2888869570.0,0.009879148971266,17.0,2014-06-30 00:00:00,2014-08-23 00:00:00,93.4147020773229,1.2087211977319876,-16.62860321809991,4.412803362383184
sh600203,2014-10-20,10.1,10.37,10.1,10.33,0.019743,2656556.0,27295851.0,2484820550.0,2931436410.0,0.011043945801237035,17.25,2014-06-30 00:00:00,2014-08-23 00:00:00,94.79116457816241,1.2265316640252992,-16.873625128592206,4.477825871868589
sh600203,2014-10-17,10.4,10.45,10.01,10.13,-0.022201,3597536.0,36732508.0,2436711730.0,2874680620.0,0.014955827245104615,16.92,2014-06-30 00:00:00,2014-08-23 00:00:00,92.95593554274205,1.2027850782258855,-16.54693891362059,4.391131757578711
sh600203,2014-10-16,10.49,10.56,10.34,10.36,-0.021719,5353998.0,55941591.0,2492036880.0,2939949780.0,0.02225786453047998,17.3,2014-06-30 00:00:00,2014-08-23 00:00:00,95.0665070661169,1.2300944040911121,-16.92263840893741,4.490832735131362
sh600203,2014-10-15,10.49,10.62,10.42,10.59,0.004744,3723889.0,39206415.0,2547362020.0,3005218930.0,0.01548110720045987,17.68,2014-06-30 00:00:00,2014-08-23 00:00:00,97.17709642333534,1.2574039607138567,-17.29834107882849,4.590534555134326
sh600203,2014-10-14,10.44,10.63,10.33,10.54,0.008612,5346853.0,56143737.0,2535334810.0,2991029990.0,0.02222816110823643,17.6,2014-06-30 00:00:00,2014-08-23 00:00:00,96.71826497429727,1.2514670012598799,-17.216665219029412,4.568859883845364
sh600203,2014-10-13,10.62,10.62,10.37,10.45,-0.021536000000000003,5638466.0,58950109.0,2513685850.0,2965489880.0,0.023440466795005426,17.45,2014-06-30 00:00:00,2014-08-23 00:00:00,95.89243928715628,1.2407813919127273,-17.069661295948702,4.529848825757936
sh600203,2014-10-10,10.71,10.93,10.57,10.68,-0.0018690000000000002,7710294.0,82836490.0,2569010990.0,3030759040.0,0.03205355689038917,17.83,2014-06-30 00:00:00,2014-08-23 00:00:00,98.00303259716888,1.2680909996818759,-17.44536466947041,4.629550832486362
sh600203,2014-10-09,10.85,10.85,10.5,10.7,-0.011091,7229914.0,77099852.0,2573821870.0,3036434620.0,0.03005650107402343,17.87,2014-06-30 00:00:00,2014-08-23 00:00:00,98.1865432464966,1.270465499700817,-17.47803110961428,4.638219665040322
sh600203,2014-10-08,10.98,11.01,10.51,10.82,-0.014572,9759499.0,104736451.0,2602687160.0,3070488090.0,0.040572597737793425,18.07,2014-06-30 00:00:00,2014-08-23 00:00:00,99.28774361088493,1.2847142656208175,-17.674054043005256,4.690239106975791
sh600203,2014-09-30,10.7,11.09,10.7,10.98,0.021394999999999997,10711465.0,117325450.0,2641174220.0,3115892720.0,0.044530150570680646,18.33,2014-06-30 00:00:00,2014-08-23 00:00:00,100.75595945201977,1.3037119562472523,-17.93540882033518,4.759595938998882
sh600203,2014-09-29,10.63,10.94,10.62,10.75,0.00939,11210105.0,120928678.0,2585849080.0,3050623560.0,0.04660311759184337,17.95,2014-06-30 00:00:00,2014-08-23 00:00:00,98.64544025770611,1.2764033074836396,-17.559718640031697,4.659897433411052
sh600203,2014-09-26,10.64,10.77,10.35,10.65,0.013321000000000001,13332100.0,141010438.0,2561794670.0,3022245670.0,0.055424763999528504,17.78,2014-06-30 00:00:00,2014-08-23 00:00:00,97.72777643696304,1.264529376637018,-17.396366756191064,4.616548047247399
sh600203,2014-09-25,10.5,10.53,10.4,10.51,-0.000951,7705160.0,80726672.0,2528118490.0,2982516620.0,0.03203221364834051,17.55,2014-06-30 00:00:00,2014-08-23 00:00:00,96.44305845528024,1.2479060205374388,-17.16767614229949,4.555859443599214
sh600203,2014-09-24,10.49,10.57,10.35,10.52,0.005736,8848657.0,92720364.0,2530523930.0,2985354410.0,0.03678600725186582,17.57,2014-06-30 00:00:00,2014-08-23 00:00:00,96.53486311009794,1.2490939088447501,-17.184018143554013,4.560196190176072
sh600203,2014-09-23,10.28,10.5,10.16,10.46,0.024486,7800638.0,81179673.0,2516091290.0,2968327670.0,0.03242913872175123,17.47,2014-06-30 00:00:00,2014-08-23 00:00:00,95.98429718146507,1.2419699691019812,-17.08601277428074,4.534188087307277
sh600203,2014-09-22,10.3,10.41,10.17,10.21,-0.016378,3973409.0,40782751.0,2455955260.0,2897382940.0,0.016518422200410932,17.05,2014-06-30 00:00:00,2014-08-23 00:00:00,93.69019896949794,1.2122859356808988,-16.67764398369596,4.425817519524207
sh600203,2014-09-19,10.19,10.38,10.14,10.38,0.029762,6308482.0,64842888.0,2496847760.0,2945625360.0,0.026225885377969542,17.33,2014-06-30 00:00:00,2014-08-23 00:00:00,95.25020685740857,1.2324713514753622,-16.955338517942828,4.49951050253472
sh600203,2014-09-18,9.83,10.16,9.83,10.08,0.018182,3335302.0,33514160.0,2424684530.0,2860491670.0,0.013865657055188125,16.83,2014-06-30 00:00:00,2014-08-23 00:00:00,92.49730215079657,1.1968506814927744,-16.465298309650994,4.369466442279596
sh600203,2014-09-17,9.85,9.96,9.74,9.9,0.001011,4568709.0,45105805.0,2381386590.0,2809411470.0,0.01899322826874573,16.53,2014-06-30 00:00:00,2014-08-23 00:00:00,90.84554838997013,1.1754781379878787,-16.171272237822897,4.291439489481837
sh600203,2014-09-16,10.27,10.55,9.8,9.89,-0.037938,8381787.0,85794539.0,2378981150.0,2806573680.0,0.03484511570425852,16.51,2014-06-30 00:00:00,2014-08-23 00:00:00,90.75379630190889,1.1742909298577924,-16.15493959389347,4.287105226098251
sh600203,2014-09-15,10.36,10.37,10.2,10.28,-0.008679000000000001,6659512.0,68463316.0,2472793350.0,2917247460.0,0.027685201984225652,17.17,2014-06-30 00:00:00,2014-08-23 00:00:00,94.3325859475885,1.2205979758662042,-16.79199427260766,4.456163143433844
sh600203,2014-09-12,10.17,10.4,10.13,10.37,0.014677,5000298.0,51562263.0,2494442320.0,2942787570.0,0.02078744809781771,17.32,2014-06-30 00:00:00,2014-08-23 00:00:00,95.1584662764014,1.2312842922385427,-16.939007922365874,4.495176782731169
sh600203,2014-09-11,10.41,10.47,10.12,10.22,-0.018252,7603036.0,78422522.0,2458360700.0,2900220730.0,0.03160765949439397,17.07,2014-06-30 00:00:00,2014-08-23 00:00:00,93.78202745938007,1.2134741323973468,-16.69399022779256,4.430155392042165
sh600203,2014-09-10,10.35,10.53,10.28,10.41,-0.014205,6865124.0,71334896.0,2504064080.0,2954138720.0,0.028539980829883554,17.38,2014-06-30 00:00:00,2014-08-23 00:00:00,95.52555998013756,1.2360342291477517,-17.004353691367402,4.512517868172042
sh600203,2014-09-09,10.73,10.9,10.38,10.56,0.019305000000000003,17572302.0,185949092.0,2540145700.0,2996705560.0,0.0730523092120267,17.63,2014-06-30 00:00:00,2014-08-23 00:00:00,96.90205365226802,1.253845098775863,-17.249381150611843,4.577541850153472
sh600203,2014-09-05,10.16,10.42,10.02,10.36,0.019685,8651401.0,88501294.0,2492036880.0,2939949780.0,0.035965966266117214,17.3,2014-06-30 00:00:00,2014-08-23 00:00:00,95.06678928511882,1.2300980558084804,-16.922688646295118,4.490846066833257
sh600203,2014-09-04,9.94,10.2,9.86,10.16,0.024194,7336308.0,74264477.0,2443928060.0,2883193990.0,0.030498806613808428,16.97,2014-06-30 00:00:00,2014-08-23 00:00:00,93.23152668237623,1.2063510356712908,-16.59599645605762,4.404150366861585
sh600203,2014-09-03,9.82,9.98,9.8,9.92,0.007107,5086477.0,50211788.0,2386197470.0,2815087050.0,0.021145715086186893,16.56,2014-06-30 00:00:00,2014-08-23 00:00:00,91.02916701560078,1.1778540351449929,-16.203957898657503,4.30011342271248
sh600203,2014-09-02,9.74,9.87,9.69,9.85,0.011294,5020931.0,49109502.0,2369359390.0,2795222520.0,0.020873224449921884,16.45,2014-06-30 00:00:00,2014-08-23 00:00:00,90.38678811248536,1.1695420994442427,-16.089609047159342,4.269768180255405
sh600203,2014-09-01,9.59,9.75,9.5,9.74,0.015641,4555132.0,44084865.0,2342899530.0,2764006840.0,0.01893678542843875,16.26,2014-06-30 00:00:00,2014-08-23 00:00:00,89.37736020631523,1.1564808052299755,-15.909922383757188,4.222083963966369
sh600203,2014-08-29,9.42,9.62,9.36,9.59,0.018047,2975236.0,28248748.0,2306817920.0,2721440000.0,0.01236877561623936,16.01,2014-06-30 00:00:00,2014-08-23 00:00:00,88.00093754221741,1.138670854396362,-15.664907564540215,4.157063336322942
sh600203,2014-08-28,9.5,9.54,9.39,9.42,-0.0063289999999999996,3961015.0,37484428.0,2265925420.0,2673197580.0,0.016466897352693983,15.73,2014-06-30 00:00:00,2014-08-23 00:00:00,86.44093793529908,1.1184855457521725,-15.387214504379676,4.083370744497005
sh600203,2014-08-27,9.57,9.67,9.45,9.48,-0.008368,3801362.0,36271418.0,2280358070.0,2690224310.0,0.01580318119075045,15.83,2014-06-30 00:00:00,2014-08-23 00:00:00,86.99150718426831,1.1256095284577818,-15.485220464700769,4.10937900421468
sh600203,2014-08-26,9.91,9.92,9.51,9.56,-0.037261,7852439.0,75974691.0,2299601600.0,2712926630.0,0.03264448800174778,15.96,2014-06-30 00:00:00,2014-08-23 00:00:00,87.72559496291802,1.1351081131486096,-15.615894267934847,4.144056468745139
sh600203,2014-08-25,10.16,10.19,9.91,9.93,-0.027424,7468883.0,74739602.0,2388602910.0,2817924830.0,0.031049953041378482,16.58,2014-06-30 00:00:00,2014-08-23 00:00:00,91.12084891431428,1.1790403350737941,-16.220278048292265,4.304444370431798
sh600203,2014-08-22,10.32,10.37,10.13,10.21,-0.011617,6252621.0,63835205.0,2455955260.0,2897382940.0,0.025993657722413074,17.05,2014-03-31 00:00:00,2014-04-23 00:00:00,35.02426595288905,1.2453734611923941,-138.86235911729992,4.3376991387298105
sh600203,2014-08-21,10.4,10.42,10.21,10.33,0.0019399999999999999,5626657.0,58010689.0,2484820550.0,2931436410.0,0.023391374000830766,17.25,2014-03-31 00:00:00,2014-04-23 00:00:00,35.43592509471435,1.260011009084934,-140.49448353249693,4.388682462901336
sh600203,2014-08-20,10.3,10.39,10.18,10.31,0.0019440000000000002,6772802.0,69521225.0,2480009670.0,2925760830.0,0.028156175947491365,17.22,2014-03-31 00:00:00,2014-04-23 00:00:00,35.36731250844796,1.2575713207227317,-140.22245197566414,4.380184904187212
sh600203,2014-08-19,10.42,10.42,10.19,10.29,-0.013423,7548108.0,77763737.0,2475198790.0,2920085250.0,0.03137931047550326,17.18,2014-03-31 00:00:00,2014-04-23 00:00:00,35.29869185148867,1.255131345387299,-139.95038842057457,4.371686345930724
sh600203,2014-08-18,10.15,10.47,10.15,10.43,0.022549,9372558.0,96873252.0,2508874960.0,2959814300.0,0.03896399043338533,17.42,2014-03-31 00:00:00,2014-04-23 00:00:00,35.77895273403765,1.272208196002237,-141.8545013927697,4.431165885613311
sh600203,2014-08-15,10.32,10.49,10.1,10.2,-0.019231,11583463.0,118804297.0,2453549820.0,2894545150.0,0.0481552571856886,17.03,2014-03-31 00:00:00,2014-04-23 00:00:00,34.98996403501217,1.2441537725842353,-138.72636068566857,4.333450901241223
sh600203,2014-08-14,10.2,10.85,10.12,10.4,0.013645,21083318.0,221846863.0,2501658640.0,2951300930.0,0.08764845198863742,17.37,2014-03-31 00:00:00,2014-04-23 00:00:00,35.67605015555362,1.2685492430778655,-141.44651868652923,4.41842156638436
sh600203,2014-08-13,10.08,10.27,9.86,10.26,0.017856999999999998,12919464.0,129985263.0,2467982470.0,2911571880.0,0.05370933637142082,17.13,2014-03-31 00:00:00,2014-04-23 00:00:00,35.19580341791616,1.2514728954198617,-139.54246179533195,4.358943778526369
sh600203,2014-08-12,10.19,10.23,10.05,10.08,-0.011765000000000001,8860620.0,89709245.0,2424684530.0,2860491670.0,0.03683574027669488,16.83,2014-03-31 00:00:00,2014-04-23 00:00:00,34.578338035614195,1.2295174031517804,-137.0943676718163,4.2824716817061415
sh600203,2014-08-11,10.11,10.21,10.07,10.2,0.005917,9063512.0,91840076.0,2453549820.0,2894545150.0,0.037679211421107396,17.03,2014-03-31 00:00:00,2014-04-23 00:00:00,34.98999533067964,1.2441548853782556,-138.72648476507743,4.333454777159423
sh600203,2014-08-08,10.14,10.28,10.04,10.14,0.004954999999999999,7872306.0,79764539.0,2439117170.0,2877518410.0,0.03272708003609355,16.93,2014-03-31 00:00:00,2014-04-23 00:00:00,34.784177353280285,1.236836523667714,-137.91046852282787,4.307964550911679
sh600203,2014-08-07,10.32,10.58,10.07,10.09,-0.033525,16029806.0,165132998.0,2427089970.0,2863329460.0,0.06663978037039969,16.85,2014-03-31 00:00:00,2014-04-23 00:00:00,34.61267156567238,1.2307382158083833,-137.2304914377538,4.286723834312659
sh600203,2014-08-06,10.7,10.79,10.42,10.44,-0.059459000000000005,24291553.0,255704609.0,2511280400.0,2962652090.0,0.10098586096558552,17.43,2014-03-31 00:00:00,2014-04-23 00:00:00,35.81331287997349,1.2734299550514843,-141.99073068393264,4.435421334553568
sh600203,2014-08-05,10.79,11.3,10.61,11.1,0.080818,39142976.0,428631862.0,2670039510.0,3149946190.0,0.16272681807618644,18.53,2014-03-31 00:00:00,2014-04-23 00:00:00,38.07735428862058,1.353933486207921,-150.96708243865248,4.715819230159629
sh600203,2014-08-04,10.27,10.27,10.27,10.27,0.09957200000000001,1798968.0,18475401.0,2470387910.0,2914409670.0,0.007478745052634264,17.15,2014-03-31 00:00:00,2014-04-23 00:00:00,35.23012596812838,1.2526933176611796,-139.6785420289563,4.363194571296582
sh600203,2014-08-01,9.34,9.34,9.34,9.34,0.100118,309328.0,2889124.0,2246681890.0,2650495260.0,0.001285951310178585,15.6,2014-03-31 00:00:00,2014-04-23 00:00:00,32.039853659540604,1.1392553808765409,-127.02991894023883,3.9680844649523466
sh600203,2014-04-18,8.31,8.5,8.25,8.49,0.016766,3366429.0,28201571.0,2042219410.0,2409283170.0,0.013995059526929088,14.18,2013-12-31 00:00:00,2014-03-27 00:00:00,26.765766780439556,0.8170582399021593,-110.41165968330824,4.23053288790042
sh600203,2014-04-17,8.4,8.46,8.34,8.35,-0.008314,2308633.0,19377234.0,2008543240.0,2369554120.0,0.009597545706807884,13.94,2013-12-31 00:00:00,2014-03-27 00:00:00,26.324411693978313,0.8035853282880813,-108.59102259842308,4.160773361717859
sh600203,2014-04-16,8.35,8.47,8.35,8.42,0.001189,2358786.0,19819366.0,2025381320.0,2389418640.0,0.009806043891033813,14.06,2013-12-31 00:00:00,2014-03-27 00:00:00,26.545107719558725,0.8103223482917792,-109.50141738254153,4.19565604608501
sh600203,2014-04-15,8.58,8.58,8.36,8.41,-0.019814,3434893.0,28966545.0,2022975880.0,2386580850.0,0.014279680947061021,14.04,2013-12-31 00:00:00,2014-03-27 00:00:00,26.513583069289332,0.8093600192289159,-109.37137481788305,4.190673335489112
sh600203,2014-04-14,8.49,8.67,8.43,8.58,0.010601000000000001,4669369.0,39949688.0,2063868380.0,2434823270.0,0.019411696214852614,14.33,2013-12-31 00:00:00,2014-03-27 00:00:00,27.04954270851587,0.8257208521942937,-111.58226583310011,4.275385830331297
sh600203,2014-04-11,8.45,8.58,8.33,8.49,-0.001176,4181789.0,35297508.0,2042219410.0,2409283170.0,0.017384708242489968,14.18,2013-12-31 00:00:00,2014-03-27 00:00:00,26.765798478841667,0.8170592075352128,-110.4117904426179,4.230537898073816
sh600203,2014-04-10,8.35,8.71,8.34,8.5,0.019185,9737828.0,83240900.0,2044624850.0,2412120960.0,0.0404825061184207,14.19,2013-12-31 00:00:00,2014-03-27 00:00:00,26.79731211789231,0.818021200466962,-110.54178758481765,4.2355188682628935
sh600203,2014-04-09,8.28,8.41,8.23,8.34,0.006031,5005163.0,41735771.0,2006137790.0,2366716330.0,0.02080767314592085,13.93,2013-12-31 00:00:00,2014-03-27 00:00:00,26.29288315457185,0.8026228805044835,-108.46096399065691,4.1557900364142855
sh600203,2014-04-08,8.09,8.35,8.01,8.29,0.013447,4366926.0,35840819.0,1994110590.0,2352527380.0,0.018154367526828086,13.84,2013-12-31 00:00:00,2014-03-27 00:00:00,26.135261393110003,0.7978112806707581,-107.8107573133004,4.130876718922464
sh600203,2014-04-04,8.18,8.19,8.08,8.18,0.004914,3146165.0,25610125.0,1967650740.0,2321311700.0,0.013079368800989548,13.66,2013-12-31 00:00:00,2014-03-27 00:00:00,25.788483653422432,0.7872254599113305,-106.38026193111271,4.0760658612857545
sh600203,2014-04-03,8.08,8.24,8.06,8.14,-0.002451,2647070.0,21595092.0,1958028970.0,2309960540.0,0.011004510214167058,13.59,2013-12-31 00:00:00,2014-03-27 00:00:00,25.66237872437087,0.7833759504906195,-105.8600655689071,4.056134018717775
sh600203,2014-04-02,8.35,8.36,8.13,8.16,-0.019231,3975380.0,32703453.0,1962839860.0,1962839860.0,0.01652661608369824,13.63,2013-12-31 00:00:00,2014-03-27 00:00:00,25.72543175760877,0.7853007225616181,-106.12016609600842,4.066100029891038
sh600203,2014-04-01,7.98,8.35,7.86,8.32,0.024631,7076418.0,58107638.0,2001326910.0,2001326910.0,0.029418381107962018,13.89,2013-12-31 00:00:00,2014-03-27 00:00:00,26.22985815988145,0.8006989643449355,-108.20097912557229,4.145828456946577
sh600203,2014-03-31,7.89,8.2,7.69,8.12,0.034395,4454671.0,34779594.0,1953218090.0,1953218090.0,0.018519144741281808,13.56,2013-12-31 00:00:00,2014-03-27 00:00:00,25.599321277495456,0.7814510436878597,-105.59994683507749,4.046167309935554
sh600203,2014-03-28,8.02,8.1,7.83,7.85,-0.032059,4566197.0,36271595.0,1888271190.0,1888271190.0,0.018982785226946134,13.11,2013-12-31 00:00:00,2014-03-27 00:00:00,24.748110032913402,0.7554667643287717,-102.08860912424896,3.911626902619942
sh600203,2014-03-27,8.33,8.42,8.08,8.11,-0.054778999999999994,8051835.0,66150366.0,1950812650.0,1950812650.0,0.03347342547220001,13.54,2013-12-31 00:00:00,2014-03-27 00:00:00,25.567787740072383,0.7804884433336037,-105.46986760995655,4.0411831946574654
sh600203,2014-03-26,8.33,8.79,8.31,8.58,0.027545,7614910.0,65199569.0,2063868380.0,2063868380.0,0.0316570225277641,14.33,2013-09-30 00:00:00,2013-10-29 00:00:00,24.999501467088084,0.8194376540040592,12327.591810366237,3.281333237984093
sh600203,2014-03-25,8.23,8.36,8.13,8.35,0.01335,4627769.0,38259429.0,2008543240.0,2008543240.0,0.0192387549246886,13.94,2013-09-30 00:00:00,2013-10-29 00:00:00,24.329349534169392,0.7974713068566918,11997.130841341488,3.1933718114380327
sh600203,2014-03-24,8.21,8.28,8.06,8.24,0.0,4053390.0,33249557.0,1982083380.0,1982083380.0,0.016850922588332283,13.76,2013-09-30 00:00:00,2013-10-29 00:00:00,24.00883163188374,0.7869653198368695,11839.079134890695,3.151301930663672
sh600203,2014-03-21,7.9,8.26,7.79,8.24,0.044360000000000004,4276776.0,34463733.0,1982083380.0,1982083380.0,0.017779592218769322,13.76,2013-09-30 00:00:00,2013-10-29 00:00:00,24.00883163188374,0.7869653198368695,11839.079134890695,3.151301930663672
sh600203,2014-03-20,8.1,8.15,7.82,7.89,-0.029519999999999998,3739681.0,29981633.0,1897892950.0,1897892950.0,0.015546758361687365,13.17,2013-09-30 00:00:00,2013-10-29 00:00:00,22.989037910187808,0.7535383582642666,11336.205077646306,3.017447940043349
sh600203,2014-03-19,8.21,8.21,8.04,8.13,-0.01335,3826279.0,30991575.0,1955623530.0,1955623530.0,0.01590676722426223,13.58,2013-09-30 00:00:00,2013-10-29 00:00:00,23.68831702888036,0.7764594409614487,11681.02905536055,3.1092324829397304
sh600203,2014-03-18,8.29,8.35,8.18,8.24,-0.004831,4119161.0,33997510.0,1982083380.0,1982083380.0,0.0171243485427944,13.76,2013-09-30 00:00:00,2013-10-29 00:00:00,24.00883497580739,0.7869654294445332,11839.08078382461,3.1513023695735374
sh600203,2014-03-17,8.05,8.29,8.05,8.28,0.028571,3877625.0,31762456.0,1991705150.0,1991705150.0,0.016120224923854818,13.83,2013-09-30 00:00:00,2013-10-29 00:00:00,24.125384709338203,0.7907857152348327,11896.553031519881,3.1666002152132324
sh600203,2014-03-14,8.15,8.26,8.01,8.05,-0.017093999999999998,3749901.0,30369290.0,1936380010.0,1936380010.0,0.015589245341362516,13.44,2013-09-30 00:00:00,2013-10-29 00:00:00,23.45524490709752,0.7688197657087675,11566.098044296292,3.0786403808908016
sh600203,2014-03-13,7.99,8.21,7.97,8.19,0.021197,4792396.0,39025338.0,1970056180.0,1970056180.0,0.019923149216993393,13.68,2013-09-30 00:00:00,2013-10-29 00:00:00,23.86316179481814,0.7821905306395194,11767.247370853664,3.1321818982596517
sh600203,2014-03-12,7.86,8.03,7.81,8.02,0.011349,4625317.0,36642931.0,1929163680.0,1929163680.0,0.019228561435492085,13.39,2013-09-30 00:00:00,2013-10-29 00:00:00,23.36783382130788,0.7659545911704788,11522.9944573414,3.067167156052801
sh600203,2014-03-11,7.78,7.97,7.77,7.93,0.001263,4183408.0,33015947.0,1907514710.0,1907514710.0,0.017391438852914533,13.24,2013-09-30 00:00:00,2013-10-29 00:00:00,23.105608273017403,0.7573593202450181,11393.687497927422,3.0327484934011903
sh600203,2014-03-10,8.69,8.74,7.91,7.92,-0.098976,10314806.0,84474494.0,1905109270.0,1905109270.0,0.04288114325326862,13.22,2013-09-30 00:00:00,2013-10-29 00:00:00,23.076462700626514,0.7564039820157322,11379.315422548741,3.02892296369804
sh600203,2014-03-07,8.81,8.92,8.75,8.79,-0.003401,4384926.0,38702779.0,2114382640.0000002,2114382640.0000002,0.018229197880663642,14.68,2013-09-30 00:00:00,2013-10-29 00:00:00,25.611374059543927,0.8394937116167074,12629.31444950272,3.3616451545109114
sh600203,2014-03-06,8.85,8.89,8.67,8.82,-0.012318,4346212.0,38160855.0,2121598960.0,2121598960.0,0.018068254445222767,14.73,2013-09-30 00:00:00,2013-10-29 00:00:00,25.69877559534369,0.8423585731239017,12672.413327228625,3.3731171258559476
sh600203,2014-03-05,8.84,8.93,8.7,8.93,0.009040000000000001,5184210.0,45790956.0,2148058810.0,2148058810.0,0.021552014816577578,14.91,2013-09-30 00:00:00,2013-10-29 00:00:00,26.019281099932662,0.8528641537700411,12830.458920207746,3.41518537935889
sh600203,2014-03-04,8.98,8.98,8.63,8.85,-0.021018000000000002,6338673.0,55787065.0,2128815290.0,2128815290.0,0.02635139662586696,14.78,2013-09-30 00:00:00,2013-10-29 00:00:00,25.786174086193476,0.8452233348232392,12715.510703448572,3.3845886975331907
sh600203,2014-03-03,8.77,9.08,8.66,9.04,0.01573,7032814.0,62830960.0,2174518660.0,2174518660.0,0.029237108758588436,15.1,2013-09-30 00:00:00,2013-10-29 00:00:00,26.33978365914131,0.8633696378720336,12988.503060780047,3.4572532462631496
sh600203,2014-02-28,8.75,8.93,8.63,8.9,0.017143000000000002,5309143.0,46609028.0,2140842490.0000002,2140842490.0000002,0.022071391482892323,14.86,2013-09-30 00:00:00,2013-10-29 00:00:00,25.931875261281355,0.8499991512232912,12787.357920687631,3.4037128432390005
sh600203,2014-02-27,9.03,9.17,8.72,8.75,-0.029932999999999998,8034397.0,71792479.0,2104760880.0,2104760880.0,0.03340093139226343,14.61,2013-09-30 00:00:00,2013-10-29 00:00:00,25.494817603111223,0.8356732054620554,12571.838886653728,3.346346426450362
sh600203,2014-02-26,9.11,9.13,8.6,9.02,-0.020630000000000003,9837927.0,87048376.0,2169707780.0,2169707780.0,0.040898641908358735,15.06,2013-09-30 00:00:00,2013-10-29 00:00:00,26.281501796382337,0.8614592656610887,12959.763487113496,3.4496034051775415
sh600203,2014-02-25,10.05,10.2,9.07,9.21,-0.08631,15298700.0,147973640.0,2215411160.0,2215411160.0,0.06360039596442225,15.38,2013-09-30 00:00:00,2013-10-29 00:00:00,26.835110118119132,0.8796055276974879,13232.755227455911,3.522267789678611
sh600203,2014-02-24,9.88,10.16,9.8,10.08,0.012048,7105380.0,71162342.0,2424684530.0,2424684530.0,0.029538783092743204,16.83,2013-09-30 00:00:00,2013-10-29 00:00:00,29.370038107146993,0.9626958024028807,14482.762454941954,3.8549921632923767
sh600203,2014-02-21,9.72,10.12,9.72,9.96,0.018405,7212434.0,71540189.0,2395819240.0,2395819240.0,0.029983832436373623,16.63,2013-09-30 00:00:00,2013-10-29 00:00:00,29.020400324042917,0.9512353192762403,14310.35134197385,3.809100124986538
sh600203,2014-02-20,10.15,10.25,9.67,9.78,-0.037402,8401170.0,83309309.0,2352521300.0,2352521300.0,0.03492569550804917,16.33,2013-09-30 00:00:00,2013-10-29 00:00:00,28.495932683012082,0.9340442351286967,14051.72926485421,3.7402606281258817
sh600203,2014-02-19,10.35,10.47,9.98,10.16,-0.021195,10021308.0,101754698.0,2443928060.0,2443928060.0,0.04166100097070779,16.97,2013-09-30 00:00:00,2013-10-29 00:00:00,29.60314968762878,0.9703367710391012,14597.71292362358,3.8855894445302006
sh600203,2014-02-18,10.2,10.65,10.08,10.38,0.018646,13792288.0,143224079.0,2496847760.0,2496847760.0,0.05733787687560094,17.33,2013-09-30 00:00:00,2013-10-29 00:00:00,30.244174976250402,0.9913484003852668,14913.811150968351,3.9697278257979884
sh600203,2014-02-17,10.1,10.25,9.96,10.19,0.011917,10780782.0,109086486.0,2451144380.0,2451144380.0,0.04481831811963683,17.02,2013-09-30 00:00:00,2013-10-29 00:00:00,29.69056470672874,0.9732020745040642,14640.818450146913,3.8970631856385722
sh600203,2014-02-14,9.9,10.49,9.88,10.07,0.010029999999999999,14030908.0,143764657.0,2422279090.0,2422279090.0,0.05832987790023816,16.81,2013-09-30 00:00:00,2013-10-29 00:00:00,29.340909093066667,0.9617410069245445,14468.398544689846,3.851168806965959
sh600203,2014-02-13,10.0,10.27,9.87,9.97,-0.017734,11323189.0,113295611.0,2398224680.0,2398224680.0,0.04707323516076901,16.65,2013-09-30 00:00:00,2013-10-29 00:00:00,29.0495421849516,0.9521905358499693,14324.721587170525,3.812925167535577
sh600203,2014-02-12,9.4,10.3,9.38,10.15,0.071806,16658977.0,165934937.0,2441522620.0,2441522620.0,0.06925539626988997,16.95,2013-09-30 00:00:00,2013-10-29 00:00:00,29.574007636375075,0.9693815482262128,14583.342584565204,3.881764376997246
sh600203,2014-02-11,9.6,9.7,9.33,9.47,-0.021694,11545725.0,109848667.0,2277952630.0,2277952630.0,0.04799837112942951,15.81,2013-09-30 00:00:00,2013-10-29 00:00:00,27.592687143359033,0.9044375084914739,13606.326690245438,3.621704279503236
sh600203,2014-02-10,9.14,9.75,9.11,9.68,0.055616,15365260.0,145351562.0,2328466890.0,2328466890.0,0.06387710189858015,16.16,2013-09-30 00:00:00,2013-10-29 00:00:00,28.204556798546704,0.9244934698258764,13908.047880975317,3.7020158104961394
sh600203,2014-02-07,8.84,9.22,8.66,9.17,0.024581,7383699.0,66364760.0,2205789400.0,2205789400.0,0.030695822470631146,15.31,2013-09-30 00:00:00,2013-10-29 00:00:00,26.718576450666436,0.8757857685236642,13175.290902160743,3.506972052807213
sh600203,2014-01-30,9.15,9.22,8.93,8.95,-0.029283999999999998,4781000.0,43373369.0,2152869700.0,2152869700.0,0.019875773252789056,14.94,2013-09-30 00:00:00,2013-10-29 00:00:00,26.077563853581548,0.8547745551827179,12859.198933184143,3.4228353373790976
sh600203,2014-01-29,9.2,9.27,9.08,9.22,0.00765,7806375.0,71603425.0,2217816600.0,2217816600.0,0.032452988899082096,15.4,2013-09-30 00:00:00,2013-10-29 00:00:00,26.864256748195707,0.8805609005957641,13247.127824393687,3.526093458209298
sh600203,2014-01-28,9.11,9.29,8.96,9.15,0.0032890000000000003,7174550.0,65480651.0,2200978520.0,2200978520.0,0.029826339468319755,15.28,2013-09-30 00:00:00,2013-10-29 00:00:00,26.660305411795477,0.8738757510998504,13146.556665899556,3.4993236324212758
sh600203,2014-01-27,9.4,9.42,8.98,9.12,-0.04,13701805.0,126424746.0,2193762190.0,2193762190.0,0.05696171725887936,15.23,2013-09-30 00:00:00,2013-10-29 00:00:00,26.57290712027688,0.8710109959342226,13103.459387972513,3.4878520869074365
sh600203,2014-01-24,9.33,9.68,9.26,9.5,0.010638,12803009.0,121428640.0,2285168950.0,2285168950.0,0.053225204858485406,15.86,2013-09-30 00:00:00,2013-10-29 00:00:00,27.680111583621755,0.9073031207648153,13649.43686247137,3.633179257195247
sh600203,2014-01-23,9.38,9.61,9.25,9.4,-0.0042369999999999994,14094589.0,132587728.0,2261114540.0,2261114540.0,0.05859461529091755,15.7,2013-09-30 00:00:00,2013-10-29 00:00:00,27.388750060478387,0.8977528261997029,13505.76256035432,3.5949363245744244
sh600203,2014-01-22,8.96,9.57,8.84,9.44,0.058296,19816221.0,183490433.0,2270736300.0,2270736300.0,0.0823808234536084,15.76,2013-09-30 00:00:00,2013-10-29 00:00:00,27.505289974098645,0.9015727901114049,13563.229965719072,3.6102328812924607
sh600203,2014-01-21,8.61,8.94,8.51,8.92,0.036005,11785880.0,103549718.0,2145653370.0,2145653370.0,0.048996753655507735,14.89,2013-09-30 00:00:00,2013-10-29 00:00:00,25.99016718772314,0.8519098533032394,12816.102456892093,3.4113640052428256
sh600203,2014-01-20,9.0,9.28,8.58,8.61,-0.044395,11841548.0,105379346.0,2071084700.0,2071084700.0,0.04922817897307628,14.38,2013-09-30 00:00:00,2013-10-29 00:00:00,25.086912889149318,0.822302839564712,12370.695563141193,3.2928065069597396
sh600203,2014-01-17,8.93,9.09,8.85,9.01,-0.001109,10658562.0,95656021.0,2167302340.0,2167302340.0,0.044310220059098904,15.04,2013-09-30 00:00:00,2013-10-29 00:00:00,26.252387638354044,0.8605049571368001,12945.40690258129,3.4457819987963014
sh600203,2014-01-16,9.2,9.49,8.97,9.02,-0.019565,17873001.0,165070759.0,2169707780.0,2169707780.0,0.07430238786349376,15.06,2013-09-30 00:00:00,2013-10-29 00:00:00,26.28153385940412,0.8614603166279405,12959.779297822575,3.4496076136398277
sh600203,2014-01-15,9.26,9.63,9.11,9.2,-0.016043,18627596.0,173756792.0,2213005720.0,2213005720.0,0.07743942171102927,15.36,2013-09-30 00:00:00,2013-10-29 00:00:00,26.8059931146931,0.8786511259062973,13218.397239819647,3.5184460098219956
sh600203,2014-01-14,9.04,9.6,8.96,9.35,0.013000999999999999,22581485.0,208121505.0,2249087340.0,2249087340.0,0.09387669433504525,15.61,2013-09-30 00:00:00,2013-10-29 00:00:00,27.243053420721733,0.8929771584594625,13433.91757954834,3.575812774157809
sh600203,2014-01-13,8.95,9.35,8.63,9.23,0.0453,27948471.0,250568442.0,2220222040.0,2220222040.0,0.11618855352413313,15.41,2013-09-30 00:00:00,2013-10-29 00:00:00,26.89341216911112,0.8815165616415604,13261.504756212818,3.5299202805898604
sh600203,2014-01-10,7.95,8.89,7.82,8.83,0.092822,23958520.0,202128981.0,2124004400.0,2124004400.0,0.0996013622194003,14.74,2013-09-30 00:00:00,2013-10-29 00:00:00,25.727936639348627,0.8433144184842251,12686.793031869145,3.37694468630045
sh600203,2014-01-09,8.5,8.6,8.04,8.08,-0.063731,16644937.0,138554204.0,1943596330.0,1943596330.0,0.06919702866489771,13.49,2013-09-30 00:00:00,2013-10-29 00:00:00,23.542659865329053,0.7716850671785753,11609.203540804581,3.0901141140098294
sh600203,2014-01-08,8.59,8.99,8.48,8.63,-0.006904,17863498.0,154972489.0,2075895580.0,2075895580.0,0.07426288163299621,14.41,2013-09-30 00:00:00,2013-10-29 00:00:00,25.14518783098559,0.8242129849205466,12399.431724007289,3.3004554396330854
sh600203,2014-01-07,8.32,9.09,8.15,8.69,0.029620999999999998,24901933.0,216783796.0,2090328230.0,2090328230.0,0.10352335803741214,14.51,2013-09-30 00:00:00,2013-10-29 00:00:00,25.319997090901172,0.8299429107765478,12485.632531001322,3.3234001945764406
sh600203,2014-01-06,8.18,8.68,7.91,8.44,0.020556,21461687.0,179360720.0,2030192200.0,2030192200.0,0.08922142360708508,14.09,2013-09-30 00:00:00,2013-10-29 00:00:00,24.591570190294462,0.8060664174259732,12126.435388362634,3.2277898319638405
sh600203,2014-01-03,8.24,8.41,8.11,8.27,0.002424,16159486.0,133360787.0,1989299710.0,1989299710.0,0.06717889142003644,13.81,2013-09-30 00:00:00,2013-10-29 00:00:00,24.096247722118594,0.789830658411663,11882.18518960511,3.1627758123648677
sh600203,2014-01-02,8.09,8.46,7.88,8.25,0.013513999999999998,19585666.0,160480819.0,1984488830.0,1984488830.0,0.08142235020793744,13.78,2013-09-30 00:00:00,2013-10-29 00:00:00,24.03797965942415,0.7879207385414386,11853.452420936761,3.1551277826197976
sh600203,2013-12-31,8.6,8.72,8.08,8.14,-0.072893,25867846.0,215781443.0,1958028970.0,1958028970.0,0.10753889225653286,13.59,2013-09-30 00:00:00,2013-10-29 00:00:00,23.71746187958346,0.7774147555351367,11695.400774865231,3.1130579179170663
sh600203,2013-12-30,8.18,8.87,8.01,8.78,0.0366,42311559.0,356637873.0,2111977200.0000002,2111977200.0000002,0.1758993837717566,14.66,2013-09-30 00:00:00,2013-10-29 00:00:00,25.58222716426848,0.8385383300257001,12614.941721791802,3.3578194511712955
sh600203,2013-12-27,8.1,8.47,8.1,8.47,0.1,19611251.0,164577811.0,2037408530.0,2037408530.0,0.08152871332584438,14.14,2013-09-30 00:00:00,2013-10-29 00:00:00,24.67897661997731,0.8089314393456493,12169.536679328381,3.2392624456601347
sh600203,2013-12-26,6.98,7.7,6.87,7.7,0.1,15841254.0,118570477.0,1852189570.0,1852189570.0,0.06585592413199907,12.86,2013-09-30 00:00:00,2013-10-29 00:00:00,22.43543329088846,0.7353922175869538,11063.215163025801,2.944784041509213
sh600203,2013-12-25,6.8,7.02,6.77,7.0,0.029412,3371659.0,23334992.0,1683808700.0,1683808700.0,0.014016801908672879,11.69,2013-09-30 00:00:00,2013-10-29 00:00:00,20.39584844626224,0.6685383796245035,10057.468330023456,2.6770764013720116
sh600203,2013-12-24,6.72,6.89,6.66,6.8,0.008902,2779904.0,18882246.0,1635699880.0,1635699880.0,0.01155673325598092,11.35,2013-09-30 00:00:00,2013-10-29 00:00:00,19.81310539051637,0.6494371346210298,9770.109858854818,2.6005879097698608
sh600203,2013-12-23,6.97,7.03,6.72,6.74,-0.042614,3463251.0,23699464.0,1621267230.0,1621267230.0,0.01439757203998998,11.25,2013-09-30 00:00:00,2013-10-29 00:00:00,19.638285374115995,0.643706856187251,9683.903747692859,2.5776417429739076
sh600203,2013-12-20,7.19,7.24,6.87,7.04,-0.022222,5199215.0,36573276.0,1693430460.0,1693430460.0,0.02161439425153602,11.76,2013-09-30 00:00:00,2013-10-29 00:00:00,20.512400822777845,0.6723587520469809,10114.941881010225,2.692374593919179
sh600203,2013-12-19,7.14,7.26,7.08,7.2,0.008403,6066507.0,43580401.0,1731917520.0,1731917520.0,0.02521993680160935,12.02,2013-09-30 00:00:00,2013-10-29 00:00:00,20.978586982707576,0.6876394764936222,10344.824572663965,2.7535642997890926
sh600203,2013-12-18,7.03,7.18,6.94,7.14,0.018545,4607145.0,32772015.0,1717484870.0,1717484870.0,0.01915301606121281,11.92,2013-09-30 00:00:00,2013-10-29 00:00:00,20.80377287920363,0.6819093918737076,10258.621377231095,2.7306189090959596
sh600203,2013-12-17,6.92,7.04,6.86,7.01,0.018895,2523976.0,17589535.0,1686214140.0,1686214140.0,0.010492778669262019,11.71,2013-09-30 00:00:00,2013-10-29 00:00:00,20.42499141344136,0.6694936324597417,10071.839120737026,2.6809015891256247
sh600203,2013-12-16,7.01,7.07,6.86,6.88,-0.018545,2133973.0,14771387.0,1654943410.0,1654943410.0,0.008871441857942442,11.49,2013-09-30 00:00:00,2013-10-29 00:00:00,20.046218122025685,0.6570781409858147,9885.060895123663,2.631185342086893
sh600203,2013-12-13,6.89,7.04,6.86,7.01,0.005739,1814120.0,12676020.0,1686214140.0,1686214140.0,0.0075417355947448046,11.71,2013-09-30 00:00:00,2013-10-29 00:00:00,20.424999742245628,0.6694939054626189,10071.843227782898,2.6809026823307156
sh600203,2013-12-12,6.97,7.05,6.92,6.97,-0.001433,2996343.0,20910950.0,1676592380.0,1676592380.0,0.012456522503102394,11.64,2013-09-30 00:00:00,2013-10-29 00:00:00,20.308449550276595,0.6656736046455581,10014.370754025545,2.6656047765182778
sh600203,2013-12-11,7.18,7.18,6.94,6.98,-0.027855,3112824.0,21923218.0,1678997820.0,1678997820.0,0.012940762198249908,11.66,2013-09-30 00:00:00,2013-10-29 00:00:00,20.33759332150631,0.6666288838360953,10028.741941227325,2.669430069808313
sh600203,2013-12-10,7.17,7.21,7.09,7.18,0.002793,3151757.0,22586433.0,1727106640.0,1727106640.0,0.013102616095552732,11.99,2013-09-30 00:00:00,2013-10-29 00:00:00,20.920329088259788,0.6857298899198117,10316.096818095371,2.745917604686866
sh600203,2013-12-09,7.16,7.23,7.1,7.16,0.002801,2859503.0,20490987.0,1722295760.0,1722295760.0,0.011887645522624987,11.96,2013-09-30 00:00:00,2013-10-29 00:00:00,20.862061350906703,0.6838199807136782,10287.364209857238,2.738269617644783
sh600203,2013-12-06,7.27,7.27,7.08,7.14,-0.017882,4162092.0,29787348.0,1717484870.0,1717484870.0,0.017302823098523133,11.92,2013-09-30 00:00:00,2013-10-29 00:00:00,20.80378993529793,0.6819099509410922,10258.62978782155,2.730621147809768
sh600203,2013-12-05,7.21,7.35,7.21,7.27,-0.001374,4308104.0,31282104.0,1748755610.0,1748755610.0,0.017909830224933487,12.14,2013-09-30 00:00:00,2013-10-29 00:00:00,21.1825767731555,0.6943258864424562,10445.414693368362,2.780339172899558
sh600203,2013-12-04,7.16,7.42,7.1,7.28,0.01676,9921132.0,72428092.0,1751161050.0,1751161050.0,0.04124454513192833,12.16,2013-09-30 00:00:00,2013-10-29 00:00:00,21.211721678742087,0.6952812028151241,10459.786439936834,2.7841646150806785
sh600203,2013-12-03,6.76,7.21,6.76,7.16,0.051395,7412507.0,52524241.0,1722295760.0,1722295760.0,0.030815584264110362,11.96,2013-09-30 00:00:00,2013-10-29 00:00:00,20.862073329735715,0.6838203733576499,10287.370116779608,2.7382711899373287
sh600203,2013-12-02,7.07,7.18,6.78,6.81,-0.06456,8197520.0,57393596.0,1638105320.0,1638105320.0,0.03407907325519216,11.37,2013-09-30 00:00:00,2013-10-29 00:00:00,19.8422793809517,0.6503934043415175,9784.495947555017,2.604417169510344
sh600203,2013-11-29,7.02,7.3,7.02,7.28,0.034091,9438780.0,67642801.0,1751161050.0,1751161050.0,0.039239291211964775,12.16,2013-09-30 00:00:00,2013-10-29 00:00:00,21.211707197630737,0.6952807281509421,10459.779299105248,2.7841627143486956
sh600203,2013-11-28,7.13,7.13,7.02,7.04,-0.008451,5447447.0,38515125.0,1693430460.0,1693430460.0,0.022646354713614873,11.76,2013-09-30 00:00:00,2013-10-29 00:00:00,20.512418343869864,0.672359326356135,10114.950520897337,2.6923768936667036
sh600203,2013-11-27,7.02,7.14,6.98,7.1,0.014286000000000002,4947000.0,34921818.0,1707863110.0,1707863110.0,0.02056587544653974,11.86,2013-09-30 00:00:00,2013-10-29 00:00:00,20.68724626203029,0.6780898637950673,10201.160528523895,2.715324097615654
sh600203,2013-11-26,6.95,7.06,6.89,7.0,0.0057469999999999995,4272440.0,29864565.0,1683808700.0,1683808700.0,0.017761566382214322,11.69,2013-09-30 00:00:00,2013-10-29 00:00:00,20.39587085105216,0.6685391140122878,10057.479378127959,2.6770793421339287
sh600203,2013-11-25,6.91,7.05,6.85,6.96,0.001439,4471956.0,31232262.0,1674186940.0,1674186940.0,0.01859100260332935,11.62,2013-09-30 00:00:00,2013-10-29 00:00:00,20.279325567018503,0.6647189740683171,10000.009324539828,2.6617820805171966
sh600203,2013-11-22,7.16,7.22,6.93,6.95,-0.030683,7988053.0,56056619.0,1671781500.0,1671781500.0,0.033208268155856493,11.61,2013-09-30 00:00:00,2013-10-29 00:00:00,20.250185550012038,0.6637638179343098,9985.63998859624,2.6579572799912894
sh600203,2013-11-21,7.16,7.42,7.15,7.17,-0.008298999999999999,9729928.0,70649276.0,1724701200.0,1724701200.0,0.04044966383742297,11.97,2013-09-30 00:00:00,2013-10-29 00:00:00,20.891189930654303,0.6847747619553869,10301.727905934013,2.742092916962448
sh600203,2013-11-20,7.18,7.33,7.08,7.23,-0.00823,10916495.0,78306837.0,1739133840.0,1739133840.0,0.04538250997979546,12.07,2013-09-30 00:00:00,2013-10-29 00:00:00,21.066016804111626,0.6905052651508741,10387.937398403363,2.765039983787904
sh600203,2013-11-19,7.58,7.62,7.15,7.29,0.029661,25255399.0,185505378.0,1753566490.0,1753566490.0,0.10499280167585776,12.17,2013-09-30 00:00:00,2013-10-29 00:00:00,21.240828825344206,0.6962352815177651,10474.139567040102,2.787985101170537
sh600203,2013-11-18,7.08,7.08,7.0,7.08,0.099379,8978979.0,63554241.0,1703052230.0,1703052230.0,0.037327787251715705,11.82,2013-09-30 00:00:00,2013-10-29 00:00:00,20.628953437436408,0.6761791322753462,10172.415549428504,2.707672817724025
sh600203,2013-11-15,6.3,6.49,6.3,6.44,0.022222,3546160.0,22809266.0,1549104000.0,1549104000.0,0.014742244807320878,10.75,2013-09-30 00:00:00,2013-10-29 00:00:00,18.764187270664994,0.6150555288716142,9252.874167533222,2.4629111686907112
sh600203,2013-11-14,6.18,6.32,6.18,6.3,0.012862,1332369.0,8347875.0,1515427830.0,1515427830.0,0.005538980170372086,10.52,2013-09-30 00:00:00,2013-10-29 00:00:00,18.3562741465797,0.6016848873059024,9051.72669687526,2.40937014532138
sh600203,2013-11-13,6.27,6.32,6.21,6.22,-0.011129,1374163.0,8594038.0,1496184300.0,1496184300.0,0.00571272794401064,10.39,2013-09-30 00:00:00,2013-10-29 00:00:00,18.123173884082632,0.5940442896523934,8936.781809244754,2.378774349636357
sh600203,2013-11-12,6.26,6.31,6.22,6.29,0.009631,1751933.0,10993284.0,1513022390.0,1513022390.0,0.007283209186349186,10.5,2013-09-30 00:00:00,2013-10-29 00:00:00,18.327136587161146,0.6007298117271043,9037.35857280146,2.405545667368501
sh600203,2013-11-11,6.23,6.27,6.15,6.23,0.008091,1346294.0,8366016.0,1498589740.0,1498589740.0,0.0055968697743786775,10.4,2013-09-30 00:00:00,2013-10-29 00:00:00,18.1523116734343,0.5949993727679759,8951.150046701678,2.3825988577693247
sh600203,2013-11-08,6.35,6.35,6.16,6.18,-0.025237,2231830.0,13893859.0,1486562540.0,1486562540.0,0.0092782570721848,10.32,2013-09-30 00:00:00,2013-10-29 00:00:00,18.006620110123293,0.590223871424282,8879.307569159606,2.3634759736663895
sh600203,2013-11-07,6.43,6.44,6.31,6.34,-0.020093,1682990.0,10728490.0,1525049590.0,1525049590.0,0.006996596484446122,10.59,2013-09-30 00:00:00,2013-10-29 00:00:00,18.472818633989277,0.6055050011380017,9109.196357637298,2.424667302376464
sh600203,2013-11-06,6.49,6.57,6.44,6.47,-0.003082,2231830.0,14512928.0,1556320330.0,1556320330.0,0.009278257066782645,10.8,2013-09-30 00:00:00,2013-10-29 00:00:00,18.85160391138065,0.6179208854901554,9295.980493697156,2.4743851226457863
sh600203,2013-11-05,6.46,6.5,6.34,6.49,0.004644,1657395.0,10641944.0,1561131210.0,1561131210.0,0.006890191856455167,10.84,2013-09-30 00:00:00,2013-10-29 00:00:00,18.90988417440617,0.6198312052647815,9324.719278513534,2.482034753756865
sh600203,2013-11-04,6.42,6.49,6.41,6.46,0.004666,1252672.0,8079430.0,1553914890.0,1553914890.0,0.005207660453012327,10.79,2013-09-30 00:00:00,2013-10-29 00:00:00,18.822472611597913,0.6169660150907003,9281.615456334317,2.4705614663073336
sh600203,2013-11-01,6.37,6.47,6.37,6.43,0.00312,1044995.0,6720469.0,1546698560.0,1546698560.0,0.0043442969585489235,10.74,2013-09-30 00:00:00,2013-10-29 00:00:00,18.735054845687927,0.6141006215903596,9238.508575321865,2.459087364663812
sh600203,2013-10-31,6.41,6.49,6.32,6.41,-0.0031100000000000004,1843773.0,11841950.0,1541887680.0,1541887680.0,0.007665010287908909,10.7,2013-09-30 00:00:00,2013-10-29 00:00:00,18.67678328184856,0.6121905869590474,9209.774080191668,2.4514388753726495
sh600203,2013-10-30,6.39,6.45,6.28,6.43,0.007837,2197916.0,14052131.0,1546698560.0,1546698560.0,0.0091372684021895,10.74,2013-09-30 00:00:00,2013-10-29 00:00:00,18.735049285125303,0.6141004393253492,9238.505833333333,2.4590866348068987
sh600203,2013-10-29,6.68,6.72,6.22,6.38,-0.044910000000000005,4685299.0,30238023.0,1534671360.0,1534671360.0,0.019477921070997245,10.65,2013-09-30 00:00:00,2013-10-29 00:00:00,18.589364436040054,0.6093251580616202,9166.666666666666,2.439964631986024
sh600203,2013-10-28,6.67,6.74,6.65,6.68,0.004511,1226946.0,8199970.0,1606834590.0,1606834590.0,0.005100711256159852,11.15,2013-06-30 00:00:00,2013-08-09 00:00:00,29.654875086614037,0.5772059775971862,49.39986431495015,2.9081388524691563
sh600203,2013-10-25,6.78,6.82,6.59,6.65,-0.019174,2355987.0,15743815.0,1599618270.0,1599618270.0,0.009794407730789422,11.1,2013-06-30 00:00:00,2013-08-09 00:00:00,29.521702685798402,0.5746138943199091,49.178022256550854,2.8950791504216045
sh600203,2013-10-24,6.87,6.87,6.72,6.78,-0.010218999999999999,2423543.0,16459718.0,1630889000.0,1630889000.0,0.01007525437966655,11.32,2013-06-30 00:00:00,2013-08-09 00:00:00,30.098817410833732,0.5858469232258414,50.139395016599124,2.9516745584044517
sh600203,2013-10-23,7.03,7.1,6.78,6.85,-0.022825,4330076.0,29950035.0,1647727090.0,1647727090.0,0.018001173119026645,11.44,2013-06-30 00:00:00,2013-08-09 00:00:00,30.409572835641143,0.5918955033748287,50.65705950770839,2.9821491404709235
sh600203,2013-10-22,7.19,7.21,6.97,7.01,-0.023677,6633870.0,47028162.0,1686214140.0,1686214140.0,0.027578602027379513,11.71,2013-06-30 00:00:00,2013-08-09 00:00:00,31.119884192331103,0.6057210871899391,51.8403146905195,3.0518066267259436
sh600203,2013-10-21,7.06,7.21,7.01,7.18,0.014124000000000001,7315316.0,52269620.0,1727106640.0,1727106640.0,0.030411537807532252,11.99,2013-06-30 00:00:00,2013-08-09 00:00:00,31.87457858959699,0.6204105477285069,53.09750429982649,3.1258165860334577
sh600203,2013-10-18,6.92,7.15,6.92,7.08,0.015782,6464168.0,45558405.0,1703052230.0,1703052230.0,0.026873109722536224,11.82,2013-06-30 00:00:00,2013-08-09 00:00:00,31.430652059902922,0.6117699095263567,52.35799990911022,3.0822824290061743
sh600203,2013-10-17,6.91,7.01,6.86,6.97,0.008683,2306627.0,16002104.0,1676592380.0,1676592380.0,0.00958920628638429,11.64,2013-06-30 00:00:00,2013-08-09 00:00:00,30.942320359981686,0.6022649638666137,51.54452422774789,3.034393628757129
sh600203,2013-10-16,6.98,6.98,6.75,6.91,-0.012856999999999999,3258101.0,22338037.0,1662159730.0,1662159730.0,0.013544713846484539,11.54,2013-06-30 00:00:00,2013-08-09 00:00:00,30.675960990699448,0.5970805137655871,51.10081584377639,3.0082727960688636
sh600203,2013-10-15,7.05,7.1,6.92,7.0,-0.009901,3487426.0,24402370.0,1683808700.0,1683808700.0,0.014498073326263251,11.69,2013-06-30 00:00:00,2013-08-09 00:00:00,31.07549867719211,0.604857162301295,51.76637614183193,3.0474539110026244
sh600203,2013-10-14,6.95,7.08,6.93,7.07,0.012894,5795605.0,40594402.0,1700646790.0,1700646790.0,0.024093731626659527,11.81,2013-06-30 00:00:00,2013-08-09 00:00:00,31.38625397782657,0.6109057400333653,52.284040426090655,3.0779284808919356
sh600203,2013-10-11,6.86,7.06,6.86,6.98,0.017493,5508164.0,38479086.0,1678997820.0,1678997820.0,0.02289876988643142,11.66,2013-06-30 00:00:00,2013-08-09 00:00:00,30.986711322040183,0.6031289947747398,51.618471850056025,3.0387468786387672
sh600203,2013-10-10,6.92,6.93,6.83,6.86,-0.008671,2538797.0,17472238.0,1650132530.0,1650132530.0,0.010554393118957542,11.45,2013-06-30 00:00:00,2013-08-09 00:00:00,30.453979852480742,0.5927598467751031,50.73103387448959,2.9865039647828215
sh600203,2013-10-09,6.79,6.92,6.73,6.92,0.023669,3122241.0,21369744.0,1664565170.0,1664565170.0,0.012979910975789552,11.56,2013-06-30 00:00:00,2013-08-09 00:00:00,30.720356059875925,0.597944624615141,51.17477030782877,3.01262644871967
sh600203,2013-10-08,6.73,6.85,6.68,6.76,0.004458,2334882.0,15867183.0,1626078120.0,1626078120.0,0.009706669148220258,11.29,2013-06-30 00:00:00,2013-08-09 00:00:00,30.0100482283589,0.5841191094144113,49.991520997342676,2.9429693081647192
sh600203,2013-09-30,6.73,6.77,6.63,6.73,0.004478,1817598.0,12148892.0,1618861790.0,1618861790.0,0.00755619449143957,11.24,2013-06-30 00:00:00,2013-08-09 00:00:00,29.876857198965908,0.5815266635483128,49.76964790697338,2.9299077792846684
sh600203,2013-09-27,6.6,6.74,6.5,6.7,0.007519,1463762.0,9792322.0,1611645470.0,1611645470.0,0.006085212649156641,11.19,2013-06-30 00:00:00,2013-08-09 00:00:00,29.743665066796794,0.5789341962176503,49.547772979570865,2.91684614225963
sh600203,2013-09-26,6.97,6.99,6.63,6.65,-0.040404,3373104.0,22846183.0,1599618270.0,1599618270.0,0.014022809079318656,11.1,2013-06-30 00:00:00,2013-08-09 00:00:00,29.521691468644057,0.5746136759878971,49.1780035707226,2.8950780503986815
sh600203,2013-09-25,7.0,7.03,6.92,6.93,-0.01,2631759.0,18297814.0,1666970610.0,1666970610.0,0.010940858681365713,11.57,2013-06-30 00:00:00,2013-08-09 00:00:00,30.76470876144133,0.5988079108165282,51.24865419480969,3.016975946542797
sh600203,2013-09-24,6.98,7.04,6.91,7.0,-0.0014269999999999999,3402257.0,23739319.0,1683808700.0,1683808700.0,0.01414400519488942,11.69,2013-06-30 00:00:00,2013-08-09 00:00:00,31.07546339539529,0.6048564755722508,51.76631736849464,3.0474504510533307
sh600203,2013-09-23,6.9,7.03,6.88,7.01,0.010086,4859853.0,33908550.0,1686214140.0,1686214140.0,0.0202035843027624,11.71,2013-06-30 00:00:00,2013-08-09 00:00:00,31.119871451957234,0.6057208392098032,51.840293467272446,3.051805377326776
sh600203,2013-09-18,6.85,6.95,6.76,6.94,0.017595,3651089.0,25054236.0,1669376050.0,1669376050.0,0.01517846003601166,11.59,2013-06-30 00:00:00,2013-08-09 00:00:00,30.8091305611178,0.5996725419516785,51.32265318722608,3.0213322205503057
sh600203,2013-09-17,6.81,6.89,6.78,6.82,0.001468,3134387.0,21446106.0,1640510760.0,1640510760.0,0.013030404835625706,11.39,2013-06-30 00:00:00,2013-08-09 00:00:00,30.27641700393359,0.5893037426006207,50.435245050561456,2.9690910632916885
sh600203,2013-09-16,6.78,6.83,6.7,6.81,0.0,1977764.0,13426147.0,1638105320.0,1638105320.0,0.00822204328107548,11.37,2013-06-30 00:00:00,2013-08-09 00:00:00,30.232036374535767,0.5884399128086175,50.361314640668944,2.9647388266941013
sh600203,2013-09-13,6.85,6.85,6.73,6.81,-0.004386,2998949.0,20341807.0,1638105320.0,1638105320.0,0.012467356305271017,11.37,2013-06-30 00:00:00,2013-08-09 00:00:00,30.232036374535767,0.5884399128086175,50.361314640668944,2.9647388266941013
sh600203,2013-09-12,6.86,6.95,6.8,6.84,0.002933,3474952.0,23826302.0,1645321640.0,1645321640.0,0.014446215926510271,11.42,2013-06-30 00:00:00,2013-08-09 00:00:00,30.365218221655947,0.5910321799498777,50.583172434968716,2.977799455104188
sh600203,2013-09-11,7.13,7.13,6.8,6.82,-0.028489999999999998,5612270.0,38810977.0,1640510760.0,1640510760.0,0.02333156376249553,11.39,2013-06-30 00:00:00,2013-08-09 00:00:00,30.276417489160245,0.5893037520451293,50.43524585886467,2.969091110875989
sh600203,2013-09-10,6.83,7.04,6.78,7.02,0.029325999999999998,6888895.0,47508781.0,1688619580.0,1688619580.0,0.028638802648492327,11.72,2013-06-30 00:00:00,2013-08-09 00:00:00,31.164288055872035,0.6065853692140373,51.91428380445355,3.056161141806043
sh600203,2013-09-09,6.79,6.84,6.74,6.82,0.004418,4396810.0,29847241.0,1640510760.0,1640510760.0,0.018278602573749653,11.39,2013-06-30 00:00:00,2013-08-09 00:00:00,30.276402282534434,0.5893034560615755,50.43522052727081,2.9690896196210366
sh600203,2013-09-06,6.84,6.84,6.74,6.79,-0.00731,3486054.0,23666298.0,1633294440.0,1633294440.0,0.014492369581567913,11.34,2013-06-30 00:00:00,2013-08-09 00:00:00,30.14322949462717,0.5867113652499014,50.21337782404418,2.9560298796129065
sh600203,2013-09-05,6.8,6.84,6.7,6.84,0.002933,4285815.0,29033211.0,1645321640.0,1645321640.0,0.01781716953531347,11.42,2013-06-30 00:00:00,2013-08-09 00:00:00,30.365199100048528,0.5910318077646611,50.583140581696384,2.977797579922138
sh600203,2013-09-04,6.98,6.99,6.73,6.82,-0.022923,4718269.0,32268945.0,1640510760.0,1640510760.0,0.019614985384186084,11.39,2013-06-30 00:00:00,2013-08-09 00:00:00,30.276398423472475,0.5893033809483396,50.43521409874476,2.969089241177763
sh600203,2013-09-03,6.87,6.99,6.81,6.98,0.014535,3930202.0,27167930.0,1678997820.0,1678997820.0,0.016338800225482127,11.66,2013-06-30 00:00:00,2013-08-09 00:00:00,30.986706701183714,0.6031289048338458,51.61846415251281,3.0387464254892533
sh600203,2013-09-02,7.01,7.05,6.83,6.88,-0.022727,4369780.0,30204243.0,1654943410.0,1654943410.0,0.018166232282226497,11.49,2013-06-30 00:00:00,2013-08-09 00:00:00,30.542767574488522,0.5944880214421837,50.87893877738354,2.9952110331228132
sh600203,2013-08-30,7.15,7.23,7.0,7.04,-0.022222,6100263.0,43409342.0,1693430460.0,1693430460.0,0.025360268717500214,11.76,2013-06-30 00:00:00,2013-08-09 00:00:00,31.253055773042465,0.6083131545046101,52.06215538276771,3.0648662483490425
sh600203,2013-08-29,7.0,7.2,6.97,7.2,0.024182,5035917.0,35717327.0,1731917520.0,1731917520.0,0.020935524920378427,12.02,2013-06-30 00:00:00,2013-08-09 00:00:00,31.963345230760417,0.6221383120755529,53.245374085700135,3.134521587056614
sh600203,2013-08-28,7.17,7.17,7.01,7.03,-0.023611,5585179.0,39456765.0,1691025020.0,1691025020.0,0.023218939936205087,11.74,2013-06-30 00:00:00,2013-08-09 00:00:00,31.208657475683438,0.6074489808213315,51.988195541124654,3.0605122791228645
sh600203,2013-08-27,7.33,7.37,7.1,7.2,-0.009629,5740751.0,41123338.0,1731917520.0,1731917520.0,0.02386569032456003,12.02,2013-06-30 00:00:00,2013-08-09 00:00:00,31.9633439906466,0.6221382879378317,53.24537201988619,3.1345214654434503
sh600203,2013-08-26,7.3,7.47,7.19,7.27,0.002759,6707488.0,48789670.0,1748755610.0,1748755610.0,0.027884649793918314,12.14,2013-06-30 00:00:00,2013-08-09 00:00:00,32.274111409407794,0.6281871015385464,53.76305649083646,3.16499722371056
sh600203,2013-08-23,7.17,7.35,7.06,7.25,0.011158,9197292.0,66528815.0,1743944730.0,1743944730.0,0.038235367126571725,12.11,2013-06-30 00:00:00,2013-08-09 00:00:00,32.1853121332322,0.6264587019797841,53.61513234070845,3.1562890222980395
sh600203,2013-08-22,7.21,7.31,7.12,7.17,-0.012397,6051548.0,43484282.0,1724701200.0,1724701200.0,0.0251577485769709,11.97,2013-06-30 00:00:00,2013-08-09 00:00:00,31.83015130497133,0.6195458098336601,53.02349617043869,3.1214597741382053
sh600203,2013-08-21,7.23,7.38,7.11,7.26,-0.006840000000000001,9566853.0,69227895.0,1746350170.0,1746350170.0,0.039771721601515916,12.12,2013-06-30 00:00:00,2013-08-09 00:00:00,32.22970293222208,0.6273227297139236,53.689079691372626,3.160642256188169
sh600203,2013-08-20,6.84,7.42,6.84,7.31,0.068713,15698825.0,112204740.0,1758377370.0,1758377370.0,0.06526381236924131,12.21,2013-06-30 00:00:00,2013-08-09 00:00:00,32.45167237124137,0.6316431689898139,54.058842171827926,3.1824099401789936
sh600203,2013-08-19,6.62,6.85,6.62,6.84,0.022422,4012227.0,27153558.0,1645321640.0,1645321640.0,0.0166797980484837,11.42,2013-06-30 00:00:00,2013-08-09 00:00:00,30.36518913051621,0.5910316137165113,50.58312397418945,2.97779660224868
sh600203,2013-08-16,6.98,7.03,6.67,6.69,-0.052408,7683497.0,52754031.0,1609240030.0,1609240030.0,0.03194215528556048,11.17,2013-06-30 00:00:00,2013-08-09 00:00:00,29.69927205255385,0.5780701253655646,49.473821938680366,2.912492691128204
sh600203,2013-08-15,6.95,7.19,6.93,7.06,0.010014,11629324.0,81887360.0,1698241350.0,1698241350.0,0.048345912340433825,11.79,2013-06-30 00:00:00,2013-08-09 00:00:00,31.341834937983705,0.6100411626159409,52.210046031077056,3.0735724775306292
sh600203,2013-08-14,6.77,7.02,6.71,6.99,0.040179,9770064.0,67177222.0,1681403260.0,1681403260.0,0.04061651894263604,11.67,2013-06-30 00:00:00,2013-08-09 00:00:00,31.031089606662587,0.6039927789277583,51.69239835396049,3.043098885293302
sh600203,2013-08-13,6.74,6.77,6.69,6.72,-0.007386,3630296.0,24415088.0,1616456350.0,1616456350.0,0.015092018488467071,11.22,2013-06-30 00:00:00,2013-08-09 00:00:00,29.832451536382287,0.5806623465074361,49.69567579614711,2.9255530877794134
sh600203,2013-08-12,6.67,6.79,6.67,6.77,0.010448,4547713.0,30608204.0,1628483560.0,1628483560.0,0.018905942783972594,11.3,2013-06-30 00:00:00,2013-08-09 00:00:00,30.05443358282503,0.5849830311756998,50.0654592783772,2.9473220081314726
sh600203,2013-08-09,6.83,6.83,6.6,6.7,-0.028986,6136311.0,41220587.0,1611645470.0,1611645470.0,0.02551012891191262,11.19,2013-06-30 00:00:00,2013-08-09 00:00:00,29.74367170089409,0.5789343253445005,49.54778403082316,2.9168467928398814
sh600203,2013-08-08,6.7,6.98,6.59,6.9,0.022222,7070621.0,48191386.0,1659754290.0,1659754290.0,0.029394281547541593,11.52,2013-03-31 00:00:00,2013-04-27 00:00:00,28.304562602092027,0.5675967044462211,-49.85241852570496,3.730629855411735
sh600203,2013-08-07,6.8,6.85,6.7,6.75,-0.010264,4315431.0,29181412.0,1623672680.0,1623672680.0,0.017940290311468442,11.27,2013-03-31 00:00:00,2013-04-27 00:00:00,27.689252043188297,0.5552577663621221,-48.76868089877244,3.649529999757132
sh600203,2013-08-06,6.77,6.84,6.71,6.82,0.004418,5448582.0,36930993.0,1640510760.0,1640510760.0,0.02265107315724037,11.39,2013-03-31 00:00:00,2013-04-27 00:00:00,27.97640183158772,0.5610160349447956,-49.274433686126855,3.6873772397458846
sh600203,2013-08-05,6.76,6.94,6.72,6.79,0.004438,7417689.0,50502339.0,1633294440.0,1633294440.0,0.030837127144080646,11.34,2013-03-31 00:00:00,2013-04-27 00:00:00,27.85334575006393,0.5585483682538499,-49.05769678174509,3.6711580634216867
sh600203,2013-08-02,6.45,7.11,6.42,6.76,0.044822,10947160.0,74232285.0,1626078120.0,1626078120.0,0.04550999161098115,11.29,2013-03-31 00:00:00,2013-04-27 00:00:00,27.730278772869934,0.5560804830699854,-48.840940686976296,3.6549374510140864
sh600203,2013-08-01,6.33,6.48,6.32,6.47,0.018897999999999998,3582223.0,22969567.0,1556320330.0,1556320330.0,0.01489216735349078,10.8,2013-03-31 00:00:00,2013-04-27 00:00:00,26.54067273934693,0.5322250900823159,-46.74570471044475,3.498143656062073
sh600203,2013-07-31,6.4,6.45,6.32,6.35,-0.0047020000000000005,2629225.0,16789065.0,1527455040.0,1527455040.0,0.010930324175040857,10.6,2013-03-31 00:00:00,2013-04-27 00:00:00,26.0484098892597,0.5223536507896922,-45.878689241165205,3.433261873182666
sh600203,2013-07-30,6.24,6.43,6.15,6.38,0.022436,3616030.0,23014709.0,1534671360.0,1534671360.0,0.015032711237929142,10.65,2013-03-31 00:00:00,2013-04-27 00:00:00,26.171468132418326,0.5248213608283069,-46.09542995280328,3.4494813344170954
sh600203,2013-07-29,6.18,6.25,6.12,6.24,0.0,2099166.0,12975593.0,1500995180.0,1500995180.0,0.008726740774743861,10.42,2013-03-31 00:00:00,2013-04-27 00:00:00,25.597170025721248,0.5133048531431864,-45.08392696736352,3.3737870482036
sh600203,2013-07-26,6.22,6.28,6.16,6.24,0.003215,2059608.0,12799198.0,1500995180.0,1500995180.0,0.008562288601086647,10.42,2013-03-31 00:00:00,2013-04-27 00:00:00,25.597170025721248,0.5133048531431864,-45.08392696736352,3.3737870482036
sh600203,2013-07-25,6.4,6.43,6.2,6.22,-0.029641000000000004,2636694.0,16634159.0,1496184300.0,1496184300.0,0.010961374664872502,10.39,2013-03-31 00:00:00,2013-04-27 00:00:00,25.515138854304663,0.5116598666718365,-44.93944664639536,3.362975083310756
sh600203,2013-07-24,6.45,6.48,6.3,6.41,-0.006202,2961599.0,18893268.0,1541887680.0,1541887680.0,0.012312083322437599,10.7,2013-03-31 00:00:00,2013-04-27 00:00:00,26.294535171317687,0.5272892472495606,-46.31218615625285,3.4657019549576553
sh600203,2013-07-23,6.32,6.5,6.28,6.45,0.023809999999999998,3428397.0,21958603.0,1551509450.0,1551509450.0,0.01425267545099387,10.77,2013-03-31 00:00:00,2013-04-27 00:00:00,26.458631604528982,0.5305799038130091,-46.60120684108124,3.4873303779617753
sh600203,2013-07-22,6.17,6.3,6.14,6.3,0.02107,1953144.0,12186148.0,1515427830.0,1515427830.0,0.008119691981636631,10.52,2013-03-31 00:00:00,2013-04-27 00:00:00,25.84330257032943,0.5182405952403365,-45.51743667387624,3.406228087205413
sh600203,2013-07-19,6.22,6.42,6.16,6.17,-0.0128,3156164.0,19926529.0,1484157100.0,1484157100.0,0.013120937049049592,10.3,2013-03-31 00:00:00,2013-04-27 00:00:00,25.310020439665674,0.507546588618152,-44.578174536394414,3.335939834884399
sh600203,2013-07-18,6.28,6.45,6.18,6.25,-0.009509,3020584.0,19072068.0,1503400630.0,1503400630.0,0.012557298183385754,10.44,2013-03-31 00:00:00,2013-04-27 00:00:00,25.63818926222212,0.5141274195888899,-45.15617355793599,3.379193511835899
sh600203,2013-07-17,6.7,6.74,6.29,6.31,-0.065185,6072012.0,39348538.0,1517833270.0,1517833270.0,0.025242822434640662,10.54,2013-03-31 00:00:00,2013-04-27 00:00:00,25.884323292409647,0.5190631914766414,-45.58968588097822,3.4116347466417154
sh600203,2013-07-16,6.7,6.9,6.68,6.75,-0.016035,4904114.0,33108257.0,1623672680.0,1623672680.0,0.02038758790965184,11.27,2013-03-31 00:00:00,2013-04-27 00:00:00,27.689246848210228,0.5552576621862522,-48.76867174893238,3.6495293150427788
sh600203,2013-07-15,6.19,6.96,6.19,6.86,0.037821,7387024.0,49285422.0,1650132530.0,1650132530.0,0.03070964526709864,11.45,2013-03-31 00:00:00,2013-04-27 00:00:00,28.14047943596594,0.5643063139301217,-49.563421208002694,3.7090031810509303
sh600203,2013-06-07,6.74,6.74,6.46,6.61,-0.010479,2207468.0,14517679.0,1589996500.0,1589996500.0,0.009176978364417785,11.04,2013-03-31 00:00:00,2013-04-27 00:00:00,27.11496436858181,0.5437414678736715,-47.75719628722361,3.5738370885257957
sh600203,2013-06-06,6.73,6.77,6.62,6.68,-0.013294,3058612.0,20433687.0,1606834590.0,1606834590.0,0.012715389802506057,11.15,2013-03-31 00:00:00,2013-04-27 00:00:00,27.402111090701265,0.5494996749676575,-48.26294367398328,3.6116839243692613
sh600203,2013-06-05,6.68,6.84,6.68,6.77,0.004451,2642190.0,17848987.0,1628483560.0,1628483560.0,0.010984222831208685,11.3,2013-03-31 00:00:00,2013-04-27 00:00:00,27.771302789991413,0.5569031453823708,-48.91319569758701,3.66034454474713
sh600203,2013-06-04,6.98,7.06,6.66,6.74,-0.042614,4075852.0,27821476.0,1621267230.0,1621267230.0,0.016944302562631824,11.25,2013-03-31 00:00:00,2013-04-27 00:00:00,27.64824047165209,0.5544353536233931,-48.69644780839185,3.644124546391143
sh600203,2013-06-03,7.02,7.13,7.01,7.04,0.002849,4212156.0,29800446.0,1693430460.0,1693430460.0,0.01751095125571321,11.76,2013-03-31 00:00:00,2013-04-27 00:00:00,28.878885289373454,0.5791137050504114,-50.863964804573975,3.806327381423108
sh600203,2013-05-31,7.13,7.19,7.0,7.02,-0.016807,4889780.0,34574756.0,1688619580.0,1688619580.0,0.020327998091790454,11.72,2013-03-31 00:00:00,2013-04-27 00:00:00,28.796843083428758,0.577468497301599,-50.719465048650356,3.795513962144956
sh600203,2013-05-30,6.93,7.22,6.87,7.14,0.030302999999999997,10012196.0,71061820.0,1717484870.0,1717484870.0,0.04162312034807037,11.92,2013-03-31 00:00:00,2013-04-27 00:00:00,29.289105072380256,0.5873399193257062,-51.586479001223935,3.86039563152398
sh600203,2013-05-29,6.95,6.95,6.84,6.93,-0.002878,5574991.0,38479434.0,1666970610.0,1666970610.0,0.023176585956725414,11.57,2013-03-31 00:00:00,2013-04-27 00:00:00,28.427661641653234,0.5700652325827511,-50.069231091459436,3.746854693739589
sh600203,2013-05-28,7.23,7.23,6.79,6.95,-0.032033,9292411.0,64630110.0,1671781500.0,1671781500.0,0.03863079980846779,11.61,2013-03-31 00:00:00,2013-04-27 00:00:00,28.509712594500215,0.5717106157348361,-50.21374625317608,3.7576692658868116
sh600203,2013-05-27,7.14,7.28,7.09,7.18,0.008427,8373383.0,59981064.0,1727106640.0,1727106640.0,0.03481017821806301,11.99,2013-03-31 00:00:00,2013-04-27 00:00:00,29.453186518238958,0.5906302753449612,-51.875473289044024,3.8820220791481646
sh600203,2013-05-24,7.13,7.2,6.95,7.12,0.00565,7413076.0,52526696.0,1712673990.0,1712673990.0,0.030817949842281426,11.89,2013-03-31 00:00:00,2013-04-27 00:00:00,29.2070586351208,0.5856946267255451,-51.44197179274656,3.8495816545453114
sh600203,2013-05-23,7.08,7.27,7.0,7.08,-0.002817,11863765.0,84816354.0,1703052230.0,1703052230.0,0.04932054033363381,11.82,2013-03-31 00:00:00,2013-04-27 00:00:00,29.042965877910607,0.5824040438776364,-51.15295758240597,3.8279537160496315
sh600203,2013-05-22,7.0,7.23,6.93,7.1,0.012838999999999998,14037834.0,99452195.0,1707863110.0,1707863110.0,0.058358671029553416,11.86,2013-03-31 00:00:00,2013-04-27 00:00:00,29.12501103399336,0.5840493107861208,-51.297462534365266,3.838767524165204
sh600203,2013-05-21,6.87,7.09,6.8,7.01,0.013006,13599809.0,94679440.0,1686214140.0,1686214140.0,0.05653769520044471,11.71,2013-03-31 00:00:00,2013-04-27 00:00:00,28.75581512362119,0.5766457559257896,-50.647203093843416,3.7901063487535573
sh600203,2013-05-20,7.21,7.25,6.68,6.92,-0.067385,24999141.0,172456159.0,1664565170.0,1664565170.0,0.10392747537784898,11.56,2013-03-31 00:00:00,2013-04-27 00:00:00,28.386618760028263,0.5692421919769376,-49.996942855070365,3.7414451136059976
sh600203,2013-05-17,7.43,7.7,7.31,7.42,-0.0013460000000000002,7593001.0,56893184.0,1784837220.0,1784837220.0,0.03156594158205643,12.39,2013-03-31 00:00:00,2013-04-27 00:00:00,30.43766051374711,0.6103721170868339,-53.60941316091889,4.011778830070284
sh600203,2013-05-16,7.63,7.66,7.36,7.43,-0.02108,7841756.0,58654950.0,1787242660.0,1787242660.0,0.032600076298536874,12.41,2013-03-31 00:00:00,2013-04-27 00:00:00,30.47868482351957,0.6111947852678044,-53.681668686971555,4.017185962375642
sh600203,2013-05-15,7.45,7.7,7.3,7.59,0.018792,9155986.0,68694228.0,1825729720.0,1825729720.0,0.03806364818336856,12.67,2013-03-31 00:00:00,2013-04-27 00:00:00,31.135010852285756,0.6243562142645,-54.83764627035055,4.103691785207823
sh600203,2013-05-14,7.42,7.6,7.21,7.45,0.0,9253582.0,68190387.0,1792053550.0,1792053550.0,0.038469378272764226,12.44,2013-03-31 00:00:00,2013-04-27 00:00:00,30.560713916369345,0.612839730057264,-53.82614534698991,4.02799765330688
sh600203,2013-05-13,6.98,7.66,6.98,7.45,0.07040199999999999,15452018.0,113811024.0,1792053550.0,1792053550.0,0.06423777576289504,12.44,2013-03-31 00:00:00,2013-04-27 00:00:00,30.560713916369345,0.612839730057264,-53.82614534698991,4.02799765330688
sh600203,2013-05-10,7.02,7.27,6.81,6.96,-0.007133,8768325.0,61418443.0,1674186940.0,1674186940.0,0.03645204758316894,11.62,2013-03-31 00:00:00,2013-04-27 00:00:00,28.550688354813747,0.5725323103443978,-50.285916269765856,3.763069999221676
sh600203,2013-05-09,6.66,7.21,6.58,7.01,0.049401,13047253.0,89950466.0,1686214140.0,1686214140.0,0.054240586269784216,11.71,2013-03-31 00:00:00,2013-04-27 00:00:00,28.755803501187714,0.5766455228589505,-50.64718262341869,3.7901048168804836
sh600203,2013-05-08,6.4,6.79,6.32,6.68,0.04375,7896901.0,51858164.0,1606834590.0,1606834590.0,0.032829327304934354,11.15,2013-03-31 00:00:00,2013-04-27 00:00:00,27.40211177727839,0.5494996887357174,-48.26294488324168,3.611684014862273
sh600203,2013-05-07,6.46,6.54,6.37,6.4,-0.015385,3636574.0,23455968.0,1539482240.0,1539482240.0,0.01511811763414692,10.69,2013-03-31 00:00:00,2013-04-27 00:00:00,26.253520265655943,0.5264667676509868,-46.23994719352496,3.4602960621434953
sh600203,2013-05-06,6.32,6.51,6.3,6.5,0.023622,5964633.0,38237497.0,1563536650.0,1563536650.0,0.024796421945082005,10.85,2013-03-31 00:00:00,2013-04-27 00:00:00,26.66374193533101,0.5346930197599943,-46.96246471313657,3.514364560913144
sh600203,2013-05-03,6.41,6.44,6.28,6.35,0.001577,4901686.0,31168593.0,1527455040.0,1527455040.0,0.020377494122511126,10.6,2013-03-31 00:00:00,2013-04-27 00:00:00,26.04842601598149,0.52235397418187,-45.878717644928074,3.4332639987350246
sh600203,2013-05-02,6.07,6.35,6.03,6.34,0.044481,4517061.0,28249836.0,1525049590.0,1525049590.0,0.018778515090778127,10.59,2013-03-31 00:00:00,2013-04-27 00:00:00,26.00741232674222,0.5215315189764442,-45.806480824667574,3.42785826624915
sh600203,2013-04-26,6.14,6.18,6.05,6.07,0.0,1490297.0,9098916.0,1460102690.0,1460102690.0,0.006195525048995013,10.14,2012-12-31 00:00:00,2013-03-20 00:00:00,33.91666501534182,0.5361514332884003,-47.997071975595766,3.3780217609604573
sh600203,2013-04-25,6.15,6.23,6.06,6.07,-0.019386,2239362.0,13703364.0,1460102690.0,1460102690.0,0.009309569411176142,10.14,2012-12-31 00:00:00,2013-03-20 00:00:00,33.91666501534182,0.5361514332884003,-47.997071975595766,3.3780217609604573
sh600203,2013-04-24,6.04,6.23,6.0,6.19,0.024834000000000002,3044225.0,18737534.0,1488967980.0,1488967980.0,0.012655579571294744,10.34,2012-12-31 00:00:00,2013-03-20 00:00:00,34.587171930384244,0.5467507431959979,-48.945937928273274,3.4448027062233018
sh600203,2013-04-23,6.25,6.26,6.01,6.04,-0.0336,2805361.0,17171150.0,1452886360.0,1452886360.0,0.011662564193940123,10.09,2012-12-31 00:00:00,2013-03-20 00:00:00,33.749048070598995,0.5335017604763288,-47.75986933325132,3.3613274991103945
sh600203,2013-04-22,6.26,6.32,6.1,6.25,-0.015747999999999998,7228237.0,44787833.0,1503400630.0,1503400630.0,0.030049529279497507,10.44,2012-12-31 00:00:00,2013-03-20 00:00:00,34.922442126033715,0.5520506627445454,-49.420394591526595,3.4781948459337686
sh600203,2013-04-19,6.45,6.49,6.31,6.35,0.0,4343316.0,27642770.0,1527455040.0,1527455040.0,0.018056214996678397,10.6,2012-12-31 00:00:00,2013-03-20 00:00:00,35.48120006465186,0.5608834554001876,-50.21111929823521,3.533845850385642
sh600203,2013-04-18,6.27,6.47,6.12,6.35,0.027507999999999998,6669881.0,42356994.0,1527455040.0,1527455040.0,0.027728308356624362,10.6,2012-12-31 00:00:00,2013-03-20 00:00:00,35.48120006465186,0.5608834554001876,-50.21111929823521,3.533845850385642
sh600203,2013-04-17,6.37,6.38,6.12,6.18,-0.0032259999999999997,4424433.0,27628474.0,1486562540.0,1486562540.0,0.01839343801842336,10.32,2012-12-31 00:00:00,2013-03-20 00:00:00,34.53131271450135,0.5458677259935567,-48.8668889178821,3.439239256906653
sh600203,2013-04-16,6.11,6.2,6.03,6.2,0.014730000000000002,4495641.0,27522690.0,1491373420.0,1491373420.0,0.018689466921034438,10.35,2012-12-31 00:00:00,2013-03-20 00:00:00,34.64307126239383,0.5476343945503762,-49.02504370888697,3.4503701510138236
sh600203,2013-04-15,6.09,6.15,5.97,6.11,-0.014516,5038252.0,30527547.0,1469724450.0,1469724450.0,0.02094523209435619,10.2,2012-12-31 00:00:00,2013-03-20 00:00:00,34.14018631793071,0.539684836902798,-48.31338751085212,3.400283968162786
sh600203,2013-04-12,5.89,6.41,5.89,6.2,0.063465,12126182.0,75733664.0,1491373420.0,1491373420.0,0.050411471326879356,10.35,2012-12-31 00:00:00,2013-03-20 00:00:00,34.643065050199404,0.5476342963485942,-49.025034917717704,3.4503695322935592
sh600203,2013-04-11,5.67,5.83,5.67,5.83,0.022807,2123683.0,12248880.0,1402372100.0,1402372100.0,0.008828663868883303,9.73,2012-12-31 00:00:00,2013-03-20 00:00:00,32.57565133803126,0.5149528158882467,-46.09934028643887,3.2444598856507354
sh600203,2013-04-10,5.69,5.77,5.64,5.7,-0.0034969999999999997,1180756.0,6717477.0,1371101370.0,1371101370.0,0.004908688261320897,9.52,2012-12-31 00:00:00,2013-03-20 00:00:00,31.849265147805262,0.5034701716826798,-45.07139693650793,3.1721134932110706
sh600203,2013-04-09,5.68,5.76,5.67,5.72,0.0,1191500.0,6816308.0,1375912250.0,1375912250.0,0.004953353674989084,9.55,2012-12-31 00:00:00,2013-03-20 00:00:00,31.961032879785872,0.505236985420696,-45.22956472434898,3.1832453020322773
sh600203,2013-04-08,5.64,5.72,5.5,5.72,-0.001745,1104598.0,6258632.0,1375912250.0,1375912250.0,0.004592081042958954,9.55,2012-12-31 00:00:00,2013-03-20 00:00:00,31.961032879785872,0.505236985420696,-45.22956472434898,3.1832453020322773
sh600203,2013-04-03,5.79,5.81,5.69,5.73,0.003503,1062624.0,6099956.0,1378317690.0,1378317690.0,0.004417584976363469,9.57,2012-12-31 00:00:00,2013-03-20 00:00:00,32.01690237442924,0.5061201651088107,-45.30862828069879,3.188809775089809
sh600203,2013-04-02,5.88,5.94,5.69,5.71,-0.025596999999999998,1126446.0,6513777.0,1373506810.0,1373506810.0,0.0046829084596966795,9.53,2012-12-31 00:00:00,2013-03-20 00:00:00,31.905138673655433,0.5043534150957305,-45.15046619760857,3.1776783677675193
sh600203,2013-04-01,5.66,5.9,5.66,5.86,0.028069999999999998,1759835.0,10232056.0,1409588430.0,1409588430.0,0.007316059695524033,9.79,2012-12-31 00:00:00,2013-03-20 00:00:00,32.74326810740056,0.5176024859280302,-46.33654268060399,3.261154130033999
sh600203,2013-03-29,5.65,5.77,5.65,5.7,0.005291,1020922.0,5823352.0,1371101370.0,1371101370.0,0.004244219666996613,9.52,2012-12-31 00:00:00,2013-03-20 00:00:00,31.849259396150618,0.5034700807610671,-45.071388797070234,3.172112920359508
sh600203,2013-03-28,5.9,5.9,5.66,5.67,-0.038983,2199289.0,12591098.0,1363885050.0,1363885050.0,0.009142976257419933,9.47,2012-12-31 00:00:00,2013-03-20 00:00:00,31.681631881863677,0.5008202408666417,-44.8341711972655,3.1554176058071826
sh600203,2013-03-27,5.93,6.0,5.83,5.9,-0.005059,1630600.0,9659625.0,1419210190.0,1419210190.0,0.0067787985654189815,9.85,2012-12-31 00:00:00,2013-03-20 00:00:00,32.966775698935265,0.5211356727993799,-46.65283881270102,3.2834149716468928
sh600203,2013-03-26,5.96,6.03,5.82,5.93,-0.011667,1603881.0,9491750.0,1426426510.0,1426426510.0,0.006667721234373301,9.9,2012-12-31 00:00:00,2013-03-20 00:00:00,33.13440264190065,0.5237855036624081,-46.89005560400167,3.3001102292969065
sh600203,2013-03-25,6.04,6.09,5.96,6.0,-0.006623,1590610.0,9545170.0,1443264600.0,1443264600.0,0.006612550463719543,10.02,2012-12-31 00:00:00,2013-03-20 00:00:00,33.52554517748638,0.5299686478771912,-47.44357985011294,3.339067125449526
sh600203,2013-03-22,5.9,6.07,5.85,6.04,0.023729,3391943.0,20337820.0,1452886360.0,1452886360.0,0.014101127441240483,10.09,2012-12-31 00:00:00,2013-03-20 00:00:00,33.74906523654804,0.533502031834028,-47.759893625595254,3.3613292087994044
sh600203,2013-03-21,5.85,5.99,5.8,5.9,0.005111,2041827.0,12083824.0,1419210190.0,1419210190.0,0.008488368660881726,9.85,2012-12-31 00:00:00,2013-03-20 00:00:00,32.96679613115194,0.5211359957899289,-46.6528677272943,3.2834170066486394
sh600203,2013-03-20,5.77,5.88,5.69,5.87,0.015571000000000002,3089931.0,17913782.0,1411993870.0,1411993870.0,0.012845590448632755,9.8,2012-12-31 00:00:00,2013-03-20 00:00:00,32.79915962630191,0.5184860137735323,-46.41563740451979,3.2667207966569256
sh600203,2013-03-19,5.85,5.96,5.69,5.78,-0.015332,1933435.0,11172632.0,1390344900.0,1390344900.0,0.008037756890394607,9.65,2012-09-30 00:00:00,2012-10-29 00:00:00,177.31160679676304,0.5403958498337099,-29.571438298368875,2.932313699710412
sh600203,2013-03-18,5.9,5.97,5.83,5.87,-0.006768000000000001,1374783.0,8104542.0,1411993870.0,1411993870.0,0.0057153054141800205,9.8,2012-09-30 00:00:00,2012-10-29 00:00:00,180.0724780299177,0.5488102079418746,-30.031887192809016,2.9779719658914594
sh600203,2013-03-15,5.89,6.11,5.72,5.91,-0.001689,2510408.0,14951733.0,1421615630.0,1421615630.0,0.010436373212919726,9.87,2012-09-30 00:00:00,2012-10-29 00:00:00,181.2995131348141,0.5525498654311123,-30.236528014410542,2.998264218119693
sh600203,2013-03-14,5.89,6.0,5.86,5.92,-0.006711,1090536.0,6491668.0,1424021070.0,1424021070.0,0.004533621907715172,9.89,2012-09-30 00:00:00,2012-10-29 00:00:00,181.60624608445076,0.5534847010912555,-30.287683912538824,3.003336854066211
sh600203,2013-03-13,5.95,5.98,5.82,5.96,0.0,1482323.0,8738366.0,1433642840.0,1433642840.0,0.006162375197995618,9.95,2012-09-30 00:00:00,2012-10-29 00:00:00,182.8332399578076,0.5572242329183706,-30.492317857681723,3.0236284244225105
sh600203,2013-03-12,6.2,6.29,5.82,5.96,-0.040257999999999995,3932164.0,23736289.0,1433642840.0,1433642840.0,0.01634695670785061,9.95,2012-09-30 00:00:00,2012-10-29 00:00:00,182.8332399578076,0.5572242329183706,-30.492317857681723,3.0236284244225105
sh600203,2013-03-11,6.18,6.23,6.11,6.21,0.006483,2083238.0,12870911.0,1493778860.0,1493778860.0,0.008660524209051935,10.37,2012-09-30 00:00:00,2012-10-29 00:00:00,190.5024891666798,0.5805979449876849,-31.771369657347208,3.150459628131842
sh600203,2013-03-08,6.25,6.38,6.13,6.17,-0.020635,2299370.0,14364547.0,1484157100.0,1484157100.0,0.00955903718009367,10.3,2012-09-30 00:00:00,2012-10-29 00:00:00,189.27541664059882,0.5768581734492136,-31.56672259476535,3.130166757045914
sh600203,2013-03-07,6.35,6.52,6.21,6.3,-0.012539,5610545.0,35897550.0,1515427830.0,1515427830.0,0.023324392491854924,10.52,2012-09-30 00:00:00,2012-10-29 00:00:00,193.26340704497176,0.5890124452570936,-32.23182633110775,3.196118665712899
sh600203,2013-03-06,6.23,6.42,6.13,6.38,0.027375,5701244.0,35861716.0,1534671360.0,1534671360.0,0.023701450139787583,10.65,2012-09-30 00:00:00,2012-10-29 00:00:00,195.71750888893004,0.5964918566475979,-32.6411132501514,3.2367036933234816
sh600203,2013-03-05,6.12,6.22,6.06,6.21,0.026445999999999997,3008100.0,18505863.0,1493778860.0,1493778860.0,0.012505399226228172,10.37,2012-09-30 00:00:00,2012-10-29 00:00:00,190.5025028727875,0.5805979867600417,-31.77137194320613,3.150459854798376
sh600203,2013-03-04,6.25,6.29,5.98,6.05,-0.036624000000000004,3800038.0,23414376.0,1455291810.0,1455291810.0,0.015797676962120744,10.1,2012-09-30 00:00:00,2012-10-29 00:00:00,185.59427663295241,0.565639095247136,-30.952794343985097,3.0692894266219324
sh600203,2013-03-01,6.16,6.32,6.11,6.28,0.019481000000000002,5164587.0,32143723.0,1510616950.0,1510616950.0,0.02147043720117135,10.49,2012-09-30 00:00:00,2012-10-29 00:00:00,192.64988606001438,0.5871426060511534,-32.12950534784456,3.185972482833216
sh600203,2013-02-28,6.02,6.2,6.01,6.16,0.024958,4770354.0,29355364.0,1481751660.0,1481751660.0,0.019831515248648346,10.29,2012-09-30 00:00:00,2012-10-29 00:00:00,188.9685889781314,0.5759230491310318,-31.5155509007471,3.12509255477367
sh600203,2013-02-27,6.0,6.08,5.9,6.01,0.0067,2594001.0,15554554.0,1445670040.0,1445670040.0,0.010783889531251542,10.04,2012-09-30 00:00:00,2012-10-29 00:00:00,184.3671535595911,0.5618991696547875,-30.748138851296442,3.048995719603798
sh600203,2013-02-26,6.07,6.12,5.97,5.97,-0.026101,2819349.0,17008914.0,1436048280.0,1436048280.0,0.011720715636385149,9.97,2012-09-30 00:00:00,2012-10-29 00:00:00,183.1401147904948,0.5581595009981002,-30.543497418591876,3.028703406778383
sh600203,2013-02-25,5.99,6.17,5.97,6.13,0.014901,3148948.0,19153562.0,1474535330.0,1474535330.0,0.013090938444994735,10.24,2012-09-30 00:00:00,2012-10-29 00:00:00,188.04836516979154,0.573118466081288,-31.3620790437118,3.109874234164306
sh600203,2013-02-22,6.18,6.23,5.99,6.04,-0.022654,4698063.0,28527994.0,1452886360.0,1452886360.0,0.019530984185163663,10.09,2012-09-30 00:00:00,2012-10-29 00:00:00,185.2873976573001,0.5647038145408153,-30.901614092125044,3.0642143757512366
sh600203,2013-02-21,6.27,6.42,6.09,6.18,-0.022152,5646556.0,35167033.0,1486562540.0,1486562540.0,0.023474098896639758,10.32,2012-09-30 00:00:00,2012-10-29 00:00:00,189.5821926495838,0.5777931403421258,-31.617885674188102,3.1352401050919907
sh600203,2013-02-20,6.18,6.35,6.08,6.32,0.0112,5179827.0,32242498.0,1520238710.0,1520238710.0,0.02153379362376584,10.55,2012-09-30 00:00:00,2012-10-29 00:00:00,193.87695495576386,0.5908823665253964,-32.33415180497184,3.206265293882066
sh600203,2013-02-19,6.03,6.47,5.93,6.25,0.038206,12146197.0,75870944.0,1503400630.0,1503400630.0,0.050494678354631256,10.44,2012-09-30 00:00:00,2012-10-29 00:00:00,191.72958361922844,0.5843377833518554,-31.976020376752203,3.170752861829574
sh600203,2013-02-18,6.0,6.25,6.0,6.02,0.018613,10066569.0,61568275.0,1448075480.0,1448075480.0,0.04184916202020077,10.05,2012-09-30 00:00:00,2012-10-29 00:00:00,184.67393139630138,0.5628341421180917,-30.799302235541127,3.05406909787612
sh600203,2013-02-08,5.72,5.95,5.69,5.91,0.033217,3802714.0,22192286.0,1421615630.0,1421615630.0,0.01580880180671621,9.87,2012-09-30 00:00:00,2012-10-29 00:00:00,181.2994055606019,0.5525495375752044,-30.236510073542284,2.9982624390972035
sh600203,2013-02-07,5.75,5.75,5.66,5.72,-0.0034840000000000006,1240761.0,7072334.0,1375912250.0,1375912250.0,0.005158143566204894,9.55,2012-09-30 00:00:00,2012-10-29 00:00:00,175.47079225429113,0.5347855654477273,-29.264433389638658,2.9018709904087943
sh600203,2013-02-06,5.72,5.8,5.71,5.74,0.001745,1978064.0,11387780.0,1380723130.0,1380723130.0,0.008223290472435267,9.58,2012-09-30 00:00:00,2012-10-29 00:00:00,176.0842698504501,0.5366552724168275,-29.36674713666279,2.912016455740595
sh600203,2013-02-05,5.57,5.73,5.56,5.73,0.015957,1353696.0,7678480.0,1378317690.0,1378317690.0,0.00562764167961887,9.57,2012-09-30 00:00:00,2012-10-29 00:00:00,175.77753804655882,0.5357204402485937,-29.315591429618102,2.9069438387419897
sh600203,2013-02-04,5.73,5.75,5.56,5.64,-0.015707,1733014.0,9831736.0,1356668720.0,1356668720.0,0.0072045583537888305,9.42,2012-09-30 00:00:00,2012-10-29 00:00:00,173.01671039872636,0.5273062149762182,-28.855149804192607,2.8612862933588628
sh600203,2013-02-01,5.72,5.75,5.64,5.73,0.001748,1931066.0,11006955.0,1378317690.0,1378317690.0,0.008027908413480495,9.57,2012-09-30 00:00:00,2012-10-29 00:00:00,175.77764994643502,0.5357207812879073,-29.315610091906176,2.906945689300709
sh600203,2013-01-31,5.69,5.83,5.68,5.72,0.005272,1882590.0,10796225.0,1375912250.0,1375912250.0,0.007826381951319933,9.55,2012-09-30 00:00:00,2012-10-29 00:00:00,175.47092676644726,0.5347859754029031,-29.264455823127346,2.9018732149210265
sh600203,2013-01-30,5.72,5.74,5.63,5.69,-0.0052450000000000005,1685714.0,9568657.0,1368695930.0,1368695930.0,0.00700792078778228,9.5,2012-09-30 00:00:00,2012-10-29 00:00:00,174.55069549977244,0.5319813696222545,-29.110982722215823,2.8866547709684807
sh600203,2013-01-29,5.68,5.74,5.63,5.72,0.0070420000000000005,2197622.0,12478945.0,1375912250.0,1375912250.0,0.009136046168641932,9.55,2012-09-30 00:00:00,2012-10-29 00:00:00,175.4710411103965,0.5347863238910632,-29.264474893029767,2.9018751058989207
sh600203,2013-01-28,5.57,5.73,5.54,5.68,0.019749,1780217.0,10091052.0,1366290490.0,1366290490.0,0.007400792608898273,9.48,2012-09-30 00:00:00,2012-10-29 00:00:00,174.24401475846736,0.531046693078405,-29.059835531218923,2.881582998424019
sh600203,2013-01-25,5.48,5.63,5.48,5.57,0.020146999999999998,1740429.0,9675618.0,1339830640.0,1339830640.0,0.007235384264685871,9.3,2012-09-30 00:00:00,2012-10-29 00:00:00,170.869512751145,0.5207621611577016,-28.49704734323733,2.8257767337099806
sh600203,2013-01-24,5.69,5.76,5.45,5.46,-0.045455,2741702.0,15446432.0,1313370790.0,1313370790.0,0.011397918268001071,9.12,2012-09-30 00:00:00,2012-10-29 00:00:00,167.49499116416067,0.5104775695637017,-27.934255889825028,2.7699701451947423
sh600203,2013-01-23,5.77,5.77,5.6,5.72,-0.0034840000000000006,2158936.0,12256453.0,1375912250.0,1375912250.0,0.008975219110084963,9.55,2012-09-30 00:00:00,2012-10-29 00:00:00,175.47102668199057,0.5347862799173446,-29.264472486708357,2.901874867287286
sh600203,2013-01-22,5.9,5.9,5.7,5.74,-0.022147,2934526.0,16965175.0,1380723130.0,1380723130.0,0.012199534341110083,9.58,2012-09-30 00:00:00,2012-10-29 00:00:00,176.08450509775113,0.5366559893843598,-29.36678637042291,2.912020346173354
sh600203,2013-01-21,5.88,5.92,5.81,5.87,0.0,2881195.0,16901133.0,1411993870.0,1411993870.0,0.011977824415059252,9.8,2012-09-30 00:00:00,2012-10-29 00:00:00,180.0725723577584,0.548810495426572,-30.031902924491625,2.977973525850362
sh600203,2013-01-18,5.9,5.94,5.75,5.87,-0.0017010000000000003,4534174.0,26448604.0,1411993870.0,1411993870.0,0.018849657881305108,9.8,2012-09-30 00:00:00,2012-10-29 00:00:00,180.0725723577584,0.548810495426572,-30.031902924491625,2.977973525850362
sh600203,2013-01-17,5.8,6.0,5.72,5.88,0.020833,6957523.0,40907952.0,1414399310.0,1414399310.0,0.028924105767557252,9.82,2012-09-30 00:00:00,2012-10-29 00:00:00,180.37939771326867,0.5497456127137982,-30.083074233763256,2.983047689971002
sh600203,2013-01-16,5.75,5.85,5.64,5.76,0.0,3159360.0,18172235.0,1385534020.0,1385534020.0,0.01313422358261546,9.62,2012-09-30 00:00:00,2012-10-29 00:00:00,176.69824321242422,0.5385264903405338,-29.46914356585578,2.922170119863878
sh600203,2013-01-15,5.67,5.81,5.67,5.76,0.015872999999999998,3751753.0,21547861.0,1385534020.0,1385534020.0,0.01559694454849979,9.62,2012-09-30 00:00:00,2012-10-29 00:00:00,176.69824321242422,0.5385264903405338,-29.46914356585578,2.922170119863878
sh600203,2013-01-14,5.5,5.72,5.46,5.67,0.023466,4017633.0,22490404.0,1363885050.0,1363885050.0,0.016702272020651592,9.47,2012-09-30 00:00:00,2012-10-29 00:00:00,173.93733588000094,0.5301120222119633,-29.00868865090004,2.8765112566864928
sh600203,2013-01-11,5.7,5.97,5.5,5.54,-0.017730000000000003,5867797.0,33676579.0,1332614310.0,1332614310.0,0.024393851346230854,9.25,2012-09-30 00:00:00,2012-10-29 00:00:00,169.94930547766214,0.517957628501546,-28.34357824383032,2.810558686547959
sh600203,2013-01-10,5.56,5.74,5.52,5.64,0.014388,3596662.0,20236979.0,1356668720.0,1356668720.0,0.014952193841397034,9.42,2012-09-30 00:00:00,2012-10-29 00:00:00,173.01689502648165,0.5273067776696285,-28.855180595793744,2.861289346664317
sh600203,2013-01-09,5.56,5.66,5.47,5.56,-0.001795,3364140.0,18774898.0,1337425200.0,1337425200.0,0.013985543565352289,9.28,2012-09-30 00:00:00,2012-10-29 00:00:00,170.56283692875076,0.5198274996053073,-28.445900972599972,2.8207050425126448
sh600203,2013-01-08,5.63,5.63,5.5,5.57,-0.010657,3308891.0,18383610.0,1339830640.0,1339830640.0,0.013755860121246369,9.3,2012-09-30 00:00:00,2012-10-29 00:00:00,170.86954776699253,0.520762267876145,-28.49705318306357,2.8257773127891013
sh600203,2013-01-07,5.53,5.63,5.49,5.63,0.018083000000000002,3152148.0,17482884.0,1354263280.0,1354263280.0,0.01310424162131901,9.4,2012-09-30 00:00:00,2012-10-29 00:00:00,172.71011951061718,0.5263718122796088,-28.804017598611978,2.856216006773284
sh600203,2013-01-04,5.52,5.56,5.45,5.53,0.005455,2992634.0,16470232.0,1330208870.0,1330208870.0,0.012441103343417038,9.23,2012-09-30 00:00:00,2012-10-29 00:00:00,169.64247464167178,0.5170224945113598,-28.292406020542504,2.8054844317931678
