code,date,open,high,low,close,change,volume,money,traded_market_value,market_value,turnover,adjust_price,report_type,report_date,PE_TTM,PS_TTM,PC_TTM,PB
sh600358,2014-12-31,7.15,7.4,7.1,7.25,0.013986000000000002,11084166.0,80627105.0,3132000000.0,3132000000.0,0.025657791666666666,25.62,2014-09-30 00:00:00,2014-10-30 00:00:00,-71.86330618097138,34.52990054139766,-35024.16187136946,7.622609925764708
sh600358,2014-12-30,7.35,7.48,7.1,7.15,-0.035088,4671829.0,33803026.0,3088800000.0,3088800000.0,0.010814418981481482,25.27,2014-09-30 00:00:00,2014-10-30 00:00:00,-70.87208914222818,34.05362652087668,-34541.070459917064,7.517470582202031
sh600358,2014-12-29,7.82,7.84,7.11,7.41,-0.032637,11871553.0,87217458.0,3201120000.0,3201120000.0,0.02748044675925926,26.19,2014-09-30 00:00:00,2014-10-30 00:00:00,-73.4492773871899,35.29195047929415,-35797.1197994398,7.790835415252407
sh600358,2014-12-26,7.85,7.97,7.49,7.66,-0.0064849999999999994,12177670.0,93103973.0,3309120000.0,3309120000.0,0.028189050925925926,27.07,2014-09-30 00:00:00,2014-10-30 00:00:00,-75.92731723995016,36.482634212073606,-37004.84699067445,8.053683483090017
sh600358,2014-12-25,7.45,7.95,7.29,7.71,0.032129000000000005,7813411.0,59482465.0,3330720000.0,3330720000.0,0.018086599537037038,27.25,2014-09-30 00:00:00,2014-10-30 00:00:00,-76.42291987534173,36.720768395115925,-37246.389828713654,8.106252530751943
sh600358,2014-12-24,6.99,7.5,6.87,7.47,0.095308,9303289.0,66861026.0,3227040000.0,3227040000.0,0.021535391203703704,26.4,2014-09-30 00:00:00,2014-10-30 00:00:00,-74.04396143829088,35.577692706159716,-36086.95214330152,7.853914123866243
sh600358,2014-12-23,7.3,7.38,6.8,6.82,-0.074627,10183574.0,72155612.0,2946240000.0,2946240000.0,0.023573087962962962,24.1,2014-09-30 00:00:00,2014-10-30 00:00:00,-67.60104138588495,32.48190710390111,-32946.85343602121,7.1705074041879024
sh600358,2014-12-22,8.1,8.17,7.36,7.37,-0.099022,10586863.0,78972998.0,3183840000.0,3183840000.0,0.024506627314814816,26.05,2014-09-30 00:00:00,2014-10-30 00:00:00,-73.0527488762747,35.101420836680035,-35603.86291368044,7.748775255154303
sh600358,2014-12-19,8.1,8.24,7.95,8.18,0.014888,13243562.0,107824043.0,3533760000.0,3533760000.0,0.030656393518518517,28.91,2014-09-30 00:00:00,2014-10-30 00:00:00,-81.08161228828529,38.959242996699174,-39516.90597737174,8.600404510603259
sh600358,2014-12-18,8.02,8.29,7.91,8.06,-0.001239,7306310.0,59103090.0,3481920000.0,3481920000.0,0.01691275462962963,28.49,2014-09-30 00:00:00,2014-10-30 00:00:00,-79.89217754893673,38.38772652420678,-38937.2088125702,8.47424002510943
sh600358,2014-12-17,8.22,8.26,7.91,8.07,-0.018248,6392570.0,51487584.0,3486240000.0,3486240000.0,0.014797615740740741,28.52,2014-09-30 00:00:00,2014-10-30 00:00:00,-79.99128675322397,38.435347920280016,-38985.51186176693,8.484752633622488
sh600358,2014-12-16,8.3,8.31,8.05,8.22,-0.01083,8645254.0,70749432.0,3551040000.0,3551040000.0,0.02001216203703704,29.05,2014-09-30 00:00:00,2014-10-30 00:00:00,-81.47809910570487,39.14975260583122,-39710.142542889575,8.64246024823223
sh600358,2014-12-15,7.77,8.33,7.77,8.31,0.073643,14209678.0,114420793.0,3589920000.0,3589920000.0,0.03289277314814815,29.37,2014-09-30 00:00:00,2014-10-30 00:00:00,-82.37016802542018,39.57838653197249,-40144.91193919102,8.737082855557922
sh600358,2014-12-12,7.6,7.81,7.55,7.74,0.010444,7298727.0,56227837.0,3343680000.0,3343680000.0,0.01689520138888889,27.36,2014-09-30 00:00:00,2014-10-30 00:00:00,-76.72025806103164,36.863637663518034,-37391.30412920405,8.137791477761159
sh600358,2014-12-11,7.36,7.69,7.11,7.66,0.040761,15354330.0,114044745.0,3309120000.0,3309120000.0,0.03554243055555555,27.07,2014-09-30 00:00:00,2014-10-30 00:00:00,-75.9272736153925,36.48261325072745,-37004.82572928738,8.053678855791278
sh600358,2014-12-10,7.11,7.59,6.9,7.36,-0.0013570000000000001,18225113.0,132371588.0,3179520000.0,3179520000.0,0.04218776157407408,26.01,2014-09-30 00:00:00,2014-10-30 00:00:00,-72.95361145872347,35.05378588429759,-35555.546114129356,7.738259654033229
sh600358,2014-12-09,8.19,8.2,7.37,7.37,-0.100122,17208850.0,130151088.0,3183840000.0,3183840000.0,0.03983530092592592,26.05,2014-09-30 00:00:00,2014-10-30 00:00:00,-73.05274403237541,35.101418509214604,-35603.86055289965,7.748774741357251
sh600358,2014-12-08,8.36,8.45,8.05,8.19,-0.025,8507518.0,69525982.0,3538080000.0,3538080000.0,0.019693328703703702,28.95,2014-09-30 00:00:00,2014-10-30 00:00:00,-81.18072008914034,39.0068637184314,-39565.20834257494,8.610916970252914
sh600358,2014-12-05,8.51,8.57,8.08,8.4,-0.023256,10700371.0,88357775.0,3628800000.0,3628800000.0,0.024769377314814815,29.69,2014-09-30 00:00:00,2014-10-30 00:00:00,-83.26227701450289,40.007039711211675,-40579.70086417942,8.831709713079912
sh600358,2014-12-04,8.26,8.67,8.22,8.6,0.038647,7218153.0,61388188.0,3715200000.0,3715200000.0,0.0167086875,30.4,2014-09-30 00:00:00,2014-10-30 00:00:00,-85.244728418606,40.95959607759217,-41545.89213159172,9.041990238056146
sh600358,2014-12-03,8.49,8.58,8.08,8.28,-0.022432,10585880.0,87391701.0,3576960000.0,3576960000.0,0.02450435185185185,29.26,2014-09-30 00:00:00,2014-10-30 00:00:00,-82.07285865034606,39.43553110690365,-40000.011680187505,8.705546964518401
sh600358,2014-12-02,8.5,8.63,8.45,8.47,0.001182,3235400.0,27537205.0,3659040000.0,3659040000.0,0.007489351851851853,29.94,2014-09-30 00:00:00,2014-10-30 00:00:00,-83.95616330561768,40.34044803727583,-40917.88160024419,8.905310898595701
sh600358,2014-12-01,8.61,8.7,8.2,8.46,-0.017422,8378941.0,70821548.0,3654720000.0,3654720000.0,0.019395696759259264,29.9,2014-09-30 00:00:00,2014-10-30 00:00:00,-83.85704427927956,40.29282192176429,-40869.573764055065,8.89479724824827
sh600358,2014-11-28,8.83,8.89,8.59,8.61,-0.031495999999999996,9037906.0,78704239.0,3719520000.0,3719520000.0,0.020921078703703702,30.43,2014-09-30 00:00:00,2014-10-30 00:00:00,-85.34390580623581,41.00725023536483,-41594.228411439166,9.052510078841854
sh600358,2014-11-27,9.14,9.14,8.81,8.89,-0.01768,4792841.0,42737109.0,3840480000.0,3840480000.0,0.011094539351851852,31.42,2014-09-30 00:00:00,2014-10-30 00:00:00,-88.11931164583297,42.34081659483577,-42946.883452664275,9.34690004258305
sh600358,2014-11-26,8.91,9.06,8.82,9.05,0.015713,3959583.0,35531459.0,3909600000.0,3909600000.0,0.00916570138888889,31.99,2014-09-30 00:00:00,2014-10-30 00:00:00,-89.70530137412753,43.10287543248205,-43719.850407875514,9.51512749672515
sh600358,2014-11-25,9.1,9.1,8.88,8.91,-0.018722,5797802.0,51842272.0,3849120000.0,3849120000.0,0.013420837962962963,31.49,2014-09-30 00:00:00,2014-10-30 00:00:00,-88.3175674369901,42.43607734909571,-43043.50777028108,9.36792922481562
sh600358,2014-11-24,9.0,9.14,8.88,9.08,0.012263,6215967.0,56046549.0,3922560000.0,3922560000.0,0.0143888125,32.09,2014-09-30 00:00:00,2014-10-30 00:00:00,-90.00259604005197,43.245723789890036,-43864.74349805161,9.546661827551032
sh600358,2014-11-21,8.72,9.05,8.64,8.97,0.027491,4396726.0,39127680.0,3875040000.0,3875040000.0,0.010177606481481484,31.7,2014-09-30 00:00:00,2014-10-30 00:00:00,-88.9122649351522,42.7218260371959,-43333.3466678636,9.431009359772146
sh600358,2014-11-20,8.85,8.88,8.63,8.73,-0.013559,3821756.0,33446409.0,3771360000.0,3771360000.0,0.008846657407407407,30.86,2014-09-30 00:00:00,2014-10-30 00:00:00,-86.53337589833117,41.57878369464638,-42173.94280617894,9.178678314235498
sh600358,2014-11-19,8.79,8.92,8.73,8.85,0.0022649999999999997,3339515.0,29521029.0,3823200000.0,3823200000.0,0.007730358796296296,31.28,2014-09-30 00:00:00,2014-10-30 00:00:00,-87.72280947196151,42.15029960701794,-42753.63940284208,9.304842676080474
sh600358,2014-11-18,8.72,8.95,8.59,8.83,0.012615000000000001,3536080.0,31240527.0,3814560000.0,3814560000.0,0.00818537037037037,31.21,2014-09-30 00:00:00,2014-10-30 00:00:00,-87.5245663292258,42.05504493025092,-42657.02124971148,9.283814835478116
sh600358,2014-11-17,8.8,8.83,8.49,8.72,0.004608,3674694.0,31764939.0,3767040000.0,3767040000.0,0.008506236111111112,30.82,2014-09-30 00:00:00,2014-10-30 00:00:00,-86.43419890997644,41.53112972872307,-42125.60672092698,9.168158515801283
sh600358,2014-11-14,8.64,8.72,8.41,8.68,0.009302,2923579.0,24875327.0,3749760000.0,3749760000.0,0.006767543981481481,30.68,2014-09-30 00:00:00,2014-10-30 00:00:00,-86.03773701779843,41.34063209602459,-41932.382303273494,9.12610542201663
sh600358,2014-11-13,8.8,8.85,8.47,8.6,-0.027149,4027606.0,34802188.0,3715200000.0,3715200000.0,0.009323162037037038,30.4,2014-09-30 00:00:00,2014-10-30 00:00:00,-85.24478998139153,40.95962565815246,-41545.92213556844,9.041996768079951
sh600358,2014-11-12,8.72,8.85,8.61,8.84,0.004545,2865697.0,25084074.0,3818880000.0,3818880000.0,0.00663355787037037,31.24,2014-09-30 00:00:00,2014-10-30 00:00:00,-87.62368541677147,42.10267107517232,-42705.32911573143,9.294328492317888
sh600358,2014-11-11,9.32,9.32,8.53,8.8,-0.053763,12882550.0,114116712.0,3801600000.0,3801600000.0,0.029820717592592597,31.1,2014-09-30 00:00:00,2014-10-30 00:00:00,-87.22723762178047,41.912180216090185,-42512.11156865191,9.252276893835408
sh600358,2014-11-10,9.1,9.32,9.05,9.3,0.014177,11268518.0,104156220.0,4017600000.0,4017600000.0,0.02608453240740741,32.87,2014-09-30 00:00:00,2014-10-30 00:00:00,-92.18328771944077,44.2935334552445,-44927.551521079724,9.777969888976449
sh600358,2014-11-07,9.15,9.29,9.03,9.17,0.012140999999999999,5937429.0,54093671.0,3961440000.0,3961440000.0,0.013744048611111111,32.41,2014-09-30 00:00:00,2014-10-30 00:00:00,-90.8946739271752,43.67436202481864,-44299.51726481642,9.6412853860583
sh600358,2014-11-06,8.9,9.35,8.81,9.06,0.017978,7550184.0,68886138.0,3913920000.0,3913920000.0,0.01747727777777778,32.02,2014-09-30 00:00:00,2014-10-30 00:00:00,-89.80435920210248,43.15047214253611,-43768.12841769715,9.525634655703405
sh600358,2014-11-05,9.2,9.23,8.81,8.9,-0.031556,11662676.0,104077487.0,3844800000.0,3844800000.0,0.026996935185185186,31.46,2014-09-30 00:00:00,2014-10-30 00:00:00,-88.21836935778816,42.38841324914302,-42995.16140594115,9.357407189254978
sh600358,2014-11-04,8.67,9.53,8.61,9.19,0.053899,24133117.0,222830937.0,3970080000.0,3970080000.0,0.05586369675925926,32.48,2014-09-30 00:00:00,2014-10-30 00:00:00,-91.09289680950904,43.76960696658043,-44396.12554359483,9.662311077620368
sh600358,2014-11-03,8.4,8.74,8.09,8.72,0.046819,8576937.0,71720615.0,3767040000.0,3767040000.0,0.019854020833333336,30.82,2014-09-30 00:00:00,2014-10-30 00:00:00,-86.43418089352873,41.531121071924765,-42125.59794021517,9.168156604779364
sh600358,2014-10-31,8.18,8.48,8.15,8.33,0.018337,10596667.0,88469238.0,3598560000.0,3598560000.0,0.02452932175925926,29.44,2014-09-30 00:00:00,2014-10-30 00:00:00,-82.56841048311956,39.673640879583544,-40241.52975845411,8.75811062349782
sh600358,2014-10-30,8.13,8.2,8.03,8.18,0.004914,8305287.0,67551107.0,3533760000.0,3533760000.0,0.019225201388888887,28.91,2014-09-30 00:00:00,2014-10-30 00:00:00,-81.081616874492,38.95924520034482,-39516.90821256039,8.60040499706661
sh600358,2014-10-29,7.79,8.16,7.79,8.14,0.044929000000000004,7278393.0,58297736.0,3516480000.0,3516480000.0,0.016848131944444445,28.77,2014-06-30 00:00:00,2014-07-31 00:00:00,9621.735312545225,37.65235847694257,-4392.869980795068,8.13922298745244
sh600358,2014-10-28,7.67,7.95,7.6,7.79,0.023653,6543549.0,51191999.0,3365280000.0,3365280000.0,0.015147104166666666,27.53,2014-06-30 00:00:00,2014-07-31 00:00:00,9208.027830163795,36.033413252902896,-4203.988960776347,7.789259353939301
sh600358,2014-10-27,7.5,7.63,7.33,7.61,0.018741999999999998,2790356.0,20939784.0,3287520000.0,3287520000.0,0.006459157407407407,26.9,2014-06-30 00:00:00,2014-07-31 00:00:00,8995.262877326393,35.20080852877185,-4106.84964609721,7.609277122168646
sh600358,2014-10-24,7.25,7.54,7.25,7.47,0.017711,4015047.0,29939613.0,3227040000.0,3227040000.0,0.009294090277777778,26.4,2014-06-30 00:00:00,2014-07-31 00:00:00,8829.775229966364,34.553212225246284,-4031.29511308772,7.469287731504783
sh600358,2014-10-23,7.45,7.55,6.98,7.34,-0.018716999999999998,9122315.0,66160183.0,3170880000.0,3170880000.0,0.02111646990740741,25.94,2014-06-30 00:00:00,2014-07-31 00:00:00,8676.11259971285,33.95189029621011,-3961.1393736411615,7.339301365028759
sh600358,2014-10-22,7.72,7.79,7.44,7.48,-0.034839,6892635.0,52187856.0,3231360000.0,3231360000.0,0.015955173611111113,26.44,2014-06-30 00:00:00,2014-07-31 00:00:00,8841.600842685391,34.599488930522696,-4036.694178581674,7.479291259533445
sh600358,2014-10-21,7.89,7.93,7.71,7.75,-0.016497,3913724.0,30637570.0,3348000000.0,3348000000.0,0.009059546296296296,27.39,2014-06-30 00:00:00,2014-07-31 00:00:00,9160.752291778668,35.84841174739002,-4182.4049858849185,7.749268007652034
sh600358,2014-10-20,7.75,7.99,7.71,7.88,0.002545,3564508.0,28004099.0,3404160000.0,3404160000.0,0.008251175925925926,27.85,2014-06-30 00:00:00,2014-07-31 00:00:00,9314.412149000733,36.449722824831255,-4252.559459284738,7.879252028363954
sh600358,2014-10-17,7.81,7.92,7.4,7.86,-0.010076,8962989.0,68711900.0,3395520000.0,3395520000.0,0.02074765972222222,27.78,2014-06-30 00:00:00,2014-07-31 00:00:00,9290.767146612601,36.35719376669501,-4241.764169473428,7.85925023651203
sh600358,2014-10-16,8.15,8.18,7.92,7.94,-0.028151999999999996,9015434.0,72476109.0,3430080000.0,3430080000.0,0.020869060185185185,28.06,2014-06-30 00:00:00,2014-07-31 00:00:00,9385.333769675857,36.727257614417894,-4284.939217024164,7.939246080014254
sh600358,2014-10-15,8.09,8.18,7.92,8.17,0.008642,6826299.0,55175098.0,3529440000.0,3529440000.0,0.015801618055555557,28.88,2014-06-30 00:00:00,2014-07-31 00:00:00,9657.20335862795,37.79115418709293,-4409.063163194413,8.169226134142638
sh600358,2014-10-14,7.7,8.15,7.7,8.1,0.042470999999999995,11240794.0,90242239.0,3499200000.0,3499200000.0,0.02602035648148148,28.63,2014-06-30 00:00:00,2014-07-31 00:00:00,9574.460867808351,37.46736125116041,-4371.286505216334,8.099232566304634
sh600358,2014-10-13,7.5,7.78,7.43,7.77,0.034621,7224324.0,55164506.0,3356640000.0,3356640000.0,0.016722972222222222,27.46,2014-06-30 00:00:00,2014-07-31 00:00:00,9184.390614039481,35.940914664446694,-4193.197225837778,7.769264148647429
sh600358,2014-10-10,7.58,7.58,7.45,7.51,-0.009235,4088215.0,30648634.0,3244320000.0,3244320000.0,0.009463460648148148,26.54,2014-06-30 00:00:00,2014-07-31 00:00:00,8877.05798938885,34.73824198856073,-4052.8823847938306,7.509285186215464
sh600358,2014-10-09,7.59,7.6,7.42,7.58,0.003974,5523927.0,41507893.0,3274560000.0,3274560000.0,0.012786868055555555,26.79,2014-06-30 00:00:00,2014-07-31 00:00:00,8959.801758629796,35.06203992728925,-4090.6596264440414,7.579279835496272
sh600358,2014-10-08,7.65,7.65,7.41,7.55,-0.018205000000000002,6819752.0,51202211.0,3261600000.0,3261600000.0,0.015786462962962964,26.68,2014-06-30 00:00:00,2014-07-31 00:00:00,8924.336445595001,34.9232549122679,-4074.4676918366827,7.549279000747302
sh600358,2014-09-30,7.69,7.77,7.6,7.69,-0.001299,4866058.0,37381321.0,3322080000.0,3322080000.0,0.011264023148148148,27.18,2014-06-30 00:00:00,2014-07-31 00:00:00,9089.816555996927,35.57082172171166,-4150.018783795684,7.689262015743921
sh600358,2014-09-29,7.72,7.77,7.47,7.7,-0.002591,7110240.0,54297730.0,3326400000.0,3326400000.0,0.016458888888888887,27.21,2014-06-30 00:00:00,2014-07-31 00:00:00,9101.639585818906,35.617088319438615,-4155.416670050079,7.699263358847064
sh600358,2014-09-26,7.7,7.9,7.66,7.72,-0.011524,6197714.0,48149210.0,3335040000.0,3335040000.0,0.014346560185185184,27.29,2014-06-30 00:00:00,2014-07-31 00:00:00,9125.283194576054,35.70961192393352,-4166.211323589499,7.719263971797993
sh600358,2014-09-25,7.79,7.9,7.7,7.81,-0.001279,7280399.0,56984986.0,3373920000.0,3373920000.0,0.016852775462962963,27.6,2014-06-30 00:00:00,2014-07-31 00:00:00,9231.668947527358,36.12592710792526,-4214.78247685275,7.809257859369365
sh600358,2014-09-24,7.68,7.94,7.6,7.82,0.014266999999999998,13098271.0,101991595.0,3378240000.0,3378240000.0,0.03032007175925926,27.64,2014-06-30 00:00:00,2014-07-31 00:00:00,9243.491372993416,36.172191340649945,-4220.180087184259,7.819258691235455
sh600358,2014-09-23,7.59,7.73,7.5,7.71,0.01715,7593614.0,58070036.0,3330720000.0,3330720000.0,0.017577810185185186,27.25,2014-06-30 00:00:00,2014-07-31 00:00:00,9113.469503585759,35.663381871489406,-4160.817701043472,7.709270528603864
sh600358,2014-09-22,7.37,7.68,7.25,7.58,0.029891,9804857.0,73835172.0,3274560000.0,3274560000.0,0.02269642824074074,26.79,2014-06-30 00:00:00,2014-07-31 00:00:00,8959.808782958027,35.062067415316726,-4090.6628334498073,7.579285777519406
sh600358,2014-09-19,7.11,7.57,7.11,7.36,0.026499,11690260.0,86045553.0,3179520000.0,3179520000.0,0.027060787037037036,26.01,2014-06-30 00:00:00,2014-07-31 00:00:00,8699.764133251021,34.044444912439005,-3971.9376452943143,7.359308681714283
sh600358,2014-09-18,7.06,7.2,6.8,7.17,0.012712000000000001,17232986.0,120350684.0,3097440000.0,3097440000.0,0.039891171296296296,25.34,2014-06-30 00:00:00,2014-07-31 00:00:00,8475.180329694447,33.16558994449971,-3869.4023523591495,7.169328642029153
sh600358,2014-09-17,7.03,7.33,7.02,7.08,0.005682,11794909.0,84003568.0,3058560000.0,3058560000.0,0.027303030092592592,25.02,2014-06-30 00:00:00,2014-07-31 00:00:00,8368.796192495445,32.74928108336794,-3820.831936778817,7.07933612125575
sh600358,2014-09-16,7.31,7.5,6.95,7.04,-0.047361,12190609.0,88479447.0,3041280000.0,3041280000.0,0.028219002314814813,24.88,2014-06-30 00:00:00,2014-07-31 00:00:00,8321.513353620176,32.56425100913403,-3799.2446287979865,7.039338599334331
sh600358,2014-09-15,7.36,7.61,7.1,7.39,0.006812,12563183.0,92941454.0,3192480000.0,3192480000.0,0.02908144212962963,26.12,2014-06-30 00:00:00,2014-07-31 00:00:00,8735.222212842616,34.1832016211115,-3988.126277423019,7.3893033975454845
sh600358,2014-09-12,7.15,7.42,7.15,7.34,0.033803,12272804.0,89939960.0,3170880000.0,3170880000.0,0.028409268518518518,25.94,2014-06-30 00:00:00,2014-07-31 00:00:00,8676.120480131956,33.951921134344346,-3961.142971501153,7.3393080312367
sh600358,2014-09-11,7.0,7.19,6.92,7.1,0.011396,12304547.0,87186528.0,3067200000.0,3067200000.0,0.028482747685185186,25.09,2014-06-30 00:00:00,2014-07-31 00:00:00,8392.431130623489,32.84177075743091,-3831.6226316823922,7.099329399543915
sh600358,2014-09-10,6.48,7.07,6.45,7.02,0.070122,12030899.0,83010947.0,3032640000.0,3032640000.0,0.027849303240740742,24.81,2014-06-30 00:00:00,2014-07-31 00:00:00,8297.868619831886,32.47172300209899,-3788.4494616177963,7.019337034696515
sh600358,2014-09-09,6.43,6.59,6.42,6.56,0.007679999999999999,8159555.0,53185220.0,2833920000.0,2833920000.0,0.018887858796296297,23.19,2014-06-30 00:00:00,2014-07-31 00:00:00,7754.133285580415,30.343944897963954,-3540.203324123601,6.559380177864313
sh600358,2014-09-05,6.47,6.64,6.42,6.51,0.00463,10016135.0,65392638.0,2812320000.0,2812320000.0,0.023185497685185186,23.01,2014-06-30 00:00:00,2014-07-31 00:00:00,7695.035413603938,30.112679519256073,-3513.221780846699,6.509388077429654
sh600358,2014-09-04,6.28,6.55,6.23,6.48,0.031847,16289708.0,104883256.0,2799360000.0,2799360000.0,0.037707657407407405,22.9,2014-06-30 00:00:00,2014-07-31 00:00:00,7659.571597109322,29.973900360586562,-3497.0305294951368,6.479388508634676
sh600358,2014-09-03,6.19,6.34,6.14,6.28,0.012903,8488048.0,53030745.0,2712960000.0,2712960000.0,0.019648259259259258,22.2,2014-06-30 00:00:00,2014-07-31 00:00:00,7423.166028596605,29.04878374467005,-3389.0979277888446,6.279408195822321
sh600358,2014-09-02,6.08,6.22,6.05,6.2,0.019737,6893981.0,42481092.0,2678400000.0,2678400000.0,0.01595828935185185,21.91,2014-06-30 00:00:00,2014-07-31 00:00:00,7328.60503779395,28.678741937451118,-3345.9254516857436,6.199417116764707
sh600358,2014-09-01,5.86,6.09,5.86,6.08,0.032257999999999995,4600653.0,27608380.0,2626560000.0,2626560000.0,0.010649659722222222,21.49,2014-06-30 00:00:00,2014-07-31 00:00:00,7186.75995653188,28.123665158223265,-3281.1650961823916,6.079427457045009
sh600358,2014-08-29,5.87,5.92,5.8,5.89,0.008562,3141831.0,18452615.0,2544480000.0,2544480000.0,0.0072727569444444445,20.82,2014-06-30 00:00:00,2014-07-31 00:00:00,6962.1741430261445,27.24480232482894,-3178.628885590998,5.889445717102711
sh600358,2014-08-28,6.09,6.1,5.82,5.84,-0.039474,6876445.0,40891378.0,2522880000.0,2522880000.0,0.015917696759259258,20.64,2014-06-30 00:00:00,2014-07-31 00:00:00,6903.070057196428,27.0135126296935,-3151.6445053363086,5.839448360242316
sh600358,2014-08-27,6.05,6.1,6.0,6.08,0.0033,3607324.0,21910413.0,2626560000.0,2626560000.0,0.008350287037037036,21.49,2014-06-30 00:00:00,2014-07-31 00:00:00,7186.760230536632,28.123666230475283,-3281.165221281161,6.079427688831241
sh600358,2014-08-26,6.06,6.12,5.96,6.06,0.0,6690444.0,40514118.0,2617920000.0,2617920000.0,0.015487138888888889,21.42,2014-06-30 00:00:00,2014-07-31 00:00:00,7163.121928173658,28.031163391284043,-3270.372990412798,6.059431564667836
sh600358,2014-08-25,6.16,6.17,6.04,6.06,-0.024155000000000003,7789956.0,47518455.0,2617920000.0,2617920000.0,0.018032305555555555,21.42,2014-06-30 00:00:00,2014-07-31 00:00:00,7163.121928173658,28.031163391284043,-3270.372990412798,6.059431564667836
sh600358,2014-08-22,6.23,6.33,6.19,6.21,0.0016129999999999999,10984182.0,68678055.0,2682720000.0,2682720000.0,0.02542634722222222,21.95,2014-06-30 00:00:00,2014-07-31 00:00:00,7340.430015190587,28.7250161565454,-3351.324227118855,6.2094201073611455
sh600358,2014-08-21,6.11,6.27,6.08,6.2,0.011419,7453690.0,46137543.0,2678400000.0,2678400000.0,0.017253912037037036,21.91,2014-06-30 00:00:00,2014-07-31 00:00:00,7328.6089689237115,28.678757320986644,-3345.9272464702976,6.199420442187895
sh600358,2014-08-20,6.15,6.17,6.03,6.13,-0.001629,5830066.0,35684466.0,2648160000.0,2648160000.0,0.013495523148148149,21.67,2014-06-30 00:00:00,2014-07-31 00:00:00,7245.868397690482,28.354971896895982,-3308.1514648926873,6.1294284981673215
sh600358,2014-08-19,6.09,6.29,6.02,6.14,0.00821,10978390.0,67555642.0,2652480000.0,2652480000.0,0.025412939814814815,21.7,2014-06-30 00:00:00,2014-07-31 00:00:00,7257.6911766171925,28.40123751280434,-3313.549236599107,6.139429629033016
sh600358,2014-08-18,6.15,6.18,5.99,6.09,-0.009756,10319371.0,62567612.0,2630880000.0,2630880000.0,0.02388743287037037,21.52,2014-06-30 00:00:00,2014-07-31 00:00:00,7198.590746587707,28.169962123768205,-3286.566525425365,6.08943536468892
sh600358,2014-08-15,6.2,6.23,6.08,6.15,-0.009662,7543487.0,46337933.0,2656800000.0,2656800000.0,0.017461775462962962,21.74,2014-06-30 00:00:00,2014-07-31 00:00:00,7269.5121067006785,28.44749589370721,-3318.9461642033325,6.149429195924358
sh600358,2014-08-14,6.29,6.31,6.15,6.21,-0.017405,6246938.0,38849832.0,2682720000.0,2682720000.0,0.01446050462962963,21.95,2014-06-30 00:00:00,2014-07-31 00:00:00,7340.4353934724095,28.725037203164185,-3351.3266826107174,6.2094246569599045
sh600358,2014-08-13,6.3,6.33,6.16,6.32,-0.007849,8812258.0,55161994.0,2730240000.0,2730240000.0,0.02039874537037037,22.34,2014-06-30 00:00:00,2014-07-31 00:00:00,7470.458727626752,29.233852404260332,-3410.689737491761,6.31941405865072
sh600358,2014-08-12,6.2,6.57,6.14,6.37,0.030744,17788089.0,112478139.0,2751840000.0,2751840000.0,0.041176131944444444,22.51,2014-06-30 00:00:00,2014-07-31 00:00:00,7529.558230175398,29.46512416382217,-3437.6720252176947,6.369407538419777
sh600358,2014-08-11,6.15,6.2,6.05,6.18,0.008157,9151934.0,56113240.0,2669760000.0,2669760000.0,0.021185032407407406,21.84,2014-06-30 00:00:00,2014-07-31 00:00:00,7304.974106252763,28.58626794220696,-3335.1365860171823,6.179427227730431
sh600358,2014-08-08,6.11,6.21,6.03,6.13,0.0,8576663.0,52515986.0,2648160000.0,2648160000.0,0.019853386574074074,21.67,2014-06-30 00:00:00,2014-07-31 00:00:00,7245.869548346897,28.354976399714488,-3308.1519902328528,6.129429471531152
sh600358,2014-08-07,5.97,6.18,5.97,6.13,0.021667,11616308.0,70572362.0,2648160000.0,2648160000.0,0.026889601851851852,21.67,2014-06-30 00:00:00,2014-07-31 00:00:00,7245.869548346897,28.354976399714488,-3308.1519902328528,6.129429471531152
sh600358,2014-08-06,5.85,6.01,5.78,6.0,0.025641000000000004,13070674.0,77356357.0,2592000000.0,2592000000.0,0.030256189814814816,21.21,2014-06-30 00:00:00,2014-07-31 00:00:00,7092.202790485449,27.75363831827248,-3237.9943662982682,5.999439613427029
sh600358,2014-08-05,5.94,5.95,5.75,5.85,-0.0017059999999999998,7210506.0,41881981.0,2527200000.0,2527200000.0,0.01669098611111111,20.68,2014-06-30 00:00:00,2014-07-31 00:00:00,6914.89789359576,27.059798036810616,-3157.044586066926,5.849453769327697
sh600358,2014-08-04,5.81,5.97,5.8,5.86,0.008606,8468049.0,49751800.0,2531520000.0,2531520000.0,0.01960196527777778,20.71,2014-06-30 00:00:00,2014-07-31 00:00:00,6926.714869162551,27.10604094265879,-3162.439708209131,5.859449991012363
sh600358,2014-08-01,5.78,5.88,5.75,5.81,-0.005137,5852647.0,34091791.0,2509920000.0,2509920000.0,0.013547793981481482,20.53,2014-06-30 00:00:00,2014-07-31 00:00:00,6867.61219858156,26.87475678576054,-3135.455974096061,5.809453831339854
sh600358,2014-07-31,5.65,5.85,5.53,5.84,0.029981999999999998,11412664.0,65162696.0,2522880000.0,2522880000.0,0.026418203703703704,20.64,2014-06-30 00:00:00,2014-07-31 00:00:00,6903.073286052008,27.013525265047086,-3151.6459794927146,5.83945109159739
sh600358,2014-07-30,5.7,5.76,5.66,5.67,-0.007005,5333100.0,30394774.0,2449440000.0,2449440000.0,0.012345138888888888,20.04,2014-03-31 00:00:00,2014-04-24 00:00:00,381.22911262358105,22.862709693231615,-97758.97572500899,5.469534794170213
sh600358,2014-07-29,5.7,5.72,5.62,5.71,0.001754,9248119.0,52513333.0,2466720000.0,2466720000.0,0.02140768287037037,20.18,2014-03-31 00:00:00,2014-04-24 00:00:00,383.9184614460104,23.023992762533158,-98448.60822562952,5.508119168948698
sh600358,2014-07-28,5.85,5.88,5.55,5.7,-0.022298,15309420.0,86967761.0,2462400000.0,2462400000.0,0.035438472222222225,20.15,2014-03-31 00:00:00,2014-04-24 00:00:00,383.2462475278465,22.98367938888505,-98276.23171520105,5.498474844072195
sh600358,2014-07-25,5.93,5.93,5.78,5.83,-0.013536000000000001,4636840.0,27040358.0,2518560000.0,2518560000.0,0.010733425925925926,20.61,2014-03-31 00:00:00,2014-04-24 00:00:00,391.9867684916739,23.507857597596256,-100517.57254787354,5.62387603182994
sh600358,2014-07-24,5.93,5.99,5.75,5.91,-0.008389,5131398.0,30088555.0,2553120000.0,2553120000.0,0.01187823611111111,20.89,2014-03-31 00:00:00,2014-04-24 00:00:00,397.3655080080711,23.83042624727943,-101896.84828627658,5.701045382122348
sh600358,2014-07-23,5.97,6.0,5.92,5.96,-0.008319,4561809.0,27209361.0,2574720000.0,2574720000.0,0.010559743055555555,21.06,2014-03-31 00:00:00,2014-04-24 00:00:00,400.7272085606868,24.032030954960597,-102758.89263660507,5.749276058981141
sh600358,2014-07-22,6.04,6.04,5.88,6.01,-0.004967,6166289.0,36619193.0,2596320000.0,2596320000.0,0.01427381712962963,21.24,2014-03-31 00:00:00,2014-04-24 00:00:00,404.08882348324386,24.23363052731735,-103620.91502872907,5.797505507296339
sh600358,2014-07-21,6.03,6.21,5.98,6.04,0.0,7069879.0,43178007.0,2609280000.0,2609280000.0,0.016365460648148148,21.35,2014-03-31 00:00:00,2014-04-24 00:00:00,406.1059517455641,24.35459982464637,-104138.16931572025,5.8264454619056245
sh600358,2014-07-18,5.83,6.08,5.82,6.04,0.028961,5209495.0,31160569.0,2609280000.0,2609280000.0,0.012059016203703704,21.35,2014-03-31 00:00:00,2014-04-24 00:00:00,406.1059517455641,24.35459982464637,-104138.16931572025,5.8264454619056245
sh600358,2014-07-17,5.92,5.92,5.83,5.87,0.0034189999999999997,1545401.0,9053796.0,2535840000.0,2535840000.0,0.0035773171296296295,20.75,2014-03-31 00:00:00,2014-04-24 00:00:00,394.6757474244058,23.669118484224732,-101207.11019729634,5.6624550997614325
sh600358,2014-07-16,5.83,5.88,5.81,5.85,-0.003407,2044216.0,11958670.0,2527200000.0,2527200000.0,0.004731981481481481,20.68,2014-03-31 00:00:00,2014-04-24 00:00:00,393.3309489100822,23.588469506980367,-100862.26212309746,5.643161131851632
sh600358,2014-07-15,5.87,5.9,5.76,5.87,0.0,2306179.0,13450078.0,2535840000.0,2535840000.0,0.005338377314814815,20.75,2014-03-31 00:00:00,2014-04-24 00:00:00,394.6756087089537,23.669110165313594,-101207.07462634945,5.662453109596027
sh600358,2014-07-14,5.96,5.98,5.81,5.87,-0.003396,3119356.0,18281102.0,2535840000.0,2535840000.0,0.007220731481481482,20.75,2014-03-31 00:00:00,2014-04-24 00:00:00,394.6756087089537,23.669110165313594,-101207.07462634945,5.662453109596027
sh600358,2014-07-11,5.73,5.89,5.73,5.89,0.019031,2485181.0,14523072.0,2544480000.0,2544480000.0,0.005752733796296297,20.82,2014-03-31 00:00:00,2014-04-24 00:00:00,396.02049430762236,23.749764365097462,-101551.94503167702,5.681748326914227
sh600358,2014-07-10,5.66,5.84,5.66,5.78,0.017606,2709213.0,15543782.0,2496960000.0,2496960000.0,0.006271326388888889,20.43,2014-03-31 00:00:00,2014-04-24 00:00:00,388.62457992703105,23.306223623322023,-99655.40305611609,5.575638353410473
sh600358,2014-07-09,5.83,5.86,5.67,5.68,-0.027397,5145471.0,29543459.0,2453760000.0,2453760000.0,0.0119108125,20.08,2014-03-31 00:00:00,2014-04-24 00:00:00,381.9008338463325,22.902993519419127,-97931.22589304316,5.4791720502930135
sh600358,2014-07-08,5.87,5.88,5.77,5.84,-0.006803,2121184.0,12357248.0,2522880000.0,2522880000.0,0.004910148148148148,20.64,2014-03-31 00:00:00,2014-04-24 00:00:00,392.6584987362084,23.548141964829565,-100689.82502937289,5.633513417389226
sh600358,2014-07-07,5.88,5.9,5.81,5.88,0.0,2510489.0,14677763.0,2540160000.0,2540160000.0,0.00581131712962963,20.78,2014-03-31 00:00:00,2014-04-24 00:00:00,395.3480515307722,23.70943726655393,-101379.50983477887,5.67210071857771
sh600358,2014-07-04,5.85,5.92,5.8,5.88,0.001704,3217341.0,18924443.0,2540160000.0,2540160000.0,0.007447548611111111,20.78,2014-03-31 00:00:00,2014-04-24 00:00:00,395.3480515307722,23.70943726655393,-101379.50983477887,5.67210071857771
sh600358,2014-07-03,6.03,6.03,5.75,5.87,-0.029751999999999997,11477287.0,67284573.0,2535840000.0,2535840000.0,0.026567793981481482,20.75,2014-03-31 00:00:00,2014-04-24 00:00:00,394.67552443713134,23.66910511144403,-101207.05301643888,5.662451900539192
sh600358,2014-07-02,5.96,6.09,5.89,6.05,0.015101,9150190.0,54695975.0,2613600000.0,2613600000.0,0.02118099537037037,21.38,2014-03-31 00:00:00,2014-04-24 00:00:00,406.7779829869594,24.394902242977082,-104310.49898215597,5.836087165899019
sh600358,2014-07-01,5.97,6.0,5.86,5.96,-0.001675,3378597.0,20079976.0,2574720000.0,2574720000.0,0.00782082638888889,21.06,2014-03-31 00:00:00,2014-04-24 00:00:00,400.7266104426647,24.031995085195547,-102758.73926058193,5.749267477717999
sh600358,2014-06-30,5.75,5.99,5.65,5.97,0.043706,7520640.0,44198028.0,2579040000.0,2579040000.0,0.01740888888888889,21.1,2014-03-31 00:00:00,2014-04-24 00:00:00,401.39895369009554,24.072316214855427,-102931.14893504813,5.758913658095308
sh600358,2014-06-27,5.69,5.82,5.66,5.72,-0.001745,3679008.0,21120985.0,2471040000.0,2471040000.0,0.008516222222222222,20.22,2014-03-31 00:00:00,2014-04-24 00:00:00,384.59006050563625,23.064269262469917,-98620.82706724702,5.517754672384089
sh600358,2014-06-26,5.63,5.8,5.63,5.73,0.008803,5106479.0,29304895.0,2475360000.0,2475360000.0,0.011820553240740743,20.25,2014-03-31 00:00:00,2014-04-24 00:00:00,385.26234329468537,23.10458676637724,-98793.22123830786,5.527399985358539
sh600358,2014-06-25,5.41,5.76,5.36,5.68,0.053803,9496946.0,53490397.0,2453760000.0,2453760000.0,0.021983671296296296,20.08,2014-03-31 00:00:00,2014-04-24 00:00:00,381.9004734271066,22.902971904700166,-97931.13347036821,5.479166879319886
sh600358,2014-06-24,5.38,5.44,5.37,5.39,-0.001852,2364241.0,12752043.0,2328480000.0,2328480000.0,0.0054727800925925925,19.05,2014-03-31 00:00:00,2014-04-24 00:00:00,362.4021505225423,21.73363703149466,-92931.15835727191,5.199422358182589
sh600358,2014-06-23,5.21,5.44,5.21,5.4,0.042470999999999995,4639678.0,24940545.0,2332800000.0,2332800000.0,0.01073999537037037,19.09,2014-03-31 00:00:00,2014-04-24 00:00:00,363.07456461621143,21.77396240987775,-93103.5861989123,5.209069554998446
sh600358,2014-06-20,5.23,5.29,5.13,5.18,-0.003846,2383198.0,12336409.0,2237760000.0,2237760000.0,0.005516662037037037,18.31,2014-03-31 00:00:00,2014-04-24 00:00:00,348.28265209891833,20.886875903385086,-89310.48077012434,4.996848406333074
sh600358,2014-06-19,5.36,5.36,5.12,5.2,-0.026217,3413227.0,17930294.0,2246400000.0,2246400000.0,0.007900988425925926,18.38,2014-03-31 00:00:00,2014-04-24 00:00:00,349.62731876689577,20.967516973665802,-89655.29503482829,5.0161404826292655
sh600358,2014-06-18,5.43,5.43,5.34,5.34,-0.012938999999999999,2453700.0,13165384.0,2306880000.0,2306880000.0,0.005679861111111111,18.87,2014-03-31 00:00:00,2014-04-24 00:00:00,359.04027772809326,21.53202199429011,-92069.06983879191,5.151189210151816
sh600358,2014-06-17,5.42,5.45,5.39,5.41,-0.0018449999999999999,2369628.0,12831671.0,2337120000.0,2337120000.0,0.00548525,19.12,2014-03-31 00:00:00,2014-04-24 00:00:00,363.74679754148247,21.814276923402005,-93275.9675833529,5.218714152571945
sh600358,2014-06-16,5.42,5.45,5.35,5.42,0.0,2014023.0,10877109.0,2341440000.0,2341440000.0,0.004662090277777778,19.16,2014-03-31 00:00:00,2014-04-24 00:00:00,364.41915087484654,21.85459865792588,-93448.37984416539,5.228360477653214
sh600358,2014-06-13,5.52,5.53,5.35,5.42,-0.01275,3351800.0,18149562.0,2341440000.0,2341440000.0,0.007758796296296297,19.16,2014-03-31 00:00:00,2014-04-24 00:00:00,364.41915087484654,21.85459865792588,-93448.37984416539,5.228360477653214
sh600358,2014-06-12,5.55,5.57,5.4,5.49,-0.001818,4043897.0,22261551.0,2371680000.0,2371680000.0,0.009360872685185186,19.4,2014-03-31 00:00:00,2014-04-24 00:00:00,369.12550101275923,22.136843411421502,-94655.2340786684,5.29588298572116
sh600358,2014-06-11,5.4,5.55,5.37,5.5,0.029963,7364022.0,40290258.0,2376000000.0,2376000000.0,0.017046347222222223,19.44,2014-03-31 00:00:00,2014-04-24 00:00:00,369.79779340116255,22.17716149101216,-94827.63071130155,5.305528436418568
sh600358,2014-06-10,5.38,5.43,5.29,5.34,-0.011111,2738284.0,14698792.0,2306880000.0,2306880000.0,0.00633862037037037,18.87,2014-03-31 00:00:00,2014-04-24 00:00:00,359.0398814337627,21.531998228103497,-92068.96821662677,5.151183524474732
sh600358,2014-06-09,5.43,5.46,5.39,5.4,-0.009174,1577468.0,8569800.0,2332800000.0,2332800000.0,0.0036515462962962964,19.09,2014-03-31 00:00:00,2014-04-24 00:00:00,363.07399661009754,21.77392834595541,-93103.44054451691,5.209061405754066
sh600358,2014-06-06,5.43,5.46,5.42,5.45,-0.001832,2460534.0,13401874.0,2354400000.0,2354400000.0,0.005695680555555555,19.26,2014-03-31 00:00:00,2014-04-24 00:00:00,366.4356775156259,21.97553187538015,-93965.47985672248,5.2572918007339995
sh600358,2014-06-05,5.49,5.5,5.42,5.46,0.0,2333328.0,12731687.0,2358720000.0,2358720000.0,0.005401222222222222,19.3,2014-03-31 00:00:00,2014-04-24 00:00:00,367.1082197742523,22.015864939950134,-94137.94056383542,5.266940836346185
sh600358,2014-06-04,5.42,5.51,5.37,5.46,0.011111,3264830.0,17736660.0,2358720000.0,2358720000.0,0.007557476851851852,19.3,2014-03-31 00:00:00,2014-04-24 00:00:00,367.1082197742523,22.015864939950134,-94137.94056383542,5.266940836346185
sh600358,2014-06-03,5.49,5.53,5.38,5.4,-0.018182,2431626.0,13256383.0,2332800000.0,2332800000.0,0.005628763888888889,19.09,2014-03-31 00:00:00,2014-04-24 00:00:00,363.07410341124984,21.773934750932522,-93103.46793164688,5.209062938041605
sh600358,2014-05-30,5.55,5.55,5.41,5.5,-0.014337,3874679.0,21287696.0,2376000000.0,2376000000.0,0.008969164351851851,19.44,2014-03-31 00:00:00,2014-04-24 00:00:00,369.79776639993344,22.177159871720136,-94827.62378734845,5.305528049029051
sh600358,2014-05-29,5.85,5.85,5.56,5.58,-0.042881999999999997,5523261.0,31341545.0,2410560000.0,2410560000.0,0.01278532638888889,19.72,2014-03-31 00:00:00,2014-04-24 00:00:00,375.17667438052706,22.499738624377844,-96206.94272519964,5.382699816295276
sh600358,2014-05-28,5.86,5.91,5.77,5.83,-0.0034189999999999997,3431090.0,19964670.0,2518560000.0,2518560000.0,0.007942337962962964,20.61,2014-03-31 00:00:00,2014-04-24 00:00:00,391.98580987979227,23.507800108636385,-100517.32673003708,5.623862278522894
sh600358,2014-05-27,5.89,5.9,5.83,5.85,-0.006790999999999999,2593070.0,15209998.0,2527200000.0,2527200000.0,0.006002476851851852,20.68,2014-03-31 00:00:00,2014-04-24 00:00:00,393.33060722589767,23.58844901582148,-100862.17450466854,5.643156229672144
sh600358,2014-05-26,5.85,6.0,5.81,5.89,0.005118999999999999,4388910.0,25805141.0,2544480000.0,2544480000.0,0.010159513888888888,20.82,2014-03-31 00:00:00,2014-04-24 00:00:00,396.01997890262527,23.749733455719262,-101551.81286584045,5.681740932343688
sh600358,2014-05-23,5.87,5.97,5.83,5.86,-0.005093,4174536.0,24556359.0,2531520000.0,2531520000.0,0.009663277777777778,20.71,2014-03-31 00:00:00,2014-04-24 00:00:00,394.0030771506909,23.628777742455636,-101034.61666314183,5.6528042275031005
sh600358,2014-05-22,5.9,6.15,5.72,5.89,-0.023216999999999998,9065351.0,53400324.0,2544480000.0,2544480000.0,0.020984608796296295,20.82,2014-03-31 00:00:00,2014-04-24 00:00:00,396.0200070465791,23.74973514354169,-101551.82008282364,5.681741336128
sh600358,2014-05-07,6.3,6.6,5.86,6.03,-0.044374000000000004,16311062.0,100095497.0,2604960000.0,2604960000.0,0.03775708796296296,21.31,2014-03-31 00:00:00,2014-04-24 00:00:00,405.43294370047295,24.314238826373604,-103965.58916650232,5.816789743605283
sh600358,2014-05-06,6.14,6.35,6.05,6.31,0.027687,8297654.0,51327661.0,2725920000.0,2725920000.0,0.019207532407407406,22.3,2014-03-31 00:00:00,2014-04-24 00:00:00,424.25901314999066,25.443257954862684,-108793.1776306864,6.086889372626199
sh600358,2014-05-05,6.03,6.29,5.97,6.14,0.003268,12495792.0,76767921.0,2652480000.0,2652480000.0,0.028925444444444445,21.7,2014-03-31 00:00:00,2014-04-24 00:00:00,412.8290161790415,24.757789049450544,-105862.1716832911,5.922901985357602
sh600358,2014-04-30,5.56,6.15,5.52,6.12,0.09481200000000001,12936973.0,77861482.0,2643840000.0,2643840000.0,0.029946696759259258,21.63,2014-03-31 00:00:00,2014-04-24 00:00:00,411.48428553391665,24.6771441423932,-105517.34101286107,5.903608991174443
sh600358,2014-04-29,5.59,5.74,5.44,5.59,-0.014109,6397344.0,35436581.0,2414880000.0,2414880000.0,0.014808666666666666,19.76,2014-03-31 00:00:00,2014-04-24 00:00:00,375.8492650189408,22.540074590334413,-96379.41583839149,5.392349546017438
sh600358,2014-04-28,5.66,5.89,5.55,5.67,-0.037351,9569276.0,54777127.0,2449440000.0,2449440000.0,0.022151101851851852,20.04,2014-03-31 00:00:00,2014-04-24 00:00:00,381.22801102651385,22.86264362930021,-97758.69324133346,5.469518989439439
sh600358,2014-04-25,5.55,6.18,5.55,5.89,0.048043,17807874.0,106238894.0,2544480000.0,2544480000.0,0.04122193055555556,20.82,2014-03-31 00:00:00,2014-04-24 00:00:00,396.01974450346273,23.749719398555662,-101551.7527586207,5.681737569393869
sh600358,2014-04-24,5.9,6.28,5.61,5.62,-0.039316000000000004,19785553.0,116634044.0,2427840000.0,2427840000.0,0.0457998912037037,19.86,2014-03-31 00:00:00,2014-04-24 00:00:00,377.8659315538224,22.661016197384708,-96896.55172413794,5.421282876173849
sh600358,2014-04-15,5.98,6.15,5.8,5.85,-0.011824,14009784.0,84601729.0,2527200000.0,2527200000.0,0.03243005555555555,20.68,2013-09-30 00:00:00,2013-10-31 00:00:00,-44.90375720634343,16.263146938047917,-121.68521237826761,5.5608258374106745
sh600358,2014-04-14,5.79,5.98,5.61,5.92,0.033158999999999994,7496123.0,43615739.0,2557440000.0,2557440000.0,0.017352136574074074,20.92,2013-09-30 00:00:00,2013-10-31 00:00:00,-45.44105220764664,16.457743294765223,-123.14123433302126,5.627363786826106
sh600358,2014-04-11,5.55,5.76,5.49,5.73,0.043716000000000005,8274585.0,47105768.0,2475360000.0,2475360000.0,0.019154131944444448,20.25,2013-09-30 00:00:00,2013-10-31 00:00:00,-43.98263210952685,15.929535816621858,-119.18904479661046,5.446754842987485
sh600358,2014-04-10,5.24,5.49,5.16,5.49,0.049713,7323693.0,39830851.0,2371680000.0,2371680000.0,0.016952993055555556,19.4,2013-09-30 00:00:00,2013-10-31 00:00:00,-42.14042144561053,15.262327890558213,-114.19681675533425,5.218617749452422
sh600358,2014-04-09,5.18,5.25,5.18,5.23,0.009653,2912150.0,15218724.0,2259360000.0,2259360000.0,0.0067410879629629635,18.48,2013-09-30 00:00:00,2013-10-31 00:00:00,-40.144707596848406,14.539524508659238,-108.78860865335027,4.971471011078669
sh600358,2014-04-08,5.15,5.23,5.1,5.18,0.013699000000000001,2702239.0,13944977.0,2237760000.0,2237760000.0,0.00625518287037037,18.31,2013-09-30 00:00:00,2013-10-31 00:00:00,-39.76089567093686,14.400516324578089,-107.74851226446143,4.923940216171961
sh600358,2014-04-04,4.99,5.11,4.93,5.11,0.01996,2391338.0,12105144.0,2207520000.0,2207520000.0,0.00553550462962963,18.06,2013-09-30 00:00:00,2013-10-31 00:00:00,-39.223571958674974,14.205909569387055,-106.29241250554794,4.857398711226865
sh600358,2014-04-03,5.13,5.14,4.99,5.01,-0.027183999999999996,4506049.0,22779824.0,2164320000.0,2164320000.0,0.010430668981481482,17.71,2013-09-30 00:00:00,2013-10-31 00:00:00,-38.45599039048098,13.927908515419286,-104.2123343126671,4.762342357765858
sh600358,2014-04-02,5.08,5.22,5.06,5.15,0.01378,2975245.0,15270017.0,2224800000.0,2224800000.0,0.0068871412037037035,18.2,2013-09-30 00:00:00,2013-10-31 00:00:00,-39.530589947616996,14.317104689293028,-107.12440411410493,4.895419439817867
sh600358,2014-04-01,5.07,5.16,4.9,5.08,0.009940000000000001,5075157.0,25441087.0,2194560000.0,2194560000.0,0.011748048611111112,17.95,2013-09-30 00:00:00,2013-10-31 00:00:00,-38.99326278642013,14.122496684974086,-105.66829500888254,4.8288775077609225
sh600358,2014-03-31,5.21,5.21,5.03,5.03,-0.049149,7828155.0,39918790.0,2172960000.0,2172960000.0,0.018120729166666665,17.78,2013-09-30 00:00:00,2013-10-31 00:00:00,-38.609484510386885,13.983500688134034,-104.62828980818914,4.781350880013587
sh600358,2014-03-28,5.32,5.32,5.16,5.29,0.0,5483030.0,28734701.0,2285280000.0,2285280000.0,0.012692199074074074,18.7,2013-09-30 00:00:00,2013-10-31 00:00:00,-40.6051889416816,14.706300659234765,-110.03647238966899,5.028496452139807
sh600358,2014-03-27,5.05,5.3,5.03,5.29,0.047525,6418823.0,33326679.0,2285280000.0,2285280000.0,0.014858386574074074,18.7,2013-09-30 00:00:00,2013-10-31 00:00:00,-40.6051889416816,14.706300659234765,-110.03647238966899,5.028496452139807
sh600358,2014-03-26,4.94,5.07,4.92,5.05,0.016097,6877319.0,34508913.0,2181600000.0,2181600000.0,0.01591971990740741,17.85,2013-09-30 00:00:00,2013-10-31 00:00:00,-38.76297839352912,14.03909277509822,-105.04424466210256,4.800359372940795
sh600358,2014-03-25,5.23,5.25,4.97,4.97,-0.049713,11971929.0,60654468.0,2147040000.0,2147040000.0,0.02771279861111111,17.57,2013-09-30 00:00:00,2013-10-31 00:00:00,-38.14889562072235,13.816685587201045,-103.3801346348848,4.72431212073335
sh600358,2014-03-24,5.2,5.27,5.11,5.23,0.005769,5467548.0,28461869.0,2259360000.0,2259360000.0,0.012656361111111113,18.48,2013-09-30 00:00:00,2013-10-31 00:00:00,-40.144604336082,14.539487109895267,-108.7883288258019,4.97145822339288
sh600358,2014-03-21,5.02,5.22,5.02,5.2,0.037924,6754365.0,34711712.0,2246400000.0,2246400000.0,0.015635104166666667,18.38,2013-09-30 00:00:00,2013-10-31 00:00:00,-39.914338517176404,14.456089927105795,-108.16432881288038,4.9429423887521695
sh600358,2014-03-20,4.84,5.09,4.83,5.01,0.03299,9454742.0,47715479.0,2164320000.0,2164320000.0,0.02188597685185185,17.71,2013-09-30 00:00:00,2013-10-31 00:00:00,-38.45593561491632,13.927888676922198,-104.21218587572923,4.762335574427578
sh600358,2014-03-19,4.88,4.97,4.82,4.85,-0.006148,4258445.0,20709512.0,2095200000.0,2095200000.0,0.009857511574074072,17.14,2013-09-30 00:00:00,2013-10-31 00:00:00,-37.227790796538514,13.483081808073841,-100.88402199027023,4.610243636847963
sh600358,2014-03-18,4.81,4.94,4.8,4.88,0.014553,4606354.0,22420824.0,2108160000.0,2108160000.0,0.010662856481481481,17.25,2013-09-30 00:00:00,2013-10-31 00:00:00,-37.458083091384346,13.56648857986284,-101.50809375064922,4.638762750236418
sh600358,2014-03-17,4.64,4.85,4.64,4.81,0.041125999999999996,7158438.0,34419803.0,2077920000.0,2077920000.0,0.01657045833333333,17.0,2013-09-30 00:00:00,2013-10-31 00:00:00,-36.92077505205184,13.371887501059915,-100.0520364639888,4.572223186207539
sh600358,2014-03-14,4.62,4.67,4.57,4.62,0.002169,3680987.0,16979712.0,1995840000.0,1995840000.0,0.00852080324074074,16.33,2013-09-30 00:00:00,2013-10-31 00:00:00,-35.46235042833609,12.843678383845871,-96.09983466361305,4.391613681924704
sh600358,2014-03-13,4.54,4.74,4.54,4.61,0.015419,5855502.0,27148765.0,1991520000.0,1991520000.0,0.01355440277777778,16.29,2013-09-30 00:00:00,2013-10-31 00:00:00,-35.385599063966346,12.81588073852401,-95.89184525126305,4.38210888774718
sh600358,2014-03-12,4.45,4.55,4.41,4.54,0.022522999999999998,4302212.0,19294382.0,1961280000.0,1961280000.0,0.009958824074074075,16.05,2013-09-30 00:00:00,2013-10-31 00:00:00,-34.84827353434035,12.621273325123925,-94.43574056745348,4.315567157741956
sh600358,2014-03-11,4.38,4.46,4.31,4.44,0.013699000000000001,3968350.0,17448187.0,1918080000.0,1918080000.0,0.009185995370370372,15.69,2013-09-30 00:00:00,2013-10-31 00:00:00,-34.08067450252009,12.343265946217272,-92.35561504968932,4.220508641607041
sh600358,2014-03-10,4.38,4.47,4.32,4.38,0.004587,5664801.0,24932429.0,1892160000.0,1892160000.0,0.013112965277777777,15.48,2013-09-30 00:00:00,2013-10-31 00:00:00,-33.62011258028279,12.17646061228952,-91.1075329557288,4.1634732219396895
sh600358,2014-03-07,4.38,4.45,4.27,4.36,-0.004566,3842107.0,16760976.0,1883520000.0,1883520000.0,0.008893766203703704,15.41,2013-09-30 00:00:00,2013-10-31 00:00:00,-33.466601280210476,12.12086221729877,-90.69153090347457,4.144462572121369
sh600358,2014-03-06,4.28,4.49,4.25,4.38,0.023364,6837134.0,30083723.0,1892160000.0,1892160000.0,0.015826699074074073,15.48,2013-09-30 00:00:00,2013-10-31 00:00:00,-33.62011070569267,12.176459933354467,-91.10752787575527,4.163472989792763
sh600358,2014-03-05,4.22,4.3,4.21,4.28,0.014218000000000001,2910013.0,12424150.0,1848960000.0,1848960000.0,0.006736141203703703,15.13,2013-09-30 00:00:00,2013-10-31 00:00:00,-32.85254387069769,11.898464215425271,-89.02748960854132,4.068418460872928
sh600358,2014-03-04,4.18,4.28,4.18,4.22,0.002375,3220875.0,13633005.0,1823040000.0,1823040000.0,0.007455729166666667,14.92,2013-09-30 00:00:00,2013-10-31 00:00:00,-32.39199449299626,11.731663424850742,-87.77944150916402,4.011384594705405
sh600358,2014-03-03,4.13,4.25,4.13,4.21,0.012019,2871592.0,12057134.0,1818720000.0,1818720000.0,0.006647203703703704,14.88,2013-09-30 00:00:00,2013-10-31 00:00:00,-32.31524578425865,11.70386674134006,-87.57145929334233,4.001880129398085
sh600358,2014-02-28,4.12,4.17,4.08,4.16,0.0024100000000000002,2402748.0,9929710.0,1797120000.0,1797120000.0,0.005561916666666666,14.7,2013-09-30 00:00:00,2013-10-31 00:00:00,-31.931461547914264,11.564868585807242,-86.53143794073266,3.95435276353318
sh600358,2014-02-27,4.11,4.21,4.1,4.15,0.007281999999999999,4310900.0,17945759.0,1792800000.0,1792800000.0,0.009978935185185186,14.67,2013-09-30 00:00:00,2013-10-31 00:00:00,-31.85469174081889,11.53706426093838,-86.3233985502266,3.9448456854312903
sh600358,2014-02-26,4.03,4.14,4.01,4.12,0.012284999999999999,4163437.0,17058593.0,1779840000.0,1779840000.0,0.009637585648148149,14.56,2013-09-30 00:00:00,2013-10-31 00:00:00,-31.624402839342796,11.453658718152791,-85.69933598557961,3.9163269922735546
sh600358,2014-02-25,4.1,4.21,4.05,4.07,0.0,7384778.0,30550848.0,1758240000.0,1758240000.0,0.01709439351851852,14.38,2013-09-30 00:00:00,2013-10-31 00:00:00,-31.240611921882465,11.31465814286766,-84.65929652773636,3.8687987990275015
sh600358,2014-02-24,4.06,4.08,4.03,4.07,0.0,2839411.0,11504528.0,1758240000.0,1758240000.0,0.006572710648148149,14.38,2013-09-30 00:00:00,2013-10-31 00:00:00,-31.240611921882465,11.31465814286766,-84.65929652773636,3.8687987990275015
sh600358,2014-02-21,4.06,4.11,4.0,4.07,0.0,3190438.0,12974720.0,1758240000.0,1758240000.0,0.0073852731481481495,14.38,2013-09-30 00:00:00,2013-10-31 00:00:00,-31.240611921882465,11.31465814286766,-84.65929652773636,3.8687987990275015
sh600358,2014-02-20,4.13,4.16,4.05,4.07,-0.014528,3279641.0,13415189.0,1758240000.0,1758240000.0,0.007591761574074075,14.38,2013-09-30 00:00:00,2013-10-31 00:00:00,-31.240611921882465,11.31465814286766,-84.65929652773636,3.8687987990275015
sh600358,2014-02-19,4.11,4.14,4.08,4.13,0.004866,3849583.0,15829338.0,1784160000.0,1784160000.0,0.00891107175925926,14.6,2013-09-30 00:00:00,2013-10-31 00:00:00,-31.701166468334428,11.481460805449228,-85.90735863397069,3.9258333052867065
sh600358,2014-02-18,4.13,4.16,4.07,4.11,-0.004843,4651509.0,19091604.0,1775520000.0,1775520000.0,0.010767381944444446,14.53,2013-09-30 00:00:00,2013-10-31 00:00:00,-31.54765557630015,11.425862558240828,-85.49135768746349,3.9068227059993137
sh600358,2014-02-17,4.07,4.14,4.06,4.13,0.014741999999999998,4602750.0,18858072.0,1784160000.0,1784160000.0,0.010654513888888889,14.6,2013-09-30 00:00:00,2013-10-31 00:00:00,-31.70118441240945,11.481467304396018,-85.90740726082768,3.925835527458797
sh600358,2014-02-14,3.99,4.07,3.99,4.07,0.02005,2894903.0,11693377.0,1758240000.0,1758240000.0,0.006701164351851853,14.38,2013-09-30 00:00:00,2013-10-31 00:00:00,-31.24063497165728,11.314666490985903,-84.65935899058843,3.868801653483148
sh600358,2014-02-13,4.04,4.05,3.98,3.99,-0.017241,4035196.0,16201451.0,1723680000.0,1723680000.0,0.009340731481481481,14.1,2013-09-30 00:00:00,2013-10-31 00:00:00,-30.626572199066008,11.092266546724085,-82.99530316218659,3.792756878077691
sh600358,2014-02-12,4.06,4.09,4.0,4.06,0.0,5578623.0,22531617.0,1753920000.0,1753920000.0,0.012913479166666665,14.35,2013-09-30 00:00:00,2013-10-31 00:00:00,-31.16386845510039,11.286863357877246,-84.45132851715078,3.859294982877481
sh600358,2014-02-11,4.08,4.12,4.05,4.06,-0.014563,6204530.0,25315782.0,1753920000.0,1753920000.0,0.01436233796296296,14.35,2013-09-30 00:00:00,2013-10-31 00:00:00,-31.16386845510039,11.286863357877246,-84.45132851715078,3.859294982877481
sh600358,2014-02-10,4.11,4.13,4.03,4.12,0.004878,7391282.0,30123080.0,1779840000.0,1779840000.0,0.017109449074074076,14.56,2013-09-30 00:00:00,2013-10-31 00:00:00,-31.624414807948547,11.453663052916875,-85.69936841944313,3.9163284744509097
sh600358,2014-02-07,4.11,4.11,4.01,4.1,-0.002433,1670403.0,6804077.0,1771200000.0,1771200000.0,0.0038666736111111107,14.49,2013-09-30 00:00:00,2013-10-31 00:00:00,-31.470899758924514,11.398063300138798,-85.28335620786119,3.8973173603670395
sh600358,2014-01-30,4.15,4.16,4.1,4.11,0.0,1058606.0,4362330.0,1775520000.0,1775520000.0,0.002450476851851852,14.53,2013-09-30 00:00:00,2013-10-31 00:00:00,-31.547655204035934,11.425862423414967,-85.49135667866037,3.9068226598985727
sh600358,2014-01-29,4.11,4.18,4.1,4.11,-0.009639,1850982.0,7654063.0,1775520000.0,1775520000.0,0.004284680555555556,14.53,2013-09-30 00:00:00,2013-10-31 00:00:00,-31.547655204035934,11.425862423414967,-85.49135667866037,3.9068226598985727
sh600358,2014-01-28,4.17,4.18,4.12,4.15,-0.004796,819299.0,3398974.0,1792800000.0,1792800000.0,0.0018965254629629631,14.67,2013-09-30 00:00:00,2013-10-31 00:00:00,-31.85470268319929,11.537068224026356,-86.32342820311014,3.9448470405221654
sh600358,2014-01-27,4.18,4.25,4.14,4.17,0.014599,2201518.0,9227973.0,1801440000.0,1801440000.0,0.005096106481481482,14.74,2013-09-30 00:00:00,2013-10-31 00:00:00,-32.00821407791698,11.592666653295563,-86.73943051184496,3.9638577020612513
sh600358,2014-01-24,4.14,4.16,4.1,4.11,-0.012019,2482202.0,10250503.0,1775520000.0,1775520000.0,0.005745837962962964,14.53,2013-09-30 00:00:00,2013-10-31 00:00:00,-31.5476499364941,11.42586051562791,-85.49134240408767,3.906822007572697
sh600358,2014-01-23,4.13,4.22,4.13,4.16,0.009709,2308619.0,9620742.0,1797120000.0,1797120000.0,0.005344025462962963,14.7,2013-09-30 00:00:00,2013-10-31 00:00:00,-31.931433839814833,11.564858550546933,-86.5313628542327,3.954349332196365
sh600358,2014-01-22,4.09,4.13,4.04,4.12,0.0073349999999999995,1966406.0,8041507.0,1779840000.0,1779840000.0,0.004551865740740741,14.56,2013-09-30 00:00:00,2013-10-31 00:00:00,-31.624392611945456,11.453655014015853,-85.69930827023695,3.9163257257252986
sh600358,2014-01-21,4.06,4.1,4.06,4.09,0.007389,1023218.0,4170963.0,1766880000.0,1766880000.0,0.0023685601851851854,14.46,2013-09-30 00:00:00,2013-10-31 00:00:00,-31.394116765470724,11.370254199462792,-85.07528108348956,3.8878086492828086
sh600358,2014-01-20,4.11,4.17,4.0,4.06,-0.012165,2161236.0,8767407.0,1753920000.0,1753920000.0,0.005002861111111111,14.35,2013-09-30 00:00:00,2013-10-31 00:00:00,-31.16384709925433,11.286855623262504,-84.4512706446959,3.859292338195879
sh600358,2014-01-17,4.1,4.17,4.08,4.11,-0.016746,1084946.0,4463686.0,1775520000.0,1775520000.0,0.0025114490740740744,14.53,2013-09-30 00:00:00,2013-10-31 00:00:00,-31.547623944539655,11.42585110191733,-85.49127196818891,3.9068187887611585
sh600358,2014-01-16,4.12,4.2,4.0,4.18,0.017032,2753052.0,11239219.0,1805760000.0,1805760000.0,0.006372805555555555,14.77,2013-09-30 00:00:00,2013-10-31 00:00:00,-32.084917981050324,11.62044710920813,-86.94729130844006,3.9733566186978733
sh600358,2014-01-15,4.21,4.22,4.05,4.11,-0.035211,4027592.0,16562561.0,1775520000.0,1775520000.0,0.00932312962962963,14.53,2013-09-30 00:00:00,2013-10-31 00:00:00,-31.547599270278937,11.425842165446248,-85.49120510312365,3.9068157331311832
sh600358,2014-01-14,4.55,4.55,4.23,4.26,-0.042697000000000006,8357770.0,36159084.0,1840320000.0,1840320000.0,0.019346689814814813,15.06,2013-09-30 00:00:00,2013-10-31 00:00:00,-32.698962436635306,11.842840419455703,-88.61129749937412,4.049399125747892
sh600358,2014-01-13,4.28,4.45,4.28,4.45,0.049527999999999996,4544518.0,20114892.0,1922400000.0,1922400000.0,0.010519717592592593,15.73,2013-09-30 00:00:00,2013-10-31 00:00:00,-34.15738009453151,12.371047013804096,-92.56348042299472,4.230007767392238
sh600358,2014-01-10,4.38,4.42,4.16,4.24,-0.031963,2680518.0,11557252.0,1831680000.0,1831680000.0,0.006204902777777778,14.99,2013-09-30 00:00:00,2013-10-31 00:00:00,-32.54546814809277,11.787248185664504,-88.19534154686174,4.030390582616413
sh600358,2014-01-09,4.31,4.44,4.31,4.38,0.004587,3079627.0,13571029.0,1892160000.0,1892160000.0,0.007128766203703704,15.48,2013-09-30 00:00:00,2013-10-31 00:00:00,-33.62006632813908,12.176443860786835,-91.1074076165082,4.163467494131332
sh600358,2014-01-08,4.26,4.42,4.26,4.36,0.013953,3465139.0,15135491.0,1883520000.0,1883520000.0,0.008021155092592594,15.41,2013-09-30 00:00:00,2013-10-31 00:00:00,-33.466555239256614,12.120845542284377,-90.69140613655979,4.144456870466502
sh600358,2014-01-07,4.2,4.39,4.15,4.3,0.026253,3396673.0,14583222.0,1857600000.0,1857600000.0,0.007862668981481481,15.2,2013-09-30 00:00:00,2013-10-31 00:00:00,-33.00602221134176,11.954050673240648,-89.44340234365872,4.087425029036358
sh600358,2014-01-06,4.22,4.26,4.12,4.19,-0.016432,1968986.0,8235406.0,1810080000.0,1810080000.0,0.004557837962962963,14.81,2013-09-30 00:00:00,2013-10-31 00:00:00,-32.16168158469866,11.648249187325783,-87.15531388815303,3.9828629285725428
sh600358,2014-01-03,4.26,4.34,4.24,4.26,0.0,2823605.0,12083323.0,1840320000.0,1840320000.0,0.006536122685185186,15.06,2013-09-30 00:00:00,2013-10-31 00:00:00,-32.698991411573644,11.842850913537024,-88.61137601889553,4.0494027139684725
sh600358,2014-01-02,4.1,4.34,4.1,4.26,0.031477,3909442.0,16584588.0,1840320000.0,1840320000.0,0.009049634259259259,15.06,2013-09-30 00:00:00,2013-10-31 00:00:00,-32.698991411573644,11.842850913537024,-88.61137601889553,4.0494027139684725
sh600358,2013-12-31,4.11,4.14,4.0,4.13,0.004866,3042918.0,12445031.0,1784160000.0,1784160000.0,0.007043791666666667,14.6,2013-09-30 00:00:00,2013-10-31 00:00:00,-31.701134791734223,11.481449332885777,-85.90727279318446,3.9258293824956567
sh600358,2013-12-30,4.13,4.18,4.07,4.11,-0.004843,2472523.0,10161483.0,1775520000.0,1775520000.0,0.005723432870370371,14.53,2013-09-30 00:00:00,2013-10-31 00:00:00,-31.547624053091877,11.42585114123254,-85.49127226235584,3.9068188022041315
sh600358,2013-12-27,4.08,4.15,4.08,4.13,0.007317000000000001,1689218.0,6937689.0,1784160000.0,1784160000.0,0.003910226851851852,14.6,2013-09-30 00:00:00,2013-10-31 00:00:00,-31.701152735791315,11.481455831826075,-85.90732141999285,3.9258316046655266
sh600358,2013-12-26,4.15,4.22,4.07,4.1,-0.016787,1903500.0,7857991.0,1771200000.0,1771200000.0,0.00440625,14.49,2013-09-30 00:00:00,2013-10-31 00:00:00,-31.470880304602538,11.39805625421399,-85.28330348836846,3.8973149511678318
sh600358,2013-12-25,4.22,4.22,4.13,4.17,-0.002392,952800.0,3970750.0,1801440000.0,1801440000.0,0.0022055555555555557,14.74,2013-09-30 00:00:00,2013-10-31 00:00:00,-32.00820199143271,11.59266227583849,-86.73939775854109,3.9638562052859667
sh600358,2013-12-24,4.07,4.22,4.07,4.18,0.014563,1554909.0,6477114.0,1805760000.0,1805760000.0,0.003599326388888889,14.77,2013-09-30 00:00:00,2013-10-31 00:00:00,-32.08494918989494,11.620458412360858,-86.94737588164999,3.9733604835626486
sh600358,2013-12-23,4.32,4.32,4.11,4.12,-0.048499,3013791.0,12441033.0,1779840000.0,1779840000.0,0.006976368055555556,14.56,2013-09-30 00:00:00,2013-10-31 00:00:00,-31.62440300887667,11.453658779554209,-85.69933644500142,3.91632701326842
sh600358,2013-12-20,4.33,4.36,4.26,4.33,0.009323999999999999,1473042.0,6330639.0,1870560000.0,1870560000.0,0.0034098194444444445,15.3,2013-09-30 00:00:00,2013-10-31 00:00:00,-33.23633186815008,12.03746373314816,-90.0675211534212,4.115946292508805
sh600358,2013-12-19,4.34,4.4,4.27,4.29,-0.006944,1902367.0,8235216.0,1853280000.0,1853280000.0,0.004403627314814815,15.16,2013-09-30 00:00:00,2013-10-31 00:00:00,-32.92929908349557,11.92626325456262,-89.23548944979136,4.07792373163504
sh600358,2013-12-18,4.31,4.38,4.29,4.32,-0.0068969999999999995,1394523.0,6016791.0,1866240000.0,1866240000.0,0.0032280625,15.27,2013-09-30 00:00:00,2013-10-31 00:00:00,-33.159559061619454,12.00965832195024,-89.85947363471078,4.106438842960557
sh600358,2013-12-17,4.28,4.39,4.25,4.35,0.018734999999999998,2082526.0,9010024.0,1879200000.0,1879200000.0,0.0048206620370370365,15.37,2013-09-30 00:00:00,2013-10-31 00:00:00,-33.389848849131916,12.09306418563859,-90.483538600438,4.134957645843944
sh600358,2013-12-16,4.3,4.47,4.25,4.27,-0.016128999999999998,5181699.0,22638586.0,1844640000.0,1844640000.0,0.011994673611111109,15.09,2013-09-30 00:00:00,2013-10-31 00:00:00,-32.77579434213207,11.870667234991034,-88.81950517105822,4.0589138940391205
sh600358,2013-12-13,4.15,4.38,4.15,4.34,0.040767000000000005,6844184.0,29675930.0,1874880000.0,1874880000.0,0.01584301851851852,15.34,2013-09-30 00:00:00,2013-10-31 00:00:00,-33.31310135386862,12.065267941621446,-90.27555967302443,4.125453330811784
sh600358,2013-12-12,4.02,4.17,4.0,4.17,0.050378,7166832.0,29638417.0,1801440000.0,1801440000.0,0.01658988888888889,14.74,2013-09-30 00:00:00,2013-10-31 00:00:00,-32.00822216102991,11.59266958082015,-86.73945241636643,3.9638587030639747
sh600358,2013-12-11,3.96,4.02,3.96,3.97,-0.002513,1353095.0,5394764.0,1715040000.0,1715040000.0,0.0031321643518518517,14.03,2013-09-30 00:00:00,2013-10-31 00:00:00,-30.473050807452093,11.036664496800343,-82.57927376274677,3.7737449785353223
sh600358,2013-12-10,4.0,4.02,3.96,3.98,-0.007481,1872700.0,7468274.0,1719360000.0,1719360000.0,0.004334953703703704,14.07,2013-09-30 00:00:00,2013-10-31 00:00:00,-30.549822511423297,11.064469508675645,-82.78731829361863,3.783252291543972
sh600358,2013-12-09,4.04,4.07,3.96,4.01,-0.007426,2614697.0,10480502.0,1732320000.0,1732320000.0,0.0060525393518518515,14.17,2013-09-30 00:00:00,2013-10-31 00:00:00,-30.78008835238751,11.147866699454262,-83.41131836631705,3.8117681289163956
sh600358,2013-12-06,3.85,4.05,3.84,4.04,0.046632,5229691.0,20947501.0,1745280000.0,1745280000.0,0.012105766203703704,14.28,2013-09-30 00:00:00,2013-10-31 00:00:00,-31.010371370182487,11.231270111300782,-84.03536498670834,3.8402860934463283
sh600358,2013-12-05,3.82,3.89,3.8,3.86,0.010471,2812041.0,10815191.0,1667520000.0,1667520000.0,0.006509354166666667,13.64,2013-09-30 00:00:00,2013-10-31 00:00:00,-29.628724680864416,10.7308682624846,-80.29122460110942,3.669184673740463
sh600358,2013-12-04,3.78,3.86,3.77,3.82,0.007916,4482795.0,17166955.0,1650240000.0,1650240000.0,0.010376840277777778,13.5,2013-09-30 00:00:00,2013-10-31 00:00:00,-29.3216971895922,10.619669701044959,-79.45920724207762,3.6311627683926244
sh600358,2013-12-03,3.88,3.89,3.74,3.79,-0.038071,8767700.0,33100894.0,1637280000.0,1637280000.0,0.020295601851851853,13.4,2013-09-30 00:00:00,2013-10-31 00:00:00,-29.091409591267723,10.536264630232044,-78.83514820885632,3.6026442366155753
sh600358,2013-12-02,3.95,4.0,3.94,3.94,-0.050602,4740400.0,18722237.0,1702080000.0,1702080000.0,0.010973148148148149,13.93,2013-09-30 00:00:00,2013-10-31 00:00:00,-30.24278256635128,10.953266436745375,-81.95526718589035,3.745228843932946
sh600358,2013-11-29,4.21,4.23,4.11,4.15,-0.014252,5076530.0,21083216.0,1792800000.0,1792800000.0,0.011751226851851853,14.67,2013-09-30 00:00:00,2013-10-31 00:00:00,-31.854693781060504,11.537064999868733,-86.32340407910102,3.9448459380922927
sh600358,2013-11-28,4.21,4.26,4.18,4.21,0.0047729999999999995,3722358.0,15633072.0,1818720000.0,1818720000.0,0.008616569444444444,14.88,2013-09-30 00:00:00,2013-10-31 00:00:00,-32.315250734529016,11.703868534218413,-87.57147270813739,4.001880742433454
sh600358,2013-11-27,4.16,4.25,4.14,4.19,0.004796,4033785.0,16886942.0,1810080000.0,1810080000.0,0.00933746527777778,14.81,2013-09-30 00:00:00,2013-10-31 00:00:00,-32.16174273644795,11.648271335135812,-87.15547960398756,3.982870501529653
sh600358,2013-11-26,4.2,4.25,4.12,4.17,-0.014184,5788406.0,24220379.0,1801440000.0,1801440000.0,0.013399087962962963,14.74,2013-09-30 00:00:00,2013-10-31 00:00:00,-32.00823125932821,11.592672876022409,-86.73947707195049,3.9638598297859997
sh600358,2013-11-25,4.01,4.23,4.0,4.23,0.049628,7865274.0,32782062.0,1827360000.0,1827360000.0,0.01820665277777778,14.95,2013-09-30 00:00:00,2013-10-31 00:00:00,-32.468768268447874,11.759469186970396,-87.98749165356465,4.020892164243631
sh600358,2013-11-22,3.93,4.07,3.92,4.03,0.020253,11918265.0,47677377.0,1740960000.0,1740960000.0,0.02758857638888889,14.24,2013-09-30 00:00:00,2013-10-31 00:00:00,-30.93359577721619,11.20346369091754,-83.82730991700359,3.8307782988293293
sh600358,2013-11-21,3.95,4.12,3.91,3.95,-0.027094,26170315.0,104336136.0,1706400000.0,1706400000.0,0.06057943287037037,13.96,2013-09-30 00:00:00,2013-10-31 00:00:00,-30.319534250049927,10.981064197721095,-82.16325746359344,3.754733677655767
sh600358,2013-11-20,4.06,4.06,4.06,4.06,-0.04918,392500.0,1593550.0,1753920000.0,1753920000.0,0.0009085648148148147,14.35,2013-09-30 00:00:00,2013-10-31 00:00:00,-31.163888649108884,11.286870671700138,-84.45138324112857,3.8592974836785534
sh600358,2013-11-19,4.27,4.27,4.27,4.27,-0.048998,89400.0,381738.0,1844640000.0,1844640000.0,0.0002069444444444444,15.09,2013-09-30 00:00:00,2013-10-31 00:00:00,-32.77580262206188,11.87067023379834,-88.81952760893604,4.058914919415403
sh600358,2013-11-18,4.49,4.49,4.49,4.49,-0.05074,164200.0,737258.0,1939680000.0,1939680000.0,0.00038009259259259257,15.87,2013-09-30 00:00:00,2013-10-31 00:00:00,-34.46449389387392,12.482276834116373,-93.39573166926678,4.268040361024901
sh600358,2013-08-27,4.53,4.76,4.51,4.73,0.04415,4642419.0,21804315.0,2043360000.0,2043360000.0,0.01074634027777778,16.72,2013-06-30 00:00:00,2013-07-31 00:00:00,-25.779716850164387,12.863777090214281,-870.6028176914433,4.733544734157698
sh600358,2013-08-26,4.5,4.55,4.46,4.53,0.002212,1364998.0,6174333.0,1956960000.0,1956960000.0,0.0031597175925925924,16.01,2013-06-30 00:00:00,2013-07-31 00:00:00,-24.68966800762763,12.319855471162459,-833.7909473652669,4.5333953303238985
sh600358,2013-08-23,4.59,4.64,4.47,4.52,-0.015250999999999999,3129629.0,14123201.0,1952640000.0,1952640000.0,0.007244511574074073,15.98,2013-06-30 00:00:00,2013-07-31 00:00:00,-24.635175000526463,12.292664098177289,-831.9506724777459,4.523389592545188
sh600358,2013-08-22,4.52,4.6,4.52,4.59,0.006579000000000001,1076960.0,4910115.0,1982880000.0,1982880000.0,0.002492962962962963,16.22,2013-06-30 00:00:00,2013-07-31 00:00:00,-25.016704764895884,12.483042986768494,-844.8352549510037,4.593444210194869
sh600358,2013-08-21,4.54,4.6,4.45,4.56,0.004405,1196300.0,5408160.0,1969920000.0,1969920000.0,0.0027692129629629625,16.12,2013-06-30 00:00:00,2013-07-31 00:00:00,-24.85319559110203,12.401453822073076,-839.3134120133677,4.563421460406853
sh600358,2013-08-20,4.53,4.62,4.47,4.54,0.011136,2810256.0,12840627.0,1961280000.0,1961280000.0,0.006505222222222222,16.05,2013-06-30 00:00:00,2013-07-31 00:00:00,-24.74419740154821,12.347065000744797,-835.6324510664202,4.543407749271313
sh600358,2013-08-19,4.4,4.5,4.39,4.49,0.022779,1718830.0,7653936.0,1939680000.0,1939680000.0,0.003978773148148148,15.87,2013-06-30 00:00:00,2013-07-31 00:00:00,-24.471680764554137,12.211082387280047,-826.4293340029633,4.4933695855664455
sh600358,2013-08-16,4.41,4.5,4.38,4.39,-0.0067870000000000005,1951054.0,8657389.0,1896480000.0,1896480000.0,0.004516328703703703,15.52,2013-06-30 00:00:00,2013-07-31 00:00:00,-23.92665547938913,11.939121146679826,-808.0233696653561,4.393294725025099
sh600358,2013-08-15,4.45,4.5,4.41,4.42,-0.0045049999999999995,1463401.0,6500398.0,1909440000.0,1909440000.0,0.003387502314814815,15.62,2013-06-30 00:00:00,2013-07-31 00:00:00,-24.090155363843536,12.020705676103542,-813.5448988941507,4.423315769150322
sh600358,2013-08-14,4.49,4.54,4.44,4.44,-0.013333000000000001,1565876.0,7006132.0,1918080000.0,1918080000.0,0.0036247129629629633,15.69,2013-06-30 00:00:00,2013-07-31 00:00:00,-24.199172636571287,12.075104019712343,-817.2265042960041,4.443332984244342
sh600358,2013-08-13,4.45,4.5,4.42,4.5,0.011236,3462972.0,15414103.0,1944000000.0,1944000000.0,0.008016138888888889,15.9,2013-06-30 00:00:00,2013-07-31 00:00:00,-24.526180197139755,12.23827696650678,-828.2698258845226,4.503376503160988
sh600358,2013-08-12,4.56,4.56,4.43,4.45,-0.019824,3795297.0,16935519.0,1922400000.0,1922400000.0,0.008785409722222222,15.73,2013-06-30 00:00:00,2013-07-31 00:00:00,-24.253666005897482,12.102295573443564,-819.0667914161702,4.45333878853303
sh600358,2013-08-09,4.53,4.63,4.51,4.54,-0.002198,2245237.0,10211116.0,1961280000.0,1961280000.0,0.00519730787037037,16.05,2013-06-30 00:00:00,2013-07-31 00:00:00,-24.744194926112748,12.347063765531463,-835.6323674688733,4.5434072947440365
sh600358,2013-08-08,4.61,4.61,4.48,4.55,-0.008715,2021747.0,9196598.0,1965600000.0,1965600000.0,0.004679969907407407,16.08,2013-06-30 00:00:00,2013-07-31 00:00:00,-24.798702474150932,12.374262394274078,-837.473133416122,4.5534157024580395
sh600358,2013-08-07,4.45,4.61,4.44,4.59,0.02,3007767.0,13656084.0,1982880000.0,1982880000.0,0.006962423611111111,16.22,2013-06-30 00:00:00,2013-07-31 00:00:00,-25.016723216986975,12.483052194146062,-844.8358780937086,4.593447598277024
sh600358,2013-08-06,4.54,4.75,4.5,4.5,-0.006623,6269782.0,28966622.0,1944000000.0,1944000000.0,0.014513384259259259,15.9,2013-06-30 00:00:00,2013-07-31 00:00:00,-24.52619923234017,12.238286464849079,-828.2704687193221,4.503379998310807
sh600358,2013-08-05,4.35,4.55,4.28,4.53,0.046189,4871919.0,21923679.0,1956960000.0,1956960000.0,0.011277590277777777,16.01,2013-06-30 00:00:00,2013-07-31 00:00:00,-24.689719242885804,12.319881036956845,-833.7926776232208,4.533404737889852
sh600358,2013-08-02,4.23,4.38,4.19,4.33,0.030951999999999997,4203650.0,18073604.0,1870560000.0,1870560000.0,0.009730671296296296,15.3,2013-06-30 00:00:00,2013-07-31 00:00:00,-23.59967390489271,11.77596116663131,-796.9809256484448,4.3332559775431125
sh600358,2013-08-01,4.1,4.25,4.1,4.2,0.024390000000000002,2413735.0,10093308.0,1814400000.0,1814400000.0,0.005587349537037037,14.84,2013-06-30 00:00:00,2013-07-31 00:00:00,-22.89114711925745,11.422414590234375,-773.0533775078226,4.203159776151666
sh600358,2013-07-31,4.11,4.23,3.98,4.1,-0.007264,5456113.0,22442286.0,1771200000.0,1771200000.0,0.012629891203703702,14.49,2013-06-30 00:00:00,2013-07-31 00:00:00,-22.346125127400164,11.150454992956174,-754.6475243879993,4.103085520311274
sh600358,2013-07-30,4.08,4.14,4.0,4.13,0.012255,2518909.0,10265437.0,1784160000.0,1784160000.0,0.005830807870370371,14.6,2013-03-31 00:00:00,2013-04-27 00:00:00,-25.55407897995927,11.604739501875748,-82.83689625495032,4.04195326853457
sh600358,2013-07-29,4.02,4.13,4.01,4.08,0.004926,1916349.0,7804471.0,1762560000.0,1762560000.0,0.004435993055555556,14.42,2013-03-31 00:00:00,2013-04-27 00:00:00,-25.24470511872925,11.46424517722881,-81.83402033573589,3.993018822860416
sh600358,2013-07-26,4.01,4.07,4.01,4.06,0.00495,1484075.0,5985834.0,1753920000.0,1753920000.0,0.0034353587962962957,14.35,2013-03-31 00:00:00,2013-04-27 00:00:00,-25.120959273348735,11.408049127228084,-81.43288195920485,3.97344562968857
sh600358,2013-07-25,4.1,4.13,4.0,4.04,-0.014634000000000001,2064182.0,8380424.0,1745280000.0,1745280000.0,0.0047781990740740745,14.28,2013-03-31 00:00:00,2013-04-27 00:00:00,-24.997223019402693,11.351857432935057,-81.03177467456575,3.95387395361816
sh600358,2013-07-24,4.0,4.18,3.97,4.1,0.030151,5553824.0,22730215.0,1771200000.0,1771200000.0,0.012856074074074072,14.49,2013-03-31 00:00:00,2013-04-27 00:00:00,-25.36846513823563,11.520447664050776,-82.23520465955366,4.01259425798958
sh600358,2013-07-23,3.93,4.0,3.93,3.98,0.007595,2209161.0,8773836.0,1719360000.0,1719360000.0,0.0051137986111111115,14.07,2013-03-31 00:00:00,2013-04-27 00:00:00,-24.625967589446237,11.183261156908818,-79.82830153982636,3.8951515437926867
sh600358,2013-07-22,3.9,3.96,3.86,3.95,0.01023,1770175.0,6965259.0,1706400000.0,1706400000.0,0.004097627314814815,13.96,2013-03-31 00:00:00,2013-04-27 00:00:00,-24.44034318297157,11.098964521369021,-79.22657569740457,3.865790862194321
sh600358,2013-07-19,3.91,4.0,3.87,3.91,0.002564,3251053.0,12777532.0,1689120000.0,1689120000.0,0.007525585648148148,13.82,2013-03-31 00:00:00,2013-04-27 00:00:00,-24.19285032415546,10.98657189092486,-78.42429515793886,3.8266442910964047
sh600358,2013-07-18,3.85,3.91,3.84,3.9,0.0,984541.0,3818148.0,1684800000.0,1684800000.0,0.0022790300925925925,13.78,2013-03-31 00:00:00,2013-04-27 00:00:00,-24.13097849529353,10.958474362659002,-78.22372951546122,3.816857867524073
sh600358,2013-07-17,3.87,3.92,3.84,3.9,0.005155,1845792.0,7172694.0,1684800000.0,1684800000.0,0.004272666666666667,13.78,2013-03-31 00:00:00,2013-04-27 00:00:00,-24.13097849529353,10.958474362659002,-78.22372951546122,3.816857867524073
sh600358,2013-07-16,3.86,3.89,3.83,3.88,0.005181,1892382.0,7307410.0,1676160000.0,1676160000.0,0.004380513888888889,13.71,2013-03-31 00:00:00,2013-04-27 00:00:00,-24.00722126964849,10.902273144598597,-77.82255424831116,3.79728287430702
sh600358,2013-07-15,3.78,3.87,3.78,3.86,0.007833,1206460.0,4637224.0,1667520000.0,1667520000.0,0.0027927314814814815,13.64,2013-03-31 00:00:00,2013-04-27 00:00:00,-23.883480954821557,10.846079606159085,-77.42143379979443,3.777710555916815
sh600358,2013-07-12,3.85,3.91,3.81,3.83,0.0,2048599.0,7888861.0,1654560000.0,1654560000.0,0.0047421273148148145,13.54,2013-03-31 00:00:00,2013-04-27 00:00:00,-23.697855651503332,10.76178256334044,-76.8197050501367,3.7483497324624366
sh600358,2013-07-11,3.82,3.87,3.78,3.83,0.010554000000000001,2320568.0,8895827.0,1654560000.0,1654560000.0,0.005371685185185185,13.54,2013-03-31 00:00:00,2013-04-27 00:00:00,-23.697855651503332,10.76178256334044,-76.8197050501367,3.7483497324624366
sh600358,2013-07-10,3.74,3.8,3.72,3.79,0.016086000000000003,1915875.0,7208708.0,1637280000.0,1637280000.0,0.004434895833333333,13.4,2013-03-31 00:00:00,2013-04-27 00:00:00,-23.45036054629771,10.649388912755223,-76.01741722870496,3.7092028060474127
sh600358,2013-07-09,3.71,3.78,3.71,3.73,0.005391,1468107.0,5488330.0,1611360000.0,1611360000.0,0.003398395833333333,13.18,2013-03-31 00:00:00,2013-04-27 00:00:00,-23.079109983109408,10.480794846848811,-74.8139598702324,3.65048116601096
sh600358,2013-07-08,3.82,3.82,3.68,3.71,-0.033854,1607800.0,6045348.0,1602720000.0,1602720000.0,0.0037217592592592593,13.11,2013-03-31 00:00:00,2013-04-27 00:00:00,-22.955357650018165,10.42459585061813,-74.41280046293672,3.6309069466615083
sh600358,2013-07-05,3.8,3.88,3.8,3.84,0.015872999999999998,1938809.0,7443418.0,1658880000.0,1658880000.0,0.004487983796296296,13.57,2013-03-31 00:00:00,2013-04-27 00:00:00,-23.759719183247835,10.789876323679993,-77.02024379642074,3.7581348436587314
sh600358,2013-07-04,3.77,3.82,3.74,3.78,0.0,992769.0,3754893.0,1632960000.0,1632960000.0,0.002298076388888889,13.36,2013-03-31 00:00:00,2013-04-27 00:00:00,-23.388473936454496,10.621284672080067,-75.81680367173924,3.699414044529908
sh600358,2013-07-03,3.8,3.8,3.74,3.78,0.0,1352350.0,5080648.0,1632960000.0,1632960000.0,0.0031304398148148146,13.36,2013-03-31 00:00:00,2013-04-27 00:00:00,-23.388473936454496,10.621284672080067,-75.81680367173924,3.699414044529908
sh600358,2013-07-02,3.68,3.79,3.68,3.78,0.018868,1918191.0,7205419.0,1632960000.0,1632960000.0,0.004440256944444445,13.36,2013-03-31 00:00:00,2013-04-27 00:00:00,-23.388473936454496,10.621284672080067,-75.81680367173924,3.699414044529908
sh600358,2013-07-01,3.67,3.74,3.64,3.71,0.010898999999999999,1698148.0,6288710.0,1602720000.0,1602720000.0,0.003930898148148148,13.11,2013-03-31 00:00:00,2013-04-27 00:00:00,-22.955352348345905,10.424593442997589,-74.41278327687122,3.6309061080826055
sh600358,2013-06-28,3.62,3.7,3.62,3.67,0.0,1130849.0,4140121.0,1585440000.0,1585440000.0,0.0026177060185185183,12.97,2013-03-31 00:00:00,2013-04-27 00:00:00,-22.70785938886665,10.312200766839801,-73.61050241109272,3.591759521062545
sh600358,2013-06-27,3.68,3.73,3.63,3.67,-0.0027170000000000002,2164654.0,7939111.0,1585440000.0,1585440000.0,0.005010773148148148,12.97,2013-03-31 00:00:00,2013-04-27 00:00:00,-22.70785938886665,10.312200766839801,-73.61050241109272,3.591759521062545
sh600358,2013-06-26,3.66,3.79,3.6,3.68,0.002725,1748017.0,6412413.0,1589760000.0,1589760000.0,0.004046335648148148,13.01,2013-03-31 00:00:00,2013-04-27 00:00:00,-22.769724730960665,10.34029534930386,-73.81104702586198,3.601544918606398
sh600358,2013-06-25,3.65,3.73,3.51,3.67,-0.00542,3101515.0,11134784.0,1585440000.0,1585440000.0,0.007179432870370371,12.97,2013-03-31 00:00:00,2013-04-27 00:00:00,-22.707845851016646,10.312194618967174,-73.61045852637761,3.5917573797465887
sh600358,2013-06-24,3.86,3.97,3.69,3.69,-0.048969,2550317.0,9690715.0,1594080000.0,1594080000.0,0.005903511574074074,13.04,2013-03-31 00:00:00,2013-04-27 00:00:00,-22.831593085540273,10.368391299812156,-74.01160140599812,3.6113307926427125
sh600358,2013-06-21,3.82,3.9,3.8,3.88,0.005181,1791339.0,6896455.0,1676160000.0,1676160000.0,0.004146618055555555,13.71,2013-03-31 00:00:00,2013-04-27 00:00:00,-24.007201747934904,10.902264279305466,-77.82249096611797,3.7972797865082346
sh600358,2013-06-20,3.93,3.95,3.85,3.86,-0.025253,2566325.0,9974001.0,1667520000.0,1667520000.0,0.00594056712962963,13.64,2013-03-31 00:00:00,2013-04-27 00:00:00,-23.883461533728653,10.846070786560297,-77.42137084377636,3.777707484033457
sh600358,2013-06-19,4.0,4.0,3.9,3.96,-0.01,2879184.0,11327561.0,1710720000.0,1710720000.0,0.006664777777777778,14.0,2013-03-31 00:00:00,2013-04-27 00:00:00,-24.502215994230966,11.127062495765871,-79.42714452445234,3.8755774411549426
sh600358,2013-06-18,4.01,4.03,3.95,4.0,-0.002494,1622074.0,6478815.0,1728000000.0,1728000000.0,0.0037548009259259258,14.14,2013-03-31 00:00:00,2013-04-27 00:00:00,-24.749713125485822,11.239457066430173,-80.22943891358823,3.9147246880352955
sh600358,2013-06-17,4.04,4.04,3.87,4.01,0.0025,2345764.0,9398859.0,1732320000.0,1732320000.0,0.005430009259259259,14.17,2013-03-31 00:00:00,2013-04-27 00:00:00,-24.811593239023953,11.267558356972465,-80.43003141192959,3.924512422015803
sh600358,2013-06-14,3.82,4.01,3.81,4.0,0.04712,5839227.0,23020764.0,1728000000.0,1728000000.0,0.013516729166666666,14.14,2013-03-31 00:00:00,2013-04-27 00:00:00,-24.74971894166978,11.239459707703208,-80.22945776751082,3.9147256079958144
sh600358,2013-06-13,3.81,3.9,3.72,3.82,-0.007792,3153221.0,12004879.0,1650240000.0,1650240000.0,0.007299122685185185,13.5,2013-03-31 00:00:00,2013-04-27 00:00:00,-23.635991043691057,10.733688314331888,-76.61916281563795,3.738564451061783
sh600358,2013-06-07,3.92,3.97,3.76,3.85,-0.025315999999999998,3674250.0,14278916.0,1663200000.0,1663200000.0,0.008505208333333333,13.61,2013-03-31 00:00:00,2013-04-27 00:00:00,-23.821609021184123,10.81798203031208,-77.22086781767327,3.7679241157718772
sh600358,2013-06-06,3.93,3.96,3.87,3.95,0.002538,3796191.0,14896681.0,1706400000.0,1706400000.0,0.008787479166666667,13.96,2013-03-31 00:00:00,2013-04-27 00:00:00,-24.440340685990662,11.098963387428212,-79.22656760311368,3.8657904672405383
sh600358,2013-06-05,3.89,3.94,3.85,3.94,0.018088,3406235.0,13244236.0,1702080000.0,1702080000.0,0.00788480324074074,13.93,2013-03-31 00:00:00,2013-04-27 00:00:00,-24.37846813386691,11.070865530711268,-79.02599961608806,3.8560039292680566
sh600358,2013-06-04,3.85,3.92,3.84,3.87,0.0,6225726.0,24170336.0,1671840000.0,1671840000.0,0.014411402777777778,13.68,2013-03-31 00:00:00,2013-04-27 00:00:00,-23.945344738241594,10.874173480790725,-77.6219733619177,3.7874957069212645
sh600358,2013-06-03,3.7,3.9,3.7,3.87,0.043127,8855356.0,34141736.0,1671840000.0,1671840000.0,0.020498509259259258,13.68,2013-03-31 00:00:00,2013-04-27 00:00:00,-23.945344738241594,10.874173480790725,-77.6219733619177,3.7874957069212645
sh600358,2013-05-31,3.68,3.73,3.68,3.71,0.00542,1886912.0,7006730.0,1602720000.0,1602720000.0,0.004367851851851852,13.11,2013-03-31 00:00:00,2013-04-27 00:00:00,-22.95534938530169,10.424592097405903,-74.41277367177506,3.6309056394104124
sh600358,2013-05-30,3.7,3.72,3.66,3.69,0.0027170000000000002,1861749.0,6872601.0,1594080000.0,1594080000.0,0.0043096041666666664,13.04,2013-03-31 00:00:00,2013-04-27 00:00:00,-22.831602101909343,10.368395394368425,-74.0116306337402,3.6113322187845998
sh600358,2013-05-29,3.64,3.72,3.62,3.68,0.008219,2466073.0,9078899.0,1589760000.0,1589760000.0,0.005708502314814815,13.01,2013-03-31 00:00:00,2013-04-27 00:00:00,-22.76973672722148,10.340300797102698,-73.81108591331372,3.601546816085296
sh600358,2013-05-28,3.58,3.66,3.56,3.65,0.019553,3307824.0,11919316.0,1576800000.0,1576800000.0,0.007657,12.9,2013-03-31 00:00:00,2013-04-27 00:00:00,-22.58411786250952,10.256006678214455,-73.20937803524207,3.572187011041546
sh600358,2013-05-27,3.53,3.58,3.52,3.58,0.011299,2196768.0,7807873.0,1546560000.0,1546560000.0,0.005085111111111111,12.65,2013-03-31 00:00:00,2013-04-27 00:00:00,-22.150999371792853,10.059316855734282,-71.80536768097595,3.503679564516554
sh600358,2013-05-24,3.55,3.56,3.52,3.54,-0.002817,2710136.0,9585650.0,1529280000.0,1529280000.0,0.006273462962962963,12.51,2013-03-31 00:00:00,2013-04-27 00:00:00,-21.903511594288982,9.946926532839726,-71.00310361324983,3.4645337971426393
sh600358,2013-05-23,3.57,3.59,3.54,3.55,0.0,2602376.0,9272954.0,1533600000.0,1533600000.0,0.006024018518518519,12.55,2013-03-31 00:00:00,2013-04-27 00:00:00,-21.965388092545684,9.975026181593273,-71.20368439218261,3.4743209592849444
sh600358,2013-05-22,3.54,3.59,3.54,3.55,-0.002809,2525521.0,8995303.0,1533600000.0,1533600000.0,0.005846113425925926,12.55,2013-03-31 00:00:00,2013-04-27 00:00:00,-21.965388092545684,9.975026181593273,-71.20368439218261,3.4743209592849444
sh600358,2013-05-21,3.56,3.56,3.54,3.56,-0.002801,1813296.0,6432373.0,1537920000.0,1537920000.0,0.004197444444444445,12.58,2013-03-31 00:00:00,2013-04-27 00:00:00,-22.02726267339525,10.003124959604802,-71.40425895558886,3.484107818146117
sh600358,2013-05-20,3.52,3.58,3.52,3.57,0.008475,2111185.0,7505090.0,1542240000.0,1542240000.0,0.0048870023148148145,12.62,2013-03-31 00:00:00,2013-04-27 00:00:00,-22.089134338677887,10.031222413585255,-71.60482406780278,3.493894215844698
sh600358,2013-05-17,3.54,3.55,3.5,3.54,0.002833,2238099.0,7892996.0,1529280000.0,1529280000.0,0.005180784722222222,12.51,2013-03-31 00:00:00,2013-04-27 00:00:00,-21.903502157889772,9.946922247537376,-71.00307302392501,3.464532304563522
sh600358,2013-05-16,3.5,3.54,3.49,3.53,0.002841,2907775.0,10230663.0,1524960000.0,1524960000.0,0.006730960648148148,12.48,2013-03-31 00:00:00,2013-04-27 00:00:00,-21.841624834732972,9.918822224176283,-70.80248957097045,3.4547450119446825
sh600358,2013-05-15,3.48,3.56,3.46,3.52,0.008596,2656654.0,9360209.0,1520640000.0,1520640000.0,0.006149662037037037,12.44,2013-03-31 00:00:00,2013-04-27 00:00:00,-21.7797485690483,9.890722681039449,-70.60190954595039,3.4449578865888832
sh600358,2013-05-14,3.45,3.52,3.42,3.49,0.011594,3162120.0,10921234.0,1507680000.0,1507680000.0,0.007319722222222222,12.33,2013-03-31 00:00:00,2013-04-27 00:00:00,-21.59412546653794,9.806426637662106,-70.00018793049982,3.415597411241848
sh600358,2013-05-13,3.44,3.47,3.4,3.45,0.0,2609811.0,8951489.0,1490400000.0,1490400000.0,0.006041229166666667,12.19,2013-03-31 00:00:00,2013-04-27 00:00:00,-21.346632608079858,9.694034007380534,-69.1979073921947,3.376450840200562
sh600358,2013-05-10,3.36,3.47,3.35,3.45,0.023739,4874779.0,16645506.0,1490400000.0,1490400000.0,0.011284210648148147,12.19,2013-03-31 00:00:00,2013-04-27 00:00:00,-21.346632608079858,9.694034007380534,-69.1979073921947,3.376450840200562
sh600358,2013-05-09,3.35,3.38,3.32,3.37,0.0029760000000000003,3904222.0,13070199.0,1455840000.0,1455840000.0,0.009037550925925926,11.91,2013-03-31 00:00:00,2013-04-27 00:00:00,-20.851635629862553,9.469243632781925,-67.59330981060084,3.298155916889522
sh600358,2013-05-08,3.35,3.38,3.33,3.36,0.005988,4029799.0,13529761.0,1451520000.0,1451520000.0,0.009328238425925926,11.88,2013-03-31 00:00:00,2013-04-27 00:00:00,-20.78976528836438,9.441146779964749,-67.39274898960777,3.2883697285772757
sh600358,2013-05-07,3.29,3.34,3.27,3.34,0.015198,5979153.0,19860764.0,1442880000.0,1442880000.0,0.013840631944444444,11.8,2013-03-31 00:00:00,2013-04-27 00:00:00,-20.666017177505474,9.384949701154236,-66.9916032692316,3.268796177068986
sh600358,2013-05-06,3.29,3.35,3.25,3.29,-0.038012,13727487.0,45216495.0,1421280000.0,1421280000.0,0.03177659027777778,11.63,2013-03-31 00:00:00,2013-04-27 00:00:00,-20.35663700825403,9.244452511878704,-65.98870690173898,3.219860733639139
sh600358,2013-05-03,3.42,3.42,3.42,3.42,-0.05,2022400.0,6916608.0,1477440000.0,1477440000.0,0.004681481481481482,12.09,2013-03-31 00:00:00,2013-04-27 00:00:00,-21.161009293519285,9.609737867705942,-68.59618508935556,3.3470903313130087
sh600358,2013-04-26,3.7,3.72,3.56,3.6,-0.027027,2493185.0,9063792.0,1555200000.0,1555200000.0,0.0057712615740740745,12.72,2012-09-30 00:00:00,2012-10-26 00:00:00,-25.354449701936513,12.475879115144874,28.771476693750675,2.9461366759651537
sh600358,2013-04-25,3.72,3.76,3.69,3.7,-0.010695,2627532.0,9781963.0,1598400000.0,1598400000.0,0.00608225,13.08,2012-09-30 00:00:00,2012-10-26 00:00:00,-26.05873924758088,12.82243095660915,29.570683558280315,3.0279737217426934
sh600358,2013-04-24,3.71,3.76,3.71,3.74,0.008086,1724897.0,6438412.0,1615680000.0,1615680000.0,0.00399281712962963,13.22,2012-09-30 00:00:00,2012-10-26 00:00:00,-26.340450364226278,12.961049379725312,29.89036096884208,3.0607079937356967
sh600358,2013-04-23,3.77,3.77,3.69,3.71,-0.018519,2340429.0,8701650.0,1602720000.0,1602720000.0,0.005417659722222222,13.11,2012-09-30 00:00:00,2012-10-26 00:00:00,-26.129169896443635,12.857086974449908,29.6506061673727,3.036157623194545
sh600358,2013-04-22,3.76,3.79,3.72,3.78,-0.007873999999999999,3189188.0,11958400.0,1632960000.0,1632960000.0,0.007382379629629629,13.36,2012-09-30 00:00:00,2012-10-26 00:00:00,-26.62218616197729,13.099679947395728,30.21006638678966,3.0934451336241304
sh600358,2013-04-19,3.77,3.82,3.75,3.81,0.01061,1988402.0,7548036.0,1645920000.0,1645920000.0,0.004602782407407407,13.47,2012-09-30 00:00:00,2012-10-26 00:00:00,-26.833472927810874,13.203645451682275,30.44982833510024,3.1179962359862863
sh600358,2013-04-18,3.75,3.8,3.72,3.77,0.008020999999999999,1747382.0,6558110.0,1628640000.0,1628640000.0,0.00404486574074074,13.32,2012-09-30 00:00:00,2012-10-26 00:00:00,-26.55175876728993,13.065025530800483,30.130147470438885,3.085261610300993
sh600358,2013-04-17,3.73,3.76,3.71,3.74,0.002681,1110040.0,4150085.0,1615680000.0,1615680000.0,0.002569537037037037,13.22,2012-09-30 00:00:00,2012-10-26 00:00:00,-26.340481763068357,12.961064829800652,29.89039659931577,3.0607116422187564
sh600358,2013-04-16,3.66,3.73,3.62,3.73,0.019126,1713361.0,6304674.0,1611360000.0,1611360000.0,0.003966113425925926,13.18,2012-09-30 00:00:00,2012-10-26 00:00:00,-26.270051754315038,12.926409126931349,29.810474716600563,3.052527815146349
sh600358,2013-04-15,3.67,3.7,3.63,3.66,-0.00813,1348139.0,4933575.0,1581120000.0,1581120000.0,0.0031206921296296295,12.94,2012-09-30 00:00:00,2012-10-26 00:00:00,-25.777040085637143,12.68381841590868,29.251019713559035,2.9952408388622693
sh600358,2013-04-12,3.71,3.73,3.66,3.69,-0.005391,1498831.0,5539448.0,1594080000.0,1594080000.0,0.003469516203703704,13.04,2012-09-30 00:00:00,2012-10-26 00:00:00,-25.988325169263256,12.787783092450303,29.490779752950527,3.01979174575526
sh600358,2013-04-11,3.74,3.76,3.71,3.71,-0.008020999999999999,1932600.0,7231187.0,1602720000.0,1602720000.0,0.004473611111111111,13.11,2012-09-30 00:00:00,2012-10-26 00:00:00,-26.129187619721172,12.8570956953439,29.65062627922181,3.036159682604179
sh600358,2013-04-10,3.75,3.75,3.71,3.74,-0.005319,1836826.0,6850938.0,1615680000.0,1615680000.0,0.004251912037037037,13.22,2012-09-30 00:00:00,2012-10-26 00:00:00,-26.340464485358233,12.961056328152008,29.890376993083333,3.0607096345831706
sh600358,2013-04-09,3.7,3.76,3.68,3.76,0.010753,2316587.0,8639450.0,1624320000.0,1624320000.0,0.005362469907407408,13.29,2012-09-30 00:00:00,2012-10-26 00:00:00,-26.481318619093187,13.030364838729207,30.05021408178434,3.077076605045407
sh600358,2013-04-08,3.72,3.74,3.57,3.72,-0.033766000000000004,6077677.0,22233390.0,1607040000.0,1607040000.0,0.01406869675925926,13.15,2012-09-30 00:00:00,2012-10-26 00:00:00,-26.199594380717333,12.891739958950613,29.73052178107247,3.044340808333398
sh600358,2013-04-03,3.93,3.97,3.8,3.85,-0.022843000000000002,5832360.0,22506412.0,1663200000.0,1663200000.0,0.013500833333333333,13.61,2012-09-30 00:00:00,2012-10-26 00:00:00,-27.115165043578816,13.34225452525021,30.769484184030443,3.150728300115084
sh600358,2013-04-02,4.04,4.1,3.92,3.94,-0.024752,6106933.0,24525186.0,1702080000.0,1702080000.0,0.01413641898148148,13.93,2012-09-30 00:00:00,2012-10-26 00:00:00,-27.749036279307024,13.654156420360506,31.48878244133792,3.2243828782018484
sh600358,2013-04-01,4.0,4.1,3.97,4.04,-0.017032,7462722.0,30137226.0,1745280000.0,1745280000.0,0.017274819444444443,14.28,2012-09-30 00:00:00,2012-10-26 00:00:00,-28.453312674629455,14.000701791093656,32.28797438327269,3.306218395938109
sh600358,2013-03-29,4.1,4.32,4.04,4.11,0.045801999999999995,17820847.0,73829332.0,1775520000.0,1775520000.0,0.04125196064814815,14.53,2012-09-30 00:00:00,2012-10-26 00:00:00,-28.946326507708747,14.243293567128996,32.84743184241266,3.36350562372133
sh600358,2013-03-28,4.0,4.0,3.9,3.93,-0.012563,2844645.0,11158029.0,1697760000.0,1697760000.0,0.006584826388888889,13.89,2012-09-30 00:00:00,2012-10-26 00:00:00,-27.678591652826015,13.61949352471022,31.408843970859365,3.216197352578529
sh600358,2013-03-27,4.03,4.05,3.96,3.98,-0.014851,2293523.0,9201433.0,1719360000.0,1719360000.0,0.0053090810185185185,14.07,2012-09-30 00:00:00,2012-10-26 00:00:00,-28.030741862848988,13.792772120864644,31.808453573098195,3.2571165072592265
sh600358,2013-03-26,3.99,4.06,3.93,4.04,0.01,3948410.0,15807815.0,1745280000.0,1745280000.0,0.009139837962962962,14.28,2012-09-30 00:00:00,2012-10-26 00:00:00,-28.453301848602578,14.00069646405228,32.28796209821884,3.306217137975297
sh600358,2013-03-25,4.01,4.04,3.96,4.0,0.002506,2358184.0,9453254.0,1728000000.0,1728000000.0,0.0054587592592592596,14.14,2012-09-30 00:00:00,2012-10-26 00:00:00,-28.171585988715425,13.862075706982457,31.96827930516717,3.273482314827027
sh600358,2013-03-22,3.93,4.03,3.92,3.99,0.01269,3683274.0,14726182.0,1723680000.0,1723680000.0,0.008526097222222221,14.1,2012-09-30 00:00:00,2012-10-26 00:00:00,-28.10116447055222,13.82742418198241,31.88836705732152,3.26529947434432
sh600358,2013-03-21,3.98,3.99,3.92,3.94,-0.005051,2008373.0,7940223.0,1702080000.0,1702080000.0,0.0046490115740740745,13.93,2012-09-30 00:00:00,2012-10-26 00:00:00,-27.749029288876375,13.654152980657859,31.488774508804784,3.224382065927697
sh600358,2013-03-20,3.87,3.96,3.86,3.96,0.023256,2011966.0,7885538.0,1710720000.0,1710720000.0,0.0046573287037037035,14.0,2012-09-30 00:00:00,2012-10-26 00:00:00,-27.88990117973522,13.723470228783444,31.648631747762735,3.240751099732446
sh600358,2013-03-19,3.84,3.88,3.83,3.87,0.007812999999999999,799518.0,3075658.0,1671840000.0,1671840000.0,0.0018507361111111112,13.68,2012-09-30 00:00:00,2012-10-26 00:00:00,-27.256034833643998,13.41157073966187,30.929339039070122,3.1670970898117834
sh600358,2013-03-18,3.89,3.9,3.84,3.84,-0.010309,902203.0,3497086.0,1658880000.0,1658880000.0,0.0020884328703703703,13.57,2012-09-30 00:00:00,2012-10-26 00:00:00,-27.044734324367713,13.30759847279393,30.689561495108837,3.1425443904888937
sh600358,2013-03-15,3.85,3.91,3.83,3.88,0.005181,1310146.0,5081902.0,1676160000.0,1676160000.0,0.0030327453703703705,13.71,2012-09-30 00:00:00,2012-10-26 00:00:00,-27.326442621351227,13.446215508470758,31.009235706002016,3.175278334842788
sh600358,2013-03-14,3.87,3.9,3.85,3.86,-0.002584,1261945.0,4881680.0,1667520000.0,1667520000.0,0.0029211689814814816,13.64,2012-09-30 00:00:00,2012-10-26 00:00:00,-27.185594058533958,13.376909739112415,30.849404939012988,3.158912011710118
sh600358,2013-03-13,3.9,3.9,3.81,3.87,-0.007692,2329186.0,8966167.0,1671840000.0,1671840000.0,0.005391634259259259,13.68,2012-09-30 00:00:00,2012-10-26 00:00:00,-27.25602362357728,13.411565223650326,30.929326318219264,3.1670957872243055
sh600358,2013-03-12,4.06,4.07,3.84,3.9,-0.039409,4823787.0,19059691.0,1684800000.0,1684800000.0,0.011166173611111111,13.78,2012-09-30 00:00:00,2012-10-26 00:00:00,-27.46730211141832,13.515526654678114,31.169078872909694,3.191645927700176
sh600358,2013-03-11,4.1,4.11,4.04,4.06,0.0,2177993.0,8874608.0,1753920000.0,1753920000.0,0.005041650462962962,14.35,2012-09-30 00:00:00,2012-10-26 00:00:00,-28.59416974697693,14.070011747640894,32.44781480662393,3.322585707861281
sh600358,2013-03-08,4.04,4.09,4.03,4.06,0.0,2013929.0,8171295.0,1753920000.0,1753920000.0,0.004661872685185185,14.35,2012-09-30 00:00:00,2012-10-26 00:00:00,-28.59416974697693,14.070011747640894,32.44781480662393,3.322585707861281
sh600358,2013-03-07,4.05,4.11,4.02,4.06,0.0,3776516.0,15377663.0,1753920000.0,1753920000.0,0.008741935185185184,14.35,2012-09-30 00:00:00,2012-10-26 00:00:00,-28.59416974697693,14.070011747640894,32.44781480662393,3.322585707861281
sh600358,2013-03-06,4.02,4.09,3.98,4.06,0.012469,6311528.0,25613763.0,1753920000.0,1753920000.0,0.014610018518518517,14.35,2012-09-30 00:00:00,2012-10-26 00:00:00,-28.59416974697693,14.070011747640894,32.44781480662393,3.322585707861281
sh600358,2013-03-05,3.92,4.03,3.91,4.01,0.017766,4295640.0,17121991.0,1732320000.0,1732320000.0,0.009943611111111111,14.17,2012-09-30 00:00:00,2012-10-26 00:00:00,-28.24201999960189,13.896733379136439,32.048205729384236,3.2816666069393534
sh600358,2013-03-04,3.9,3.95,3.84,3.94,0.005102000000000001,6049912.0,23549382.0,1702080000.0,1702080000.0,0.014004425925925925,13.93,2012-09-30 00:00:00,2012-10-26 00:00:00,-27.749030719833335,13.65415368477277,31.48877613261225,3.2243822322020526
sh600358,2013-03-01,3.88,3.93,3.85,3.92,0.007712,3695200.0,14380976.0,1693440000.0,1693440000.0,0.008553703703703704,13.85,2012-09-30 00:00:00,2012-10-26 00:00:00,-27.6081738170189,13.58484381164575,31.328935901642073,3.208014939978283
sh600358,2013-02-28,3.83,3.89,3.81,3.89,0.018325,3542012.0,13617370.0,1680480000.0,1680480000.0,0.008199101851851852,13.75,2012-09-30 00:00:00,2012-10-26 00:00:00,-27.39688900898164,13.480879270710036,31.089176174980622,3.183464065108169
sh600358,2013-02-27,3.85,3.87,3.81,3.82,-0.002611,1958403.0,7493752.0,1650240000.0,1650240000.0,0.004533340277777778,13.5,2012-09-30 00:00:00,2012-10-26 00:00:00,-26.9038754906161,13.238287649532356,30.52971907296848,3.1261768738940607
sh600358,2013-02-26,3.86,3.91,3.83,3.83,-0.015424,3001944.0,11619333.0,1654560000.0,1654560000.0,0.006948944444444444,13.54,2012-09-30 00:00:00,2012-10-26 00:00:00,-26.97430540202078,13.272943304500407,30.60964084521534,3.1343606896547493
sh600358,2013-02-25,3.9,3.94,3.86,3.89,-0.002564,2348760.0,9137413.0,1680480000.0,1680480000.0,0.005436944444444445,13.75,2012-09-30 00:00:00,2012-10-26 00:00:00,-27.396874798919306,13.480872278524366,31.089160049823818,3.1834624139271614
sh600358,2013-02-22,3.92,3.95,3.87,3.9,-0.007634,2238038.0,8747336.0,1684800000.0,1684800000.0,0.0051806435185185185,13.78,2012-09-30 00:00:00,2012-10-26 00:00:00,-27.4673009585771,13.515526087412491,31.169077564699705,3.191645793742317
sh600358,2013-02-21,4.0,4.01,3.92,3.93,-0.022387999999999998,2429776.0,9604711.0,1697760000.0,1697760000.0,0.005624481481481481,13.89,2012-09-30 00:00:00,2012-10-26 00:00:00,-27.67859938629205,13.619497330029938,31.408852746566996,3.2161982511919156
sh600358,2013-02-20,4.0,4.03,3.95,4.02,0.005,2226148.0,8887404.0,1736640000.0,1736640000.0,0.0051531203703703695,14.21,2012-09-30 00:00:00,2012-10-26 00:00:00,-28.312458711934852,13.93139336467836,32.12813748866319,3.2898514453504215
sh600358,2013-02-19,4.08,4.1,3.98,4.0,-0.019608,3381966.0,13571846.0,1728000000.0,1728000000.0,0.007828625,14.14,2012-09-30 00:00:00,2012-10-26 00:00:00,-28.17160070839289,13.862082949928718,31.968296008620097,3.2734840252243003
sh600358,2013-02-18,4.07,4.1,4.02,4.08,0.002457,3176048.0,12914645.0,1762560000.0,1762560000.0,0.007351962962962963,14.42,2012-09-30 00:00:00,2012-10-26 00:00:00,-28.735037320166715,14.13932687121959,32.60766714601924,3.3389542399614642
sh600358,2013-02-08,4.04,4.09,4.0,4.07,0.0049380000000000005,2210217.0,8950280.0,1758240000.0,1758240000.0,0.005116243055555556,14.38,2012-09-30 00:00:00,2012-10-26 00:00:00,-28.664608377383487,14.104671692870209,32.527746472935235,3.330770536752663
sh600358,2013-02-07,4.05,4.05,3.99,4.05,-0.002463,2326870.0,9363824.0,1749600000.0,1749600000.0,0.005386273148148148,14.31,2012-09-30 00:00:00,2012-10-26 00:00:00,-28.523758060082795,14.035365060202926,32.36791371501051,3.3144040097525047
sh600358,2013-02-06,4.08,4.16,4.06,4.06,-0.009756,2732190.0,11173956.0,1753920000.0,1753920000.0,0.006324513888888888,14.35,2012-09-30 00:00:00,2012-10-26 00:00:00,-28.59418553906551,14.070019518276439,32.44783272701716,3.322587542870595
sh600358,2013-02-05,4.07,4.14,4.0,4.1,0.002445,5613625.0,22808831.0,1771200000.0,1771200000.0,0.012994502314814813,14.49,2012-09-30 00:00:00,2012-10-26 00:00:00,-28.875898807834748,14.208639000363991,32.76751257974515,3.355322064936112
sh600358,2013-02-04,4.09,4.17,4.01,4.09,0.009877,8744343.0,35732203.0,1766880000.0,1766880000.0,0.02024153472222222,14.46,2012-09-30 00:00:00,2012-10-26 00:00:00,-28.805469435066012,14.173983610436474,32.68759141872636,3.3471383117638496
sh600358,2013-02-01,4.01,4.06,3.96,4.05,0.009975,3858596.0,15487176.0,1749600000.0,1749600000.0,0.008931935185185185,14.31,2012-09-30 00:00:00,2012-10-26 00:00:00,-28.523740450635092,14.035356395319901,32.36789373233212,3.314401963569672
sh600358,2013-01-31,3.99,4.04,3.95,4.01,0.010076,3584890.0,14300770.0,1732320000.0,1732320000.0,0.008298356481481481,14.17,2012-09-30 00:00:00,2012-10-26 00:00:00,-28.242026238902042,13.896736449238743,32.04821280955679,3.281667331933634
sh600358,2013-01-30,3.97,3.99,3.89,3.97,-0.002513,3036961.0,11956192.0,1715040000.0,1715040000.0,0.0070300023148148144,14.03,2012-09-30 00:00:00,2012-10-26 00:00:00,-27.960298273498275,13.758109735543409,31.728516279524303,3.2489311021483864
sh600358,2013-01-29,3.97,3.99,3.94,3.98,0.0,2565744.0,10182697.0,1719360000.0,1719360000.0,0.0059392222222222225,14.07,2012-09-30 00:00:00,2012-10-26 00:00:00,-28.030739521916846,13.792770968988474,31.808450916677913,3.2571162352475636
sh600358,2013-01-28,3.9,3.98,3.88,3.98,0.025773,3778878.0,14897037.0,1719360000.0,1719360000.0,0.008747402777777778,14.07,2012-09-30 00:00:00,2012-10-26 00:00:00,-28.030739521916846,13.792770968988474,31.808450916677913,3.2571162352475636
sh600358,2013-01-25,3.8,3.9,3.78,3.88,0.018373,2250455.0,8659931.0,1676160000.0,1676160000.0,0.005209386574074074,13.71,2012-09-30 00:00:00,2012-10-26 00:00:00,-27.326454802297235,13.446221502211962,31.009249528577868,3.175279750244511
sh600358,2013-01-24,3.9,3.94,3.76,3.81,-0.023077,2240855.0,8662204.0,1645920000.0,1645920000.0,0.005187164351851852,13.47,2012-09-30 00:00:00,2012-10-26 00:00:00,-26.833443936845576,13.2036311864238,30.449795437013623,3.117992867293724
sh600358,2013-01-23,3.88,3.93,3.83,3.9,0.0,1102397.0,4277778.0,1684800000.0,1684800000.0,0.0025518449074074076,13.78,2012-09-30 00:00:00,2012-10-26 00:00:00,-27.46730698002358,13.515529050317989,31.169084397658384,3.1916464934224336
sh600358,2013-01-22,3.98,3.98,3.85,3.9,-0.020101,2542470.0,9952426.0,1684800000.0,1684800000.0,0.005885347222222222,13.78,2012-09-30 00:00:00,2012-10-26 00:00:00,-27.46730698002358,13.515529050317989,31.169084397658384,3.1916464934224336
sh600358,2013-01-21,3.97,3.99,3.93,3.98,0.002519,2229847.0,8848548.0,1719360000.0,1719360000.0,0.00516168287037037,14.07,2012-09-30 00:00:00,2012-10-26 00:00:00,-28.0307531490731,13.7927776743501,31.808466380370206,3.2571178186960426
sh600358,2013-01-18,3.9,3.97,3.87,3.97,0.010178,2122927.0,8353247.0,1715040000.0,1715040000.0,0.00491418287037037,14.03,2012-09-30 00:00:00,2012-10-26 00:00:00,-27.960321100221645,13.758120967632635,31.728542182612212,3.2489337545682857
sh600358,2013-01-17,3.92,3.98,3.9,3.93,0.007692,3437399.0,13502081.0,1697760000.0,1697760000.0,0.00795694212962963,13.89,2012-09-30 00:00:00,2012-10-26 00:00:00,-27.67860822570046,13.619501679538294,31.408862777265202,3.2161992783136095
sh600358,2013-01-16,3.96,3.96,3.86,3.9,-0.015152,2997216.0,11703224.0,1684800000.0,1684800000.0,0.006938,13.78,2012-09-30 00:00:00,2012-10-26 00:00:00,-27.467329526978943,13.515540144744918,31.169109983273863,3.191649113333846
sh600358,2013-01-15,3.87,4.0,3.85,3.96,0.017995,3496229.0,13755824.0,1710720000.0,1710720000.0,0.008093122685185186,14.0,2012-09-30 00:00:00,2012-10-26 00:00:00,-27.889917557814954,13.723478287761072,31.648650333121314,3.2407530028327676
sh600358,2013-01-14,3.76,3.91,3.72,3.89,0.026385000000000002,4762518.0,18281342.0,1680480000.0,1680480000.0,0.011024347222222222,13.75,2012-09-30 00:00:00,2012-10-26 00:00:00,-27.396910159494844,13.480889678005365,31.089200175955007,3.1834665227557775
sh600358,2013-01-11,3.9,3.95,3.74,3.79,-0.013021000000000001,4957806.0,19057780.0,1637280000.0,1637280000.0,0.011476402777777778,13.4,2012-09-30 00:00:00,2012-10-26 00:00:00,-26.69262524247221,13.134340114094968,30.289998563847874,3.1016300148148863
sh600358,2013-01-10,3.8,3.85,3.78,3.84,0.010526,3014902.0,11484476.0,1658880000.0,1658880000.0,0.0069789398148148146,13.57,2012-09-30 00:00:00,2012-10-26 00:00:00,-27.044775261147613,13.307618616095143,30.689607948951167,3.1425491472613767
sh600358,2013-01-09,3.77,3.86,3.75,3.8,0.007958,5524359.0,21098935.0,1641600000.0,1641600000.0,0.012787868055555556,13.43,2012-09-30 00:00:00,2012-10-26 00:00:00,-26.76306721563583,13.169001704157182,30.369934023420637,3.109815232127997
sh600358,2013-01-08,3.73,3.79,3.69,3.77,0.016173,4025105.0,15095276.0,1628640000.0,1628640000.0,0.009317372685185185,13.32,2012-09-30 00:00:00,2012-10-26 00:00:00,-26.551768243950473,13.065030193874332,30.130158224271888,3.085262711470118
sh600358,2013-01-07,3.67,3.73,3.65,3.71,0.010898999999999999,3072065.0,11371257.0,1602720000.0,1602720000.0,0.007111261574074074,13.11,2012-09-30 00:00:00,2012-10-26 00:00:00,-26.129180999643243,12.857092437876554,29.650618766953937,3.0361589133642775
sh600358,2013-01-04,3.72,3.74,3.63,3.67,-0.013441,2153639.0,7922672.0,1585440000.0,1585440000.0,0.004985275462962963,12.97,2012-09-30 00:00:00,2012-10-26 00:00:00,-25.84746943032216,12.718473792017358,29.33094084270925,3.0034245887712596
