code,date,open,high,low,close,change,volume,money,traded_market_value,market_value,turnover,adjust_price,report_type,report_date,PE_TTM,PS_TTM,PC_TTM,PB
sh600556,2014-12-31,14.28,14.4,13.58,14.0,-0.050847,14810560.0,207430223.0,5527111910.0,5527111910.0,0.037514680971965336,52.67,2014-09-30 00:00:00,2014-10-30 00:00:00,161.41507657222812,115.6452489372135,576.4169069638941,3371.0603988295356
sh600556,2014-12-30,15.0,15.33,14.71,14.75,-0.014696,10994764.0,164442474.0,5823207190.0,5823207190.0,0.027849390157110313,55.49,2014-09-30 00:00:00,2014-10-30 00:00:00,170.06223082287906,121.8404713857655,607.2960913192015,3551.6512077921425
sh600556,2014-12-29,14.18,15.0,14.11,14.97,0.041029,17943183.0,262333419.0,5910061810.0,5910061810.0,0.04544951612105052,56.32,2014-09-30 00:00:00,2014-10-30 00:00:00,172.59874193434624,123.65774561532838,616.3540301462307,3604.6247734629546
sh600556,2014-12-26,14.7,15.0,14.33,14.38,0.019135,19943759.0,291783349.0,5677133520.0,5677133520.0,0.05051691199610891,54.1,2014-09-30 00:00:00,2014-10-30 00:00:00,165.7962861114784,118.78415069640556,592.0623058015009,3462.5594229007593
sh600556,2014-12-25,13.47,14.23,13.32,14.11,0.047513,12794991.0,178954433.0,5570539220.0,5570539220.0,0.03240930830570474,53.08,2014-09-30 00:00:00,2014-10-30 00:00:00,162.68334039305725,116.55389197349278,580.9459058922527,3397.5473542766754
sh600556,2014-12-24,13.12,13.57,13.12,13.47,0.027460000000000002,6408505.0,85905157.0,5317871250.0,5317871250.0,0.016232540859277104,50.67,2014-09-30 00:00:00,2014-10-30 00:00:00,155.30436413968823,111.26725107324948,554.5954139874663,3243.4417083861254
sh600556,2014-12-23,12.97,13.4,12.89,13.11,0.01944,7252347.0,95130036.0,5175745510.0,5175745510.0,0.01836996602446939,49.32,2014-09-30 00:00:00,2014-10-30 00:00:00,151.15368397766167,108.29351125420892,539.7732407952293,3156.7571568587837
sh600556,2014-12-22,13.72,13.79,12.6,12.86,-0.060627999999999994,12274215.0,161074289.0,5077047080.0,5077047080.0,0.031090199167505057,48.38,2014-09-30 00:00:00,2014-10-30 00:00:00,148.27129009815357,106.2284305640439,529.480146742554,3096.560029877956
sh600556,2014-12-19,13.2,13.82,13.2,13.69,0.037908,10695270.0,145398693.0,5404725860.0,5404725860.0,0.02709078130745377,51.5,2014-09-30 00:00:00,2014-10-30 00:00:00,157.84086612987565,113.0845187679044,563.6533202421979,3296.4150835642918
sh600556,2014-12-18,13.34,13.5,13.13,13.19,-0.012725,5996141.0,79752633.0,5207329010.0,5207329010.0,0.015188035869851827,49.62,2014-09-30 00:00:00,2014-10-30 00:00:00,152.07597024965182,108.95427992452548,543.0667460335578,3176.0185715538287
sh600556,2014-12-17,13.75,13.94,13.12,13.36,-0.031181999999999998,9922593.0,133098917.0,5274443940.0,5274443940.0,0.025133614839406182,50.26,2014-09-30 00:00:00,2014-10-30 00:00:00,154.03607935950149,110.35859302071405,550.0663402127652,3216.9543152149386
sh600556,2014-12-16,13.95,14.17,13.7,13.79,-0.01005,8040640.0,111485231.0,5444205230.0,5444205230.0,0.02036668731534942,51.88,2014-09-30 00:00:00,2014-10-30 00:00:00,158.9938248045572,113.91055184845253,567.770561873092,3320.493957807286
sh600556,2014-12-15,13.57,14.06,13.37,13.93,0.036458,11393658.0,156900071.0,5499476350.0,5499476350.0,0.028859776065770337,52.4,2014-09-30 00:00:00,2014-10-30 00:00:00,160.60793454675206,115.06697494666652,573.5345844467822,3354.203705042968
sh600556,2014-12-12,13.51,13.86,13.2,13.44,-0.003706,8589645.0,115777257.0,5306027440.0,5306027440.0,0.02175729961924207,50.56,2014-09-30 00:00:00,2014-10-30 00:00:00,154.95845904682298,111.01942861810755,553.360179039365,3236.2176808350823
sh600556,2014-12-11,12.39,13.52,12.39,13.49,0.080064,16458420.0,215653841.0,5325767120.0,5325767120.0,0.041688658327966845,50.75,2014-09-30 00:00:00,2014-10-30 00:00:00,155.53487127978588,111.4323970816923,555.4185602235535,3248.2557165205076
sh600556,2014-12-10,12.05,12.73,12.05,12.49,0.02377,11025526.0,136817203.0,4930973410.0,4930973410.0,0.027927309334243602,46.99,2014-09-30 00:00:00,2014-10-30 00:00:00,144.00523605988707,103.17203154784559,514.2459708161308,3007.4659617582915
sh600556,2014-12-09,12.75,13.0,11.9,12.2,-0.046875,15985709.0,197669475.0,4816483240.0,4816483240.0,0.040491296259550565,45.9,2014-09-30 00:00:00,2014-10-30 00:00:00,140.6617072778916,100.77657242138918,502.30615354633443,2937.6382993819816
sh600556,2014-12-08,12.71,13.58,12.71,12.8,-0.0069819999999999995,13635822.0,178955234.0,5053359460.0,5053359460.0,0.034539106703483945,48.15,2014-09-30 00:00:00,2014-10-30 00:00:00,147.57949616041086,105.73279729457225,527.0097348682854,3082.112314105686
sh600556,2014-12-05,13.25,13.26,12.42,12.89,-0.025699,16176662.0,207028093.0,5088890900.0,5088890900.0,0.04097497416971545,48.49,2014-09-30 00:00:00,2014-10-30 00:00:00,148.61714103914616,106.47621422227215,530.7151883130873,3103.782926498498
sh600556,2014-12-04,12.88,13.73,12.8,13.23,0.016909999999999998,14940308.0,199935310.0,5223120760.0,5223120760.0,0.037843328523769384,49.77,2014-09-30 00:00:00,2014-10-30 00:00:00,152.53719439797987,109.28472230067727,544.7137879496042,3185.6509707970113
sh600556,2014-12-03,13.8,13.8,12.7,13.01,-0.06065,24871331.0,326018566.0,5136266140.0,5136266140.0,0.06299829632854656,48.94,2014-09-30 00:00:00,2014-10-30 00:00:00,150.00068285096995,107.46744775907136,535.6558475672421,3132.677396030141
sh600556,2014-12-02,13.85,13.95,13.45,13.85,0.009475,13120527.0,179770320.0,5467892860.0,5467892860.0,0.03323388069275373,52.1,2014-09-30 00:00:00,2014-10-30 00:00:00,159.68561542659282,114.4061827423978,570.2409619068953,3334.941604332934
sh600556,2014-12-01,13.1,14.18,13.02,13.72,0.047327999999999995,24594509.0,338015752.0,5416569670.0,5416569670.0,0.062297114970922184,51.61,2014-09-30 00:00:00,2014-10-30 00:00:00,158.1867955388621,113.3323586442436,564.8886420237206,3303.639618943445
sh600556,2014-11-28,12.3,13.2,12.2,13.1,0.069388,19692609.0,248686982.0,5171797570.0,5171797570.0,0.049880757011144965,49.28,2014-09-30 00:00:00,2014-10-30 00:00:00,151.038447877706,108.21095076637269,539.3617300632853,3154.3505176443714
sh600556,2014-11-27,12.56,12.65,12.1,12.25,0.034628,17227755.0,212775710.0,4836222920.0,4836222920.0,0.04363735961740986,46.08,2014-09-30 00:00:00,2014-10-30 00:00:00,141.2382108997913,101.18960636024782,504.36486108249335,2949.6782436724293
sh600556,2014-11-26,11.86,11.9,11.67,11.84,0.005093,7578848.0,89396339.0,4674357500.0,4674357500.0,0.019196982755384027,44.54,2014-09-30 00:00:00,2014-10-30 00:00:00,136.5111043774103,97.80288795610385,487.4842562568317,2850.9553614172714
sh600556,2014-11-25,11.63,11.88,11.55,11.78,0.012898,8924363.0,104675262.0,4650669880.0,4650669880.0,0.022605129766811137,44.32,2014-09-30 00:00:00,2014-10-30 00:00:00,135.81937629394528,97.3073018676917,485.0140795496852,2836.509020973454
sh600556,2014-11-24,11.29,11.65,11.28,11.63,0.041181999999999996,14992453.0,172313603.0,4591450820.0,4591450820.0,0.037975410219029636,43.75,2014-09-30 00:00:00,2014-10-30 00:00:00,134.08988495776006,96.06821404296552,478.8380266815466,2800.3895959647007
sh600556,2014-11-21,11.22,11.38,11.16,11.17,-0.004456,6967920.0,78282909.0,4409845720.0,4409845720.0,0.017649521398676052,42.02,2014-09-30 00:00:00,2014-10-30 00:00:00,128.78621120780042,92.26841612990381,459.89848718240086,2689.6254410513247
sh600556,2014-11-20,11.24,11.45,11.06,11.22,-0.0035520000000000005,9091603.0,102793036.0,4429585400.0,4429585400.0,0.02302874342596488,42.21,2014-09-30 00:00:00,2014-10-30 00:00:00,129.36265118146503,92.68140446821417,461.95696742926566,2701.6640560852406
sh600556,2014-11-19,11.2,11.5,10.96,11.26,0.005357,14705990.0,165150895.0,4445377150.0,4445377150.0,0.03724980846675743,42.36,2014-09-30 00:00:00,2014-10-30 00:00:00,129.82378526673244,93.0117823190113,463.6036877280758,2711.2945744135577
sh600556,2014-11-18,10.97,11.3,10.71,11.2,0.028466,15854199.0,174931538.0,4421689530.0,4421689530.0,0.04015818559744062,42.13,2014-09-30 00:00:00,2014-10-30 00:00:00,129.1320250087605,92.51617317928982,461.1333961250339,2696.8475620237955
sh600556,2014-11-17,10.6,10.99,10.34,10.89,0.057282000000000007,17209720.0,184734724.0,4299303480.0,4299303480.0,0.043591677505864276,40.97,2014-09-30 00:00:00,2014-10-30 00:00:00,125.5578939982075,89.95549991860675,448.37009305609894,2622.203905645685
sh600556,2014-11-14,10.22,10.38,10.2,10.3,0.011788,5463821.0,56112187.0,4066375190.0,4066375190.0,0.013839686125962225,38.75,2014-09-30 00:00:00,2014-10-30 00:00:00,118.75535003736702,85.0818418535516,424.07805396866576,2480.136714372972
sh600556,2014-11-13,10.62,10.66,10.18,10.18,-0.042332999999999996,13675308.0,141227008.0,4018999950.0,4018999950.0,0.03463912345657033,38.3,2014-09-30 00:00:00,2014-10-30 00:00:00,117.3717715938191,84.09058207208587,419.1372639017915,2451.2414798089844
sh600556,2014-11-12,10.76,10.93,10.53,10.63,-0.005613,12459074.0,133121894.0,4196657120.0,4196657120.0,0.031558441119440325,39.99,2014-09-30 00:00:00,2014-10-30 00:00:00,122.56010867432948,87.80774744466068,437.6649335330459,2559.596895172314
sh600556,2014-11-11,11.2,11.59,10.55,10.69,-0.011101,26921237.0,295804424.0,4220344740.0,4220344740.0,0.06819064348046601,40.21,2014-09-30 00:00:00,2014-10-30 00:00:00,123.25192171089273,88.30339439741336,440.1354136096368,2574.0450098123906
sh600556,2014-11-10,10.62,11.0,10.5,10.81,0.016933,12805084.0,138457038.0,4267719980.0000005,4267719980.0000005,0.0324348735832476,40.67,2014-09-30 00:00:00,2014-10-30 00:00:00,124.63550040084247,89.29465435541279,445.07620455641757,2602.940249522338
sh600556,2014-11-07,10.39,10.86,10.37,10.63,0.021134,23161092.0,246761922.0,4196657120.0,4196657120.0,0.058666314859670984,39.99,2014-09-30 00:00:00,2014-10-30 00:00:00,122.56018872515934,87.80780479678876,437.66521939637863,2559.5985669875377
sh600556,2014-11-06,10.1,10.55,10.08,10.41,0.033763999999999995,20354843.0,211150367.0,4109802500.0,4109802500.0,0.051558174785771335,39.16,2014-09-30 00:00:00,2014-10-30 00:00:00,120.02360975656414,85.99048195123144,428.60703825000314,2506.6235841599027
sh600556,2014-11-05,10.0,10.78,10.0,10.07,0.027551,31108222.0,322096265.0,3975572640.0,3975572640.0,0.0787961443310466,37.88,2014-09-30 00:00:00,2014-10-30 00:00:00,116.10349147055238,83.18192735598399,414.6082067570578,2424.754183894876
sh600556,2014-11-04,9.9,9.93,9.68,9.8,-0.012097,11204435.0,109731245.0,3868978340.0,3868978340.0,0.028380480155389035,36.87,2014-09-30 00:00:00,2014-10-30 00:00:00,112.9904904676774,80.95162902472383,403.49160942576844,2359.7409606869887
sh600556,2014-11-03,9.69,9.96,9.62,9.92,0.023736,8925911.0,87835496.0,3916353580.0,3916353580.0,0.022609050820176453,37.32,2014-09-30 00:00:00,2014-10-30 00:00:00,114.37407363645762,81.94289219156518,408.4324163665546,2388.636293934717
sh600556,2014-10-31,9.73,9.75,9.58,9.69,-0.0051329999999999995,8629940.0,83296423.0,3825551030.0,3825551030.0,0.021859365603600377,36.45,2014-09-30 00:00:00,2014-10-30 00:00:00,111.72223467423011,80.04299173963325,398.96263916337284,2333.254172887069
sh600556,2014-10-30,10.01,10.09,9.6,9.74,-0.026973,13285196.0,130486115.0,3845290720.0,3845290720.0,0.03365098206150717,36.64,2014-09-30 00:00:00,2014-10-30 00:00:00,112.29866371507961,80.4559722451677,401.02108036890644,2345.292559595473
sh600556,2014-10-29,10.08,10.15,9.85,10.01,-0.001994,9915503.0,99183903.0,3951885020.0,3951885020.0,0.025115656079993946,37.66,2014-06-30 00:00:00,2014-08-12 00:00:00,117.18144312405822,86.37120165655486,723.3174662899361,2807.851449084551
sh600556,2014-10-28,9.84,10.11,9.83,10.03,0.019309,8346340.0,83763230.0,3959780890.0,3959780890.0,0.021141015759586636,37.73,2014-06-30 00:00:00,2014-08-12 00:00:00,117.41556977017997,86.54376993380288,724.7626430000785,2813.4614912982
sh600556,2014-10-27,9.77,9.88,9.66,9.84,-0.001015,6884201.0,67153846.0,3884770090.0,3884770090.0,0.017437463806255778,37.02,2014-06-30 00:00:00,2014-08-12 00:00:00,115.19134018259425,84.9043518048039,711.0333009912384,2760.165456498667
sh600556,2014-10-24,9.52,9.88,9.45,9.85,0.033578,8887107.0,85989068.0,3888718020.0,3888718020.0,0.022510761515693544,37.05,2014-06-30 00:00:00,2014-08-12 00:00:00,115.3083781864535,84.99061728134447,711.7557330602947,2762.9698709176487
sh600556,2014-10-23,9.54,9.54,9.39,9.53,-0.002094,7773640.0,73539488.0,3762384040.0,3762384040.0,0.019690384716813756,35.85,2014-06-30 00:00:00,2014-08-12 00:00:00,111.5623380010541,82.22951463880274,688.6328202228517,2673.208863692579
sh600556,2014-10-22,9.44,9.57,9.41,9.55,0.011653,6364242.0,60296078.0,3770279910.0,3770279910.0,0.01612042409339311,35.93,2014-06-30 00:00:00,2014-08-12 00:00:00,111.79643974588198,82.40206456199557,690.0778432265682,2678.818309232111
sh600556,2014-10-21,9.62,9.7,9.4,9.44,-0.015641,8794684.0,83757638.0,3726852600.0,3726852600.0,0.022276656973232587,35.51,2014-06-30 00:00:00,2014-08-12 00:00:00,110.50868207367743,81.45289398834935,682.1289940588011,2647.961612560939
sh600556,2014-10-20,9.46,9.81,9.46,9.59,0.014815,7309174.0,70708414.0,3786071660.0,3786071660.0,0.018513907013582517,36.08,2014-06-30 00:00:00,2014-08-12 00:00:00,112.26461288379284,82.74714203694927,692.9677018839683,2690.03647303569
sh600556,2014-10-17,9.78,9.87,9.39,9.45,-0.042553,14374618.0,137081626.0,3730800540.0,3730800540.0,0.036410453639529064,35.55,2014-06-30 00:00:00,2014-08-12 00:00:00,110.62569323846499,81.53913968255226,682.8512604602497,2650.765383873603
sh600556,2014-10-16,10.3,10.3,9.85,9.87,-0.042677,21131711.0,212292042.0,3896613900.0,3896613900.0,0.0535259568750191,37.13,2014-06-30 00:00:00,2014-08-12 00:00:00,115.54236760725655,85.16308441360435,713.2000627295814,2768.5766249971043
sh600556,2014-10-15,10.12,10.36,9.96,10.31,0.019782,15874761.0,160967996.0,4070323130.0,4070323130.0,0.04021026849286042,38.78,2014-06-30 00:00:00,2014-08-12 00:00:00,120.69319091597772,88.9596138540538,744.9941793204398,2891.99844252891
sh600556,2014-10-14,9.93,10.18,9.85,10.11,0.021212,12550481.0,126216309.0,3991364390.0,3991364390.0,0.03178997217790982,38.03,2014-06-30 00:00:00,2014-08-12 00:00:00,118.35195258984542,87.23395181916705,730.5425858864345,2835.898694553258
sh600556,2014-10-13,9.88,9.95,9.67,9.9,-0.0070209999999999995,8539301.0,83705712.0,3908457710.0,3908457710.0,0.021629779870382684,37.24,2014-06-30 00:00:00,2014-08-12 00:00:00,115.89361718217707,85.42198076321768,715.3681957188462,2776.9931165646876
sh600556,2014-10-10,10.04,10.05,9.83,9.97,-0.002002,12006687.0,118736498.0,3936093270.0,3936093270.0,0.030412559149036632,37.51,2014-06-30 00:00:00,2014-08-12 00:00:00,116.7130595734422,86.0259690922141,720.4263088331638,2796.6282434620343
sh600556,2014-10-09,10.09,10.3,9.83,9.99,-0.015764,15434972.0,154986799.0,3943989140.0,3943989140.0,0.0390962968726633,37.58,2014-06-30 00:00:00,2014-08-12 00:00:00,116.94718784350488,86.19853856642408,721.8714955672895,2802.238324587859
sh600556,2014-10-08,10.07,10.27,9.94,10.15,0.012974000000000001,12908052.0,130186517.0,4007156140.0,4007156140.0,0.03269568821942636,38.18,2014-06-30 00:00:00,2014-08-12 00:00:00,118.82027058907099,87.57913606739041,733.4333387188534,2847.1203294614897
sh600556,2014-09-30,9.94,10.1,9.81,10.02,-0.008902,17755339.0,176577317.0,3955832950.0,3955832950.0,0.044973713255510445,37.69,2014-06-30 00:00:00,2014-08-12 00:00:00,117.29844062046114,86.45743727616939,724.0396483215299,2810.6548928812485
sh600556,2014-09-29,9.36,10.22,9.32,10.11,0.08012799999999999,32279675.0,315549249.0,3991364390.0,3991364390.0,0.08176339776634627,38.03,2014-06-30 00:00:00,2014-08-12 00:00:00,118.3520102153986,87.23399429336895,730.5429415875421,2835.900075352032
sh600556,2014-09-26,9.65,9.68,9.34,9.36,-0.041964999999999995,28179831.0,266836634.0,3695269110.0,3695269110.0,0.07137862231635952,35.21,2014-06-30 00:00:00,2014-08-12 00:00:00,109.57220830808811,80.76264506925934,676.3484897970816,2625.5222300986848
sh600556,2014-09-25,9.62,9.95,9.57,9.77,0.013484999999999999,18491311.0,180925109.0,3857134530.0,3857134530.0,0.046837907017466665,36.75,2014-06-30 00:00:00,2014-08-12 00:00:00,114.37182181035986,84.30030747233592,705.9747188746566,2740.528508977944
sh600556,2014-09-24,9.5,9.69,9.4,9.64,0.012605,13256383.0,126108308.0,3805811350.0,3805811350.0,0.03357799963469025,36.26,2014-06-30 00:00:00,2014-08-12 00:00:00,112.85003903398656,83.1786434652076,696.5813197774576,2704.064203197822
sh600556,2014-09-23,9.6,9.63,9.4,9.52,-0.008333,11278866.0,107119292.0,3758436100.0,3758436100.0,0.02856901154179527,35.81,2014-06-30 00:00:00,2014-08-12 00:00:00,111.44527138813908,82.1432280753182,687.9102115607345,2670.403763755681
sh600556,2014-09-22,9.37,9.75,9.22,9.6,0.030043,22864796.0,218232468.0,3790019600.0,3790019600.0,0.0579158064512384,36.11,2014-06-30 00:00:00,2014-08-12 00:00:00,112.38174849837604,82.83347945965552,693.6907364677201,2692.843226360947
sh600556,2014-09-19,8.88,9.44,8.88,9.32,0.056688999999999996,22867957.0,212143757.0,3679477360.0,3679477360.0,0.05792381319068641,35.06,2014-06-30 00:00:00,2014-08-12 00:00:00,109.10393886311158,80.41749660903042,673.4580366719837,2614.3017586265305
sh600556,2014-09-18,8.64,8.98,8.64,8.82,0.012629000000000001,8919724.0,78739677.0,3482080500.0,3482080500.0,0.02259337935467029,33.18,2014-06-30 00:00:00,2014-08-12 00:00:00,103.25075671565766,76.10327788879265,637.3285201908826,2474.050320034116
sh600556,2014-09-17,8.83,8.93,8.5,8.71,-0.010227,14780817.0,127915539.0,3438653200.0,3438653200.0,0.03743934284213366,32.77,2014-06-30 00:00:00,2014-08-12 00:00:00,101.96306516568029,75.1541560520118,629.3800791710318,2443.1952077553738
sh600556,2014-09-16,9.54,9.54,8.66,8.8,-0.08142,38470953.0,353209815.0,3474184630.0,3474184630.0,0.09744570955631682,33.1,2014-06-30 00:00:00,2014-08-12 00:00:00,103.01661609851985,75.930699313895,635.8832572428544,2468.4399430529766
sh600556,2014-09-15,9.6,9.78,9.38,9.58,-0.011352,17610259.0,167994809.0,3782123720.0,3782123720.0,0.04460623017905929,36.04,2014-06-30 00:00:00,2014-08-12 00:00:00,112.14768022221239,82.66095420528968,692.2459200536201,2687.234582783183
sh600556,2014-09-12,9.5,9.85,9.5,9.69,0.016789,21215731.0,205552670.0,3825551030.0,3825551030.0,0.05373877691810583,36.45,2014-06-30 00:00:00,2014-08-12 00:00:00,113.43539887018676,83.61009601525487,700.1945283393283,2718.0903443725
sh600556,2014-09-11,9.95,9.96,9.48,9.53,-0.047,38201288.0,369793506.0,3762384040.0,3762384040.0,0.09676265654156879,35.85,2014-06-30 00:00:00,2014-08-12 00:00:00,111.56237810419542,82.22954419771936,688.633067764628,2673.20982462684
sh600556,2014-09-10,10.44,10.85,9.8,10.0,0.0,56634423.0,579203446.0,3947937080.0,3947937080.0,0.14345320569293368,37.62,2014-06-30 00:00:00,2014-08-12 00:00:00,117.06440514606027,86.28493619907594,722.5950343805121,2805.047035285247
sh600556,2014-09-09,9.11,10.0,9.1,10.0,0.10011,31922240.0,307291158.0,3947937080.0,3947937080.0,0.0808580262378447,37.62,2014-06-30 00:00:00,2014-08-12 00:00:00,117.06440514606027,86.28493619907594,722.5950343805121,2805.047035285247
sh600556,2014-09-05,8.67,9.12,8.61,9.09,0.041237,23006665.0,205486979.0,3588674810.0,3588674810.0,0.05827515612928997,34.2,2014-06-30 00:00:00,2014-08-12 00:00:00,106.41154534188423,78.43300778929012,656.8388928202744,2549.7877805721673
sh600556,2014-09-04,8.55,8.93,8.45,8.73,0.016298,38953446.0,342367268.0,3446549070.0,3446549070.0,0.09866784910739716,32.84,2014-06-30 00:00:00,2014-08-12 00:00:00,102.19723784487512,75.32675825896516,630.8255400262135,2448.8063529937635
sh600556,2014-09-03,8.49,8.63,8.34,8.59,0.015366,16163004.0,137753295.0,3391277950.0,3391277950.0,0.040940378938859906,32.31,2014-06-30 00:00:00,2014-08-12 00:00:00,100.55833805131478,74.11877053675708,620.7092211400725,2409.5357395112096
sh600556,2014-09-02,8.31,8.55,8.27,8.46,0.015606,12259312.0,103254871.0,3339954770.0,3339954770.0,0.031052450306086034,31.83,2014-06-30 00:00:00,2014-08-12 00:00:00,99.03654253866566,72.99709714207202,611.3157434265797,2373.071128549912
sh600556,2014-09-01,8.3,8.4,8.11,8.33,0.007254999999999999,10894245.0,89809370.0,3288631590.0,3288631590.0,0.02759477866902081,31.34,2014-06-30 00:00:00,2014-08-12 00:00:00,97.51472769820744,71.87540950139328,601.9221464097099,2336.6060544639477
sh600556,2014-08-29,8.12,8.42,7.94,8.27,0.015971,11334912.0,93116712.0,3264943970.0,3264943970.0,0.028710974246826046,31.11,2014-06-30 00:00:00,2014-08-12 00:00:00,96.8123540694337,71.35770932027468,597.5866552260449,2319.776079010725
sh600556,2014-08-28,8.47,8.47,8.05,8.14,-0.034401,10671348.0,87774662.0,3213620780.0,3213620780.0,0.027030187650205578,30.62,2014-06-30 00:00:00,2014-08-12 00:00:00,95.29046997348713,70.2359706332904,588.192630720803,2283.3093454544714
sh600556,2014-08-27,8.29,8.78,8.28,8.43,0.008373,13951951.0,118961091.0,3328110960.0,3328110960.0,0.035339851448342334,31.71,2014-06-30 00:00:00,2014-08-12 00:00:00,98.68534450997477,72.73823878575931,609.1479286130194,2364.655872110961
sh600556,2014-08-26,8.51,8.71,8.35,8.36,-0.022222,9623574.0,82146654.0,3300475400.0,3300475400.0,0.0243762091485366,31.45,2014-06-30 00:00:00,2014-08-12 00:00:00,97.86591321859548,72.13425863818182,604.0898840141689,2345.0210111843144
sh600556,2014-08-25,8.41,8.73,8.4,8.55,0.014235,9248404.0,79511502.0,3375486200.0,3375486200.0,0.023425915413311425,32.16,2014-06-30 00:00:00,2014-08-12 00:00:00,100.09011577126451,73.7736568404912,617.8190591465228,2398.3163981847765
sh600556,2014-08-22,8.43,8.54,8.2,8.43,0.0,8953578.0,75054126.0,3328110960.0,3328110960.0,0.022679130427790784,31.71,2014-06-30 00:00:00,2014-08-12 00:00:00,98.68533009732904,72.73822816259666,609.1478396491177,2364.6555267613294
sh600556,2014-08-21,8.92,8.98,8.42,8.43,-0.047458,19456834.0,166961049.0,3328110960.0,3328110960.0,0.0492835463094055,31.71,2014-06-30 00:00:00,2014-08-12 00:00:00,98.68533009732904,72.73822816259666,609.1478396491177,2364.6555267613294
sh600556,2014-08-20,8.8,9.14,8.66,8.85,-0.022099,27769246.0,245877744.0,3493924320.0,3493924320.0,0.07033862344791715,33.29,2014-06-30 00:00:00,2014-08-12 00:00:00,103.60207749089177,76.36222671818842,639.4970926732025,2482.468517673057
sh600556,2014-08-19,8.36,9.21,8.28,9.05,0.079952,43400830.0,384034901.0,3572883060.0,3572883060.0,0.10993293228578269,34.05,2014-06-30 00:00:00,2014-08-12 00:00:00,105.94331889515583,78.08789102188098,653.9487051073703,2538.568339405581
sh600556,2014-08-18,8.0,8.57,7.88,8.38,0.003593,26529032.0,220935742.0,3308371270.0,3308371270.0,0.06719720068177235,31.52,2014-06-30 00:00:00,2014-08-12 00:00:00,98.10002564480256,72.3068164343239,605.5349729500665,2350.630712666471
sh600556,2014-08-15,8.39,8.58,8.06,8.35,-0.008314,21366038.0,177430698.0,3296527460.0,3296527460.0,0.05411949982664485,31.41,2014-06-30 00:00:00,2014-08-12 00:00:00,97.74881415554171,72.04794815659726,603.367075049414,2342.215133691119
sh600556,2014-08-14,8.66,8.68,8.4,8.42,-0.036613,22468042.0,191597413.0,3324163020.0,3324163020.0,0.05691084116566582,31.68,2014-06-30 00:00:00,2014-08-12 00:00:00,98.56831109397704,72.65197669080462,608.425524863126,2361.851567624348
sh600556,2014-08-13,8.5,8.78,8.36,8.74,0.040476,36497473.0,313094593.0,3450497010.0,3450497010.0,0.09244694694576767,32.88,2014-06-30 00:00:00,2014-08-12 00:00:00,102.31434625335098,75.41307562880193,631.5484066767831,2451.6124544179524
sh600556,2014-08-12,8.3,8.46,8.07,8.4,0.001192,26254070.0,216631068.0,3316267150.0,3316267150.0,0.06650073049754149,31.6,2014-06-30 00:00:00,2014-08-12 00:00:00,98.3341722955176,72.47939945640451,606.980273141123,2356.241234221599
sh600556,2014-08-11,8.13,8.56,8.01,8.39,0.002389,39173477.0,326229615.0,3312319210.0,3312319210.0,0.09922518066427542,31.56,2014-03-31 00:00:00,2014-04-29 00:00:00,95.96019718946133,70.0508638279117,944.2872212345509,4786.076417951502
sh600556,2014-08-08,8.92,9.06,8.37,8.37,-0.1,56146472.0,480701305.0,3304423340.0,3304423340.0,0.1422172410390976,31.49,2014-03-31 00:00:00,2014-04-29 00:00:00,95.73149464874547,69.88391116414056,942.036695568837,4774.669731961844
sh600556,2014-08-07,9.32,9.32,8.8,9.3,0.097993,96444940.0,892092776.0,3671581480.0,3671581480.0,0.2442919888570742,34.99,2014-03-31 00:00:00,2014-04-29 00:00:00,106.36832738749497,77.6487901823784,1046.70743952093,5305.188591068716
sh600556,2014-08-06,8.47,8.47,8.47,8.47,0.1,977838.0,8282288.0,3343902710.0,3343902710.0,0.002476832784408372,31.86,2014-03-31 00:00:00,2014-04-29 00:00:00,96.87523270867388,70.71883899294293,953.2915414951916,4831.714401702667
sh600556,2014-08-05,7.7,7.7,7.7,7.7,0.1,1094378.0,8426711.0,3039911550.0,3039911550.0,0.002772024929475333,28.97,2014-03-31 00:00:00,2014-04-29 00:00:00,88.06839337152171,64.28985362994813,866.6286740865378,4392.467637911514
sh600556,2014-08-04,7.0,7.0,7.0,7.0,0.100629,624803.0,4373621.0,2763555960.0,2763555960.0,0.001582606273693839,26.33,2014-03-31 00:00:00,2014-04-29 00:00:00,80.06217579229245,58.44532148177102,787.8442491695797,3993.152398101377
sh600556,2014-08-01,6.36,6.36,6.36,6.36,0.100346,471509.0,2998797.0,2510887980.0,2510887980.0,0.0011943174143515555,23.93,2014-03-31 00:00:00,2014-04-29 00:00:00,72.74220086177309,53.101745894185065,715.8127299658465,3628.0639507966594
sh600556,2014-07-31,5.78,5.78,5.78,5.78,0.100952,140905.0,814431.0,2281907630.0,2281907630.0,0.00035690791743397607,21.74,2014-03-31 00:00:00,2014-04-29 00:00:00,66.10847938900407,48.25913475778079,650.534222840676,3297.2028351051936
sh600556,2014-07-30,5.25,5.25,5.25,5.25,0.100629,62856.0,329994.0,2072666970.0,2072666970.0,0.00015921226360836926,19.75,2014-03-31 00:00:00,2014-04-29 00:00:00,60.046649980202666,43.83400435058095,590.883365342609,2994.86520311984
sh600556,2014-07-29,4.77,4.77,4.77,4.77,0.099078,54284.0,258935.0,1883165990.0,1883165990.0,0.00013749965822184372,17.94,2014-03-31 00:00:00,2014-04-29 00:00:00,54.55666712416506,39.82632144944477,536.8597096229602,2721.048784940102
sh600556,2014-03-28,4.21,4.41,4.18,4.34,0.033333,12482706.0,54470838.0,1713404690.0,1713404690.0,0.031618300309426604,16.33,2013-09-30 00:00:00,2013-10-22 00:00:00,166.75702562192757,52.20635072939766,-744.8117983244013,-53.877799074352126
sh600556,2014-03-27,4.18,4.23,4.16,4.2,-0.002375,4668516.0,19610033.0,1658133570.0,1658133570.0,0.011825203683681526,15.8,2013-09-30 00:00:00,2013-10-22 00:00:00,161.37781878825854,50.52229119693038,-720.7858437932412,-52.13982237512218
sh600556,2014-03-26,4.12,4.25,4.1,4.21,0.024331000000000002,5378144.0,22514009.0,1662081510.0,1662081510.0,0.013622668986913885,15.84,2013-09-30 00:00:00,2013-10-22 00:00:00,161.7620035466819,50.642567294254235,-722.5017855338841,-52.263949254601854
sh600556,2014-03-25,4.24,4.26,4.06,4.11,-0.032941000000000005,6246179.0,25857325.0,1622602140.0,1622602140.0,0.015821374234105227,15.46,2013-09-30 00:00:00,2013-10-22 00:00:00,157.91966029211443,49.439651142310666,-705.3401542410451,-51.02252031286942
sh600556,2014-03-24,4.22,4.3,4.15,4.25,-0.0023469999999999997,4752472.0,20085660.0,1677873260.0,1677873260.0,0.012037861548613034,15.99,2013-09-30 00:00:00,2013-10-22 00:00:00,163.29888899448164,51.123717521175706,-729.3662064476366,-52.76050407769269
sh600556,2014-03-21,4.09,4.29,4.09,4.26,0.033981,5708784.0,24080561.0,1681821200.0,1681821200.0,0.014460169630398284,16.03,2013-09-30 00:00:00,2013-10-22 00:00:00,163.68305312015465,51.24398715903797,-731.0820560331465,-52.88462429090344
sh600556,2014-03-20,4.14,4.3,4.09,4.12,-0.002421,8146745.0,34394695.0,1626550080.0,1626550080.0,0.020635447879969366,15.5,2013-09-30 00:00:00,2013-10-22 00:00:00,158.30373393723355,49.559892453573106,-707.0555996997493,-51.146611292570604
sh600556,2014-03-19,4.01,4.13,3.96,4.13,0.027363,5743362.0,23387926.0,1630498010.0,1630498010.0,0.01454775468263221,15.54,2013-09-30 00:00:00,2013-10-22 00:00:00,158.68791738522316,49.680168140641605,-708.7715355874066,-51.27073774866012
sh600556,2014-03-18,3.95,4.05,3.94,4.02,0.015152,4657626.0,18701952.0,1587070710.0,1587070710.0,0.011797619603224861,15.12,2013-09-30 00:00:00,2013-10-22 00:00:00,154.4613903607811,48.35697620085754,-689.8939669692276,-49.905182246839836
sh600556,2014-03-17,3.91,3.98,3.9,3.96,0.010204000000000001,3675738.0,14530916.0,1563383080.0,1563383080.0,0.009310528344722778,14.9,2013-09-30 00:00:00,2013-10-22 00:00:00,152.1559238033133,47.635207536268005,-679.5967175055829,-49.16030530092029
sh600556,2014-03-14,3.9,3.96,3.87,3.92,0.0,3248261.0,12716904.0,1547591340.0,1547591340.0,0.008227742551208641,14.75,2013-09-30 00:00:00,2013-10-22 00:00:00,150.61900745128042,47.15404763420854,-672.7321585596403,-48.66374049293042
sh600556,2014-03-13,3.82,3.99,3.81,3.92,0.023499000000000003,5654090.0,22151569.0,1547591340.0,1547591340.0,0.014321631445676091,14.75,2013-09-30 00:00:00,2013-10-22 00:00:00,150.61900745128042,47.15404763420854,-672.7321585596403,-48.66374049293042
sh600556,2014-03-12,3.8,3.84,3.74,3.83,0.005249,5149978.0,19542284.0,1512059900.0,1512059900.0,0.013044731719953687,14.41,2013-09-30 00:00:00,2013-10-22 00:00:00,147.16087407147486,46.07141544272007,-657.2865811882966,-47.5464465455564
sh600556,2014-03-11,3.76,3.83,3.76,3.81,0.007937,3517234.0,13338709.0,1504164030.0,1504164030.0,0.008909042679341296,14.33,2013-09-30 00:00:00,2013-10-22 00:00:00,146.39246004867934,45.83084931466737,-653.8544989234473,-47.29817840709754
sh600556,2014-03-10,3.88,3.95,3.76,3.78,-0.025773,6906679.0,26716700.0,1492320220.0,1492320220.0,0.01749439984134236,14.22,2013-09-30 00:00:00,2013-10-22 00:00:00,145.2396926084461,45.46995428748758,-648.7057216110206,-46.925728896843296
sh600556,2014-03-07,3.77,3.89,3.75,3.88,0.031915,4704461.0,18065644.0,1531799590.0,1531799590.0,0.011916251185313349,14.6,2013-09-30 00:00:00,2013-10-22 00:00:00,149.0819825445672,46.672853747111894,-665.867114759723,-48.16714061183204
sh600556,2014-03-06,3.7,3.85,3.66,3.76,0.016216,3860950.0,14553543.0,1484424340.0,1484424340.0,0.009779664485964977,14.14,2013-09-30 00:00:00,2013-10-22 00:00:00,144.47118468533475,45.22935876221578,-645.2732199451729,-46.67743041997843
sh600556,2014-03-05,3.7,3.73,3.68,3.7,0.0,2439755.0,9032189.0,1460736720.0,1460736720.0,0.00617982239811155,13.92,2013-09-30 00:00:00,2013-10-22 00:00:00,142.1658236884036,44.50762314529173,-634.976441962312,-45.932587579784645
sh600556,2014-03-04,3.69,3.75,3.66,3.7,0.00271,1904783.0,7049516.0,1460736720.0,1460736720.0,0.004824755209823164,13.92,2013-09-30 00:00:00,2013-10-22 00:00:00,142.1658236884036,44.50762314529173,-634.976441962312,-45.932587579784645
sh600556,2014-03-03,3.66,3.71,3.63,3.69,0.008197,2774377.0,10194213.0,1456788780.0,1456788780.0,0.007027409375022781,13.88,2013-09-30 00:00:00,2013-10-22 00:00:00,141.78159556442404,44.387333471583744,-633.2603065316114,-45.80844668925676
sh600556,2014-02-28,3.67,3.67,3.58,3.66,-0.002725,3229885.0,11703701.0,1444944970.0,1444944970.0,0.00818119675519546,13.77,2013-09-30 00:00:00,2013-10-22 00:00:00,140.62886079250782,44.026448671820816,-628.111675130566,-45.43600773386228
sh600556,2014-02-27,3.65,3.75,3.63,3.67,0.0,1792367.0,6616060.0,1448892910.0,1448892910.0,0.0045400090266160525,13.81,2013-09-30 00:00:00,2013-10-22 00:00:00,141.01312154872812,44.14674856165132,-629.827956311515,-45.56015916759398
sh600556,2014-02-26,3.7,3.7,3.6,3.67,-0.010782,2958636.0,10782991.0,1448892910.0,1448892910.0,0.007494131584921621,13.81,2013-09-30 00:00:00,2013-10-22 00:00:00,141.01312154872812,44.14674856165132,-629.827956311515,-45.56015916759398
sh600556,2014-02-25,3.86,3.9,3.68,3.71,-0.041344,3715048.0,14032277.0,1464684660.0,1464684660.0,0.009410099290587231,13.96,2013-09-30 00:00:00,2013-10-22 00:00:00,142.5500966912532,44.62792686915455,-636.6927778422097,-46.05674297029975
sh600556,2014-02-24,3.75,3.94,3.75,3.87,0.026525,6177940.0,23923595.0,1527851650.0,1527851650.0,0.015648527001950744,14.56,2013-09-30 00:00:00,2013-10-22 00:00:00,148.69786105887118,46.552597458477855,-664.151455623508,-48.04303417524091
sh600556,2014-02-21,3.75,3.81,3.7,3.77,0.00266,2572111.0,9668303.0,1488372280.0,1488372280.0,0.006515075966074832,14.18,2013-09-30 00:00:00,2013-10-22 00:00:00,144.8555671404702,45.34969675212767,-646.9900446881547,-46.80162117361089
sh600556,2014-02-20,3.8,3.81,3.73,3.76,-0.013123,2788846.0,10526298.0,1484424340.0,1484424340.0,0.007064058893025157,14.14,2013-09-30 00:00:00,2013-10-22 00:00:00,144.4712735528197,45.22938658381472,-645.2736168672876,-46.677459132318916
sh600556,2014-02-19,3.8,3.86,3.75,3.81,0.0052770000000000004,3598386.0,13700050.0,1504164030.0,1504164030.0,0.009114598133290025,14.33,2013-09-30 00:00:00,2013-10-22 00:00:00,146.39238076560676,45.830824493644826,-653.8541448096244,-47.29815279140046
sh600556,2014-02-18,3.75,3.88,3.68,3.79,0.016086000000000003,6807827.0,25683510.0,1496268150.0,1496268150.0,0.017244010928121407,14.26,2013-09-30 00:00:00,2013-10-22 00:00:00,145.62392332223533,45.590244771983066,-650.4218686089748,-47.049870624117
sh600556,2014-02-17,3.54,3.73,3.53,3.73,0.050704,9611625.0,35326295.0,1472580530.0,1472580530.0,0.024345942730887526,14.03,2013-09-30 00:00:00,2013-10-22 00:00:00,143.3185019006613,44.86849023801436,-640.1248207425107,-46.305008261226895
sh600556,2014-02-14,3.47,3.55,3.46,3.55,0.023055000000000003,3351598.0,11756405.0,1401517660.0,1401517660.0,0.008489491955456344,13.35,2013-09-30 00:00:00,2013-10-22 00:00:00,136.40235680140293,42.703263943046146,-609.2342093896194,-44.07045967392043
sh600556,2014-02-13,3.53,3.53,3.46,3.47,-0.016996999999999998,3910953.0,13714642.0,1369934170.0,1369934170.0,0.009906320469398907,13.05,2013-09-30 00:00:00,2013-10-22 00:00:00,133.32846894976606,41.74092687396684,-595.5048451839044,-43.07731224022211
sh600556,2014-02-12,3.54,3.55,3.5,3.53,-0.002825,2220327.0,7817347.0,1393621790.0,1393621790.0,0.005624018199371007,13.28,2013-09-30 00:00:00,2013-10-22 00:00:00,135.6338372820491,42.46266478735757,-605.8016559297424,-43.82215745040668
sh600556,2014-02-11,3.52,3.56,3.5,3.54,0.008546999999999999,3258921.0,11486115.0,1397569730.0,1397569730.0,0.008254743997639388,13.32,2013-09-30 00:00:00,2013-10-22 00:00:00,136.01808838172747,42.5829616540302,-607.5178939802365,-43.94630576419052
sh600556,2014-02-10,3.42,3.54,3.42,3.51,0.023324,2607683.0,9098114.0,1385725920.0,1385725920.0,0.006605178699406878,13.2,2013-09-30 00:00:00,2013-10-22 00:00:00,134.86539386040258,42.22208945545443,-602.3694423564162,-43.57387981342517
sh600556,2014-02-07,3.41,3.44,3.37,3.43,0.002924,2504633.0,8528144.0,889867910.0,1354142420.0,0.00965411955354138,12.9,2013-09-30 00:00:00,2013-10-22 00:00:00,131.79148916706987,41.25974711377279,-588.6400029281208,-42.58072693831589
sh600556,2014-01-30,3.44,3.45,3.39,3.42,-0.002915,2476400.0,8462247.0,887273540.0,1350194480.0,0.00954529535502659,12.87,2013-09-30 00:00:00,2013-10-22 00:00:00,131.40725435533486,41.13945534634009,-586.9238376268997,-42.45658388703022
sh600556,2014-01-29,3.42,3.45,3.41,3.43,-0.002907,2141574.0,7341166.0,889867910.0,1354142420.0,0.008254706948585213,12.9,2013-09-30 00:00:00,2013-10-22 00:00:00,131.79142636318355,41.259727451862275,-588.6397224177474,-42.580706646905945
sh600556,2014-01-28,3.42,3.45,3.39,3.44,0.008798,1807444.0,6186626.0,892462280.0,1358090360.0,0.006966801285988243,12.94,2013-09-30 00:00:00,2013-10-22 00:00:00,132.17566100973886,41.38001916758244,-590.3558869812018,-42.704849644823454
sh600556,2014-01-27,3.42,3.47,3.38,3.41,-0.008721,2231500.0,7662153.0,884679170.0,1346246540.0,0.008601327190737407,12.83,2013-09-30 00:00:00,2013-10-22 00:00:00,131.0229213477216,41.01913283688353,-585.2072337387681,-42.332409109478256
sh600556,2014-01-24,3.45,3.52,3.4,3.44,0.020772,3929091.0,13543382.0,892462280.0,1358090360.0,0.01514469949363014,12.94,2013-09-30 00:00:00,2013-10-22 00:00:00,132.1756249731121,41.380007885654315,-590.3557260254358,-42.704838001691
sh600556,2014-01-23,3.39,3.4,3.36,3.37,-0.002959,2763803.0,9330273.0,874301710.0,1330454800.0,0.010653091494010688,12.68,2013-09-30 00:00:00,2013-10-22 00:00:00,129.48594296582596,40.53795351523584,-578.342397739589,-41.83582426015898
sh600556,2014-01-22,3.33,3.41,3.3,3.38,0.021148,2979364.0,10027026.0,876896070.0,1334402730.0,0.011483972462095765,12.72,2013-09-30 00:00:00,2013-10-22 00:00:00,129.8702289733581,40.65826131045347,-580.0587917042419,-41.959983852378166
sh600556,2014-01-21,3.29,3.33,3.28,3.31,0.00303,1367640.0,4520562.0,858735500.0,1306767170.0,0.005271574774770579,12.45,2013-09-30 00:00:00,2013-10-22 00:00:00,127.180613361979,39.816227726493594,-568.0457599723469,-41.09099156280791
sh600556,2014-01-20,3.25,3.32,3.25,3.3,0.006097999999999999,1824710.0,5997482.0,856141140.0,1302819240.0,0.007033353168847838,12.41,2013-09-30 00:00:00,2013-10-22 00:00:00,126.79642020874648,39.695949001020495,-566.3297807367145,-40.96686197103566
sh600556,2014-01-17,3.29,3.29,3.24,3.28,-0.009063,1779590.0,5800791.0,850952400.0,1294923360.0,0.006859437966212916,12.34,2013-09-30 00:00:00,2013-10-22 00:00:00,126.0279020619726,39.45535027504329,-562.8972334073962,-40.718560190991006
sh600556,2014-01-16,3.29,3.33,3.25,3.31,0.006079,2021938.0,6647663.0,858735500.0,1306767170.0,0.007793569475117775,12.45,2013-09-30 00:00:00,2013-10-22 00:00:00,127.18053928955382,39.81620453675994,-568.0454291316162,-41.09096763062738
sh600556,2014-01-15,3.3,3.31,3.26,3.29,-0.0060420000000000005,1668867.0,5476401.0,853546770.0,1298871300.0,0.006432655623545972,12.38,2013-09-30 00:00:00,2013-10-22 00:00:00,126.41208025369163,39.575624316539695,-564.6131458181874,-40.84268494882348
sh600556,2014-01-14,3.26,3.32,3.24,3.31,0.018462,1513889.0,4979558.0,858735500.0,1306767170.0,0.005835292229097318,12.45,2013-09-30 00:00:00,2013-10-22 00:00:00,127.18050486408039,39.81619375923297,-568.0452753719849,-41.09095650804509
sh600556,2014-01-13,3.22,3.3,3.2,3.25,-0.0030670000000000003,2310000.0,7522241.0,843169300.0,1283079550.0,0.00890390577550677,12.23,2013-09-30 00:00:00,2013-10-22 00:00:00,124.8750614790541,39.09443234920201,-557.7481294068751,-40.346087048947425
sh600556,2014-01-10,3.42,3.42,3.25,3.26,-0.046784,5180002.0,17033279.0,845763670.0,1287027490.0,0.019966341803260478,12.26,2013-09-30 00:00:00,2013-10-22 00:00:00,125.25923154219402,39.21470384589738,-559.4640055117798,-40.470209180504035
sh600556,2014-01-09,3.43,3.51,3.41,3.42,-0.005814,2544949.0,8818195.0,887273540.0,1350194480.0,0.009809517795380217,12.87,2013-09-30 00:00:00,2013-10-22 00:00:00,131.40697548320006,41.13936804029452,-586.9225920586517,-42.456493785777866
sh600556,2014-01-08,3.54,3.55,3.41,3.44,-0.028249,3316647.0,11537559.0,892462280.0,1358090360.0,0.012784031253399303,12.94,2013-09-30 00:00:00,2013-10-22 00:00:00,132.1754435117775,41.37995107584951,-590.3549155375873,-42.704779373052794
sh600556,2014-01-07,3.56,3.58,3.53,3.54,-0.011173,1645787.0,5843247.0,918405950.0,1397569730.0,0.006343693635695632,13.32,2013-09-30 00:00:00,2013-10-22 00:00:00,136.01781064467906,42.58287470334428,-607.5166534817946,-43.946216029675085
sh600556,2014-01-06,3.66,3.67,3.56,3.58,-0.027174,1950500.0,6996992.0,928783410.0,1413361470.0,0.007518211377182114,13.47,2013-09-30 00:00:00,2013-10-22 00:00:00,137.55470941294996,43.06402910048399,-614.381133890756,-44.44277515649865
sh600556,2014-01-03,3.63,3.69,3.63,3.68,0.013774000000000002,3625322.0,13280518.0,954727090.0,1452840850.0,0.013973820476802434,13.84,2013-09-30 00:00:00,2013-10-22 00:00:00,141.3970323705883,44.26693889810099,-631.5426745283904,-45.68419754046319
sh600556,2014-01-02,3.57,3.67,3.53,3.63,0.013966,2999127.0,10812911.0,941755250.0,1433101160.0,0.011560148998372986,13.66,2013-09-30 00:00:00,2013-10-22 00:00:00,139.47589144186804,43.66549043287852,-622.9619959955478,-45.06349298804585
sh600556,2013-12-31,3.58,3.6,3.52,3.58,-0.005556,3368033.0,12001999.0,928783410.0,1413361470.0,0.012982098958895056,13.47,2013-09-30 00:00:00,2013-10-22 00:00:00,137.55480108984725,43.06405780162108,-614.3815433609685,-44.44280477653674
sh600556,2013-12-30,3.6,3.67,3.56,3.6,0.002786,2036670.0,7314681.0,933972150.0,1421257350.0,0.00785035399610149,13.54,2013-09-30 00:00:00,2013-10-22 00:00:00,138.32332548624885,43.30465848415908,-617.814118603932,-44.6911085757838
sh600556,2013-12-27,3.55,3.6,3.55,3.59,0.016996999999999998,1335811.0,4785488.0,931377780.0,1417309410.0,0.005148889734088352,13.51,2013-09-30 00:00:00,2013-10-22 00:00:00,137.93902735603493,43.18434689371319,-616.097670493936,-44.56694506682762
sh600556,2013-12-26,3.61,3.64,3.52,3.53,-0.027548000000000003,1905946.0,6831297.0,915811580.0,1393621790.0,0.007346477732897852,13.28,2013-09-30 00:00:00,2013-10-22 00:00:00,135.63366200297045,42.462609913021566,-605.8008730546265,-43.82210081920362
sh600556,2013-12-25,3.6,3.63,3.55,3.63,0.008333,1146550.0,4138396.0,941755250.0,1433101160.0,0.004419382318282802,13.66,2013-09-30 00:00:00,2013-10-22 00:00:00,139.475945345344,43.665507308352055,-622.9622367526897,-45.06351040380772
sh600556,2013-12-24,3.59,3.63,3.56,3.6,0.002786,1457703.0,5252537.0,933972150.0,1421257350.0,0.005618722999395647,13.54,2013-09-30 00:00:00,2013-10-22 00:00:00,138.3232973088692,43.30464966271267,-617.8139927510948,-44.69109947190831
sh600556,2013-12-23,3.68,3.69,3.55,3.59,-0.024457,1580602.0,5702850.0,931377780.0,1417309410.0,0.00609243778609363,13.51,2013-09-30 00:00:00,2013-10-22 00:00:00,137.93899925693938,43.18433809677506,-616.0975449907506,-44.566935988245056
sh600556,2013-12-20,3.74,3.77,3.62,3.68,-0.016043,1587211.0,5852693.0,954727090.0,1452840850.0,0.006117912166920915,13.84,2013-09-30 00:00:00,2013-10-22 00:00:00,141.39714933830632,44.26697551699418,-631.5431969587713,-45.68423533175376
sh600556,2013-12-19,3.72,3.78,3.72,3.74,0.0,1821020.0,6835606.0,970293290.0,1476528470.0,0.00701913006117975,14.07,2013-09-30 00:00:00,2013-10-22 00:00:00,143.7025696634165,44.98872970769472,-641.840239927935,-46.42909734038556
sh600556,2013-12-18,3.75,3.78,3.71,3.74,-0.002667,1779090.0,6656774.0,970293290.0,1476528470.0,0.006857510681126116,14.07,2013-09-30 00:00:00,2013-10-22 00:00:00,143.7025696634165,44.98872970769472,-641.840239927935,-46.42909734038556
sh600556,2013-12-17,3.74,3.79,3.74,3.75,0.0026739999999999997,1399386.0,5265723.0,972887660.0,1480476410.0,0.005393939830627515,14.11,2013-09-30 00:00:00,2013-10-22 00:00:00,144.08684929047422,45.109035505387595,-643.5566053945223,-46.55325487112686
sh600556,2013-12-16,3.75,3.86,3.74,3.74,-0.007958,3566906.0,13552808.0,970293290.0,1476528470.0,0.013748655769844602,14.07,2013-09-30 00:00:00,2013-10-22 00:00:00,143.7025885686417,44.988735626322814,-641.8403243671645,-46.42910344850556
sh600556,2013-12-13,3.73,3.78,3.72,3.77,0.008020999999999999,1586225.0,5947015.0,978076390.0,1488372280.0,0.006114111649295614,14.18,2013-09-30 00:00:00,2013-10-22 00:00:00,144.8553474234374,45.34962796567364,-646.9890633331698,-46.8015501848768
sh600556,2013-12-12,3.68,3.78,3.68,3.74,0.010811,2533326.0,9464130.0,970293290.0,1476528470.0,0.00976471685174696,14.07,2013-09-30 00:00:00,2013-10-22 00:00:00,143.70270800254895,44.98877301730186,-641.8408578126546,-46.42914203660123
sh600556,2013-12-11,3.71,3.75,3.67,3.7,-0.010695,3400376.0,12569780.0,959915820.0,1460736720.0,0.013106765132800915,13.92,2013-09-30 00:00:00,2013-10-22 00:00:00,142.16575403566932,44.50760133922351,-634.9761308619065,-45.932565075569244
sh600556,2013-12-10,3.76,3.82,3.7,3.74,0.027473,9056187.0,34277534.0,970293290.0,1476528470.0,0.03490711491986098,14.07,2013-09-30 00:00:00,2013-10-22 00:00:00,143.70265391933663,44.98875608555856,-641.8406162527294,-46.429124562768045
sh600556,2013-12-09,3.63,3.67,3.62,3.64,0.0,2605376.0,9497647.0,944349620.0,1437049100.0,0.010042433902816629,13.69,2013-09-30 00:00:00,2013-10-22 00:00:00,139.86027264885462,43.78582803203447,-624.6788151637361,-45.18768333841186
sh600556,2013-12-06,3.59,3.69,3.58,3.64,0.013928,2907969.0,10565160.0,944349620.0,1437049100.0,0.011208780027888401,13.69,2013-09-30 00:00:00,2013-10-22 00:00:00,139.86027264885462,43.78582803203447,-624.6788151637361,-45.18768333841186
sh600556,2013-12-05,3.6,3.65,3.56,3.59,-0.002778,3119407.0,11226623.0,931377780.0,1417309410.0,0.012023768840609446,13.51,2013-09-30 00:00:00,2013-10-22 00:00:00,137.9390574565991,43.18435631724785,-616.0978049365793,-44.56695479206794
sh600556,2013-12-04,3.58,3.65,3.53,3.6,0.002786,4986342.0,17965632.0,933972150.0,1421257350.0,0.019219878451407785,13.54,2013-09-30 00:00:00,2013-10-22 00:00:00,138.323319638555,43.304656653431074,-617.814092485504,-44.69110668644287
sh600556,2013-12-03,3.59,3.65,3.59,3.59,-0.050265,8941067.0,32134554.0,931377780.0,1417309410.0,0.03446338448185869,13.51,2013-09-30 00:00:00,2013-10-22 00:00:00,137.9390215245875,43.18434506807143,-616.0976444480717,-44.56694318273577
sh600556,2013-12-02,3.81,3.82,3.78,3.78,-0.050251,6218062.0,23540428.0,980670760.0,1492320220.0,0.023967548864208002,14.22,2013-09-30 00:00:00,2013-10-22 00:00:00,145.2394841977894,45.469889040702334,-648.7047907553915,-46.9256615611047
sh600556,2013-11-29,3.97,4.04,3.94,3.98,0.0,4127370.0,16443390.0,1032558100.0,1571278960.0,0.015908966865883865,14.97,2013-09-30 00:00:00,2013-10-22 00:00:00,152.92407172609754,47.87569035682305,-683.0276112482262,-49.40848746469299
sh600556,2013-11-28,3.97,4.0,3.96,3.98,-0.002506,3536953.0,14077549.0,1032558100.0,1571278960.0,0.013633201792712681,14.97,2013-09-30 00:00:00,2013-10-22 00:00:00,152.92407172609754,47.87569035682305,-683.0276112482262,-49.40848746469299
sh600556,2013-11-27,3.95,4.0,3.91,3.99,0.01269,4367274.0,17239357.0,1035152460.0,1575226890.0,0.016833678065161534,15.01,2013-09-30 00:00:00,2013-10-22 00:00:00,153.30826223124905,47.99596825326574,-684.743578656339,-49.53261620089243
sh600556,2013-11-26,3.93,3.95,3.91,3.94,0.005102000000000001,2134782.0,8382943.0,1022180630.0,1555487210.0,0.008228527163540557,14.82,2013-09-30 00:00:00,2013-10-22 00:00:00,151.3871591812391,47.3945316466695,-676.1630693068352,-48.91192388676932
sh600556,2013-11-25,3.98,3.99,3.86,3.92,-0.010101,3004414.0,11836352.0,1016991900.0,1547591340.0,0.011580527711184327,14.75,2013-09-30 00:00:00,2013-10-22 00:00:00,150.61870256077404,47.1539521826337,-672.7307967816552,-48.66364198536001
sh600556,2013-11-22,3.95,4.04,3.93,3.96,0.002532,5449188.0,21723329.0,1027369360.0,1563383080.0,0.021003920615269272,14.9,2013-09-30 00:00:00,2013-10-22 00:00:00,152.15562654450005,47.63511447393492,-679.5953898141681,-49.160209259086045
sh600556,2013-11-21,3.94,3.96,3.89,3.95,0.002538,4691829.0,18394977.0,1024775000.0,1559435150.0,0.018084676685126002,14.86,2013-09-30 00:00:00,2013-10-22 00:00:00,151.77134150780228,47.51480698265484,-677.8790001856979,-49.03604998053533
sh600556,2013-11-20,3.95,3.97,3.89,3.94,0.002545,3700990.0,14525539.0,1022180630.0,1555487210.0,0.014265483195470061,14.82,2013-09-30 00:00:00,2013-10-22 00:00:00,151.38712099471772,47.39451969167737,-676.1628987486739,-48.91191154902391
sh600556,2013-11-19,3.94,3.96,3.89,3.93,-0.002538,4303659.0,16903250.0,1019586260.0,1551539270.0,0.01658847371089524,14.78,2013-09-30 00:00:00,2013-10-22 00:00:00,151.00281882081873,47.274206835281575,-674.4464325777635,-48.787746733586935
sh600556,2013-11-18,3.87,3.96,3.82,3.94,-0.015,6014892.0,23517814.0,1022180630.0,1555487210.0,0.023184429233412494,14.82,2013-09-30 00:00:00,2013-10-22 00:00:00,151.38703912612084,47.39449406120893,-676.1625330867377,-48.91188509796557
sh600556,2013-11-15,3.96,4.0,3.92,4.0,0.010101,5738035.0,22772898.0,1037746830.0,1579174830.0,0.022117282690229948,15.05,2013-09-30 00:00:00,2013-10-22 00:00:00,153.6924255087521,48.11623762559282,-686.4594244535407,-49.65673614006656
sh600556,2013-11-14,4.01,4.02,3.9,3.96,-0.012469,4682832.0,18545582.0,1027369360.0,1563383080.0,0.018049997831354442,14.9,2013-09-30 00:00:00,2013-10-22 00:00:00,152.15550277521962,47.63507572568765,-679.5948370049538,-49.1601692702676
sh600556,2013-11-13,4.04,4.14,4.0,4.01,-0.004963,5340185.0,21714898.0,1040341200.0,1583122770.0,0.0205837679503609,15.09,2013-09-30 00:00:00,2013-10-22 00:00:00,154.0766849599857,48.23653710687325,-688.1756998058327,-49.780887152167985
sh600556,2013-11-12,4.04,4.09,4.0,4.03,-0.012255,4375227.0,17676700.0,1045529930.0,1591018640.0,0.01686433291297553,15.16,2013-09-30 00:00:00,2013-10-22 00:00:00,154.8451815962479,48.47712909858956,-691.6081510595412,-50.02918198234637
sh600556,2013-11-11,3.88,4.08,3.83,4.08,0.048843,9539048.0,38590080.0,1058501770.0,1610758330.0,0.036768304922154264,15.35,2013-09-30 00:00:00,2013-10-22 00:00:00,156.76635325539272,49.07858718453605,-700.1889668482668,-50.64989646350665
sh600556,2013-11-08,3.95,4.01,3.87,3.89,-0.017677000000000002,4307737.0,16937376.0,1009208790.0,1535747520.0,0.016604192408986054,14.63,2013-09-30 00:00:00,2013-10-22 00:00:00,149.46598609648223,46.79307311440896,-667.5822471506857,-48.29120894500573
sh600556,2013-11-07,3.93,4.02,3.9,3.96,0.007634,3475194.0,13787514.0,1027369360.0,1563383080.0,0.013395151515906607,14.9,2013-09-30 00:00:00,2013-10-22 00:00:00,152.15564136896134,47.635119115004905,-679.5954560268727,-49.1602140487454
sh600556,2013-11-06,3.93,4.04,3.89,3.93,0.0,4011128.0,15909434.0,1019586260.0,1551539270.0,0.015460911605458472,14.78,2013-09-30 00:00:00,2013-10-22 00:00:00,151.00288534225857,47.27422766104053,-674.446729692401,-48.787768226107296
sh600556,2013-11-05,3.9,3.96,3.87,3.93,0.018135,5033230.0,19726405.0,1019586260.0,1551539270.0,0.019400608537035405,14.78,2013-09-30 00:00:00,2013-10-22 00:00:00,151.00288534225857,47.27422766104053,-674.446729692401,-48.787768226107296
sh600556,2013-11-04,3.7,3.86,3.68,3.86,0.048913,4912023.0,18807787.0,1001425690.0,1523903710.0,0.01893341559871507,14.52,2013-09-30 00:00:00,2013-10-22 00:00:00,148.31322500676094,46.43218007537362,-662.4334982024988,-47.91876148654874
sh600556,2013-11-01,3.7,3.71,3.64,3.68,-0.00271,2382809.0,8773005.0,954727090.0,1452840850.0,0.009184548350880041,13.84,2013-09-30 00:00:00,2013-10-22 00:00:00,141.39707011616878,44.26695071504846,-631.5428431171114,-45.684209735744275
sh600556,2013-10-31,3.69,3.72,3.65,3.69,0.0,1896694.0,6984445.0,957321450.0,1456788780.0,0.007310815881123316,13.88,2013-09-30 00:00:00,2013-10-22 00:00:00,141.78129743221007,44.38724013581652,-633.2589749391967,-45.80835036523406
sh600556,2013-10-30,3.63,3.7,3.6,3.69,0.013736000000000002,2387138.0,8737461.0,957321450.0,1456788780.0,0.009201234569642204,13.88,2013-09-30 00:00:00,2013-10-22 00:00:00,141.78129743221007,44.38724013581652,-633.2589749391967,-45.80835036523406
sh600556,2013-10-29,3.81,3.84,3.62,3.64,-0.044619,5080364.0,18804697.0,944349620.0,1437049100.0,0.01958228665353834,13.69,2013-09-30 00:00:00,2013-10-22 00:00:00,139.8601780268335,43.78579840887225,-624.6783925392771,-45.1876527668289
sh600556,2013-10-28,3.8,3.82,3.77,3.81,0.0026320000000000002,1978452.0,7506103.0,988453860.0,1504164030.0,0.007625952434441401,14.33,2013-09-30 00:00:00,2013-10-22 00:00:00,146.39204466786913,45.83071927207287,-653.8526436461235,-47.29804420103487
sh600556,2013-10-25,3.85,3.89,3.77,3.8,-0.007833,2750096.0,10522607.0,985859490.0,1500216090.0,0.010600257852161062,14.3,2013-09-30 00:00:00,2013-10-22 00:00:00,146.0077522639105,45.71040947433641,-652.1362211121562,-47.17388254218384
sh600556,2013-10-24,3.8,3.88,3.8,3.83,-0.005195,2826890.0,10869981.0,993642590.0,1512059900.0,0.010896260696715909,14.41,2013-09-30 00:00:00,2013-10-22 00:00:00,147.16046014825176,46.07128585644999,-657.2847324212116,-47.54631281042792
sh600556,2013-10-23,4.0,4.0,3.84,3.85,-0.035088,4650175.0,18173259.0,998831330.0,1519955780.0,0.017924121132644088,14.48,2013-09-30 00:00:00,2013-10-22 00:00:00,147.92895104895106,46.31187605254295,-660.7171580573194,-47.79460578749396
sh600556,2013-10-22,4.05,4.05,3.98,3.99,-0.017241,4808576.0,19248536.0,1035152460.0,1575226890.0,0.018534678688779817,15.01,2013-09-30 00:00:00,2013-10-22 00:00:00,153.30823023130716,47.99595823509599,-684.7434357302213,-49.53260586197907
sh600556,2013-10-21,4.0,4.06,3.96,4.06,0.015,4953098.0,19864684.0,1053313030.0,1602862450.0,0.019091739404381997,15.27,2013-06-30 00:00:00,2013-08-01 00:00:00,137.79534278303572,65.77991250561986,-248.68320346437363,-50.85682407755492
sh600556,2013-10-18,4.0,4.02,3.95,4.0,0.010101,3783399.0,15090683.0,1037746830.0,1579174830.0,0.014583129104812588,15.05,2013-06-30 00:00:00,2013-08-01 00:00:00,135.75895840693175,64.80779557203928,-245.00808223091,-50.10524539660583
sh600556,2013-10-17,3.88,4.03,3.88,3.96,0.023256,5370554.0,21293771.0,1027369360.0,1563383080.0,0.020700825494737354,14.9,2013-06-30 00:00:00,2013-08-01 00:00:00,134.40137016687615,64.15971825791607,-242.55800383418097,-49.60419343868171
sh600556,2013-10-16,3.9,4.04,3.86,3.87,-0.007692,7067962.0,27810836.0,1004020060.0,1527851650.0,0.027243492465678424,14.56,2013-06-30 00:00:00,2013-08-01 00:00:00,131.34676969094357,62.70153144268499,-237.04527882971706,-48.47681659201775
sh600556,2013-10-15,3.9,3.93,3.87,3.9,0.0,3960307.0,15408596.0,1011803160.0,1539695460.0,0.015265021805229387,14.67,2013-06-30 00:00:00,2013-08-01 00:00:00,132.3649206606654,63.187570232916585,-238.88276505854742,-48.85259071983472
sh600556,2013-10-14,3.88,3.92,3.85,3.9,0.005155,3512810.0,13678700.0,1011803160.0,1539695460.0,0.01354014253128049,14.67,2013-06-30 00:00:00,2013-08-01 00:00:00,132.3649206606654,63.187570232916585,-238.88276505854742,-48.85259071983472
sh600556,2013-10-11,3.79,3.92,3.78,3.88,0.026455000000000003,6253015.0,24075786.0,1006614430.0,1531799590.0,0.024102275386614514,14.6,2013-06-30 00:00:00,2013-08-01 00:00:00,131.68607892381314,62.86350884482153,-237.6576399247354,-48.60204716669043
sh600556,2013-10-10,3.75,3.85,3.74,3.78,0.002653,4870294.0,18478019.0,980670760.0,1492320220.0,0.018772570847324945,14.22,2013-06-30 00:00:00,2013-08-01 00:00:00,128.29211112402703,61.243316896329155,-231.53244898678992,-47.349418305420535
sh600556,2013-10-09,3.8,3.8,3.74,3.77,-0.007895000000000001,3442617.0,12959435.0,978076390.0,1488372280.0,0.01326958325821565,14.18,2013-06-30 00:00:00,2013-08-01 00:00:00,127.95265273631759,61.081268291551666,-230.91981870775825,-47.22413268141674
sh600556,2013-10-08,3.81,3.81,3.74,3.8,-0.005236,3406325.0,12871432.0,985859490.0,1500216090.0,0.013129695591812986,14.3,2013-06-30 00:00:00,2013-08-01 00:00:00,128.97087781668026,61.56734246027554,-232.75743868618565,-47.59993416162275
sh600556,2013-09-30,3.75,3.83,3.74,3.82,0.018667,3012583.0,11398347.0,991048220.0,1508111960.0,0.011612015266018034,14.37,2013-06-30 00:00:00,2013-08-01 00:00:00,129.64972377034178,61.891405861365655,-233.98257143019418,-47.85047927108616
sh600556,2013-09-27,3.69,3.84,3.69,3.75,0.008065000000000001,2750333.0,10364441.0,972887660.0,1480476410.0,0.010601171310981579,14.11,2013-06-30 00:00:00,2013-08-01 00:00:00,127.27390184460849,60.757250270565024,-229.69485752477914,-46.9736226569489
sh600556,2013-09-26,3.85,3.87,3.71,3.72,-0.03125,3901702.0,14738459.0,965104550.0,1468632590.0,0.015039128600108663,13.99,2013-06-30 00:00:00,2013-08-01 00:00:00,126.25565002713962,60.271163338242104,-227.85718929313006,-46.59781130874388
sh600556,2013-09-25,3.93,3.96,3.83,3.84,-0.027848,4365135.0,17024055.0,996236960.0,1516007840.0,0.01682543317806639,14.45,2013-06-30 00:00:00,2013-08-01 00:00:00,130.3284129312409,62.215394413669266,-235.20742120581167,-48.100966512251745
sh600556,2013-09-24,4.0,4.01,3.93,3.95,-0.0125,3458067.0,13707175.0,1024775000.0,1559435150.0,0.013329135322387841,14.86,2013-06-30 00:00:00,2013-08-01 00:00:00,134.06176496189988,63.997599566394214,-241.94510858982102,-49.47885362808671
sh600556,2013-09-23,3.96,4.02,3.96,4.0,0.0075569999999999995,5529656.0,22099141.0,1037746830.0,1579174830.0,0.021314084862104565,15.05,2013-06-30 00:00:00,2013-08-01 00:00:00,135.7587493285062,64.80769576343718,-245.0077049010846,-50.10516823097388
sh600556,2013-09-18,3.95,4.0,3.88,3.97,0.012754999999999999,3771770.0,14874066.0,1029963730.0,1567331020.0,0.014538305052742003,14.93,2013-06-30 00:00:00,2013-08-01 00:00:00,134.74051525472626,64.32161730148982,-243.17006869197928,-49.72936343152187
sh600556,2013-09-17,3.97,4.01,3.89,3.92,-0.017544,4285557.0,16948439.0,1016991900.0,1547591340.0,0.01651869935247272,14.75,2013-06-30 00:00:00,2013-08-01 00:00:00,133.04354484028838,63.51152776484916,-240.10749756059388,-49.103053978032065
sh600556,2013-09-16,3.87,4.08,3.87,3.99,0.025707,7700313.0,30796241.0,1035152460.0,1575226890.0,0.029680892484185373,15.01,2013-06-30 00:00:00,2013-08-01 00:00:00,135.41934177234234,64.64567142431738,-244.3951663591997,-49.97990136762569
sh600556,2013-09-13,3.85,3.89,3.83,3.89,0.005168,2805837.0,10809391.0,1009208790.0,1535747520.0,0.010815111836273246,14.63,2013-06-30 00:00:00,2013-08-01 00:00:00,132.0253656963854,63.02547552499632,-238.26996048501155,-48.72726945182757
sh600556,2013-09-12,3.87,3.89,3.84,3.87,0.002591,2739589.0,10604708.0,1004020060.0,1527851650.0,0.010559758566975245,14.56,2013-06-30 00:00:00,2013-08-01 00:00:00,131.3465666399899,62.701434511441185,-237.04491237784282,-48.47674165097532
sh600556,2013-09-11,3.9,3.92,3.85,3.86,-0.015306,3490959.0,13553103.0,1001425690.0,1523903710.0,0.013455917772590795,14.52,2013-06-30 00:00:00,2013-08-01 00:00:00,131.00712717348338,62.53939493915383,-236.43231624644824,-48.35146301031559
sh600556,2013-09-10,3.9,3.92,3.85,3.92,0.005128,3903430.0,15144378.0,1016991900.0,1547591340.0,0.015045789056923659,14.75,2013-06-30 00:00:00,2013-08-01 00:00:00,133.04349084434696,63.51150198859121,-240.1074001125713,-49.10303404947689
sh600556,2013-09-09,3.91,3.92,3.85,3.9,0.002571,4739077.0,18419881.0,1011803160.0,1539695460.0,0.018266794402974584,14.67,2013-06-30 00:00:00,2013-08-01 00:00:00,132.36472453692164,63.1874766085426,-238.88241110840735,-48.852518335452686
sh600556,2013-09-06,4.06,4.06,3.87,3.89,-0.041872,7162620.0,28117819.0,1009208790.0,1535747520.0,0.02760835228159279,14.63,2013-06-30 00:00:00,2013-08-01 00:00:00,132.02528752270075,63.025438206912625,-238.26981940272293,-48.72724059987041
sh600556,2013-09-05,4.16,4.21,4.0,4.06,-0.014563,5532994.0,22666683.0,1053313030.0,1602862450.0,0.021326951248291304,15.27,2013-06-30 00:00:00,2013-08-01 00:00:00,137.79504150040574,65.77976868112884,-248.68265973097846,-50.8567128816509
sh600556,2013-09-04,3.92,4.12,3.9,4.12,0.051019999999999996,6727502.0,27418896.0,1068879240.0,1626550080.0,0.025931187736418195,15.5,2013-06-30 00:00:00,2013-08-01 00:00:00,139.8314062699145,66.75187625503087,-252.35774557985792,-51.60828432629472
sh600556,2013-09-03,3.88,3.95,3.87,3.92,0.010309,4028083.0,15737275.0,1016991900.0,1547591340.0,0.015526264624133191,14.75,2013-06-30 00:00:00,2013-08-01 00:00:00,133.04352559410333,63.51151857722104,-240.10746282645232,-49.103046874745225
sh600556,2013-09-02,3.88,4.04,3.85,3.88,-0.010204000000000001,7341705.0,28911041.0,1006614430.0,1531799590.0,0.028298636052733715,14.6,2013-06-30 00:00:00,2013-08-01 00:00:00,131.68597487907496,62.86345917656978,-237.65745215221514,-48.602008766372684
sh600556,2013-08-30,3.73,3.92,3.65,3.92,0.050938,8618289.0,32599529.0,1016991900.0,1547591340.0,0.03321923496145839,14.75,2013-06-30 00:00:00,2013-08-01 00:00:00,133.0435512762983,63.511530837232904,-240.10750917584545,-49.103056353402806
sh600556,2013-08-29,3.78,3.83,3.72,3.73,-0.015831,3820939.0,14379039.0,967698920.0,1472580530.0,0.014727827194433574,14.03,2013-06-30 00:00:00,2013-08-01 00:00:00,126.59505249243848,60.433185247115354,-228.46971864738498,-46.72307629318077
sh600556,2013-08-28,3.82,3.88,3.78,3.79,-0.018135,5574810.0,21323539.0,983265120.0,1496268150.0,0.021488131197006155,14.26,2013-06-30 00:00:00,2013-08-01 00:00:00,128.63141644619824,61.40529243160001,-232.14480302405886,-47.474647436751994
sh600556,2013-08-27,3.82,3.97,3.82,3.86,0.005208,4814339.0,18714031.0,1001425690.0,1523903710.0,0.018556892164410123,14.52,2013-06-30 00:00:00,2013-08-01 00:00:00,131.00723260957287,62.539445271600485,-236.43250652998006,-48.35150192414639
sh600556,2013-08-26,3.82,3.88,3.75,3.84,-0.007751999999999999,7275111.0,27672656.0,996236960.0,1516007840.0,0.02804194921657996,14.45,2013-06-30 00:00:00,2013-08-01 00:00:00,130.32848187596284,62.21542732608622,-235.20754563232686,-48.10099195802897
sh600556,2013-08-23,3.9,3.91,3.75,3.87,0.040323000000000005,19242318.0,74337083.0,1004020060.0,1527851650.0,0.07416960440013519,14.56,2013-06-30 00:00:00,2013-08-01 00:00:00,131.3466813497864,62.70148927091435,-237.04511939789938,-48.47678398750007
sh600556,2013-08-22,3.72,3.72,3.72,3.72,0.050847,3792795.0,14109197.0,965104550.0,1468632590.0,0.014619346059450243,13.99,2013-06-30 00:00:00,2013-08-01 00:00:00,126.25567381456179,60.27117469373872,-227.85723222297244,-46.59782008808809
sh600556,2013-08-21,3.54,3.54,3.54,3.54,0.050445,105901.0,374890.0,918405950.0,1397569730.0,0.0004081958963789379,13.32,2013-06-30 00:00:00,2013-08-01 00:00:00,120.14658062930359,57.354852508251646,-216.83197670352814,-44.343106168726834
sh600556,2013-08-20,3.37,3.37,3.37,3.37,0.049844,555286.0,1871314.0,874301710.0,1330454800.0,0.0021403524648259007,12.68,2013-06-30 00:00:00,2013-08-01 00:00:00,114.37684089057835,54.60052883135399,-206.41916207276736,-42.213639142198616
sh600556,2013-07-19,3.27,3.33,3.17,3.21,-0.018349,2740309.0,8893464.0,832791830.0,1267287800.0,0.010562533844742449,12.08,2013-03-31 00:00:00,2013-04-27 00:00:00,140.42608409345485,108.7914273806102,-165.41275153520996,-38.3732589333463
sh600556,2013-07-18,3.36,3.39,3.25,3.27,-0.038235000000000005,4546251.0,15014531.0,848358040.0,1290975430.0,0.017523545565737788,12.3,2013-03-31 00:00:00,2013-04-27 00:00:00,143.05092552593013,110.82495447018358,-168.50464323390895,-39.09053108828524
sh600556,2013-07-17,3.49,3.5,3.38,3.4,-0.028571,3193180.0,10973249.0,882084810.0,1342298610.0,0.012308127151628424,12.79,2013-03-31 00:00:00,2013-04-27 00:00:00,148.73791989304053,115.23080427150457,-175.20355100664813,-40.644576469600416
sh600556,2013-07-16,3.38,3.52,3.38,3.5,0.029412,2613716.0,9047788.0,908028480.0,1381777980.0,0.010074580480118861,13.17,2013-03-31 00:00:00,2013-04-27 00:00:00,153.11249704614596,118.6198932413018,-180.3565170554391,-41.839986730476866
sh600556,2013-07-15,3.36,3.41,3.35,3.4,0.008902,1796675.0,6085773.0,882084810.0,1342298610.0,0.006925292138292235,12.79,2013-03-31 00:00:00,2013-04-27 00:00:00,148.73782027618287,115.23072709595556,-175.20343366449885,-40.644549247994846
sh600556,2013-07-12,3.37,3.4,3.33,3.37,-0.0059,2197750.0,7398537.0,874301710.0,1330454800.0,0.008471237577700724,12.68,2013-03-31 00:00:00,2013-04-27 00:00:00,147.42543901804424,114.21399412029668,-173.65753429421179,-40.28592395296555
sh600556,2013-07-11,3.29,3.41,3.27,3.39,0.033537,2915871.0,9756484.0,879490440.0,1338350670.0,0.011239238359430036,12.75,2013-03-31 00:00:00,2013-04-27 00:00:00,148.30041144557313,114.89185607111627,-174.68819464260315,-40.525021580289255
sh600556,2013-07-10,3.22,3.29,3.2,3.28,0.018634,1648898.0,5375219.0,850952400.0,1294923360.0,0.0063556850418425275,12.34,2013-03-31 00:00:00,2013-04-27 00:00:00,143.48824613494548,111.16375714765536,-169.01977833653092,-39.21003464828957
sh600556,2013-07-09,3.23,3.26,3.15,3.22,0.0,1713399.0,5517962.0,835386200.0,1271235740.0,0.006604304428299151,12.11,2013-03-31 00:00:00,2013-04-27 00:00:00,140.86339758435855,109.13022454351156,-165.9278782531615,-38.492760548233775
sh600556,2013-07-08,3.37,3.37,3.21,3.22,-0.047337,3217182.0,10442312.0,835386200.0,1271235740.0,0.012400643007988401,12.11,2013-03-31 00:00:00,2013-04-27 00:00:00,140.86339758435855,109.13022454351156,-165.9278782531615,-38.492760548233775
sh600556,2013-07-05,3.38,3.4,3.35,3.38,0.005952000000000001,1326311.0,4479024.0,876896070.0,1334402730.0,0.005112271948031424,12.72,2013-03-31 00:00:00,2013-04-27 00:00:00,147.8627779019008,114.55281095572259,-174.1726909234026,-40.40543250680857
sh600556,2013-07-04,3.3,3.39,3.3,3.36,0.005988,1914509.0,6426757.0,871707340.0,1326506860.0,0.007379483852917884,12.64,2013-03-31 00:00:00,2013-04-27 00:00:00,146.98790588606695,113.87502679623142,-173.14214885342702,-40.16636231829011
sh600556,2013-07-03,3.38,3.38,3.28,3.34,-0.0029850000000000002,1879831.0,6262396.0,866518600.0,1318610980.0,0.007245817389263196,12.56,2013-03-31 00:00:00,2013-04-27 00:00:00,146.11298135372087,113.19720195094914,-172.11154492243148,-39.92727777894976
sh600556,2013-07-02,3.34,3.41,3.32,3.35,0.006006,2900310.0,9768849.0,869112970.0,1322558920.0,0.011179258434033034,12.6,2013-03-31 00:00:00,2013-04-27 00:00:00,146.5504344004061,113.53610723103378,-172.626836027975,-40.04681752927465
sh600556,2013-07-01,3.15,3.37,3.11,3.33,0.037383,3292192.0,10734165.0,863924240.0,1314663050.0,0.012689769371443959,12.53,2013-03-31 00:00:00,2013-04-27 00:00:00,145.67550730354102,112.85828039895765,-171.5962290761437,-39.80773228914604
sh600556,2013-06-28,3.2,3.28,3.1,3.21,0.0,2750313.0,8793874.0,832791830.0,1267287800.0,0.010601094309486681,12.08,2013-03-31 00:00:00,2013-04-27 00:00:00,140.42596350965943,108.7913339614758,-165.412609495378,-38.37322598225153
sh600556,2013-06-27,3.37,3.42,3.18,3.21,-0.041791,4069152.0,13545509.0,832791830.0,1267287800.0,0.01568456539733345,12.08,2013-03-31 00:00:00,2013-04-27 00:00:00,140.42596350965943,108.7913339614758,-165.412609495378,-38.37322598225153
sh600556,2013-06-26,3.36,3.41,3.31,3.35,-0.0029760000000000003,3919714.0,13139538.0,869112970.0,1322558920.0,0.015108555910746562,12.6,2013-03-31 00:00:00,2013-04-27 00:00:00,146.550453512396,113.53612203754693,-172.62685854065032,-40.04682275187515
sh600556,2013-06-25,3.42,3.43,3.35,3.36,-0.048159,4859048.0,16349561.0,871707340.0,1326506860.0,0.01872922313582905,12.64,2013-03-31 00:00:00,2013-04-27 00:00:00,146.98788947146306,113.87501407944737,-173.14212951809617,-40.16635783278552
sh600556,2013-06-24,3.68,3.76,3.53,3.53,-0.051075,3145599.0,11300249.0,915811580.0,1393621790.0,0.012124725994401599,13.28,2013-03-31 00:00:00,2013-04-27 00:00:00,154.42483510529917,119.63659274967917,-181.90236554014396,-42.19860022081999
sh600556,2013-06-21,3.78,3.8,3.64,3.72,-0.028720999999999997,4077340.0,15066519.0,965104550.0,1468632590.0,0.015716126092245656,13.99,2013-03-31 00:00:00,2013-04-27 00:00:00,162.73660732439248,126.07592038325384,-191.69309011791654,-44.469900382875345
sh600556,2013-06-20,3.85,3.99,3.79,3.83,-0.005195,3434941.0,13343875.0,993642590.0,1512059900.0,0.013239996113693154,14.41,2013-03-31 00:00:00,2013-04-27 00:00:00,167.54877571160551,129.8040216902186,-197.3615100480053,-45.78488815559211
sh600556,2013-06-19,3.95,3.95,3.83,3.85,-0.025315999999999998,3011652.0,11641432.0,998831330.0,1519955780.0,0.011608426619937922,14.48,2013-03-31 00:00:00,2013-04-27 00:00:00,168.42373702545274,130.48187503100468,-198.3921573052058,-46.02398274595735
sh600556,2013-06-18,4.0,4.0,3.83,3.95,-0.002525,2894388.0,11332359.0,1024775000.0,1559435150.0,0.011156431997267693,14.86,2013-03-31 00:00:00,2013-04-27 00:00:00,172.79829875677936,133.87095205318306,-203.545105188149,-47.21938879263161
sh600556,2013-06-17,4.0,4.02,3.95,3.96,-0.01,2460354.0,9778137.0,1027369360.0,1563383080.0,0.009483445992588293,14.9,2013-03-31 00:00:00,2013-04-27 00:00:00,173.23571894712083,134.2098318786767,-204.06035759106646,-47.338919564532056
sh600556,2013-06-14,3.92,4.01,3.89,4.0,0.023018,1652334.0,6534103.0,1037746830.0,1579174830.0,0.006368929115398984,15.05,2013-03-31 00:00:00,2013-04-27 00:00:00,174.98557469406146,135.5654867461381,-206.12157332430957,-47.8170904692243
sh600556,2013-06-13,4.08,4.08,3.89,3.91,-0.04401,2946687.0,11569920.0,1014397530.0,1543643400.0,0.011358018754245193,14.71,2013-03-31 00:00:00,2013-04-27 00:00:00,171.04838301384868,132.51525070540117,-201.4838187835498,-46.74120149325261
sh600556,2013-06-07,4.17,4.2,4.01,4.09,-0.014458000000000002,3229956.0,13275135.0,1061096139.9999999,1614706270.0,0.012449880403862369,15.39,2013-03-31 00:00:00,2013-04-27 00:00:00,178.9227743112885,138.61572893586876,-210.75933721435348,-48.89298161408865
sh600556,2013-06-06,4.19,4.22,4.14,4.15,-0.009547,1547030.0,6468057.0,1076662340.0,1638393890.0,0.005963034334422805,15.61,2013-03-31 00:00:00,2013-04-27 00:00:00,181.54758935822977,140.64923558394136,-213.85119783261746,-49.6102465588363
sh600556,2013-06-05,4.23,4.29,4.13,4.19,-0.011792,4062389.0,17016621.0,1087039810.0,1654185640.0,0.01565849728171409,15.76,2013-03-31 00:00:00,2013-04-27 00:00:00,183.2975308855945,142.00495690753763,-215.91251460959526,-50.0884409041482
sh600556,2013-06-04,4.43,4.48,4.2,4.24,-0.040724,6156749.0,26405499.0,1100011640.0,1673925320.0,0.023731217753295775,15.95,2013-03-31 00:00:00,2013-04-27 00:00:00,185.48476726113785,143.69946095107267,-218.48893614461252,-50.6861317699798
sh600556,2013-06-03,4.42,4.53,4.34,4.42,0.009132,5321418.0,23663081.0,1146710250.0,1744988190.0,0.020511430468158804,16.63,2013-03-31 00:00:00,2013-04-27 00:00:00,193.359124236547,149.79991259144674,-227.7644141463067,-52.83790251187333
sh600556,2013-05-31,4.39,4.45,4.32,4.38,-0.013513999999999998,6904568.0,30189918.0,1136332780.0,1729196440.0,0.026613689556680746,16.48,2013-03-31 00:00:00,2013-04-27 00:00:00,191.60934767359177,148.44431906970223,-225.70329168662448,-52.359753245237826
sh600556,2013-05-30,4.26,4.48,4.24,4.44,0.039813,13044631.0,57841670.0,1151898980.0,1752884060.0,0.05028059113308704,16.7,2013-03-31 00:00:00,2013-04-27 00:00:00,194.2342290449046,150.47787710084302,-228.79523043066447,-53.07703631398502
sh600556,2013-05-29,4.24,4.3,4.22,4.27,0.0,3604509.0,15387592.0,1107794740.0,1685769130.0,0.013893596777684643,16.06,2013-03-31 00:00:00,2013-04-27 00:00:00,186.7972693598797,144.71628754482106,-220.0349778572344,-51.04479008627995
sh600556,2013-05-28,4.2,4.27,4.16,4.27,0.011848000000000001,3851673.0,16298560.0,1107794740.0,1685769130.0,0.014846291570223557,16.06,2013-03-31 00:00:00,2013-04-27 00:00:00,186.7972693598797,144.71628754482106,-220.0349778572344,-51.04479008627995
sh600556,2013-05-27,4.12,4.28,4.12,4.22,0.019324,4192210.0,17607597.0,1094822910.0,1666029450.0,0.016158892948266855,15.88,2013-03-31 00:00:00,2013-04-27 00:00:00,184.61000996185166,143.02176566521953,-217.45852920323443,-50.44709292925414
sh600556,2013-05-24,4.13,4.16,4.11,4.14,0.002421,2277891.0,9410555.0,1074067970.0,1634445950.0,0.008780141483969585,15.57,2013-03-31 00:00:00,2013-04-27 00:00:00,181.11023576591123,140.31040735352013,-213.33602387781949,-49.49073398571421
sh600556,2013-05-23,4.17,4.18,4.11,4.13,-0.009592,2923262.0,12101685.0,1071473600.0000001,1630498010.0,0.011267727044324749,15.54,2013-03-31 00:00:00,2013-04-27 00:00:00,180.67282685210228,139.97153626422443,-212.82078475792056,-49.37120629527335
sh600556,2013-05-22,4.13,4.26,4.13,4.17,0.002404,4478754.0,18739974.0,1081851070.0,1646289760.0,0.01726337820232502,15.69,2013-03-31 00:00:00,2013-04-27 00:00:00,182.42262466791695,141.32714625106465,-214.88193225208255,-49.84936136952988
sh600556,2013-05-21,4.1,4.18,4.06,4.16,0.009709,4469602.0,18452208.0,1079256710.0,1642341830.0,0.017228101662671157,15.65,2013-03-31 00:00:00,2013-04-27 00:00:00,181.98513240960423,140.98821059279953,-214.36659495780395,-49.729810904116384
sh600556,2013-05-20,4.12,4.19,4.05,4.12,0.0,4630197.0,19111035.0,1068879240.0,1626550080.0,0.017847115863154007,15.5,2013-03-31 00:00:00,2013-04-27 00:00:00,180.23522857536602,139.63251847096495,-212.30532258086632,-49.251626858942906
sh600556,2013-05-17,4.12,4.22,4.07,4.12,0.022333000000000002,8202296.0,34007632.0,1068879240.0,1626550080.0,0.03161578806601202,15.5,2013-03-31 00:00:00,2013-04-27 00:00:00,180.23522857536602,139.63251847096495,-212.30532258086632,-49.251626858942906
sh600556,2013-05-16,3.81,4.03,3.8,4.03,0.049479,2259084.0,9005638.0,985327600.0,1591018640.0,0.009239676753193557,15.16,2013-03-31 00:00:00,2013-04-27 00:00:00,176.29796609848847,136.58222758236792,-207.66748464626139,-48.17571853685923
sh600556,2013-05-15,3.91,3.92,3.76,3.84,-0.015385,3648873.0,13955614.0,938872950.0,1516007840.0,0.0149239280139022,14.45,2013-03-31 00:00:00,2013-04-27 00:00:00,167.98617799735723,130.14288764460073,-197.87674136048588,-45.90441403482988
sh600556,2013-05-14,4.1,4.11,3.9,3.9,-0.051095,6963100.0,27537255.0,953542840.0,1539695460.0,0.028479150449076836,14.67,2013-03-31 00:00:00,2013-04-27 00:00:00,170.61102867349902,132.17642189546243,-200.96864394762002,-46.621688715721255
sh600556,2013-05-13,4.12,4.15,4.08,4.11,0.0,2567790.0,10549501.0,1004887460.0,1622602140.0,0.010502287390470572,15.46,2013-03-31 00:00:00,2013-04-27 00:00:00,179.79779711720246,139.29362991602153,-211.79005690519074,-49.13209300796313
sh600556,2013-05-10,4.07,4.14,4.04,4.11,0.009828,3242689.0,13298803.0,1004887460.0,1622602140.0,0.013262631210464107,15.46,2013-03-31 00:00:00,2013-04-27 00:00:00,179.79779711720246,139.29362991602153,-211.79005690519074,-49.13209300796313
sh600556,2013-05-09,4.08,4.11,3.99,4.07,-0.00489,4737216.0,19168573.0,995107530.0,1606810390.0,0.01937526200811685,15.31,2013-03-31 00:00:00,2013-04-27 00:00:00,178.04794194377902,137.93797549287754,-209.7288418475134,-48.65392225999193
sh600556,2013-05-08,4.1,4.1,4.0,4.09,0.002451,4549830.0,18437523.0,999997490.0,1614706270.0,0.018608851408217032,15.39,2013-03-31 00:00:00,2013-04-27 00:00:00,178.92287480155863,138.6158067880712,-210.75945558532564,-48.89300907436558
sh600556,2013-05-07,4.09,4.13,4.03,4.08,0.002457,4111421.0,16761688.0,997552510.0,1610758330.0,0.01681575406992861,15.35,2013-03-31 00:00:00,2013-04-27 00:00:00,178.48540706883296,138.2768901303617,-210.24414718058603,-48.77346531088859
sh600556,2013-05-06,4.0,4.15,3.91,4.07,0.0049380000000000005,5576589.0,22444085.0,995107530.0,1606810390.0,0.022808306183754835,15.31,2013-03-31 00:00:00,2013-04-27 00:00:00,178.04794327221313,137.93797652204702,-209.72884341232196,-48.65392262300387
sh600556,2013-05-03,4.06,4.15,4.05,4.05,-0.049296,9698823.0,39520769.0,990217570.0,1598914520.0,0.039668285374899984,15.24,2013-03-31 00:00:00,2013-04-27 00:00:00,177.17306268865653,137.2601857249373,-208.69829125012882,-48.41485009324343
sh600556,2013-04-26,4.26,4.46,4.26,4.26,-0.049107,10845166.0,46607998.0,1041562180.0,1681821200.0,0.04435684018403971,16.03,2012-09-30 00:00:00,2012-10-31 00:00:00,91.23602802645443,798.4990854004143,2257.547758670488,-39.96990636715341
sh600556,2013-04-25,4.65,4.66,4.4,4.48,-0.032397,5648477.0,25483789.0,1095351780.0,1768675810.0,0.023102328787926014,16.85,2012-09-30 00:00:00,2012-10-31 00:00:00,95.94773336900623,839.7360012119285,2374.1343754454892,-42.03407362043197
sh600556,2013-04-24,4.7,4.74,4.56,4.63,-0.027311000000000002,6803944.0,31554819.0,1132026500.0,1827894870.0,0.027828200770918347,17.42,2012-09-30 00:00:00,2012-10-31 00:00:00,99.16022725126547,867.8517958418157,2453.6244466433955,-43.44144615139883
sh600556,2013-04-23,5.02,5.14,4.76,4.76,-0.0499,10560991.0,52282346.0,1163811270.0,1879218050.0,0.04319456122812765,17.91,2012-09-30 00:00:00,2012-10-31 00:00:00,101.94443162333023,892.2191942561452,2522.516905859319,-44.66118785284796
sh600556,2013-04-22,4.8,5.11,4.8,5.01,0.028747,8019092.0,39814580.0,1224935810.0,1977916480.0,0.032798168354634026,18.85,2012-09-30 00:00:00,2012-10-31 00:00:00,107.29863343156535,939.0792487697561,2655.0014796961573,-47.00682859998733
sh600556,2013-04-19,4.86,4.96,4.77,4.87,-0.002049,7978745.0,38792490.0,1190706060.0,1922645360.0,0.03263314889822598,18.32,2012-09-30 00:00:00,2012-10-31 00:00:00,104.3003123523717,912.8378977238873,2580.810908509242,-45.69328377141058
sh600556,2013-04-18,4.9,4.99,4.81,4.88,-0.002045,7912046.0,38824752.0,1193151050.0,1926593300.0,0.0323603490773444,18.36,2012-09-30 00:00:00,2012-10-31 00:00:00,104.51446248600553,914.7121429046991,2586.1098475869476,-45.787101542471106
sh600556,2013-04-17,4.66,4.89,4.62,4.89,0.049356,9045322.0,43448520.0,1195596030.0,1930541230.0,0.03699545956170496,18.4,2012-09-30 00:00:00,2012-10-31 00:00:00,104.72863253954891,916.5865624248579,2591.409279563655,-45.88092804031354
sh600556,2013-04-16,4.58,4.78,4.56,4.66,0.002151,6436398.0,30044486.0,1139361450.0,1839738680.0,0.02632493374249234,17.53,2012-09-30 00:00:00,2012-10-31 00:00:00,99.80276716343063,873.4753147881729,2469.523478746636,-43.722938678878805
sh600556,2013-04-15,4.6,4.85,4.58,4.65,0.006494,10579935.0,50293842.0,1136916470.0,1835790740.0,0.043272042448289985,17.49,2012-09-30 00:00:00,2012-10-31 00:00:00,99.58855218767494,871.6005021081382,2464.222935212993,-43.629092500909344
sh600556,2013-04-12,4.43,4.62,4.37,4.62,0.05,8689347.0,39616942.0,1129581520.0,1823946930.0,0.03553951833418805,17.38,2012-09-30 00:00:00,2012-10-31 00:00:00,98.94599688391081,865.9768484542761,2448.32352225944,-43.347593230470665
sh600556,2013-04-11,4.18,4.4,4.08,4.4,0.050119,7224938.0,30767169.0,1075791930.0,1737092320.0,0.029550070337486176,16.55,2012-09-30 00:00:00,2012-10-31 00:00:00,94.23428274658173,824.7398556707392,2331.7366878661333,-41.283422124257775
sh600556,2013-04-10,4.09,4.42,4.09,4.19,-0.027842000000000002,7585574.0,32605117.0,1024447310.0,1654185640.0,0.03102507542335194,15.76,2012-09-30 00:00:00,2012-10-31 00:00:00,89.73676578233679,785.3775197579886,2220.449956496486,-39.31308939678053
sh600556,2013-03-19,4.37,4.41,4.21,4.31,-0.015982,4505148.0,19399757.0,1053787090.0000001,1701560880.0,0.018426101500256562,16.21,2012-09-30 00:00:00,2012-10-31 00:00:00,92.30677089766972,807.8702430654159,2284.0422611308923,-40.43899180666161
sh600556,2013-03-18,4.52,4.56,4.31,4.38,-0.033113,5921916.0,26053212.0,1070901960.0,1729196440.0,0.024220697177545554,16.48,2012-09-30 00:00:00,2012-10-31 00:00:00,93.80597803868396,820.9913264446544,2321.138699831601,-41.09578463672576
sh600556,2013-03-15,4.55,4.68,4.5,4.53,-0.002203,5631534.0,25734531.0,1107576690.0,1788415500.0,0.023033031708170025,17.04,2012-09-30 00:00:00,2012-10-31 00:00:00,97.01855339732974,849.1078341570983,2400.6307870843243,-42.503192861963974
sh600556,2013-03-14,4.48,4.59,4.45,4.54,0.017937,5277588.0,23963099.0,1110021670.0,1792363430.0,0.021585388977135914,17.08,2012-09-30 00:00:00,2012-10-31 00:00:00,97.2327571613562,850.9825487119107,2405.9310531945116,-42.59703412814828
sh600556,2013-03-13,4.57,4.66,4.44,4.46,-0.030435000000000004,4812548.0,21870880.0,1090461820.0,1760779940.0,0.01968337055578892,16.78,2012-09-30 00:00:00,2012-10-31 00:00:00,95.51942523098796,835.9874419653776,2363.5363025359247,-41.84643463018662
sh600556,2013-03-12,4.83,4.86,4.56,4.6,-0.041667,6889582.0,32266438.0,1124691560.0,1816051060.0,0.02817846094621711,17.3,2012-09-30 00:00:00,2012-10-31 00:00:00,98.51781492833175,862.2293935583252,2437.728571612965,-43.16000951992555
sh600556,2013-03-11,4.71,4.92,4.55,4.8,0.010526,6508703.0,31181493.0,1173591190.0,1895009800.0,0.026620662004117463,18.06,2012-09-30 00:00:00,2012-10-31 00:00:00,102.80123394303624,899.717941006232,2543.7176551501047,-45.03654733785183
sh600556,2013-03-08,4.97,5.08,4.7,4.75,-0.028630000000000003,10040217.0,48682665.0,1161366280.0,1875270110.0,0.041064590535554384,17.87,2012-09-30 00:00:00,2012-10-31 00:00:00,101.73041954688571,890.3461573539245,2517.221382873973,-44.56743056373792
sh600556,2013-03-07,4.98,5.09,4.83,4.89,0.008246999999999999,16797247.0,83600928.0,1195596030.0,1930541230.0,0.06870091215508635,18.4,2012-09-30 00:00:00,2012-10-31 00:00:00,104.72880524093364,916.5880739099667,2591.4135528933084,-45.88100369965916
sh600556,2013-03-06,4.71,4.85,4.66,4.85,0.049783999999999995,7301313.0,35151145.0,1185816100.0,1914749480.0,0.029862444986199797,18.25,2012-09-30 00:00:00,2012-10-31 00:00:00,103.87217144304286,909.090802065334,2570.2169735127486,-45.50571804295888
sh600556,2013-03-05,4.41,4.62,4.36,4.62,0.05,7372838.0,33273555.0,1129581520.0,1823946930.0,0.03015498302415571,17.38,2012-09-30 00:00:00,2012-10-31 00:00:00,98.94623221828763,865.9789081042709,2448.3293453822394,-43.34769632891993
sh600556,2013-03-04,4.5,4.62,4.37,4.4,-0.043477999999999996,11663058.0,52104903.0,1075791930.0,1737092320.0,0.04770202654336699,16.55,2012-09-30 00:00:00,2012-10-31 00:00:00,94.23450687455964,824.7418172421627,2331.7422336973705,-41.28352031325707
sh600556,2013-03-01,4.47,4.6,4.41,4.6,0.050227999999999995,13068118.0,59709178.0,1124691560.0,1816051060.0,0.05344873646957927,17.3,2012-09-30 00:00:00,2012-10-31 00:00:00,98.5178666821669,862.2298465086666,2437.729852211837,-43.1600321929418
sh600556,2013-02-28,4.27,4.38,4.23,4.38,0.05036,9998507.0,42995682.0,1070901960.0,1729196440.0,0.040893996178697815,16.48,2012-09-30 00:00:00,2012-10-31 00:00:00,93.80617035745277,820.9930096214028,2321.1434585745546,-41.09586889031886
sh600556,2013-02-27,3.97,4.17,3.97,4.17,0.050378,4521076.0,18595798.0,1019557350.0,1646289760.0,0.01849124712798157,15.69,2012-09-30 00:00:00,2012-10-31 00:00:00,89.30858977631742,781.6301169326733,2209.8551530661434,-39.12550829269856
sh600556,2013-02-26,4.0,4.09,3.95,3.97,0.005063000000000001,5410124.0,21795762.0,970657720.0,1567331020.0,0.022127462479770932,14.93,2012-09-30 00:00:00,2012-10-31 00:00:00,85.02519071831037,744.141744146082,2103.866563338287,-37.248979217670744
sh600556,2013-02-25,4.01,4.05,3.93,3.95,-0.014962999999999999,5865846.0,23368356.0,965767750.0,1559435150.0,0.02399137028545424,14.86,2012-09-30 00:00:00,2012-10-31 00:00:00,84.5968767314192,740.3931337101077,2093.2683457039875,-37.06133766507248
sh600556,2013-02-22,3.98,4.02,3.97,4.01,0.0025,4672601.0,18677305.0,980437640.0,1583122770.0,0.01911098599804879,15.09,2012-09-30 00:00:00,2012-10-31 00:00:00,85.88192802038826,751.6399218609125,2125.0657038304016,-37.62431021887755
sh600556,2013-02-21,4.1,4.1,3.99,4.0,-0.024390000000000002,6608073.0,26671537.0,977992660.0,1579174830.0,0.027027086276905185,15.05,2012-09-30 00:00:00,2012-10-31 00:00:00,85.66775862382869,749.7655080906859,2119.766288110127,-37.53048400885541
sh600556,2013-02-20,4.2,4.22,4.01,4.1,-0.021480000000000003,9481998.0,38783104.0,1002442480.0,1618654200.0,0.03878146883799258,15.42,2012-09-30 00:00:00,2012-10-31 00:00:00,87.80943063706675,768.5094536655896,2172.7599021229044,-38.46873649189267
sh600556,2013-02-19,4.12,4.34,4.11,4.19,0.012077,10733926.0,45310294.0,1024447310.0,1654185640.0,0.043901867378616094,15.76,2012-09-30 00:00:00,2012-10-31 00:00:00,89.73698098870412,785.3794032473426,2220.4552815710504,-39.31318367728066
sh600556,2013-02-18,4.15,4.29,4.08,4.14,-0.023585,15801019.0,65944098.0,1012222400.0,1634445950.0,0.06462632980657215,15.57,2012-09-30 00:00:00,2012-10-31 00:00:00,88.66615977707637,776.0075599458762,2193.9588406524904,-38.844063917350816
sh600556,2013-02-08,4.9,5.38,4.2,4.24,0.036675,40594807.0,192861664.0,1036672220.0,1673925320.0,0.1660331765039484,15.95,2012-09-30 00:00:00,2012-10-31 00:00:00,90.80786323138867,794.7517806935332,2246.9532326444087,-39.782330174516794
