code,date,open,high,low,close,change,volume,money,traded_market_value,market_value,turnover,adjust_price,report_type,report_date,PE_TTM,PS_TTM,PC_TTM,PB
sh600732,2014-12-31,6.96,7.15,6.82,7.11,0.020086,6207077.0,43741225.0,3173783700.0,3173783700.0,0.013905269432822408,34.57,2014-09-30 00:00:00,2014-10-31 00:00:00,-215.10278671820845,26.283325492150734,-112.17530745126707,6.201759790818319
sh600732,2014-12-30,7.45,7.45,6.92,6.97,-0.052989,9562738.0,68021099.0,3111290070.0,3111290070.0,0.02142271609538483,33.89,2014-09-30 00:00:00,2014-10-31 00:00:00,-210.8673060096977,25.765793758713222,-109.96651993191465,6.0796440602246475
sh600732,2014-12-29,7.56,7.61,7.3,7.36,-0.031579,6984794.0,51747179.0,3285379470.0,3285379470.0,0.015647533050421113,35.78,2014-09-30 00:00:00,2014-10-31 00:00:00,-222.66616333886057,27.207491527250706,-116.11958037648417,6.419824120548386
sh600732,2014-12-26,7.58,7.65,7.5,7.6,-0.006536,5879180.0,44412276.0,3392511410.0,3392511410.0,0.01317070529764261,36.95,2014-09-30 00:00:00,2014-10-31 00:00:00,-229.9270289872489,28.09469386480746,-119.90609494887467,6.629166571716624
sh600732,2014-12-25,7.52,7.72,7.41,7.65,0.017287,5463814.0,41436718.0,3414830560.0,3414830560.0,0.012240190652387744,37.19,2014-09-30 00:00:00,2014-10-31 00:00:00,-231.43971899057127,28.279528865472187,-120.6949571890624,6.672779860887385
sh600732,2014-12-24,7.44,7.55,7.32,7.52,0.018969999999999997,5550022.0,41218555.0,3356800760.0,3356800760.0,0.012433316250798274,36.56,2014-09-30 00:00:00,2014-10-31 00:00:00,-227.5068087870692,27.798968103860748,-118.64395906864276,6.559387725280461
sh600732,2014-12-23,7.24,7.42,7.24,7.38,0.009576000000000001,5615928.0,41354599.0,3294307130.0,3294307130.0,0.012580960731490752,35.88,2014-09-30 00:00:00,2014-10-31 00:00:00,-223.2713512537849,27.281439202195106,-116.4351836350852,6.437272662865896
sh600732,2014-12-22,7.52,7.52,7.1,7.31,-0.029216000000000002,14770499.0,107190226.0,3263060310.0,3263060310.0,0.03308928963375488,35.54,2014-09-30 00:00:00,2014-10-31 00:00:00,-221.15358452834155,27.022670113191193,-115.33077612293202,6.376214037245236
sh600732,2014-12-19,7.74,7.82,7.48,7.53,-0.037084,11230021.0,85837848.0,3361264590.0,3361264590.0,0.025157810658993675,36.61,2014-09-30 00:00:00,2014-10-31 00:00:00,-227.80925986454406,27.835924482883105,-118.80168618655851,6.568107876979056
sh600732,2014-12-18,8.11,8.14,7.75,7.82,-0.028571,10960076.0,86948301.0,3490715690.0,3490715690.0,0.024553072186752626,38.02,2014-09-30 00:00:00,2014-10-31 00:00:00,-236.582692430642,28.907946781321638,-123.37699881044506,6.821060068561594
sh600732,2014-12-17,8.1,8.29,7.97,8.05,-0.004944,12880731.0,104551191.0,3593383790.0,3593383790.0,0.02885577789897027,39.14,2014-09-30 00:00:00,2014-10-31 00:00:00,-243.54089946938169,29.75816738158078,-127.00567803765901,7.021676384544413
sh600732,2014-12-16,8.06,8.19,8.04,8.09,0.006219,7584897.0,61281567.0,3611239120.0,3611239120.0,0.01699190075510702,39.33,2014-09-30 00:00:00,2014-10-31 00:00:00,-244.7509481570702,29.906022758096807,-127.63671395143488,7.056564037144052
sh600732,2014-12-15,8.04,8.18,7.97,8.04,-0.00618,15586830.0,125894551.0,3588919960.0,3588919960.0,0.034918057409115355,39.09,2014-09-30 00:00:00,2014-10-31 00:00:00,-243.23824948353214,29.72118669802181,-126.84784718976177,7.012950497997008
sh600732,2014-12-12,7.69,8.31,7.58,8.09,0.060288,30130606.0,241858904.0,3611239120.0,3611239120.0,0.06749943563415983,39.33,2014-09-30 00:00:00,2014-10-31 00:00:00,-244.75080948615658,29.90600581395203,-127.63664163506647,7.056560039038265
sh600732,2014-12-11,7.4,7.69,7.33,7.63,0.032476,10264055.0,77674849.0,3405902900.0,3405902900.0,0.022993826291994406,37.1,2014-09-30 00:00:00,2014-10-31 00:00:00,-230.83427284488423,28.205549637411757,-120.37921926407398,6.655323873361073
sh600732,2014-12-10,7.15,7.4,7.15,7.39,0.024965,8937343.0,65214778.0,3298770960.0,3298770960.0,0.02002168855336352,35.93,2014-09-30 00:00:00,2014-10-31 00:00:00,-223.57349986332295,27.318358622778405,-116.59275301709094,6.445984093926709
sh600732,2014-12-09,7.7,7.85,7.13,7.21,-0.068475,15873369.0,119644136.0,3218422010.0,3218422010.0,0.03555997011404977,35.05,2014-09-30 00:00:00,2014-10-31 00:00:00,-218.12793594251804,26.65296729427679,-113.75291157950855,6.288979715333412
sh600732,2014-12-08,7.4,7.93,7.4,7.74,0.045946,18602691.0,143397723.0,3455005040.0,3455005040.0,0.04167427447225953,37.63,2014-09-30 00:00:00,2014-10-31 00:00:00,-234.16219204263768,28.61218678433407,-122.11471681329922,6.75127314385917
sh600732,2014-12-05,7.81,7.81,7.11,7.4,-0.050064,20381808.0,152957661.0,3303234790.0,3303234790.0,0.045659902728258685,35.98,2014-09-30 00:00:00,2014-10-31 00:00:00,-223.87598599032611,27.355319284488935,-116.75049841320603,6.454705256159657
sh600732,2014-12-04,7.79,7.89,7.7,7.79,0.0,13530854.0,105368895.0,3477324190.0,3477324190.0,0.030312201825507677,37.87,2014-09-30 00:00:00,2014-10-31 00:00:00,-235.67480966120468,28.79701294033381,-122.90354130510481,6.794884346060848
sh600732,2014-12-03,7.95,8.17,7.72,7.79,-0.018892,21186789.0,167842941.0,3477324190.0,3477324190.0,0.04746324394620221,37.87,2014-09-30 00:00:00,2014-10-31 00:00:00,-235.67480966120468,28.79701294033381,-122.90354130510481,6.794884346060848
sh600732,2014-12-02,7.85,7.99,7.8,7.94,-0.001258,13604971.0,107721711.0,3544281660.0,3544281660.0,0.03047824075584332,38.6,2014-09-30 00:00:00,2014-10-31 00:00:00,-240.21291199460683,29.351521891915887,-125.27014488221971,6.92572514550982
sh600732,2014-12-01,7.89,8.04,7.7,7.95,0.012739,19326915.0,152418517.0,3548745490.0,3548745490.0,0.04329670151972494,38.65,2014-09-30 00:00:00,2014-10-31 00:00:00,-240.51548046903685,29.388492615626344,-125.42793322221326,6.934448681951714
sh600732,2014-11-28,7.84,7.93,7.71,7.85,0.003836,27182261.0,213063532.0,3504107180.0,3504107180.0,0.060894469800435724,38.16,2014-09-30 00:00:00,2014-10-31 00:00:00,-237.49009415953844,29.018821844153667,-123.85020545492297,6.847221921888773
sh600732,2014-11-27,7.74,7.96,7.66,7.82,0.009032,29244785.0,228014021.0,3490715690.0,3490715690.0,0.06551499434776369,38.02,2014-09-30 00:00:00,2014-10-31 00:00:00,-236.58256344615899,28.90793102075804,-123.37693154551438,6.821056349731204
sh600732,2014-11-26,7.88,8.15,7.73,7.75,-0.025157,46595119.0,366094764.0,3459468870.0,3459468870.0,0.1043837033428776,37.68,2014-09-30 00:00:00,2014-10-31 00:00:00,-234.46487667998537,28.649171701946063,-122.27256573182454,6.7600000294650755
sh600732,2014-11-25,7.22,7.95,7.17,7.95,0.099585,60615177.0,473696962.0,3548745490.0,3548745490.0,0.13579183362343633,38.65,2014-09-30 00:00:00,2014-10-31 00:00:00,-240.5155257615692,29.388498149903178,-125.4279568421013,6.934449987808371
sh600732,2014-11-24,7.25,7.34,7.15,7.23,0.006964,15286722.0,110870977.0,3227349670.0,3227349670.0,0.03424574693203294,35.15,2014-09-30 00:00:00,2014-10-31 00:00:00,-218.7329999605025,26.726899830302496,-114.0684502263138,6.306424685502594
sh600732,2014-11-21,7.05,7.25,7.04,7.18,0.01844,10035200.0,72012419.0,3205030510.0,3205030510.0,0.02248113887689637,34.91,2014-09-30 00:00:00,2014-10-31 00:00:00,-217.22027794489424,26.542060918069065,-113.27957129183746,6.2628104733660726
sh600732,2014-11-20,7.12,7.13,7.04,7.05,-0.009831,5195200.0,36793601.0,3147000710.0,3147000710.0,0.011638433980524904,34.28,2014-09-30 00:00:00,2014-10-31 00:00:00,-213.28726085473298,26.061487096018485,-111.22851743042051,6.149415256044611
sh600732,2014-11-19,7.07,7.17,7.05,7.12,0.0014060000000000001,6643629.0,47231261.0,3178247530.0,3178247530.0,0.014883245572757513,34.62,2014-09-30 00:00:00,2014-10-31 00:00:00,-215.40490649044048,26.320241389114873,-112.33286179472444,6.210470390453155
sh600732,2014-11-18,7.07,7.13,7.0,7.11,0.0042369999999999994,5401608.0,38205237.0,3173783700.0,3173783700.0,0.012100835000192359,34.57,2014-09-30 00:00:00,2014-10-31 00:00:00,-215.10247241422613,26.283287087469894,-112.17514354290313,6.201750728928283
sh600732,2014-11-17,7.06,7.18,7.0,7.08,-0.011173,7207673.0,51137202.0,3160392210.0,3160392210.0,0.016146832876796642,34.42,2014-09-30 00:00:00,2014-10-31 00:00:00,-214.1949285021624,26.172394651332194,-111.70186275042953,6.175584776231388
sh600732,2014-11-14,7.18,7.34,7.09,7.16,-0.009682,10178371.0,73268764.0,3196102850.0,3196102850.0,0.022801874589236076,34.81,2014-09-30 00:00:00,2014-10-31 00:00:00,-216.61516979427384,26.468122989493807,-112.96400963002581,6.245364230781915
sh600732,2014-11-13,7.27,7.3,7.06,7.23,-0.006868000000000001,11146266.0,79859384.0,3227349670.0,3227349670.0,0.024970180308971603,35.15,2014-09-30 00:00:00,2014-10-31 00:00:00,-218.73294214007404,26.726892765246934,-114.0684200731743,6.306423018446515
sh600732,2014-11-12,7.06,7.32,7.03,7.28,0.026798000000000002,17336413.0,125396620.0,3249668820.0,3249668820.0,0.038837522723315546,35.39,2014-09-30 00:00:00,2014-10-31 00:00:00,-220.24558884425642,26.911722475206652,-114.85725973302068,6.3500350592333294
sh600732,2014-11-11,7.2,7.38,6.92,7.09,-0.015278,15615054.0,111284070.0,3164856040.0,3164856040.0,0.03498128555003721,34.47,2014-09-30 00:00:00,2014-10-31 00:00:00,-214.49748523493068,26.209363940333585,-111.8596449671899,6.184307974142263
sh600732,2014-11-10,7.06,7.24,7.06,7.2,0.014085,11388713.0,81850349.0,3213958180.0,3213958180.0,0.025513316915654456,35.0,2014-09-30 00:00:00,2014-10-31 00:00:00,-217.825422032747,26.616003237800708,-113.59515169478281,6.28025775207852
sh600732,2014-11-07,7.09,7.14,7.0,7.1,0.00141,10109156.0,71604772.0,3169319870.0,3169319870.0,0.022646817154495673,34.52,2014-09-30 00:00:00,2014-10-31 00:00:00,-214.79996453230945,26.246323767534978,-112.01738680168113,6.1930289394661395
sh600732,2014-11-06,7.11,7.14,6.97,7.09,-0.008392,7591120.0,53602696.0,3164856040.0,3164856040.0,0.01700584169382946,34.47,2014-09-30 00:00:00,2014-10-31 00:00:00,-214.49752302484444,26.209368557868387,-111.8596646744901,6.184309063686342
sh600732,2014-11-05,7.14,7.19,7.03,7.15,0.002805,6781906.0,48134177.0,3191639020.0,3191639020.0,0.015193017630170471,34.76,2014-09-30 00:00:00,2014-10-31 00:00:00,-216.31282021206408,26.43117901213825,-112.8063354415153,6.236647005355284
sh600732,2014-11-04,7.21,7.22,7.02,7.13,-0.019257,9394909.0,67063374.0,3182711360.0,3182711360.0,0.021046740842374095,34.66,2014-09-30 00:00:00,2014-10-31 00:00:00,-215.70775994541722,26.35724693448702,-112.49079875101872,6.219202143343208
sh600732,2014-11-03,6.99,7.28,6.96,7.27,0.043042000000000004,19377997.0,138866491.0,3245204990.0,3245204990.0,0.04341113693098321,35.34,2014-09-30 00:00:00,2014-10-31 00:00:00,-219.9432062685303,26.874774466386217,-114.69956833851346,6.3413168825504815
sh600732,2014-10-31,7.04,7.07,6.84,6.97,-0.012748,10390805.0,72097043.0,3111290070.0,3111290070.0,0.02327777520596143,33.89,2014-09-30 00:00:00,2014-10-31 00:00:00,-210.86706601319054,25.765764433633752,-109.96639477462409,6.079637140738802
sh600732,2014-10-30,6.9,7.28,6.9,7.06,0.008570999999999999,24820187.0,176923691.0,3151464540.0,3151464540.0,0.05560288494313821,34.32,2014-06-30 00:00:00,2014-08-15 00:00:00,-177.3421657199052,26.567289897303482,962.5073779562956,6.187119048996105
sh600732,2014-10-29,6.71,7.04,6.69,7.0,0.046338,13083965.0,89786887.0,3124681560.0,3124681560.0,0.029311068421320988,34.03,2014-06-30 00:00:00,2014-08-15 00:00:00,-175.83508322161276,26.34151675717771,954.3278340903075,6.134539907449356
sh600732,2014-10-28,6.6,6.72,6.6,6.69,0.015175,4574364.0,30501170.0,2986302810.0,2986302810.0,0.010247619584164005,32.53,2014-06-30 00:00:00,2014-08-15 00:00:00,-168.0480716762774,25.174959484581187,912.0645853350519,5.862866404019883
sh600732,2014-10-27,6.5,6.6,6.46,6.59,0.013846,3362825.0,22035443.0,2941664500.0,2941664500.0,0.007533495662064793,32.04,2014-06-30 00:00:00,2014-08-15 00:00:00,-165.53606193639266,24.798640120748825,898.4308964809535,5.775227329297789
sh600732,2014-10-24,6.42,6.54,6.4,6.5,0.0061920000000000005,3269668.0,21175899.0,2901490020.0,2901490020.0,0.007324802723257342,31.6,2014-06-30 00:00:00,2014-08-15 00:00:00,-163.2753514206227,24.459967411962786,886.1611097552818,5.6963555898013984
sh600732,2014-10-23,6.6,6.64,6.4,6.46,-0.021212,5109417.0,33297418.0,2883634700.0,2883634700.0,0.011446260450396161,31.41,2014-06-30 00:00:00,2014-08-15 00:00:00,-162.27057203855995,24.309443338808883,880.7077672604054,5.6613008151539645
sh600732,2014-10-22,6.72,6.75,6.59,6.6,-0.013453,5009875.0,33392435.0,2946128330.0,2946128330.0,0.011223263651926527,32.09,2014-06-30 00:00:00,2014-08-15 00:00:00,-165.78725121125308,24.836270304508112,899.7942018704821,5.783990828610451
sh600732,2014-10-21,6.8,6.81,6.68,6.69,-0.020498,4627000.0,31212948.0,2986302810.0,2986302810.0,0.010365536239776034,32.53,2014-06-30 00:00:00,2014-08-15 00:00:00,-168.0480009682793,25.174948891951534,912.0642015742606,5.862863937157023
sh600732,2014-10-20,6.65,6.84,6.62,6.83,0.023988,5401059.0,36345966.0,3048796440.0,3048796440.0,0.012099605105154216,33.21,2014-06-30 00:00:00,2014-08-15 00:00:00,-171.56473490434863,25.701784061647174,931.1509334072422,5.985555861199899
sh600732,2014-10-17,6.77,6.82,6.45,6.67,-0.016224000000000002,8349735.0,55562508.0,2977375140.0,2977375140.0,0.018705312508923547,32.43,2014-06-30 00:00:00,2014-08-15 00:00:00,-167.54564985561225,25.09969263472539,909.3377397071473,5.845337895756493
sh600732,2014-10-16,6.8,6.89,6.76,6.78,-0.008772,7379950.0,50322438.0,3026477280.0,3026477280.0,0.016532772715875138,32.96,2014-06-30 00:00:00,2014-08-15 00:00:00,-170.30873883446253,25.513625698050557,924.3341367416436,5.941736630855492
sh600732,2014-10-15,6.85,6.87,6.76,6.84,0.001464,10124032.0,68846939.0,3053260270.0,3053260270.0,0.02268014278389703,33.25,2014-06-30 00:00:00,2014-08-15 00:00:00,-171.8159079792566,25.739411818522637,932.5141508731025,5.99431879532811
sh600732,2014-10-14,6.8,6.94,6.8,6.83,-0.00292,7152331.0,49130079.0,3048796440.0,3048796440.0,0.016022854162739707,33.21,2014-06-30 00:00:00,2014-08-15 00:00:00,-171.56473720398995,25.701784406152033,931.150945888322,5.9855559414298565
sh600732,2014-10-13,6.97,6.97,6.79,6.85,-0.017217,9903610.0,67897059.0,3057724100.0,3057724100.0,0.022186347192017748,33.3,2014-06-30 00:00:00,2014-08-15 00:00:00,-172.06717335017248,25.77705340208613,933.8778692665807,6.003084949482346
sh600732,2014-10-10,7.04,7.04,6.94,6.97,-0.012748,7482118.0,52226685.0,3111290070.0,3111290070.0,0.016761652332853684,33.89,2014-06-30 00:00:00,2014-08-15 00:00:00,-175.08155243850624,26.228631755012174,950.2381189607274,6.108250701815504
sh600732,2014-10-09,7.05,7.11,6.91,7.06,-0.004231,13034224.0,91259794.0,3151464540.0,3151464540.0,0.029199637270867083,34.32,2014-06-30 00:00:00,2014-08-15 00:00:00,-177.34231223487646,26.567311846430467,962.50817315207,6.187124160615024
sh600732,2014-10-08,7.12,7.16,6.99,7.09,-0.001408,10960709.0,77339192.0,3164856040.0,3164856040.0,0.024554490260479588,34.47,2014-06-30 00:00:00,2014-08-15 00:00:00,-178.09583571578995,26.68019575466847,966.5978486497069,6.2134131114897375
sh600732,2014-09-30,7.1,7.17,7.03,7.1,0.00141,9411558.0,66688710.0,3169319870.0,3169319870.0,0.021084038387075142,34.52,2014-06-30 00:00:00,2014-08-15 00:00:00,-178.34694821888215,26.717814437396324,967.9607373679208,6.2221739323865375
sh600732,2014-09-29,6.92,7.13,6.92,7.09,0.024566,11252797.0,79424021.0,3164856040.0,3164856040.0,0.025208834058057187,34.47,2014-06-30 00:00:00,2014-08-15 00:00:00,-178.09583309421927,26.68019536193599,966.5978344213867,6.213413020028297
sh600732,2014-09-26,6.8,6.95,6.75,6.92,0.013177000000000001,9725247.0,66982587.0,3088970910.0,3088970910.0,0.02178677339502689,33.64,2014-06-30 00:00:00,2014-08-15 00:00:00,-173.82563260367735,26.04048481204334,943.4217360534966,6.064434131162168
sh600732,2014-09-25,6.77,6.94,6.71,6.83,0.011852,11264514.0,76970009.0,3048796440.0,3048796440.0,0.025235082805331537,33.21,2014-06-30 00:00:00,2014-08-15 00:00:00,-171.56492163134115,25.701812034859984,931.1519468498559,5.9855623757370795
sh600732,2014-09-24,6.69,6.79,6.65,6.75,0.004464,8183583.0,55102267.0,3013085790.0,3013085790.0,0.018333094076952917,32.82,2014-06-30 00:00:00,2014-08-15 00:00:00,-169.55535160412902,25.40076220125076,920.2452007307946,5.915452433495294
sh600732,2014-09-23,6.63,6.75,6.55,6.72,0.010526,8339373.0,55414109.0,2999694300.0,2999694300.0,0.01868209922591112,32.67,2014-06-30 00:00:00,2014-08-15 00:00:00,-168.80182027840624,25.28787711779692,916.1554826562174,5.889163208930628
sh600732,2014-09-22,6.78,6.78,6.57,6.65,-0.026354000000000002,8857847.0,59001473.0,2968447480.0,2968447480.0,0.01984359937201921,32.33,2014-06-30 00:00:00,2014-08-15 00:00:00,-167.04352018493958,25.02446955129994,906.6124796949484,5.82781958003122
sh600732,2014-09-19,6.82,6.87,6.77,6.83,0.001466,6266089.0,42780170.0,3048796440.0,3048796440.0,0.01403746977282616,33.21,2014-06-30 00:00:00,2014-08-15 00:00:00,-171.56494268444544,25.70181518878518,931.1520611135344,5.985563110238443
sh600732,2014-09-18,6.77,6.84,6.65,6.82,0.011869,5883086.0,39755692.0,3044332610.0,3044332610.0,0.013179455618024603,33.16,2014-06-30 00:00:00,2014-08-15 00:00:00,-171.313796658544,25.664191484069534,929.7889904535294,5.9768011197968205
sh600732,2014-09-17,6.62,6.75,6.62,6.74,0.013534000000000001,8038859.0,53724330.0,3008621960.0,3008621960.0,0.01800887927441705,32.77,2014-06-30 00:00:00,2014-08-15 00:00:00,-169.30432364124607,25.363156183329597,918.8827708463542,5.906694562039969
sh600732,2014-09-16,6.84,6.95,6.61,6.65,-0.032023,12881230.0,87133065.0,2968447480.0,2968447480.0,0.028856895760203918,32.33,2014-06-30 00:00:00,2014-08-15 00:00:00,-167.04355615228113,25.02447493949843,906.6126749042008,5.827820834860962
sh600732,2014-09-15,6.92,6.92,6.76,6.87,-0.007225,14423622.0,98468352.0,3066651760.0,3066651760.0,0.03231220591541832,33.4,2014-06-30 00:00:00,2014-08-15 00:00:00,-172.56975749659458,25.85234456965241,936.605595901763,6.020619120971843
sh600732,2014-09-12,6.72,6.99,6.72,6.92,0.039039,11129739.0,76556802.0,3088970910.0,3088970910.0,0.024933156097607923,33.64,2014-06-30 00:00:00,2014-08-15 00:00:00,-173.82564780196375,26.04048708886949,943.4218185407198,6.064434661400461
sh600732,2014-09-11,6.87,6.96,6.65,6.66,-0.031977,13224304.0,89913131.0,2972911310.0,2972911310.0,0.029625459845958203,32.38,2014-06-30 00:00:00,2014-08-15 00:00:00,-167.29463263839352,25.06208822659158,907.9753681437556,5.836580399196239
sh600732,2014-09-10,6.81,6.97,6.73,6.88,0.010279,12011679.0,82267828.0,3071115590.0,3071115590.0,0.026908903002247464,33.45,2014-06-30 00:00:00,2014-08-15 00:00:00,-172.82092743498194,25.889971856651734,937.9687963444625,6.029381945673026
sh600732,2014-09-09,6.63,6.87,6.55,6.81,0.019461000000000003,14801319.0,99499605.0,3039868770.0,3039868770.0,0.033158333473059756,33.11,2014-06-30 00:00:00,2014-08-15 00:00:00,-171.06257522425184,25.626556482567423,928.425510521809,5.968036498504894
sh600732,2014-09-05,6.56,6.7,6.48,6.68,0.013656999999999999,15670200.0,103294986.0,2981838970.0,2981838970.0,0.0351048252615734,32.48,2014-06-30 00:00:00,2014-08-15 00:00:00,-167.79707632195039,25.13735835168528,910.7023324303814,5.854109670212882
sh600732,2014-09-04,6.39,6.67,6.35,6.59,0.029688,17696328.0,115443603.0,2941664500.0,2941664500.0,0.039643814418673505,32.04,2014-06-30 00:00:00,2014-08-15 00:00:00,-165.53634643863788,24.798682741484818,898.4324405892537,5.775237255021058
sh600732,2014-09-03,6.25,6.49,6.23,6.4,0.025641000000000004,18241822.0,116789774.0,2856851710.0,2856851710.0,0.04086584557096245,31.12,2014-06-30 00:00:00,2014-08-15 00:00:00,-160.76359677750727,24.08368626368844,872.5288054141195,5.6087254149034065
sh600732,2014-09-02,6.17,6.28,6.13,6.24,0.014634000000000001,14382994.0,89177511.0,2785430420.0,2785430420.0,0.032221189915776105,30.34,2014-06-30 00:00:00,2014-08-15 00:00:00,-156.74451077668232,23.48159469413609,850.7156065466564,5.468507416243506
sh600732,2014-09-01,6.05,6.2,6.04,6.15,0.018212,11016392.0,67370065.0,2745255940.0,2745255940.0,0.02467923293155683,29.9,2014-06-30 00:00:00,2014-08-15 00:00:00,-154.48379492179674,23.142921185507372,838.4457908434533,5.389635490475881
sh600732,2014-08-29,5.93,6.05,5.9,6.04,0.02027,4833830.0,29029595.0,2696153800.0,2696153800.0,0.010828882684659903,29.37,2014-06-30 00:00:00,2014-08-15 00:00:00,-151.72065829296528,22.728980983829867,823.4491351933128,5.293235092962843
sh600732,2014-08-28,5.95,5.99,5.89,5.92,-0.003367,4593876.0,27285167.0,2642587830.0,2642587830.0,0.010291330948875216,28.78,2014-06-30 00:00:00,2014-08-15 00:00:00,-148.70637997095406,22.277417726513445,807.0894323985935,5.188072856168312
sh600732,2014-08-27,5.92,5.99,5.88,5.94,0.003378,5313534.0,31495296.0,2651515500.0,2651515500.0,0.011903529117593317,28.88,2014-06-30 00:00:00,2014-08-15 00:00:00,-149.20876588569118,22.352679197370993,809.8160831505614,5.205600111744556
sh600732,2014-08-26,6.1,6.14,5.82,5.92,-0.031097000000000003,11399673.0,68205585.0,2642587830.0,2642587830.0,0.02553786988415821,28.78,2014-06-30 00:00:00,2014-08-15 00:00:00,-148.70643554641538,22.277426052166767,807.0897340290113,5.188074795086752
sh600732,2014-08-25,6.2,6.23,6.08,6.11,-0.014516,9947273.0,61025882.0,2727400620.0,2727400620.0,0.022284162284160514,29.71,2014-06-30 00:00:00,2014-08-15 00:00:00,-153.4791775300679,22.99242137981487,832.993327535379,5.354586367352307
sh600732,2014-08-22,6.1,6.24,6.07,6.2,0.019737,10009745.0,61575955.0,2767575100.0,2767575100.0,0.02242411380272933,30.14,2014-06-30 00:00:00,2014-08-15 00:00:00,-155.73989788780733,23.33109556300749,845.2631676773839,5.433458450215637
sh600732,2014-08-21,6.15,6.16,6.06,6.08,-0.011382,6599677.0,40290106.0,2714009130.0,2714009130.0,0.014784783041610475,29.56,2014-06-30 00:00:00,2014-08-15 00:00:00,-152.72555363569955,22.87952242882968,828.9031070534697,5.328293913249826
sh600732,2014-08-20,6.12,6.18,6.09,6.15,0.0032630000000000003,8456479.0,51979890.0,2745255940.0,2745255940.0,0.018944443427741025,29.9,2014-06-30 00:00:00,2014-08-15 00:00:00,-154.48388926329434,23.142935318626282,838.4463028727674,5.389638781865013
sh600732,2014-08-19,6.16,6.24,6.08,6.13,-0.00487,10606602.0,65294309.0,2736328280.0,2736328280.0,0.023761209769757596,29.8,2014-06-30 00:00:00,2014-08-15 00:00:00,-153.9814477991258,23.0676655260149,835.7193506316564,5.372109588278461
sh600732,2014-08-18,6.08,6.16,6.0,6.16,0.013158000000000001,10924098.0,66472265.0,2749719770.0,2749719770.0,0.024472473309525646,29.95,2014-06-30 00:00:00,2014-08-15 00:00:00,-154.73500728460183,23.180554828027393,839.8092215405591,5.398399795281483
sh600732,2014-08-15,6.04,6.11,6.02,6.08,0.008292,8361102.0,50770691.0,2714009130.0,2714009130.0,0.018730777136331887,29.56,2014-06-30 00:00:00,2014-08-15 00:00:00,-152.72544586787237,22.879506284338074,828.902522154056,5.328290153442486
sh600732,2014-08-14,6.13,6.15,6.02,6.03,-0.013093,7201143.0,43740775.0,2691689970.0,2691689970.0,0.016132204218898213,29.32,2014-03-31 00:00:00,2014-04-30 00:00:00,-238.95316514359394,24.8546355154305,378.9582153342505,5.188139966942589
sh600732,2014-08-13,6.1,6.17,5.99,6.11,0.001639,9884263.0,60012609.0,2727400620.0,2727400620.0,0.022143005500233407,29.71,2014-03-31 00:00:00,2014-04-30 00:00:00,-242.123285318266,25.18437453116707,383.9857406364029,5.256969468189596
sh600732,2014-08-12,5.99,6.16,5.97,6.1,0.011609,13062372.0,79487912.0,2722936790.0,2722936790.0,0.029262695150554706,29.66,2014-03-31 00:00:00,2014-04-30 00:00:00,-241.72709461019986,25.143164883922317,383.35741782858184,5.248367394030779
sh600732,2014-08-11,5.94,6.04,5.85,6.03,0.013444999999999999,11242999.0,67036058.0,2691689970.0,2691689970.0,0.02518688434611955,29.32,2014-03-31 00:00:00,2014-04-30 00:00:00,-238.95308820917953,24.854627513122484,378.95809332319294,5.188138296546175
sh600732,2014-08-08,5.86,5.99,5.85,5.95,0.008475,7845982.0,46537432.0,2655979330.0,2655979330.0,0.01757679074256952,28.93,2014-03-31 00:00:00,2014-04-30 00:00:00,-235.7829859629082,24.52489036220267,373.93059645387063,5.119309184559769
sh600732,2014-08-07,5.93,5.99,5.88,5.9,-0.006734,7116573.0,42234007.0,2633660170.0,2633660170.0,0.015942748110892378,28.68,2014-03-31 00:00:00,2014-04-30 00:00:00,-233.80151809703585,24.31878862857549,370.78816674074284,5.076287646753532
sh600732,2014-08-06,5.87,6.03,5.84,5.94,0.011925,12981306.0,77259527.0,2651515500.0,2651515500.0,0.02908108877357119,28.88,2014-03-31 00:00:00,2014-04-30 00:00:00,-235.38661153914043,24.483661605829145,373.30198228948024,5.110703121574214
sh600732,2014-08-05,5.88,5.91,5.79,5.87,-0.005085,6550232.0,38351850.0,2620268680.0,2620268680.0,0.014674014971624972,28.54,2014-03-31 00:00:00,2014-04-30 00:00:00,-232.61270503163814,24.195134625421,368.902816206221,5.050476192973011
sh600732,2014-08-04,5.83,5.95,5.81,5.9,0.012006999999999999,9549565.0,56044590.0,2633660170.0,2633660170.0,0.02139320560100964,28.68,2014-03-31 00:00:00,2014-04-30 00:00:00,-233.80158609694107,24.31879570156345,370.78827458247287,5.0762891231643
sh600732,2014-08-01,5.99,6.05,5.81,5.83,-0.036364,12915352.0,76517521.0,2602413360.0,2602413360.0,0.028933336770143234,28.34,2014-03-31 00:00:00,2014-04-30 00:00:00,-231.02763725640344,24.03026431789844,366.3890413628294,5.01606127543021
sh600732,2014-07-31,5.81,6.06,5.74,6.05,0.035959,17951663.0,106412689.0,2700617630.0,2700617630.0,0.04021582320411646,29.41,2014-03-31 00:00:00,2014-04-30 00:00:00,-239.7457517739099,24.937076155206363,380.2151864011197,5.205348570860999
sh600732,2014-07-30,5.82,5.92,5.8,5.84,-0.006803,9782092.0,57193952.0,2606877190.0,2606877190.0,0.02191411912273474,28.39,2014-03-31 00:00:00,2014-04-30 00:00:00,-231.42397698548868,24.071489465515878,367.0176005045756,5.024666585126437
sh600732,2014-07-29,5.75,5.98,5.75,5.88,0.017301,15088401.0,88729904.0,2624732510.0,2624732510.0,0.03380146264123501,28.59,2014-03-31 00:00:00,2014-04-30 00:00:00,-233.00913815233906,24.23636948713687,369.53152345866494,5.059083530383638
sh600732,2014-07-28,5.85,5.88,5.74,5.78,0.026643,11952640.0,69253536.0,2580094200.0,2580094200.0,0.026776642186165142,28.1,2014-03-31 00:00:00,2014-04-30 00:00:00,-229.04640627733488,23.82418722397488,363.24698733085387,4.9730448808992005
sh600732,2014-07-25,5.62,5.64,5.52,5.63,0.003565,7597567.0,42268816.0,2513136740.0,2513136740.0,0.017020284463311774,27.37,2014-03-31 00:00:00,2014-04-30 00:00:00,-223.10229191387356,23.205912107689706,353.820156890812,4.8439865473189805
sh600732,2014-07-24,5.58,5.68,5.53,5.61,0.005376,7000277.0,39320576.0,2504209080.0,2504209080.0,0.015682218503097194,27.27,2014-03-31 00:00:00,2014-04-30 00:00:00,-222.30975762792997,23.123476912496653,352.56326883740655,4.82677907989914
sh600732,2014-07-23,5.63,5.69,5.56,5.58,-0.008881,5029421.0,28219108.0,2490817590.0,2490817590.0,0.011267051145242636,27.13,2014-03-31 00:00:00,2014-04-30 00:00:00,-221.1210110724047,22.999829827344847,350.67802378155693,4.800969070177864
sh600732,2014-07-22,5.56,5.63,5.53,5.63,0.01259,4635506.0,25920881.0,2513136740.0,2513136740.0,0.010384591639848456,27.37,2014-03-31 00:00:00,2014-04-30 00:00:00,-223.10238333883692,23.205921617227443,353.8203018825761,4.843988532333517
sh600732,2014-07-21,5.67,5.68,5.53,5.56,-0.024561000000000003,5897937.0,32962253.0,2481889920.0,2481889920.0,0.013212725292828457,27.03,2014-03-31 00:00:00,2014-04-30 00:00:00,-220.32844817629737,22.917391656274944,349.4210903550066,4.783760981575482
sh600732,2014-07-18,5.67,5.72,5.62,5.7,0.005291,4032650.0,22923766.0,2544383560.0,2544383560.0,0.009034056563390151,27.71,2014-03-31 00:00:00,2014-04-30 00:00:00,-225.8761933614479,23.494438561791096,358.21931494948075,4.904213366059264
sh600732,2014-07-17,5.79,5.84,5.61,5.67,-0.034072000000000005,7411531.0,42243927.0,2530992060.0,2530992060.0,0.016603521375724902,27.57,2014-03-31 00:00:00,2014-04-30 00:00:00,-224.68737247368958,23.37078374499632,356.333952009399,4.878401742440014
sh600732,2014-07-16,5.9,5.93,5.8,5.87,-0.008445999999999999,7628350.0,44598850.0,2620268680.0,2620268680.0,0.01708924540516967,28.54,2014-03-31 00:00:00,2014-04-30 00:00:00,-232.61296129078934,24.19516128013301,368.9032226101728,5.050481756859739
sh600732,2014-07-15,5.79,5.92,5.75,5.92,0.011966,16418437.0,96295807.0,2642587830.0,2642587830.0,0.03678104694821061,28.78,2014-03-31 00:00:00,2014-04-30 00:00:00,-234.59434512975525,24.401254273728924,372.04551906418897,5.093501470277704
sh600732,2014-07-14,5.64,5.96,5.64,5.85,0.037233999999999996,21031055.0,122589795.0,2611341020.0,2611341020.0,0.04711436415531817,28.44,2014-03-31 00:00:00,2014-04-30 00:00:00,-231.82038243355538,24.112721448871728,367.64626387071206,5.033273321710122
sh600732,2014-07-11,5.59,5.64,5.53,5.64,0.007143000000000001,9065634.0,50679476.0,2517600570.0,2517600570.0,0.020309089682165108,27.42,2014-03-31 00:00:00,2014-04-30 00:00:00,-223.4986342846025,23.24713753007685,354.4487202219674,4.852591914370453
sh600732,2014-07-10,5.61,5.66,5.53,5.6,0.001789,7312013.0,40970368.0,2499745250.0,2499745250.0,0.016380578300928865,27.23,2014-03-31 00:00:00,2014-04-30 00:00:00,-221.91350611045553,23.082260940181136,351.9348495913365,4.8181756854492885
sh600732,2014-07-09,5.67,5.72,5.56,5.59,-0.014109,7790378.0,44033683.0,2495281420.0,2495281420.0,0.017452225096117616,27.18,2014-03-31 00:00:00,2014-04-30 00:00:00,-221.5172118185122,23.041040518693194,351.3063625088082,4.809571362282166
sh600732,2014-07-08,5.69,5.72,5.56,5.67,-0.003515,9943373.0,55913278.0,2530992060.0,2530992060.0,0.022275425435352807,27.57,2014-03-31 00:00:00,2014-04-30 00:00:00,-224.68732529104355,23.370778837308784,356.3338771819686,4.878400718012606
sh600732,2014-07-07,5.84,5.85,5.64,5.69,-0.024013999999999997,10770005.0,61655955.0,2539919730.0,2539919730.0,0.024127269742496942,27.66,2014-03-31 00:00:00,2014-04-30 00:00:00,-225.47988709417962,23.453216894693636,357.59080887516484,4.8956087828844455
sh600732,2014-07-04,5.85,5.88,5.75,5.83,0.0,11004584.0,63893047.0,2602413360.0,2602413360.0,0.02465278026393163,28.34,2014-03-31 00:00:00,2014-04-30 00:00:00,-231.02778840493573,24.030280039563717,366.38928107079903,5.016064557160087
sh600732,2014-07-03,5.9,5.95,5.8,5.83,-0.008503,13475064.0,78993304.0,2602413360.0,2602413360.0,0.030187219420054007,28.34,2014-03-31 00:00:00,2014-04-30 00:00:00,-231.02778840493573,24.030280039563717,366.38928107079903,5.016064557160087
sh600732,2014-07-02,6.0,6.14,5.82,5.88,-0.031301,18589024.0,110329759.0,2624732510.0,2624732510.0,0.041643657288338305,28.59,2014-03-31 00:00:00,2014-04-30 00:00:00,-233.00906448021095,24.2363618241545,369.5314066212999,5.059081930817831
sh600732,2014-07-01,5.86,6.15,5.78,6.07,0.042955,25843806.0,155357287.0,2709545300.0,2709545300.0,0.05789602499725693,29.51,2014-03-31 00:00:00,2014-04-30 00:00:00,-240.5381490847115,25.01949710297471,381.47185722427696,5.222553064282952
sh600732,2014-06-30,5.79,5.95,5.72,5.82,0.00692,14339221.0,83941465.0,2597949530.0,2597949530.0,0.03212312835807861,28.3,2014-03-31 00:00:00,2014-04-30 00:00:00,-230.6313782327248,23.989047564827544,365.760610212595,5.007457718006004
sh600732,2014-06-27,5.82,5.98,5.71,5.78,-0.015332,18657691.0,108697542.0,2580094200.0,2580094200.0,0.04179748707624706,28.1,2014-03-31 00:00:00,2014-04-30 00:00:00,-229.04637730179635,23.824184210093694,363.24694137825736,4.97304425178366
sh600732,2014-06-26,5.76,5.99,5.73,5.87,0.005137,19194109.0,112487103.0,2620268680.0,2620268680.0,0.04299918580486945,28.54,2014-03-31 00:00:00,2014-04-30 00:00:00,-232.61279670081322,24.195144160360336,368.9029615852829,5.05047818328986
sh600732,2014-06-25,5.85,5.89,5.7,5.84,-0.011844,18277438.0,105867749.0,2606877190.0,2606877190.0,0.04094563346883249,28.39,2014-03-31 00:00:00,2014-04-30 00:00:00,-231.42397175789293,24.07148892176921,367.01759221407923,5.024666471625122
sh600732,2014-06-24,5.95,6.15,5.74,5.91,-0.018272,29088775.0,171012976.0,2638124000.0,2638124000.0,0.06516549648538128,28.73,2014-03-31 00:00:00,2014-04-30 00:00:00,-234.19781062695859,24.36000886678744,371.41665102886503,5.084891931663747
sh600732,2014-06-23,6.06,6.33,5.92,6.02,-0.045959,31541370.0,191743332.0,2687226140.0,2687226140.0,0.07065986913926045,29.27,2014-03-31 00:00:00,2014-04-30 00:00:00,-238.55671899646197,24.81339929877465,378.3294874230592,5.1795323467026995
sh600732,2014-06-17,5.9,6.5,5.82,6.31,0.044702,43413383.0,267305222.0,2816677230.0,2816677230.0,0.09725588853856712,30.68,2014-03-31 00:00:00,2014-04-30 00:00:00,-250.04870754659598,26.00873473862722,396.55474704238,5.4290458656417275
sh600732,2014-06-16,5.8,6.14,5.6,6.04,0.082437,59118088.0,346997821.0,2696153800.0,2696153800.0,0.1324380128166279,29.36,2014-03-31 00:00:00,2014-04-30 00:00:00,-239.34931449025265,24.89584086048195,379.58647254660167,5.196741143064458
sh600732,2014-06-13,5.58,5.58,5.58,5.58,0.100592,5725880.0,31950410.0,2490817590.0,2490817590.0,0.012827278291382228,27.13,2014-03-31 00:00:00,2014-04-30 00:00:00,-221.12078069231987,22.999805864435483,350.6776584194754,4.800964068176216
sh600732,2014-06-06,5.14,5.17,5.06,5.07,-0.017442,5352998.0,27302910.0,2263162220.0,2263162220.0,0.011991937484711106,24.65,2014-03-31 00:00:00,2014-04-30 00:00:00,-200.91076501766312,20.897667677427677,318.62639235927156,4.362165151278781
sh600732,2014-06-05,5.13,5.17,5.09,5.16,0.0038909999999999995,4078572.0,20983294.0,2303336690.0,2303336690.0,0.009136932351822174,25.09,2014-03-31 00:00:00,2014-04-30 00:00:00,-204.47725734019073,21.268635212809503,324.2825282164224,4.439600666096842
sh600732,2014-06-04,5.07,5.16,5.05,5.14,0.013807,4851737.0,24750492.0,2294409030.0,2294409030.0,0.010868998445320797,24.99,2014-03-31 00:00:00,2014-04-30 00:00:00,-203.68472009430374,21.1861997097389,323.02563546881316,4.422393134410848
sh600732,2014-06-03,5.11,5.13,5.06,5.07,-0.007828,3337346.0,16990053.0,2263162220.0,2263162220.0,0.007476416878326999,24.65,2014-03-31 00:00:00,2014-04-30 00:00:00,-200.91074543212244,20.897665640244053,318.62636129836665,4.362164726038436
sh600732,2014-05-30,5.15,5.16,5.08,5.11,-0.001953,3822434.0,19562598.0,2281017540.0,2281017540.0,0.008563124744757553,24.84,2014-03-31 00:00:00,2014-04-30 00:00:00,-202.49588320585787,21.06254322863783,321.1402471530809,4.396581163385417
sh600732,2014-05-29,5.22,5.25,5.11,5.12,-0.019157,6547567.0,33850584.0,2285481370.0,2285481370.0,0.014668044762928871,24.89,2014-03-31 00:00:00,2014-04-30 00:00:00,-202.89213153875303,21.103758869710372,321.76866134869493,4.405184488691831
sh600732,2014-05-28,5.21,5.25,5.14,5.22,0.0057799999999999995,3961880.0,20607006.0,2330119680.0,2330119680.0,0.008875515613000616,25.38,2014-03-31 00:00:00,2014-04-30 00:00:00,-206.85484989825392,21.515939727061696,328.0531760421341,4.491222844728292
sh600732,2014-05-27,5.24,5.25,5.15,5.19,-0.009542,3581098.0,18589105.0,2316728190.0,2316728190.0,0.008022477000204328,25.23,2014-03-31 00:00:00,2014-04-30 00:00:00,-205.66609984117198,21.392292277696612,326.1679254331307,4.465412758981381
sh600732,2014-05-26,5.16,5.25,5.12,5.24,0.021442,6097145.0,31687833.0,2339047340.0,2339047340.0,0.01365899665801548,25.48,2014-03-31 00:00:00,2014-04-30 00:00:00,-207.647472019179,21.59838405838169,329.3102033939154,4.50843221921715
sh600732,2014-05-23,5.07,5.15,5.05,5.13,0.011834,3271434.0,16673971.0,2289945200.0,2289945200.0,0.007328758967681846,24.94,2014-03-31 00:00:00,2014-04-30 00:00:00,-203.28855874261976,21.144993115988665,322.3973592175723,4.413791697636431
sh600732,2014-05-22,5.13,5.21,5.05,5.07,-0.013619,4962310.0,25449005.0,2263162220.0,2263162220.0,0.011116707179744278,24.65,2014-03-31 00:00:00,2014-04-30 00:00:00,-200.91097822628987,20.897689854253432,318.6267304889659,4.362169780454532
sh600732,2014-05-21,5.09,5.15,5.0,5.14,0.011811,4008364.0,20412522.0,2294409030.0,2294409030.0,0.008979650398255275,24.99,2014-03-31 00:00:00,2014-04-30 00:00:00,-203.684963747568,21.186225053253693,323.02602188096273,4.422398424599148
sh600732,2014-05-20,5.31,5.33,5.05,5.08,-0.034221,10234122.0,52947621.0,2267626050.0,2267626050.0,0.02292676949975945,24.7,2014-03-31 00:00:00,2014-04-30 00:00:00,-201.3073229561331,20.93891552202308,319.25529756146426,4.370775198726983
sh600732,2014-05-19,5.23,5.38,5.2,5.26,0.005736,7707094.0,40829953.0,2347975000.0,2347975000.0,0.017265649949424505,25.57,2014-03-31 00:00:00,2014-04-30 00:00:00,-208.44036053396596,21.68085609857232,330.5676532223876,4.525647377637103
sh600732,2014-05-16,5.2,5.28,5.16,5.23,0.003839,4676509.0,24414618.0,2334583510.0,2334583510.0,0.010476447711223661,25.43,2014-03-31 00:00:00,2014-04-30 00:00:00,-207.25156555394852,21.55720397656276,328.6823313696513,4.499836316525513
sh600732,2014-05-15,5.27,5.4,5.2,5.21,-0.016981,6952321.0,36881190.0,2325655850.0,2325655850.0,0.01557478610173556,25.33,2014-03-31 00:00:00,2014-04-30 00:00:00,-206.45896956977018,21.474762363847947,327.4253454683981,4.48262750951648
sh600732,2014-05-14,5.4,5.44,5.2,5.3,-0.016697999999999998,10415909.0,55193339.0,2365830320.0,2365830320.0,0.02333401395413683,25.77,2014-03-31 00:00:00,2014-04-30 00:00:00,-210.02541107523885,21.84572461350996,333.08140073426677,4.560061920996929
sh600732,2014-05-13,5.2,5.43,5.16,5.39,0.036538,18138290.0,96934664.0,2406004800.0,2406004800.0,0.0406339102482256,26.2,2014-03-31 00:00:00,2014-04-30 00:00:00,-213.59196978673776,22.21669905431898,338.73764187835144,4.637498877249236
sh600732,2014-05-12,5.14,5.25,5.09,5.2,0.019608,5251393.0,27200016.0,2321192020.0,2321192020.0,0.011764319093256231,25.28,2014-03-31 00:00:00,2014-04-30 00:00:00,-206.0628455365243,21.433559651762874,326.79712840084153,4.474026882998247
sh600732,2014-05-09,5.2,5.24,5.02,5.1,-0.022989,4252672.0,21780849.0,2276553710.0,2276553710.0,0.00952695607607694,24.8,2014-03-31 00:00:00,2014-04-30 00:00:00,-202.10006741465764,21.02137257824857,320.51251892966854,4.387987229404091
sh600732,2014-05-08,5.21,5.33,5.15,5.22,-0.013233000000000002,6880368.0,36053248.0,2330119680.0,2330119680.0,0.01541359496178325,25.38,2014-03-31 00:00:00,2014-04-30 00:00:00,-206.85546776306273,21.516003994068207,328.05415592011616,4.4912362597801785
sh600732,2014-05-07,5.17,5.46,5.14,5.29,0.023211000000000002,15260301.0,81243087.0,2361366490.0,2361366490.0,0.034186557923924804,25.72,2014-03-31 00:00:00,2014-04-30 00:00:00,-209.62949486865966,21.804543518447826,332.4535132611003,4.551465806801583
sh600732,2014-05-06,5.18,5.28,5.13,5.17,-0.007678,5298902.0,27512328.0,2307800520.0,2307800520.0,0.011870750137451222,25.14,2014-03-31 00:00:00,2014-04-30 00:00:00,-204.87416072409275,21.309918988798813,324.91198126398194,4.448218213840139
sh600732,2014-05-05,5.09,5.33,5.02,5.21,0.023576,9737217.0,50924073.0,2325655850.0,2325655850.0,0.021813588872145465,25.33,2014-03-31 00:00:00,2014-04-30 00:00:00,-206.45935565682584,21.47480252256708,327.4259577677225,4.482635892220609
sh600732,2014-04-30,4.8,5.15,4.75,5.09,0.067086,6500994.0,32649651.0,2272089880.0,2272089880.0,0.014563710595814986,24.75,2014-03-31 00:00:00,2014-04-30 00:00:00,-201.70398256389933,20.980173941717158,319.88436400201107,4.3793874536142
sh600732,2014-04-29,4.65,4.81,4.58,4.77,0.023605,3189466.0,15125571.0,2129247290.0,2129247290.0,0.00714513194002938,23.19,2013-12-31 00:00:00,2014-03-25 00:00:00,-79.66196391767505,116.50340901894211,-25.394623342095706,4.188144366736246
sh600732,2014-04-28,4.89,4.9,4.65,4.66,-0.052846000000000004,4802910.0,22945646.0,2080145150.0,2080145150.0,0.010759614827840259,22.66,2013-12-31 00:00:00,2014-03-25 00:00:00,-77.82490698821816,113.816764297695,-24.80900673804417,4.091563021611115
sh600732,2014-04-25,4.97,5.05,4.88,4.92,-0.016,4940440.0,24537065.0,2196204750.0,2196204750.0,0.011067713426992634,23.92,2013-12-31 00:00:00,2014-03-25 00:00:00,-82.16711008792461,120.16711569364115,-26.19321328743179,4.319849804373011
sh600732,2014-04-24,5.02,5.07,4.92,5.0,-0.009901,4257662.0,21267293.0,2231915400.0,2231915400.0,0.00953813482356903,24.31,2013-12-31 00:00:00,2014-03-25 00:00:00,-83.50316065845999,122.1210525341882,-26.619119194544506,4.39009126460672
sh600732,2014-04-23,5.02,5.12,5.0,5.05,0.0,3769909.0,19097527.0,2254234550.0,2254234550.0,0.008445456773786029,24.55,2013-12-31 00:00:00,2014-03-25 00:00:00,-84.33819310842652,123.34226429295272,-26.88531065534306,4.433992221592709
sh600732,2014-04-22,5.19,5.22,4.91,5.05,-0.025097,10480063.0,52869836.0,2254234550.0,2254234550.0,0.023477733561487645,24.55,2013-12-31 00:00:00,2014-03-25 00:00:00,-84.33819310842652,123.34226429295272,-26.88531065534306,4.433992221592709
sh600732,2014-04-21,5.16,5.27,5.12,5.18,-0.01145,6615942.0,34405324.0,2312264350.0,2312264350.0,0.014821220402416358,25.18,2013-12-31 00:00:00,2014-03-25 00:00:00,-86.50931744842977,126.51747332088702,-27.57742119507588,4.548136811141938
sh600732,2014-04-18,5.19,5.24,5.1,5.24,0.007692,7494807.0,38694943.0,2339047340.0,2339047340.0,0.016790078596699117,25.48,2013-12-31 00:00:00,2014-03-25 00:00:00,-87.5113220863181,127.98287726557788,-27.89684001322733,4.600816156129622
sh600732,2014-04-17,5.21,5.32,5.18,5.2,0.001927,9062072.0,47748764.0,2321192020.0,2321192020.0,0.020301109944363845,25.28,2013-12-31 00:00:00,2014-03-25 00:00:00,-86.84332324392584,127.00594751727502,-27.683895489124986,4.565696816219265
sh600732,2014-04-16,5.18,5.23,5.11,5.19,-0.001923,5415551.0,28004900.0,2316728190.0,2316728190.0,0.012132070482554106,25.23,2013-12-31 00:00:00,2014-03-25 00:00:00,-86.67629801764582,126.76167776422335,-27.630651224215917,4.556915639781405
sh600732,2014-04-15,5.12,5.29,5.07,5.2,0.013645,8919300.0,46306213.0,2321192020.0,2321192020.0,0.019981268072772368,25.28,2013-12-31 00:00:00,2014-03-25 00:00:00,-86.8432976790827,127.00591012940218,-27.68388733956991,4.565695472174396
sh600732,2014-04-14,5.17,5.17,5.06,5.13,-0.005814,7611405.0,38859068.0,2289945200.0,2289945200.0,0.01705128474253445,24.94,2013-12-31 00:00:00,2014-03-25 00:00:00,-85.67427223444373,125.29624289509859,-27.311225665365995,4.504235183100985
sh600732,2014-04-11,5.28,5.31,5.1,5.16,-0.031895,11591834.0,60147451.0,2303336690.0,2303336690.0,0.02596835438765142,25.09,2013-12-31 00:00:00,2014-03-25 00:00:00,-86.17529540191043,126.02897535782901,-27.47094172052915,4.530575951684075
sh600732,2014-04-10,5.29,5.37,5.25,5.33,0.0,13727143.0,72985372.0,2379221820.0,2379221820.0,0.030751933920142006,25.91,2013-12-31 00:00:00,2014-03-25 00:00:00,-89.01441000915236,130.18110159314227,-28.37599405077874,4.679839430313939
sh600732,2014-04-09,5.25,5.35,5.16,5.33,0.017176,21302704.0,112123149.0,2379221820.0,2379221820.0,0.0477229198915131,25.91,2013-12-31 00:00:00,2014-03-25 00:00:00,-89.01441000915236,130.18110159314227,-28.37599405077874,4.679839430313939
sh600732,2014-04-08,5.36,5.4,5.12,5.24,-0.020561000000000003,23130763.0,121851606.0,2339047340.0,2339047340.0,0.051818189417235136,25.48,2013-12-31 00:00:00,2014-03-25 00:00:00,-87.51131565152181,127.98286785486708,-27.89683796194438,4.600815817826943
sh600732,2014-04-04,5.3,5.5,5.23,5.35,0.001873,27587179.0,148584363.0,2388149480.0,2388149480.0,0.061801578538542734,26.01,2013-12-31 00:00:00,2014-03-25 00:00:00,-89.34840827404444,130.6695647762312,-28.482465944223566,4.697399039477643
sh600732,2014-04-03,5.13,5.35,5.1,5.34,0.026923000000000002,27257059.0,142444835.0,2383685650.0,2383685650.0,0.06106203435843145,25.96,2013-12-31 00:00:00,2014-03-25 00:00:00,-89.181371565103,130.4252782301062,-28.429218018874217,4.688617259350879
sh600732,2014-04-02,5.26,5.43,5.19,5.2,-0.005736,38112379.0,202029144.0,2321192020.0,2321192020.0,0.08538042914691736,25.28,2013-12-31 00:00:00,2014-03-25 00:00:00,-86.84328967712577,127.00589842676249,-27.683884788707836,4.565695051479887
sh600732,2014-04-01,4.73,5.23,4.73,5.23,0.101053,32860346.0,167097789.0,2334583510.0,2334583510.0,0.07361467638396882,25.43,2013-12-31 00:00:00,2014-03-25 00:00:00,-87.34429656220657,127.73860707695589,-27.843595653375598,4.592034964033583
sh600732,2014-03-31,4.76,4.93,4.65,4.75,0.0,14850630.0,70820166.0,2120319630.0,2120319630.0,0.033268801317469295,23.09,2013-12-31 00:00:00,2014-03-25 00:00:00,-79.32796746587726,116.01494848745327,-25.288152026628687,4.170584852894077
sh600732,2014-03-28,4.53,4.89,4.5,4.75,0.055555999999999994,30128551.0,142133409.0,2120319630.0,2120319630.0,0.06749483201737844,23.09,2013-12-31 00:00:00,2014-03-25 00:00:00,-79.32796746587726,116.01494848745327,-25.288152026628687,4.170584852894077
sh600732,2014-03-27,4.54,4.59,4.48,4.5,-0.008811,10718671.0,48593832.0,2008723860.0,2008723860.0,0.024012269909513596,21.88,2013-12-31 00:00:00,2014-03-25 00:00:00,-75.15277964018705,109.9088522896495,-23.957186569569675,3.9510787233401903
sh600732,2014-03-26,4.62,4.63,4.47,4.54,-0.017315999999999998,8826813.0,39985490.0,2026579180.0,2026579180.0,0.01977407614539887,22.07,2013-12-31 00:00:00,2014-03-25 00:00:00,-75.82083703530512,110.88586766968713,-24.17014975909708,3.9862011415988174
sh600732,2014-03-25,4.55,4.72,4.55,4.62,0.022124,15637954.0,72680945.0,2062289830.0,2062289830.0,0.03503258680182698,22.46,2013-12-31 00:00:00,2014-03-25 00:00:00,-77.15688566752397,112.83980167550008,-24.59605504831368,4.056442499927563
sh600732,2014-03-24,4.48,4.57,4.46,4.52,0.013453,10940322.0,49409279.0,2017651520.0,2017651520.0,0.02450881876767302,21.98,2013-09-30 00:00:00,2013-10-31 00:00:00,-1441.7871192638672,34.78878615601241,138.21369962670778,3.832449653674125
sh600732,2014-03-21,4.35,4.49,4.29,4.46,0.013636,9129393.0,40334168.0,1990868540.0,1990868540.0,0.020451924354583453,21.68,2013-09-30 00:00:00,2013-10-31 00:00:00,-1422.648232590823,34.326985223796676,136.37899303342905,3.78157611026276
sh600732,2014-03-20,4.54,4.59,4.36,4.4,-0.035088,11472460.0,51610474.0,1964085550.0,1964085550.0,0.025700929371431914,21.39,2013-09-30 00:00:00,2013-10-31 00:00:00,-1403.5099706312947,33.865199365252096,134.54434632691525,3.7307042274176925
sh600732,2014-03-19,4.55,4.61,4.5,4.56,-0.004367,7330889.0,33459419.0,2035506840.0,2035506840.0,0.016422864901795172,22.17,2013-09-30 00:00:00,2013-10-31 00:00:00,-1454.5471199770495,35.09667137029294,139.43690857499467,3.866367324085194
sh600732,2014-03-18,4.51,4.63,4.51,4.58,0.015521,10639196.0,48682209.0,2044434510.0,2044434510.0,0.023834227724907658,22.27,2013-09-30 00:00:00,2013-10-31 00:00:00,-1460.9269881342316,35.2506107876024,140.04850037613727,3.883325807888242
sh600732,2014-03-17,4.45,4.52,4.41,4.51,0.0,10488545.0,46807427.0,2013187690.0,2013187690.0,0.023496735145444883,21.93,2013-09-30 00:00:00,2013-10-31 00:00:00,-1438.5985008032644,34.711848191817204,137.90802984491435,3.823973908848997
sh600732,2014-03-14,4.49,4.65,4.45,4.51,0.002222,9560835.0,43346877.0,2013187690.0,2013187690.0,0.021418452966002387,21.93,2013-09-30 00:00:00,2013-10-31 00:00:00,-1438.5985008032644,34.711848191817204,137.90802984491435,3.823973908848997
sh600732,2014-03-13,4.42,4.57,4.41,4.5,0.008969,9172843.0,41377112.0,2008723860.0,2008723860.0,0.02054926230626842,21.88,2013-09-30 00:00:00,2013-10-31 00:00:00,-1435.4090219564773,34.6348894674206,137.60227758412245,3.8154958770102807
sh600732,2014-03-12,4.49,4.58,4.37,4.46,-0.02193,14064105.0,62817980.0,1990868540.0,1990868540.0,0.03150680571807117,21.68,2013-09-30 00:00:00,2013-10-31 00:00:00,-1422.6492805591424,34.32701051015502,136.37909349456967,3.7815788958930163
sh600732,2014-03-11,4.58,4.65,4.4,4.56,-0.033898000000000005,20442739.0,92324977.0,2035506840.0,2035506840.0,0.04579640215800011,22.17,2013-09-30 00:00:00,2013-10-31 00:00:00,-1454.5475073963441,35.0966807183075,139.43694571407943,3.8663683538939098
sh600732,2014-03-10,4.81,4.99,4.72,4.72,-0.099237,30256935.0,144288890.0,2106928140.0000002,2106928140.0000002,0.06778244140780235,22.95,2013-09-30 00:00:00,2013-10-31 00:00:00,-1505.5837865943186,36.328131727610035,144.32942454738676,4.002029137600284
sh600732,2013-11-27,5.24,5.27,5.12,5.24,0.011583,14427197.0,75126070.0,2339047340.0,2339047340.0,0.0323202147246836,25.48,2013-09-30 00:00:00,2013-10-31 00:00:00,-1671.453852560905,40.33039959191267,160.23018768242787,4.4429324224022135
sh600732,2013-11-26,5.1,5.24,5.1,5.18,0.011719,18116677.0,93861982.0,2312264350.0,2312264350.0,0.040585492251350934,25.18,2013-09-30 00:00:00,2013-10-31 00:00:00,-1652.3150869092353,39.868601579813685,158.3954926905927,4.392059200680728
sh600732,2013-11-25,4.92,5.17,4.86,5.12,0.036437,20787636.0,105541039.0,2285481370.0,2285481370.0,0.046569050055306295,24.89,2013-09-30 00:00:00,2013-10-31 00:00:00,-1633.1758985540803,39.40679336833023,156.56075717723274,4.341184855360756
sh600732,2013-11-22,4.94,5.04,4.8,4.94,-0.004032,10042409.0,49716533.0,2205132420.0,2205132420.0,0.02249728860274069,24.02,2013-09-30 00:00:00,2013-10-31 00:00:00,-1575.7599338445848,38.02140734876333,151.0567040517009,4.188566073346238
sh600732,2013-11-21,5.05,5.05,4.88,4.96,-0.019763,10477299.0,51815892.0,2214060080.0,2214060080.0,0.023471541494935404,24.11,2013-09-30 00:00:00,2013-10-31 00:00:00,-1582.1391187714717,38.17533028045413,151.66823035649833,4.205522741038105
sh600732,2013-11-20,5.02,5.08,4.97,5.06,0.007968000000000001,7425219.0,37307384.0,2258698380.0,2258698380.0,0.016634185632169268,24.6,2013-09-30 00:00:00,2013-10-31 00:00:00,-1614.0373386961232,38.94500032181414,154.7260819133519,4.2903121806645785
sh600732,2013-11-19,5.08,5.11,4.98,5.02,-0.011811,10113702.0,51003215.0,2240843060.0,2240843060.0,0.022657001262730105,24.41,2013-09-30 00:00:00,2013-10-31 00:00:00,-1601.2783527811625,38.63713959353287,153.50297024642833,4.256397207713517
sh600732,2013-11-18,4.92,5.14,4.9,5.08,0.036735000000000004,14376125.0,72514693.0,2267626050.0,2267626050.0,0.032205801745839,24.7,2013-09-30 00:00:00,2013-10-31 00:00:00,-1620.4170991390947,39.098937140094534,155.33766338871243,4.307270378149846
sh600732,2013-11-15,4.76,4.96,4.75,4.9,0.033755,12067044.0,59170397.0,2187277090.0,2187277090.0,0.027032933262241595,23.82,2013-09-30 00:00:00,2013-10-31 00:00:00,-1563.0002837167597,37.71353059373373,149.83352871149566,4.154649334834693
sh600732,2013-11-14,4.74,4.78,4.68,4.74,0.0,4047227.0,19229178.0,2115855799.9999998,2115855799.9999998,0.009066712381817325,23.04,2013-09-30 00:00:00,2013-10-31 00:00:00,-1511.963940891952,36.48207804918354,144.94104377874416,4.018988382000274
sh600732,2013-11-13,4.81,4.86,4.73,4.74,-0.018634,6871692.0,32962081.0,2115855799.9999998,2115855799.9999998,0.015394158751272183,23.04,2013-09-30 00:00:00,2013-10-31 00:00:00,-1511.963940891952,36.48207804918354,144.94104377874416,4.018988382000274
sh600732,2013-11-12,4.69,4.85,4.69,4.83,0.02766,5790399.0,27803033.0,2156030280.0,2156030280.0,0.012971815576727429,23.48,2013-09-30 00:00:00,2013-10-31 00:00:00,-1540.6728385657868,37.17479314464077,147.6931580865285,4.095300206039616
sh600732,2013-11-11,4.61,4.77,4.59,4.7,0.004274,3623031.0,16928929.0,2098000480.0,2098000480.0,0.00811641649386086,22.85,2013-09-30 00:00:00,2013-10-31 00:00:00,-1499.204832888102,36.17421437502751,143.7179204080421,3.985073084521745
sh600732,2013-11-08,4.65,4.7,4.58,4.68,-0.004255,4256517.0,19740398.0,2089072810.0,2089072810.0,0.009535569782271014,22.75,2013-09-30 00:00:00,2013-10-31 00:00:00,-1492.824500970952,36.020263767684426,143.1062841495867,3.968113367986968
sh600732,2013-11-07,4.85,4.85,4.68,4.7,-0.032922,6855578.0,32641524.0,2098000480.0,2098000480.0,0.015358059689290444,22.85,2013-09-30 00:00:00,2013-10-31 00:00:00,-1499.203612341465,36.174184924538345,143.7178034030668,3.9850698401568363
sh600732,2013-11-06,4.9,4.92,4.82,4.86,-0.004098,6054879.0,29565200.0,2169421770.0,2169421770.0,0.013564311166657095,23.63,2013-09-30 00:00:00,2013-10-31 00:00:00,-1550.2406345108307,37.40565386094849,148.61035345966593,4.120732598773663
sh600732,2013-11-05,4.88,4.92,4.8,4.88,-0.002045,6822753.0,33228204.0,2178349430.0,2178349430.0,0.015284524228052796,23.73,2013-09-30 00:00:00,2013-10-31 00:00:00,-1556.6196618852364,37.55957299106588,149.2218646610469,4.13768884767142
sh600732,2013-11-04,4.68,4.92,4.68,4.89,0.042644,11606946.0,56327784.0,2182813260.0,2182813260.0,0.026002208700161553,23.77,2013-09-30 00:00:00,2013-10-31 00:00:00,-1559.809472256,37.63653971478261,149.5276487026438,4.146167760742138
sh600732,2013-11-01,4.58,4.71,4.56,4.69,0.015152,6223455.0,28840159.0,2093536650.0,2093536650.0,0.013941959864901338,22.8,2013-09-30 00:00:00,2013-10-31 00:00:00,-1496.0134736842106,36.09721027961856,143.4119878910192,3.9765900544597566
sh600732,2013-10-31,4.55,4.66,4.54,4.62,0.006536,7265120.0,33402501.0,2062289830.0,2062289830.0,0.01627552728609441,22.46,2013-09-30 00:00:00,2013-10-31 00:00:00,-1473.6842105263158,35.558428963956686,141.27144298688196,3.9172360931759544
sh600732,2013-10-30,4.49,4.6,4.45,4.59,0.024554,5408827.0,24663685.0,2048898340.0,2048898340.0,0.012117007196169625,22.32,2013-06-30 00:00:00,2013-08-31 00:00:00,461.56777550673297,28.494411458984317,-30.291892989870487,4.2209474452698
sh600732,2013-10-29,4.64,4.66,4.24,4.48,-0.032397,11004458.0,49049548.0,1999796200.0,1999796200.0,0.024652498009547177,21.78,2013-06-30 00:00:00,2013-08-31 00:00:00,450.50604995611064,27.81152721963344,-29.56593111721831,4.119790118695355
sh600732,2013-10-28,4.72,4.78,4.56,4.63,-0.025263,7671420.0,35656094.0,2066753660.0,2066753660.0,0.017185732043169574,22.51,2013-06-30 00:00:00,2013-08-31 00:00:00,465.58976145806764,28.742704621248013,-30.55584895584068,4.257727723762075
sh600732,2013-10-25,4.92,4.94,4.71,4.75,-0.034553,8501182.0,41311762.0,2120319630.0,2120319630.0,0.01904458833878739,23.09,2013-06-30 00:00:00,2013-08-31 00:00:00,477.6568053311485,29.487651152308793,-31.347788127300678,4.36807849067192
sh600732,2013-10-24,4.88,4.95,4.87,4.92,0.002037,8820840.0,43339897.0,2196204750.0,2196204750.0,0.019760695263044123,23.92,2013-06-30 00:00:00,2013-08-31 00:00:00,494.75197015594694,30.543003554114097,-32.46971416069518,4.52441044477006
sh600732,2013-10-23,4.95,4.98,4.85,4.91,-0.008081,14637113.0,71890934.0,2191740920.0,2191740920.0,0.03279047453747407,23.87,2013-06-30 00:00:00,2013-08-31 00:00:00,493.74620912795325,30.480913932433726,-32.403707807890505,4.515212955978731
sh600732,2013-10-22,5.0,5.0,4.92,4.95,-0.011976,11896904.0,58914866.0,2209596250.0,2209596250.0,0.026651780749537387,24.07,2013-06-30 00:00:00,2013-08-31 00:00:00,497.76867781336307,30.729236895788596,-32.66769545486124,4.55199764898014
sh600732,2013-10-21,4.96,5.02,4.9,5.01,0.014169999999999999,10618640.0,52907898.0,2236379230.0,2236379230.0,0.02378817764284101,24.36,2013-06-30 00:00:00,2013-08-31 00:00:00,503.8022131176602,31.10171098656368,-33.063665917893935,4.607173154680595
sh600732,2013-10-18,4.95,4.97,4.89,4.94,-0.006036,6439895.0,31820690.0,2205132420.0,2205132420.0,0.014426834874614923,24.02,2013-06-30 00:00:00,2013-08-31 00:00:00,496.76308027023094,30.667157366677852,-32.601699831284634,4.542801655226041
sh600732,2013-10-17,4.93,5.01,4.92,4.97,0.008114,10890843.0,53955680.0,2218523910.0,2218523910.0,0.02439797446672549,24.16,2013-06-30 00:00:00,2013-08-31 00:00:00,499.7797508463395,30.853388419176003,-32.79967869186875,4.570388520334782
sh600732,2013-10-16,5.03,5.03,4.86,4.93,-0.027613,14350255.0,70592495.0,2200668580.0,2200668580.0,0.032147847155613044,23.97,2013-06-30 00:00:00,2013-08-31 00:00:00,495.75717711125867,30.60505897068784,-32.535684150670214,4.533602866674584
sh600732,2013-10-15,5.13,5.17,4.98,5.07,-0.007828,17226563.0,86863422.0,2263162220.0,2263162220.0,0.038591433542930036,24.65,2013-06-30 00:00:00,2013-08-31 00:00:00,509.83525809298015,31.47415480738414,-33.45960420148584,4.662344176418015
sh600732,2013-10-14,5.09,5.18,5.04,5.11,0.0,23263832.0,118888841.0,2281017540.0,2281017540.0,0.05211629434467216,24.84,2013-06-30 00:00:00,2013-08-31 00:00:00,513.8577364539416,31.722478368049224,-33.723592483446254,4.699128957900459
sh600732,2013-10-11,4.86,5.12,4.85,5.11,0.053608,30638161.0,154023074.0,2281017540.0,2281017540.0,0.06863647471557803,24.84,2013-06-30 00:00:00,2013-08-31 00:00:00,513.8577364539416,31.722478368049224,-33.723592483446254,4.699128957900459
sh600732,2013-10-10,4.96,4.97,4.84,4.85,-0.020202,16307499.0,79554825.0,2164957940.0,2164957940.0,0.03653252041931124,23.58,2013-06-30 00:00:00,2013-08-31 00:00:00,487.7124475648833,30.10842587380622,-32.00772249588676,4.460035381185849
sh600732,2013-10-09,4.98,5.02,4.93,4.95,-0.002016,12329716.0,61213393.0,2209596250.0,2209596250.0,0.027621378430561692,24.07,2013-06-30 00:00:00,2013-08-31 00:00:00,497.7683640555332,30.729217526271967,-32.66767486347875,4.55199477972587
sh600732,2013-10-08,4.88,4.96,4.81,4.96,0.020576,13242784.0,64981717.0,2214060080.0,2214060080.0,0.029666859193811942,24.11,2013-06-30 00:00:00,2013-08-31 00:00:00,498.77389222225327,30.79129277250133,-32.733665934001706,4.561190139046188
sh600732,2013-09-30,4.74,4.9,4.74,4.86,0.029661,9417433.0,45508017.0,2169421770.0,2169421770.0,0.021097199729861658,23.63,2013-06-30 00:00:00,2013-08-31 00:00:00,488.71803003622784,30.17050447247567,-32.07371713032808,4.469231237111384
sh600732,2013-09-27,4.75,4.87,4.72,4.72,-0.010482,13042644.0,62422945.0,2106928140.0000002,2106928140.0000002,0.02921849991523678,22.95,2013-06-30 00:00:00,2013-08-31 00:00:00,474.63974068769033,29.301395772468485,-31.149783404759507,4.340488021893987
sh600732,2013-09-26,5.12,5.12,4.72,4.77,-0.068359,28976091.0,142234503.0,2129247290.0,2129247290.0,0.06491305858137313,23.19,2013-06-30 00:00:00,2013-08-31 00:00:00,479.667616645367,29.611786518758105,-31.479754188159795,4.386466968659475
sh600732,2013-09-25,5.24,5.33,5.08,5.12,-0.037594,35125933.0,183108591.0,2285481370.0,2285481370.0,0.07869010849123657,24.89,2013-06-30 00:00:00,2013-08-31 00:00:00,514.86314647527,31.78454632069446,-33.789575800291956,4.708323236804172
sh600732,2013-09-24,5.19,5.49,4.99,5.32,0.005671,62671046.0,324299650.0,2374757990.0,2374757990.0,0.14039744939230628,25.86,2013-06-30 00:00:00,2013-08-31 00:00:00,534.9749964934446,33.026130677379875,-35.1094816535765,4.8922421896831185
sh600732,2013-09-23,5.1,5.34,5.04,5.29,0.043393,25781607.0,134175660.0,2361366490.0,2361366490.0,0.057756685210689176,25.72,2013-06-30 00:00:00,2013-08-31 00:00:00,531.9582611942121,32.83989562926631,-34.91149854532596,4.864654732694011
sh600732,2013-09-18,5.05,5.22,4.9,5.07,-0.019341999999999998,23445956.0,118776253.0,2263162220.0,2263162220.0,0.052524293605431434,24.65,2013-06-30 00:00:00,2013-08-31 00:00:00,509.83499141187656,31.474138344100744,-33.4595866996673,4.662341737671242
sh600732,2013-09-17,5.52,5.59,5.1,5.17,-0.08495599999999999,37396682.0,199285298.0,2307800520.0,2307800520.0,0.08377710476467004,25.14,2013-06-30 00:00:00,2013-08-31 00:00:00,519.8907176731099,32.09491825294929,-34.11952658283244,4.7542993966002856
sh600732,2013-09-16,5.43,5.7,5.37,5.65,0.040516,26676059.0,148418942.0,2522064400.0,2522064400.0,0.059760461846255795,27.47,2013-06-30 00:00:00,2013-08-31 00:00:00,568.1592553725393,35.07472673767523,-37.287307039696934,5.195705776553133
sh600732,2013-09-13,5.38,5.48,5.31,5.43,0.007421,16299564.0,87961964.0,2423860120.0,2423860120.0,0.03651474430793473,26.4,2013-06-30 00:00:00,2013-08-31 00:00:00,546.036058429221,33.70897394915141,-35.83539997433671,4.993393447628996
sh600732,2013-09-12,5.49,5.52,5.38,5.39,-0.028829,23024272.0,124960653.0,2406004800.0,2406004800.0,0.0515796253108057,26.2,2013-06-30 00:00:00,2013-08-31 00:00:00,542.0137742108028,33.460662373676364,-35.571424433614865,4.9566104415423125
sh600732,2013-09-11,5.85,5.89,5.5,5.55,-0.039792,36484221.0,205786958.0,2477426090.0,2477426090.0,0.08173298382838941,26.98,2013-06-30 00:00:00,2013-08-31 00:00:00,558.1033352631027,34.453934861807404,-36.62735443461024,5.103746344920011
sh600732,2013-09-10,5.53,5.89,5.45,5.78,0.041441000000000006,50951006.0,293125549.0,2580094200.0,2580094200.0,0.11414188469552779,28.1,2013-06-30 00:00:00,2013-08-31 00:00:00,581.2317073624702,35.88174110381022,-38.14522940301501,5.3152508049506055
sh600732,2013-09-09,5.58,5.75,5.47,5.55,-0.012456,39029740.0,218699852.0,2477426090.0,2477426090.0,0.08743552749135697,26.98,2013-06-30 00:00:00,2013-08-31 00:00:00,558.1033465769736,34.453935560257584,-36.62735517711998,5.103746448383158
sh600732,2013-09-06,5.4,5.69,5.36,5.62,0.038817000000000004,49233037.0,273111497.0,2508672910.0,2508672910.0,0.11029324183199316,27.32,2013-06-30 00:00:00,2013-08-31 00:00:00,565.1427648560204,34.88850680097048,-37.089339996111555,5.168120558054284
sh600732,2013-09-05,5.18,5.55,5.06,5.41,0.044402,37289532.0,197752433.0,2414932460.0,2414932460.0,0.08353706427052622,26.3,2013-06-30 00:00:00,2013-08-31 00:00:00,544.0253334860907,33.58484391473231,-35.7034395818624,4.975005759488228
sh600732,2013-09-04,5.2,5.35,5.1,5.18,-0.01145,23207052.0,121166872.0,2312264350.0,2312264350.0,0.051989094309221176,25.18,2013-06-30 00:00:00,2013-08-31 00:00:00,520.8964876418188,32.15700842657551,-34.18553352240076,4.763496967152714
sh600732,2013-09-03,5.13,5.33,5.0,5.24,0.023438,21928316.0,114099039.0,2339047340.0,2339047340.0,0.04912443364228789,25.48,2013-06-30 00:00:00,2013-08-31 00:00:00,526.9298342439115,32.52947086801427,-34.581491601234895,4.818670747208248
sh600732,2013-09-02,5.49,5.49,5.01,5.12,-0.079137,34733358.0,179635523.0,2285481370.0,2285481370.0,0.07781065087395571,24.89,2013-06-30 00:00:00,2013-08-31 00:00:00,514.8624872673396,31.784505625171498,-33.7895325376182,4.708317208475988
sh600732,2013-08-30,5.56,5.78,5.45,5.56,0.016453,49382118.0,277702959.0,2481889920.0,2481889920.0,0.11062721753590102,27.03,2013-03-31 00:00:00,2013-04-27 00:00:00,1239.1006690995528,32.177698801171736,-49.93282335546157,4.662156727452849
sh600732,2013-08-29,5.55,5.69,5.37,5.47,-0.033569,41674359.0,229487545.0,2441715450.0,2441715450.0,0.09336007753483314,26.59,2013-03-31 00:00:00,2013-04-27 00:00:00,1219.043742405751,31.656848670004155,-49.12457669509713,4.5866918858548775
sh600732,2013-08-28,5.39,5.82,5.2,5.66,0.050093,70086591.0,389807279.0,2526528230.0,2526528230.0,0.15700996345487103,27.52,2013-03-31 00:00:00,2013-04-27 00:00:00,1261.3872510357708,32.75644993797194,-50.83091984331747,4.746010719704643
sh600732,2013-08-27,5.24,5.68,5.24,5.39,0.040541,77911845.0,425313916.0,2406004800.0,2406004800.0,0.17454031868514974,26.2,2013-03-31 00:00:00,2013-04-27 00:00:00,1201.2147981519454,31.193856104146903,-48.40611245224705,4.519609900937005
sh600732,2013-08-26,4.79,5.26,4.71,5.18,0.08142,53247205.0,269603858.0,2312264350.0,2312264350.0,0.11928589475506986,25.18,2013-03-31 00:00:00,2013-04-27 00:00:00,1154.4137118594513,29.97849782386941,-46.52013947768233,4.343519285580294
sh600732,2013-08-23,4.74,5.0,4.63,4.79,0.027897,34811314.0,168065712.0,2138174950.0000002,2138174950.0000002,0.07798529024016486,23.29,2013-03-31 00:00:00,2013-04-27 00:00:00,1067.4980228398322,27.72141982196502,-43.01764298578011,4.016496167613226
sh600732,2013-08-22,4.63,4.83,4.6,4.66,-0.008511,21719937.0,102496301.0,2080145150.0,2080145150.0,0.048657617195607725,22.66,2013-03-31 00:00:00,2013-04-27 00:00:00,1038.52625587956,26.969063847802865,-41.85014936883765,3.9074889484191755
sh600732,2013-08-21,4.44,4.74,4.38,4.7,0.056179999999999994,18043486.0,82581007.0,2098000480.0,2098000480.0,0.04042152754893555,22.85,2013-03-31 00:00:00,2013-04-27 00:00:00,1047.4410264557246,27.20056788103838,-42.20939351706136,3.9410310638032047
sh600732,2013-08-20,4.53,4.54,4.43,4.45,-0.01766,9328937.0,41757246.0,1986404710.0,1986404710.0,0.0208989484574873,21.63,2013-03-31 00:00:00,2013-04-27 00:00:00,991.725867234491,25.753723684446197,-39.964204507812454,3.7314009579836815
sh600732,2013-08-19,4.33,4.58,4.32,4.53,0.017978,8987451.0,40427072.0,2022115350.0,2022115350.0,0.020133941928683743,22.02,2013-03-31 00:00:00,2013-04-27 00:00:00,1009.5546014969267,26.216710797123394,-40.6826602885075,3.7984821528021677
sh600732,2013-08-16,4.54,4.68,4.43,4.45,-0.019824,12501972.0,56748494.0,1986404710.0,1986404710.0,0.0280072711869476,21.63,2013-03-31 00:00:00,2013-04-27 00:00:00,991.7253629223094,25.753710588169284,-39.964184185225506,3.731399060492631
sh600732,2013-08-15,4.65,4.71,4.52,4.54,-0.021552,12196202.0,56168331.0,2026579180.0,2026579180.0,0.027322276684989925,22.07,2013-03-31 00:00:00,2013-04-27 00:00:00,1011.7829480851492,26.274577818850165,-40.77245738033323,3.806866379601858
sh600732,2013-08-14,4.75,4.76,4.59,4.64,-0.02521,16084686.0,75124709.0,2071217490.0,2071217490.0,0.036033368489950326,22.56,2013-03-31 00:00:00,2013-04-27 00:00:00,1034.0692076483874,26.853320584078226,-41.670540877321265,3.89071915891479
sh600732,2013-08-13,4.8,4.81,4.66,4.76,-0.002096,16649384.0,78635659.0,2124783460.0,2124783460.0,0.037298420912971524,23.14,2013-03-31 00:00:00,2013-04-27 00:00:00,1060.8122853623727,27.547800638166397,-42.74822359412926,3.991340862046994
sh600732,2013-08-12,4.67,4.85,4.58,4.77,0.021412999999999998,24426656.0,115173980.0,2129247290.0,2129247290.0,0.05472128562389763,23.19,2013-03-31 00:00:00,2013-04-27 00:00:00,1063.0404180786654,27.605662105940446,-42.83801206742257,3.999724284146565
sh600732,2013-08-09,4.61,4.78,4.51,4.67,-0.008493,26475833.0,123044316.0,2084608980.0,2084608980.0,0.059311909953491615,22.7,2013-03-31 00:00:00,2013-04-27 00:00:00,1040.75473689748,27.0269343604795,-41.93995187786192,3.9158736810149914
sh600732,2013-08-08,4.36,4.76,4.36,4.71,0.068027,40010706.0,185297927.0,2102464310.0,2102464310.0,0.08963311498971414,22.9,2013-03-31 00:00:00,2013-04-27 00:00:00,1049.6695806459056,27.258440293895557,-42.29919897475451,3.949416071712042
sh600732,2013-08-07,4.25,4.5,4.24,4.41,0.030374,26869333.0,117925659.0,1968549380.0,1968549380.0,0.06019343976527528,21.44,2013-03-31 00:00:00,2013-04-27 00:00:00,982.8118396313066,25.522238945172315,-39.60499029964084,3.697861638059751
sh600732,2013-08-06,4.19,4.42,4.14,4.28,0.021480000000000003,19545261.0,83695883.0,1910519580.0,1910519580.0,0.04378584650778612,20.81,2013-03-31 00:00:00,2013-04-27 00:00:00,953.8399063168389,24.76987865102605,-38.43748997901814,3.5888537929526083
sh600732,2013-08-05,4.15,4.24,4.13,4.19,0.004796,8152816.0,34057204.0,1870345110.0,1870345110.0,0.01826416892655709,20.37,2013-03-31 00:00:00,2013-04-27 00:00:00,933.7822633011307,24.249009917987678,-37.62921445257679,3.513386256170075
sh600732,2013-08-02,4.22,4.23,4.14,4.17,0.0,10942303.0,45854577.0,1861417440.0,1861417440.0,0.02451325668787115,20.27,2013-03-31 00:00:00,2013-04-27 00:00:00,929.3252195481776,24.13326677055609,-37.449606141522054,3.4966164835151368
sh600732,2013-08-01,4.09,4.18,4.07,4.17,0.017072999999999998,10327671.0,42792410.0,1861417440.0,1861417440.0,0.023136340696367386,20.27,2013-03-31 00:00:00,2013-04-27 00:00:00,929.3252195481776,24.13326677055609,-37.449606141522054,3.4966164835151368
sh600732,2013-07-31,4.14,4.21,4.07,4.1,0.002445,8675176.0,35956671.0,1830170630.0,1830170630.0,0.01943437459708333,19.93,2013-03-31 00:00:00,2013-04-27 00:00:00,913.725189389727,23.72815596378637,-36.82096185969154,3.437920860661071
sh600732,2013-07-30,4.08,4.15,4.02,4.09,-0.007281999999999999,7957514.0,32480518.0,1825706800.0,1825706800.0,0.01782664788234343,19.88,2013-03-31 00:00:00,2013-04-27 00:00:00,911.4965802510133,23.670282123993207,-36.731154187702614,3.4295356460065847
sh600732,2013-07-29,4.1,4.25,4.0,4.12,-0.009615,12780205.0,52387151.0,1839098290.0,1839098290.0,0.028630576672440927,20.03,2013-03-31 00:00:00,2013-04-27 00:00:00,918.1827873081915,23.843913502115612,-37.00059250230439,3.454692718381841
sh600732,2013-07-26,4.2,4.29,4.13,4.16,-0.021176,11280824.0,47249986.0,1856953610.0,1856953610.0,0.02527162099649867,20.22,2013-03-31 00:00:00,2013-04-27 00:00:00,927.0968232638737,24.075398458292092,-37.3598070470619,3.4882320697323177
sh600732,2013-07-25,4.17,4.31,4.09,4.25,0.01432,18380408.0,77790750.0,1897128090.0,1897128090.0,0.04117630981891159,20.66,2013-03-31 00:00:00,2013-04-27 00:00:00,947.153751097106,24.596248619049074,-38.168053753342676,3.5636969156174323
sh600732,2013-07-24,4.18,4.26,4.14,4.19,-0.002381,11496159.0,48151758.0,1870345110.0,1870345110.0,0.025754020449199347,20.37,2013-03-31 00:00:00,2013-04-27 00:00:00,933.7819929579481,24.249002897556068,-37.62920355838658,3.5133852389950233
sh600732,2013-07-23,4.06,4.24,4.06,4.2,0.037037,12308657.0,51398824.0,1874808940.0,1874808940.0,0.027574201454362596,20.42,2013-03-31 00:00:00,2013-04-27 00:00:00,936.0106342781644,24.30687757305752,-37.71901252721388,3.5217705747334636
sh600732,2013-07-22,3.96,4.08,3.91,4.05,0.009975,7302500.0,29282196.0,1807851470.0,1807851470.0,0.016359267058593037,19.69,2013-03-31 00:00:00,2013-04-27 00:00:00,902.5817152890055,23.43877563969031,-36.37190623595289,3.3959931754927393
sh600732,2013-07-19,4.17,4.22,4.0,4.01,-0.036058,13706884.0,56437553.0,1789996150.0,1789996150.0,0.030706549195650502,19.5,2013-03-31 00:00:00,2013-04-27 00:00:00,893.6673831421624,23.207282991846636,-36.012679755392845,3.3624527097133483
sh600732,2013-07-18,4.18,4.24,4.12,4.16,-0.016548,12506597.0,52062103.0,1856953610.0,1856953610.0,0.028017632341391662,20.22,2013-03-31 00:00:00,2013-04-27 00:00:00,927.0966335548845,24.075393531816896,-37.35979940223877,3.4882313559460516
sh600732,2013-07-17,4.16,4.32,4.15,4.23,0.007143000000000001,18965667.0,80695606.0,1888200430.0,1888200430.0,0.04248742354645053,20.57,2013-03-31 00:00:00,2013-04-27 00:00:00,942.6963731375649,24.48049679274321,-37.98843197455369,3.5469258854992938
sh600732,2013-07-16,4.17,4.22,4.11,4.2,0.0023870000000000002,13748695.0,57265283.0,1874808940.0,1874808940.0,0.030800215300872204,20.42,2013-03-31 00:00:00,2013-04-27 00:00:00,936.0104504897171,24.306872800330453,-37.71900512097457,3.5217698832234294
sh600732,2013-07-15,4.14,4.22,4.12,4.19,0.009639,13208974.0,55093678.0,1870345110.0,1870345110.0,0.02959111704256548,20.37,2013-03-31 00:00:00,2013-04-27 00:00:00,933.7815140157614,24.248990460102192,-37.62918425815037,3.5133834369594075
sh600732,2013-07-12,4.25,4.32,4.14,4.15,-0.028102999999999996,20446004.0,86117545.0,1852489780.0,1852489780.0,0.04580371644479464,20.18,2013-03-31 00:00:00,2013-04-27 00:00:00,924.8667236663416,24.01748591338309,-37.26993931311129,3.47984124717786
sh600732,2013-07-11,4.16,4.39,4.13,4.27,0.011848000000000001,41158234.0,174866009.0,1906055750.0,1906055750.0,0.09220383988243785,20.76,2013-03-31 00:00:00,2013-04-27 00:00:00,951.6098142769672,24.711966302378844,-38.34762254962336,3.580462998834095
sh600732,2013-07-10,3.82,4.22,3.76,4.22,0.098958,38990964.0,161995362.0,1883736600.0,1883736600.0,0.08734866014707152,20.52,2013-03-31 00:00:00,2013-04-27 00:00:00,940.4671593727192,24.42260725166116,-37.898599937563105,3.538538395919243
sh600732,2013-07-09,3.76,3.86,3.7,3.84,0.021277,8469940.0,32049551.0,1714111030.0,1714111030.0,0.0189745990958357,18.67,2013-03-31 00:00:00,2013-04-27 00:00:00,855.7808026992105,22.22342187022721,-34.485940261195694,3.2199032136981054
sh600732,2013-07-08,3.96,3.96,3.75,3.76,-0.071605,12604504.0,48502190.0,1678400380.0,1678400380.0,0.028236966342917533,18.28,2013-03-31 00:00:00,2013-04-27 00:00:00,837.951704287094,21.760425301095793,-33.76746980613065,3.1528206487545547
sh600732,2013-07-05,4.01,4.13,4.0,4.05,0.007462999999999999,13975390.0,56972820.0,1807851470.0,1807851470.0,0.031308063986030886,19.69,2013-03-31 00:00:00,2013-04-27 00:00:00,902.5810180872302,23.438757534342383,-36.37187814037199,3.3959905522482936
sh600732,2013-07-04,3.94,4.08,3.89,4.02,0.007519,16476218.0,66150131.0,1794459980.0,1794459980.0,0.036910489561321945,19.54,2013-03-31 00:00:00,2013-04-27 00:00:00,895.8949540451908,23.265129870121665,-36.10244558894172,3.3708340179721676
sh600732,2013-07-03,3.88,4.07,3.7,3.99,0.025707,19220117.0,74956305.0,1781068490.0,1781068490.0,0.043057449649227135,19.4,2013-03-31 00:00:00,2013-04-27 00:00:00,889.2089916370717,23.091504845190673,-35.8330171331178,3.345677866096984
sh600732,2013-07-02,3.85,3.89,3.8,3.89,0.002577,8901569.0,34299380.0,1736430180.0,1736430180.0,0.019941546633334833,18.91,2013-03-31 00:00:00,2013-04-27 00:00:00,866.9230020240399,22.512769090189185,-34.934944514483966,3.261826102480518
sh600732,2013-07-01,3.9,3.91,3.8,3.88,-0.015228,10226171.0,39469221.0,1731966350.0,1731966350.0,0.022908957486385346,18.86,2013-03-31 00:00:00,2013-04-27 00:00:00,864.6946838238257,22.454902805659,-34.84514856662776,3.2534419824916365
sh600732,2013-06-28,3.78,4.1,3.7,3.94,0.028720999999999997,15409478.0,60618934.0,1758749340.0,1758749340.0,0.03452074831766532,19.16,2013-03-31 00:00:00,2013-04-27 00:00:00,878.065870905982,22.802133697606145,-35.383975749338695,3.3037515104934307
sh600732,2013-06-27,3.88,3.99,3.8,3.83,-0.02046,12548910.0,49115248.0,1709647200.0,1709647200.0,0.028112423019205364,18.62,2013-03-31 00:00:00,2013-04-27 00:00:00,853.5510317238417,22.165517859172844,-34.39608576994025,3.2115136275952674
sh600732,2013-06-26,3.89,3.96,3.78,3.91,-0.0025510000000000003,10706050.0,41491239.0,1745357840.0,1745357840.0,0.023983996026854873,19.01,2013-03-31 00:00:00,2013-04-27 00:00:00,871.3794553809356,22.628496905866882,-35.11452903397538,3.278593653751013
sh600732,2013-06-25,3.91,4.02,3.58,3.92,-0.015075,18079415.0,68304514.0,1749821670.0,1749821670.0,0.04050201687123923,19.06,2013-03-31 00:00:00,2013-04-27 00:00:00,873.6080294640984,22.68636983531677,-35.20433529330861,3.2869787365078444
sh600732,2013-06-24,4.46,4.47,3.98,3.98,-0.099548,13309595.0,55064758.0,1776604660.0,1776604660.0,0.02981653110152261,19.35,2013-03-31 00:00:00,2013-04-27 00:00:00,886.9792415301656,23.033601376060886,-35.743163482811994,3.337288358512419
sh600732,2013-06-21,4.39,4.49,4.32,4.42,-0.022124,6904074.0,30552214.0,1973013210.0,1973013210.0,0.015466701857510624,21.49,2013-03-31 00:00:00,2013-04-27 00:00:00,985.0377827248601,25.580043551528444,-39.69469053632176,3.706236821632268
sh600732,2013-06-20,4.64,4.75,4.5,4.52,-0.030043,8314638.0,38733112.0,2017651520.0,2017651520.0,0.018626687209097433,21.98,2013-03-31 00:00:00,2013-04-27 00:00:00,1007.3238148035744,26.158780409303883,-40.592764866222055,3.790088745027251
sh600732,2013-06-19,4.69,4.69,4.58,4.66,-0.014799000000000001,6001971.0,27807061.0,2080145150.0,2080145150.0,0.013445785194364923,22.66,2013-03-31 00:00:00,2013-04-27 00:00:00,1038.5241972619142,26.969010388402666,-41.85006641142036,3.9074812028030634
sh600732,2013-06-18,4.71,4.76,4.65,4.73,0.004246,7299922.0,34355895.0,2111391970.0000002,2111391970.0000002,0.016353491701495863,23.0,2013-03-31 00:00:00,2013-04-27 00:00:00,1054.1241810167814,27.3741199901367,-42.47870882329632,3.966176651062132
sh600732,2013-06-17,4.63,4.74,4.45,4.71,0.019481000000000002,10328351.0,47658899.0,2102464310.0,2102464310.0,0.023137863971636217,22.9,2013-03-31 00:00:00,2013-04-27 00:00:00,1049.667293687783,27.258380904814853,-42.299106815756616,3.949407466957431
sh600732,2013-06-14,4.57,4.65,4.57,4.62,0.015385,6676348.0,30808019.0,2062289830.0,2062289830.0,0.014956543600857498,22.46,2013-03-31 00:00:00,2013-04-27 00:00:00,1029.6094715720874,26.737507520802108,-41.490824072009794,3.8739392563053463
sh600732,2013-06-13,4.77,4.77,4.37,4.55,-0.054054,10131207.0,46137739.0,2031043010.0,2031043010.0,0.022696216487311117,22.12,2013-03-31 00:00:00,2013-04-27 00:00:00,1014.0089439691224,26.332383796099123,-40.862159744343074,3.8152417618000527
sh600732,2013-06-07,4.95,5.01,4.74,4.81,-0.032193,13008535.0,63036363.0,2147102609.9999998,2147102609.9999998,0.029142088067230284,23.38,2013-03-31 00:00:00,2013-04-27 00:00:00,1071.952250941515,27.837089850899655,-43.197137832754805,4.033255346288322
sh600732,2013-06-06,5.09,5.13,4.93,4.97,-0.027397,10051115.0,50652188.0,2218523910.0,2218523910.0,0.022516792054767622,24.16,2013-03-31 00:00:00,2013-04-27 00:00:00,1107.6095243592113,28.76305900959557,-44.63404153178765,4.167417001828176
sh600732,2013-06-05,5.05,5.12,5.03,5.11,0.001961,7539181.0,38227074.0,2281017540.0,2281017540.0,0.016889486483299906,24.84,2013-03-31 00:00:00,2013-04-27 00:00:00,1138.8094878991853,29.57327810997454,-45.89132619556762,4.284807883409959
sh600732,2013-06-04,5.21,5.22,5.03,5.1,-0.022989,15176533.0,77532789.0,2276553710.0,2276553710.0,0.03399889840508089,24.79,2013-03-31 00:00:00,2013-04-27 00:00:00,1136.580653238185,29.5153984136853,-45.80150943556447,4.276421820220507
sh600732,2013-06-03,5.21,5.28,5.18,5.22,-0.001912,11432247.0,59868873.0,2330119680.0,2330119680.0,0.025610843019016085,25.38,2013-03-31 00:00:00,2013-04-27 00:00:00,1163.3243159372669,30.209893659012334,-46.87921572588689,4.377045724378237
sh600732,2013-05-31,5.4,5.44,5.22,5.23,-0.031481,23662129.0,125498907.0,2334583510.0,2334583510.0,0.053008570539419264,25.43,2013-03-31 00:00:00,2013-04-27 00:00:00,1165.5528529921878,30.267765626890945,-46.96902049306963,4.3854306678151
sh600732,2013-05-30,5.4,5.46,5.37,5.4,-0.010989,22261809.0,120473999.0,2410468630.0,2410468630.0,0.04987153415060208,26.25,2013-03-31 00:00:00,2013-04-27 00:00:00,1203.4382939231837,31.251597156990155,-48.49571406763278,4.5279758763794
sh600732,2013-05-29,5.34,5.53,5.3,5.46,0.01676,38536570.0,208836818.0,2437251620.0,2437251620.0,0.08633071385546971,26.55,2013-03-31 00:00:00,2013-04-27 00:00:00,1216.8098170022213,31.598836774302978,-49.03455479022254,4.578286668580431
sh600732,2013-05-28,5.14,5.44,5.11,5.37,0.032692,31367844.0,167041881.0,2397077140.0,2397077140.0,0.07027113123276459,26.11,2013-03-31 00:00:00,2013-04-27 00:00:00,1196.752249303888,31.077969997150728,-48.22628229889309,4.502819415181981
sh600732,2013-05-27,5.23,5.28,5.13,5.2,-0.007634,18756183.0,97804684.0,2321192020.0,2321192020.0,0.04201813152881682,25.28,2013-03-31 00:00:00,2013-04-27 00:00:00,1158.866582973324,30.094132613742264,-46.69957964126099,4.360273358544445
sh600732,2013-05-24,5.21,5.28,5.18,5.24,0.0,21173668.0,110541118.0,2339047340.0,2339047340.0,0.04743384985102525,25.48,2013-03-31 00:00:00,2013-04-27 00:00:00,1167.7814263823268,30.325638538343988,-47.05882672447564,4.393815747964407
sh600732,2013-05-23,5.43,5.45,5.2,5.24,-0.042048,32927140.0,175216857.0,2339047340.0,2339047340.0,0.0737643102169963,25.48,2013-03-31 00:00:00,2013-04-27 00:00:00,1167.7814263823268,30.325638538343988,-47.05882672447564,4.393815747964407
sh600732,2013-05-22,5.52,5.54,5.37,5.47,-0.007259999999999999,30141190.0,164223188.0,2441715450.0,2441715450.0,0.06752314619625313,26.59,2013-03-31 00:00:00,2013-04-27 00:00:00,1219.039603636014,31.65674119198455,-49.1244099124754,4.5866763135986
sh600732,2013-05-21,5.47,5.54,5.35,5.51,0.012868000000000001,41084988.0,224971174.0,2459570770.0,2459570770.0,0.09203975207430197,26.79,2013-03-31 00:00:00,2013-04-27 00:00:00,1227.9545536958458,31.88824988615806,-49.483661293465964,4.620219104295788
sh600732,2013-05-20,5.4,5.55,5.3,5.44,-0.012704,40219873.0,218535625.0,2428323960.0,2428323960.0,0.09010169677689958,26.45,2013-03-31 00:00:00,2013-04-27 00:00:00,1212.3539826471424,31.48312503323045,-48.85499521503884,4.561521446324484
sh600732,2013-05-17,5.53,5.74,5.5,5.51,-0.012545,55124394.0,309274535.0,2459570770.0,2459570770.0,0.1234912264549314,26.79,2013-03-31 00:00:00,2013-04-27 00:00:00,1227.9539091084564,31.888233147131615,-49.48363531812025,4.620216679014687
sh600732,2013-05-16,5.3,5.59,5.3,5.58,0.041045,49702688.0,272335299.0,2490817590.0,2490817590.0,0.11134536714107596,27.13,2013-03-31 00:00:00,2013-04-27 00:00:00,1243.5542977740317,32.29335326382632,-50.112294046939105,4.678913650763516
sh600732,2013-05-15,5.31,5.45,5.23,5.36,0.0037450000000000005,23938695.0,128444528.0,2392613310.0,2392613310.0,0.05362814152362966,26.06,2013-03-31 00:00:00,2013-04-27 00:00:00,1194.525018394048,31.020131948019845,-48.13653016626477,4.494439386158635
sh600732,2013-05-14,5.39,5.42,5.29,5.34,-0.018382,22939553.0,122594614.0,2383685650.0,2383685650.0,0.05138983532497249,25.96,2013-03-31 00:00:00,2013-04-27 00:00:00,1190.0682129366003,30.904394988786837,-47.956931457954724,4.477670510098316
sh600732,2013-05-13,5.3,5.54,5.21,5.44,0.016822,46289068.0,249656786.0,2428323960.0,2428323960.0,0.10369807903225566,26.45,2013-03-31 00:00:00,2013-04-27 00:00:00,1212.3536986247198,31.48311765756825,-48.85498376960764,4.561520377680845
sh600732,2013-05-10,5.42,5.48,5.29,5.35,-0.025501,38876624.0,208918349.0,2388149480.0,2388149480.0,0.08709251248376629,26.01,2013-03-31 00:00:00,2013-04-27 00:00:00,1192.2968805009334,30.962270345811024,-48.04674148435779,4.486055944581103
sh600732,2013-05-09,5.47,5.55,5.25,5.49,-0.005435,70785301.0,382094191.0,2450643110.0,2450643110.0,0.15857523313135546,26.69,2013-03-31 00:00:00,2013-04-27 00:00:00,1223.4972847595875,31.772500891033264,-49.30404390805715,4.60344848438131
sh600732,2013-05-08,5.35,5.67,5.18,5.52,0.043477999999999996,116183918.0,632199902.0,2464034600.0,2464034600.0,0.2602784990762711,26.84,2013-03-31 00:00:00,2013-04-27 00:00:00,1230.1833311644664,31.946128097241772,-49.57347574875162,4.628604952297045
sh600732,2013-05-07,4.78,5.29,4.75,5.29,0.09979199999999999,68795368.0,351300953.0,2361366490.0,2361366490.0,0.1541173292079706,25.72,2013-03-31 00:00:00,2013-04-27 00:00:00,1178.925987097444,30.61504708028514,-47.507926136201846,4.435747521554882
sh600732,2013-05-06,4.8,4.85,4.77,4.81,0.0062759999999999995,17040329.0,81965758.0,2147102609.9999998,2147102609.9999998,0.03817422702960619,23.38,2013-03-31 00:00:00,2013-04-27 00:00:00,1071.9535940409132,27.837124729298942,-43.19719195648072,4.033260399743663
sh600732,2013-05-03,4.74,4.82,4.68,4.78,0.019190000000000002,15710313.0,74948688.0,2133711120.0,2133711120.0,0.03519468752639767,23.24,2013-03-31 00:00:00,2013-04-27 00:00:00,1065.2679722470905,27.663508549641392,-42.927777226606544,4.0081055294408925
sh600732,2013-05-02,4.65,4.75,4.6,4.69,0.0042829999999999995,10933887.0,51319591.0,2093536650.0,2093536650.0,0.024494402823088863,22.8,2013-03-31 00:00:00,2013-04-27 00:00:00,1045.2103849597136,27.142641263789276,-42.11950394588501,3.9326382023380253
sh600732,2013-04-26,4.78,4.82,4.64,4.67,-0.027083,20161529.0,95172002.0,2084608980.0,2084608980.0,0.04516642753309064,22.7,2012-12-31 00:00:00,2013-02-01 00:00:00,552.5618522590964,25.64444587183158,265.9570455136416,3.751206045138224
sh600732,2013-04-25,5.0,5.02,4.77,4.8,-0.041916,27152624.0,133297856.0,2142638779.9999998,2142638779.9999998,0.0608280763031835,23.34,2012-12-31 00:00:00,2013-02-01 00:00:00,567.9434651250791,26.3583079253745,273.3604670425552,3.855628018770589
sh600732,2013-04-24,4.93,5.05,4.92,5.01,0.012121,23468186.0,116949004.0,2236379230.0,2236379230.0,0.052574094001042924,24.36,2012-12-31 00:00:00,2013-02-01 00:00:00,592.7908879858959,27.511479082600793,285.3199375446779,4.02431104033737
sh600732,2013-04-23,5.08,5.13,4.93,4.95,-0.027505,26334272.0,132098452.0,2209596250.0,2209596250.0,0.05899478078857167,24.07,2012-12-31 00:00:00,2013-02-01 00:00:00,585.6917186639698,27.182005988020002,281.9029913860871,3.9761165318547578
sh600732,2013-04-22,5.23,5.25,5.01,5.09,-0.037807,36935582.0,189274566.0,2272089880.0,2272089880.0,0.0827441352716205,24.75,2012-12-31 00:00:00,2013-02-01 00:00:00,602.2567917202348,27.95079253674312,289.8760316362419,4.088572724646149
sh600732,2013-04-19,5.24,5.37,5.23,5.29,0.003795,36481820.0,193724891.0,2361366490.0,2361366490.0,0.08172760501907521,25.72,2012-12-31 00:00:00,2013-02-01 00:00:00,625.9209864551445,29.049049968918006,301.265995113498,4.249223102481675
sh600732,2013-04-18,5.3,5.38,5.23,5.27,-0.014953,24292730.0,128773294.0,2352438830.0,2352438830.0,0.05442126080702383,25.62,2012-12-31 00:00:00,2013-02-01 00:00:00,623.5545967604387,28.939225607736642,300.12701309878804,4.233158266858945
sh600732,2013-04-17,5.28,5.39,5.23,5.35,0.01518,33849972.0,179901896.0,2388149480.0,2388149480.0,0.07583166452378014,26.01,2012-12-31 00:00:00,2013-02-01 00:00:00,633.0201470188109,29.37852265702717,304.6829370565953,4.297417551506624
sh600732,2013-04-16,5.18,5.32,5.16,5.27,-0.003781,28879226.0,151907236.0,2352438830.0,2352438830.0,0.06469605886415333,25.62,2012-12-31 00:00:00,2013-02-01 00:00:00,623.554588367394,28.939225218214673,300.12700905907855,4.233158209880636
sh600732,2013-04-15,5.1,5.45,5.01,5.29,0.029182999999999997,40640179.0,212952399.0,2361366490.0,2361366490.0,0.09104327846627484,25.72,2012-12-31 00:00:00,2013-02-01 00:00:00,625.9211964110241,29.049059712989486,301.26609616869234,4.249224527820324
sh600732,2013-04-12,5.06,5.26,5.05,5.14,0.005871,20948345.0,107950972.0,2294409030.0,2294409030.0,0.04692907493482101,24.99,2012-12-31 00:00:00,2013-02-01 00:00:00,608.1728870482938,28.22535905955451,292.72354495623455,4.128735635761886
sh600732,2013-04-11,5.2,5.28,5.09,5.11,-0.028517,25169001.0,130104061.0,2281017540.0,2281017540.0,0.05638430781641425,24.84,2012-12-31 00:00:00,2013-02-01 00:00:00,604.6231445665435,28.060615187787008,291.01499591521633,4.104637310114205
sh600732,2013-04-10,5.15,5.45,5.11,5.26,0.007663,49030285.0,259874401.0,2347975000.0,2347975000.0,0.10983903112256306,25.57,2012-12-31 00:00:00,2013-02-01 00:00:00,622.3713071320276,28.884309028348426,299.55747647176156,4.225125205602368
sh600732,2013-04-09,5.01,5.23,5.01,5.22,0.031620999999999996,30210198.0,155120544.0,2330119680.0,2330119680.0,0.06767773986613425,25.38,2012-12-31 00:00:00,2013-02-01 00:00:00,617.6383444981384,28.664651801592818,297.2794242437815,4.192994290355375
sh600732,2013-04-08,5.0,5.13,4.78,5.06,-0.025047999999999997,32250648.0,160057024.0,2258698380.0,2258698380.0,0.07224881388545557,24.6,2012-12-31 00:00:00,2013-02-01 00:00:00,598.7066417784616,27.786029754718854,288.16728647805877,4.064471632852932
sh600732,2013-04-03,5.25,5.32,5.13,5.19,-0.01518,23937601.0,125118787.0,2316728190.0,2316728190.0,0.053625690629680645,25.23,2012-12-31 00:00:00,2013-02-01 00:00:00,614.0883261724287,28.499895127882045,295.57074243455963,4.16889409207113
sh600732,2013-04-02,5.18,5.28,5.13,5.27,0.015413999999999999,25573183.0,133301432.0,2352438830.0,2352438830.0,0.05728976783213529,25.62,2012-12-31 00:00:00,2013-02-01 00:00:00,623.5538739794364,28.939192063404523,300.12666521248514,4.2331533600771
sh600732,2013-04-01,5.1,5.27,5.07,5.19,0.0077670000000000005,25476737.0,132553218.0,2316728190.0,2316728190.0,0.05707370661812511,25.23,2012-12-31 00:00:00,2013-02-01 00:00:00,614.0883166663415,28.499894686703676,295.5707378591246,4.168894027536651
sh600732,2013-03-29,5.18,5.29,5.12,5.15,-0.02277,32568553.0,169217404.0,2298872860.0,2298872860.0,0.07296099356708226,25.04,2012-12-31 00:00:00,2013-02-01 00:00:00,609.3554528639472,28.280242046726748,293.2927332003574,4.136763783232285
sh600732,2013-03-28,5.69,5.69,5.27,5.27,-0.09914500000000001,58802770.0,314739525.0,2352438830.0,2352438830.0,0.13173162844791164,25.62,2012-12-31 00:00:00,2013-02-01 00:00:00,623.5537722582679,28.939187342515833,300.12661625242515,4.2331526695171915
sh600732,2013-03-27,5.9,6.08,5.78,5.85,0.012111,51534781.0,304703957.0,2611341020.0,2611341020.0,0.11544967376570371,28.44,2012-12-31 00:00:00,2013-02-01 00:00:00,692.1799537753222,32.124134674854254,333.1575184157552,4.699038879194977
sh600732,2013-03-26,5.75,5.87,5.68,5.78,-0.011966,30836985.0,178043902.0,2580094200.0,2580094200.0,0.06908188596369853,28.1,2012-12-31 00:00:00,2013-02-01 00:00:00,683.8972738912257,31.739734747329354,329.17092929111055,4.6428098095910215
sh600732,2013-03-25,6.01,6.06,5.78,5.85,-0.042553,74288909.0,437531980.0,2611341020.0,2611341020.0,0.16642411478298608,28.44,2012-12-31 00:00:00,2013-02-01 00:00:00,692.1798985573631,32.124132112183744,333.15749183844946,4.69903850433388
sh600732,2013-03-22,5.95,6.38,5.91,6.11,0.02862,88300299.0,545043374.0,2727400620.0,2727400620.0,0.19781282695829264,29.71,2012-12-31 00:00:00,2013-02-01 00:00:00,722.943305015696,33.55186460679676,347.96442188282947,4.907883678505317
sh600732,2013-03-21,5.89,6.01,5.86,5.94,-0.01,54506916.0,322904306.0,2651515500.0,2651515500.0,0.12210793451518576,28.88,2012-12-31 00:00:00,2013-02-01 00:00:00,702.8283574261592,32.61832805778301,338.28276903310206,4.771328263601054
sh600732,2013-03-20,5.72,6.03,5.63,6.0,0.022147,84044386.0,488011022.0,2678298480.0,2678298480.0,0.18827861038102073,29.17,2012-12-31 00:00:00,2013-02-01 00:00:00,709.9276337637971,32.947806118972736,341.69976670010305,4.819523498586923
sh600732,2013-03-19,5.82,5.94,5.56,5.87,0.017331,58100733.0,334817621.0,2620268680.0,2620268680.0,0.13015890519669915,28.54,2012-12-31 00:00:00,2013-02-01 00:00:00,694.5455338261495,32.233921460389496,334.29611073564087,4.715098218345232
sh600732,2013-03-18,5.8,5.98,5.65,5.77,-0.026981,49530641.0,288004253.0,2575630370.0,2575630370.0,0.11095994281586297,28.05,2012-12-31 00:00:00,2013-02-01 00:00:00,682.7134274156095,31.68479232461165,328.60112464442824,4.634772968036196
sh600732,2013-03-15,5.86,6.1,5.82,5.93,0.0,38602229.0,230924772.0,2647051660.0,2647051660.0,0.08647780526126943,28.83,2012-12-31 00:00:00,2013-02-01 00:00:00,701.6444976055036,32.56338501572081,337.7129579632343,4.76329133145005
sh600732,2013-03-14,6.01,6.14,5.91,5.93,-0.021452000000000002,38520387.0,232071479.0,2647051660.0,2647051660.0,0.08629446049798664,28.83,2012-12-31 00:00:00,2013-02-01 00:00:00,701.6444976055036,32.56338501572081,337.7129579632343,4.76329133145005
sh600732,2013-03-13,6.05,6.18,5.85,6.06,-0.019417,60989945.0,365346989.0,2705081460.0,2705081460.0,0.13663139989137332,29.46,2012-12-31 00:00:00,2013-02-01 00:00:00,717.0261424125374,33.27724855165083,345.1163948658976,4.867713521922329
sh600732,2013-03-12,6.14,6.2,5.97,6.18,0.001621,43081503.0,263084946.0,2758647430.0,2758647430.0,0.09651240156484947,30.05,2012-12-31 00:00:00,2013-02-01 00:00:00,731.2243251336577,33.93618750442423,351.95021213492134,4.964101480366606
sh600732,2013-03-11,6.24,6.24,6.0,6.17,-0.026813999999999998,55077363.0,336042228.0,2754183600.0,2754183600.0,0.12338586639975635,30.0,2012-12-31 00:00:00,2013-02-01 00:00:00,730.0409287880921,33.88126597228316,351.3806241431852,4.956067694633605
sh600732,2013-03-08,6.6,6.63,6.28,6.34,-0.053730999999999994,46320067.0,298868234.0,2830068730.0,2830068730.0,0.10376752397105211,30.82,2012-12-31 00:00:00,2013-02-01 00:00:00,750.155601075326,34.81478974449197,361.0621444854172,5.0926212405784765
sh600732,2013-03-07,7.05,7.33,6.6,6.7,-0.053672000000000004,80342842.0,566041080.0,2990766640.0,2990766640.0,0.17998630658793227,32.57,2012-12-31 00:00:00,2013-02-01 00:00:00,792.7508996652389,36.791641430176796,381.5639574850462,5.381790210371973
sh600732,2013-03-06,7.07,7.28,6.8,7.08,-0.035422,88146010.0,621002396.0,3160392210.0,3160392210.0,0.19746718423913592,34.42,2012-12-31 00:00:00,2013-02-01 00:00:00,837.7126109184542,38.87831854301764,403.2047635545458,5.687024171716332
sh600732,2013-03-05,6.78,7.45,6.4,7.34,0.076151,84293076.0,588266756.0,3276451810.0,3276451810.0,0.18883573259086023,35.68,2012-12-31 00:00:00,2013-02-01 00:00:00,868.4757592630706,40.30603905854958,418.01156936457784,5.895867593617449
sh600732,2013-03-01,11.35,12.83,11.28,12.37,0.030833,40271224.0,487163538.0,3067643720.0,3067643720.0,0.1623901229573035,33.16,2012-12-31 00:00:00,2013-02-01 00:00:00,807.0203524069303,37.45388803109376,388.43207817915686,5.4786620033967806
sh600732,2013-02-28,11.92,12.5,11.53,12.0,0.056338,46244048.0,563442212.0,2975887200.0,2975887200.0,0.18647500348803545,32.17,2012-12-31 00:00:00,2013-02-01 00:00:00,782.8817591277448,36.33361371928699,376.81377893330625,5.3147910509236524
sh600732,2013-02-27,11.05,11.69,10.85,11.36,0.068674,30523837.0,344525634.0,2817173220.0,2817173220.0,0.12308465303386633,30.45,2012-12-31 00:00:00,2013-02-01 00:00:00,741.128085071014,34.3958219048136,356.717053569318,5.031335662376675
sh600732,2013-02-26,10.1,10.63,10.08,10.63,0.100414,11144451.0,116431526.0,2636140080.0,2636140080.0,0.04493900571854285,28.5,2012-12-31 00:00:00,2013-02-01 00:00:00,693.502494746774,32.18551392175126,333.7940789888386,4.708017283452835
sh600732,2013-02-25,9.47,10.06,9.42,9.66,0.005203,12985310.0,126608885.0,2395589200.0,2395589200.0,0.052362105573025626,25.9,2012-12-31 00:00:00,2013-02-01 00:00:00,630.2196216576434,29.248550020039055,303.3349984540714,4.2784054759870696
sh600732,2013-02-22,9.5,9.79,9.29,9.61,0.00418,14042685.0,133735163.0,2383189670.0,2383189670.0,0.056625876047037414,25.76,2012-12-31 00:00:00,2013-02-01 00:00:00,626.9575614653393,29.097157509517036,301.76491559821386,4.256260154403707
sh600732,2013-02-21,9.48,9.87,9.27,9.57,-0.00829,12933790.0,123980824.0,2373270040.0,2373270040.0,0.05215435589453613,25.65,2012-12-31 00:00:00,2013-02-01 00:00:00,624.3477877127001,28.976037672047873,300.50878886077584,4.238543044477789
sh600732,2013-02-20,9.36,9.78,9.16,9.65,0.034298,17113436.0,162961628.0,2393109290.0,2393109290.0,0.06900840596377443,25.87,2012-12-31 00:00:00,2013-02-01 00:00:00,629.5668972912446,29.218257022766608,303.0208315543615,4.273974291353107
sh600732,2013-02-19,9.66,9.69,9.15,9.33,-0.008502,21430876.0,201546319.0,2313752300.0,2313752300.0,0.08641809803063188,25.01,2012-12-31 00:00:00,2013-02-01 00:00:00,608.6900460904347,28.24936045778548,292.9724620509384,4.132246500866391
sh600732,2013-02-18,8.89,9.41,8.82,9.41,0.10058500000000001,24755713.0,229081273.0,2333591550.0,2333591550.0,0.09982520691335209,25.23,2012-12-31 00:00:00,2013-02-01 00:00:00,613.909504699389,28.491596007037316,295.48467273856164,4.167680117223021
sh600732,2013-02-08,7.74,8.55,7.74,8.55,0.100386,12091004.0,99827326.0,2120319630.0,2120319630.0,0.04875589639284716,22.92,2012-12-31 00:00:00,2013-02-01 00:00:00,557.8029000026249,25.8876833747846,268.47964740439096,3.786786224801375
sh600732,2013-02-07,7.63,7.85,7.61,7.77,0.011719,6870675.0,53070203.0,1926886960.0,1926886960.0,0.027705384829632144,20.83,2012-12-31 00:00:00,2013-02-01 00:00:00,506.9156641420601,23.526002125421993,243.98678954875015,3.4413253392912804
sh600732,2013-02-06,7.67,7.78,7.49,7.68,-0.0013,7606990.0,58116872.0,1904567810.0,1904567810.0,0.030674509404839723,20.59,2012-12-31 00:00:00,2013-02-01 00:00:00,501.0439303226094,23.25349442426404,241.1606281474897,3.401463587509259
sh600732,2013-02-05,7.56,7.8,7.35,7.69,0.005229,9668503.0,73245138.0,1907047710.0,1907047710.0,0.03898737702267554,20.61,2012-12-31 00:00:00,2013-02-01 00:00:00,501.69613529849744,23.283763316575588,241.47454505606257,3.4058912461292272
sh600732,2013-02-04,8.1,8.15,7.62,7.65,-0.040151,9929708.0,78064883.0,1897128090.0,1897128090.0,0.04004066283157507,20.51,2012-12-31 00:00:00,2013-02-01 00:00:00,499.0864124478079,23.16264584147054,240.2184428185643,3.388174481764083
sh600732,2013-02-01,8.71,8.8,7.88,7.97,-0.042067,19489946.0,159859578.0,1976485080.0,1976485080.0,0.07859147088527478,21.36,2012-12-31 00:00:00,2013-02-01 00:00:00,519.9634655532359,24.131551776863382,250.26690950197826,3.529903642931423
sh600732,2013-01-31,8.46,8.82,8.29,8.32,-0.015385,5486358.0,46943634.0,2063281790.0,2063281790.0,0.02212324985430129,22.3,2012-09-30 00:00:00,2012-10-27 00:00:00,-63.33114671719189,42.59902698373466,-14.042255151282104,3.7270431047926116
sh600732,2013-01-30,8.36,8.53,8.36,8.45,0.008353,2881760.0,24376924.0,2095520570.0,2095520570.0,0.011620440452178428,22.65,2012-09-30 00:00:00,2012-10-27 00:00:00,-64.32072100992966,43.264653680610856,-14.261670958986105,3.785279631929852
sh600732,2013-01-29,8.34,8.46,8.26,8.38,0.004796,3230547.0,27046444.0,2078161230.0,2078161230.0,0.01302689294227667,22.46,2012-09-30 00:00:00,2012-10-27 00:00:00,-63.787900675586485,42.90625770995957,-14.143530052457924,3.7539231121738643
sh600732,2013-01-28,8.03,8.38,8.02,8.34,0.038605,3403257.0,28039742.0,2068241600.0,2068241600.0,0.013723330668912181,22.36,2012-09-30 00:00:00,2012-10-27 00:00:00,-63.48343412552049,42.701461500602676,-14.07602145356662,3.736005231085578
sh600732,2013-01-25,7.97,8.08,7.91,8.03,0.0,2571773.0,20546756.0,1991364520.0,1991364520.0,0.010370445482276645,21.53,2012-09-30 00:00:00,2012-10-27 00:00:00,-61.12375169147124,41.11424603251734,-13.552815029358245,3.5971377290553943
sh600732,2013-01-24,8.27,8.35,7.96,8.03,-0.030193,4466078.0,36163963.0,1991364520.0,1991364520.0,0.018009061615700574,21.53,2012-09-30 00:00:00,2012-10-27 00:00:00,-61.12375169147124,41.11424603251734,-13.552815029358245,3.5971377290553943
sh600732,2013-01-23,8.05,8.35,7.92,8.28,0.024752,5341041.0,43462428.0,2053362170.0,2053362170.0,0.02153727195626673,22.2,2012-09-30 00:00:00,2012-10-27 00:00:00,-63.02671736899325,42.394255797820946,-13.974754801066855,3.709127413037227
sh600732,2013-01-22,8.23,8.48,8.05,8.08,-0.024155000000000003,6392571.0,52568615.0,2003764050.0,2003764050.0,0.025777472991393373,21.66,2012-09-30 00:00:00,2012-10-27 00:00:00,-61.50436141524315,41.370259143501016,-13.637206661774611,3.619536642072645
sh600732,2013-01-21,8.16,8.3,8.03,8.28,0.002421,5039449.0,41172700.0,2053362170.0,2053362170.0,0.020321129087519908,22.2,2012-09-30 00:00:00,2012-10-27 00:00:00,-63.02677311995568,42.39429329811703,-13.974767162586897,3.7091306939858737
sh600732,2013-01-18,8.03,8.56,8.02,8.26,0.012255,13602977.0,112894817.0,2048402360.0,2048402360.0,0.05485279270035599,22.14,2012-09-30 00:00:00,2012-10-27 00:00:00,-62.87455382514501,42.29190459708748,-13.941015962940618,3.700172576178945
sh600732,2013-01-17,8.8,8.82,8.11,8.16,-0.021583,15202083.0,129907678.0,2023603300.0,2023603300.0,0.06130104516038297,21.87,2012-09-30 00:00:00,2012-10-27 00:00:00,-62.11335466374087,41.77989202037776,-13.772237196102385,3.655375943985404
sh600732,2013-01-16,7.36,8.34,7.36,8.34,0.10026399999999999,9444742.0,76861191.0,2068241600.0,2068241600.0,0.03808508071784263,22.36,2012-09-30 00:00:00,2012-10-27 00:00:00,-63.48351946433972,42.70151890285815,-14.076040375527395,3.7360102532819894
sh600732,2013-01-15,7.35,7.66,7.22,7.58,0.041208999999999996,7882763.0,58748641.0,1879768750.0,1879768750.0,0.031786539455983615,20.32,2012-09-30 00:00:00,2012-10-27 00:00:00,-57.69844279585602,38.8102481793989,-12.79332994220241,3.3955580236034164
sh600732,2013-01-14,7.05,7.32,7.05,7.28,0.025352,5540874.0,39902801.0,1805371570.0,1805371570.0,0.022343080721050682,19.52,2012-09-30 00:00:00,2012-10-27 00:00:00,-55.41485215346392,37.2742150513479,-12.286995158707244,3.2611685296644732
sh600732,2013-01-11,7.13,7.17,7.0,7.1,-0.004208,4315721.0,30520577.0,1760733260.0,1760733260.0,0.01740276042720974,19.03,2012-09-30 00:00:00,2012-10-27 00:00:00,-54.04471064908823,36.352603838825985,-11.983197144694937,3.180535591352504
sh600732,2013-01-10,7.09,7.29,7.09,7.13,-0.005579,4537265.0,32493133.0,1768172980.0,1768172980.0,0.018296116848250898,19.11,2012-09-30 00:00:00,2012-10-27 00:00:00,-54.27309181946454,36.506222021090736,-12.033835524582381,3.1939758416943542
sh600732,2013-01-09,7.08,7.19,6.92,7.17,0.012712000000000001,4944679.0,34838680.0,1778092600.0,1778092600.0,0.019938977548188436,19.22,2012-09-30 00:00:00,2012-10-27 00:00:00,-54.57758013906035,36.711032873491945,-12.101348950376531,3.2118950039212306
sh600732,2013-01-08,7.03,7.15,7.0,7.08,0.0,4577307.0,32260734.0,1755773450.0,1755773450.0,0.01845758264541476,18.98,2012-09-30 00:00:00,2012-10-27 00:00:00,-53.89249869564136,36.25022007588726,-11.949447572830705,3.1715779055854285
sh600732,2013-01-07,6.82,7.4,6.82,7.08,0.038123000000000004,9041636.0,64288967.0,1755773450.0,1755773450.0,0.036459591572022006,18.98,2012-09-30 00:00:00,2012-10-27 00:00:00,-53.89249869564136,36.25022007588726,-11.949447572830705,3.1715779055854285
sh600732,2013-01-04,7.03,7.03,6.8,6.82,-0.022923,4518045.0,31133725.0,1691295890.0,1691295890.0,0.018218613952878465,18.28,2012-09-30 00:00:00,2012-10-27 00:00:00,-51.913403995134836,34.91900292729018,-11.510627905200739,3.0551080224457303
