code,date,open,high,low,close,change,volume,money,traded_market_value,market_value,turnover,adjust_price,report_type,report_date,PE_TTM,PS_TTM,PC_TTM,PB
sh601599,2014-12-31,9.35,9.51,9.18,9.33,-0.004268999999999999,2970112.0,27581543.0,2966940000.0,3521395060.0,0.009339974842767296,14.4,2014-09-30 00:00:00,2014-10-31 00:00:00,82.24700228526754,1.3736892470869841,13.200663416600356,3.0181836948639753
sh601599,2014-12-30,9.8,9.84,9.32,9.37,-0.042901,2903314.0,27547916.0,2979660000.0,3536492140.0,0.009129918238993711,14.46,2014-09-30 00:00:00,2014-10-31 00:00:00,82.59962006331784,1.3795786684224798,13.257258653793398,3.031123561347367
sh601599,2014-12-29,9.73,9.95,9.66,9.79,0.006166,2830628.0,27813262.0,3113220000.0,3695011530.0,0.008901345911949686,15.11,2014-09-30 00:00:00,2014-10-31 00:00:00,86.3020649518157,1.4414168946185084,13.85150193845506,3.1669906262020615
sh601599,2014-12-26,9.8,9.85,9.67,9.73,-0.007143000000000001,3001913.0,29308852.0,3094140000.0,3672365910.0,0.009439977987421383,15.02,2014-09-30 00:00:00,2014-10-31 00:00:00,85.77318747782742,1.4325835842380965,13.76661697816768,3.1475826316950304
sh601599,2014-12-25,9.58,9.94,9.55,9.8,0.027254,3298360.0,32348065.0,3116400000.0,3698785810.0,0.010372201257861636,15.12,2014-09-30 00:00:00,2014-10-31 00:00:00,86.39027319928994,1.4428901485693268,13.865659383141457,3.170227567207594
sh601599,2014-12-24,9.33,9.56,9.33,9.54,0.024705,2969981.0,28104424.0,3033720000.0,3600654750.0,0.00933956289308176,14.72,2014-09-30 00:00:00,2014-10-31 00:00:00,84.09825924191088,1.4046089366109324,13.497790598178693,3.086118493778163
sh601599,2014-12-23,9.31,9.46,9.27,9.31,0.0,3926293.0,36637354.0,2960580000.0,3513846520.0,0.012346833333333333,14.37,2014-09-30 00:00:00,2014-10-31 00:00:00,82.07070253576481,1.3707446890675195,13.172367264899354,3.0117140970114944
sh601599,2014-12-22,9.9,9.93,9.3,9.31,-0.064322,6029396.0,57453265.0,2960580000.0,3513846520.0,0.018960364779874214,14.37,2014-09-30 00:00:00,2014-10-31 00:00:00,82.07070253576481,1.3707446890675195,13.172367264899354,3.0117140970114944
sh601599,2014-12-19,10.2,10.29,9.81,9.95,-0.02451,6203879.0,61947725.0,3164100000.0,3755399870.0,0.019509053459119498,15.36,2014-09-30 00:00:00,2014-10-31 00:00:00,87.71254912027942,1.4649747980261578,14.077884982760471,3.21875057125581
sh601599,2014-12-18,10.3,10.37,10.18,10.2,-0.016393,4149215.0,42573460.0,3243600000.0,3849756650.0,0.013047845911949685,15.74,2014-09-30 00:00:00,2014-10-31 00:00:00,89.916400086397,1.5017835119028977,14.431603586669748,3.299624364427939
sh601599,2014-12-17,10.25,10.49,10.18,10.37,0.006795999999999999,5588531.0,57733040.0,3297660000.0,3913919270.0,0.017573996855345914,16.0,2014-09-30 00:00:00,2014-10-31 00:00:00,91.4149656177691,1.5268125500356318,14.672123710658573,3.354616594257604
sh601599,2014-12-16,10.41,10.51,10.28,10.3,-0.019048,6427757.0,66468188.0,3275400000.0,3887499370.0,0.020213072327044026,15.9,2014-09-30 00:00:00,2014-10-31 00:00:00,90.79790306851545,1.516506372726582,14.57308502482983,3.331972509085856
sh601599,2014-12-15,10.62,10.77,10.03,10.5,-0.02507,11274273.0,117572305.0,3339000000.0,3962984790.0,0.03545368867924528,16.2,2014-09-30 00:00:00,2014-10-31 00:00:00,92.56100509353715,1.5459536987809617,14.856063318928785,3.3966723235039598
sh601599,2014-12-12,10.6,10.8,10.5,10.77,0.007484,7815065.0,83443796.0,3424860000.0,4064890110.0,0.02457567610062893,16.62,2014-09-30 00:00:00,2014-10-31 00:00:00,94.94118048838085,1.5857073828694999,15.23808203556028,3.484016620171663
sh601599,2014-12-11,11.18,11.2,10.5,10.69,-0.043828,9236803.0,99862102.0,3399420000.0,4034695940.0,0.02904655031446541,16.5,2014-09-30 00:00:00,2014-10-31 00:00:00,94.2359188715462,1.5739281049321874,15.124887378420183,3.4581359308650685
sh601599,2014-12-10,10.98,11.19,10.36,11.18,0.028519,9282333.0,100652636.0,3555240000.0,4219635240.0,0.02918972641509434,17.25,2014-09-30 00:00:00,2014-10-31 00:00:00,98.55540516930657,1.6460721553571818,15.818165955936987,3.6166463051261366
sh601599,2014-12-09,11.83,11.83,10.58,10.87,0.011163,24528652.0,279040400.0,3456660000.0,4102632830.0,0.07713412578616352,16.77,2014-09-30 00:00:00,2014-10-31 00:00:00,95.82263931857999,1.600429506267927,15.379556387326815,3.516363144605143
sh601599,2014-11-24,10.73,10.84,10.65,10.75,0.004673,5767178.0,62029063.0,3418500000.0,3879753480.0,0.018135779874213838,16.59,2014-09-30 00:00:00,2014-10-31 00:00:00,94.76478007856298,1.582761143621678,15.209769727854772,3.47754332842988
sh601599,2014-11-21,10.38,10.71,10.31,10.7,0.030829000000000002,4026834.0,42224351.0,3402600000.0,3861708110.0,0.012663,16.51,2014-09-30 00:00:00,2014-10-31 00:00:00,94.32400400783439,1.5753993026802535,15.139025063731955,3.4613683541111193
sh601599,2014-11-20,10.53,10.55,10.35,10.38,-0.017044999999999998,3104243.0,32382240.0,3300840000.0,3746217770.0,0.009761770440251573,16.02,2014-09-30 00:00:00,2014-10-31 00:00:00,91.50305628560545,1.528283840171603,14.686262283785142,3.3578492204925543
sh601599,2014-11-19,10.66,10.69,10.52,10.56,-0.010309,3442696.0,36531687.0,3358080000.0,3811181090.0,0.010826088050314465,16.3,2014-09-30 00:00:00,2014-10-31 00:00:00,93.08977143979679,1.5547851531063,14.940930443189304,3.4160762400034126
sh601599,2014-11-18,10.56,10.74,10.56,10.67,0.010417000000000001,3683941.0,39308680.0,3393060000.0,3850880890.0,0.011584720125786164,16.47,2014-09-30 00:00:00,2014-10-31 00:00:00,94.05943010474662,1.570980389946256,15.09656088939811,3.4516593967242426
sh601599,2014-11-17,10.5,10.78,10.47,10.56,0.008596,4544988.0,48186776.0,3358080000.0,3811181090.0,0.014292415094339622,16.3,2014-09-30 00:00:00,2014-10-31 00:00:00,93.08971454829702,1.5547842029045988,14.940921312090069,3.416074152279943
sh601599,2014-11-14,10.4,10.56,10.38,10.47,0.0019140000000000001,3672450.0,38434843.0,3329460000.0,3778699430.0,0.011548584905660377,16.16,2014-09-30 00:00:00,2014-10-31 00:00:00,92.29633525048386,1.5415331836578758,14.813583746207668,3.3869598454484677
sh601599,2014-11-13,10.43,10.5,10.18,10.45,0.005775,4808445.0,49808658.0,3323100000.0,3771481290.0,0.015120896226415095,16.13,2014-09-30 00:00:00,2014-10-31 00:00:00,92.12001753691821,1.5385883256026724,14.785284711270297,3.380489588376316
sh601599,2014-11-12,10.11,10.46,9.98,10.39,0.029731999999999998,4189015.0,43349502.0,3304020000.0,3749826850.0,0.013173003144654088,16.03,2014-09-30 00:00:00,2014-10-31 00:00:00,91.59107905537343,1.5297539962741888,14.700389959255595,3.3610793551006095
sh601599,2014-11-11,10.47,10.51,9.9,10.09,-0.039048,5025516.0,51179289.0,3208620000.0,3641554660.0,0.015803509433962266,15.57,2014-09-30 00:00:00,2014-10-31 00:00:00,88.94652109031612,1.485584595092887,14.275937777262039,3.264033122308143
sh601599,2014-11-10,10.42,10.56,10.42,10.5,0.004785,2998028.0,31421878.0,3339000000.0,3789526650.0,0.009427761006289307,16.2,2014-09-30 00:00:00,2014-10-31 00:00:00,92.56083663941187,1.5459508852605404,14.856036282001636,3.3966661418136836
sh601599,2014-11-07,10.63,10.65,10.33,10.45,-0.007597,4400611.0,46162614.0,3323100000.0,3771481290.0,0.013838399371069182,16.13,2014-09-30 00:00:00,2014-10-31 00:00:00,92.12004223730635,1.5385887381484995,14.785288675688465,3.380490494796084
sh601599,2014-11-06,10.42,10.53,10.4,10.53,0.008621,2697684.0,28205036.0,3348540000.0,3800353870.0,0.008483283018867924,16.25,2014-09-30 00:00:00,2014-10-31 00:00:00,92.82523555179333,1.550366875300155,14.898472370285525,3.406368677640116
sh601599,2014-11-05,10.5,10.6,10.36,10.44,-0.004765999999999999,3501475.0,36729806.0,3319920000.0,3767872210.0,0.011010927672955974,16.11,2014-09-30 00:00:00,2014-10-31 00:00:00,92.03182915266817,1.5371154034073797,14.771130454636106,3.3772533762831785
sh601599,2014-11-04,10.8,10.85,10.37,10.49,-0.037614999999999996,14660505.0,154117886.0,3335820000.0,3335820000.0,0.04610221698113207,16.19,2014-09-30 00:00:00,2014-10-31 00:00:00,92.47255334189565,1.5444763778240895,14.841866791765662,3.3934264467282858
sh601599,2014-11-03,10.89,11.09,10.81,10.9,0.0036829999999999996,5657685.0,61794792.0,3466200000.0,3466200000.0,0.017791462264150945,16.82,2014-09-30 00:00:00,2014-10-31 00:00:00,96.08686060349615,1.6048425295740159,15.421963966360304,3.5260591621110944
sh601599,2014-10-31,10.96,11.05,10.65,10.86,-0.007312999999999999,6100209.0,65904893.0,3453480000.0,3453480000.0,0.01918304716981132,16.76,2014-09-30 00:00:00,2014-10-31 00:00:00,95.7342712823632,1.59895358352589,15.365373296509258,3.513120339899245
sh601599,2014-10-30,10.7,11.09,10.69,10.94,0.031103,9973258.0,108982839.0,3478920000.0,3478920000.0,0.0313624465408805,16.88,2014-06-30 00:00:00,2014-08-09 00:00:00,143.12727141824382,1.7364671320923697,21.52229750967175,3.5618608513801795
sh601599,2014-10-29,10.55,10.68,10.42,10.61,0.007597,5747861.0,60732222.0,3373980000.0,3373980000.0,0.018075034591194968,16.37,2014-06-30 00:00:00,2014-08-09 00:00:00,138.80986809100915,1.6840869749116911,20.873082039012342,3.4544180856618385
sh601599,2014-10-28,10.29,10.6,10.25,10.53,0.028319999999999998,4711380.0,49322406.0,3348540000.0,3348540000.0,0.014815660377358491,16.25,2014-06-30 00:00:00,2014-08-09 00:00:00,137.76328044943477,1.6713894294164144,20.715704829423213,3.428372737971469
sh601599,2014-10-27,10.18,10.34,10.09,10.24,0.006883,3177050.0,32411471.0,3256320000.0,3256320000.0,0.009990723270440252,15.8,2014-06-30 00:00:00,2014-08-09 00:00:00,133.96927070312236,1.6253592553061444,20.14519296466393,3.3339551287259503
sh601599,2014-10-24,10.15,10.28,10.05,10.17,0.011940000000000001,3367803.0,34229011.0,3234060000.0,3234060000.0,0.010590575471698113,15.69,2014-06-30 00:00:00,2014-08-09 00:00:00,133.05346371238997,1.6142483836812664,20.007481469707933,3.3111643842690266
sh601599,2014-10-23,10.26,10.37,10.02,10.05,-0.023324,3910900.0,39720589.0,3195900000.0,3195900000.0,0.012298427672955975,15.51,2014-06-30 00:00:00,2014-08-09 00:00:00,131.48355012391048,1.595201675673722,19.771410824463832,3.272095563243894
sh601599,2014-10-22,10.47,10.63,10.25,10.29,-0.016252000000000003,4746295.0,49544239.0,3272220000.0,3272220000.0,0.014925455974842768,15.88,2014-06-30 00:00:00,2014-08-09 00:00:00,134.6235088441924,1.6332966876156698,20.243571895351,3.3502364788772265
sh601599,2014-10-21,10.63,10.7,10.46,10.46,-0.015992,5911773.0,62515602.0,3326280000.0,3326280000.0,0.01859048113207547,16.14,2014-06-30 00:00:00,2014-08-09 00:00:00,136.84755531314158,1.6602795508765147,20.578005643062042,3.405584030541588
sh601599,2014-10-20,10.28,10.67,10.15,10.63,0.034047,6795862.0,70959477.0,3380340000.0,3380340000.0,0.021370635220125785,16.4,2014-06-30 00:00:00,2014-08-09 00:00:00,139.07158815085,1.6872622487586635,20.91243734101963,3.460931242979314
sh601599,2014-10-17,10.26,10.37,9.98,10.28,-0.0009720000000000001,5274423.0,53511839.0,3269040000.0,3269040000.0,0.016586235849056604,15.86,2014-06-30 00:00:00,2014-08-09 00:00:00,134.49252127886834,1.6317075033907196,20.223875066626206,3.3469767263763774
sh601599,2014-10-16,10.1,10.59,10.07,10.29,0.017804,8596328.0,89632024.0,3272220000.0,3272220000.0,0.027032477987421383,15.88,2014-06-30 00:00:00,2014-08-09 00:00:00,134.62337519956233,1.6332950661950614,20.24355179897481,3.3502331530010943
sh601599,2014-10-15,10.11,10.2,9.93,10.11,0.0,5562589.0,56064289.0,3214980000.0,3214980000.0,0.01749241823899371,15.6,2014-06-30 00:00:00,2014-08-09 00:00:00,132.26846740586825,1.6047245503014935,19.889440205555108,3.2916289904550333
sh601599,2014-10-14,10.31,10.52,10.06,10.11,-0.01462,7421014.0,76047942.0,3214980000.0,3214980000.0,0.023336522012578617,15.6,2014-06-30 00:00:00,2014-08-09 00:00:00,132.26846740586825,1.6047245503014935,19.889440205555108,3.2916289904550333
sh601599,2014-10-13,10.13,10.6,10.13,10.26,0.004897,10503633.0,108724039.0,3262680000.0,3262680000.0,0.033030292452830186,15.83,2014-06-30 00:00:00,2014-08-09 00:00:00,134.2309235075486,1.6285337131883064,20.184538153357188,3.340466612327257
sh601599,2014-10-10,9.96,10.33,9.85,10.21,0.017946,12462589.0,124916752.0,3246780000.0,3246780000.0,0.03919053144654088,15.76,2014-06-30 00:00:00,2014-08-09 00:00:00,133.57679792809472,1.6205976465133305,20.086176148756724,3.324188063380881
sh601599,2014-10-09,9.8,10.05,9.75,10.03,0.025562,12219497.0,121697943.0,3189540000.0,3189540000.0,0.03842609119496855,15.48,2014-06-30 00:00:00,2014-08-09 00:00:00,131.22188989209127,1.5920271276799858,19.73206451890054,3.265583894804716
sh601599,2014-10-08,9.3,9.79,9.28,9.78,0.053878999999999996,11615793.0,110739233.0,3110040000.0,3110040000.0,0.036527650943396224,15.09,2014-06-30 00:00:00,2014-08-09 00:00:00,127.95120128484797,1.5523460577517356,19.240245366833538,3.1841896392463016
sh601599,2014-09-30,9.36,9.41,9.18,9.28,-0.008546999999999999,7779990.0,72131161.0,2951040000.0,2951040000.0,0.024465377358490567,14.32,2014-06-30 00:00:00,2014-08-09 00:00:00,121.4097645790911,1.4729831961275777,18.256598116893436,3.0213996476315605
sh601599,2014-09-29,9.33,9.39,9.29,9.36,0.004292,4721748.0,44114693.0,2976480000.0,2976480000.0,0.014848264150943397,14.44,2014-06-30 00:00:00,2014-08-09 00:00:00,122.45639942497638,1.48568131432108,18.41398242467715,3.047446170046952
sh601599,2014-09-26,9.29,9.4,9.22,9.32,0.0053939999999999995,2908114.0,27075340.0,2963760000.0,2963760000.0,0.009145012578616352,14.38,2014-06-30 00:00:00,2014-08-09 00:00:00,121.93306271978308,1.479332021285722,18.33528737127962,3.0344224289817623
sh601599,2014-09-25,9.33,9.44,9.25,9.27,-0.0032259999999999997,3863325.0,36177207.0,2947860000.0,2947860000.0,0.012148820754716981,14.31,2014-06-30 00:00:00,2014-08-09 00:00:00,121.27888441723654,1.471395314956845,18.23691743861573,3.0181425679701324
sh601599,2014-09-24,9.2,9.35,9.2,9.3,0.0021550000000000002,3180566.0,29540579.0,2957400000.0,2957400000.0,0.010001779874213837,14.35,2014-06-30 00:00:00,2014-08-09 00:00:00,121.67139634183528,1.476157398725132,18.295940141512247,3.0279106075902176
sh601599,2014-09-23,9.31,9.33,9.22,9.28,0.0010789999999999999,2521447.0,23370635.0,2951040000.0,2951040000.0,0.007929078616352201,14.32,2014-06-30 00:00:00,2014-08-09 00:00:00,121.40975831267149,1.472983120101314,18.256597174600984,3.021399491685636
sh601599,2014-09-22,9.35,9.35,9.1,9.27,-0.008556,2822239.0,26028596.0,2947860000.0,2947860000.0,0.008874965408805032,14.31,2014-06-30 00:00:00,2014-08-09 00:00:00,121.27889838131802,1.4713954843736743,18.236919538419027,3.018142915479832
sh601599,2014-09-19,9.16,9.37,9.13,9.35,0.025219,3874111.0,35934741.0,2973300000.0,2973300000.0,0.012182738993710692,14.43,2014-06-30 00:00:00,2014-08-09 00:00:00,122.32551549186643,1.4840933873962368,18.394301179309196,3.044188996534179
sh601599,2014-09-18,9.15,9.24,9.08,9.12,-0.008695999999999999,4122052.0,37660827.0,2900160000.0,2900160000.0,0.012962427672955974,14.07,2014-06-30 00:00:00,2014-08-09 00:00:00,119.31647335044161,1.4475866984480743,17.941826262787945,2.9693060668346742
sh601599,2014-09-17,9.23,9.35,9.0,9.2,-0.00325,5728864.0,52523805.0,2925600000.0,2925600000.0,0.018015295597484278,14.2,2014-06-30 00:00:00,2014-08-09 00:00:00,120.36315131427052,1.4602853397626505,18.09921705429207,2.995353662281878
sh601599,2014-09-16,10.01,10.02,9.22,9.23,-0.081592,17948817.0,171828358.0,2935140000.0,2935140000.0,0.05644282075471698,14.24,2014-06-30 00:00:00,2014-08-09 00:00:00,120.75560703714125,1.4650467416730881,18.15823130603669,3.0051203032674976
sh601599,2014-09-15,9.98,10.12,9.84,10.05,0.001994,6675508.0,66550113.0,3195900000.0,3195900000.0,0.02099216352201258,15.51,2014-06-30 00:00:00,2014-08-09 00:00:00,131.48361843226675,1.5952025044131672,19.77142109611054,3.2720972631635368
sh601599,2014-09-12,9.93,10.05,9.79,10.03,0.009054000000000001,5323248.0,52884857.0,3189540000.0,3189540000.0,0.01673977358490566,15.48,2014-06-30 00:00:00,2014-08-09 00:00:00,131.22196184035707,1.5920280005800105,19.73207533788679,3.265585685307034
sh601599,2014-09-11,9.85,10.1,9.72,9.94,0.008114,7180585.0,71294841.0,3160920000.0,3160920000.0,0.02258045597484277,15.34,2014-06-30 00:00:00,2014-08-09 00:00:00,130.0445385879815,1.5777431144220337,19.555024149239582,3.236284366651373
sh601599,2014-09-10,9.51,9.89,9.5,9.86,0.032461000000000004,7437512.0,72503792.0,3135480000.0,3135480000.0,0.02338840251572327,15.22,2014-06-30 00:00:00,2014-08-09 00:00:00,128.99785003281528,1.5650443446098696,19.397631765097582,3.2102365076284762
sh601599,2014-09-09,9.54,9.57,9.44,9.55,0.007384,3617414.0,34420639.0,3036900000.0,3036900000.0,0.011375515723270441,14.74,2014-06-30 00:00:00,2014-08-09 00:00:00,124.94210438245632,1.5158387044255126,18.787762215810165,3.10930534676707
sh601599,2014-09-05,9.58,9.61,9.39,9.48,-0.011470000000000001,5044556.0,47748772.0,3014640000.0,3014640000.0,0.015863383647798743,14.63,2014-06-30 00:00:00,2014-08-09 00:00:00,124.02629422589234,1.5047277943917243,18.650050244802546,3.086514523525359
sh601599,2014-09-04,9.62,9.67,9.46,9.59,-0.004154,5687147.0,54265965.0,3049620000.0,3049620000.0,0.01788411006289308,14.8,2014-06-30 00:00:00,2014-08-09 00:00:00,125.46538215925905,1.5221872825222547,18.866448408042796,3.122327621342153
sh601599,2014-09-03,9.66,9.72,9.59,9.63,-0.002073,5734717.0,55310480.0,3062340000.0,3062340000.0,0.018033701257861634,14.86,2014-06-30 00:00:00,2014-08-09 00:00:00,125.98873938265457,1.5285368244911908,18.945146546798192,3.1353518730226893
sh601599,2014-09-02,9.64,9.75,9.5,9.65,-0.016309999999999998,7510241.0,72432047.0,3068700000.0,3068700000.0,0.023617110062893083,14.89,2014-06-30 00:00:00,2014-08-09 00:00:00,126.25045657914313,1.5317120635990316,18.9845014182382,3.141864959082868
sh601599,2014-09-01,10.1,10.2,9.0,9.81,0.005123,13205742.0,127673758.0,3119580000.0,3119580000.0,0.04152749056603774,15.14,2014-06-30 00:00:00,2014-08-09 00:00:00,128.34374302792864,1.557108503287653,19.299272553587205,3.193958420928207
sh601599,2014-08-21,9.49,9.77,9.42,9.76,0.018789,5343957.0,51332468.0,3103680000.0,3103680000.0,0.016804896226415095,15.06,2014-06-30 00:00:00,2014-08-09 00:00:00,127.68958926213874,1.549172094646778,19.20090631055822,3.1776791705375436
sh601599,2014-08-20,9.46,9.65,9.4,9.58,0.012685,4257846.0,40394560.0,3046440000.0,3046440000.0,0.01338945283018868,14.78,2014-06-30 00:00:00,2014-08-09 00:00:00,125.3346760341334,1.5206015128223587,18.84679389997165,3.11907487275338
sh601599,2014-08-19,9.5,9.58,9.38,9.46,-0.0031609999999999997,3703008.0,34968357.0,3008280000.0,3008280000.0,0.01164467924528302,14.6,2014-06-30 00:00:00,2014-08-09 00:00:00,123.76472055390705,1.5015542965703632,18.610716955392494,3.0800050092115314
sh601599,2014-08-18,9.13,9.49,9.1,9.49,0.044004,6387414.0,59848631.0,3017820000.0,3017820000.0,0.02008620754716981,14.65,2014-06-30 00:00:00,2014-08-09 00:00:00,124.15718140432615,1.5063157606899042,18.66973197817551,3.089771777801161
sh601599,2014-08-15,9.13,9.14,9.0,9.09,-0.004381,3910504.0,35439086.0,2890620000.0,2890620000.0,0.012297182389937107,14.03,2014-06-30 00:00:00,2014-08-09 00:00:00,118.9240476131568,1.4428256603326273,17.88281652002819,2.9595401720694183
sh601599,2014-08-14,9.26,9.29,9.1,9.13,-0.014039,3523045.0,32458334.0,2903340000.0,2903340000.0,0.01107875786163522,14.09,2014-06-30 00:00:00,2014-08-09 00:00:00,119.44734643790125,1.449174493789921,17.961505877276537,2.972562970442929
sh601599,2014-08-13,9.16,9.28,9.08,9.26,0.0076170000000000005,3644097.0,33545387.0,2944680000.0,2944680000.0,0.011459424528301888,14.29,2014-06-30 00:00:00,2014-08-09 00:00:00,121.14814524905269,1.4698091443676988,18.21725796180228,3.014888997072834
sh601599,2014-08-12,9.2,9.21,9.03,9.19,0.0,4266375.0,38816241.0,2922420000.0,2922420000.0,0.01341627358490566,14.18,2014-06-30 00:00:00,2014-08-09 00:00:00,120.23233554917462,1.4586982398745743,18.079546059467315,2.9920981851961947
sh601599,2014-08-11,9.12,9.28,9.1,9.19,0.0021809999999999998,4165073.0,38225014.0,2922420000.0,2922420000.0,0.013097713836477988,14.18,2014-06-30 00:00:00,2014-08-09 00:00:00,120.23233554917462,1.4586982398745743,18.079546059467315,2.9920981851961947
sh601599,2014-08-08,8.87,9.33,8.87,9.17,0.029181,7919255.0,72702995.0,2916060000.0,2916060000.0,0.024903317610062894,14.15,2014-03-31 00:00:00,2014-04-19 00:00:00,154.68557678473198,1.544224446883952,23.036198090953967,3.0536243001762866
sh601599,2014-08-07,8.8,8.96,8.79,8.91,0.00678,3728594.0,33115188.0,2833380000.0,2833380000.0,0.011725138364779874,13.75,2014-03-31 00:00:00,2014-04-19 00:00:00,150.29968177097322,1.5004401042031985,22.383038640388783,2.9670430178717706
sh601599,2014-08-06,8.83,8.94,8.72,8.85,0.0022649999999999997,4276479.0,37780715.0,2814300000.0,2814300000.0,0.01344804716981132,13.66,2014-03-31 00:00:00,2014-04-19 00:00:00,149.28751243665272,1.4903356286410125,22.232303621832756,2.9470619379325877
sh601599,2014-08-05,8.73,8.85,8.65,8.83,0.010297,4509577.0,39603442.0,2807940000.0,2807940000.0,0.014181059748427673,13.63,2014-03-31 00:00:00,2014-04-19 00:00:00,148.95014036871757,1.4869676469207374,22.182061253094503,2.9404019275666498
sh601599,2014-08-04,8.65,8.74,8.61,8.74,0.005754,4123131.0,35759491.0,2779320000.0,2779320000.0,0.012965820754716981,13.49,2014-03-31 00:00:00,2014-04-19 00:00:00,147.43203272772024,1.4718123946925876,21.955980521662937,2.910433196937781
sh601599,2014-08-01,8.75,8.96,8.65,8.69,-0.006856999999999999,5391753.0,47284954.0,2763420000.0,2763420000.0,0.01695519811320755,13.41,2014-03-31 00:00:00,2014-04-19 00:00:00,146.58856214116,1.4633920369121949,21.830368580848734,2.8937823731626033
sh601599,2014-07-31,8.7,8.78,8.6,8.75,0.0057469999999999995,3413478.0,29641453.0,2782500000.0,2782500000.0,0.010734207547169812,13.5,2014-03-31 00:00:00,2014-04-19 00:00:00,147.6006598658602,1.4734957975963128,21.981092935104744,2.91376203946723
sh601599,2014-07-30,8.79,8.96,8.66,8.7,-0.013605,5570348.0,48847272.0,2766600000.0,2766600000.0,0.017516817610062893,13.43,2014-03-31 00:00:00,2014-04-19 00:00:00,146.7572459732519,1.4650760057910317,21.855489437308535,2.8971123348786825
sh601599,2014-07-29,8.57,8.83,8.51,8.82,0.029172000000000003,6820473.0,58919571.0,2804760000.0,2804760000.0,0.02144802830188679,13.61,2014-03-31 00:00:00,2014-04-19 00:00:00,148.78141715362702,1.4852832848818491,22.156934531611103,2.9370711883968212
sh601599,2014-07-28,8.49,8.62,8.41,8.57,0.016607,5118437.0,43710513.0,2725260000.0,2725260000.0,0.01609571383647799,13.23,2014-03-31 00:00:00,2014-04-19 00:00:00,144.5641905858564,1.4431827574806242,21.52889364616517,2.853819564073664
sh601599,2014-07-25,8.4,8.5,8.31,8.43,0.005967,2008032.0,16885757.0,2680740000.0,2680740000.0,0.006314566037735849,13.01,2014-03-31 00:00:00,2014-04-19 00:00:00,142.2026314847885,1.4196073384116223,21.177203822288423,2.8072003872427236
sh601599,2014-07-24,8.4,8.46,8.32,8.38,-0.004751,2806266.0,23515975.0,2664840000.0,2664840000.0,0.008824735849056603,12.93,2014-03-31 00:00:00,2014-04-19 00:00:00,141.35914148753238,1.4111867868544616,21.051588990780438,2.790549180283969
sh601599,2014-07-23,8.33,8.43,8.22,8.42,0.013237,3590817.0,29925263.0,2677560000.0,2677560000.0,0.011291877358490566,12.99,2014-03-31 00:00:00,2014-04-19 00:00:00,142.03394475908277,1.41792334064587,21.152082534903762,2.8038703684042576
sh601599,2014-07-22,8.29,8.37,8.15,8.31,-0.003597,2411266.0,20000971.0,2642580000.0,2642580000.0,0.00758259748427673,12.82,2014-03-31 00:00:00,2014-04-19 00:00:00,140.17840323545508,1.3993994896020083,20.87575022912089,2.7672404071350116
sh601599,2014-07-21,8.46,8.59,8.3,8.34,-0.016509,3243155.0,27256682.0,2652120000.0,2652120000.0,0.010198600628930818,12.87,2014-03-31 00:00:00,2014-04-19 00:00:00,140.68444518478475,1.404451300931459,20.951111376743036,2.7772301038184466
sh601599,2014-07-18,8.34,8.5,8.3,8.48,0.016787,5359529.0,45108736.0,2696640000.0,2696640000.0,0.016853864779874213,13.09,2014-03-31 00:00:00,2014-04-19 00:00:00,143.04599145776095,1.4280265919377595,21.30279929022537,2.8238490274119914
sh601599,2014-07-17,8.34,8.42,8.28,8.34,0.0,2564412.0,21426860.0,2652120000.0,2652120000.0,0.008064188679245283,12.87,2014-03-31 00:00:00,2014-04-19 00:00:00,140.684323715548,1.404450088305377,20.95109328721292,2.777227705912832
sh601599,2014-07-16,8.42,8.42,8.32,8.34,-0.009501,2777854.0,23235878.0,2652120000.0,2652120000.0,0.008735389937106918,12.87,2014-03-31 00:00:00,2014-04-19 00:00:00,140.684323715548,1.404450088305377,20.95109328721292,2.777227705912832
sh601599,2014-07-15,8.43,8.43,8.32,8.42,0.0,3057194.0,25589889.0,2677560000.0,2677560000.0,0.009613817610062893,12.99,2014-03-31 00:00:00,2014-04-19 00:00:00,142.0337867232052,1.4179217629754062,21.152058999769736,2.803867248642182
sh601599,2014-07-14,8.35,8.44,8.24,8.42,0.013237,3565275.0,29698057.0,2677560000.0,2677560000.0,0.011211556603773584,12.99,2014-03-31 00:00:00,2014-04-19 00:00:00,142.0337867232052,1.4179217629754062,21.152058999769736,2.803867248642182
sh601599,2014-07-11,8.2,8.37,8.15,8.31,0.013415,2580667.0,21413631.0,2642580000.0,2642580000.0,0.008115305031446541,12.82,2014-03-31 00:00:00,2014-04-19 00:00:00,140.17824726416939,1.3993979325423433,20.87572700145152,2.7672373281297284
sh601599,2014-07-10,8.15,8.28,8.13,8.2,0.001221,2181748.0,17927160.0,2607600000.0,2607600000.0,0.0068608427672955975,12.65,2014-03-31 00:00:00,2014-04-19 00:00:00,138.32264892878965,1.3808735143473732,20.599386235107552,2.73060624534838
sh601599,2014-07-09,8.24,8.31,8.16,8.19,-0.00486,2742259.0,22567476.0,2604420000.0,2604420000.0,0.008623455974842768,12.64,2014-03-31 00:00:00,2014-04-19 00:00:00,138.1539629400399,1.3791895239386445,20.57426505747238,2.7272762410580484
sh601599,2014-07-08,8.46,8.46,8.11,8.23,-0.026036,4928464.0,40762379.0,2617140000.0,2617140000.0,0.015498314465408804,12.7,2014-03-31 00:00:00,2014-04-19 00:00:00,138.82867027758897,1.3859251200219511,20.674744314842517,2.7405955353598976
sh601599,2014-07-07,8.55,8.68,8.37,8.45,-0.011696,3981739.0,33796425.0,2687100000.0,2687100000.0,0.012521191823899372,13.04,2014-03-31 00:00:00,2014-04-19 00:00:00,142.53983748638447,1.4229736622934226,21.227421459974412,2.8138571193184734
sh601599,2014-07-04,8.46,8.68,8.42,8.55,0.011834,6571457.0,56315910.0,2718900000.0,2718900000.0,0.020664959119496857,13.19,2014-03-31 00:00:00,2014-04-19 00:00:00,144.22671312307193,1.4398137236047033,21.478635581738423,2.847157473124133
sh601599,2014-07-03,8.38,8.54,8.34,8.45,0.008353,5556506.0,46922454.0,2687100000.0,2687100000.0,0.017473289308176102,13.04,2014-03-31 00:00:00,2014-04-19 00:00:00,142.53989599388035,1.4229742463731236,21.22743017307031,2.813858274305996
sh601599,2014-07-02,8.39,8.4,8.23,8.38,0.003593,3939145.0,32729548.0,2664840000.0,2664840000.0,0.012387248427672956,12.93,2014-03-31 00:00:00,2014-04-19 00:00:00,141.3591232374777,1.4111866046643622,21.051586272932504,2.790548820012432
sh601599,2014-07-01,8.32,8.4,8.26,8.35,-0.002389,3873861.0,32269113.0,2655300000.0,2655300000.0,0.01218195283018868,12.89,2014-03-31 00:00:00,2014-04-19 00:00:00,140.8530382709701,1.406134363894888,20.97621871907487,2.7805582741334707
sh601599,2014-06-30,8.33,8.53,8.32,8.37,0.002395,4989967.0,41851917.0,2661660000.0,2661660000.0,0.015691720125786162,12.92,2014-03-31 00:00:00,2014-04-19 00:00:00,141.1903419980033,1.4095016633686754,21.02645091029957,2.7872169353921223
sh601599,2014-06-27,8.24,8.63,8.18,8.35,0.014581,8117378.0,68289002.0,2655300000.0,2655300000.0,0.025526345911949685,12.89,2014-03-31 00:00:00,2014-04-19 00:00:00,140.85299906524207,1.4061339725045272,20.976212880450895,2.780557500179193
sh601599,2014-06-26,8.1,8.25,8.07,8.23,0.013547,5220033.0,42709792.0,2617140000.0,2617140000.0,0.016415198113207546,12.7,2014-03-31 00:00:00,2014-04-19 00:00:00,138.8287372474372,1.3859257885812244,20.674754288175013,2.7405968574014232
sh601599,2014-06-25,8.2,8.26,8.03,8.12,-0.009756,3690808.0,30061887.0,2582160000.0,2582160000.0,0.011606314465408803,12.53,2014-03-31 00:00:00,2014-04-19 00:00:00,136.9731618242047,1.3674015991179733,20.398416933970516,2.7039662269252664
sh601599,2014-06-24,8.23,8.27,8.15,8.2,-0.0036450000000000002,2984551.0,24479806.0,2607600000.0,2607600000.0,0.009385380503144655,12.65,2014-03-31 00:00:00,2014-04-19 00:00:00,138.32263747541484,1.3808734000084557,20.599384529439728,2.73060601924906
sh601599,2014-06-23,8.24,8.3,8.07,8.23,-0.001214,4629705.0,38006473.0,2617140000.0,2617140000.0,0.014558820754716982,12.7,2014-03-31 00:00:00,2014-04-19 00:00:00,138.8286679701661,1.3859250969869734,20.674743971214806,2.7405954898094156
sh601599,2014-06-20,8.05,8.39,8.05,8.24,0.024876,6660577.0,54959097.0,2620320000.0,2620320000.0,0.0209452106918239,12.72,2014-03-31 00:00:00,2014-04-19 00:00:00,138.99741082690997,1.3876096551082748,20.6998736177868,2.7439266167221166
sh601599,2014-06-19,8.0,8.2,7.82,8.04,0.005,5966721.0,48099571.0,2556720000.0,2556720000.0,0.018763273584905656,12.41,2014-03-31 00:00:00,2014-04-19 00:00:00,135.62363722724504,1.3539293096026008,20.197442049366757,2.677325468370922
sh601599,2014-06-18,8.19,8.2,7.98,8.0,-0.019608,5397924.0,43589457.0,2544000000.0,2544000000.0,0.016974603773584906,12.35,2014-03-31 00:00:00,2014-04-19 00:00:00,134.94889276342792,1.3471933428881602,20.096957263051504,2.664005441165097
sh601599,2014-06-17,8.42,8.42,8.15,8.16,-0.038869,7614192.0,63085148.0,2594880000.0,2594880000.0,0.023944,12.59,2014-03-31 00:00:00,2014-04-19 00:00:00,137.64789264235932,1.374137429607912,20.498899688136483,2.7172859847541564
sh601599,2014-06-16,8.59,8.6,8.42,8.49,-0.018497,7862608.0,66922362.0,2699820000.0,2699820000.0,0.024725182389937105,13.1,2014-03-31 00:00:00,2014-04-19 00:00:00,143.2144969232699,1.42970878018492,21.327893583847036,2.827175468020651
sh601599,2014-06-13,8.44,8.69,8.32,8.65,0.014068,13590458.0,115757832.0,2750700000.0,2750700000.0,0.0427372893081761,13.35,2014-03-31 00:00:00,2014-04-19 00:00:00,145.91345815883383,1.456652481128351,21.729830254056314,2.8804552487569075
sh601599,2014-06-12,8.18,8.73,8.15,8.53,0.036452,16759149.0,142183070.0,2712540000.0,2712540000.0,0.05270172641509434,13.16,2014-03-31 00:00:00,2014-04-19 00:00:00,143.88922454789406,1.4364445787938787,21.428375862423735,2.840495162806545
sh601599,2014-06-11,8.0,8.28,7.95,8.23,0.027466,7873206.0,63976716.0,2617140000.0,2617140000.0,0.024758509433962263,12.7,2014-03-31 00:00:00,2014-04-19 00:00:00,138.828642858419,1.3859248462966725,20.67474023150492,2.740594994082259
sh601599,2014-06-10,7.89,8.05,7.75,8.01,0.007547,7710445.0,60861097.0,2547180000.0,2547180000.0,0.024246682389937105,12.36,2014-03-31 00:00:00,2014-04-19 00:00:00,135.1175054536296,1.348876601558273,20.122067524866925,2.667333998480007
sh601599,2014-06-09,8.18,8.33,7.9,7.95,-0.023341999999999998,5732437.0,46726014.0,2528100000.0,2528100000.0,0.01802653144654088,12.27,2014-03-31 00:00:00,2014-04-19 00:00:00,134.10541190994525,1.338772882613191,19.971343793259198,2.647354414712174
sh601599,2014-06-06,8.1,8.34,8.08,8.14,0.0,5991607.0,49085379.0,2588520000.0,2588520000.0,0.01884153144654088,12.56,2014-03-31 00:00:00,2014-04-19 00:00:00,137.31051392600605,1.3707693815165503,20.448656329297663,2.710625843142813
sh601599,2014-06-05,8.06,8.2,8.01,8.14,-0.002451,5720411.0,46394070.0,2588520000.0,2588520000.0,0.017988713836477987,12.56,2014-03-31 00:00:00,2014-04-19 00:00:00,137.31051392600605,1.3707693815165503,20.448656329297663,2.710625843142813
sh601599,2014-06-04,8.01,8.18,7.89,8.16,0.017456,6920919.0,55380073.0,2594880000.0,2594880000.0,0.021763896226415093,12.59,2014-03-31 00:00:00,2014-04-19 00:00:00,137.6478889017041,1.3741373922649915,20.49889913106791,2.7172859109104546
sh601599,2014-06-03,8.08,8.23,7.98,8.02,-0.009877,7066242.0,57093867.0,2550360000.0,2550360000.0,0.02222088679245283,12.38,2014-03-31 00:00:00,2014-04-19 00:00:00,135.28633071278182,1.3505619823019293,20.14720944303037,2.6706667520860408
sh601599,2014-05-30,8.35,8.37,7.97,8.1,-0.040284,10949141.0,89314370.0,2575800000.0,2575800000.0,0.03443126100628931,12.5,2014-03-31 00:00:00,2014-04-19 00:00:00,136.6358833324565,1.3640345515677643,20.3481885008533,2.697308063832515
sh601599,2014-05-29,8.26,8.58,8.23,8.44,0.005959000000000001,16583421.0,139874514.0,2683920000.0,2683920000.0,0.052149122641509435,13.02,2014-03-31 00:00:00,2014-04-19 00:00:00,142.37116327377734,1.421289789445799,21.202302036074528,2.8105273474991717
sh601599,2014-05-28,8.43,8.44,8.12,8.39,-0.002378,16659193.0,137732706.0,2668020000.0,2668020000.0,0.052387399371069183,12.95,2014-03-31 00:00:00,2014-04-19 00:00:00,141.52779911882826,1.4128704941710337,21.07670594534621,2.7938786247741425
sh601599,2014-05-27,8.7,8.84,8.38,8.41,-0.046485000000000005,19393380.0,166735006.0,1386930650.0,2674380000.0,0.11759659778230441,12.98,2014-03-31 00:00:00,2014-04-19 00:00:00,141.86515445612494,1.4162383088695254,21.126945822512145,2.800538304863107
sh601599,2014-05-26,8.8,8.97,8.56,8.82,-0.038168,24338130.0,214072007.0,1454545580.0,2804760000.0,0.14758032305869714,13.61,2014-03-31 00:00:00,2014-04-19 00:00:00,148.78125090441677,1.4852816252177738,22.156909773325168,2.937067906496602
sh601599,2014-05-23,8.8,9.17,8.5,9.17,0.09952000000000001,33282011.0,298767467.0,1512265640.0,2916060000.0,0.20181377715491836,14.15,2014-03-31 00:00:00,2014-04-19 00:00:00,154.6852786187367,1.5442214702960328,23.036153687260526,3.0536184141270013
sh601599,2014-05-22,8.34,8.34,8.34,8.34,0.099606,805282.0,6716052.0,1375386640.0,2652120000.0,0.004883028295229042,12.87,2014-03-31 00:00:00,2014-04-19 00:00:00,140.6843701058068,1.4044505514188308,20.951100195776817,2.777228621695832
sh601599,2014-02-27,7.5,7.75,7.41,7.63,0.013280000000000002,9558530.0,72546753.0,1258297370.0,2426340000.0,0.05796053114217349,11.7,2013-09-30 00:00:00,2013-10-26 00:00:00,225.7259635185242,1.378944893114685,14.669701561908518,2.584456896666073
sh601599,2014-02-26,7.11,7.66,7.01,7.53,0.059072,9476532.0,70391471.0,1241805920.0,2394540000.0,0.05746331597452845,11.55,2013-09-30 00:00:00,2013-10-26 00:00:00,222.76760966221008,1.3608725062319253,14.47744114352254,2.5505851261902666
sh601599,2014-02-25,7.38,7.43,7.0,7.11,-0.032652999999999995,4552651.0,32807418.0,1172541850.0,2260980000.0,0.02760613500490409,10.91,2013-09-30 00:00:00,2013-10-26 00:00:00,210.3422710280416,1.2849669391995304,13.669930980634497,2.408320799898653
sh601599,2014-02-24,7.48,7.5,7.13,7.35,-0.005413,5886565.0,42843446.0,1212121320.0,2337300000.0,0.035694655341925674,11.28,2013-09-30 00:00:00,2013-10-26 00:00:00,217.44241831322327,1.3283412665770715,14.131362355632982,2.489614171438639
sh601599,2014-02-21,7.13,7.53,7.06,7.39,0.033566000000000006,6920863.0,51045270.0,1218717900.0,2350020000.0,0.04196637923345509,11.34,2013-09-30 00:00:00,2013-10-26 00:00:00,218.6258399850624,1.3355707108348205,14.208271730510232,2.5031637970721907
sh601599,2014-02-20,7.2,7.29,7.06,7.15,-0.009695,3824652.0,27383870.0,1179138420.0,2273700000.0,0.023191731637410305,10.97,2013-09-30 00:00:00,2013-10-26 00:00:00,211.52576611949542,1.2921968319728208,13.746845126978087,2.4218712661525155
sh601599,2014-02-19,7.26,7.26,7.13,7.22,-0.00551,3685437.0,26487150.0,1190682440.0,2295960000.0,0.02234756661062374,11.08,2013-09-30 00:00:00,2013-10-26 00:00:00,213.5965850111788,1.304847326806207,13.881425547662676,2.4455811756504464
sh601599,2014-02-18,7.34,7.35,7.15,7.26,-0.008197,3655283.0,26474719.0,1197279020.0,2308680000.0,0.022164720283831582,11.14,2013-09-30 00:00:00,2013-10-26 00:00:00,214.78002293756475,1.3120768703619008,13.95833597890645,2.4591309873909704
sh601599,2014-02-17,7.28,7.37,7.22,7.32,-0.006784,4383688.0,31950394.0,1207173880.0,2327760000.0,0.02658158587725573,11.23,2013-09-30 00:00:00,2013-10-26 00:00:00,216.555125299646,1.3229208525905862,14.073698082085304,2.479455080687365
sh601599,2014-02-14,7.13,7.57,7.0,7.37,0.033661,8823730.0,64749946.0,1215419610.0,2343660000.0,0.05350488799501927,11.31,2013-09-30 00:00:00,2013-10-26 00:00:00,218.03426978587333,1.3319568478463757,14.169826182910166,2.496390594480319
sh601599,2014-02-13,7.02,7.21,7.0,7.13,0.008487,4834264.0,34394526.0,1175840140.0,2267340000.0,0.02931376566205675,10.94,2013-09-30 00:00:00,2013-10-26 00:00:00,210.93401974716406,1.288581892754371,13.70838813006408,2.415096046460415
sh601599,2014-02-12,6.82,7.13,6.7,7.07,0.036657,4822291.0,33658647.0,1165945270.0,2248260000.0,0.029241164441620834,10.85,2013-09-30 00:00:00,2013-10-26 00:00:00,209.15888826248042,1.2777377326176453,13.593024134236813,2.39477161972382
sh601599,2014-02-11,6.64,6.86,6.6,6.82,0.024024,4527706.0,30543121.0,1124716650.0,2168760000.0,0.027454874896712875,10.46,2013-09-30 00:00:00,2013-10-26 00:00:00,201.76286685227655,1.2325559298954671,13.112364199765993,2.310090627588315
sh601599,2014-02-10,6.46,6.7,6.46,6.66,0.024615,3291663.0,21639809.0,1098330340.0,2117880000.0,0.019959819720540544,10.22,2013-09-30 00:00:00,2013-10-26 00:00:00,197.02943178311887,1.2036396899833082,12.804743052668679,2.2558950059650114
sh601599,2014-02-07,6.42,6.51,6.32,6.5,0.015625,869073.0,5600922.0,1071944020.0,2067000000.0,0.005269840956806681,9.97,2013-09-30 00:00:00,2013-10-26 00:00:00,192.2960641637287,1.1747238621172909,12.497126289063385,2.201700156610055
sh601599,2014-01-30,6.45,6.45,6.35,6.4,-0.010819,818427.0,5224738.0,1055452580.0000001,2035200000.0,0.004962736269970556,9.82,2013-09-30 00:00:00,2013-10-26 00:00:00,189.3376631765944,1.1566511873154866,12.304862807693178,2.1678278465083616
sh601599,2014-01-29,6.4,6.57,6.4,6.47,0.00936,1281790.0,8322872.0,1066996590.0000001,2057460000.0,0.007772453424616847,9.93,2013-09-30 00:00:00,2013-10-26 00:00:00,191.4085118664778,1.1693018641840942,12.439445164932582,2.191538097181771
sh601599,2014-01-28,6.48,6.5,6.32,6.41,-0.010801999999999999,2065413.0,13210603.0,1057101720.0,2038380000.0,0.012524146995049825,9.83,2013-09-30 00:00:00,2013-10-26 00:00:00,189.63354191416127,1.1584586908378518,12.324091666930117,2.1712155199153633
sh601599,2014-01-27,6.66,6.66,6.48,6.48,-0.031389999999999994,1739358.0,11448996.0,1068645730.0,2060640000.0,0.01054703118497465,9.94,2013-09-30 00:00:00,2013-10-26 00:00:00,191.70433210960925,1.1711090103678452,12.458670222675456,2.194925100854797
sh601599,2014-01-24,6.68,6.8,6.61,6.69,0.001497,2028350.0,13600300.0,1103277770.0,2127420000.0,0.012299406250159468,10.26,2013-09-30 00:00:00,2013-10-26 00:00:00,197.91694501358572,1.2090614492601206,12.862421637888787,2.266056618096857
sh601599,2014-01-23,6.72,6.84,6.66,6.68,-0.017647,2629501.0,17780288.0,1101628630.0,2124240000.0,0.01594463524427465,10.25,2013-09-30 00:00:00,2013-10-26 00:00:00,197.621106217578,1.2072541897380826,12.84319537441329,2.26266940200206
sh601599,2014-01-22,6.71,6.95,6.69,6.8,0.010401,3497550.0,23579411.0,1121418360.0,2162400000.0,0.021208267002156087,10.43,2013-09-30 00:00:00,2013-10-26 00:00:00,201.1711739238115,1.228941317162041,13.073910676114684,2.3033160198035327
sh601599,2014-01-21,7.2,7.2,6.59,6.73,0.013553999999999998,4118108.0,27880361.0,1109874350.0,2140140000.0,0.024971175196543648,10.32,2013-09-30 00:00:00,2013-10-26 00:00:00,199.10033137715766,1.2162906778220142,12.939328718117542,2.279605839467234
sh601599,2014-01-20,6.66,6.78,6.51,6.64,-0.001504,1880734.0,12497180.0,1095032050.0,2111520000.0,0.011404299773691555,10.19,2013-09-30 00:00:00,2013-10-26 00:00:00,196.43781325628197,1.2000255317644783,12.766294364303768,2.2491212500441353
sh601599,2014-01-17,6.64,6.84,6.46,6.65,-0.008942,4832422.0,32309544.0,1096681190.0,2114700000.0,0.029302596409080384,10.2,2013-09-30 00:00:00,2013-10-26 00:00:00,196.73370074219824,1.201833088729928,12.785523792087066,2.2525090236156533
sh601599,2014-01-16,6.17,6.74,6.12,6.71,0.08752,5054371.0,32542826.0,1106576060.0,2133780000.0,0.03064843948458455,10.29,2013-09-30 00:00:00,2013-10-26 00:00:00,198.5087661289231,1.2126768450786212,12.90088349227499,2.2728326935614804
sh601599,2014-01-15,6.2,6.2,6.08,6.17,-0.006441,2485404.0,15244040.0,1017522250.0,1962060000.0,0.015070867177597345,9.46,2013-09-30 00:00:00,2013-10-26 00:00:00,182.53343950357058,1.1150846375962016,11.862663208285815,2.089922662168494
sh601599,2014-01-14,6.1,6.22,6.03,6.21,-0.0016079999999999998,2452544.0,15029508.0,1024118830.0,1974780000.0,0.0148716123499067,9.53,2013-09-30 00:00:00,2013-10-26 00:00:00,183.71675914925092,1.1223134585829344,11.939565952586426,2.1034711196501608
sh601599,2014-01-13,6.32,6.64,6.22,6.22,-0.099855,6379072.0,40675783.0,1025767970.0,1977960000.0,0.03868109455591599,9.54,2013-09-30 00:00:00,2013-10-26 00:00:00,184.01265149285143,1.124121045223654,11.9587956960657,2.106858948839895
sh601599,2014-01-03,6.87,6.94,6.78,6.91,0.010234,3333762.0,22914565.0,1139558950.0,2197380000.0,0.020215097621759714,10.6,2013-09-30 00:00:00,2013-10-26 00:00:00,204.42556642857699,1.2488221844521206,13.285410346183893,2.3405772945913106
sh601599,2014-01-02,6.81,6.92,6.73,6.84,0.002933,3701279.0,25246434.0,1128014940.0,2175120000.0,0.022443628592365983,10.49,2013-09-30 00:00:00,2013-10-26 00:00:00,202.35466874860376,1.2361712083063134,13.15082480512821,2.3168664830042447
sh601599,2013-12-31,7.09,7.14,6.8,6.82,-0.042135,6461538.0,44903350.0,1124716650.0,2168760000.0,0.03918114767839526,10.46,2013-09-30 00:00:00,2013-10-26 00:00:00,201.76289816827617,1.2325561212028255,13.112366234961065,2.31009098614189
sh601599,2013-12-30,7.21,7.29,7.11,7.12,-0.011111,6097891.0,43842586.0,1174190990.0,2264160000.0,0.03697608335420799,10.92,2013-09-30 00:00:00,2013-10-26 00:00:00,210.63813602989583,1.2867743588113414,13.689158947201397,2.4117083160381583
sh601599,2013-12-27,7.13,7.34,7.13,7.2,-0.004149,7844603.0,56901794.0,1187384150.0,2289600000.0,0.047567707215899764,11.04,2013-09-30 00:00:00,2013-10-26 00:00:00,213.00483272631794,1.3012323514685078,13.84296816649937,2.438805888262644
sh601599,2013-12-26,7.32,7.32,7.06,7.23,-0.020325,8644972.0,62325221.0,1192331580.0,2299140000.0,0.05242094448257422,11.09,2013-09-30 00:00:00,2013-10-26 00:00:00,213.8922717618579,1.3066536574934482,13.900641929866387,2.4489666508972165
sh601599,2013-12-25,7.42,7.47,7.24,7.38,-0.009396,8893429.0,65433482.0,1217068750.0,2346840000.0,0.053927525474629104,11.32,2013-09-30 00:00:00,2013-10-26 00:00:00,218.3298254644223,1.3337623778226946,14.189034046868999,2.4997745690123936
sh601599,2013-12-24,7.44,7.56,7.35,7.45,-0.007989,11823663.0,88106466.0,1228612760.0,2369100000.0,0.07169573051642407,11.43,2013-09-30 00:00:00,2013-10-26 00:00:00,220.40071054066237,1.3464132769731343,14.323618768820841,2.5234852362925992
sh601599,2013-12-23,7.34,7.6,7.25,7.51,0.021769,16214173.0,121563217.0,1238507630.0,2388180000.0,0.0983186831315686,11.52,2013-09-30 00:00:00,2013-10-26 00:00:00,222.17567198414366,1.357256398339468,14.43897171384273,2.5438077161368158
sh601599,2013-12-20,7.19,7.37,7.07,7.35,0.022253,7965380.0,57814997.0,1212121320.0,2337300000.0,0.048300068676293884,11.28,2013-09-30 00:00:00,2013-10-26 00:00:00,217.44217331328676,1.3283397698887598,14.131346433335452,2.48961136630375
sh601599,2013-12-19,7.07,7.2,7.04,7.19,0.015537,3515730.0,25082736.0,1185735000.0,2286420000.0,0.0213185059899556,11.03,2013-09-30 00:00:00,2013-10-26 00:00:00,212.7087651621338,1.2994236944169004,13.823727035611979,2.4354160528790327
sh601599,2013-12-18,7.03,7.1,6.97,7.08,0.007112,1594231.0,11205233.0,1167594410.0,2251440000.0,0.0096670174020446,10.86,2013-09-30 00:00:00,2013-10-26 00:00:00,209.45447104549987,1.279543428173371,13.612233759687712,2.398155904589427
sh601599,2013-12-17,7.03,7.07,6.9,7.03,-0.002837,1727599.0,12042076.0,1159348690.0,2235540000.0,0.010475727513868154,10.78,2013-09-30 00:00:00,2013-10-26 00:00:00,207.97535035378377,1.2705075782766673,13.516107205244015,2.3812206632325177
sh601599,2013-12-16,7.08,7.12,6.98,7.05,-0.0042369999999999994,1795438.0,12660831.0,1162646980.0,2241900000.0,0.01088708620737139,10.81,2013-09-30 00:00:00,2013-10-26 00:00:00,208.56705508907146,1.2741222631371873,13.554561496208759,2.3879954061999062
sh601599,2013-12-13,7.09,7.12,7.04,7.08,-0.00141,1515239.0,10718933.0,1167594410.0,2251440000.0,0.009188029702882869,10.86,2013-09-30 00:00:00,2013-10-26 00:00:00,209.45451386431458,1.2795436897506611,13.612236542439074,2.398156394844864
sh601599,2013-12-12,7.06,7.1,7.03,7.09,0.004249,1529091.0,10792033.0,1169243560.0,2254620000.0,0.0092720247182717,10.88,2013-09-30 00:00:00,2013-10-26 00:00:00,209.75026173335863,1.2813503938059276,13.631456896663371,2.401542569868379
sh601599,2013-12-11,7.06,7.08,6.93,7.06,0.0,2421799.0,16990376.0,1164296120.0,2245080000.0,0.014685182443105625,10.83,2013-09-30 00:00:00,2013-10-26 00:00:00,208.8628036805201,1.2759289716055755,13.573781897381398,2.391381589494616
sh601599,2013-12-10,7.1,7.13,7.05,7.06,-0.002825,1737502.0,12320966.0,1164296120.0,2245080000.0,0.01053577686061515,10.83,2013-09-30 00:00:00,2013-10-26 00:00:00,208.8628036805201,1.2759289716055755,13.573781897381398,2.391381589494616
sh601599,2013-12-09,7.14,7.17,7.04,7.08,0.002833,1437122.0,10198221.0,1167594410.0,2251440000.0,0.008714347784518768,10.86,2013-09-30 00:00:00,2013-10-26 00:00:00,209.45451267883783,1.2795436825086626,13.612236465396142,2.398156381271709
sh601599,2013-12-06,7.11,7.13,6.98,7.06,-0.004231,1690660.0,11932644.0,1164296120.0,2245080000.0,0.010251738707159825,10.83,2013-09-30 00:00:00,2013-10-26 00:00:00,208.86280435410262,1.2759289757204464,13.573781941156843,2.3913815972068218
sh601599,2013-12-05,6.86,7.18,6.86,7.09,0.023088,3317227.0,23469649.0,1169243560.0,2254620000.0,0.02011483341417762,10.88,2013-09-30 00:00:00,2013-10-26 00:00:00,209.75025769440768,1.281350369132245,13.631456634176043,2.4015425236242764
sh601599,2013-12-04,6.71,6.97,6.71,6.93,0.017621,1977117.0,13677832.0,1142857240.0,2203740000.0,0.011988742189706914,10.63,2013-09-30 00:00:00,2013-10-26 00:00:00,205.0168291431506,1.252434169037507,13.323835910670484,2.3473469766278914
sh601599,2013-12-03,6.6,6.82,6.56,6.81,0.025602,2078674.0,13960504.0,1123067510.0,2165580000.0,0.012604558331493357,10.45,2013-09-30 00:00:00,2013-10-26 00:00:00,201.46678296060182,1.2307471731003063,13.09312200777154,2.3067006052625594
sh601599,2013-12-02,6.82,6.92,6.5,6.64,-0.05413099999999999,4447477.0,29910683.0,1095032050.0,2111520000.0,0.026968386249516623,10.19,2013-09-30 00:00:00,2013-10-26 00:00:00,196.43758783680397,1.2000241546918846,12.766279714520389,2.249118669096355
sh601599,2013-11-29,7.03,7.06,6.95,7.02,-0.001422,2515248.0,17591211.0,1157699540.0,2232360000.0,0.015251833787547327,10.77,2013-09-30 00:00:00,2013-10-26 00:00:00,207.67948609881918,1.2687001632275556,13.496879287216718,2.37783315564455
sh601599,2013-11-28,7.05,7.17,7.01,7.03,-0.002837,3934229.0,27947060.0,1159348690.0,2235540000.0,0.023856178998227014,10.78,2013-09-30 00:00:00,2013-10-26 00:00:00,207.97522687143035,1.2705068239311859,13.516099180251036,2.3812192494172217
sh601599,2013-11-27,6.91,7.06,6.89,7.05,0.018786,1974737.0,13858321.0,1162646980.0,2241900000.0,0.01197431042224012,10.81,2013-09-30 00:00:00,2013-10-26 00:00:00,208.56693125540193,1.2741215066455391,13.5545534483841,2.3879939883622052
sh601599,2013-11-26,7.0,7.05,6.9,6.92,-0.015647,2185007.0,15259435.0,1141208100.0,2200560000.0,0.013249335016111434,10.62,2013-09-30 00:00:00,2013-10-26 00:00:00,204.7210417648082,1.2506272236225655,13.304612988776935,2.3439603492413568
sh601599,2013-11-25,6.84,7.25,6.74,7.03,0.027777999999999997,5753340.0,40151305.0,1159348690.0,2235540000.0,0.03488681235323603,10.78,2013-09-30 00:00:00,2013-10-26 00:00:00,207.97523019161645,1.2705068442139817,13.516099396026563,2.381219287431802
sh601599,2013-11-22,6.81,6.86,6.78,6.84,0.002933,1891978.0,12895500.0,1128014940.0,2175120000.0,0.011472480603847321,10.49,2013-09-30 00:00:00,2013-10-26 00:00:00,202.35423427200857,1.2361685541177,13.150796568934695,2.3168615084500757
sh601599,2013-11-21,6.92,6.95,6.78,6.82,-0.014450999999999999,2498029.0,17086145.0,1124716650.0,2168760000.0,0.015147422046254938,10.46,2013-09-30 00:00:00,2013-10-26 00:00:00,201.7624649622742,1.2325534747761815,13.112338081342116,2.31008602613542
sh601599,2013-11-20,6.9,6.94,6.86,6.92,0.0028989999999999997,2255185.0,15561539.0,1141208100.0,2200560000.0,0.013674876825707774,10.62,2013-09-30 00:00:00,2013-10-26 00:00:00,204.7208864929843,1.2506262750773238,13.30460289781849,2.3439585714514655
sh601599,2013-11-19,6.94,6.94,6.85,6.9,0.001451,2383648.0,16416343.0,1137909810.0,2194200000.0,0.014453844281384657,10.58,2013-09-30 00:00:00,2013-10-26 00:00:00,204.12911618516355,1.2470111896385618,13.26614434536129,2.3371830777091867
sh601599,2013-11-18,6.81,6.9,6.77,6.89,0.013235,2649292.0,18178155.0,1136260660.0,2191020000.0,0.01606464301949871,10.57,2013-09-30 00:00:00,2013-10-26 00:00:00,203.8333539885262,1.2452043980569811,13.246923060001228,2.333796738641418
sh601599,2013-11-15,6.69,6.84,6.6,6.8,0.022556,3145246.0,21297151.0,1121418360.0,2162400000.0,0.019071983804509852,10.43,2013-09-30 00:00:00,2013-10-26 00:00:00,201.1708576870382,1.228939385292633,13.073890124207342,2.3033123990401214
sh601599,2013-11-14,6.66,6.74,6.53,6.65,-0.002999,1859966.0,12360136.0,1096681190.0,2114700000.0,0.011278367872799936,10.2,2013-09-30 00:00:00,2013-10-26 00:00:00,196.73334045963077,1.2018308877876938,12.785500377688207,2.2525048985484624
sh601599,2013-11-13,6.8,6.81,6.61,6.67,-0.020558,1687999.0,11330345.0,1099979480.0,2121060000.0,0.010235603058704332,10.23,2013-09-30 00:00:00,2013-10-26 00:00:00,197.3251184899822,1.2054460204028818,12.823959432024848,2.2592804807101117
sh601599,2013-11-12,6.68,6.83,6.64,6.81,0.014903,2247562.0,15129923.0,1123067510.0,2165580000.0,0.013628652849195146,10.45,2013-09-30 00:00:00,2013-10-26 00:00:00,201.46687449586827,1.230747732283159,13.09312795655572,2.306701653298625
sh601599,2013-11-11,6.71,6.8,6.5,6.71,-0.010324,2146696.0,14248950.0,1106576060.0,2133780000.0,0.013017026737411976,10.29,2013-09-30 00:00:00,2013-10-26 00:00:00,198.50850228629562,1.212675233281564,12.900866345410076,2.2728296726865773
sh601599,2013-11-08,6.83,6.87,6.58,6.78,-0.008772,1818097.0,12278230.0,1118120070.0,2156040000.0,0.011024484749656628,10.4,2013-09-30 00:00:00,2013-10-26 00:00:00,200.5792828019429,1.2253254936782987,13.035444272074978,2.2965391427968114
sh601599,2013-11-07,7.0,7.0,6.81,6.84,-0.027027,1179064.0,8119708.0,1128014940.0,2175120000.0,0.007149548710764416,10.49,2013-09-30 00:00:00,2013-10-26 00:00:00,202.35433502881565,1.236169169634331,13.150803117017455,2.316862662068476
sh601599,2013-11-06,7.06,7.12,6.95,7.03,-0.004249,1848699.0,13020760.0,1159348690.0,2235540000.0,0.01121004757421169,10.78,2013-09-30 00:00:00,2013-10-26 00:00:00,207.9752830025249,1.2705071668323078,13.516102828153972,2.381219892092048
sh601599,2013-11-05,6.88,7.1,6.8,7.06,0.027656,2231612.0,15569117.0,1164296120.0,2245080000.0,0.013531936119481357,10.83,2013-09-30 00:00:00,2013-10-26 00:00:00,208.8627407881337,1.2759285874001713,13.573777810068956,2.391380869406155
sh601599,2013-11-04,6.8,6.91,6.8,6.87,0.007331,1121504.0,7690769.0,1132962370.0,2184660000.0,0.0068005193146882725,10.54,2013-09-30 00:00:00,2013-10-26 00:00:00,203.2418832645688,1.2415911427561086,13.208483977195636,2.327024674994507
sh601599,2013-11-01,6.8,6.85,6.74,6.82,0.004418,1619929.0,11001759.0,1124716650.0,2168760000.0,0.009822843629104272,10.46,2013-09-30 00:00:00,2013-10-26 00:00:00,201.76276046758096,1.2325552799984398,13.112357285932465,2.310089409533219
sh601599,2013-10-31,6.88,6.88,6.78,6.79,-0.014513999999999999,1458013.0,9935086.0,1119769220.0,2159220000.0,0.00884102553738707,10.42,2013-09-30 00:00:00,2013-10-26 00:00:00,200.87529342124589,1.227133802857416,13.054681702172267,2.2999283261881196
sh601599,2013-10-30,6.73,6.92,6.71,6.89,0.013235,1959000.0,13367146.0,1136260660.0,2191020000.0,0.011878885255078707,10.57,2013-09-30 00:00:00,2013-10-26 00:00:00,203.83373626946084,1.2452067333857768,13.246947904051671,2.3338011155796425
sh601599,2013-10-29,7.08,7.17,6.7,6.8,-0.046283,2923611.0,20238318.0,1121418360.0,2162400000.0,0.01772804468797889,10.43,2013-09-30 00:00:00,2013-10-26 00:00:00,201.17123497457234,1.2289416901170773,13.07391464374175,2.303316718806242
sh601599,2013-10-28,7.29,7.29,7.09,7.13,-0.023288,1850938.0,13244553.0,1175840140.0,2267340000.0,0.011223624276000647,10.94,2013-09-30 00:00:00,2013-10-26 00:00:00,210.93388811835413,1.2885810886427287,13.708379575641148,2.415094539371996
sh601599,2013-10-25,7.35,7.38,7.01,7.3,-0.002732,3459224.0,24904484.0,1203875590.0,2321400000.0,0.020975867780490508,11.2,2013-06-30 00:00:00,2013-08-06 00:00:00,146.6189142123154,1.3242449943995336,10.283165802060532,2.40628729772526
sh601599,2013-10-24,7.27,7.37,7.25,7.32,0.001368,1723083.0,12591456.0,1207173880.0,2327760000.0,0.010448343663631954,11.23,2013-06-30 00:00:00,2013-08-06 00:00:00,147.02057442163527,1.3278727427326793,10.311336373031654,2.412879283928954
sh601599,2013-10-23,7.69,7.69,7.29,7.31,-0.036891,2934712.0,21902577.0,1205524740.0,2324580000.0,0.017795358326698464,11.21,2013-06-30 00:00:00,2013-08-06 00:00:00,146.81972503778357,1.326058694438687,10.297249735393635,2.4095829744199473
sh601599,2013-10-22,7.62,7.73,7.53,7.59,-0.007843000000000001,3718411.0,28328857.0,1251700790.0,2413620000.0,0.022547512724666412,11.64,2013-06-30 00:00:00,2013-08-06 00:00:00,152.4435188932754,1.3768521469934214,10.69167636829646,2.5018798229691
sh601599,2013-10-21,7.55,7.68,7.51,7.65,0.017287,2728686.0,20762170.0,1261595660.0,2432700000.0,0.016546068254546787,11.74,2013-06-30 00:00:00,2013-08-06 00:00:00,153.64858474341807,1.3877361617097108,10.776194058295674,2.521657180233673
sh601599,2013-10-18,7.66,7.74,7.48,7.52,-0.014417,3146005.0,23914356.0,1240156780.0,2391360000.0,0.01907658610712107,11.54,2013-06-30 00:00:00,2013-08-06 00:00:00,151.03759779041513,1.3641540309762248,10.593071629044383,2.4788060598765864
sh601599,2013-10-17,7.7,7.84,7.6,7.63,-0.005215,2838674.0,21903220.0,1258297370.0,2426340000.0,0.017213007939450752,11.7,2013-06-30 00:00:00,2013-08-06 00:00:00,153.2469592012191,1.3841087264859728,10.74802591871449,2.5150657629814903
sh601599,2013-10-16,7.89,7.89,7.6,7.67,-0.027882999999999998,4534450.0,35129229.0,1264893950.0,2439060000.0,0.027495768716420853,11.77,2013-06-30 00:00:00,2013-08-06 00:00:00,154.0503316809352,1.3913646933618549,10.804370711977452,2.5282505898073357
sh601599,2013-10-15,8.01,8.2,7.84,7.89,-0.062945,10326084.0,82487827.0,1301175130.0,2509020000.0,0.06261478634317273,12.1,2013-06-30 00:00:00,2013-08-06 00:00:00,158.4689205938536,1.4312728749336294,11.114269899587654,2.6007677983281186
sh601599,2013-10-14,8.83,8.86,8.33,8.42,0.044664999999999996,14762521.0,126274872.0,1388579800.0,2677560000.0,0.08951622860997978,12.92,2013-06-30 00:00:00,2013-08-06 00:00:00,169.11378797813745,1.5274160800952232,11.860851176918809,2.7754697411871434
sh601599,2013-10-11,7.73,8.13,7.73,8.06,0.045396,6364694.0,50903734.0,1329210590.0,2563080000.0,0.03859390981830802,12.36,2013-06-30 00:00:00,2013-08-06 00:00:00,161.8832716498949,1.462110896885818,11.353736534600861,2.656803608034292
sh601599,2013-10-10,7.98,7.99,7.62,7.71,-0.028967000000000003,4072264.0,31829477.0,1271490530.0,2451780000.0,0.024693188583952724,11.83,2013-06-30 00:00:00,2013-08-06 00:00:00,154.85354033294072,1.3986191805648942,10.86070401513002,2.5414327279177384
sh601599,2013-10-09,7.55,7.98,7.47,7.94,0.050265,4877104.0,37938365.0,1309420850.0,2524920000.0,0.02957353685028003,12.18,2013-06-30 00:00:00,2013-08-06 00:00:00,159.47299456654997,1.4403415543703397,11.184690958113698,2.6172465075005054
sh601599,2013-10-08,7.3,7.66,7.21,7.56,0.048544,3221449.0,24029951.0,1246753360.0,2404080000.0,0.019534059599406253,11.6,2013-06-30 00:00:00,2013-08-06 00:00:00,151.84072073862308,1.3714077441125236,10.6493989213329,2.491986791429311
sh601599,2013-09-30,7.21,7.32,7.19,7.21,0.001389,1274380.0,9207981.0,1189033290.0,2292780000.0,0.007727521068817173,11.06,2013-06-30 00:00:00,2013-08-06 00:00:00,144.81101483449726,1.3079162573173122,10.156368184199138,2.376616328384227
sh601599,2013-09-27,7.23,7.34,7.18,7.2,-0.009629,1154990.0,8379910.0,1187384150.0,2289600000.0,0.0070035699903860105,11.04,2013-06-30 00:00:00,2013-08-06 00:00:00,144.6101513342939,1.3061020815260724,10.142280556506151,2.373319787199806
sh601599,2013-09-26,7.51,7.51,7.23,7.27,-0.031957,1795963.0,13292491.0,1198928160.0,2311860000.0,0.010890269697226897,11.15,2013-06-30 00:00:00,2013-08-06 00:00:00,146.01614075361042,1.3188008145695627,10.24089008715537,2.3963946714915987
sh601599,2013-09-25,7.65,7.65,7.47,7.51,-0.018300999999999998,2591498.0,19538750.0,1238507630.0,2388180000.0,0.01571419465538537,11.52,2013-06-30 00:00:00,2013-08-06 00:00:00,150.83642023506232,1.3623370186753716,10.57896197499013,2.475504364466867
sh601599,2013-09-24,7.75,7.81,7.6,7.65,-0.012903,1820455.0,14053901.0,1261595660.0,2432700000.0,0.011038783020226942,11.74,2013-06-30 00:00:00,2013-08-06 00:00:00,153.6483384775398,1.3877339374649171,10.776176786357254,2.5216531385555725
sh601599,2013-09-23,7.67,7.76,7.58,7.75,0.011748999999999999,2294630.0,17687404.0,1278087100.0,2464500000.0,0.013914061490801368,11.89,2013-06-30 00:00:00,2013-08-06 00:00:00,155.65677788255843,1.4058739287678081,10.917039345026126,2.5546153402913516
sh601599,2013-09-18,7.62,7.7,7.51,7.66,0.017263999999999998,1339336.0,10185935.0,1263244800.0,2435880000.0,0.008121397974486022,11.75,2013-06-30 00:00:00,2013-08-06 00:00:00,153.8492035895844,1.38954812781412,10.790264527097259,2.524949706193287
sh601599,2013-09-17,7.65,7.69,7.51,7.53,-0.013106,2750486.0,20811722.0,1241805920.0,2394540000.0,0.01667825804856849,11.55,2013-06-30 00:00:00,2013-08-06 00:00:00,151.23822684139458,1.36596608924932,10.607142813563893,2.4820987533160386
sh601599,2013-09-16,7.96,7.96,7.62,7.63,-0.034177,3894172.0,30357960.0,1258297370.0,2426340000.0,0.023613283368779513,11.7,2013-06-30 00:00:00,2013-08-06 00:00:00,153.2466778006499,1.3841061849087337,10.748006182592958,2.5150611446781914
sh601599,2013-09-13,7.75,7.94,7.73,7.9,0.01023,4341706.0,34033639.0,1302824270.0,2512200000.0,0.02632701753399175,12.12,2013-06-30 00:00:00,2013-08-06 00:00:00,158.6695261975019,1.4330847214331546,11.128339439620879,2.604060106953542
sh601599,2013-09-12,7.62,7.85,7.53,7.82,0.024902,4973349.0,38265829.0,1289631120.0,2486760000.0,0.030157142284221554,12.0,2013-06-30 00:00:00,2013-08-06 00:00:00,157.06277401928466,1.4185727224821623,11.015649346803086,2.5776903348282496
sh601599,2013-09-11,7.6,7.72,7.47,7.63,-0.007802,4707617.0,35691548.0,1258297370.0,2426340000.0,0.028545810049654636,11.7,2013-06-30 00:00:00,2013-08-06 00:00:00,153.24662652554554,1.38410572179795,10.748002586396638,2.515060303158985
sh601599,2013-09-10,7.65,7.73,7.5,7.69,-0.009021,5264897.0,39993230.0,1268192240.0,2445420000.0,0.03192501629721375,11.8,2013-06-30 00:00:00,2013-08-06 00:00:00,154.45165836410226,1.3949894293255476,10.832517890982079,2.5348371022305876
sh601599,2013-09-09,7.66,7.98,7.59,7.76,0.048649,12683989.0,98876690.0,1279736250.0,2467680000.0,0.07691253150014309,11.9,2013-06-30 00:00:00,2013-08-06 00:00:00,155.85765022679817,1.407688184437357,10.931127592998518,2.5579120266227515
sh601599,2013-09-06,7.37,7.42,7.31,7.4,0.001353,2101091.0,15479653.0,1220367040.0,2353200000.0,0.012740489451435856,11.35,2013-06-30 00:00:00,2013-08-06 00:00:00,148.62709088245754,1.3423826127115528,10.424009933732373,2.4392451874962466
sh601599,2013-09-05,7.33,7.41,7.26,7.39,0.0,2378531.0,17469450.0,1218717900.0,2350020000.0,0.014422816051196096,11.34,2013-06-30 00:00:00,2013-08-06 00:00:00,148.42627013895952,1.340568823093907,10.409925304794985,2.4359493480283647
sh601599,2013-09-04,7.28,7.42,7.22,7.39,0.010944,4120577.0,30070506.0,1218717900.0,2350020000.0,0.02498614653153121,11.34,2013-06-30 00:00:00,2013-08-06 00:00:00,148.42627013895952,1.340568823093907,10.409925304794985,2.4359493480283647
sh601599,2013-09-03,7.15,7.47,7.1,7.31,0.025245,5003300.0,36446265.0,1205524740.0,2324580000.0,0.030338757709775413,11.21,2013-06-30 00:00:00,2013-08-06 00:00:00,146.8194777741987,1.3260564611827232,10.297232393480732,2.409578916367637
sh601599,2013-09-02,7.11,7.21,7.09,7.13,0.002813,1793028.0,12751640.0,1175840140.0,2267340000.0,0.010872472545460133,10.94,2013-06-30 00:00:00,2013-08-06 00:00:00,143.2042855846151,1.293404465452378,10.043679699467672,2.3502469325552795
sh601599,2013-08-30,7.19,7.2,7.0,7.11,-0.006983,2219388.0,15819942.0,1172541850.0,2260980000.0,0.013457812768047469,10.91,2013-06-30 00:00:00,2013-08-06 00:00:00,142.80258192166946,1.2897763246511345,10.015506080862206,2.3436542331972956
sh601599,2013-08-29,7.16,7.2,7.12,7.16,0.0,2972157.0,21222110.0,1180787570.0,2276880000.0,0.018022415429051305,10.98,2013-06-30 00:00:00,2013-08-06 00:00:00,143.80678469922412,1.2988461674383565,10.085936173159379,2.360135056295406
sh601599,2013-08-28,7.19,7.28,7.06,7.16,-0.006934999999999999,2204746.0,15757138.0,1180787570.0,2276880000.0,0.013369027385679542,10.98,2013-06-30 00:00:00,2013-08-06 00:00:00,143.80678469922412,1.2988461674383565,10.085936173159379,2.360135056295406
sh601599,2013-08-27,7.09,7.23,7.03,7.21,0.018362,2155144.0,15374824.0,1189033290.0,2292780000.0,0.013068253320308634,11.06,2013-06-30 00:00:00,2013-08-06 00:00:00,144.81104932630205,1.3079165688432848,10.156370603293217,2.376616894458476
sh601599,2013-08-26,6.87,7.13,6.86,7.08,0.021644999999999998,2269368.0,16005144.0,1167594410.0,2251440000.0,0.013760879036753866,10.86,2013-06-30 00:00:00,2013-08-06 00:00:00,142.19997341446563,1.2843336346439524,9.973241934884863,2.3337643141225577
sh601599,2013-08-23,6.99,7.07,6.85,6.93,-0.01,2133268.0,14870257.0,1142857240.0,2203740000.0,0.012935602735473768,10.63,2013-06-30 00:00:00,2013-08-06 00:00:00,139.18726506219443,1.257123202916818,9.76194464308528,2.28432020332166
sh601599,2013-08-22,6.97,7.04,6.9,7.0,0.004304,1960680.0,13672273.0,1154401260.0,2226000000.0,0.011889072262447115,10.74,2013-06-30 00:00:00,2013-08-06 00:00:00,140.59319703251964,1.2698214170876951,9.860550144530588,2.3073941447693542
sh601599,2013-08-21,7.01,7.01,6.8,6.97,-0.005706,3112174.0,21409074.0,1149453820.0,2216460000.0,0.018871443465210285,10.69,2013-06-30 00:00:00,2013-08-06 00:00:00,139.99067715803147,1.2643795276009007,9.818292214837925,2.297505680321251
sh601599,2013-08-20,7.04,7.1,6.91,7.01,-0.009887,1975117.0,13837954.0,1156050400.0,2229180000.0,0.011976614661436907,10.75,2013-06-30 00:00:00,2013-08-06 00:00:00,140.79404799589602,1.2716354796477707,9.874636892949091,2.3106904802012793
sh601599,2013-08-19,6.98,7.1,6.92,7.08,0.009986,2036859.0,14309627.0,1167594410.0,2251440000.0,0.012351002708209265,10.86,2013-06-30 00:00:00,2013-08-06 00:00:00,142.19997919014904,1.2843336868092539,9.973242339964319,2.3337644089121943
sh601599,2013-08-16,7.18,7.32,6.92,7.01,-0.02095,4348492.0,31224163.0,1156050400.0,2229180000.0,0.026368166059196035,10.75,2013-06-30 00:00:00,2013-08-06 00:00:00,140.7940102042494,1.27163513831801,9.874634242419518,2.3106898599705286
sh601599,2013-08-15,7.54,7.55,7.14,7.16,-0.051655999999999994,4598168.0,33601441.0,1180787570.0,2276880000.0,0.027882138766077966,10.98,2013-06-30 00:00:00,2013-08-06 00:00:00,143.806761865328,1.2988459612052603,10.08593457169656,2.3601346815489794
sh601599,2013-08-14,7.6,7.68,7.52,7.55,-0.01178,2221747.0,16899957.0,1245104210.0,2400900000.0,0.013472117205354241,11.58,2013-06-30 00:00:00,2013-08-06 00:00:00,151.63987104397563,1.3695936930114605,10.635312261897118,2.4886904768195715
sh601599,2013-08-13,7.68,7.68,7.53,7.64,-0.007792,3372427.0,25598244.0,1259946510.0,2429520000.0,0.020449552481398594,11.72,2013-06-30 00:00:00,2013-08-06 00:00:00,153.44748238648847,1.3859198285922776,10.762089678307582,2.518356718969027
sh601599,2013-08-12,7.38,7.79,7.35,7.7,0.04336,3762632.0,28313305.0,1269841380.0,2448600000.0,0.022815657810741685,11.81,2013-06-30 00:00:00,2013-08-06 00:00:00,154.65253493873107,1.396803723203479,10.846606435654198,2.5381338579904886
sh601599,2013-08-09,7.4,7.42,7.27,7.38,0.0013570000000000001,2055819.0,15165200.0,1217068750.0,2346840000.0,0.01246597139233096,11.32,2013-06-30 00:00:00,2013-08-06 00:00:00,148.22547820381368,1.3387552936699498,10.395842696340859,2.432653981358772
sh601599,2013-08-08,7.47,7.47,7.24,7.37,-0.009409,2223881.0,16314706.0,1215419610.0,2343660000.0,0.013485057205881352,11.31,2013-06-30 00:00:00,2013-08-06 00:00:00,148.024608809659,1.3369410646452262,10.381754655273653,2.429357343443719
sh601599,2013-08-07,7.59,7.68,7.36,7.44,-0.022338999999999998,3340705.0,25090664.0,1226963620.0,2365920000.0,0.02025719817185778,11.41,2013-06-30 00:00:00,2013-08-06 00:00:00,149.43060133764487,1.3496398257658573,10.480364403950421,2.4524322787545203
sh601599,2013-08-06,7.7,7.77,7.59,7.61,-0.005229,2082659.0,15947945.0,1254999080.0,2419980000.0,0.012628722397151081,11.67,2013-06-30 00:00:00,2013-08-06 00:00:00,152.84500592500353,1.3804783312066833,10.719834793400189,2.5084689670085236
sh601599,2013-08-05,7.72,7.74,7.55,7.65,-0.010348999999999999,1783011.0,13631963.0,1261595660.0,2432700000.0,0.01081173198550794,11.74,2013-03-31 00:00:00,2013-04-26 00:00:00,378.5500064579103,1.4821352207968272,8.971491165611774,2.5559485777339215
sh601599,2013-08-02,7.84,7.93,7.7,7.73,-0.014031,1471890.0,11472899.0,1274788810.0,2458140000.0,0.008925172240882786,11.86,2013-03-31 00:00:00,2013-04-26 00:00:00,382.5085878333981,1.4976342375209313,9.065308038502232,2.5826766988907415
sh601599,2013-08-01,7.68,7.85,7.68,7.84,0.011613,1433579.0,11158348.0,1292929410.0,2493120000.0,0.008692863874138342,12.03,2013-03-31 00:00:00,2013-04-26 00:00:00,387.9519415249345,1.5189465769420047,9.194313450526572,2.6194299200996602
sh601599,2013-07-31,7.9,8.03,7.74,7.75,-0.022699,1701714.0,13439963.0,1278087100.0,2464500000.0,0.010318767398559926,11.89,2013-03-31 00:00:00,2013-04-26 00:00:00,383.4983748972527,1.5015095465775992,9.08876561543453,2.589359686065383
sh601599,2013-07-30,7.95,8.13,7.71,7.93,0.007624,2991913.0,23763379.0,1307771710.0,2521740000.0,0.01814221083739455,12.16,2013-03-31 00:00:00,2013-04-26 00:00:00,392.4055893703707,1.5363839252979368,9.299863210448502,2.6495007025116957
sh601599,2013-07-29,7.72,7.89,7.56,7.87,0.018111000000000002,2162349.0,16671702.0,1297876840.0,2502660000.0,0.013111942601579978,12.07,2013-03-31 00:00:00,2013-04-26 00:00:00,389.4365253014723,1.524759161451034,9.22949752134576,2.6294537471434736
sh601599,2013-07-26,7.38,7.75,7.2,7.73,0.047425,2467889.0,18444987.0,1274788810.0,2458140000.0,0.014964660671911609,11.86,2013-03-31 00:00:00,2013-04-26 00:00:00,382.5089064959246,1.497635485178958,9.065315590682902,2.582678850482387
sh601599,2013-07-25,7.6,7.66,7.37,7.38,-0.028947000000000004,2209910.0,16605113.0,1217068750.0,2346840000.0,0.013400340613461648,11.32,2013-03-31 00:00:00,2013-04-26 00:00:00,365.18978112602287,1.429825987711729,8.654858907017593,2.4657410797741
sh601599,2013-07-24,7.72,7.72,7.43,7.6,-0.015544,2698210.0,20416460.0,1253349930.0,2416800000.0,0.01636126951393375,11.66,2013-03-31 00:00:00,2013-04-26 00:00:00,376.0760546808701,1.4724489679880801,8.912859449502337,2.5392445930079
sh601599,2013-07-23,7.65,8.17,7.58,7.72,0.001297,4819978.0,37907213.0,1273139670.0,2454960000.0,0.029227139045946152,11.84,2013-03-31 00:00:00,2013-04-26 00:00:00,382.01408156471194,1.495698099242709,9.053588428027599,2.579337820083275
sh601599,2013-07-22,7.4,7.74,7.21,7.71,0.030749000000000002,3709981.0,27595045.0,1271490530.0,2451780000.0,0.02249639524251903,11.83,2013-03-31 00:00:00,2013-04-26 00:00:00,381.51925109604036,1.4937606916256703,9.041861134136623,2.575996752295547
sh601599,2013-07-19,7.53,7.72,7.43,7.48,-0.039795,5721350.0,43264969.0,1233560200.0,2378640000.0,0.03469283298861296,11.47,2013-03-31 00:00:00,2013-04-26 00:00:00,370.1378813814424,1.4491992634731348,8.772127000983385,2.4991503773426382
sh601599,2013-07-18,7.41,7.8,7.31,7.79,0.08951,11909445.0,89791711.0,1284683680.0,2477220000.0,0.07221589095768695,11.95,2013-03-31 00:00:00,2013-04-26 00:00:00,385.4779774958915,1.5092602761630434,9.135681444049329,2.6027258526487977
sh601599,2013-07-17,6.92,7.18,6.79,7.15,0.034732,3735351.0,26010012.0,1179138420.0,2273700000.0,0.022650232743667193,10.97,2013-03-31 00:00:00,2013-04-26 00:00:00,353.8085721984116,1.3852651890877945,8.38512858445478,2.3888957904459778
sh601599,2013-07-16,6.85,6.92,6.8,6.91,0.008759000000000001,2209372.0,15202017.0,1139558950.0,2197380000.0,0.013397078334560927,10.6,2013-03-31 00:00:00,2013-04-26 00:00:00,341.93257017122465,1.338767129157883,8.103671853634353,2.3087096856441844
sh601599,2013-07-15,6.85,6.91,6.71,6.85,0.004399,1685493.0,11494489.0,1129664090.0,2178300000.0,0.010220407245130719,10.51,2013-03-31 00:00:00,2013-04-26 00:00:00,338.96358810303025,1.327142686367986,8.033308107917106,2.2886632839401524
sh601599,2013-07-12,6.81,6.96,6.75,6.82,0.002941,2582274.0,17772666.0,1124716650.0,2168760000.0,0.01565826262107883,10.46,2013-03-31 00:00:00,2013-04-26 00:00:00,337.4790179032737,1.3213301550160703,7.99812435886247,2.2786395485660105
sh601599,2013-07-11,6.6,6.87,6.6,6.8,0.033435,2849061.0,19282436.0,1121418360.0,2162400000.0,0.017275992164066226,10.43,2013-03-31 00:00:00,2013-04-26 00:00:00,336.48940257031444,1.3174555183366423,7.974670851887071,2.271957720908818
sh601599,2013-07-10,6.52,6.63,6.46,6.58,0.010753,1902916.0,12454473.0,1085137180.0,2092440000.0,0.011538805886275136,10.09,2013-03-31 00:00:00,2013-04-26 00:00:00,325.60287059206854,1.274831526256264,7.716664184866072,2.198452462814611
sh601599,2013-07-09,6.35,6.57,6.26,6.51,0.028436000000000003,2072499.0,13338461.0,1073593169.9999999,2070180000.0,0.012567114682743371,9.99,2013-03-31 00:00:00,2013-04-26 00:00:00,322.13891088334003,1.2612690996279645,7.6345696573406885,2.175063999626626
sh601599,2013-07-08,6.92,6.92,6.31,6.33,-0.091822,2844345.0,18688667.0,1043908560.0,2012940000.0,0.017247395547747978,9.71,2013-03-31 00:00:00,2013-04-26 00:00:00,313.2318499968302,1.2263953222446167,7.423475702270914,2.114924020188545
sh601599,2013-07-05,6.94,7.38,6.85,6.97,0.010145,4122537.0,29070051.0,1149453820.0,2216460000.0,0.02499803157816292,10.69,2013-03-31 00:00:00,2013-04-26 00:00:00,344.9013849672974,1.350390917027958,8.174031635065939,2.328754957936159
sh601599,2013-07-04,6.98,7.08,6.82,6.9,-0.011461,4261017.0,29608597.0,1137909810.0,2194200000.0,0.02583773954809301,10.58,2013-03-31 00:00:00,2013-04-26 00:00:00,341.4375015144335,1.336828788963919,8.091938914775541,2.305367009623528
sh601599,2013-07-03,7.07,7.07,6.73,6.98,-0.008523000000000001,2679977.0,18549498.0,1151102970.0,2219640000.0,0.016250709056896972,10.71,2013-03-31 00:00:00,2013-04-26 00:00:00,345.39608605672964,1.3523278180870142,8.185755862718153,2.332095152162462
sh601599,2013-07-02,7.09,7.13,6.85,7.04,-0.004243,2901950.0,20257317.0,1160997830.0,2238720000.0,0.017596697833621274,10.8,2013-03-31 00:00:00,2013-04-26 00:00:00,348.36520267916416,1.3639527876965518,8.256122797319708,2.352142462369235
sh601599,2013-07-01,6.82,7.13,6.77,7.07,0.052083000000000004,3026709.0,21059326.0,1165945270.0,2248260000.0,0.018353205060817307,10.85,2013-03-31 00:00:00,2013-04-26 00:00:00,349.849614593886,1.3697646993157484,8.291302795079229,2.3621651290116312
sh601599,2013-06-28,6.89,7.03,6.68,6.72,-0.005917,3328074.0,22763873.0,1108225200.0,2136960000.0,0.020180607046293476,10.31,2013-03-31 00:00:00,2013-04-26 00:00:00,332.53043209888,1.3019549781868431,7.880844757570676,2.245226972597819
sh601599,2013-06-27,7.0,7.15,6.7,6.76,-0.041135000000000005,4625256.0,32120187.0,1114821780.0,2149680000.0,0.02804639371146839,10.37,2013-03-31 00:00:00,2013-04-26 00:00:00,334.50972614850065,1.309704499711637,7.927753273691106,2.2585910558754336
sh601599,2013-06-26,6.95,7.26,6.9,7.05,0.0014199999999999998,4876374.0,34381666.0,1162646980.0,2241900000.0,0.029569110221229836,10.81,2013-03-31 00:00:00,2013-04-26 00:00:00,348.86008577693485,1.3658904013720772,8.267851338500316,2.355483885505711
sh601599,2013-06-25,7.16,7.36,6.66,7.04,-0.04607,9336034.0,64354157.0,1160997830.0,2238720000.0,0.05661137140971228,10.8,2013-03-31 00:00:00,2013-04-26 00:00:00,348.3654068991381,1.3639535872781423,8.256127637255414,2.352143841251135
sh601599,2013-06-24,7.99,8.04,7.32,7.38,-0.087763,4008976.0,30703471.0,1217068750.0,2346840000.0,0.024309426135540824,11.32,2013-03-31 00:00:00,2013-04-26 00:00:00,365.1896962032205,1.4298256552138442,8.654856894379476,2.4657405063800644
sh601599,2013-06-21,8.74,8.74,7.97,8.09,-0.086907,5102661.0,41439284.0,1334158020.0,2572620000.0,0.03094125798531721,12.41,2013-03-31 00:00:00,2013-04-26 00:00:00,400.32326709311343,1.5673839750129015,9.487509160864422,2.7029604218860497
sh601599,2013-06-20,9.33,9.52,8.79,8.86,-0.050375,3149402.0,28647891.0,1461142160.0,2817480000.0,0.019097184711992704,13.59,2013-03-31 00:00:00,2013-04-26 00:00:00,438.4255131658149,1.7165655360548173,10.390517899999695,2.9602246670230192
sh601599,2013-06-19,9.16,9.39,9.15,9.33,0.013028999999999999,1079001.0,9974410.0,1538651960.0,2966940000.0,0.006542791736995545,14.31,2013-03-31 00:00:00,2013-04-26 00:00:00,461.6827833785071,1.8076246266208422,10.941706357772482,3.117256461258938
sh601599,2013-06-18,9.63,9.66,9.15,9.21,-0.04262,3032655.0,28224309.0,1518862220.0,2928780000.0,0.01838926018582515,14.13,2013-03-31 00:00:00,2013-04-26 00:00:00,455.7448832940687,1.7843759918233755,10.800980384344852,3.0771640903260793
sh601599,2013-06-17,9.57,9.89,9.54,9.62,-0.001038,2502599.0,24337352.0,1586477150.0,3059160000.0,0.015175133395397469,14.76,2013-03-31 00:00:00,2013-04-26 00:00:00,476.0334279952252,1.8638116440946912,11.281811176695621,3.214151215114249
sh601599,2013-06-14,9.59,9.88,9.5,9.63,0.004171,1693303.0,16456175.0,1588126300.0,3062340000.0,0.010267765158224508,14.77,2013-03-31 00:00:00,2013-04-26 00:00:00,476.5280641257878,1.865748290820563,11.293533864847333,3.217490970741879
sh601599,2013-06-13,9.27,9.7,8.93,9.59,0.032293,3088019.0,29002773.0,1581529720.0,3049620000.0,0.018724973571789722,14.71,2013-03-31 00:00:00,2013-04-26 00:00:00,474.5487214087917,1.8579985787486026,11.246624195328616,3.2041265588648535
sh601599,2013-06-07,9.5,9.65,9.15,9.29,-0.032292,4352023.0,40597434.0,1532055380.0,2954220000.0,0.02638957716397954,14.25,2013-03-31 00:00:00,2013-04-26 00:00:00,459.703515773905,1.7998752086361163,10.894798468388933,3.1038925565366164
sh601599,2013-06-06,10.13,10.17,9.6,9.6,-0.053253999999999996,2212800.0,21776983.0,1583178860.0,3052800000.0,0.013417864864618012,14.73,2013-03-31 00:00:00,2013-04-26 00:00:00,475.04362449613416,1.8599362706892124,11.25835321025447,3.2074681169698054
sh601599,2013-06-05,10.14,10.16,10.0,10.14,0.00396,1187833.0,11987993.0,1672232680.0,3224520000.0,0.0072027217049723015,15.55,2013-03-31 00:00:00,2013-04-26 00:00:00,501.76459630791595,1.964556777307971,11.891630078452373,3.38788663165179
sh601599,2013-06-04,10.27,10.27,9.98,10.1,-0.016553000000000002,2232973.0,22536903.0,1665636100.0,3211800000.0,0.013540188820355178,15.49,2013-03-31 00:00:00,2013-04-26 00:00:00,499.78544594198564,1.9568078183473159,11.844724967580753,3.374523518518457
sh601599,2013-06-03,10.42,10.54,10.27,10.27,-0.015340000000000001,1797792.0,18627118.0,1693671560.0,3265860000.0,0.010901360261372044,15.75,2013-03-31 00:00:00,2013-04-26 00:00:00,508.1976415017644,1.9897440516340137,12.0440908026368,3.4313221948091326
sh601599,2013-05-31,10.36,10.75,10.36,10.43,0.004817,2970748.0,31433758.0,1720057870.0,3316740000.0,0.018013871614680033,16.0,2013-03-31 00:00:00,2013-04-26 00:00:00,516.1148431963971,2.020742237558156,12.231725471367579,3.4847787000681785
sh601599,2013-05-30,10.14,10.59,10.12,10.38,0.023552,2617507.0,26980288.0,1711812150.0,3300840000.0,0.01587190665751496,15.92,2013-03-31 00:00:00,2013-04-26 00:00:00,513.6406362515733,2.011054985692077,12.173087707878725,3.4680729924634814
sh601599,2013-05-29,10.22,10.31,10.16,10.19,-0.001959,1221452.0,12473357.0,1680478400.0,3240420000.0,0.00740657891229069,15.56,2013-03-31 00:00:00,2013-04-26 00:00:00,501.8217308466724,1.964780475923135,11.892984145288882,3.3882724008780025
sh601599,2013-05-28,10.36,10.37,10.15,10.21,-0.009699,2260439.0,23082288.0,1683776690.0,3246780000.0,0.013706735772663537,15.59,2013-03-31 00:00:00,2013-04-26 00:00:00,502.8067292292324,1.968637035876417,11.91632823229595,3.394923055143028
sh601599,2013-05-27,10.15,10.48,10.14,10.31,0.019782,2188640.0,22594910.0,1700268130.0,3278580000.0,0.013271364675876151,15.74,2013-03-31 00:00:00,2013-04-26 00:00:00,507.7312142765002,1.9879178511143754,12.03303665481096,3.4281729041402844
sh601599,2013-05-24,10.11,10.19,9.88,10.11,0.006972,2768960.0,27763628.0,1667285240.0,3214980000.0,0.016790279748413055,15.43,2013-03-31 00:00:00,2013-04-26 00:00:00,497.88211036917727,1.9493556967218246,11.799616638468773,3.361672302649277
sh601599,2013-05-23,10.03,10.3,9.95,10.04,0.004,3939249.0,40008183.0,1655741230.0,3192720000.0,0.023886619021983285,15.33,2013-03-31 00:00:00,2013-04-26 00:00:00,494.4349101754341,1.9358588885508479,11.7179193050738,3.338396998773826
sh601599,2013-05-22,10.14,10.19,9.97,10.0,-0.018646,2324172.0,23348847.0,1649144650.0,3180000000.0,0.014093196736865987,15.27,2013-03-31 00:00:00,2013-04-26 00:00:00,492.46504997553205,1.9281463033374981,11.671234367603388,3.3250966123245282
sh601599,2013-05-21,9.88,10.2,9.8,10.19,0.031376999999999995,3953428.0,39882397.0,1680478400.0,3240420000.0,0.02397259692240019,15.56,2013-03-31 00:00:00,2013-04-26 00:00:00,501.8220234243016,1.964781621451075,11.892991079267407,3.3882743763458736
sh601599,2013-05-20,9.43,9.99,9.39,9.88,0.045502999999999995,3983051.0,38772763.0,1629354910.0,3141840000.0,0.024152223458792046,15.08,2013-03-31 00:00:00,2013-04-26 00:00:00,486.5553754100601,1.9050081797936882,11.531177328239243,3.2851948185250137
sh601599,2013-05-17,9.52,9.61,9.35,9.45,-0.008395,1906019.0,17961226.0,1558441690.0,3005100000.0,0.011557621735594097,14.43,2013-03-31 00:00:00,2013-04-26 00:00:00,465.37922455512813,1.822097286945794,11.02931060765894,3.142214626380808
sh601599,2013-05-16,9.48,9.72,9.27,9.53,0.0031579999999999998,2714227.0,25657677.0,1571634850.0,3030540000.0,0.016458392552188568,14.55,2013-03-31 00:00:00,2013-04-26 00:00:00,469.3191588940437,1.8375232950073812,11.12268555287533,3.1688168437843784
sh601599,2013-05-15,9.56,9.6,9.4,9.5,-0.007315,1285192.0,12195335.0,1566687420.0,3021000000.0,0.007793082298445978,14.5,2013-03-31 00:00:00,2013-04-26 00:00:00,467.84171475883534,1.8317386643055045,11.087670688839975,3.158841223201508
sh601599,2013-05-14,9.43,9.58,9.23,9.57,0.014846000000000002,2250126.0,21063409.0,1578231430.0,3043260000.0,0.01364420034392548,14.61,2013-03-31 00:00:00,2013-04-26 00:00:00,471.28919522188335,1.8452365698136914,11.169374664510869,3.182118419439709
sh601599,2013-05-13,9.6,9.75,9.3,9.43,-0.027835000000000002,3901345.0,36768321.0,1555143400.0,2998740000.0,0.02365677875750879,14.4,2013-03-31 00:00:00,2013-04-26 00:00:00,464.3947901670632,1.818242935197746,11.005979887106882,3.1355677801752284
sh601599,2013-05-10,9.58,9.72,9.4,9.7,0.013584,1937109.0,18582817.0,1599670310.0,3084600000.0,0.011746143678818417,14.81,2013-03-31 00:00:00,2013-04-26 00:00:00,477.6913282900158,1.8703028140261644,11.32110278307374,3.2253452656444415
sh601599,2013-05-09,9.85,9.86,9.55,9.57,-0.028426,2565543.0,24841484.0,1578231430.0,3043260000.0,0.015556810011064095,14.61,2013-03-31 00:00:00,2013-04-26 00:00:00,471.28933397726865,1.845237113082058,11.169377952960723,3.182119356308349
sh601599,2013-05-08,9.8,10.04,9.73,9.85,0.008187999999999999,2439785.0,24169092.0,1624407480.0,3132300000.0,0.014794245006800879,15.04,2013-03-31 00:00:00,2013-04-26 00:00:00,485.07816592176056,1.89922446780385,11.496168025246375,3.275220782265014
sh601599,2013-05-07,9.71,9.8,9.54,9.77,0.011387000000000001,1949374.0,18905350.0,1611214320.0,3106860000.0,0.011820515584791972,14.92,2013-03-31 00:00:00,2013-04-26 00:00:00,481.13860304006846,1.8837999141071406,11.402801883424893,3.2486210729199456
sh601599,2013-05-06,9.74,9.85,9.62,9.66,-0.010246,3088946.0,30046545.0,1593073730.0,3071880000.0,0.018730594697585028,14.75,2013-03-31 00:00:00,2013-04-26 00:00:00,475.72156161792515,1.8625905950018544,11.274420062176883,3.212045510689722
sh601599,2013-05-03,9.57,9.84,9.56,9.76,0.018789,4662652.0,45300616.0,1609565180.0,3103680000.0,0.028273153573066236,14.9,2013-03-31 00:00:00,2013-04-26 00:00:00,480.64626323098986,1.881872258158951,11.391133617218909,3.2452968219271874
sh601599,2013-05-02,9.12,9.6,9.12,9.58,0.045852,4719292.0,44670671.0,1579880570.0,3046440000.0,0.028616604456373564,14.63,2013-03-31 00:00:00,2013-04-26 00:00:00,471.7819521323746,1.8471658588372577,11.181052815861682,3.1854454866779944
sh601599,2013-04-26,9.16,9.3,9.07,9.16,-0.002179,1747078.0,16039633.0,1510616500.0,2912880000.0,0.010593843295105012,13.98,2013-03-31 00:00:00,2013-04-26 00:00:00,451.0981975770708,1.7661828431147597,10.690855700291898,3.0457899269475934
sh601599,2013-04-25,9.25,9.51,9.05,9.18,-0.010776,4874623.0,45384597.0,1513914790.0,2919240000.0,0.029558492615030203,14.01,2012-12-31 00:00:00,2013-04-23 00:00:00,286.84816968868427,1.7467206135339544,22.609617150171573,3.055213139193205
sh601599,2013-04-24,8.87,9.3,8.84,9.28,0.050963,8059452.0,73591300.0,1530406240.0,2951040000.0,0.048870497652963044,14.17,2012-12-31 00:00:00,2013-04-23 00:00:00,289.9729178514515,1.765748317402281,22.855912462871473,3.088494758713097
sh601599,2013-04-23,8.7,8.9,8.65,8.83,0.01963,4068973.0,35723413.0,1456194730.0,2807940000.0,0.02467323281001024,13.48,2012-12-31 00:00:00,2013-04-23 00:00:00,275.9116332843796,1.680124150329061,21.74759003206723,2.938728346015128
sh601599,2013-04-22,8.6,8.67,8.59,8.66,0.002315,2035507.0,17579920.0,1428159270.0,2753880000.0,0.012342804468860115,13.22,2012-09-30 00:00:00,2012-10-25 00:00:00,107.01122354426207,1.6215749623569398,21.36728649108039,2.849313672128829
sh601599,2013-04-19,8.59,8.78,8.59,8.64,0.005821,2016776.0,17545864.0,1424860980.0,2747520000.0,0.012229224383700929,13.19,2012-09-30 00:00:00,2012-10-25 00:00:00,106.7640647344019,1.6178296866323856,21.317935470466256,2.84273274582225
sh601599,2013-04-18,8.57,8.65,8.52,8.59,-0.005787,1060841.0,9113733.0,1416615250.0,2731620000.0,0.00643267407293547,13.11,2012-09-30 00:00:00,2012-10-25 00:00:00,106.14618777536153,1.6084668013815435,21.194561925497933,2.826280964328891
sh601599,2013-04-17,8.74,8.75,8.51,8.64,-0.011442,1163255.0,10039308.0,1424860980.0,2747520000.0,0.00705368687968422,13.19,2012-09-30 00:00:00,2012-10-25 00:00:00,106.76403122405512,1.6178291788394874,21.317928779343994,2.8427318535654744
sh601599,2013-04-16,8.61,8.75,8.43,8.74,0.006912000000000001,1968550.0,16893606.0,1441352420.0,2779320000.0,0.011936794056237822,13.34,2012-09-30 00:00:00,2012-10-25 00:00:00,107.99976452980515,1.6365546369959956,21.56467175354809,2.8756348677219488
sh601599,2013-04-15,8.8,8.8,8.55,8.68,-0.0034439999999999996,1105309.0,9619315.0,1431457560.0,2760240000.0,0.006702316846892758,13.25,2012-09-30 00:00:00,2012-10-25 00:00:00,107.25839450697293,1.62532042223749,21.416639938294594,2.8558949220209398
sh601599,2013-04-12,8.76,8.88,8.65,8.71,-0.014706,1319549.0,11524965.0,1436404990.0,2769780000.0,0.008001414552312298,13.3,2012-09-30 00:00:00,2012-10-25 00:00:00,107.62906902068016,1.6309373705416352,21.49065374980894,2.865764615356227
sh601599,2013-04-11,8.8,8.99,8.76,8.84,0.004545,1856718.0,16510810.0,1457843870.0,2811120000.0,0.011258672796010727,13.5,2012-09-30 00:00:00,2012-10-25 00:00:00,109.23548607895731,1.6552799170010528,21.811412380273236,2.9085375688436415
sh601599,2013-04-10,8.65,8.83,8.65,8.8,0.011493999999999999,1512511.0,13209378.0,1451247290.0,2798400000.0,0.00917148778965162,13.43,2012-09-30 00:00:00,2012-10-25 00:00:00,108.74125706559418,1.6477907082321377,21.712728031370656,2.895378075490537
sh601599,2013-04-09,8.65,8.89,8.65,8.7,0.0057799999999999995,2259701.0,19772121.0,1434755850.0,2766600000.0,0.01370226070170754,13.28,2012-09-30 00:00:00,2012-10-25 00:00:00,107.50558783897303,1.6290662210869642,21.46599785205909,2.862476767524609
sh601599,2013-04-08,8.6,8.68,8.28,8.65,0.0,2228277.0,18921201.0,1426510120.0,2750700000.0,0.013511713502600319,13.21,2012-09-30 00:00:00,2012-10-25 00:00:00,106.8877764908559,1.6197043300592222,21.342637407841767,2.8460267330078244
sh601599,2013-04-03,8.76,9.18,8.48,8.65,-0.009164,2751211.0,23844574.0,1426510120.0,2750700000.0,0.0166826542737741,13.21,2012-09-30 00:00:00,2012-10-25 00:00:00,106.8877764908559,1.6197043300592222,21.342637407841767,2.8460267330078244
sh601599,2013-04-02,8.71,8.96,8.71,8.73,-0.004561,2178032.0,19204653.0,1439703280.0,2776140000.0,0.01320704038404358,13.33,2012-09-30 00:00:00,2012-10-25 00:00:00,107.87635541185008,1.6346845795461833,21.54003024500701,2.8723489386819048
sh601599,2013-04-01,8.56,9.06,8.56,8.77,0.008046,2349766.0,20804163.0,1446299860.0,2788860000.0,0.014248392321631005,13.39,2012-09-30 00:00:00,2012-10-25 00:00:00,108.37063387294458,1.6421745376122325,21.638724467302374,2.885509748645477
sh601599,2013-03-29,8.73,8.86,8.6,8.7,0.001151,2902690.0,25372973.0,1434755850.0,2766600000.0,0.01760118489846199,13.28,2012-09-30 00:00:00,2012-10-25 00:00:00,107.5056434656202,1.6290670640151665,21.46600895921652,2.8624782486567844
sh601599,2013-03-28,8.92,8.93,8.62,8.69,-0.013621000000000001,2437151.0,21324418.0,1433106700.0,2763420000.0,0.01477827309718111,13.27,2012-09-30 00:00:00,2012-10-25 00:00:00,107.38204672983419,1.6271941635329406,21.441329988399875,2.859187324046807
sh601599,2013-03-27,8.56,9.2,8.56,8.81,0.024419,4884914.0,43299574.0,1452896440.0,2801580000.0,0.029620894617926108,13.45,2012-09-30 00:00:00,2012-10-25 00:00:00,108.8648954710453,1.6496642401479964,21.737415322507754,2.898670109609802
sh601599,2013-03-26,8.75,8.75,8.49,8.6,-0.017143000000000002,2143014.0,18375539.0,1418264400.0,2734800000.0,0.012994700000930715,13.13,2012-09-30 00:00:00,2012-10-25 00:00:00,106.26989100265153,1.610341315563257,21.21926215982694,2.8295747244143286
sh601599,2013-03-25,8.9,8.9,8.65,8.75,-0.006809999999999999,2140499.0,18687708.0,1443001570.0,2782500000.0,0.012979449668928635,13.36,2012-09-30 00:00:00,2012-10-25 00:00:00,108.12345132878086,1.6384289022342593,21.589368707581006,2.878928190382049
sh601599,2013-03-22,8.8,8.95,8.65,8.81,0.0011359999999999999,1672667.0,14741562.0,1452896440.0,2801580000.0,0.010142633613996605,13.45,2012-09-30 00:00:00,2012-10-25 00:00:00,108.86482075814381,1.6496631079997375,21.737400404334522,2.8986681202811635
sh601599,2013-03-21,8.65,8.93,8.52,8.8,0.022067,2603369.0,22933342.0,1451247290.0,2798400000.0,0.015786177419838628,13.43,2012-09-30 00:00:00,2012-10-25 00:00:00,108.74129065196318,1.6477912171770244,21.712734737672527,2.895378969771503
sh601599,2013-03-20,8.4,8.69,8.31,8.61,0.023781,2428515.0,20787132.0,1419913540.0,2737980000.0,0.014725906585833387,13.14,2012-09-30 00:00:00,2012-10-25 00:00:00,106.39350517330388,1.6122144802415344,21.243944611921258,2.832866113250406
sh601599,2013-03-19,8.34,8.46,8.17,8.41,0.031902,3191052.0,26606058.0,1386930650.0,2674380000.0,0.019349739887859572,12.84,2012-09-30 00:00:00,2012-10-25 00:00:00,103.92213293009331,1.5747649939210966,20.750477506342914,2.767062597616488
sh601599,2013-03-18,8.19,8.35,8.11,8.15,0.0012289999999999998,1426394.0,11725818.0,1344052890.0,2591700000.0,0.008649295862159114,12.44,2012-09-30 00:00:00,2012-10-25 00:00:00,100.70930469181503,1.5260799900776398,20.108961419149217,2.6815168471584396
sh601599,2013-03-15,8.19,8.45,8.06,8.14,0.0,3860430.0,31843518.0,1342403750.0,2588520000.0,0.023408680287134182,12.43,2012-09-30 00:00:00,2012-10-25 00:00:00,100.58568488509125,1.5242067399941868,20.08427784168179,2.6782253082545946
sh601599,2013-03-14,8.13,8.29,8.04,8.14,-0.00489,1675590.0,13720852.0,1342403750.0,2588520000.0,0.010160357940001287,12.43,2012-09-30 00:00:00,2012-10-25 00:00:00,100.58568488509125,1.5242067399941868,20.08427784168179,2.6782253082545946
sh601599,2013-03-13,8.28,8.28,7.6,8.18,-0.002439,4852211.0,38664142.0,1349000320.0,2601240000.0,0.02942259196795446,12.49,2012-09-30 00:00:00,2012-10-25 00:00:00,101.07996591843238,1.531696737038304,20.182972577586185,2.6913861867075943
sh601599,2013-03-12,8.85,8.98,8.11,8.2,-0.074492,9618118.0,81915416.0,1352298610.0,2607600000.0,0.05832185806949842,12.52,2012-09-30 00:00:00,2012-10-25 00:00:00,101.32710272197126,1.5354416792941021,20.23231920412504,2.697966527067111
sh601599,2013-03-11,8.78,9.0,8.75,8.86,0.009112,2701522.0,24025238.0,1461142160.0,2817480000.0,0.01638135259884637,13.53,2012-09-30 00:00:00,2012-10-25 00:00:00,109.48268704535376,1.659025831536953,21.86077181842301,2.9151196176230902
sh601599,2013-03-08,9.25,9.25,8.77,8.78,-0.034102999999999994,4914619.0,43838923.0,1447949000.0,2792040000.0,0.02980101841984766,13.4,2012-09-30 00:00:00,2012-10-25 00:00:00,108.49408890723107,1.6440452908467575,21.663375144109885,2.8887969002678497
sh601599,2013-03-07,9.0,9.28,8.87,9.09,0.020202,4905149.0,44577215.0,1499072490.0,2890620000.0,0.029743594594281424,13.88,2012-09-30 00:00:00,2012-10-25 00:00:00,112.32469808605998,1.7020917249424705,22.428245603941086,2.9907918756014875
sh601599,2013-03-06,8.75,9.15,8.6,8.91,0.025315999999999998,5551683.0,49890155.0,1469387880.0,2833380000.0,0.03366401492980873,13.6,2012-09-30 00:00:00,2012-10-25 00:00:00,110.10044881901817,1.668386971347312,21.984122363944675,2.931568332155286
sh601599,2013-03-05,8.26,8.73,8.26,8.69,0.057178,5419568.0,46316920.0,1433106700.0,2763420000.0,0.03286290261569498,13.27,2012-09-30 00:00:00,2012-10-25 00:00:00,107.38196694386723,1.6271929545109138,21.44131405727081,2.8591851996411703
sh601599,2013-03-04,8.3,8.48,8.1,8.22,-0.027219,5602115.0,46572578.0,1355596900.0,2613960000.0,0.0339698219286279,12.55,2012-09-30 00:00:00,2012-10-25 00:00:00,101.57415964375652,1.5391854110763883,20.281649880408796,2.7045447404705456
sh601599,2013-03-01,8.08,8.6,8.08,8.45,0.03681,10591883.0,89429294.0,1393527230.0,2687100000.0,0.06422652490974289,12.9,2012-09-30 00:00:00,2012-10-25 00:00:00,104.41626598767503,1.5822527486416655,20.849142695435862,2.780219536021515
sh601599,2013-02-28,7.91,8.17,7.91,8.15,0.01875,2963437.0,23882381.0,1344052890.0,2591700000.0,0.01796953953947452,12.44,2012-09-30 00:00:00,2012-10-25 00:00:00,100.70916174388273,1.5260778239423478,20.108932876260706,2.6815130409829337
sh601599,2013-02-27,8.15,8.2,7.85,8.0,-0.013563999999999998,4542545.0,36250742.0,1319315720.0,2544000000.0,0.027544854843388054,12.21,2012-09-30 00:00:00,2012-10-25 00:00:00,98.85561888970084,1.4979905020292985,19.738829817188424,2.6321600402286465
sh601599,2013-02-26,8.28,8.39,8.05,8.11,-0.019347,7170904.0,58809381.0,1337456310.0,2578980000.0,0.04348256537815429,12.38,2012-09-30 00:00:00,2012-10-25 00:00:00,100.21493425797601,1.5185886383194636,20.010248832350424,2.668353588300352
sh601599,2013-02-25,7.78,8.35,7.78,8.27,0.05619400000000001,12545608.0,102131831.0,1363842630.0,2629860000.0,0.07607342363246117,12.63,2012-09-30 00:00:00,2012-10-25 00:00:00,102.19204372798126,1.5485484042974054,20.40502484808635,2.720996711681249
sh601599,2013-02-22,7.55,7.91,7.52,7.83,0.030262999999999998,7111688.0,55035384.0,1291280260.0,2489940000.0,0.043123494383783115,11.95,2012-09-30 00:00:00,2012-10-25 00:00:00,96.75499361668525,1.4661590619691132,19.31939099075203,2.57622814717869
sh601599,2013-02-21,7.6,7.68,7.49,7.6,-0.009126,2943184.0,22317944.0,1253349930.0,2416800000.0,0.01784673048172588,11.6,2012-09-30 00:00:00,2012-10-25 00:00:00,93.91290730297533,1.4230920279279304,18.751902175223254,2.5005538849582005
sh601599,2013-02-20,7.45,7.7,7.44,7.67,0.019947,2884927.0,21770297.0,1264893950.0,2439060000.0,0.01749347452408955,11.71,2012-09-30 00:00:00,2012-10-25 00:00:00,94.77784996172603,1.4361987779757368,18.924608149192782,2.5235841135787194
sh601599,2013-02-19,7.58,7.65,7.45,7.52,-0.006605,2114243.0,15894224.0,1240156780.0,2391360000.0,0.012820239840965914,11.48,2012-09-30 00:00:00,2012-10-25 00:00:00,92.92428916573708,1.4081111841848026,18.554501507620284,2.4742306351003727
sh601599,2013-02-18,7.47,7.71,7.41,7.57,0.009333,5375957.0,40955091.0,1248402500.0,2407260000.0,0.032598456419303874,11.56,2012-09-30 00:00:00,2012-10-25 00:00:00,93.5421349671954,1.4174735972949357,18.67786883125069,2.490681586982391
sh601599,2013-02-08,7.28,7.51,7.26,7.5,0.031637,2788954.0,20762069.0,1236858490.0,2385000000.0,0.01691151830958447,11.45,2012-09-30 00:00:00,2012-10-25 00:00:00,92.67717885692373,1.4043666434119717,18.505160171371287,2.4676510001975474
sh601599,2013-02-07,7.32,7.32,7.18,7.27,0.002759,1878297.0,13594497.0,1198928160.0,2311860000.0,0.011389522446449168,11.1,2012-09-30 00:00:00,2012-10-25 00:00:00,89.83506684708259,1.3612992199891742,17.937666225010627,2.3919760537839836
sh601599,2013-02-06,7.4,7.42,7.23,7.25,-0.014946000000000001,2904400.0,21326951.0,1195629870.0,2305500000.0,0.017611553983675567,11.07,2012-09-30 00:00:00,2012-10-25 00:00:00,89.5878938479561,1.3575537292501734,17.88831237117855,2.3853947496696457
sh601599,2013-02-05,7.45,7.59,7.35,7.36,-0.016043,3137120.0,23273929.0,1213770460.0,2340480000.0,0.019022709779903526,11.24,2012-09-30 00:00:00,2012-10-25 00:00:00,90.94719055803652,1.3781515828068043,18.159727660796822,2.4215878009425333
sh601599,2013-02-04,7.45,7.56,7.39,7.48,0.006729000000000001,2832722.0,21173132.0,1233560200.0,2378640000.0,0.017176916505574676,11.42,2012-09-30 00:00:00,2012-10-25 00:00:00,92.43004578252557,1.4006217576650237,18.45581428944234,2.461070759131276
sh601599,2013-02-01,7.44,7.47,7.3,7.43,0.006775,3485262.0,25827341.0,1225314470.0,2362740000.0,0.021133755696200993,11.34,2012-09-30 00:00:00,2012-10-25 00:00:00,91.81224121141395,1.3912599693313927,18.332455198412223,2.4446209050611194
sh601599,2013-01-31,7.2,7.46,7.03,7.38,0.016529,3948241.0,28880154.0,1217068750.0,2346840000.0,0.02394114431086987,11.27,2012-09-30 00:00:00,2012-10-25 00:00:00,91.19439915712444,1.3818976130032954,18.209088622991455,2.428170052952367
sh601599,2013-01-30,7.2,7.31,7.18,7.26,0.002762,1806521.0,13106377.0,1197279020.0,2308680000.0,0.010954290721639805,11.08,2012-09-30 00:00:00,2012-10-25 00:00:00,89.71155683421176,1.3594276336467486,17.913004570446546,2.3886874382849554
sh601599,2013-01-29,7.22,7.29,7.18,7.24,0.0013830000000000001,1754751.0,12692497.0,1193980730.0,2302320000.0,0.010640370418708517,11.05,2012-09-30 00:00:00,2012-10-25 00:00:00,89.46445600672119,1.3556832365474045,17.863665127364765,2.3821080558347396
sh601599,2013-01-28,7.07,7.24,7.07,7.23,0.025532,1495735.0,10713205.0,1192331580.0,2299140000.0,0.009069762330710053,11.04,2012-09-30 00:00:00,2012-10-25 00:00:00,89.34089754541588,1.3538109160505067,17.83899379894083,2.378818150332829
sh601599,2013-01-25,7.01,7.12,7.01,7.05,0.0,1518302.0,10735996.0,1162646980.0,2241900000.0,0.009206602936344444,10.76,2012-09-30 00:00:00,2012-10-25 00:00:00,87.1166356051453,1.3201059704138989,17.39486802843873,2.3195942694453504
sh601599,2013-01-24,7.31,7.37,7.04,7.05,-0.035568,2849019.0,20583447.0,1162646980.0,2241900000.0,0.017275737429774257,10.76,2012-09-30 00:00:00,2012-10-25 00:00:00,87.1166356051453,1.3201059704138989,17.39486802843873,2.3195942694453504
sh601599,2013-01-23,7.26,7.37,7.15,7.31,0.0027429999999999998,2456225.0,17855501.0,1205524740.0,2324580000.0,0.014893933035335302,11.16,2012-09-30 00:00:00,2012-10-25 00:00:00,90.32947434878281,1.368791133448391,18.0363862132724,2.405140299622317
sh601599,2013-01-22,7.43,7.45,7.2,7.29,-0.009511,3021661.0,21945760.0,1202226450.0,2318220000.0,0.018322595289764255,11.13,2012-09-30 00:00:00,2012-10-25 00:00:00,90.08237838487311,1.3650468100484285,17.98704774131797,2.398561046671298
sh601599,2013-01-21,7.43,7.48,7.32,7.36,-0.009420999999999999,1895152.0,13969246.0,1213770460.0,2340480000.0,0.011491726961290524,11.24,2012-09-30 00:00:00,2012-10-25 00:00:00,90.94737890564468,1.378154436897763,18.15976526878942,2.4215928159437383
sh601599,2013-01-18,7.34,7.55,7.34,7.43,0.012262,2562470.0,19061354.0,1225314470.0,2362740000.0,0.015538176171215869,11.34,2012-09-30 00:00:00,2012-10-25 00:00:00,91.81234298894353,1.3912615115985327,18.33247552066965,2.44462361502085
sh601599,2013-01-17,7.34,7.47,7.27,7.34,0.0,1490529.0,10995092.0,1210472170.0,2334120000.0,0.009038194459274515,11.21,2012-09-30 00:00:00,2012-10-25 00:00:00,90.7001774134992,1.374408514395021,18.11040572566159,2.415010753165534
sh601599,2013-01-16,7.49,7.5,7.21,7.34,-0.018716999999999998,2102093.0,15470587.0,1210472170.0,2334120000.0,0.012746565350610249,11.21,2012-09-30 00:00:00,2012-10-25 00:00:00,90.7001774134992,1.374408514395021,18.11040572566159,2.415010753165534
sh601599,2013-01-15,7.46,7.5,7.38,7.48,0.004027,2789097.0,20756719.0,1233560200.0,2378640000.0,0.016912385435262908,11.42,2012-09-30 00:00:00,2012-10-25 00:00:00,92.43019334228677,1.4006239936848197,18.455843753190045,2.461074688102753
sh601599,2013-01-14,7.2,7.49,7.2,7.45,0.036161,3267298.0,24180289.0,1228612760.0,2369100000.0,0.019812076589535012,11.37,2012-09-30 00:00:00,2012-10-25 00:00:00,92.05946985717193,1.3950063033014248,18.381820163392067,2.4512036908397414
sh601599,2013-01-11,7.43,7.49,7.17,7.19,-0.028377999999999997,2224528.0,16176763.0,1185735000.0,2286420000.0,0.013488980522629425,10.98,2012-09-30 00:00:00,2012-10-25 00:00:00,88.84668488504389,1.3463219550836454,17.740312715294312,2.365659092399484
sh601599,2013-01-10,7.41,7.57,7.37,7.4,0.006803,5013990.0,37547290.0,1220367040.0,2353200000.0,0.030403579237931567,11.3,2012-09-30 00:00:00,2012-10-25 00:00:00,91.44161503655114,1.3856437535210664,18.258451038875524,2.4347524988107354
sh601599,2013-01-09,7.08,7.42,7.08,7.35,0.033755,4404840.0,32222199.0,1212121320.0,2337300000.0,0.026709846172823692,11.22,2012-09-30 00:00:00,2012-10-25 00:00:00,90.8237411256732,1.376280914459995,18.13507810254392,2.4183007984786853
sh601599,2013-01-08,7.06,7.15,7.01,7.11,0.002821,2763196.0,19595566.0,1172541850.0,2260980000.0,0.01675532822986233,10.85,2012-09-30 00:00:00,2012-10-25 00:00:00,87.85809125534888,1.3313414827110825,17.542916941193916,2.3393364950870223
sh601599,2013-01-07,7.01,7.2,7.01,7.09,0.017217,1856857.0,13192656.0,1169243560.0,2254620000.0,0.01125951562221989,10.82,2012-09-30 00:00:00,2012-10-25 00:00:00,87.61094079137641,1.3275963334544076,17.493567587030903,2.3327557910006096
sh601599,2013-01-04,7.17,7.17,6.94,6.97,-0.008535,1349198.0,9450187.0,1149453820.0,2216460000.0,0.008181198667033008,10.64,2012-09-30 00:00:00,2012-10-25 00:00:00,86.12807374569677,1.3051259794659424,17.197478598008985,2.293272518057219
