code,date,open,high,low,close,change,volume,money,traded_market_value,market_value,turnover,adjust_price,report_type,report_date,PE_TTM,PS_TTM,PC_TTM,PB
sh600807,2014-12-31,9.08,9.12,8.68,8.89,-0.015503999999999999,9868859.0,87601660.0,2737120760.0,4818958850.0,0.03205344747376072,44.79,2014-09-30 00:00:00,2014-10-30 00:00:00,126.43283320057304,5.586152267397093,-11.560300481612217,8.191840440300078
sh600807,2014-12-30,8.22,9.03,8.22,9.03,0.099878,14010084.0,123734226.0,2780225030.0,4894847960.0,0.04550389164721677,45.5,2014-09-30 00:00:00,2014-10-30 00:00:00,128.42391761934334,5.67412388409612,-11.742353937052275,8.320846849860311
sh600807,2014-12-29,8.35,8.35,8.12,8.21,-0.007254999999999999,3152415.0,25915591.0,2527757200.0,4450354570.0,0.01023885013560638,41.37,2014-09-30 00:00:00,2014-10-30 00:00:00,116.76196598108459,5.158866605292696,-10.67605128664477,7.565245281622428
sh600807,2014-12-26,8.3,8.33,8.17,8.27,-0.008393000000000001,2985413.0,24612928.0,2546230450.0,4482878480.0,0.009696437928467944,41.67,2014-09-30 00:00:00,2014-10-30 00:00:00,117.61526472667663,5.196567703985108,-10.754072079582139,7.620532243045725
sh600807,2014-12-25,8.23,8.38,8.23,8.34,0.013366,2232792.0,18523668.0,2567782580.0,4520823030.0,0.007251971185192789,42.02,2014-09-30 00:00:00,2014-10-30 00:00:00,118.61076487628327,5.240551654017275,-10.845094961594803,7.685032722687238
sh600807,2014-12-24,8.13,8.24,8.13,8.23,0.014797,2351862.0,19275942.0,2533914950.0,4461195870.0,0.007638703209040225,41.47,2014-09-30 00:00:00,2014-10-30 00:00:00,117.04632371352824,5.171430316408163,-10.702051343339724,7.583669397519985
sh600807,2014-12-23,8.11,8.29,8.03,8.11,0.006203,2781919.0,22630868.0,2496968440.0,4396148060.0,0.009035501902458968,40.86,2014-09-30 00:00:00,2014-10-30 00:00:00,115.33964301582311,5.0960244427291,-10.546002149533082,7.473090083553642
sh600807,2014-12-22,8.63,8.65,7.98,8.06,-0.077803,6886064.0,57024536.0,2481574060.0,4369044800.0,0.022365512573096453,40.61,2014-09-30 00:00:00,2014-10-30 00:00:00,114.62860179886475,5.064608675117348,-10.480988577387548,7.427020276776796
sh600807,2014-12-19,8.83,9.03,8.51,8.74,-0.015766,4962252.0,43681088.0,2690937620.0,4737649080.0,0.016117089507262528,44.04,2014-09-30 00:00:00,2014-10-30 00:00:00,124.29947375546088,5.491894546520264,-11.365238205489227,8.053615742381288
sh600807,2014-12-18,8.88,8.99,8.79,8.88,-0.005599,4474733.0,39767652.0,2734041890.0,4813538190.0,0.014533657726802424,44.74,2014-09-30 00:00:00,2014-10-30 00:00:00,126.29057089621053,5.5798667253115255,-11.547292824154852,8.182622976224442
sh600807,2014-12-17,9.09,9.12,8.78,8.93,-0.020833,8467016.0,75315774.0,2749436270.0,4840641450.0,0.027500347509418724,44.99,2014-09-30 00:00:00,2014-10-30 00:00:00,127.00165315220974,5.611284306141612,-11.612310148677295,8.228695442004224
sh600807,2014-12-16,9.21,9.25,9.03,9.12,-0.016181,8824046.0,80336152.0,2807934910.0,4943633820.0,0.02865995904442101,45.95,2014-09-30 00:00:00,2014-10-30 00:00:00,129.70377183075996,5.730671383065005,-11.859376540137989,8.40377120757156
sh600807,2014-12-15,9.26,9.4,9.11,9.27,0.0,3459967.0,31919233.0,2854118050.0,5024943590.0,0.011237760151511603,46.71,2014-09-30 00:00:00,2014-10-30 00:00:00,131.83702676077607,5.824924486175815,-12.05442925999395,8.541989133744684
sh600807,2014-12-12,9.38,9.38,9.13,9.27,-0.010672,4158934.0,38392411.0,2854118050.0,5024943590.0,0.013507962005986402,46.71,2014-09-30 00:00:00,2014-10-30 00:00:00,131.83702676077607,5.824924486175815,-12.05442925999395,8.541989133744684
sh600807,2014-12-11,8.91,9.49,8.77,9.37,0.05399299999999999,9673332.0,88109514.0,2884906810.0,5079150100.0,0.031418387771076736,47.21,2014-09-30 00:00:00,2014-10-30 00:00:00,133.25916860816238,5.887758646450737,-12.184461836715377,8.634132596817924
sh600807,2014-12-10,8.75,8.95,8.59,8.89,0.03252,5462111.0,48094615.0,2737120760.0,4818958850.0,0.01774060081660409,44.79,2014-09-30 00:00:00,2014-10-30 00:00:00,126.43268846013436,5.586145872364179,-11.560287247368226,8.19183106227264
sh600807,2014-12-09,9.25,9.32,8.48,8.61,-0.08012799999999999,11311258.0,100315264.0,2650912240.0,4667180610.0,0.03673827066413938,43.38,2014-09-30 00:00:00,2014-10-30 00:00:00,122.4505951072467,5.410205974086874,-11.19618723837623,7.933823133956377
sh600807,2014-12-08,9.6,9.69,9.2,9.36,-0.023983,7319681.0,68597610.0,2881827940.0,5073729450.0,0.023773873939191524,47.16,2014-09-30 00:00:00,2014-10-30 00:00:00,133.1169935678515,5.881476959932331,-12.171462158187476,8.624920786757697
sh600807,2014-12-05,10.15,10.18,9.58,9.59,-0.052372,9254361.0,90401103.0,2952642080.0,5198404420.0,0.030057595734732604,48.32,2014-09-30 00:00:00,2014-10-30 00:00:00,136.38798665171967,6.025998481514493,-12.470543195648718,8.836855082193955
sh600807,2014-12-04,10.1,10.16,10.02,10.12,0.002973,8289660.0,83864091.0,3115822510.0,5485698930.0,0.026924306160173415,50.99,2014-09-30 00:00:00,2014-10-30 00:00:00,143.92566139003875,6.359033799670854,-13.159745380728214,9.32523636088629
sh600807,2014-12-03,9.96,10.16,9.9,10.09,0.01407,7263063.0,73155268.0,3106585880.0,5469436980.0,0.02358998221867924,50.84,2014-09-30 00:00:00,2014-10-30 00:00:00,143.49903874784144,6.340184431356432,-13.12073742835372,9.297594612104504
sh600807,2014-12-02,9.94,10.12,9.9,9.95,0.005051,4202030.0,42129050.0,3063481620.0,5393547860.0,0.013647935155556769,50.13,2014-09-30 00:00:00,2014-10-30 00:00:00,141.5080208938648,6.252215755674098,-12.93869005922049,9.16859251541265
sh600807,2014-12-01,10.03,10.2,9.88,9.9,-0.018831,5049442.0,50379361.0,3048087240.0,5366444610.0,0.01640027724403321,49.88,2014-09-30 00:00:00,2014-10-30 00:00:00,140.7968559743384,6.2207945225407455,-12.873665176414422,9.122514693694797
sh600807,2014-11-28,10.08,10.15,9.98,10.09,0.005982,4902179.0,49359371.0,3106585880.0,5469436980.0,0.015921976092288168,50.84,2014-09-30 00:00:00,2014-10-30 00:00:00,143.49908728704068,6.340186575952507,-13.120741866502529,9.297597757057956
sh600807,2014-11-27,10.14,10.15,9.93,10.03,-0.009872,4590012.0,45988433.0,3088112630.0,5436913070.0,0.014908076833972212,50.54,2014-09-30 00:00:00,2014-10-30 00:00:00,142.64578022970656,6.3024851100243415,-13.042720313586655,9.242310257099984
sh600807,2014-11-26,10.18,10.2,10.0,10.13,-0.008806,5558391.0,56089989.0,3118901390.0,5491119580.0,0.018053312301098433,51.04,2014-09-30 00:00:00,2014-10-30 00:00:00,144.06801972038622,6.365323584450032,-13.172761818256483,9.334460046680816
sh600807,2014-11-25,10.04,10.27,9.95,10.22,0.016915,8467049.0,85842167.0,3146611270.0,5539905440.0,0.02750045472887409,51.49,2014-09-30 00:00:00,2014-10-30 00:00:00,145.3479538015628,6.421874612285821,-13.28979172417961,9.417389579316275
sh600807,2014-11-24,9.85,10.14,9.85,10.05,0.031827999999999995,7046970.0,70867935.0,3094270380.0,5447754380.0,0.0228881254068043,50.64,2014-09-30 00:00:00,2014-10-30 00:00:00,142.93028798037474,6.315055449359898,-13.068734087096372,9.26074409298346
sh600807,2014-11-21,9.73,9.8,9.61,9.74,0.0061979999999999995,2286975.0,22254266.0,2998825220.0,5279714190.0,0.007427954237359655,49.07,2014-09-30 00:00:00,2014-10-30 00:00:00,138.52142797091642,6.120259819814833,-12.665612957873186,8.975085084901224
sh600807,2014-11-20,9.89,9.98,9.67,9.68,-0.021234,2196421.0,21381609.0,2980351970.0,5247190280.0,0.0071338403967099225,48.77,2014-09-30 00:00:00,2014-10-30 00:00:00,137.6681607108307,6.082560112239174,-12.587595043791765,8.919800163487928
sh600807,2014-11-19,10.02,10.06,9.86,9.89,-0.012974000000000001,1946204.0,19310413.0,3045008360.0,5361023960.0,0.006321150973785832,49.83,2014-09-30 00:00:00,2014-10-30 00:00:00,140.65482527062719,6.214519213212529,-12.860678695205763,9.113312235496458
sh600807,2014-11-18,9.95,10.04,9.78,10.02,0.017259,3368850.0,33229405.0,3085033750.0,5431492420.0,0.010941817735381337,50.48,2014-09-30 00:00:00,2014-10-30 00:00:00,142.50366785740923,6.2962061923521055,-13.029726365066132,9.233102507427827
sh600807,2014-11-17,9.58,9.96,9.58,9.85,0.020725,2717443.0,26694633.0,3032692860.0,5339341350.0,0.008826087832052996,49.63,2014-09-30 00:00:00,2014-10-30 00:00:00,140.0859248799069,6.189383620446814,-12.808661673247554,9.076452021980467
sh600807,2014-11-14,9.8,9.8,9.4,9.65,-0.015306,3242437.0,30996158.0,2971115340.0,5230928330.0,0.010531236074463537,48.62,2014-09-30 00:00:00,2014-10-30 00:00:00,137.24159286772334,6.063713165100113,-12.54859210193495,8.892161965250645
sh600807,2014-11-13,10.07,10.07,9.76,9.8,-0.029702999999999997,3493828.0,34585945.0,3017298480.0,5312238100.0,0.011347738590316726,49.38,2014-09-30 00:00:00,2014-10-30 00:00:00,139.37486454444056,6.157967008126498,-12.743646353014187,9.030380976476598
sh600807,2014-11-12,10.0,10.1,9.96,10.1,0.016097,3600703.0,36151657.0,3109664760.0,5474857630.0,0.011694862021075223,50.89,2014-09-30 00:00:00,2014-10-30 00:00:00,143.64144642768198,6.346476396532709,-13.133758378119468,9.30682149535307
sh600807,2014-11-11,10.27,10.42,9.87,9.94,-0.030244,4869704.0,48952121.0,3060402740.0,5388127210.0,0.015816499288587096,50.08,2014-09-30 00:00:00,2014-10-30 00:00:00,141.3658798595823,6.245935571636084,-12.925693490010767,9.159382908672175
sh600807,2014-11-10,10.28,10.45,10.17,10.25,0.003918,5796700.0,59502921.0,3155847900.0,5556167400.0,0.018827325296634227,51.64,2014-09-30 00:00:00,2014-10-30 00:00:00,145.77468957096661,6.440728978873122,-13.328810020263619,9.445038657839884
sh600807,2014-11-07,10.36,10.48,10.16,10.21,-0.019212,3515628.0,36062422.0,3143532400.0,5534484790.0,0.011418543635815556,51.44,2014-09-30 00:00:00,2014-10-30 00:00:00,145.20577335097747,6.415592686726527,-13.27679155096693,9.408177418713365
sh600807,2014-11-06,10.28,10.45,10.2,10.41,0.009699,2557619.0,26483020.0,3205109920.0,5642897820.0,0.00830698929352164,52.45,2014-09-30 00:00:00,2014-10-30 00:00:00,148.0501121047336,6.54126343993455,-13.536861738690655,9.592467912243384
sh600807,2014-11-05,10.39,10.58,10.25,10.31,-0.0077,2759968.0,28597554.0,3174321160.0,5588691300.0,0.008964206406890473,51.95,2014-09-30 00:00:00,2014-10-30 00:00:00,146.62796744845113,6.478429155554825,-13.406828905139708,9.500324267176046
sh600807,2014-11-04,10.72,10.77,10.33,10.39,-0.032588,3602829.0,38006000.0,3198952160.0,5632056510.0,0.01170176715302926,52.35,2014-09-30 00:00:00,2014-10-30 00:00:00,147.76576382994168,6.528700146684294,-13.51086254674968,9.574044409126317
sh600807,2014-11-03,10.6,10.96,10.54,10.74,0.018975,6113808.0,65754118.0,3306712820.0,5821779300.0,0.019857272613108268,54.11,2014-09-30 00:00:00,2014-10-30 00:00:00,152.7433645953758,6.7486243158905355,-13.965986101836323,9.896553287664737
sh600807,2014-10-31,10.36,10.62,10.36,10.54,0.014437,5753436.0,60536686.0,3245135300.0,5713366280.0,0.018686806506958274,53.1,2014-09-30 00:00:00,2014-10-30 00:00:00,149.89903049179398,6.622953768140076,-13.705916339298138,9.712263095428971
sh600807,2014-10-30,10.5,10.62,10.35,10.39,-0.0019210000000000002,4276166.0,44889984.0,3198952160.0,5632056510.0,0.013888724344036455,52.35,2014-09-30 00:00:00,2014-10-30 00:00:00,147.76573655317577,6.528698941521332,-13.510860052717062,9.574042641809172
sh600807,2014-10-29,10.49,10.63,10.32,10.41,0.000962,3440799.0,36107857.0,3205109920.0,5642897820.0,0.011175503643881268,52.45,2014-06-30 00:00:00,2014-08-30 00:00:00,145.02479828552183,6.129564631932765,-27.344219377671045,20.517575932257987
sh600807,2014-10-28,10.4,10.5,10.28,10.4,0.009709,2274405.0,23613600.0,3202031040.0,5637477160.0,0.007387127640086837,52.4,2014-06-30 00:00:00,2014-08-30 00:00:00,144.88541851291242,6.1236736578738915,-27.31793951985295,20.497856993829924
sh600807,2014-10-27,9.86,10.39,9.8,10.3,0.040404,2350917.0,23736167.0,3171242280.0,5583270650.0,0.007635633913155321,51.9,2014-06-30 00:00:00,2014-08-30 00:00:00,143.49225223595354,6.064790605881389,-27.055260000508017,20.300756944654278
sh600807,2014-10-24,9.94,10.15,9.88,9.9,-0.0070209999999999995,2313535.0,23150555.0,3048087240.0,5366444610.0,0.007514219474899281,49.88,2014-06-30 00:00:00,2014-08-30 00:00:00,137.9197429421201,5.8292649834885175,-26.004571301636684,19.512378791944545
sh600807,2014-10-23,10.45,10.45,9.95,9.97,-0.052280999999999994,3048873.0,30941632.0,3069639370.0,5404389170.0,0.009902552106633947,50.23,2014-06-30 00:00:00,2014-08-30 00:00:00,138.89492420496316,5.870481635048191,-26.18844034127276,19.650343856158635
sh600807,2014-10-22,10.62,10.85,10.48,10.52,-0.009415999999999999,3132921.0,33388222.0,3238977550.0,5702524980.0,0.010175534844321474,53.0,2014-06-30 00:00:00,2014-08-30 00:00:00,146.55707462334632,6.194327258447062,-27.633127901068523,20.734356762034565
sh600807,2014-10-21,10.57,10.7,10.47,10.62,0.010466,4990739.0,52867490.0,3269766310.0,5756731490.0,0.016209613518221123,53.51,2014-06-30 00:00:00,2014-08-30 00:00:00,147.9501734566138,6.2532074598893805,-27.895794704001403,20.931447269524405
sh600807,2014-10-20,10.7,10.7,10.45,10.51,0.019399,2754457.0,28979445.0,3235898680.0,5697104330.0,0.008946307017869918,52.95,2014-06-30 00:00:00,2014-08-30 00:00:00,146.41776512679672,6.18843925465021,-27.606861293701513,20.71464776600539
sh600807,2014-10-17,11.0,11.08,10.3,10.31,-0.059307000000000006,5279501.0,55669046.0,3174321160.0,5588691300.0,0.017147494713483875,51.95,2014-06-30 00:00:00,2014-08-30 00:00:00,143.6314584640526,6.0706742449719995,-27.081507136755597,20.320451330642264
sh600807,2014-10-16,11.1,11.29,10.95,10.96,-0.022302000000000002,2712147.0,30088503.0,3374448100.0,5941033630.0,0.008808886739138173,55.22,2014-06-30 00:00:00,2014-08-30 00:00:00,152.68685794839823,6.453406419492863,-28.788889825645136,21.601575998378074
sh600807,2014-10-15,11.05,11.7,11.04,11.21,0.005381,6613592.0,74748819.0,3451420000.0,6076549910.0,0.021480540276176185,56.48,2014-06-30 00:00:00,2014-08-30 00:00:00,156.16975584321358,6.600613297248089,-29.445585268298732,22.094323603380666
sh600807,2014-10-14,11.2,11.46,11.07,11.15,-0.015887000000000002,3351150.0,37606631.0,3432946740.0,6044026000.0,0.010884329216246448,56.18,2014-06-30 00:00:00,2014-08-30 00:00:00,155.33390410522335,6.565285495994145,-29.28798661233774,21.976070368726546
sh600807,2014-10-13,11.2,11.41,11.08,11.33,0.017969,5772917.0,65022838.0,3488366510.0,6141597720.0,0.018750079563744006,57.08,2014-06-30 00:00:00,2014-08-30 00:00:00,157.84153253256827,6.67127199416545,-29.76079638449826,22.330840430648255
sh600807,2014-10-10,11.27,11.51,11.01,11.13,-0.012422,4463145.0,49991678.0,3426788990.0,6033184700.0,0.014496020617248454,56.08,2014-06-30 00:00:00,2014-08-30 00:00:00,155.0553430728915,6.553511938148855,-29.235464326023944,21.936660576744732
sh600807,2014-10-09,11.75,11.75,11.08,11.27,-0.02255,12808907.0,146222785.0,3469893250.0,6109073810.0,0.041602542640180644,56.78,2014-06-30 00:00:00,2014-08-30 00:00:00,157.00566747425674,6.635943629919717,-29.603195217009638,22.212585311483988
sh600807,2014-10-08,10.91,11.8,10.91,11.53,0.056829,12016857.0,138145198.0,3549944030.0,6250010740.0,0.03903001287882277,58.09,2014-06-30 00:00:00,2014-08-30 00:00:00,160.6278249263458,6.789036400756782,-30.286147851050828,22.72503484729038
sh600807,2014-09-30,10.46,11.25,10.35,10.91,0.043021,8889577.0,96114277.0,3359053720.0,5913930370.0,0.028872799649658477,54.97,2014-06-30 00:00:00,2014-08-30 00:00:00,151.99036450205833,6.423968684391498,-28.657566977297964,21.5030386631048
sh600807,2014-09-29,10.21,10.57,10.21,10.46,0.021484,6355285.0,66456069.0,3220504300.0,5670001070.0,0.02064157501668295,52.7,2014-06-30 00:00:00,2014-08-30 00:00:00,145.72128893095953,6.1590022486522304,-27.475541697912085,20.616112871269898
sh600807,2014-09-26,10.23,10.28,10.1,10.24,-0.000976,3857050.0,39317256.0,3152769020.0,5550746750.0,0.012527461336193922,51.59,2014-06-30 00:00:00,2014-08-30 00:00:00,142.65645759596774,6.029465217910638,-26.89767211029452,20.182511788016157
sh600807,2014-09-25,10.48,10.5,10.23,10.25,-0.021947,4293734.0,44343876.0,3155847900.0,5556167400.0,0.013945784110824859,51.64,2014-06-30 00:00:00,2014-08-30 00:00:00,142.79582632245842,6.0353557250983325,-26.923949885382648,20.202229163679906
sh600807,2014-09-24,10.33,10.59,10.2,10.48,0.007692,4792560.0,50208526.0,3226662050.0,5680842370.0,0.015565940288044729,52.8,2014-06-30 00:00:00,2014-08-30 00:00:00,146.00009030436843,6.170785964664833,-27.528109300194007,20.655556665824765
sh600807,2014-09-23,10.31,10.48,10.31,10.4,0.001927,5292151.0,55026948.0,3202031040.0,5637477160.0,0.01718858115753931,52.4,2014-06-30 00:00:00,2014-08-30 00:00:00,144.88563003811524,6.123682598120092,-27.317979402628982,20.497886919638898
sh600807,2014-09-22,10.53,10.55,10.24,10.38,-0.006698999999999999,6271449.0,65091006.0,3195873290.0,5626635860.0,0.0203692808546862,52.3,2014-06-30 00:00:00,2014-08-30 00:00:00,144.60697240229604,6.111904957267439,-27.265438901865092,20.458463460550423
sh600807,2014-09-19,10.2,10.54,10.11,10.45,0.023506,7489123.0,77551482.0,3217425420.0,5664580420.0,0.02432421117316839,52.65,2014-06-30 00:00:00,2014-08-30 00:00:00,145.58222774596626,6.153124739900029,-27.449321909335737,20.59643900544792
sh600807,2014-09-18,10.37,10.4,10.14,10.21,-0.013527,6029162.0,61775510.0,3143532400.0,5534484790.0,0.01958234755907081,51.44,2014-06-30 00:00:00,2014-08-30 00:00:00,142.2387633740948,6.011811107995487,-26.81891645904932,20.123417943273335
sh600807,2014-09-17,9.7,10.37,9.68,10.35,0.056122000000000005,12435946.0,125935796.0,3186636660.0,5610373910.0,0.04039118821284131,52.15,2014-06-30 00:00:00,2014-08-30 00:00:00,144.1892108289784,6.094248000700969,-27.186670551600827,20.399360087172518
sh600807,2014-09-16,10.2,10.2,9.65,9.8,-0.034483,12110655.0,119497490.0,3017298480.0,5312238100.0,0.03933466303936891,49.38,2014-06-30 00:00:00,2014-08-30 00:00:00,136.52704027468263,5.7704015262450445,-25.741979195207392,19.315344332541613
sh600807,2014-09-05,9.89,10.26,9.84,10.15,0.027327999999999998,9896135.0,99595432.0,3125059140.0,5501960890.0,0.0321420381983555,51.14,2014-06-30 00:00:00,2014-08-30 00:00:00,141.4030413495388,5.976488789161708,-26.661342260371796,20.00518305999958
sh600807,2014-09-04,10.01,10.15,9.81,9.88,-0.012987,6342995.0,63520752.0,3041929490.0,5355603310.0,0.020601657864199874,49.78,2014-06-30 00:00:00,2014-08-30 00:00:00,137.64157245742234,5.817507932385478,-25.95212265252363,19.473024253207917
sh600807,2014-09-03,9.81,10.11,9.75,10.01,0.012133,7359259.0,73116757.0,3081954880.0,5426071770.0,0.02390242085244285,50.43,2014-06-30 00:00:00,2014-08-30 00:00:00,139.45264394432732,5.8940540118372065,-26.29359760461476,19.729247996944228
sh600807,2014-09-02,9.64,10.06,9.62,9.89,0.020640000000000002,7205984.0,70983226.0,3045008360.0,5361023960.0,0.023404593135501275,49.83,2014-06-30 00:00:00,2014-08-30 00:00:00,137.7809477058127,5.823398715225378,-25.97840165730666,19.492742551566078
sh600807,2014-09-01,9.35,9.82,9.3,9.69,0.036364,6998609.0,67455197.0,2983430840.0,5252610940.0,0.022731051881866315,48.82,2014-06-30 00:00:00,2014-08-30 00:00:00,134.9946579654067,5.705634420780469,-25.453050691043522,19.098548510313215
sh600807,2014-08-29,9.35,9.42,9.24,9.35,0.0010710000000000001,2351819.0,21925875.0,2878749060.0,5068308800.0,0.007638563553712459,47.11,2014-03-31 00:00:00,2014-04-26 00:00:00,157.71394029172657,4.678403017208531,-16.269401211114733,6.504332999873899
sh600807,2014-08-28,9.34,9.38,9.25,9.34,0.0,1402191.0,13079111.0,2875670180.0,5062888150.0,0.004554230186439531,47.06,2014-03-31 00:00:00,2014-04-26 00:00:00,157.54520937248864,4.673397808155996,-16.251995324122596,6.497374311985761
sh600807,2014-08-27,9.23,9.37,9.15,9.34,0.002146,3600702.0,33409542.0,2875670180.0,5062888150.0,0.011694858789404005,47.06,2014-03-31 00:00:00,2014-04-26 00:00:00,157.54520937248864,4.673397808155996,-16.251995324122596,6.497374311985761
sh600807,2014-08-26,9.72,9.81,9.22,9.32,-0.041152,7157769.0,67618010.0,2869512430.0,5052046840.0,0.023247993764571356,46.96,2014-03-31 00:00:00,2014-04-26 00:00:00,157.20784134496236,4.66339017284507,-16.217193227456477,6.483460805098022
sh600807,2014-08-25,9.63,10.0,9.57,9.72,0.0030960000000000002,3688932.0,36205428.0,2992667470.0,5268872890.0,0.011981424397946892,48.97,2014-03-31 00:00:00,2014-04-26 00:00:00,163.95491396442642,4.863534337919118,-16.913205458484008,6.76171906819227
sh600807,2014-08-22,9.55,9.78,9.43,9.69,0.009375,4584615.0,44010939.0,2983430840.0,5252610940.0,0.014890547739326847,48.82,2014-03-31 00:00:00,2014-04-26 00:00:00,163.44887624357628,4.8485233097521245,-16.861003790747848,6.740849398454652
sh600807,2014-08-21,9.31,9.8,9.26,9.6,0.031149,7257997.0,69634134.0,2955720960.0,5203825080.0,0.023573528131694815,48.37,2014-03-31 00:00:00,2014-04-26 00:00:00,161.93077522583408,4.803490585512941,-16.704400040369386,6.678240890109873
sh600807,2014-08-20,9.33,9.35,9.15,9.31,0.0054,3406813.0,31571880.0,2866433560.0,5046626190.0,0.011065119203390851,46.91,2014-03-31 00:00:00,2014-04-26 00:00:00,157.03916235755852,4.658386504290788,-16.199792697630883,6.476504258947905
sh600807,2014-08-19,9.1,9.33,9.09,9.26,0.016465,4811422.0,44363328.0,2851039180.0,5019522940.0,0.015627202892385363,46.66,2014-03-31 00:00:00,2014-04-26 00:00:00,156.19570554760142,4.633366326129686,-16.11278366583537,6.441718976474939
sh600807,2014-08-18,9.08,9.14,9.04,9.11,0.00441,2179146.0,19804102.0,2804856040.0,4938213170.0,0.007077732253238921,45.9,2014-03-31 00:00:00,2014-04-26 00:00:00,153.66560142021754,4.558313691204012,-15.851784041590582,6.337374111725381
sh600807,2014-08-15,9.03,9.07,8.97,9.07,0.00443,2097707.0,18928728.0,2792540530.0,4916530570.0,0.006813223401989443,45.7,2014-03-31 00:00:00,2014-04-26 00:00:00,152.99091150050035,4.538299789133932,-15.782184607471633,6.309549000632591
sh600807,2014-08-14,9.02,9.15,9.01,9.03,-0.00221,3406356.0,30965880.0,2780225030.0,4894847960.0,0.011063634902963233,45.5,2014-03-31 00:00:00,2014-04-26 00:00:00,152.31615095178395,4.518283791935657,-15.712577887430317,6.2817209767057856
sh600807,2014-08-13,9.14,9.2,9.01,9.05,-0.009847,2505656.0,22705923.0,2786382780.0,4905689260.0,0.00813821667387709,45.6,2014-03-31 00:00:00,2014-04-26 00:00:00,152.65351522042107,4.5282913157434495,-15.747379596338224,6.2956343285719285
sh600807,2014-08-12,9.08,9.21,9.06,9.14,0.004396,2178416.0,19891512.0,2814092660.0,4954475120.0,0.007075361278260113,46.05,2014-03-31 00:00:00,2014-04-26 00:00:00,154.1716433929111,4.57332484549706,-15.903986147936962,6.358243956814684
sh600807,2014-08-11,9.05,9.2,9.0,9.1,0.0066370000000000005,4940473.0,44963753.0,2801777160.0,4932792520.0,0.016046352629985747,45.85,2014-03-31 00:00:00,2014-04-26 00:00:00,153.49687114734735,4.553308501325234,-15.83437822127623,6.330415450494311
sh600807,2014-08-08,8.98,9.09,8.94,9.04,0.0022170000000000002,2159056.0,19466820.0,2783303900.0,4900268610.0,0.007012481188274121,45.55,2014-03-31 00:00:00,2014-04-26 00:00:00,152.48482933505062,4.523287442568905,-15.729978354934529,6.28867749794048
sh600807,2014-08-07,9.16,9.22,9.0,9.02,-0.016358,2394700.0,21811102.0,2777146150.0,4889427310.0,0.007777838411565052,45.45,2014-03-31 00:00:00,2014-04-26 00:00:00,152.14751828700835,4.513281497488972,-15.695182136138712,6.274766340962566
sh600807,2014-08-06,9.02,9.24,8.87,9.17,0.016630000000000002,8166449.0,74405417.0,2823329290.0,4970737080.0,0.02652412440704003,46.2,2014-03-31 00:00:00,2014-04-26 00:00:00,154.67773670401257,4.588337522685054,-15.956193550233428,6.3791159191683215
sh600807,2014-08-05,9.09,9.15,8.95,9.02,-0.009879,2092759.0,18873109.0,2777146150.0,4889427310.0,0.00679715260214159,45.45,2014-03-31 00:00:00,2014-04-26 00:00:00,152.14752339003624,4.513281648864438,-15.695182662555135,6.274766551418235
sh600807,2014-08-04,9.03,9.25,9.03,9.11,0.008859,2099035.0,19165719.0,2804856040.0,4938213170.0,0.006817536649759749,45.9,2014-03-31 00:00:00,2014-04-26 00:00:00,153.66558571127797,4.5583132252163505,-15.851782421093116,6.337373463867785
sh600807,2014-08-01,9.14,9.23,8.9,9.03,-0.025889999999999996,6621185.0,60075437.0,2780225030.0,4894847960.0,0.021505201882885,45.5,2014-03-31 00:00:00,2014-04-26 00:00:00,152.3162163506278,4.518285731917295,-15.712584633822088,6.281723673841228
sh600807,2014-07-31,9.09,9.35,9.02,9.27,0.018681,6066884.0,55850138.0,2854118050.0,5024943590.0,0.019704866335153868,46.71,2014-03-31 00:00:00,2014-04-26 00:00:00,156.3644930763751,4.638373214439124,-16.130195392534812,6.448679999015744
sh600807,2014-07-30,9.03,9.12,8.89,9.1,0.011111,7581107.0,68260448.0,2801777160.0,4398582370.0,0.024622969551225837,45.85,2014-03-31 00:00:00,2014-04-26 00:00:00,153.49701533294046,4.55331277842536,-15.834393095124787,6.330421396900251
sh600807,2014-07-29,9.05,9.05,8.96,9.0,-0.0022170000000000002,2604341.0,23408945.0,2770988400.0,4350246300.0,0.008458739488046936,45.35,2014-03-31 00:00:00,2014-04-26 00:00:00,151.8102516271116,4.503276869132429,-15.66039049632017,6.260857014610908
sh600807,2014-07-28,8.99,9.02,8.9,9.02,0.014622999999999999,3067244.0,27526753.0,2777146150.0,4359913510.0,0.009962219986153771,45.45,2014-03-31 00:00:00,2014-04-26 00:00:00,152.1475627737811,4.513282817138024,-15.695186725290139,6.274768175656338
sh600807,2014-07-25,8.88,9.03,8.88,8.89,0.001126,1783226.0,15948336.0,2737120760.0,4297076620.0,0.00579180844764774,44.79,2014-03-31 00:00:00,2014-04-26 00:00:00,149.95477411194213,4.448236258332428,-15.46898377554041,6.184334650068387
sh600807,2014-07-24,8.97,9.05,8.85,8.88,-0.004484,2123820.0,19055104.0,2734041890.0,4292243019.9999995,0.006898036810986829,44.74,2014-03-31 00:00:00,2014-04-26 00:00:00,149.78611494651236,4.443233177774254,-15.451585290503303,6.177378921402887
sh600807,2014-07-23,8.92,9.04,8.83,8.92,-0.0022370000000000003,3764942.0,33743704.0,2746357390.0,4311577440.0,0.012228300206769521,44.94,2014-03-31 00:00:00,2014-04-26 00:00:00,150.46078108891507,4.463246374517592,-15.5211822718101,6.205203051887552
sh600807,2014-07-22,8.93,9.05,8.78,8.94,0.00112,3922479.0,35232009.0,2752515140.0,4321244660.0,0.012739970709116607,45.04,2014-03-31 00:00:00,2014-04-26 00:00:00,150.79811647547072,4.473253041571588,-15.555981001310034,6.2191152126181795
sh600807,2014-07-21,8.99,9.05,8.82,8.93,-0.015436000000000002,2851986.0,25435639.0,2749436270.0,4316411050.0,0.009263075219415797,44.99,2014-03-31 00:00:00,2014-04-26 00:00:00,150.629411534552,4.468248603136074,-15.538577794180549,6.212157596110535
sh600807,2014-07-18,8.61,9.35,8.56,9.07,0.054651,12657204.0,114277708.0,2792540530.0,4384081550.0,0.041109820626309766,45.7,2014-03-31 00:00:00,2014-04-26 00:00:00,152.99098030656413,4.538301830186839,-15.782191705344243,6.309551838286323
sh600807,2014-07-17,8.57,8.62,8.53,8.6,-0.001161,996290.0,8549339.0,2647833360.0,4156902020.0,0.0032358886814538813,43.33,2014-03-31 00:00:00,2014-04-26 00:00:00,145.06313492004855,4.303131396250361,-14.964373717319042,5.982596933285346
sh600807,2014-07-16,8.61,8.7,8.53,8.61,0.001163,956040.0,8225624.0,2650912240.0,4161735630.0,0.0031051591507985947,43.38,2014-03-31 00:00:00,2014-04-26 00:00:00,145.23174898061504,4.308133138824536,-14.981767549443944,5.989550801766196
sh600807,2014-07-15,8.7,8.7,8.57,8.6,-0.010357,1017020.0,8764929.0,2647833360.0,4156902020.0,0.0033032184472515293,43.33,2014-03-31 00:00:00,2014-04-26 00:00:00,145.06304066432241,4.30312860026243,-14.964363994118782,5.982593046053634
sh600807,2014-07-14,8.65,8.69,8.56,8.69,0.0046240000000000005,1224017.0,10581367.0,2675543240.0,4200404480.0000005,0.0039755319857959015,43.78,2014-03-31 00:00:00,2014-04-26 00:00:00,146.5811819659437,4.3481625194766504,-15.120971900087994,6.045203215759254
sh600807,2014-07-11,8.6,8.7,8.49,8.65,0.017647,2845898.0,24456545.0,2663227740.0,4181070060.0,0.009243301776362543,43.58,2014-03-31 00:00:00,2014-04-26 00:00:00,145.90651026248995,4.328149157771116,-15.051374345116177,6.017378855929436
sh600807,2014-07-10,8.59,8.68,8.48,8.5,-0.009323999999999999,1226111.0,10483526.0,2617044600.0,4108565950.0,0.003982333163141354,42.83,2014-03-31 00:00:00,2014-04-26 00:00:00,143.37634785194663,4.253094793942415,-14.790368708516977,5.91303158750474
sh600807,2014-07-09,8.68,8.68,8.56,8.58,-0.016055,1663972.0,14324825.0,2641675610.0,4147234810.0,0.00540447877322833,43.23,2014-03-31 00:00:00,2014-04-26 00:00:00,144.725770940193,4.293123881008942,-14.929572038201165,5.968683593328938
sh600807,2014-07-08,8.68,8.72,8.58,8.72,0.0,1108506.0,9603073.0,2684779870.0,4214905300.0,0.003600359354601389,43.93,2014-03-31 00:00:00,2014-04-26 00:00:00,147.08725684890214,4.363174650014932,-15.173177401380329,6.066074418111723
sh600807,2014-07-07,8.48,8.75,8.45,8.72,0.029516000000000004,2587518.0,22457998.0,2684779870.0,4214905300.0,0.008404099424359884,43.93,2014-03-31 00:00:00,2014-04-26 00:00:00,147.08725684890214,4.363174650014932,-15.173177401380329,6.066074418111723
sh600807,2014-07-04,8.6,8.64,8.42,8.47,-0.015116,1249450.0,10641291.0,2607807970.0,4094065130.0,0.004058136803684974,42.68,2014-03-31 00:00:00,2014-04-26 00:00:00,142.87029715798698,4.238083380943017,-14.738165702505183,5.892161382738804
sh600807,2014-07-03,8.6,8.73,8.54,8.6,0.0,1684624.0,14542003.0,2647833360.0,4156902020.0,0.005471555203912077,43.33,2014-03-31 00:00:00,2014-04-26 00:00:00,145.063070532151,4.303129486257283,-14.964367075214122,5.982594277842675
sh600807,2014-07-02,8.51,8.61,8.46,8.6,0.0035009999999999998,1347620.0,11478554.0,2647833360.0,4156902020.0,0.0043769869263978155,43.33,2014-03-31 00:00:00,2014-04-26 00:00:00,145.063070532151,4.303129486257283,-14.964367075214122,5.982594277842675
sh600807,2014-07-01,8.5,8.65,8.45,8.57,0.0046890000000000005,1138438.0,9759608.0,2638596730.0,4142401200.0,0.003697576650904134,43.18,2014-03-31 00:00:00,2014-04-26 00:00:00,144.55697655722415,4.288116789377672,-14.912159604438981,5.961722288111995
sh600807,2014-06-30,8.39,8.54,8.37,8.53,0.0179,1454400.0,12311698.0,2626281230.0,4123066770.0,0.004723801799398307,42.98,2014-03-31 00:00:00,2014-04-26 00:00:00,143.8823123944068,4.268103651356461,-14.842562827341578,5.933898239268067
sh600807,2014-06-27,8.38,8.53,8.28,8.38,-0.001192,4805048.0,40301130.0,2580098090.0,4050562670.0,0.015606500542000714,42.22,2014-03-31 00:00:00,2014-04-26 00:00:00,141.35210963199407,4.193048090535869,-14.581553028137906,5.82954930667852
sh600807,2014-06-26,8.4,8.48,8.31,8.39,-0.002378,1597951.0,13391685.0,2583176960.0,4055396270.0,0.005190046635442274,42.27,2014-03-31 00:00:00,2014-04-26 00:00:00,141.52080242848882,4.1980521687209835,-14.598954982477018,5.836506422333942
sh600807,2014-06-25,8.46,8.51,8.38,8.41,-0.010588,826378.0,6980184.0,2589334720.0,4065063490.0,0.0026840249452183607,42.37,2014-03-31 00:00:00,2014-04-26 00:00:00,141.85814108799607,4.2080589328633335,-14.633754049606985,5.8504187180454545
sh600807,2014-06-24,8.6,8.6,8.39,8.5,-0.004684000000000001,2817159.0,23861310.0,2617044600.0,4108565950.0,0.00914995927085079,42.83,2014-03-31 00:00:00,2014-04-26 00:00:00,143.3762083823484,4.253090656736863,-14.790354321159422,5.913025835592711
sh600807,2014-06-23,8.66,8.69,8.5,8.54,-0.021764,1536707.0,13152643.0,2629360100.0,4127900380.0,0.004991129887458168,43.03,2014-03-31 00:00:00,2014-04-26 00:00:00,144.0509429993574,4.2731058847008025,-14.859958366146452,5.940852790061358
sh600807,2014-06-20,8.58,8.75,8.4,8.73,0.024648,4922004.0,42417260.0,2687858750.0,4219738910.0,0.015986366441316905,43.99,2014-03-31 00:00:00,2014-04-26 00:00:00,147.25581863615466,4.368174841961246,-15.190565841112422,6.073026130771468
sh600807,2014-06-19,8.45,8.73,8.22,8.52,0.008284,3224095.0,27447124.0,2623202350.0,2736208220.0,0.010471662393867555,42.93,2014-03-31 00:00:00,2014-04-26 00:00:00,143.71356664547693,4.263098002398137,-14.825155410553108,5.926938939783679
sh600807,2014-06-18,8.98,9.02,8.41,8.45,-0.057971,2894764.0,25042350.0,2601650220.0,2713727640.0,0.009402015540736294,42.57,2014-03-31 00:00:00,2014-04-26 00:00:00,142.5328247254513,4.228072648577323,-14.70335283566248,5.87824357004939
sh600807,2014-06-17,8.9,9.02,8.9,8.97,0.004479,1331941.0,11942804.0,2761751770.0,2880726260.0,0.004326062501265275,45.19,2014-03-31 00:00:00,2014-04-26 00:00:00,151.3040731500318,4.48826166559344,-15.608174308500567,6.239981539898868
sh600807,2014-06-16,8.98,9.09,8.9,8.93,-0.003341,1096067.0,9808141.0,2749436270.0,2867880220.0,0.0035599582419126234,44.99,2014-03-31 00:00:00,2014-04-26 00:00:00,150.629404049295,4.468248381094518,-15.538577022018945,6.212157287408565
sh600807,2014-06-13,8.96,9.1,8.92,8.98,0.0,1823325.0,16414583.0,2764830650.0,2883937780.0,0.005922047522151131,45.14,2014-03-31 00:00:00,2014-04-26 00:00:00,151.13434389223897,4.4832268419735515,-15.590665435238074,6.232981679198768
sh600807,2014-06-12,8.71,9.09,8.67,8.98,0.026286,2541280.0,22710264.0,2764830650.0,2883937780.0,0.008253921230220737,45.14,2014-03-31 00:00:00,2014-04-26 00:00:00,151.13434389223897,4.4832268419735515,-15.590665435238074,6.232981679198768
sh600807,2014-06-11,8.71,8.79,8.64,8.75,0.001144,1402887.0,12221501.0,2694016500.0,2810073000.0,0.004556490745323943,43.99,2014-03-31 00:00:00,2014-04-26 00:00:00,147.26337871922541,4.368399103148198,-15.191345721600094,6.073337918668644
sh600807,2014-06-10,8.79,8.85,8.7,8.74,-0.005688,2508639.0,21989401.0,2690937620.0,2806861490.0,0.008147905286633884,43.94,2014-03-31 00:00:00,2014-04-26 00:00:00,147.0951019226259,4.363407365122497,-15.173986680837215,6.066397959403086
sh600807,2014-06-09,8.91,8.92,8.68,8.79,-0.013468,2120943.0,18577588.0,2706332000.0,2822919050.0,0.006888692507053828,44.19,2014-03-31 00:00:00,2014-04-26 00:00:00,147.93656510494282,4.388368404607907,-15.260790054668169,6.101101022016315
sh600807,2014-06-06,8.97,8.97,8.83,8.91,-0.007795000000000001,1078132.0,9579296.0,2743278520.0,2861457190.0,0.003501706461799584,44.79,2014-03-31 00:00:00,2014-04-26 00:00:00,149.95617486806594,4.4482778101550755,-15.469128274265982,6.184392419116983
sh600807,2014-06-05,8.75,9.06,8.75,8.98,0.011261,4628990.0,41566309.0,2764830650.0,2883937780.0,0.01503467498090706,45.14,2014-03-31 00:00:00,2014-04-26 00:00:00,151.13426647524042,4.483224545487148,-15.590657449081572,6.232978486418616
sh600807,2014-06-04,8.91,8.94,8.74,8.88,-0.002247,3037191.0,26876654.0,2734041890.0,2851822660.0,0.00986460967501855,44.64,2014-03-31 00:00:00,2014-04-26 00:00:00,149.45129543732077,4.433301141334579,-15.417046093027986,6.163570518806337
sh600807,2014-06-03,8.66,8.95,8.58,8.9,0.026527999999999996,6151685.0,54531748.0,2740199640.0,2858245680.0,0.019980294756917785,44.74,2014-03-31 00:00:00,2014-04-26 00:00:00,149.78786877846596,4.443285203186138,-15.451766211705687,6.177451251769062
sh600807,2014-05-30,8.41,8.8,8.41,8.67,0.016413,2726444.0,23703655.0,2669385490.0,2784380900.0,0.008855322533426973,43.59,2014-03-31 00:00:00,2014-04-26 00:00:00,145.9169830520609,4.328459821053238,-15.052454693594026,6.01781076772291
sh600807,2014-05-29,8.85,8.87,8.5,8.53,-0.033975,3065169.0,26440798.0,2626281230.0,2739419740.0,0.009955480498941082,42.88,2014-03-31 00:00:00,2014-04-26 00:00:00,143.56072093928444,4.258564009957801,-14.809388204985598,5.920635379243388
sh600807,2014-05-28,8.73,8.94,8.7,8.83,0.005695,1707908.0,15110090.0,2718647510.0,2835765100.0,0.005547180200643223,44.39,2014-03-31 00:00:00,2014-04-26 00:00:00,148.6097367452027,4.408337268660542,-15.330232866629329,6.128863517241673
sh600807,2014-05-27,8.68,8.86,8.58,8.78,0.015028999999999999,1553427.0,13574996.0,2703253130.0,2819707540.0,0.00504543540841105,44.14,2014-03-31 00:00:00,2014-04-26 00:00:00,147.76819686406185,4.383373953992555,-15.243421580727087,6.09415729146677
sh600807,2014-05-26,8.7,8.76,8.56,8.65,-0.009164,3368968.0,29012578.0,2663227740.0,2777957880.0,0.010942200985034798,43.48,2014-03-31 00:00:00,2014-04-26 00:00:00,145.58027097162926,4.31847164365999,-15.017720262896026,6.003924312967187
sh600807,2014-05-23,9.07,9.1,8.6,8.73,-0.033223,4823382.0,42359423.0,2687858750.0,2803649980.0,0.01566604824751301,43.89,2014-03-31 00:00:00,2014-04-26 00:00:00,146.92670731748672,4.358412132441686,-15.156615487220918,6.059453141556411
sh600807,2014-05-22,9.05,9.22,8.95,9.03,0.003333,2156795.0,19592784.0,2780225030.0,2899995340.0,0.007005137584132893,45.4,2014-03-31 00:00:00,2014-04-26 00:00:00,151.97579929754917,4.5081876507629834,-15.677468006811205,6.26768442107788
sh600807,2014-05-21,9.2,9.2,8.9,9.0,-0.019608,3984376.0,35879277.0,2770988400.0,2890360800.0,0.012941008342005329,45.24,2014-03-31 00:00:00,2014-04-26 00:00:00,151.4709466324233,4.493211775913863,-15.625388586651894,6.246863624617031
sh600807,2014-05-20,9.23,9.38,9.13,9.18,-0.005417,6322009.0,58688067.0,2826408170.0,2948168020.0,0.020533496625153046,46.15,2014-03-31 00:00:00,2014-04-26 00:00:00,154.50039028513424,4.583076744724419,-15.937898908448759,6.371801916597679
sh600807,2014-05-19,8.88,9.24,8.87,9.23,0.040586000000000004,4467553.0,40697983.0,2841802550.0,2964225580.0,0.014510337528552082,46.4,2014-03-31 00:00:00,2014-04-26 00:00:00,155.34187723411142,4.608038489220527,-16.024704733992795,6.406505959379638
sh600807,2014-05-16,9.0,9.09,8.85,8.87,-0.028477999999999996,2058969.0,18372329.0,2730963010.0,2848611140.0,0.006687404759099977,44.59,2014-03-31 00:00:00,2014-04-26 00:00:00,149.28307437742907,4.428311056674342,-15.399692801933524,6.156632858196861
sh600807,2014-05-15,9.19,9.23,8.95,9.13,-0.008686,2785990.0,25342184.0,2811013790.0,2932110460.0,0.009048724268264797,45.9,2014-03-31 00:00:00,2014-04-26 00:00:00,153.65897465773196,4.55811711590097,-15.851100440271576,6.337100815212482
sh600807,2014-05-14,9.16,9.28,9.0,9.21,0.0,3921454.0,35825908.0,2835644800.0,2957802550.0,0.012736641535639444,46.3,2014-03-31 00:00:00,2014-04-26 00:00:00,155.00535113771414,4.598055828830188,-15.989989488972792,6.392627174853256
sh600807,2014-05-13,8.99,9.5,8.92,9.21,0.030201,7911231.0,73387067.0,2835644800.0,2957802550.0,0.025695191975384227,46.3,2014-03-31 00:00:00,2014-04-26 00:00:00,155.00535113771414,4.598055828830188,-15.989989488972792,6.392627174853256
sh600807,2014-05-12,8.9,8.97,8.69,8.94,0.014756,2783487.0,24703806.0,2752515140.0,2871091730.0,0.009040594697691653,44.94,2014-03-31 00:00:00,2014-04-26 00:00:00,150.4612703129915,4.463260886788295,-15.521232739021602,6.205223228140195
sh600807,2014-05-09,8.62,8.9,8.62,8.81,0.017321,2941343.0,25784575.0,2712489760.0,2829342070.0,0.009553301255596261,44.29,2014-03-31 00:00:00,2014-04-26 00:00:00,148.2733487784172,4.398358705726594,-15.295531870737008,6.114990429364493
sh600807,2014-05-08,8.96,9.16,8.65,8.66,-0.038846,3817057.0,34067481.0,2666306620.0,2781169390.0,0.012397566495934365,43.54,2014-03-31 00:00:00,2014-04-26 00:00:00,145.74883323790348,4.323471849815933,-15.035108752042877,6.010876045382425
sh600807,2014-05-07,8.8,9.06,8.75,9.01,0.019231,3717459.0,33179508.0,2774067280.0,2893572310.0,0.012074078315072444,45.29,2014-03-31 00:00:00,2014-04-26 00:00:00,151.63941807234167,4.498209287810209,-15.642767706364305,6.253811611232357
sh600807,2014-05-06,8.64,8.94,8.61,8.84,0.014925,3142018.0,27758738.0,2721726380.0,2838976610.0,0.010205081349874707,44.44,2014-03-31 00:00:00,2014-04-26 00:00:00,148.77826329099258,4.413336415209318,-15.347617670934563,6.135813776496552
sh600807,2014-05-05,8.7,8.98,8.65,8.71,0.002301,3622347.0,31877360.0,2681701000.0,2797226950.0,0.01176516038514361,43.79,2014-03-31 00:00:00,2014-04-26 00:00:00,146.59040154789034,4.348436007793008,-15.121922970598384,6.045583443600811
sh600807,2014-04-30,8.32,8.76,8.32,8.69,0.036993,3971308.0,34072849.0,2675543240.0,2790803930.0,0.012898564300534347,43.69,2014-03-31 00:00:00,2014-04-26 00:00:00,146.25387138982234,4.338453226917869,-15.087207306585926,6.0317044915657165
sh600807,2014-04-29,8.12,8.55,7.82,8.38,0.033292,5209152.0,43140148.0,2580098090.0,2691247060.0,0.016919005494089572,42.13,2014-03-31 00:00:00,2014-04-26 00:00:00,141.0365078547515,4.183686126056655,-14.54899628694304,5.81653346894889
sh600807,2014-04-28,8.91,9.1,8.11,8.11,-0.099889,8007577.0,67660700.0,2496968440.0,2604536230.0,0.0260081178559069,40.77,2014-03-31 00:00:00,2014-04-26 00:00:00,136.49240278135463,4.048890464705673,-14.080237035555331,5.6291285221882
sh600807,2014-04-25,9.43,9.43,8.93,9.01,-0.05058,9653229.0,88724061.0,2774067280.0,2893572310.0,0.03135309439574947,45.29,2013-12-31 00:00:00,2014-02-22 00:00:00,145.54634892641036,3.759343491217509,-15.288105389181077,5.616588255220421
sh600807,2014-04-24,8.85,9.5,8.77,9.49,0.08457100000000001,16112090.0,148378180.0,2921853320.0,3047724890.0,0.052331078036456674,47.71,2013-12-31 00:00:00,2014-02-22 00:00:00,153.3002769337178,3.959621127864917,-16.10257355983767,5.915809921025913
sh600807,2014-04-23,8.58,8.83,8.5,8.75,0.012731000000000001,3937062.0,34256665.0,2694016500.0,2810073000.0,0.012787335378235435,43.99,2013-12-31 00:00:00,2014-02-22 00:00:00,141.34646503891196,3.6508639156541314,-14.846951983630085,5.454516044616638
sh600807,2014-04-22,8.57,9.2,8.41,8.64,0.008168,11192753.0,98253215.0,2660148860.0,2774746370.0,0.036353373818335866,43.43,2013-12-31 00:00:00,2014-02-22 00:00:00,139.569604405229,3.6049690546197675,-14.660311557195431,5.3859475464033775
sh600807,2014-04-21,8.62,8.75,8.55,8.57,-0.001166,4845512.0,41982542.0,2638596730.0,2752265780.0,0.01573792515084334,43.08,2013-12-31 00:00:00,2014-02-22 00:00:00,138.4388359928395,3.575762228735456,-14.541536288788606,5.342311545698115
sh600807,2014-04-18,8.34,8.6,8.34,8.58,0.028776999999999997,3830484.0,32575246.0,2641675610.0,2755477300.0,0.012441176575802204,43.13,2013-12-31 00:00:00,2014-02-22 00:00:00,138.60044411067256,3.579936434618221,-14.558511513213013,5.3485479526108595
sh600807,2014-04-17,8.5,8.54,8.3,8.34,-0.011848000000000001,1460618.0,12231742.0,2567782580.0,2678401010.0,0.004743997492186429,41.93,2013-12-31 00:00:00,2014-02-22 00:00:00,134.72350578470608,3.4797982795282376,-14.151280125054326,5.1989381106020645
sh600807,2014-04-16,8.42,8.6,8.38,8.44,0.00716,2453494.0,20782570.0,2598571340.0,2710516130.0,0.007968797716363638,42.43,2013-12-31 00:00:00,2014-02-22 00:00:00,136.33884846127523,3.5215212634576836,-14.320954797495045,5.261273681176644
sh600807,2014-04-15,8.39,8.47,8.21,8.38,-0.012956,2925300.0,24468169.0,2580098090.0,2691247060.0,0.009501194584427603,42.13,2013-12-31 00:00:00,2014-02-22 00:00:00,135.36960211016645,3.496486420685575,-14.219145714181506,5.223870766488586
sh600807,2014-04-14,8.36,8.75,8.24,8.49,0.01555,7459417.0,63643589.0,2613965720.0,2726573690.0,0.024227727948169114,42.68,2013-12-31 00:00:00,2014-02-22 00:00:00,137.1464717987916,3.5423815156017104,-14.405787091742118,5.292439614129245
sh600807,2014-04-11,8.41,8.49,8.3,8.36,-0.014150999999999999,2537242.0,21282391.0,2573940340.0,2684824030.0,0.008240806047586946,42.03,2013-12-31 00:00:00,2014-02-22 00:00:00,135.04649874333276,3.488140924229935,-14.185207121010405,5.211402308236172
sh600807,2014-04-10,8.5,8.61,8.41,8.48,-0.003525,3204271.0,27286348.0,2610886850.0,2723362180.0,0.01040727524442509,42.63,2013-12-31 00:00:00,2014-02-22 00:00:00,136.98497309763744,3.5382101358625255,-14.388823360383187,5.286207429572046
sh600807,2014-04-09,8.51,8.63,8.35,8.51,-0.003513,3047501.0,25821939.0,2620123480.0,2732996710.0,0.009898095913403288,42.78,2013-12-31 00:00:00,2014-02-22 00:00:00,137.46955327292451,3.550726446586744,-14.439723385316428,5.304907227549157
sh600807,2014-04-08,8.3,8.67,8.3,8.54,0.020311000000000003,4798609.0,41045055.0,2629360100.0,2742631250.0,0.01558558710159175,42.93,2013-12-31 00:00:00,2014-02-22 00:00:00,137.95418632950003,3.5632441231915157,-14.490628964870016,5.323609066198713
sh600807,2014-04-04,8.45,8.58,8.3,8.37,-0.009467,2762158.0,23226259.0,2577019210.0,2688035540.0,0.008971319410537104,42.08,2013-12-31 00:00:00,2014-02-22 00:00:00,135.20797710649012,3.492311778655249,-14.202168716077763,5.217633707956411
sh600807,2014-04-03,8.4,8.49,8.29,8.45,-0.0035380000000000003,4312801.0,36094956.0,2601650220.0,2713727640.0,0.014007712554841442,42.48,2013-12-31 00:00:00,2014-02-22 00:00:00,136.50022473404735,3.5256894809716073,-14.337905669046625,5.267501141260726
sh600807,2014-04-02,8.28,8.76,8.23,8.48,0.009524,6475387.0,54886018.0,2610886850.0,2723362180.0,0.021031658939949852,42.63,2013-12-31 00:00:00,2014-02-22 00:00:00,136.984877229686,3.5382076596715253,-14.388813290468304,5.286203730057671
sh600807,2014-04-01,7.9,8.45,7.9,8.4,0.052632000000000005,6085975.0,49984369.0,2586255840.0,2697670080.0,0.019766872715887226,42.23,2013-12-31 00:00:00,2014-02-22 00:00:00,135.69254146477545,3.5048276808392123,-14.253067079602172,5.236332895560353
sh600807,2014-03-31,8.07,8.07,7.75,7.98,-0.020859,4534298.0,35987316.0,2456943050.0,2562786580.0,0.01472712118418862,40.12,2013-12-31 00:00:00,2014-02-22 00:00:00,128.90786282839153,3.3295849649632654,-13.540408309458737,4.974514260976631
sh600807,2014-03-28,8.03,8.48,7.84,8.15,0.05706900000000001,14832143.0,120063160.0,2509283940.0,2617382280.0,0.04817388878278956,40.97,2013-12-31 00:00:00,2014-02-22 00:00:00,131.65403433049124,3.400516335199185,-13.82886459606812,5.080488163580761
sh600807,2014-03-12,7.52,7.72,7.49,7.71,0.025266,3351908.0,25512914.0,2373813400.0,2476075750.0,0.010886791135309961,38.76,2013-12-31 00:00:00,2014-02-22 00:00:00,124.546301452877,3.216929391741868,-13.082272392878915,4.806202966486351
sh600807,2014-03-11,7.41,7.59,7.41,7.52,0.004005,1015759.0,7608476.0,2315314750.0,2415057020.0,0.003299122799610722,37.8,2013-12-31 00:00:00,2014-02-22 00:00:00,121.47706200427693,3.137653439928631,-12.759881233630018,4.687761972489433
sh600807,2014-03-10,7.6,7.73,7.38,7.49,-0.027273000000000002,4251883.0,31933954.0,2306078120.0,2405422490.0,0.013809854659216836,37.65,2013-12-31 00:00:00,2014-02-22 00:00:00,120.9924870934676,3.125137265181579,-12.708981761674512,4.669062377666878
sh600807,2014-03-07,7.7,7.8,7.69,7.7,-0.0038810000000000003,1118473.0,8665852.0,2370734520.0,2472864240.0,0.0036327315552818627,38.71,2013-12-31 00:00:00,2014-02-22 00:00:00,124.38483468996708,3.2127588369414846,-13.065312016294925,4.7999720144160465
sh600807,2014-03-06,7.71,7.75,7.54,7.73,0.002594,1374902.0,10493768.0,2379971150.0,2482498780.0,0.004465597181713737,38.86,2013-12-31 00:00:00,2014-02-22 00:00:00,124.86945303720448,3.2252761336160485,-13.116216050788033,4.8186732854368275
sh600807,2014-03-05,7.8,7.98,7.69,7.71,-0.025284,2288087.0,17902260.0,2373813400.0,2476075750.0,0.007431565922578413,38.76,2013-12-31 00:00:00,2014-02-22 00:00:00,124.54637972818955,3.216931413529353,-13.082280614873051,4.8062059871062734
sh600807,2014-03-04,7.75,8.0,7.7,7.91,0.020645,3616023.0,28553916.0,2435390920.0,2540305990.0,0.011744620420117194,39.76,2013-12-31 00:00:00,2014-02-22 00:00:00,127.77709581887395,3.300378175313992,-13.421633188408778,4.930878314407759
sh600807,2014-03-03,7.63,7.76,7.63,7.75,0.01706,1832718.0,14094508.0,2386128900.0,2488921800.0,0.005952555413079318,38.96,2013-12-31 00:00:00,2014-02-22 00:00:00,125.19249672400683,3.233620088585152,-13.15014837520272,4.831139440655428
sh600807,2014-02-28,7.55,7.64,7.52,7.62,0.0,1879629.0,14277353.0,2346103510.0,2447172140.0,0.006104919462824554,38.31,2013-12-31 00:00:00,2014-02-22 00:00:00,123.09253802529528,3.1793798680364493,-12.929569912495543,4.750102688784759
sh600807,2014-02-27,7.63,7.89,7.58,7.62,-0.018040999999999998,2427007.0,18756359.0,2346103510.0,2447172140.0,0.007882769562882586,38.31,2013-12-31 00:00:00,2014-02-22 00:00:00,123.09253802529528,3.1793798680364493,-12.929569912495543,4.750102688784759
sh600807,2014-02-26,7.58,7.81,7.28,7.76,0.031915,2519454.0,18830304.0,2389207780.0,2492133310.0,0.008183031716061127,39.01,2013-12-31 00:00:00,2014-02-22 00:00:00,125.35405044945388,3.2377928895569466,-13.167117886281957,4.837373748582944
sh600807,2014-02-25,7.9,7.96,7.48,7.52,-0.048101,3498969.0,27028132.0,2315314750.0,2415057020.0,0.011364436252133753,37.8,2013-12-31 00:00:00,2014-02-22 00:00:00,121.4771085306967,3.137654641668109,-12.759886120738585,4.687763767929475
sh600807,2014-02-24,7.8,7.99,7.7,7.9,0.016731,2741925.0,21568649.0,2432312040.0,2537094480.0,0.00890560386322801,39.71,2013-12-31 00:00:00,2014-02-22 00:00:00,127.61554380317313,3.296205418503548,-13.404663856920308,4.9246440724588165
sh600807,2014-02-21,7.76,7.89,7.51,7.77,0.002581,2533221.0,19551679.0,2392286650.0,2495344820.0,0.008227746106429176,39.06,2013-09-30 00:00:00,2013-10-26 00:00:00,196.1422564936287,4.981141040110443,-6.7808345778355825,4.994111596538987
sh600807,2014-02-20,8.0,8.02,7.75,7.75,-0.023929,2931494.0,22970481.0,2386128900.0,2488921800.0,0.009521312323068548,38.96,2013-09-30 00:00:00,2013-10-26 00:00:00,195.63731657953693,4.96831781183809,-6.76337829844729,4.981254977442209
sh600807,2014-02-19,7.9,8.03,7.88,7.94,-0.003764,2395060.0,19034852.0,2444627540.0,2549940530.0,0.007779007676564096,39.92,2013-09-30 00:00:00,2013-10-26 00:00:00,200.43348955100285,5.090119275993334,-6.929186809614556,5.1033736044224325
sh600807,2014-02-18,8.1,8.12,7.86,7.97,-0.017263,5329506.0,42316713.0,2453864170.0,2559575060.0,0.017309907915563232,40.07,2013-09-30 00:00:00,2013-10-26 00:00:00,201.19077161536305,5.1093508726780925,-6.9553668102884805,5.122655278892182
sh600807,2014-02-17,8.14,8.29,8.03,8.11,-0.003686,6969196.0,56554031.0,2496968440.0,2604536230.0,0.02263552019904585,40.77,2013-09-30 00:00:00,2013-10-26 00:00:00,204.72493822392263,5.199102987552207,-7.077546495439249,5.212641102240154
sh600807,2014-02-14,7.82,8.29,7.82,8.14,0.040921,9877807.0,80330632.0,2506205060.0,2614170770.0,0.032082510032120044,40.92,2013-09-30 00:00:00,2013-10-26 00:00:00,205.4823461518383,5.218337780611541,-7.103730847342553,5.231925981407622
sh600807,2014-02-13,7.49,8.27,6.77,7.82,0.039894,12300332.0,96616657.0,2407681030.0,2511402380.0,0.03995072230975712,39.31,2013-09-30 00:00:00,2013-10-26 00:00:00,197.4043622444338,5.013192913402208,-6.824466839791446,5.026246930754228
sh600807,2014-02-12,7.56,7.65,7.49,7.52,-0.003974,2229144.0,16855278.0,2315314750.0,2415057020.0,0.007240122700380153,37.8,2013-09-30 00:00:00,2013-10-26 00:00:00,189.83123495705695,4.820869159166423,-6.5626562320692745,4.833422378390709
sh600807,2014-02-11,7.42,7.69,7.42,7.55,0.014785,3743280.0,28348398.0,2324551380.0,2424691560.0,0.012157943353353627,37.95,2013-09-30 00:00:00,2013-10-26 00:00:00,190.58863418932535,4.840103731394986,-6.588840283355329,4.8527070361523785
sh600807,2014-02-10,7.26,7.45,7.26,7.44,0.019178,2435715.0,17987161.0,2290683740.0,2389364930.0,0.007911052618725972,37.4,2013-09-30 00:00:00,2013-10-26 00:00:00,187.81183619123786,4.769585411091991,-6.492843590864398,4.782005090883663
sh600807,2014-02-07,7.11,7.4,7.11,7.3,0.026723,1511182.0,11055593.0,2247579480.0,2344403760.0,0.004908226248799887,36.7,2013-09-30 00:00:00,2013-10-26 00:00:00,184.27775736057677,4.679835525386137,-6.370666940283639,4.692021502508555
sh600807,2014-01-30,7.18,7.18,7.04,7.11,-0.009748999999999999,782080.0,5554038.0,2189080840.0,2283385030.0,0.002540147763570029,35.74,2013-09-30 00:00:00,2013-10-26 00:00:00,179.4814739326739,4.558031256128611,-6.204854610526538,4.569900063121752
sh600807,2014-01-29,7.19,7.26,7.1,7.18,-0.001391,1367014.0,9811441.0,2210632970.0,2305865620.0,0.004439977442297896,36.09,2013-09-30 00:00:00,2013-10-26 00:00:00,181.24846522010472,4.602904976746917,-6.265941271987141,4.6148906318920675
sh600807,2014-01-28,7.24,7.35,7.18,7.19,-0.012362999999999999,1532957.0,11069410.0,2213711840.0,2309077130.0,0.004978950119361516,36.15,2013-09-30 00:00:00,2013-10-26 00:00:00,181.50093301793268,4.609316536048561,-6.2746693370349576,4.621318886463138
sh600807,2014-01-27,7.14,7.39,7.13,7.28,0.01676,2652542.0,19433258.0,2241421730.0,2337980740.0,0.008615293365608623,36.6,2013-09-30 00:00:00,2013-10-26 00:00:00,183.77291759819923,4.667014840521934,-6.353214123240581,4.679167433442792
sh600807,2014-01-24,7.08,7.25,7.05,7.16,0.014163999999999998,1434995.0,10295962.0,2204475220.0,2299442590.0,0.004660775547297828,35.99,2013-09-30 00:00:00,2013-10-26 00:00:00,180.74365395786538,4.590085015659481,-6.2484894402224525,4.602037288487737
sh600807,2014-01-23,7.07,7.12,7.0,7.06,-0.007031999999999999,1192762.0,8415537.0,2173686460.0,2267327470.0,0.0038740176538616337,35.49,2013-09-30 00:00:00,2013-10-26 00:00:00,178.21935501345476,4.525979048417692,-6.16122189332539,4.537764393616551
sh600807,2014-01-22,6.89,7.15,6.85,7.11,0.024496,1915159.0,13523287.0,2189080840.0,2283385030.0,0.006220318702346323,35.74,2013-09-30 00:00:00,2013-10-26 00:00:00,179.48146870136276,4.558031123276573,-6.204854429674865,4.569899929923776
sh600807,2014-01-21,6.74,7.01,6.73,6.94,0.020588,2000748.0,13838454.0,2136739940.0,2228789330.0,0.006498306537013577,34.89,2013-09-30 00:00:00,2013-10-26 00:00:00,175.1900141155873,4.44904726155746,-6.056494539436819,4.460632281554808
sh600807,2014-01-20,6.81,6.89,6.72,6.8,-0.001468,529959.0,3617393.0,2093635680.0,2183828160.0,0.0017212742572289368,34.18,2013-09-30 00:00:00,2013-10-26 00:00:00,171.655961186676,4.359298033640862,-5.934318784305536,4.370649352681795
sh600807,2014-01-17,6.9,6.95,6.72,6.81,-0.011611,1174849.0,8016014.0,2096714560.0,2187039670.0,0.0038158373307618943,34.23,2013-09-30 00:00:00,2013-10-26 00:00:00,171.90832260425907,4.365706891357375,-5.943043171681565,4.377074898632989
sh600807,2014-01-16,6.83,6.91,6.82,6.89,0.0014529999999999999,685339.0,4710553.0,2121345560.0,2212731770.0,0.002225938950747845,34.64,2013-09-30 00:00:00,2013-10-26 00:00:00,173.92779826997173,4.416992592347118,-6.012858471392908,4.428494144140606
sh600807,2014-01-15,6.9,6.91,6.81,6.88,0.007320999999999999,867862.0,5965770.0,2118266690.0,2209520260.0,0.002818762428823351,34.59,2013-09-30 00:00:00,2013-10-26 00:00:00,173.67544784425402,4.410584013775103,-6.004134464016692,4.4220688780607835
sh600807,2014-01-14,6.71,6.9,6.71,6.83,0.002937,639627.0,4354824.0,2102872310.0,2193462700.0,0.002077469178335417,34.34,2013-09-30 00:00:00,2013-10-26 00:00:00,172.41321072851062,4.378528804398105,-5.960497660643125,4.389930199073368
sh600807,2014-01-13,6.78,6.84,6.66,6.81,0.001471,1191202.0,8046010.0,2096714560.0,2187039670.0,0.0038689508694974674,34.23,2013-09-30 00:00:00,2013-10-26 00:00:00,171.9083160044057,4.36570672375045,-5.943042943518012,4.3770747305896265
sh600807,2014-01-10,6.75,6.89,6.26,6.8,0.0014730000000000001,2995101.0,19603406.0,2093635680.0,2183828160.0,0.00972790394936334,34.18,2013-09-30 00:00:00,2013-10-26 00:00:00,171.65581030744343,4.3592942019793375,-5.934313568259103,4.3706455110428815
sh600807,2014-01-09,6.96,6.96,6.78,6.79,-0.018786,1063537.0,7319198.0,2090556800.0,2180616650.0,0.00345430281061964,34.13,2013-09-30 00:00:00,2013-10-26 00:00:00,171.4033331976433,4.352882406195013,-5.925585181287067,4.364217019373345
sh600807,2014-01-08,6.88,6.99,6.83,6.92,0.005814,1593528.0,11051205.0,2130582190.0,2222366300.0,0.005175681000130767,34.79,2013-09-30 00:00:00,2013-10-26 00:00:00,174.68496494917858,4.436221258762117,-6.0390344830863265,4.44777288071037
sh600807,2014-01-07,6.75,6.95,6.72,6.88,0.017751,2303970.0,15805069.0,2118266690.0,2209520260.0,0.0074831529357618325,34.59,2013-09-30 00:00:00,2013-10-26 00:00:00,173.6752172361675,4.410578157355254,-6.0041264916637935,4.422063006391212
sh600807,2014-01-06,6.78,6.88,6.75,6.76,-0.014577000000000001,1064253.0,7249559.0,2081320180.0,2170982110.0,0.0034566283213570722,33.98,2013-09-30 00:00:00,2013-10-26 00:00:00,170.646078693283,4.333651509411687,-5.899406133389987,4.3449360466275255
sh600807,2014-01-03,6.9,6.93,6.81,6.86,-0.007236,1001340.0,6881737.0,2112108940.0,2203097230.0,0.003252290764888292,34.49,2013-09-30 00:00:00,2013-10-26 00:00:00,173.17038337169217,4.397757622271539,-5.986673878517131,4.409209087495954
sh600807,2014-01-02,6.8,6.92,6.71,6.91,0.013196000000000001,1461498.0,9983803.0,2127503319.9999998,2219154790.0,0.00474685566178106,34.74,2013-09-30 00:00:00,2013-10-26 00:00:00,174.43257750250024,4.42981174002234,-6.0303091958583614,4.441346672014651
sh600807,2013-12-31,6.8,6.94,6.78,6.82,0.002941,1298656.0,8894170.0,2099793430.0000002,2190251180.0,0.004217954868065283,34.29,2013-09-30 00:00:00,2013-10-26 00:00:00,172.1607443204476,4.3721172803903094,-5.951769643640876,4.383501979888049
sh600807,2013-12-30,6.89,6.89,6.78,6.8,-0.013062,1471192.0,10047714.0,2093635680.0,2183828160.0,0.004778341186848707,34.18,2013-09-30 00:00:00,2013-10-26 00:00:00,171.65590430588398,4.359296589121702,-5.934316817879492,4.3706479044012045
sh600807,2013-12-27,6.94,6.94,6.81,6.89,-0.001449,1031236.0,7059423.0,2121345560.0,2212731770.0,0.0033493911477581236,34.64,2013-09-30 00:00:00,2013-10-26 00:00:00,173.9277485575426,4.416991329872497,-6.012856752784362,4.428492878378585
sh600807,2013-12-26,6.82,7.0,6.82,6.9,0.007298999999999999,1474699.0,10206690.0,2124424440.0,2215943280.0,0.004789731707285386,34.69,2013-09-30 00:00:00,2013-10-26 00:00:00,174.18013557398933,4.423400837686304,-6.021582025138788,4.434919076119884
sh600807,2013-12-25,6.81,6.91,6.81,6.85,-0.00436,711350.0,4863503.0,2109030060.0,2199885720.0,0.002310421075743226,34.44,2013-09-30 00:00:00,2013-10-26 00:00:00,172.9180070406,4.391348385818218,-5.9779489755661315,4.4027831618217474
sh600807,2013-12-24,6.75,6.93,6.7,6.88,0.014749000000000002,1984059.0,13527189.0,2118266690.0,2209520260.0,0.006444101672580235,34.59,2013-09-30 00:00:00,2013-10-26 00:00:00,173.67523104796913,4.410578508113593,-6.004126969151632,4.422063358062901
sh600807,2013-12-23,6.79,6.95,6.76,6.78,-0.017391,849940.0,5808653.0,2087477930.0,2177405140.0,0.0027605528744440427,34.08,2013-09-30 00:00:00,2013-10-26 00:00:00,171.15092603980804,4.346472386879507,-5.916859212624632,4.3577903087984335
sh600807,2013-12-20,6.98,7.04,6.87,6.9,-0.011461,1067485.0,7382829.0,2124424440.0,2215943280.0,0.0034671256653402084,34.69,2013-09-30 00:00:00,2013-10-26 00:00:00,174.1800920201301,4.423399731611971,-6.0215805194381815,4.434917967165407
sh600807,2013-12-19,7.13,7.15,6.96,6.98,-0.018284,1139880.0,8032369.0,2149055450.0,2241635380.0,0.003702260172021155,35.09,2013-09-30 00:00:00,2013-10-26 00:00:00,176.1995146576211,4.474684085920709,-6.091393985910704,4.486335862485352
sh600807,2013-12-18,7.01,7.13,6.91,7.11,0.024496,1834462.0,12943793.0,2189080840.0,2283385030.0,0.005958219806994428,35.74,2013-09-30 00:00:00,2013-10-26 00:00:00,179.48114796705065,4.5580229780514,-6.2048433415679325,4.569891763488984
sh600807,2013-12-17,6.93,6.99,6.89,6.94,0.001443,780012.0,5408221.0,2136739940.0,2228789330.0,0.0025334310360670283,34.89,2013-09-30 00:00:00,2013-10-26 00:00:00,175.18970105012676,4.449039311087013,-6.056483716449779,4.46062431038187
sh600807,2013-12-16,6.92,7.01,6.91,6.93,-0.011412,853825.0,5930971.0,2133661069.9999998,2225577820.0,0.002773171115691772,34.84,2013-09-30 00:00:00,2013-10-26 00:00:00,174.93726657445978,4.442628598020069,-6.047756803382497,4.454196904249038
sh600807,2013-12-13,6.95,7.03,6.86,7.01,0.005739,1528605.0,10653858.0,2158292080.0,2251269910.0,0.0049648150726661604,35.24,2013-09-30 00:00:00,2013-10-26 00:00:00,176.95669639370473,4.493913134713419,-6.117570518135459,4.505614982428512
sh600807,2013-12-12,6.93,7.03,6.89,6.97,0.005772,1130301.0,7884463.0,2145976569.9999998,2238423860.0,0.0036711481756764946,35.04,2013-09-30 00:00:00,2013-10-26 00:00:00,175.94693692270533,4.468269734705942,-6.082662120227473,4.479904808731204
sh600807,2013-12-11,6.96,7.02,6.87,6.93,0.0,1846140.0,12861515.0,2133661069.9999998,2225577820.0,0.00599614923845426,34.84,2013-09-30 00:00:00,2013-10-26 00:00:00,174.93719940772394,4.44262689228368,-6.047754481361057,4.454195194071025
sh600807,2013-12-10,7.04,7.07,6.9,6.93,-0.018414,2166997.0,15095335.0,2133661069.9999998,2225577820.0,0.007038273051492664,34.84,2013-09-30 00:00:00,2013-10-26 00:00:00,174.93719940772394,4.44262689228368,-6.047754481361057,4.454195194071025
sh600807,2013-12-09,6.91,7.09,6.91,7.06,0.005698,1001292.0,7037918.0,2173686460.0,2267327470.0,0.00325213486401346,35.49,2013-09-30 00:00:00,2013-10-26 00:00:00,178.2189226493898,4.525968068293231,-6.1612069460659145,4.537753384900585
sh600807,2013-12-06,7.06,7.1,6.94,7.02,-0.008475,1425932.0,10004907.0,2161370950.0,2254481420.0,0.004631339493111998,35.29,2013-09-30 00:00:00,2013-10-26 00:00:00,177.20918471488437,4.500325215216925,-6.126299292696132,4.51204375955862
sh600807,2013-12-05,7.18,7.18,7.03,7.08,-0.007012999999999999,1886491.0,13357306.0,2179844210.0,2273750500.0,0.006127206806214834,35.59,2013-09-30 00:00:00,2013-10-26 00:00:00,178.72386950897294,4.5387914729501775,-6.17866346556681,4.550610180841249
sh600807,2013-12-04,7.08,7.17,7.0,7.13,0.005642,2224060.0,15815425.0,2195238590.0,2289808060.0,0.007223610168041005,35.84,2013-09-30 00:00:00,2013-10-26 00:00:00,179.986112113223,4.570846821710837,-6.222300458683559,4.582748999575271
sh600807,2013-12-03,6.95,7.16,6.9,7.09,0.021613999999999998,1405775.0,9909957.0,2182923080.0,2276962010.0,0.004565870800174965,35.64,2013-09-30 00:00:00,2013-10-26 00:00:00,178.9763276724948,4.545202787583292,-6.187391197546999,4.55703819010669
sh600807,2013-12-02,7.02,7.17,6.83,6.94,-0.036111000000000004,2695031.0,18807871.0,2136739940.0,2228789330.0,0.00875329505002841,34.89,2013-09-30 00:00:00,2013-10-26 00:00:00,175.189775857119,4.449041210851937,-6.056486302602547,4.460626215093654
sh600807,2013-11-29,7.19,7.27,7.13,7.2,-0.004149,2045499.0,14710771.0,2216790720.0,2312288640.0,0.0066436550221574365,36.2,2013-09-30 00:00:00,2013-10-26 00:00:00,181.75306062951128,4.615719456132332,-6.283385641502857,4.627738479320394
sh600807,2013-11-28,7.18,7.32,7.16,7.23,0.005563,1702597.0,12326398.0,2226027350.0,2321923180.0,0.0055299303982046764,36.35,2013-09-30 00:00:00,2013-10-26 00:00:00,182.5102958469804,4.634949863114394,-6.30956402263276,4.647018960989539
sh600807,2013-11-27,7.34,7.34,7.16,7.19,-0.017759999999999998,2135887.0,15444173.0,2213711840.0,2309077130.0,0.006937229702850575,36.15,2013-09-30 00:00:00,2013-10-26 00:00:00,181.50060796487182,4.609308281146376,-6.274658099624548,4.621310610065743
sh600807,2013-11-26,7.28,7.48,7.24,7.32,0.005495,1856425.0,13621223.0,2253737230.0,2350826780.0,0.0060295542972416535,36.8,2013-09-30 00:00:00,2013-10-26 00:00:00,184.78234236527916,4.692649740538338,-6.388110950098294,4.704869085015621
sh600807,2013-11-25,7.35,7.49,7.25,7.28,-0.017544,1922466.0,14129482.0,2241421730.0,2337980740.0,0.006244051395004545,36.6,2013-09-30 00:00:00,2013-10-26 00:00:00,183.7725124095885,4.667004550533158,-6.353200115463821,4.679157116659576
sh600807,2013-11-22,7.27,7.55,7.23,7.41,0.019257,3363361.0,24941792.0,2281447120.0,2379730390.0,0.010923989774525215,37.25,2013-09-30 00:00:00,2013-10-26 00:00:00,187.05419113892987,4.75034459612762,-6.466651041332966,4.762714174130522
sh600807,2013-11-21,7.36,7.36,7.23,7.27,-0.017568,1478754.0,10770602.0,2238342850.0,2334769220.0,0.004802902102329855,36.55,2013-09-30 00:00:00,2013-10-26 00:00:00,183.52014373110003,4.660595508421939,-6.344475477071009,4.672731385833526
sh600807,2013-11-20,7.3,7.45,7.26,7.4,0.02069,2121890.0,15675368.0,2278368240.0,2376518880.0,0.006891768294663377,37.2,2013-09-30 00:00:00,2013-10-26 00:00:00,186.80187914390007,4.743936993524171,-6.457928362544185,4.756289886560622
sh600807,2013-11-19,7.27,7.38,7.2,7.25,0.001381,2229508.0,16278443.0,2232185100.0,2328346200.0,0.0072413049437522,36.45,2013-09-30 00:00:00,2013-10-26 00:00:00,183.01529273716804,4.6477745383262015,-6.327022271741845,4.6598770307935045
sh600807,2013-11-18,7.12,7.25,7.05,7.24,0.015428,1932467.0,13904755.0,2229106220.0,2325134690.0,0.0062765340451115875,36.4,2013-09-30 00:00:00,2013-10-26 00:00:00,182.76289717616777,4.641364813518733,-6.318296703993631,4.653450615493508
sh600807,2013-11-15,7.06,7.23,6.85,7.13,0.002813,2187871.0,15603117.0,2195238590.0,2289808060.0,0.007106070520562413,35.84,2013-09-30 00:00:00,2013-10-26 00:00:00,179.9860720564804,4.570845804447713,-6.222299073881782,4.582747979663263
sh600807,2013-11-14,7.05,7.15,6.67,7.11,0.008511,3731788.0,25702810.0,2189080840.0,2283385030.0,0.012120618021580236,35.74,2013-09-30 00:00:00,2013-10-26 00:00:00,179.48119146488966,4.558024082703069,-6.204844845331864,4.569892871017092
sh600807,2013-11-13,7.3,7.3,7.01,7.05,-0.026243,1368400.0,9694151.0,2170607580.0,2264115960.0,0.0044444790891221345,35.44,2013-09-30 00:00:00,2013-10-26 00:00:00,177.9665184265612,4.519558123513844,-6.152481078869605,4.531326749055878
sh600807,2013-11-12,7.13,7.3,7.08,7.24,0.021157,1319244.0,9494139.0,2229106220.0,2325134690.0,0.004284823430262556,36.4,2013-09-30 00:00:00,2013-10-26 00:00:00,182.76276157867025,4.641361369945318,-6.318292016252109,4.65344716295326
sh600807,2013-11-11,7.06,7.13,6.94,7.09,0.005674,1314445.0,9263337.0,2182923080.0,2276962010.0,0.004269236573374816,35.64,2013-09-30 00:00:00,2013-10-26 00:00:00,178.9761629001909,4.545198603099541,-6.187385501203154,4.557033994726824
sh600807,2013-11-08,7.08,7.16,7.01,7.05,-0.0042369999999999994,1378183.0,9735205.0,2170607580.0,2264115960.0,0.004476253671794512,35.44,2013-09-30 00:00:00,2013-10-26 00:00:00,177.9663816507048,4.519554650015354,-6.1524763503910345,4.531323266512631
sh600807,2013-11-07,7.26,7.3,7.07,7.08,-0.031464,2006513.0,14325675.0,2179844210.0,2273750500.0,0.006517030884514449,35.59,2013-09-30 00:00:00,2013-10-26 00:00:00,178.72363368663508,4.538785484111535,-6.178655312952013,4.550604176408073
sh600807,2013-11-06,7.22,7.39,7.18,7.31,0.006887000000000001,2147482.0,15659685.0,2250658360.0,2347615270.0,0.006974889525214302,36.75,2013-09-30 00:00:00,2013-10-26 00:00:00,184.52967539320693,4.686233123096647,-6.379375999397041,4.698435759133448
sh600807,2013-11-05,7.35,7.35,7.15,7.26,-0.010898999999999999,1552875.0,11217212.0,2235263980.0,2331557710.0,0.005043642541047881,36.5,2013-09-30 00:00:00,2013-10-26 00:00:00,183.2675120378026,4.654179786904238,-6.335741745992392,4.666298958208267
sh600807,2013-11-04,7.44,7.46,7.31,7.34,-0.004071,1073630.0,7899912.0,2259894980.0,2357249810.0,0.0034870842538001477,36.9,2013-09-30 00:00:00,2013-10-26 00:00:00,185.28695455550303,4.705464646081884,-6.405555899743698,4.717717359711766
sh600807,2013-11-01,7.31,7.4,7.22,7.37,-0.004054,1162646.0,8488396.0,2269131610.0,2366884340.0,0.003776202747446632,37.05,2013-09-30 00:00:00,2013-10-26 00:00:00,186.0443410679908,4.724698895284588,-6.431739511294177,4.737001693606438
sh600807,2013-10-31,7.44,7.64,7.25,7.4,-0.006711,2394023.0,17923651.0,2278368240.0,2376518880.0,0.007775639551576614,37.2,2013-09-30 00:00:00,2013-10-26 00:00:00,186.80163489585863,4.743930790710127,-6.457919918644362,4.756283667594867
sh600807,2013-10-30,7.37,7.48,7.2,7.45,0.024759,2033598.0,14920398.0,2293762620.0,2392576440.0,0.0066050013056712905,37.45,2013-09-30 00:00:00,2013-10-26 00:00:00,188.06373059186063,4.775982408654609,-6.501551832995595,4.788418745797918
sh600807,2013-10-29,7.65,7.68,7.2,7.27,-0.044677999999999995,1984786.0,14598218.0,2238342850.0,2334769220.0,0.006446462935738374,36.55,2013-09-30 00:00:00,2013-10-26 00:00:00,183.51995990458306,4.660590840045912,-6.344469122003901,4.672726705301361
sh600807,2013-10-28,7.58,7.75,7.5,7.61,0.0052840000000000005,1340524.0,10203582.0,2343024640.0,2443960630.0,0.004353939547131694,38.26,2013-09-30 00:00:00,2013-10-26 00:00:00,192.10272547327818,4.878554916610224,-6.641183937985204,4.8912583456691685
sh600807,2013-10-25,7.55,7.63,7.42,7.57,0.002649,1873576.0,14078056.0,2330709130.0,2431114580.0,0.00608525969089931,38.06,2013-06-30 00:00:00,2013-08-24 00:00:00,155.9617114136209,3.959055275944796,-9.614683216530784,4.843289699856195
sh600807,2013-10-24,7.46,7.58,7.41,7.55,0.003989,1254051.0,9428628.0,2324551380.0,2424691560.0,0.004073080565764909,37.95,2013-06-30 00:00:00,2013-08-24 00:00:00,155.54966036331845,3.948595446606735,-9.589281210603895,4.830493721986652
sh600807,2013-10-23,7.75,7.75,7.43,7.52,-0.023377000000000002,2319236.0,17537939.0,2315314750.0,2415057020.0,0.007532735978985146,37.8,2013-06-30 00:00:00,2013-08-24 00:00:00,154.93163805910066,3.9329070802635626,-9.55118154741127,4.811301440540336
sh600807,2013-10-22,7.81,7.88,7.63,7.7,-0.019108,2731928.0,21127762.0,2370734520.0,2472864240.0,0.00887313422170948,38.71,2013-06-30 00:00:00,2013-08-24 00:00:00,158.64016929675083,4.027047366551436,-9.779804026130114,4.926467470600566
sh600807,2013-10-21,7.77,7.93,7.41,7.85,0.008997,4880230.0,37438859.0,2416917660.0,2521036920.0,0.015850687068917357,39.46,2013-06-30 00:00:00,2013-08-24 00:00:00,161.73051599641025,4.105495168225897,-9.97031684031485,5.02243618114998
sh600807,2013-10-18,7.88,8.15,7.71,7.78,-0.026282999999999997,7142064.0,56325631.0,2395365530.0,2498556340.0,0.023196984854332442,39.11,2013-06-30 00:00:00,2013-08-24 00:00:00,160.28840125036075,4.068887388392529,-9.881413760709744,4.977652243911508
sh600807,2013-10-17,8.13,8.56,7.95,7.99,0.026992000000000002,20694039.0,173256539.0,2460021920.0,2565998090.0,0.06721296678933658,40.17,2013-06-30 00:00:00,2013-08-24 00:00:00,164.61497668250706,4.178716596703691,-10.148137252106869,5.112011235206438
sh600807,2013-10-15,7.68,7.82,7.65,7.78,0.014341999999999999,4002708.0,30876315.0,2395365530.0,2498556340.0,0.013000549540345102,39.11,2013-06-30 00:00:00,2013-08-24 00:00:00,160.28847029237528,4.068889141009562,-9.881418016992216,4.9776543879664485
sh600807,2013-10-14,7.93,7.94,7.6,7.67,-0.032787000000000004,6185771.0,47946339.0,2361497890.0,2463229700.0,0.02009100400678317,38.56,2013-06-30 00:00:00,2013-08-24 00:00:00,158.02211708908362,4.011358241115484,-9.741702519458146,4.907274260522041
sh600807,2013-10-11,7.89,7.97,7.82,7.93,0.001263,3212452.0,25358917.0,2441548670.0,2546729020.0,0.010433846628992246,39.87,2013-06-30 00:00:00,2013-08-24 00:00:00,163.3788184082344,4.1473369786339545,-10.071930918482428,5.073623142495025
sh600807,2013-10-10,8.2,8.29,7.9,7.92,-0.041162,5319645.0,42876904.0,2438469790.0,2543517500.0,0.01727787999374805,39.81,2013-06-30 00:00:00,2013-08-24 00:00:00,163.17273124866733,4.142105499388228,-10.05922611589805,5.067223239543482
sh600807,2013-10-09,8.07,8.34,8.05,8.26,0.021013999999999998,4446711.0,36570023.0,2543151580.0,2652708910.0,0.01444264398113462,41.52,2013-06-30 00:00:00,2013-08-24 00:00:00,170.1775808308258,4.319922134279438,-10.491059090167527,5.284754295870087
sh600807,2013-10-08,7.8,8.1,7.72,8.09,0.033206,3652936.0,29311511.0,2490810680.0,2598113210.0,0.011864511613544229,40.67,2013-06-30 00:00:00,2013-08-24 00:00:00,166.67507089111982,4.231011655353833,-10.27513735381447,5.175986123471458
sh600807,2013-09-30,7.8,8.05,7.74,7.83,0.003846,3207775.0,25116292.0,2410759910.0,2514613900.0,0.01041865602037492,39.36,2013-06-30 00:00:00,2013-08-24 00:00:00,161.3183342829211,4.095032022030294,-9.944906779300998,5.009636145619999
sh600807,2013-09-27,7.92,8.0,7.68,7.8,-0.025,5537437.0,43157586.0,2401523280.0,2504979360.0,0.017985255008646013,39.21,2013-06-30 00:00:00,2013-08-24 00:00:00,160.7002810021867,4.079342869354756,-9.90680520647689,4.990442902218069
sh600807,2013-09-26,8.1,8.38,7.91,8.0,-0.020808,8055548.0,65432260.0,2463100800.0,2569209600.0,0.02616392475695676,40.22,2013-06-30 00:00:00,2013-08-24 00:00:00,164.82080102788382,4.183941404466417,-10.16082585279681,5.1184029766339165
sh600807,2013-09-25,7.88,8.35,7.86,8.17,0.026382,11297355.0,92433674.0,2515441690.0,2623805300.0,0.03669311465931854,41.07,2013-06-30 00:00:00,2013-08-24 00:00:00,168.32327166468255,4.272850885695979,-10.376745166215422,5.227169928506276
sh600807,2013-09-24,7.59,8.0,7.47,7.96,0.041885000000000006,10496492.0,81853470.0,2450785300.0,2556363550.0,0.03409196077681713,40.02,2013-06-30 00:00:00,2013-08-24 00:00:00,163.9967104496012,4.1630220382820236,-10.110022551267875,5.092811378713069
sh600807,2013-09-23,7.59,7.77,7.52,7.64,0.006587999999999999,9403610.0,72200096.0,2352261260.0,2453595170.0,0.030542347324123344,38.41,2013-06-30 00:00:00,2013-08-24 00:00:00,157.40385018461848,3.9956636656464233,-9.703587777219056,4.888074383173834
sh600807,2013-09-18,7.21,7.73,7.21,7.59,0.045455,13131578.0,99003161.0,2336866880.0,2437537610.0,0.042650558263721036,38.16,2013-06-30 00:00:00,2013-08-24 00:00:00,156.37366050918396,3.9695125171832197,-9.640078937180906,4.856082511587495
sh600807,2013-09-17,7.2,7.49,7.19,7.26,0.0,10700065.0,78472613.0,2235263980.0,2331557710.0,0.0347531533613314,36.5,2013-06-30 00:00:00,2013-08-24 00:00:00,149.5747406719409,3.796923365599878,-9.220941061242145,4.644946469802617
sh600807,2013-09-16,7.13,7.29,7.05,7.26,0.022535,7167195.0,51497775.0,2235263980.0,2331557710.0,0.02327860877532684,36.5,2013-06-30 00:00:00,2013-08-24 00:00:00,149.5747406719409,3.796923365599878,-9.220941061242145,4.644946469802617
sh600807,2013-09-13,7.03,7.13,7.02,7.1,0.004243,4334109.0,30673443.0,2186001960.0,2280173520.0,0.014076919629111404,35.69,2013-06-30 00:00:00,2013-08-24 00:00:00,146.27835787717868,3.7132453809403865,-9.017726592480596,4.542579442075447
sh600807,2013-09-12,7.08,7.18,7.05,7.07,-0.004225,4563907.0,32380006.0,2176765330.0,2270538980.0,0.014823289421832165,35.54,2013-06-30 00:00:00,2013-08-24 00:00:00,145.66032113460454,3.697556648082572,-8.979626039196287,4.5233867122553475
sh600807,2013-09-11,7.13,7.13,6.98,7.1,-0.0014060000000000001,7853457.0,55465810.0,2186001960.0,2280173520.0,0.025507545610800826,35.69,2013-06-30 00:00:00,2013-08-24 00:00:00,146.27834715131888,3.713245108666689,-9.017725931255843,4.542579108990834
sh600807,2013-09-10,7.14,7.16,6.99,7.11,-0.002805,6720531.0,47459880.0,2189080840.0,2283385030.0,0.021827871560010547,35.74,2013-06-30 00:00:00,2013-08-24 00:00:00,146.48430408285938,3.7184732821013236,-9.030422705579888,4.548974967795554
sh600807,2013-09-09,7.2,7.26,7.04,7.13,-0.006964,8589516.0,61076356.0,2195238590.0,2289808060.0,0.027898219974349117,35.84,2013-06-30 00:00:00,2013-08-24 00:00:00,146.8963483399529,3.728932938995204,-9.055824292720969,4.561770734706405
sh600807,2013-09-06,6.95,7.27,6.93,7.18,0.027181999999999998,10741273.0,76637188.0,2210632970.0,2305865620.0,0.034886994443044064,36.09,2013-06-30 00:00:00,2013-08-24 00:00:00,147.92650854546352,3.7550833393705805,-9.119331316005631,4.593761691123388
sh600807,2013-09-05,6.85,7.03,6.81,6.99,0.014513999999999999,8476767.0,58878425.0,2152134320.0,2244846890.0,0.027532018229233946,35.14,2013-06-30 00:00:00,2013-08-24 00:00:00,144.01197503992822,3.6557137287944896,-8.878009268080664,4.472198394367687
sh600807,2013-09-04,6.88,7.04,6.8,6.89,0.002911,6723195.0,46596584.0,2121345560.0,2212731770.0,0.02183652414932341,34.64,2013-06-30 00:00:00,2013-08-24 00:00:00,141.95168823685844,3.603413781174522,-8.750997293364767,4.408217525206834
sh600807,2013-09-03,6.86,6.89,6.75,6.87,-0.0043479999999999994,4206210.0,28726447.0,2115187810.0,2206308740.0,0.013661511551543975,34.54,2013-06-30 00:00:00,2013-08-24 00:00:00,141.53966626835125,3.5929546900717226,-8.725597080264116,4.395422450453563
sh600807,2013-09-02,6.75,6.93,6.5,6.9,0.022222,5970717.0,40464601.0,2124424440.0,2215943280.0,0.01939252181640313,34.69,2013-06-30 00:00:00,2013-08-24 00:00:00,142.15776824467912,3.60864507887467,-8.763701655060318,4.414617206065536
sh600807,2013-08-30,6.9,6.95,6.68,6.75,-0.028776999999999997,5769707.0,39181486.0,2078241300.0,2167770600.0,0.018739653691801812,33.93,2013-06-30 00:00:00,2013-08-24 00:00:00,139.0674122105366,3.5301970402463168,-8.573188265426023,4.318648205639809
sh600807,2013-08-29,7.03,7.05,6.87,6.95,-0.030683,8303525.0,57618849.0,2139818819.9999998,2232000840.0,0.02696933881065688,34.94,2013-06-30 00:00:00,2013-08-24 00:00:00,143.18793130983985,3.6347955518416644,-8.82720885463588,4.446608251287097
sh600807,2013-08-28,6.84,7.24,6.78,7.17,0.070149,16562248.0,116888210.0,2207554090.0,2302654100.0,0.053793163527875325,36.04,2013-06-30 00:00:00,2013-08-24 00:00:00,147.72043749345144,3.749852269011752,-9.106627506415219,4.587362288381508
sh600807,2013-08-27,6.73,6.78,6.65,6.7,0.001495,3759311.0,25231819.0,2062846920.0,2151713040.0,0.012210011055982769,33.68,2013-06-30 00:00:00,2013-08-24 00:00:00,138.03726162754106,3.504046884136464,-8.509681835347433,4.2866575480437845
sh600807,2013-08-26,6.55,6.72,6.55,6.69,0.018265,3280665.0,21785388.0,2059768040.0,2148501530.0,0.01065539828941127,33.63,2013-06-30 00:00:00,2013-08-24 00:00:00,137.83120397759455,3.498816153986254,-8.496978851963746,4.2802585614943505
sh600807,2013-08-23,6.58,6.61,6.3,6.57,0.009217,3972704.0,25800435.0,2022821530.0,2109963380.0,0.01290309841620086,33.03,2013-03-31 00:00:00,2013-04-27 00:00:00,124.14877562152407,3.718017545656072,-9.808160197977587,4.251111412743032
sh600807,2013-08-22,6.69,6.7,6.5,6.51,-0.029806,4371367.0,28802516.0,2004348280.0,2090694310.0,0.014197931294655039,32.73,2013-03-31 00:00:00,2013-04-27 00:00:00,123.01494685634908,3.6840615503465277,-9.718584009165111,4.212286765624272
sh600807,2013-08-21,6.7,6.79,6.65,6.71,-0.004451,3318093.0,22227083.0,2065925800.0,2154924550.0,0.010776962091281303,33.73,2013-03-31 00:00:00,2013-04-27 00:00:00,126.79417400679564,3.7972421498654167,-10.017155341266914,4.341695336833945
sh600807,2013-08-20,6.8,6.88,6.72,6.74,-0.017493,2803779.0,19051778.0,2075162420.0,2164559090.0,0.009106501870827056,33.88,2013-03-31 00:00:00,2013-04-27 00:00:00,127.36105807629323,3.8142192397013273,-10.061941040839692,4.3611066224102935
sh600807,2013-08-19,6.8,6.9,6.74,6.86,0.008824,3011054.0,20551900.0,2112108940.0,2203097230.0,0.009779718294265636,34.49,2013-03-31 00:00:00,2013-04-27 00:00:00,129.6286520872556,3.882129328036673,-10.241088400224823,4.4387537416123175
sh600807,2013-08-16,6.85,7.04,6.78,6.8,0.00295,5942219.0,41007304.0,2093635680.0,2183828160.0,0.01929996206407793,34.18,2013-03-31 00:00:00,2013-04-27 00:00:00,128.49481384984458,3.8481730490518395,-10.151511463074653,4.399928770144562
sh600807,2013-08-15,6.83,6.99,6.76,6.78,-0.010218999999999999,3938731.0,27103196.0,2087477930.0,2177405140.0,0.012792756175391037,34.08,2013-03-31 00:00:00,2013-04-27 00:00:00,128.11686908604074,3.8368543287819326,-10.121652587940229,4.386987158028378
sh600807,2013-08-14,6.95,7.0,6.74,6.85,-0.014388,5489686.0,37642485.0,2109030060.0,2199885720.0,0.017830162695737017,34.44,2013-03-31 00:00:00,2013-04-27 00:00:00,129.43961248603554,3.876467954812158,-10.226153652111153,4.432280633825441
sh600807,2013-08-13,6.99,7.08,6.88,6.95,0.0,5148693.0,35851122.0,2139818819.9999998,2232000840.0,0.016722638391412973,34.94,2013-03-31 00:00:00,2013-04-27 00:00:00,131.32917668010893,3.933056775700943,-10.375435416889356,4.496983228517347
sh600807,2013-08-12,6.83,7.11,6.71,6.95,0.012209000000000001,8666407.0,60156293.0,2139818819.9999998,2232000840.0,0.0281479572415388,34.94,2013-03-31 00:00:00,2013-04-27 00:00:00,131.32917668010893,3.933056775700943,-10.375435416889356,4.496983228517347
sh600807,2013-08-09,6.62,7.08,6.55,6.88,0.045593,8558542.0,58077218.0,2118266690.0,2209520260.0,0.027797618325386592,34.52,2013-03-31 00:00:00,2013-04-27 00:00:00,129.7451185280006,3.8856172743978203,-10.250289630787078,4.442741793954952
sh600807,2013-08-08,6.6,6.68,6.55,6.58,-0.010526,3395799.0,22423542.0,2025900410.0,2113174900.0,0.011029346412936458,33.01,2013-03-31 00:00:00,2013-04-27 00:00:00,124.08759290469675,3.716185240717775,-9.80332656280893,4.2490163896993876
sh600807,2013-08-07,6.52,6.73,6.47,6.65,0.01372,6236868.0,41412656.0,2047452540.0,2135655480.0,0.02025696390500949,33.36,2013-03-31 00:00:00,2013-04-27 00:00:00,125.40763365656576,3.7557179276239445,-9.907614108919416,4.294217321222576
sh600807,2013-08-06,6.47,6.57,6.39,6.56,0.013909999999999999,4371752.0,28368569.0,2019742660.0,2106751870.0,0.014199181751203887,32.91,2013-03-31 00:00:00,2013-04-27 00:00:00,123.71032795699578,3.7048868796353474,-9.773521395374873,4.236098055895687
sh600807,2013-08-05,6.39,6.47,6.32,6.47,0.01252,4241999.0,27154401.0,1992032770.0,2077848260.0,0.013777752024631601,32.46,2013-03-31 00:00:00,2013-04-27 00:00:00,122.01312538291937,3.6540589200573494,-9.639436829082337,4.177982321799457
sh600807,2013-08-02,6.46,6.48,6.38,6.39,-0.006221,3678641.0,23638620.0,1967401760.0,2052156170.0,0.01194799987878429,32.06,2013-03-31 00:00:00,2013-04-27 00:00:00,120.50441016762075,3.608875795102664,-9.520243381940443,4.126320785564193
sh600807,2013-08-01,6.4,6.43,6.31,6.43,0.019017,3219944.0,20580144.0,1979717270.0,2065002220.0,0.010458180182466156,32.26,2013-03-31 00:00:00,2013-04-27 00:00:00,121.2587609192997,3.631467152256854,-9.57983956386726,4.15215131891919
sh600807,2013-07-31,6.3,6.49,6.28,6.31,0.007987000000000001,3526332.0,22507273.0,1942770760.0,2026464070.0,0.011453309560825386,31.66,2013-03-31 00:00:00,2013-04-27 00:00:00,118.99581745868782,3.5636963389784992,-9.401059613202978,4.074663444200822
sh600807,2013-07-30,6.34,6.4,6.07,6.26,-0.015722999999999997,4548853.0,28388753.0,1927376380.0,2010406510.0,0.01477439491086842,31.41,2013-03-31 00:00:00,2013-04-27 00:00:00,118.05292871702495,3.5354586308935527,-9.326568312094281,4.042376979267413
sh600807,2013-07-29,6.85,6.85,6.32,6.36,-0.071533,5117823.0,33528609.0,1958165140.0,2042521630.0,0.016622374494931515,31.91,2013-03-31 00:00:00,2013-04-27 00:00:00,119.93872529483566,3.5919346189066217,-9.475552422838573,4.106950562968975
sh600807,2013-07-26,6.71,6.95,6.71,6.85,0.010324,3452570.0,23612681.0,2109030060.0,2199885720.0,0.011213735142305179,34.37,2013-03-31 00:00:00,2013-04-27 00:00:00,129.17930879055007,3.868672358744707,-10.20558880696737,4.42336729573477
sh600807,2013-07-25,6.97,7.02,6.75,6.78,-0.036932,6513869.0,44706833.0,2087477930.0,2177405140.0,0.02115664610643333,34.02,2013-03-31 00:00:00,2013-04-27 00:00:00,127.85928948589768,3.82914031414151,-10.101302955257294,4.378167098608734
sh600807,2013-07-24,6.94,7.13,6.82,7.04,-0.019499000000000002,9654136.0,67270801.0,2167528700.0,2260904450.0,0.031356040379073184,35.32,2013-03-31 00:00:00,2013-04-27 00:00:00,132.76247314405387,3.975981253807114,-10.488670535473396,4.546062270378346
sh600807,2013-07-23,7.3,7.47,7.1,7.18,-0.009655,10370983.0,75415127.0,2210632970.0,2305865620.0,0.033684315284594715,36.02,2013-03-31 00:00:00,2013-04-27 00:00:00,135.4026902002689,4.055050687155968,-10.697256336784355,4.63646877502251
sh600807,2013-07-22,7.0,7.43,6.68,7.25,0.018258,12139318.0,86899062.0,2232185100.0,2328346200.0,0.03942775870155212,36.37,2013-03-31 00:00:00,2013-04-27 00:00:00,136.72274833544765,4.094583894658899,-10.801545256233286,4.681670301786256
sh600807,2013-07-19,7.6,7.6,7.08,7.12,-0.082474,14299919.0,105755452.0,2192159710.0,2286596540.0,0.046445257987156416,35.72,2013-03-31 00:00:00,2013-04-27 00:00:00,134.27122432178055,4.021165455767496,-10.607866823764983,4.597725038041689
sh600807,2013-07-18,8.44,8.44,7.73,7.76,0.0038810000000000003,23982923.0,192126224.0,2389207780.0,2492133310.0,0.0778950596251616,38.93,2013-03-31 00:00:00,2013-04-27 00:00:00,146.34051168226355,4.382617447099587,-11.56138008488586,5.0110024544717975
sh600807,2013-07-17,7.73,7.73,7.73,7.73,0.09957300000000001,1609150.0,12438730.0,2379971150.0,2482498780.0,0.005226420286649274,38.78,2013-03-31 00:00:00,2013-04-27 00:00:00,145.77475983932712,4.365674265276051,-11.516683834922524,4.991629938679781
sh600807,2013-01-04,7.1,7.15,6.95,7.03,-0.018156,9397865.0,66188856.0,2164449830.0,2257692940.0,0.030523687837107318,35.27,2012-09-30 00:00:00,2012-10-31 00:00:00,107.60604127061617,4.98886928986468,22.30149252361996,4.618161555438304
