code,date,open,high,low,close,change,volume,money,traded_market_value,market_value,turnover,adjust_price,report_type,report_date,PE_TTM,PS_TTM,PC_TTM,PB
sh600253,2013-06-06,6.36,6.38,6.21,6.26,-0.020344,11184099.0,70405776.0,2625426650.0,2629200000.0,0.02666707894505451,17.93,2013-03-31 00:00:00,2013-04-19 00:00:00,58.482640217946106,0.7950373699038928,-38.48576129183382,2.967993997960124
sh600253,2013-06-05,6.56,6.63,6.36,6.39,-0.02144,13519953.0,87136165.0,2679948290.0,2683800000.0,0.032236629338098156,18.3,2013-03-31 00:00:00,2013-04-19 00:00:00,59.69711839456515,0.8115474920828261,-39.28497481956301,3.029628765566816
sh600253,2013-06-04,6.72,6.78,6.46,6.53,-0.007599,17416700.0,115471888.0,2738663900.0,2742600000.0,0.041527933018724934,18.7,2013-03-31 00:00:00,2013-04-19 00:00:00,61.00506703172534,0.8293282906340194,-40.145698597493265,3.096007159056998
sh600253,2013-06-03,6.41,6.64,6.4,6.58,0.024922,13306120.0,87060313.0,2759633760.0,2763600000.0,0.03172677145390481,18.84,2013-03-31 00:00:00,2013-04-19 00:00:00,61.472194235722604,0.835678612409721,-40.45310171744413,3.119713864714967
sh600253,2013-05-31,6.5,6.54,6.41,6.42,-0.010786,9453794.0,61323156.0,2692530200.0,2696400000.0,0.02254138411520881,18.38,2013-03-31 00:00:00,2013-04-19 00:00:00,59.97743656173113,0.815358254003447,-39.46944422838433,3.04385491258356
sh600253,2013-05-30,6.4,6.51,6.38,6.49,0.010903,8366873.0,53910044.0,2721888010.0,2725800000.0,0.019949757510412783,18.58,2013-03-31 00:00:00,2013-04-19 00:00:00,60.63140691673504,0.824248599396538,-39.89980350903276,3.0770439081771586
sh600253,2013-05-29,6.36,6.44,6.35,6.42,0.009434,7663208.0,49002758.0,2692530200.0,2696400000.0,0.018271956749083072,18.38,2013-03-31 00:00:00,2013-04-19 00:00:00,59.97747253370009,0.8153587430213757,-39.46946790051345,3.0438567381609882
sh600253,2013-05-28,6.36,6.38,6.27,6.36,0.0,6810573.0,43155216.0,2667366370.0,2671200000.0,0.01623895568571632,18.21,2013-03-31 00:00:00,2013-04-19 00:00:00,59.41693318602315,0.8077385376571186,-39.10059290702855,3.0154093662002555
sh600253,2013-05-27,6.3,6.38,6.3,6.36,0.0031550000000000003,4198325.0,26639520.0,2667366370.0,2671200000.0,0.010010378514294609,18.21,2013-03-31 00:00:00,2013-04-19 00:00:00,59.41693318602315,0.8077385376571186,-39.10059290702855,3.0154093662002555
sh600253,2013-05-24,6.23,6.34,6.21,6.34,0.016026,4807897.0,30236186.0,2658978430.0,2662800000.0,0.011463826346270887,18.15,2013-03-31 00:00:00,2013-04-19 00:00:00,59.23006233934253,0.8051981375332014,-38.97761852059607,3.005925670709168
sh600253,2013-05-23,6.3,6.33,6.2,6.24,-0.012657999999999999,7495969.0,46869851.0,2617038700.0,2620800000.0,0.017873196357394334,17.87,2013-03-31 00:00:00,2013-04-19 00:00:00,58.29581363010643,0.7924975714530939,-38.36281603088509,2.95851254860522
sh600253,2013-05-22,6.37,6.38,6.29,6.32,-0.007849,7714340.0,48881136.0,2650590480.0,2654400000.0,0.01839387456035834,18.1,2013-03-31 00:00:00,2013-04-19 00:00:00,59.04318223078369,0.802657611499454,-38.8546380391851,2.9964415051777604
sh600253,2013-05-21,6.35,6.38,6.28,6.37,0.00315,8965764.0,56784587.0,2671560340.0,2675400000.0,0.02137773788032802,18.24,2013-03-31 00:00:00,2013-04-19 00:00:00,59.51027840599232,0.8090075114568789,-39.16202073997314,3.0201466361247027
sh600253,2013-05-20,6.49,6.5,6.3,6.35,-0.020062,12198628.0,77523639.0,2663172400.0,2667000000.0,0.029086095890750445,18.18,2013-03-31 00:00:00,2013-04-19 00:00:00,59.323409665545846,0.8064671399659861,-39.03904773959342,3.010663047524999
sh600253,2013-05-17,6.48,6.53,6.42,6.48,0.0030960000000000002,7089512.0,45807879.0,2717694040.0,2721600000.0,0.01690405067084005,18.56,2013-03-31 00:00:00,2013-04-19 00:00:00,60.53792144558722,0.8229777189638386,-39.838283380778606,3.0722995205053785
sh600253,2013-05-16,6.54,6.57,6.41,6.46,-0.015244,10745381.0,69723726.0,2709306090.0,2713200000.0,0.02562101104641152,18.5,2013-03-31 00:00:00,2013-04-19 00:00:00,60.35107451887678,0.820437644017959,-39.715324735397814,3.0628170389527805
sh600253,2013-05-15,6.4,6.66,6.4,6.56,0.017054,14846591.0,97241012.0,2751245820.0,2755200000.0,0.03539983096094263,18.78,2013-03-31 00:00:00,2013-04-19 00:00:00,61.28530775022115,0.8331379996851596,-40.330117039548696,3.1102293755537214
sh600253,2013-05-14,6.39,6.5,6.27,6.45,0.015747999999999998,9271365.0,59337531.0,2705112120.0,2709000000.0,0.02210640505725138,18.47,2013-03-31 00:00:00,2013-04-19 00:00:00,60.257673388257814,0.8191679101455378,-39.65386010924563,3.0580769315628493
sh600253,2013-05-13,6.41,6.49,6.33,6.35,-0.009317,3871361.0,24763374.0,2663172400.0,2667000000.0,0.009230773925863755,18.18,2013-03-31 00:00:00,2013-04-19 00:00:00,59.32344773335297,0.8064676574756119,-39.039072790934,3.010664979466215
sh600253,2013-05-10,6.36,6.59,6.33,6.44,-0.00155,4804836.0,30906803.0,2700918150.0,2704800000.0,0.011456527788522582,18.35,2013-03-31 00:00:00,2013-04-19 00:00:00,59.881362386709945,0.814052181652064,-39.40622054777764,3.0389791481899002
sh600253,2013-05-09,6.27,6.55,6.21,6.45,0.022187000000000002,14051909.0,90092935.0,2705112120.0,2709000000.0,0.03350501163330709,18.38,2013-03-31 00:00:00,2013-04-19 00:00:00,59.97432258671936,0.8153159213301258,-39.46739501004321,3.0436968783513447
sh600253,2013-05-08,6.24,6.31,6.18,6.31,0.007987000000000001,4936670.0,30874461.0,2646396510.0,2650200000.0,0.011770869400065826,17.98,2013-03-31 00:00:00,2013-04-19 00:00:00,58.67255461742261,0.7976191453521967,-38.61073855375114,2.9776321537559616
sh600253,2013-05-07,6.27,6.27,6.17,6.26,0.0,3412233.0,21231966.0,2625426650.0,2629200000.0,0.008136040890725322,17.84,2013-03-31 00:00:00,2013-04-19 00:00:00,58.20765011594656,0.7912990399203529,-38.30479813107822,2.9540382502512057
sh600253,2013-05-06,6.18,6.27,6.15,6.26,0.012944999999999998,4178089.0,26030336.0,2625426650.0,2629200000.0,0.00996212830398442,17.84,2013-03-31 00:00:00,2013-04-19 00:00:00,58.20765011594656,0.7912990399203529,-38.30479813107822,2.9540382502512057
sh600253,2013-05-03,6.06,6.22,6.05,6.18,0.021488,3953452.0,24322264.0,2591874870.0,2595600000.0,0.009426509606152399,17.61,2013-03-31 00:00:00,2013-04-19 00:00:00,57.463781464883645,0.7811865796468248,-37.81527934002165,2.9162869161220066
sh600253,2013-05-02,6.13,6.17,6.04,6.05,-0.014658000000000001,2373236.0,14463000.0,2537353230.0,2541000000.0,0.005658683083710816,17.24,2013-03-31 00:00:00,2013-04-19 00:00:00,56.25497457129565,0.764753555251579,-37.019797922267955,2.8549399661298094
sh600253,2013-04-26,6.13,6.23,6.08,6.14,0.0065569999999999995,3343169.0,20514119.0,2575098980.0,2578800000.0,0.007971366467629916,17.5,2013-03-31 00:00:00,2013-04-19 00:00:00,57.091826565086684,0.7761300698149262,-37.57050640515471,2.8974102049134305
sh600253,2013-04-25,6.2,6.23,6.07,6.1,-0.011345000000000001,3138608.0,19236442.0,2558323090.0,2562000000.0,0.0074836164653464465,17.39,2013-03-31 00:00:00,2013-04-19 00:00:00,56.719914088409,0.7710741367005806,-37.325761387735334,2.8785356466781624
sh600253,2013-04-24,6.09,6.18,6.09,6.17,0.013136000000000002,3451852.0,21215453.0,2587680900.0,2591400000.0,0.00823050741689209,17.59,2013-03-31 00:00:00,2013-04-19 00:00:00,57.370785651626704,0.779922355827443,-37.754081441691326,2.911567378588246
sh600253,2013-04-23,6.38,6.4,6.08,6.09,-0.042453,5132314.0,31754877.0,2554129120.0,2557800000.0,0.012237357937487514,17.36,2013-03-31 00:00:00,2013-04-19 00:00:00,56.62693424340533,0.7698101299602846,-37.26457399765809,2.873816919533257
sh600253,2013-04-22,6.36,6.46,6.31,6.36,0.011129,5424753.0,34533208.0,2667366370.0,2671200000.0,0.012934642000453805,18.13,2013-03-31 00:00:00,2013-04-19 00:00:00,59.13749846577278,0.8039397856818356,-38.91670486948222,3.0012280541145833
sh600253,2013-04-19,6.21,6.32,6.2,6.29,0.016155000000000003,4089418.0,25653089.0,2638008560.0,2641800000.0,0.009750703470044843,17.93,2013-03-31 00:00:00,2013-04-19 00:00:00,58.48660108232756,0.7950912155440459,-38.48836782396926,2.9681950118279503
sh600253,2013-04-18,6.26,6.26,6.13,6.19,-0.012759,2829457.0,17505558.0,2596068840.0,2599800000.0,0.006746484746529295,17.64,2012-12-31 00:00:00,2013-03-08 00:00:00,62.00658132412947,0.803458405654432,250.3941183781075,2.9687603567049674
sh600253,2013-04-17,6.15,6.29,6.15,6.27,0.012924000000000001,3545664.0,22056551.0,2629620620.0,2633400000.0,0.00845419035389219,17.87,2012-12-31 00:00:00,2013-03-08 00:00:00,62.80794793179119,0.8138422185205355,253.63018592026415,3.0071283067710595
sh600253,2013-04-16,6.16,6.24,6.0,6.19,-0.011182,5437081.0,33220986.0,2596068840.0,2599800000.0,0.01296403657385295,17.64,2012-12-31 00:00:00,2013-03-08 00:00:00,62.00657495704633,0.8034583231521176,250.39409266664052,2.968760051860811
sh600253,2013-04-15,6.42,6.5,6.25,6.26,-0.044275,6451671.0,40903965.0,2625426650.0,2629200000.0,0.015383198940256053,17.84,2012-12-31 00:00:00,2013-03-08 00:00:00,62.70777327783913,0.8125441923105341,253.2256620193408,3.002332129735513
sh600253,2013-04-12,6.45,6.78,6.41,6.55,0.025039,15367626.0,101841650.0,2747051840.0,2751000000.0,0.036642173560146575,18.67,2012-12-31 00:00:00,2013-03-08 00:00:00,65.61277907121728,0.8501861856815862,264.9566162016697,3.1414184307572923
sh600253,2013-04-02,6.42,6.5,6.28,6.39,-0.009302,6830432.0,43569719.0,2679948290.0,2683800000.0,0.01628630695706446,18.21,2012-12-31 00:00:00,2013-03-08 00:00:00,64.0100318829013,0.8294183788924969,258.4844246918114,3.064681861624086
sh600253,2013-04-01,6.53,6.63,6.42,6.45,0.0031100000000000004,6012613.0,39016563.0,2705112120.0,2709000000.0,0.01433632031858258,18.38,2012-12-31 00:00:00,2013-03-08 00:00:00,64.61104381244466,0.8372060697533426,260.91142274619654,3.093457200503167
sh600253,2013-03-29,6.42,6.49,6.38,6.43,0.001558,5817369.0,37442745.0,2696724180.0,2700600000.0,0.013870785506139526,18.33,2012-12-31 00:00:00,2013-03-08 00:00:00,64.41072645317529,0.8346104313119624,260.1025039588844,3.0838663760735785
sh600253,2013-03-28,6.73,6.73,6.32,6.42,-0.065502,14980338.0,97356775.0,2692530200.0,2696400000.0,0.035718733984859294,18.3,2012-12-31 00:00:00,2013-03-08 00:00:00,64.31053064642816,0.8333121310118461,259.69789463903686,3.0790691862813526
sh600253,2013-03-27,6.87,6.95,6.8,6.87,-0.008657999999999999,11020635.0,75589225.0,2881258960.0,2885400000.0,0.02627731956797108,19.58,2012-12-31 00:00:00,2013-03-08 00:00:00,68.8182646152567,0.8917216848102895,277.90096355373345,3.294891146135521
sh600253,2013-03-26,6.75,6.94,6.67,6.93,0.017621,18925277.0,128928712.0,2906422790.0,2910600000.0,0.04512494536625898,19.75,2012-12-31 00:00:00,2013-03-08 00:00:00,69.41929688771052,0.899509639267064,280.328043756578,3.3236674589955046
sh600253,2013-03-25,6.7,6.9,6.61,6.81,0.013393,16995411.0,115094772.0,2856095120.0,2860200000.0,0.04052342238167474,19.41,2012-12-31 00:00:00,2013-03-08 00:00:00,68.21724088605728,0.8839338410538539,275.4739178501406,3.2661152423107462
sh600253,2013-03-22,6.44,6.75,6.44,6.72,0.04186,11976461.0,79177544.0,2818349370.0,2822400000.0,0.02855636663668848,19.15,2012-12-31 00:00:00,2013-03-08 00:00:00,67.31568195759915,0.8722517730572974,271.8332550650543,3.2229502693532974
sh600253,2013-03-21,6.49,6.53,6.43,6.45,-0.006163,4804486.0,31132789.0,2705112120.0,2709000000.0,0.01145569326716114,18.38,2012-12-31 00:00:00,2013-03-08 00:00:00,64.61106286602727,0.8372063166426368,260.91149968811004,3.093458112753439
sh600253,2013-03-20,6.38,6.51,6.35,6.49,0.018838,5726126.0,36925575.0,2721888010.0,2725800000.0,0.013653228054742781,18.5,2012-12-31 00:00:00,2013-03-08 00:00:00,65.01173015899715,0.8423980156128588,262.52946880435127,3.1126413212160937
sh600253,2013-03-19,6.36,6.42,6.24,6.37,0.006319,2311704.0,14598439.0,2671560340.0,2675400000.0,0.005511967766372816,18.16,2012-12-31 00:00:00,2013-03-08 00:00:00,63.809683344159886,0.8268223364390206,257.6753799959869,3.055089544379081
sh600253,2013-03-18,6.36,6.46,6.32,6.33,-0.00939,3386444.0,21627251.0,2654784450.0,2658600000.0,0.00807455027846046,18.04,2012-12-31 00:00:00,2013-03-08 00:00:00,63.40900186139771,0.8216304536027051,256.05735357872294,3.0359056565354336
sh600253,2013-03-15,6.42,6.52,6.29,6.39,-0.004673,4619673.0,29720653.0,2679948290.0,2683800000.0,0.011015029872087568,18.21,2012-12-31 00:00:00,2013-03-08 00:00:00,64.01005628996045,0.8294186951501652,258.4845232520598,3.0646830301889074
sh600253,2013-03-14,6.38,6.47,6.38,6.42,0.009434,3333753.0,21388229.0,2692530200.0,2696400000.0,0.007948915209938963,18.3,2012-12-31 00:00:00,2013-03-08 00:00:00,64.31057962856472,0.8333127657043014,259.6980924380227,3.0790715314553982
sh600253,2013-03-13,6.38,6.46,6.31,6.36,0.0,3242667.0,20654966.0,2667366370.0,2671200000.0,0.007731732075485379,18.13,2012-12-31 00:00:00,2013-03-08 00:00:00,63.70954379242698,0.8255247650706252,257.270997844359,3.0502950479728232
sh600253,2013-03-12,6.55,6.63,6.29,6.36,-0.029008,8515501.0,55055919.0,2667366370.0,2671200000.0,0.020304142306480383,18.13,2012-12-31 00:00:00,2013-03-08 00:00:00,63.70954379242698,0.8255247650706252,257.270997844359,3.0502950479728232
sh600253,2013-03-11,6.53,6.64,6.51,6.55,-0.00607,7031744.0,46173766.0,2747051840.0,2751000000.0,0.01676631016908658,18.67,2012-12-31 00:00:00,2013-03-08 00:00:00,65.61284108666908,0.8501869892549323,264.9568666316087,3.141421399942351
sh600253,2013-03-08,6.79,6.79,6.55,6.59,-0.023704,9047258.0,59924437.0,2763827730.0,2767800000.0,0.02157205008577,18.78,2012-12-31 00:00:00,2013-03-08 00:00:00,66.01354329446649,0.8553791406386086,266.5749767404231,3.1606062800623294
sh600253,2013-03-07,7.1,7.1,6.68,6.75,-0.047955000000000005,15287191.0,104158789.0,2830931290.0,2835000000.0,0.036450386349716035,19.24,2012-09-30 00:00:00,2012-10-19 00:00:00,114.48823034893296,0.8914594299824203,-1259.5628074104104,3.301043611897059
sh600253,2013-03-06,6.89,7.18,6.83,7.09,0.027536,13410565.0,94415151.0,2973526350.0,2977800000.0,0.03197580739447626,20.21,2012-09-30 00:00:00,2012-10-19 00:00:00,120.25506183944347,0.9363627034251746,-1323.0076387254915,3.467318889230088
sh600253,2013-03-05,6.97,7.03,6.8,6.9,0.014706,12677276.0,87490924.0,2893840870.0,2898000000.0,0.03022737197018024,19.67,2012-09-30 00:00:00,2012-10-19 00:00:00,117.0324561275162,0.9112699734366237,-1287.5535637928904,3.3744013730225397
sh600253,2013-03-04,6.69,7.08,6.61,6.8,0.010401,15006497.0,102626318.0,2851901150.0,2856000000.0,0.03578110678906245,19.38,2012-09-30 00:00:00,2012-10-19 00:00:00,115.33632020261649,0.898063058104144,-1268.8932200981271,3.325496619732749
sh600253,2013-03-01,6.64,6.73,6.59,6.73,0.015083000000000001,5121802.0,34096110.0,2822543340.0,2826600000.0,0.01221229342044399,19.18,2012-09-30 00:00:00,2012-10-19 00:00:00,114.14905587248674,0.8888184573294602,-1255.8313185538484,3.2912641809863104
sh600253,2013-02-28,6.6,6.66,6.55,6.63,0.00607,5249200.0,34676481.0,2780603620.0,2784600000.0,0.01251605793421214,18.9,2012-09-30 00:00:00,2012-10-19 00:00:00,112.45292835412154,0.8756116074542282,-1237.1710673450827,3.2423596700824566
sh600253,2013-02-27,6.71,6.79,6.56,6.59,-0.014948,4309502.0,28626021.0,2763827730.0,2767800000.0,0.01027546611235426,18.78,2012-09-30 00:00:00,2012-10-19 00:00:00,111.77445739771741,0.8703287121713482,-1229.7067473884351,3.2227972905289466
sh600253,2013-02-26,6.8,6.88,6.65,6.69,-0.023358,6969219.0,47341772.0,2805767460.0,2809800000.0,0.016617227113326066,19.07,2012-09-30 00:00:00,2012-10-19 00:00:00,113.47061616819965,0.8835358053903226,-1248.3673424229735,3.2717027025263095
sh600253,2013-02-25,6.71,6.9,6.67,6.85,0.023916,6515132.0,44476776.0,2872871010.0,2877000000.0,0.015534513747625584,19.52,2012-09-30 00:00:00,2012-10-19 00:00:00,116.18445261231817,0.9046670175871225,-1278.2241009735128,3.34995085458777
sh600253,2013-02-22,6.66,6.83,6.57,6.69,0.00905,6495133.0,43432229.0,2805767460.0,2809800000.0,0.015486828609096495,19.07,2012-09-30 00:00:00,2012-10-19 00:00:00,113.47068764656295,0.8835363619546158,-1248.3681288050118,3.2717047634647467
sh600253,2013-02-21,6.76,6.96,6.6,6.63,-0.032117,10394477.0,70278748.0,2780603620.0,2784600000.0,0.02478432453094483,18.9,2012-09-30 00:00:00,2012-10-19 00:00:00,112.45298810421976,0.8756120726967106,-1237.1717246965084,3.2423613928593693
sh600253,2013-02-20,6.68,6.86,6.58,6.85,0.031626999999999995,12685613.0,85847739.0,2872871010.0,2877000000.0,0.03024725048480335,19.52,2012-09-30 00:00:00,2012-10-19 00:00:00,116.18448521589877,0.9046672714539986,-1278.2244596676544,3.3499517946480815
sh600253,2013-02-19,6.51,6.78,6.51,6.64,0.024691,12122013.0,80560394.0,2784797590.0,2788800000.0,0.028903417113342156,18.92,2012-09-30 00:00:00,2012-10-19 00:00:00,112.62257115788823,0.8769325264402721,-1239.0374230876607,3.247250987661317
sh600253,2013-02-18,6.49,6.59,6.44,6.48,-0.004608,3664364.0,23811970.0,2717694040.0,2721600000.0,0.008737215584429806,18.47,2012-09-30 00:00:00,2012-10-19 00:00:00,109.90881266439172,0.8558019212038283,-1209.1815221248755,3.1690050831531815
sh600253,2013-02-08,6.38,6.63,6.36,6.51,0.014019,4830111.0,31469701.0,2730275950.0,2734200000.0,0.011516792875826343,18.55,2012-09-30 00:00:00,2012-10-19 00:00:00,110.41761704372922,0.8597637123905237,-1214.7792247927202,3.183675459671347
sh600253,2013-02-07,6.41,6.43,6.34,6.42,0.004695,2246408.0,14351766.0,2692530200.0,2696400000.0,0.005356277660321136,18.3,2012-09-30 00:00:00,2012-10-19 00:00:00,108.89107309007942,0.8478773202381059,-1197.9846775974813,3.139660558304477
sh600253,2013-02-06,6.39,6.43,6.35,6.39,0.001567,2700614.0,17262798.0,2679948290.0,2683800000.0,0.006439274789141547,18.21,2012-09-30 00:00:00,2012-10-19 00:00:00,108.38221857387508,0.8439151386620873,-1192.3864233399006,3.1249887361880737
sh600253,2013-02-05,6.41,6.42,6.32,6.38,0.003145,2047867.0,13043038.0,2675754310.0,2679600000.0,0.0048828815901262625,18.18,2012-09-30 00:00:00,2012-10-19 00:00:00,108.21264935233995,0.8425947926220486,-1190.520877125445,3.120099540208567
sh600253,2013-02-04,6.49,6.53,6.3,6.36,-0.021537999999999998,4468610.0,28530401.0,2667366370.0,2671200000.0,0.010654839140076585,18.13,2012-09-30 00:00:00,2012-10-19 00:00:00,107.87338754849993,0.8399531399967589,-1186.7884275208917,3.1103175913836654
sh600253,2013-02-01,6.5,6.64,6.46,6.5,-0.013656999999999999,5553180.0,36237526.0,2726081980.0,2730000000.0,0.013240860056600351,18.53,2012-09-30 00:00:00,2012-10-19 00:00:00,110.2479069687938,0.8584422695993905,-1212.9121289543095,3.1787822024602543
sh600253,2013-01-31,6.56,6.73,6.5,6.59,0.0,7601457.0,50270804.0,2763827730.0,2767800000.0,0.018124719238561227,18.78,2012-09-30 00:00:00,2012-10-19 00:00:00,111.77441008735684,0.8703283437905379,-1229.7062268950149,3.2227959264274744
sh600253,2013-01-30,6.46,6.76,6.43,6.59,0.021705000000000002,10849684.0,71685082.0,2763827730.0,2767800000.0,0.0258697084423565,18.78,2012-09-30 00:00:00,2012-10-19 00:00:00,111.77441008735684,0.8703283437905379,-1229.7062268950149,3.2227959264274744
sh600253,2013-01-29,6.49,6.51,6.4,6.45,-0.00463,4480625.0,28953698.0,2705112120.0,2709000000.0,0.010683487400145174,18.38,2012-09-30 00:00:00,2012-10-19 00:00:00,109.39988557103747,0.8518391745078452,-1203.5824693967584,3.154331168416984
sh600253,2013-01-28,6.4,6.58,6.37,6.48,0.025315999999999998,5386812.0,34795650.0,2717694040.0,2721600000.0,0.012844176440111708,18.47,2012-09-30 00:00:00,2012-10-19 00:00:00,109.90876314439603,0.8558015356177554,-1209.180977321758,3.1690036553412138
sh600253,2013-01-25,6.27,6.41,6.25,6.32,0.007974,3531885.0,22431848.0,2650590480.0,2654400000.0,0.008421336063955077,18.01,2012-09-30 00:00:00,2012-10-19 00:00:00,107.19501416577528,0.8346710044686276,-1179.3251810385852,3.090758025175862
sh600253,2013-01-24,6.39,6.48,6.24,6.27,-0.020313,3197038.0,20290766.0,2629620620.0,2633400000.0,0.007622935455989845,17.87,2012-09-30 00:00:00,2012-10-19 00:00:00,106.34700316255704,0.8280679903138649,-1169.99563583841,3.066307290838714
sh600253,2013-01-23,6.35,6.41,6.29,6.4,0.007873999999999999,2872748.0,18264659.0,2684142260.0,2688000000.0,0.006849706691775718,18.24,2012-09-30 00:00:00,2012-10-19 00:00:00,108.55202035196656,0.8452372954973018,-1194.2545280670358,3.129884637479843
sh600253,2013-01-22,6.52,6.52,6.29,6.35,-0.026074,3703705.0,23638881.0,2663172400.0,2667000000.0,0.008831019257333848,18.1,2012-09-30 00:00:00,2012-10-19 00:00:00,107.7039593758412,0.8386338922298837,-1184.9244330809563,3.1054324622719136
sh600253,2013-01-21,6.6,6.63,6.48,6.52,-0.012121,4103407.0,26838882.0,2734469930.0,2738400000.0,0.009784058455526698,18.58,2012-09-30 00:00:00,2012-10-19 00:00:00,110.58741565153942,0.8610858445404308,-1216.6472946414372,3.1885712695542714
sh600253,2013-01-18,6.46,6.64,6.44,6.6,0.020093,4292558.0,27870530.0,2768021700.0,2772000000.0,0.010235065281460762,18.81,2012-09-30 00:00:00,2012-10-19 00:00:00,111.94429241996177,0.8716511278612368,-1231.5752178570826,3.227694150350672
sh600253,2013-01-17,6.48,6.62,6.44,6.47,0.0015480000000000001,4393228.0,28621461.0,2713500070.0,2717400000.0,0.010475100212545784,18.44,2012-09-30 00:00:00,2012-10-19 00:00:00,109.73930065196191,0.8544820206209012,-1207.3166053066564,3.1641175366860397
sh600253,2013-01-16,6.6,6.62,6.35,6.46,-0.021212,7980389.0,51697963.0,2709306090.0,2713200000.0,0.01902823498986783,18.41,2012-09-30 00:00:00,2012-10-19 00:00:00,109.56968677683138,0.8531613268868802,-1205.450567827659,3.159227053207674
sh600253,2013-01-15,6.27,6.8,6.27,6.6,0.054313,22237657.0,144954847.0,2768021700.0,2772000000.0,0.05302289942307894,18.81,2012-09-30 00:00:00,2012-10-19 00:00:00,111.94424816899205,0.8716507833022884,-1231.5747310220997,3.2276928744607356
sh600253,2013-01-14,6.11,6.3,6.05,6.26,0.027915,5812332.0,36254752.0,2625426650.0,2629200000.0,0.01385877541846389,17.84,2012-09-30 00:00:00,2012-10-19 00:00:00,106.17743323756042,0.8267476387963427,-1168.1300818846964,3.0614180745762742
sh600253,2013-01-11,6.29,6.29,6.07,6.09,-0.031797000000000006,4835211.0,29791759.0,2554129120.0,2557800000.0,0.011528953160363325,17.36,2012-09-30 00:00:00,2012-10-19 00:00:00,103.29398173736197,0.8042957236700922,-1136.4072728627332,2.978279404986088
sh600253,2013-01-10,6.24,6.3,6.17,6.29,0.008013,5322569.0,33340357.0,2638008560.0,2641800000.0,0.012690997109577233,17.93,2012-09-30 00:00:00,2012-10-19 00:00:00,106.68628555929072,0.83070980328515,-1173.7283119993774,3.0760898334193216
sh600253,2013-01-09,6.28,6.28,6.18,6.24,-0.007949,4659446.0,28957702.0,2617038700.0,2620800000.0,0.011109863617989296,17.78,2012-09-30 00:00:00,2012-10-19 00:00:00,105.83820403039518,0.8241062399841569,-1164.3979908983092,3.051637065612568
sh600253,2013-01-08,6.23,6.34,6.21,6.29,0.009631,8866990.0,55742942.0,2638008560.0,2641800000.0,0.02114222370074493,17.93,2012-09-30 00:00:00,2012-10-19 00:00:00,106.6862530559368,0.8307095501986861,-1173.7279544078974,3.0760888962488497
sh600253,2013-01-07,6.03,6.24,6.03,6.23,0.029751999999999997,9359460.0,57919939.0,2612844730.0,2616600000.0,0.022316456515959905,17.76,2012-09-30 00:00:00,2012-10-19 00:00:00,105.6685591626414,0.8227853049269349,-1162.5316124484068,3.0467456885226882
sh600253,2013-01-04,6.11,6.13,6.02,6.05,-0.003295,2728161.0,16504377.0,2537353230.0,2541000000.0,0.006504957155689356,17.24,2012-09-30 00:00:00,2012-10-19 00:00:00,102.61554156985507,0.7990130681241064,-1128.9432916356625,2.9587179131700525
