code,date,open,high,low,close,change,volume,money,traded_market_value,market_value,turnover,adjust_price,report_type,report_date,PE_TTM,PS_TTM,PC_TTM,PB
sh600986,2014-08-25,6.78,7.12,6.6,7.05,0.045994,11006032.0,76017679.0,2363651440.0,2363651440.0,0.03282739759632241,28.9,2014-06-30 00:00:00,2014-08-06 00:00:00,58.44171287546913,2.4622882691356374,-68.22205700951689,3.2732065260347474
sh600986,2014-08-22,6.8,6.88,6.7,6.74,-0.0059,6565418.0,44612609.0,2259717830.0,2259717830.0,0.019582496864221317,27.63,2014-06-30 00:00:00,2014-08-06 00:00:00,55.87193891692412,2.354017584360558,-65.22222594920898,3.1292784911144302
sh600986,2014-08-21,6.58,6.94,6.51,6.78,0.018018,10143412.0,68368809.0,2273128620.0,2273128620.0,0.030254483954365946,27.8,2014-06-30 00:00:00,2014-08-06 00:00:00,56.203539801754474,2.367988717795552,-65.60932094277132,3.147850810898733
sh600986,2014-08-20,6.8,6.89,6.53,6.66,-0.0059700000000000005,13164514.0,87941826.0,2232896260.0,2232896260.0,0.03926544408292394,27.31,2014-06-30 00:00:00,2014-08-06 00:00:00,55.20878786205594,2.3260774542253198,-64.44809516410447,3.09213669198259
sh600986,2014-08-19,6.04,6.7,6.04,6.7,0.100164,13133766.0,84840487.0,2246307040.0,2246307040.0,0.039173732990660085,27.47,2014-06-30 00:00:00,2014-08-06 00:00:00,55.54036383414579,2.340047538027343,-64.83516107572656,3.1107076164528134
sh600986,2014-08-15,5.96,6.12,5.96,6.09,0.013311000000000002,5842355.0,35543276.0,2041792520.0,2041792520.0,0.017425836171640008,24.97,2014-06-30 00:00:00,2014-08-06 00:00:00,50.48371318653019,2.126998827472398,-58.93226925778936,2.827494461237428
sh600986,2014-08-14,6.09,6.13,5.9,6.01,-0.014754,7667933.0,46246941.0,2014970950.0,2014970950.0,0.022870938824204882,24.64,2014-06-30 00:00:00,2014-08-06 00:00:00,49.82055182123769,2.0990582629344767,-58.15812643678925,2.790352084638801
sh600986,2014-08-13,5.97,6.2,5.94,6.1,0.02521,9485838.0,57709169.0,2045145220.0,2045145220.0,0.028293155534451483,25.01,2014-06-30 00:00:00,2014-08-06 00:00:00,50.56661160891564,2.1304915350424944,-59.02904090632112,2.832137440434979
sh600986,2014-08-12,5.9,6.0,5.87,5.95,0.001684,6752885.0,40132694.0,1994854760.0,1994854760.0,0.020141649685814722,24.39,2014-06-30 00:00:00,2014-08-06 00:00:00,49.32317438272709,2.078102569271168,-57.57751183301092,2.762494942923868
sh600986,2014-08-11,5.85,5.96,5.73,5.94,0.011925,11695531.0,68361730.0,1991502070.0,1991502070.0,0.03488394774302193,24.35,2014-06-30 00:00:00,2014-08-06 00:00:00,49.24025379533574,2.0746089278366906,-57.48071431011268,2.7578507223075017
sh600986,2014-08-08,5.76,5.88,5.69,5.87,0.017331,8712966.0,50497873.0,1968033190.0,1968033190.0,0.02598793083362583,24.07,2014-06-30 00:00:00,2014-08-06 00:00:00,48.65998349219136,2.0501607607645735,-56.80333454565574,2.7253509126738664
sh600986,2014-08-07,6.04,6.04,5.69,5.77,-0.044702,15580217.0,90543359.0,1934506220.0,1934506220.0,0.0464706968427323,23.66,2014-06-30 00:00:00,2014-08-06 00:00:00,47.83102401498761,2.015234727698825,-55.83564694839314,2.6789225067100744
sh600986,2014-08-06,6.16,6.16,5.99,6.04,-0.014681999999999999,8487082.0,51134187.0,2025029040.0,2025029040.0,0.025314192669553023,24.76,2014-06-30 00:00:00,2014-08-06 00:00:00,50.069218207289886,2.1095351688152024,-58.448407667966585,2.804279404657054
sh600986,2014-08-05,6.18,6.35,5.97,6.13,-0.017628,8978319.0,54793463.0,2055203310.0,2055203310.0,0.026779392190644145,25.13,2014-03-31 00:00:00,2014-04-22 00:00:00,53.51290120087538,2.321396599315729,-5.158416880503047,2.9134183174169745
sh600986,2014-08-04,5.91,6.35,5.91,6.24,0.04698,9891129.0,61351900.0,2092082980.0,2092082980.0,0.029502006158474654,25.58,2014-03-31 00:00:00,2014-04-22 00:00:00,54.473153958862206,2.3630524885844966,-5.250981176685663,2.9656976353326177
sh600986,2014-08-01,6.09,6.14,5.92,5.96,-0.019737,6248713.0,37481951.0,1998207460.0,1998207460.0,0.018637869303120308,24.44,2014-03-31 00:00:00,2014-04-22 00:00:00,52.02883909803646,2.2570177926841932,-5.0153595834549485,2.8326210962316547
sh600986,2014-07-31,6.17,6.35,6.0,6.08,-0.009772,8483475.0,52217087.0,2038439820.0,2038439820.0,0.02530343427062762,24.93,2014-03-31 00:00:00,2014-04-22 00:00:00,53.07640816600897,2.302461474812569,-5.116340801861285,2.8896542012007536
sh600986,2014-07-30,5.95,6.38,5.92,6.14,0.023333,10044970.0,61838413.0,2058556010.0,2058556010.0,0.029960863586121222,25.17,2014-03-31 00:00:00,2014-04-22 00:00:00,53.600189215018126,2.3251831646979975,-5.16683107512743,2.9181705639516897
sh600986,2014-07-29,5.88,6.07,5.77,6.0,0.020408000000000003,10439823.0,61782975.0,2011618250.0,2011618250.0,0.03113858109012483,24.6,2014-03-31 00:00:00,2014-04-22 00:00:00,52.378052124790386,2.272166699107717,-5.049022239219716,2.851633401787775
sh600986,2014-07-28,5.94,5.95,5.76,5.88,0.001704,15708866.0,91940382.0,1971385880.0,1971385880.0,0.04685441496618612,24.11,2014-03-31 00:00:00,2014-04-22 00:00:00,51.33049929517447,2.226723721401358,-4.948042586122136,2.7946011808882085
sh600986,2014-07-25,5.34,5.87,5.3,5.87,0.099251,20418777.0,117338896.0,1968033190.0,1968033190.0,0.06090254046477743,24.07,2014-03-31 00:00:00,2014-04-22 00:00:00,51.24318091489549,2.222935838732159,-4.939625464330916,2.7898472811211787
sh600986,2014-07-24,5.52,5.52,5.32,5.34,-0.029091000000000002,9209210.0,49812566.0,1790340240.0,1790340240.0,0.027468064617706407,21.89,2014-03-31 00:00:00,2014-04-22 00:00:00,46.61645148823653,2.0222277157193025,-4.493628356336193,2.537952916232215
sh600986,2014-07-23,5.53,5.57,5.43,5.5,0.0018210000000000001,7129540.0,39173307.0,1843983390.0,1843983390.0,0.02126508851036885,22.55,2014-03-31 00:00:00,2014-04-22 00:00:00,48.01320359398927,2.0828190033456297,-4.628269339697328,2.6139966940590877
sh600986,2014-07-22,5.22,5.59,5.2,5.49,0.04771,13552452.0,73734814.0,1840630700.0,1840630700.0,0.04042253640559185,22.51,2014-03-31 00:00:00,2014-04-22 00:00:00,47.92593047459502,2.079033084099484,-4.619856580863574,2.609245258443462
sh600986,2014-07-21,5.36,5.39,5.2,5.24,-0.024209,10122043.0,53460951.0,1756813270.0,1756813270.0,0.030190747204453895,21.48,2014-03-31 00:00:00,2014-04-22 00:00:00,45.74350772121583,1.9843593018101238,-4.409480276854831,2.4904269868985334
sh600986,2014-07-18,5.14,5.38,5.12,5.37,0.038685000000000004,14034683.0,73908877.0,1800398330.0,1800398330.0,0.04186087403780252,22.02,2014-03-31 00:00:00,2014-04-22 00:00:00,46.87838658197896,2.033590494081339,-4.518877789254903,2.5522135241035566
sh600986,2014-07-17,5.03,5.35,5.03,5.17,0.023762000000000002,16459622.0,85472885.0,1733344390.0,1733344390.0,0.04909367476592461,21.2,2014-03-31 00:00:00,2014-04-22 00:00:00,45.13243820983161,1.9578510270980507,-4.350575765756608,2.4571583532096413
sh600986,2014-07-16,5.03,5.15,5.0,5.05,-0.003945000000000001,8392667.0,42589752.0,1693112030.0,1693112030.0,0.02503258354971348,20.7,2014-03-31 00:00:00,2014-04-22 00:00:00,44.084892982774925,1.912408379191698,-4.2495968455135165,2.4001265462184
sh600986,2014-07-15,4.93,5.08,4.91,5.07,0.028398000000000003,12791622.0,64063029.0,1699817420.0,1699817420.0,0.038153229150928454,20.79,2014-03-31 00:00:00,2014-04-22 00:00:00,44.25949669724555,1.9199827109865397,-4.266427903593192,2.409632546614795
sh600986,2014-07-14,4.82,4.99,4.8,4.93,0.024947999999999998,7798436.0,38375280.0,1652879660.0,1652879660.0,0.023260186697439303,20.21,2014-03-31 00:00:00,2014-04-22 00:00:00,43.03732280425045,1.8669646488874345,-4.148615520054679,2.3430933807872
sh600986,2014-07-11,4.82,4.92,4.8,4.81,-0.0061979999999999995,4182366.0,20285017.0,1612647300.0,1612647300.0,0.012474631284844492,19.72,2014-03-31 00:00:00,2014-04-22 00:00:00,41.98976221647386,1.821521334631059,-4.04763511910329,2.2860607375078548
sh600986,2014-07-10,4.88,4.94,4.76,4.84,0.0,2929032.0,14189098.0,1622705390.0,1622705390.0,0.008736345468107429,19.84,2014-03-31 00:00:00,2014-04-22 00:00:00,42.251637867979596,1.832881534381153,-4.072878822042308,2.3003181091483555
sh600986,2014-07-09,4.87,4.94,4.82,4.84,-0.008197,5326834.0,25979741.0,1622705390.0,1622705390.0,0.015888205412320715,19.84,2014-03-31 00:00:00,2014-04-22 00:00:00,42.251637867979596,1.832881534381153,-4.072878822042308,2.3003181091483555
sh600986,2014-07-08,4.82,4.94,4.82,4.88,0.008264,6638605.0,32488904.0,1636116180.0,1636116180.0,0.019800789696976167,20.01,2014-03-31 00:00:00,2014-04-22 00:00:00,42.60083692828072,1.8480298349381412,-4.106540131500216,2.3193296543248567
sh600986,2014-07-07,4.82,4.9,4.82,4.84,0.0,5043215.0,24466400.0,1622705390.0,1622705390.0,0.015042262600730006,19.84,2014-03-31 00:00:00,2014-04-22 00:00:00,42.25166913455277,1.8328828907291552,-4.07288183600745,2.3003198114034187
sh600986,2014-07-04,4.7,4.87,4.68,4.84,0.023256,5979373.0,28697741.0,1622705390.0,1622705390.0,0.017834516048535462,19.84,2014-03-31 00:00:00,2014-04-22 00:00:00,42.25166913455277,1.8328828907291552,-4.07288183600745,2.3003198114034187
sh600986,2014-07-03,4.71,4.75,4.69,4.73,0.0021190000000000002,4356523.0,20561056.0,1585825720.0,1585825720.0,0.012994084740913398,19.39,2014-03-31 00:00:00,2014-04-22 00:00:00,41.29139641942268,1.7912261357169228,-3.9803156160408055,2.2480394069552676
sh600986,2014-07-02,4.79,4.8,4.66,4.72,-0.012551999999999999,6374255.0,30005187.0,1582473020.0,1582473020.0,0.019012320096300914,19.35,2014-03-31 00:00:00,2014-04-22 00:00:00,41.20408496338527,1.7874385534222212,-3.9718991617171273,2.2432858841667183
sh600986,2014-07-01,4.73,4.83,4.72,4.78,0.004202,4203707.0,20100637.0,1602589200.0,1602589200.0,0.012538284583472795,19.6,2014-03-31 00:00:00,2014-04-22 00:00:00,41.72785297391384,1.8101596776966697,-4.0223881781290025,2.271801537059894
sh600986,2014-06-30,4.76,4.86,4.73,4.76,-0.004184,6525912.0,31255431.0,1595883810.0,1595883810.0,0.019464663357917016,19.52,2014-03-31 00:00:00,2014-04-22 00:00:00,41.55324623324176,1.8025852146248162,-4.005556828336333,2.26229537190714
sh600986,2014-06-27,4.66,4.81,4.64,4.78,0.021368,7824014.0,37109037.0,1602589200.0,1602589200.0,0.02333647757017207,19.6,2014-03-31 00:00:00,2014-04-22 00:00:00,41.727835496961035,1.810158919544189,-4.022386493424822,2.2718005855571106
sh600986,2014-06-26,4.5,4.72,4.48,4.68,0.028571,7456453.0,34486481.0,1569062230.0,1569062230.0,0.02224016318333021,19.19,2014-03-31 00:00:00,2014-04-22 00:00:00,40.85484908178153,1.7722886555523465,-3.9382343028417006,2.2242723343174164
sh600986,2014-06-25,4.49,4.59,4.47,4.55,0.011111,5620385.0,25483116.0,1525477170.0,1525477170.0,0.01676377218414878,18.65,2014-03-31 00:00:00,2014-04-22 00:00:00,39.720008712846784,1.7230591330616423,-3.8288405008907507,2.16248789273411
sh600986,2014-06-24,4.39,4.54,4.38,4.5,0.029748,6012307.0,26930938.0,1508713690.0,1508713690.0,0.01793274739887858,18.45,2014-03-31 00:00:00,2014-04-22 00:00:00,39.283529417489056,1.704124604580152,-3.7867657466793956,2.1387245245419244
sh600986,2014-06-23,4.3,4.4,4.29,4.37,0.016279,1918011.0,8352815.0,1465128620.0,1465128620.0,0.005720800177939326,17.92,2014-03-31 00:00:00,2014-04-22 00:00:00,38.14868241306519,1.6548947942410683,-3.6773713050954164,2.0769397217007697
sh600986,2014-06-20,4.28,4.33,4.22,4.3,0.011765000000000001,1839686.0,7828657.0,1441659740.0,1441659740.0,0.005487182294485105,17.63,2014-03-31 00:00:00,2014-04-22 00:00:00,37.53760769735987,1.62838629376487,-3.6184662923226956,2.043670804671522
sh600986,2014-06-19,4.4,4.41,4.22,4.25,-0.031891,2146041.0,9272427.0,1424896260.0,1424896260.0,0.006400939146264585,17.42,2014-03-31 00:00:00,2014-04-22 00:00:00,37.101113101718155,1.6094511015550748,-3.576390063228809,2.0199066034815614
sh600986,2014-06-18,4.43,4.45,4.35,4.39,-0.009029,2166001.0,9545941.0,1471834020.0,1471834020.0,0.006460473301194655,18.0,2014-03-31 00:00:00,2014-04-22 00:00:00,38.32328085134851,1.6624688971542199,-3.694201854572996,2.086445434844177
sh600986,2014-06-17,4.49,4.52,4.41,4.43,-0.013363,2105226.0,9356609.0,1485244810.0,1485244810.0,0.006279201325739694,18.16,2014-03-31 00:00:00,2014-04-22 00:00:00,38.67245444250993,1.6776160928566222,-3.7278607089137785,2.105455593396958
sh600986,2014-06-16,4.49,4.51,4.47,4.49,-0.002222,1305777.0,5863339.0,1505360990.0,1505360990.0,0.00389470616612697,18.41,2014-03-31 00:00:00,2014-04-22 00:00:00,39.1962337136251,1.7003377056167792,-3.7783508107984782,2.133971859353499
sh600986,2014-06-13,4.45,4.52,4.44,4.5,0.004464,1888271.0,8481641.0,1508713690.0,1508713690.0,0.0056320954441660825,18.45,2014-03-31 00:00:00,2014-04-22 00:00:00,39.28352169883992,1.7041242697441505,-3.7867650026343314,2.1387241043132827
sh600986,2014-06-12,4.48,4.49,4.45,4.48,-0.002227,1665499.0,7441771.0,1502008290.0,1502008290.0,0.0049676393730157115,18.37,2014-03-31 00:00:00,2014-04-22 00:00:00,39.108939393387836,1.696550866675312,-3.76993600829331,2.12921926949426
sh600986,2014-06-11,4.49,4.52,4.46,4.49,-0.004435000000000001,1650115.0,7403900.0,1505360990.0,1505360990.0,0.004921753917643369,18.41,2014-03-31 00:00:00,2014-04-22 00:00:00,39.19622939625329,1.7003375183286298,-3.7783503946221333,2.1339716243015796
sh600986,2014-06-10,4.55,4.58,4.46,4.51,0.008948999999999999,2795217.0,12600173.0,1512066380.0,1512066380.0,0.008337219077643933,18.49,2014-03-31 00:00:00,2014-04-22 00:00:00,39.37083906751773,1.70791210852996,-3.7951820269114855,2.143477949005419
sh600986,2014-06-09,4.43,4.51,4.43,4.47,0.0,1219539.0,5454311.0,1498655590.0,1498655590.0,0.003637486402062531,18.33,2014-03-31 00:00:00,2014-04-22 00:00:00,39.02163446072866,1.6927635673656052,-3.761520182795647,2.1244661018598747
sh600986,2014-06-06,4.49,4.51,4.43,4.47,-0.006667,1269080.0,5663993.0,1498655590.0,1498655590.0,0.003785251019548794,18.33,2014-03-31 00:00:00,2014-04-22 00:00:00,39.02163446072866,1.6927635673656052,-3.761520182795647,2.1244661018598747
sh600986,2014-06-05,4.43,4.6,4.41,4.5,0.0181,2476998.0,11160859.0,1508713690.0,1508713690.0,0.0073880757322484425,18.45,2014-03-31 00:00:00,2014-04-22 00:00:00,39.28353780728986,1.7041249685308,-3.7867665554206362,2.1387249813102702
sh600986,2014-06-04,4.52,4.54,4.4,4.42,-0.026432,2045968.0,9061715.0,1481892110.0,1481892110.0,0.006102454084865868,18.12,2014-03-31 00:00:00,2014-04-22 00:00:00,38.585146652872865,1.6738286696108435,-3.719444608015555,2.100702270219301
sh600986,2014-06-03,4.46,4.54,4.45,4.54,0.017937,1912690.0,8602190.0,1522124470.0,1522124470.0,0.005704929374139816,18.61,2014-03-31 00:00:00,2014-04-22 00:00:00,39.63271867283319,1.7192724797968337,-3.820426110981005,2.157735535904324
sh600986,2014-05-30,4.45,4.48,4.43,4.46,0.0,896119.0,3995113.0,1495302900.0,1495302900.0,0.0026728301938022054,18.29,2014-03-31 00:00:00,2014-04-22 00:00:00,38.93435317984628,1.6889772940730452,-3.753106637229027,2.119714221905996
sh600986,2014-05-29,4.53,4.53,4.42,4.46,-0.011086,1085437.0,4849874.0,1495302900.0,1495302900.0,0.0032375039331495976,18.29,2014-03-31 00:00:00,2014-04-22 00:00:00,38.93435317984628,1.6889772940730452,-3.753106637229027,2.119714221905996
sh600986,2014-05-28,4.46,4.57,4.44,4.51,0.011211,1649497.0,7416014.0,1512066380.0,1512066380.0,0.004919910639108318,18.49,2014-03-31 00:00:00,2014-04-22 00:00:00,39.37081806895876,1.707911197609747,-3.7951800027393965,2.1434768057748155
sh600986,2014-05-27,4.5,4.5,4.45,4.46,-0.006682,669897.0,2996009.0,1495302900.0,1495302900.0,0.001998083879861398,18.29,2014-03-31 00:00:00,2014-04-22 00:00:00,38.93432534748807,1.6889760867017336,-3.7531039543076528,2.1197127066208883
sh600986,2014-05-26,4.46,4.51,4.44,4.49,0.011261,1951604.0,8750427.0,1505360990.0,1505360990.0,0.005820997101831369,18.41,2014-03-31 00:00:00,2014-04-22 00:00:00,39.19623458699839,1.700337743503826,-3.778350894987962,2.1339719069028127
sh600986,2014-05-23,4.39,4.47,4.38,4.44,0.01139,1519873.0,6736342.0,1488597500.0,1488597500.0,0.004533284598422341,18.2,2014-03-31 00:00:00,2014-04-22 00:00:00,38.759760919286315,1.6814034591503342,-3.7362766832577963,2.1102088450981626
sh600986,2014-05-22,4.41,4.45,4.39,4.39,-0.004535,1051531.0,4651637.0,1471834020.0,1471834020.0,0.0031363734138989395,18.0,2014-03-31 00:00:00,2014-04-22 00:00:00,38.32325899928446,1.6624679492088454,-3.6941997481266338,2.08644424514595
sh600986,2014-05-21,4.37,4.42,4.34,4.41,0.004556,1097586.0,4821150.0,1478539410.0,1478539410.0,0.0032737404409125628,18.08,2014-03-31 00:00:00,2014-04-22 00:00:00,38.49784673422416,1.6700415878095616,-3.711029265847251,2.095949375564133
sh600986,2014-05-20,4.4,4.42,4.37,4.39,0.006881,1127633.0,4952459.0,1471834020.0,1471834020.0,0.0033633608156441444,18.0,2014-03-31 00:00:00,2014-04-22 00:00:00,38.32324602533274,1.6624673863971362,-3.694198497492674,2.0864435388013542
sh600986,2014-05-19,4.36,4.41,4.32,4.36,-0.002288,874877.0,3804472.0,1461775930.0,1461775930.0,0.002609472246543285,17.88,2014-03-31 00:00:00,2014-04-22 00:00:00,38.06134590416618,1.6511061251499792,-3.668952435782058,2.0721848349520493
sh600986,2014-05-16,4.34,4.39,4.31,4.37,0.006912000000000001,728855.0,3161917.0,1465128620.0,1465128620.0,0.0021739363401419324,17.92,2014-03-31 00:00:00,2014-04-22 00:00:00,38.14862996953648,1.6548925192339865,-3.677366249761512,2.0769368665026073
sh600986,2014-05-15,4.42,4.42,4.33,4.34,-0.015872999999999998,1261800.0,5505150.0,1455070530.0,1455070530.0,0.0037635371530753223,17.79,2014-03-31 00:00:00,2014-04-22 00:00:00,37.886756707176474,1.643532423125344,-3.6521227771260167,2.062679624935056
sh600986,2014-05-14,4.42,4.43,4.4,4.41,-0.002262,1085748.0,4784112.0,1478539410.0,1478539410.0,0.0032384315545569394,18.08,2014-03-31 00:00:00,2014-04-22 00:00:00,38.49783280732718,1.670040983658963,-3.711027923353406,2.0959486173380633
sh600986,2014-05-13,4.41,4.43,4.38,4.42,0.002268,1065940.0,4699748.0,1481892110.0,1481892110.0,0.0031793507558387636,18.12,2014-03-31 00:00:00,2014-04-22 00:00:00,38.58511233142085,1.6738271807418008,-3.71944129957304,2.100700401646588
sh600986,2014-05-12,4.36,4.43,4.33,4.41,0.023202,1554471.0,6821567.0,1478539410.0,1478539410.0,0.0046364791250305595,18.08,2014-03-31 00:00:00,2014-04-22 00:00:00,38.4977993225573,1.6700395310852996,-3.7110246955635025,2.095946794317077
sh600986,2014-05-09,4.34,4.34,4.27,4.31,-0.004619,962774.0,4142693.0,1445012440.0,1445012440.0,0.002871640288439316,17.67,2014-03-31 00:00:00,2014-04-22 00:00:00,37.624828061865884,1.6321699244971175,-3.6268739658088065,2.0484193681375493
sh600986,2014-05-08,4.26,4.37,4.26,4.33,0.011682,1538891.0,6652150.0,1451717840.0,1451717840.0,0.004590009054376573,17.75,2014-03-31 00:00:00,2014-04-22 00:00:00,37.79942359947185,1.6397439015785087,-3.643704235673382,2.057924923358543
sh600986,2014-05-07,4.36,4.36,4.26,4.28,-0.016092,1590867.0,6853304.0,1434954350.0,1434954350.0,0.004745036495411858,17.55,2014-03-31 00:00:00,2014-04-22 00:00:00,37.36294962198779,1.6208096037870683,-3.6016299940825105,2.0341618446888874
sh600986,2014-05-06,4.36,4.4,4.35,4.35,-0.002294,2063505.0,9032901.0,1458423230.0,1458423230.0,0.0061547612279872965,17.83,2014-03-31 00:00:00,2014-04-22 00:00:00,37.97402767533935,1.6473182490507938,-3.660535328590184,2.067430943430572
sh600986,2014-05-05,4.37,4.44,4.34,4.36,-0.002288,3681025.0,16097565.0,1461775930.0,1461775930.0,0.010979294890975528,17.88,2014-03-31 00:00:00,2014-04-22 00:00:00,38.06134039019446,1.6511058859531704,-3.668951904258553,2.0721845347532963
sh600986,2014-04-30,4.33,4.37,4.3,4.37,0.009238,1235341.0,5363865.0,1465128620.0,1465128620.0,0.003684618603655425,17.92,2014-03-31 00:00:00,2014-04-22 00:00:00,38.14862444291986,1.6548922794886403,-3.6773657170190925,2.076936565615424
sh600986,2014-04-29,4.26,4.35,4.26,4.33,0.016432,1321693.0,5694523.0,1451717840.0,1451717840.0,0.003942178385022809,17.75,2014-03-31 00:00:00,2014-04-22 00:00:00,37.79943327829496,1.6397443214471117,-3.6437051686709103,2.057925450305502
sh600986,2014-04-28,4.41,4.43,4.26,4.26,-0.038375,2169800.0,9376682.0,1428248960.0,1428248960.0,0.0064718044674788346,17.47,2014-03-31 00:00:00,2014-04-22 00:00:00,37.188354241400276,1.6132356335171578,-3.5847997393538478,2.024656298016495
sh600986,2014-04-25,4.51,4.56,4.43,4.43,-0.017738,1542130.0,6937915.0,1485244810.0,1485244810.0,0.004599669935894272,18.16,2014-03-31 00:00:00,2014-04-22 00:00:00,38.6724078943458,1.677614073591221,-3.7278562218680342,2.1054530591618303
sh600986,2014-04-24,4.53,4.55,4.49,4.51,-0.004415,992410.0,4481575.0,1512066380.0,1512066380.0,0.0029600347968850417,18.49,2014-03-31 00:00:00,2014-04-22 00:00:00,39.37076655143516,1.7079089627728867,-3.7951750366684593,2.143474000991416
sh600986,2014-04-23,4.54,4.56,4.5,4.53,0.0,1408124.0,6381818.0,1518771780.0,1518771780.0,0.004199973823585266,18.57,2014-03-31 00:00:00,2014-04-22 00:00:00,39.545359312801175,1.7154828194206286,-3.81200503891527,2.152979405064777
sh600986,2014-04-22,4.6,4.66,4.47,4.53,-0.019481000000000002,6031551.0,27331112.0,1518771780.0,1518771780.0,0.017990145978351007,18.57,2014-03-31 00:00:00,2014-04-22 00:00:00,39.545359312801175,1.7154828194206286,-3.81200503891527,2.152979405064777
sh600986,2014-04-21,4.71,4.75,4.61,4.62,-0.025315999999999998,2759964.0,12928811.0,1548946050.0,1548946050.0,0.008232070884586329,18.94,2013-09-30 00:00:00,2013-10-26 00:00:00,60.826578100931734,1.4875265974557277,-4.787414444893574,2.1572697026407814
sh600986,2014-04-18,4.79,4.79,4.72,4.74,-0.0125,2781138.0,13216299.0,1589178420.0,1589178420.0,0.00829522598224056,19.43,2013-09-30 00:00:00,2013-10-26 00:00:00,62.4064600433902,1.5261629384043727,-4.911760575626125,2.213301647139772
sh600986,2014-04-17,4.81,4.84,4.8,4.8,-0.002079,1907300.0,9188108.0,1609294600.0,1609294600.0,0.005688852743307533,19.68,2013-09-30 00:00:00,2013-10-26 00:00:00,63.196415233812864,1.545481456612023,-4.9739347601277215,2.2413181236858453
sh600986,2014-04-16,4.8,4.84,4.77,4.81,0.0,1775735.0,8548230.0,1612647300.0,1612647300.0,0.005296437323895932,19.72,2013-09-30 00:00:00,2013-10-26 00:00:00,63.32807430028316,1.5487012064201708,-4.9842971138273695,2.2459875317643836
sh600986,2014-04-15,4.87,4.88,4.78,4.81,-0.018366999999999998,2473342.0,11980028.0,1612647300.0,1612647300.0,0.007377171077643574,19.72,2013-09-30 00:00:00,2013-10-26 00:00:00,63.32807430028316,1.5487012064201708,-4.9842971138273695,2.2459875317643836
sh600986,2014-04-14,4.85,4.91,4.82,4.9,0.002045,3210308.0,15606308.0,1642821570.0,1642821570.0,0.009575299890906596,20.09,2013-09-30 00:00:00,2013-10-26 00:00:00,64.5129842826017,1.5776784260718322,-5.0775565958228475,2.2880114378432506
sh600986,2014-04-11,4.81,4.99,4.7,4.89,0.012422,7357224.0,35498273.0,1639468870.0,1639468870.0,0.021944195475940932,20.05,2013-09-30 00:00:00,2013-10-26 00:00:00,64.38132447405226,1.5744586581159847,-5.067194183717145,2.283342003446203
sh600986,2014-04-10,4.83,4.86,4.8,4.83,-0.002066,3282731.0,15856386.0,1619352690.0,1619352690.0,0.009791314040426857,19.8,2013-09-30 00:00:00,2013-10-26 00:00:00,63.59139220014211,1.5551407003364064,-5.00502180288175,2.2553263396550087
sh600986,2014-04-09,4.86,4.89,4.81,4.84,0.004149,4218761.0,20462003.0,1622705390.0,1622705390.0,0.01258318568843849,19.84,2013-09-30 00:00:00,2013-10-26 00:00:00,63.72304400906484,1.5583602726597212,-5.015383585369122,2.2599954903380475
sh600986,2014-04-08,4.76,4.85,4.72,4.82,0.008368,3140240.0,15047979.0,1615999990.0,1615999990.0,0.009366309958949938,19.76,2013-09-30 00:00:00,2013-10-26 00:00:00,63.459749508354676,1.551921350974528,-4.994660737967296,2.250657512319434
sh600986,2014-04-04,4.76,4.79,4.7,4.78,0.008439,2135322.0,10149974.0,1602589200.0,1602589200.0,0.006368967892707626,19.6,2013-09-30 00:00:00,2013-10-26 00:00:00,62.93312511737251,1.5390426421450583,-4.953212257794076,2.231980301159333
sh600986,2014-04-03,4.79,4.84,4.72,4.74,-0.014553,3120465.0,14911549.0,1589178420.0,1589178420.0,0.00930732755608398,19.43,2013-09-30 00:00:00,2013-10-26 00:00:00,62.40647685915807,1.5261633496374676,-4.911761899127339,2.213302243526215
sh600986,2014-04-02,4.85,4.9,4.79,4.81,-0.014343999999999999,3562802.0,17221871.0,1612647300.0,1612647300.0,0.010626674301318088,19.72,2013-09-30 00:00:00,2013-10-26 00:00:00,63.32809056109366,1.548701604081668,-4.984298393650129,2.2459881084687607
sh600986,2014-04-01,4.75,4.93,4.69,4.88,0.027368,6057208.0,29194910.0,1636116180.0,1636116180.0,0.018066672404645497,20.01,2013-09-30 00:00:00,2013-10-26 00:00:00,64.2496880870138,1.5712394629380515,-5.0568336150240345,2.278673399714262
sh600986,2014-03-31,4.7,4.77,4.63,4.75,0.014957,3770972.0,17778289.0,1592531110.0,1592531110.0,0.011247577449209139,19.47,2013-09-30 00:00:00,2013-10-26 00:00:00,62.53814415770571,1.529383300762776,-4.922124900740567,2.217971943562835
sh600986,2014-03-28,4.74,4.8,4.67,4.68,-0.012657999999999999,3387107.0,15995850.0,1569062230.0,1569062230.0,0.010102633571136308,19.19,2013-09-30 00:00:00,2013-10-26 00:00:00,61.616545486858755,1.5068454139069691,-4.849589589254093,2.185286611711466
sh600986,2014-03-27,4.86,4.87,4.73,4.74,-0.026694,5011826.0,24015549.0,1589178420.0,1589178420.0,0.01494863946113741,19.43,2013-09-30 00:00:00,2013-10-26 00:00:00,62.406486796731784,1.5261635926628963,-4.911762681273655,2.2133025959712707
sh600986,2014-03-26,4.88,4.89,4.8,4.87,-0.00409,4298684.0,20809339.0,1632763480.0,1632763480.0,0.01282156989449568,19.97,2013-09-30 00:00:00,2013-10-26 00:00:00,64.11805413377888,1.5680203272792899,-5.046473237885778,2.27400488229937
sh600986,2014-03-25,5.01,5.1,4.85,4.89,-0.022,8436431.0,41680535.0,1639468870.0,1639468870.0,0.025163117363734996,20.05,2013-09-30 00:00:00,2013-10-26 00:00:00,64.38137395324766,1.574459868139982,-5.0671980780249,2.283343758270697
sh600986,2014-03-24,4.99,5.11,4.9,5.0,0.010101,11137526.0,55659121.0,1676348540.0,1676348540.0,0.03321960121729817,20.5,2013-09-30 00:00:00,2013-10-26 00:00:00,65.82962571906714,1.6098771657873028,-5.181184128859816,2.3347073192951915
sh600986,2014-03-21,4.8,5.02,4.7,4.95,0.018519,10881546.0,53126996.0,1659585050.0,1659585050.0,0.03245609660077379,20.29,2013-09-30 00:00:00,2013-10-26 00:00:00,65.17133011358979,1.593778410067214,-5.129372338864942,2.3113602692158426
sh600986,2014-03-20,4.8,4.93,4.75,4.86,-0.016194,12538282.0,60866743.0,1629410780.0,1629410780.0,0.03739759873197844,19.93,2013-09-30 00:00:00,2013-10-26 00:00:00,63.98636659069667,1.5647998810696846,-5.036108642906948,2.2693344642719895
sh600986,2014-03-19,4.66,5.1,4.66,4.94,0.048832,22409279.0,110751718.0,1656232360.0,1656232360.0,0.06683955762100917,20.25,2013-09-30 00:00:00,2013-10-26 00:00:00,65.03961816729789,1.5905573670720494,-5.119005823207978,2.3066889857065207
sh600986,2014-03-18,4.75,4.9,4.68,4.71,0.023913,15191102.0,72547791.0,1579120320.0,1579120320.0,0.04531009417952395,19.31,2013-09-30 00:00:00,2013-10-26 00:00:00,62.011473875032316,1.5165034696424684,-4.8806728086175655,2.1992931048123254
sh600986,2014-03-17,4.53,4.61,4.53,4.6,0.015453,3621287.0,16575548.0,1542240660.0,1542240660.0,0.010801115955534462,18.86,2013-09-30 00:00:00,2013-10-26 00:00:00,60.56322546449972,1.4810862540493852,-4.766687021863737,2.1479296627861206
sh600986,2014-03-14,4.49,4.54,4.45,4.53,0.002212,2202149.0,9919792.0,1518771780.0,1518771780.0,0.00656829097127417,18.57,2013-09-30 00:00:00,2013-10-26 00:00:00,59.641584065928924,1.45854732227822,-4.694148347450583,2.1152428155573135
sh600986,2014-03-13,4.4,4.55,4.39,4.52,0.020316,3023000.0,13526163.0,1515419080.0,1515419080.0,0.009016621329592866,18.53,2013-09-30 00:00:00,2013-10-26 00:00:00,59.50994806081839,1.4553281364404136,-4.6837878088174785,2.1105742253707933
sh600986,2014-03-12,4.45,4.45,4.34,4.43,-0.004494,2127991.0,9363033.0,1485244810.0,1485244810.0,0.0063471018828202466,18.16,2013-09-30 00:00:00,2013-10-26 00:00:00,58.325017015138826,1.426350401679885,-4.590526669009874,2.0685495722607437
sh600986,2014-03-11,4.32,4.45,4.32,4.45,0.027714,2221701.0,9721546.0,1491950200.0,1491950200.0,0.006626608213866656,18.24,2013-09-30 00:00:00,2013-10-26 00:00:00,58.588312893281234,1.4327893570504697,-4.611249624823832,2.0778875991312398
sh600986,2014-03-10,4.51,4.51,4.3,4.33,-0.037778,2910222.0,12725570.0,1451717840.0,1451717840.0,0.008680241375279923,17.75,2013-09-30 00:00:00,2013-10-26 00:00:00,57.00838257850066,1.3941518331466436,-4.486899686901056,2.021853939064019
sh600986,2014-03-07,4.59,4.61,4.48,4.5,-0.019608,2578285.0,11692489.0,1508713690.0,1508713690.0,0.007690181760066086,18.45,2013-09-30 00:00:00,2013-10-26 00:00:00,59.246600658164816,1.4488879210272096,-4.663060797717217,2.1012343711368264
sh600986,2014-03-06,4.55,4.61,4.48,4.59,0.006579000000000001,2373687.0,10807101.0,1538887960.0,1538887960.0,0.007079932791208529,18.82,2013-09-30 00:00:00,2013-10-26 00:00:00,60.43154234037488,1.4778659159063003,-4.756322774683205,2.1432594014810666
sh600986,2014-03-05,4.54,4.61,4.52,4.56,0.004405,2725852.0,12466519.0,1528829870.0,1528829870.0,0.008130325920437437,18.7,2013-09-30 00:00:00,2013-10-26 00:00:00,60.036561800290784,1.468206584785,-4.725235450653358,2.1292510587654494
sh600986,2014-03-04,4.48,4.56,4.45,4.54,0.011136,2758956.0,12435840.0,1522124470.0,1522124470.0,0.008229064368172204,18.61,2013-09-30 00:00:00,2013-10-26 00:00:00,59.773260587403264,1.4617674989521159,-4.704512074963144,2.119912842693385
sh600986,2014-03-03,4.41,4.49,4.4,4.49,0.018141,2254648.0,10068424.0,1505360990.0,1505360990.0,0.006724878342968088,18.41,2013-09-30 00:00:00,2013-10-26 00:00:00,59.11495643257016,1.4456685341557574,-4.652699612082988,2.0965654894033885
sh600986,2014-02-28,4.35,4.41,4.3,4.41,0.013793000000000001,1716309.0,7503063.0,1478539410.0,1478539410.0,0.00511918900423493,18.08,2013-09-30 00:00:00,2013-10-26 00:00:00,58.061659861031195,1.4199099477928472,-4.569798890412024,2.059209372182624
sh600986,2014-02-27,4.41,4.5,4.33,4.35,-0.018059,2141966.0,9485290.0,1458423230.0,1458423230.0,0.006388784756260361,17.83,2013-09-30 00:00:00,2013-10-26 00:00:00,57.27171114915095,1.4005915880192972,-4.507625215810352,2.0311931254039273
sh600986,2014-02-26,4.35,4.43,4.32,4.43,0.020737000000000002,1986278.0,8702422.0,1485244810.0,1485244810.0,0.00592441830515469,18.16,2013-09-30 00:00:00,2013-10-26 00:00:00,58.32500236689471,1.4263500434540335,-4.590525516105704,2.0685490527474943
sh600986,2014-02-25,4.51,4.58,4.29,4.34,-0.039823000000000004,3011381.0,13452406.0,1455070530.0,1455070530.0,0.008981965664578472,17.79,2013-09-30 00:00:00,2013-10-26 00:00:00,57.140088354683634,1.3973727252505137,-4.497265716933652,2.0265250037448377
sh600986,2014-02-24,4.49,4.56,4.47,4.52,-0.010941,2295386.0,10367892.0,1515419080.0,1515419080.0,0.006846386492639382,18.53,2013-09-30 00:00:00,2013-10-26 00:00:00,59.509953221836845,1.4553282626541915,-4.683788215020409,2.1105744084109888
sh600986,2014-02-21,4.61,4.68,4.5,4.57,-0.025586,4507112.0,20743651.0,1532182570.0,1532182570.0,0.013443242498183492,18.74,2013-09-30 00:00:00,2013-10-26 00:00:00,60.16825408983372,1.4714271470702875,-4.7356004192069525,2.1339216451303598
sh600986,2014-02-20,4.59,5.03,4.5,4.69,0.021786,10457112.0,49680441.0,1572414930.0,1572414930.0,0.031190148569754425,19.23,2013-09-30 00:00:00,2013-10-26 00:00:00,61.748142052386065,1.5100636352415786,-4.859947023756794,2.1899538031374344
sh600986,2014-02-19,4.56,4.62,4.53,4.59,0.006579000000000001,4053137.0,18566495.0,1538887960.0,1538887960.0,0.012089183432171371,18.82,2013-09-30 00:00:00,2013-10-26 00:00:00,60.43157965795778,1.4778668285155387,-4.756325711799528,2.143260724982955
sh600986,2014-02-18,4.61,4.61,4.5,4.56,-0.010846,3685709.0,16753832.0,1528829870.0,1528829870.0,0.010993265745128331,18.7,2013-09-30 00:00:00,2013-10-26 00:00:00,60.036598873965964,1.4682074914294247,-4.725238368572689,2.1292523736169295
sh600986,2014-02-17,4.56,4.61,4.54,4.61,0.004357,3671277.0,16814771.0,1545593350.0,1545593350.0,0.010950219842754889,18.9,2013-09-30 00:00:00,2013-10-26 00:00:00,60.694895712867726,1.4843062773131632,-4.7770502556454195,2.1525994674407922
sh600986,2014-02-14,4.43,4.64,4.4,4.59,0.033783999999999995,5930426.0,27000367.0,1538887960.0,1538887960.0,0.017688523172278245,18.82,2013-09-30 00:00:00,2013-10-26 00:00:00,60.431595252353226,1.4778672098797174,-4.7563269391714496,2.1432612780523184
sh600986,2014-02-13,4.49,4.52,4.43,4.44,-0.011136,2843877.0,12730776.0,1488597500.0,1488597500.0,0.008482355962575511,18.2,2013-09-30 00:00:00,2013-10-26 00:00:00,58.45669429237948,1.4295705968362031,-4.600890456005751,2.0732196262007525
sh600986,2014-02-12,4.45,4.52,4.43,4.49,0.008989,2505490.0,11236653.0,1505360990.0,1505360990.0,0.0074730580735986795,18.41,2013-09-30 00:00:00,2013-10-26 00:00:00,59.11499892035657,1.4456695732033962,-4.652702956125161,2.0965669962712288
sh600986,2014-02-11,4.44,4.47,4.41,4.45,0.0,2344561.0,10401928.0,1491950200.0,1491950200.0,0.006993059453324917,18.24,2013-09-30 00:00:00,2013-10-26 00:00:00,58.58834825786661,1.4327902218987485,-4.611252408227604,2.077888853368301
sh600986,2014-02-10,4.32,4.46,4.32,4.45,0.025346,2876699.0,12703616.0,1491950200.0,1491950200.0,0.008580253248399311,18.24,2013-09-30 00:00:00,2013-10-26 00:00:00,58.58834825786661,1.4327902218987485,-4.611252408227604,2.077888853368301
sh600986,2014-02-07,4.32,4.34,4.28,4.34,0.009302,1144401.0,4934739.0,1455070530.0,1455070530.0,0.0034133742918977267,17.79,2013-09-30 00:00:00,2013-10-26 00:00:00,57.140075894250934,1.3973724205280447,-4.497264736223288,2.0265245618243024
sh600986,2014-01-30,4.32,4.34,4.28,4.3,-0.00463,982702.0,4237966.0,1441659740.0,1441659740.0,0.0029310790075888506,17.63,2013-09-30 00:00:00,2013-10-26 00:00:00,56.613457512469935,1.3844938586548374,-4.455816729010037,2.0078475637859654
sh600986,2014-01-29,4.3,4.33,4.27,4.32,0.009346,1359596.0,5846582.0,1448365140.0,1448365140.0,0.0040552306582026685,17.71,2013-09-30 00:00:00,2013-10-26 00:00:00,56.87679708296406,1.3909338825309556,-4.476543123672641,2.017187140245301
sh600986,2014-01-28,4.28,4.32,4.26,4.28,-0.0023309999999999997,932380.0,4007412.0,1434954350.0,1434954350.0,0.002780984914258771,17.55,2013-09-30 00:00:00,2013-10-26 00:00:00,56.350148594202636,1.3780545843852905,-4.435092746860483,1.9985090744356258
sh600986,2014-01-27,4.32,4.34,4.28,4.29,-0.013793000000000001,1215325.0,5230953.0,1438307050.0,1438307050.0,0.0036249173985485232,17.59,2013-09-30 00:00:00,2013-10-26 00:00:00,56.48180768792319,1.381274334859849,-4.445455102704888,2.003178483480619
sh600986,2014-01-24,4.26,4.36,4.26,4.35,0.013986000000000002,2177240.0,9411225.0,1458423230.0,1458423230.0,0.006493995573562002,17.83,2013-09-30 00:00:00,2013-10-26 00:00:00,57.27175703267487,1.4005927101104017,-4.507628827117317,2.0311947527046748
sh600986,2014-01-23,4.3,4.37,4.28,4.29,-0.002326,2525755.0,10894980.0,1438307050.0,1438307050.0,0.00753350193896359,17.59,2013-09-30 00:00:00,2013-10-26 00:00:00,56.48180254231801,1.381274209023006,-4.445454697715074,2.0031783009870696
sh600986,2014-01-22,4.21,4.31,4.18,4.3,0.023809999999999998,2053507.0,8765948.0,1441659740.0,1441659740.0,0.00612494048006085,17.63,2013-09-30 00:00:00,2013-10-26 00:00:00,56.613485509613376,1.3844945433307936,-4.455818932552191,2.0078485567300235
sh600986,2014-01-21,4.13,4.21,4.13,4.2,0.009615,919539.0,3850985.0,1408132770.0,1408132770.0,0.002742684413203451,17.22,2013-09-30 00:00:00,2013-10-26 00:00:00,55.29686710387022,1.352296366836418,-4.3521932121704126,1.9611534920835147
sh600986,2014-01-20,4.1,4.17,4.07,4.16,0.009709,1029134.0,4241022.0,1394721990.0,1394721990.0,0.0030695704740412106,17.06,2013-09-30 00:00:00,2013-10-26 00:00:00,54.77025113916713,1.339417864073353,-4.310745395195607,1.9424765797690358
sh600986,2014-01-17,4.18,4.18,4.1,4.12,-0.019048,937370.0,3873438.0,1381311200.0,1381311200.0,0.0027958684473129588,16.89,2013-09-30 00:00:00,2013-10-26 00:00:00,54.24360002650975,1.3265385017597675,-4.269294811867189,1.9237984209005128
sh600986,2014-01-16,4.2,4.22,4.17,4.2,0.007194,1155015.0,4840921.0,1408132770.0,1408132770.0,0.0034450323885296696,17.22,2013-09-30 00:00:00,2013-10-26 00:00:00,55.296895287954705,1.3522970560840564,-4.352195430425942,1.9611544916576067
sh600986,2014-01-15,4.18,4.2,4.15,4.17,-0.002392,1202699.0,5011416.0,1398074680.0,1398074680.0,0.0035872581785116086,17.1,2013-09-30 00:00:00,2013-10-26 00:00:00,54.90193079779537,1.342638117466999,-4.32110936962089,1.9471467181671127
sh600986,2014-01-14,4.1,4.18,4.09,4.18,0.022005,1273868.0,5265556.0,1401427380.0,1401427380.0,0.0037995320456776,17.14,2013-09-30 00:00:00,2013-10-26 00:00:00,55.03357109986625,1.3458574083878627,-4.331470246450399,1.9518154607492249
sh600986,2014-01-13,4.1,4.12,4.05,4.09,0.0,1099200.0,4490546.0,1371253110.0,1371253110.0,0.003278554460306748,16.77,2013-09-30 00:00:00,2013-10-26 00:00:00,53.84863195372454,1.3168794755288502,-4.238208469088114,1.909790520348946
sh600986,2014-01-10,4.2,4.2,4.08,4.09,-0.026189999999999998,1954469.0,8042726.0,1371253110.0,1371253110.0,0.005829542446762436,16.77,2013-09-30 00:00:00,2013-10-26 00:00:00,53.84863195372454,1.3168794755288502,-4.238208469088114,1.909790520348946
sh600986,2014-01-09,4.28,4.3,4.17,4.2,-0.020978999999999998,1586005.0,6734787.0,1408132770.0,1408132770.0,0.004730534749219706,17.22,2013-09-30 00:00:00,2013-10-26 00:00:00,55.296856628833694,1.3522961106672249,-4.352192387722568,1.961153120576854
sh600986,2014-01-08,4.33,4.36,4.25,4.29,-0.011521,1699872.0,7297666.0,1438307050.0,1438307050.0,0.005070162786172814,17.59,2013-09-30 00:00:00,2013-10-26 00:00:00,56.4817880605561,1.3812738548685113,-4.445453557914047,2.003177787378262
sh600986,2014-01-07,4.28,4.36,4.24,4.34,0.00463,1494792.0,6435192.0,1455070530.0,1455070530.0,0.004458476167474851,17.79,2013-09-30 00:00:00,2013-10-26 00:00:00,57.140099142780066,1.3973729890756519,-4.497266566021177,2.026525386354452
sh600986,2014-01-06,4.45,4.47,4.28,4.32,-0.033557,3348735.0,14620905.0,1448365140.0,1448365140.0,0.009988182399916088,17.71,2013-09-30 00:00:00,2013-10-26 00:00:00,56.87675974515998,1.3909329694272041,-4.476540184964791,2.0171858160262506
sh600986,2014-01-03,4.61,4.61,4.45,4.47,-0.024017,3591580.0,16194062.0,1498655590.0,1498655590.0,0.010712509736810176,18.33,2013-09-30 00:00:00,2013-10-26 00:00:00,58.85164437546754,1.439229183125341,-4.631975382888375,2.0872268887314105
sh600986,2014-01-02,4.61,4.65,4.57,4.58,-0.012931,3189150.0,14674112.0,1535535260.0,1535535260.0,0.009512192510642836,18.78,2013-09-30 00:00:00,2013-10-26 00:00:00,60.29986626351846,1.4746457501056278,-4.745959082164726,2.138589390113773
sh600986,2013-12-31,4.63,4.68,4.57,4.64,-0.008546999999999999,4168199.0,19274143.0,1555651450.0,1555651450.0,0.01243237574843645,19.02,2013-09-30 00:00:00,2013-10-26 00:00:00,61.08981870924775,1.4939642011912317,-4.808133050642585,2.1666057693168086
sh600986,2013-12-30,4.55,4.73,4.54,4.68,0.024069999999999998,7082597.0,32957040.0,1569062230.0,1569062230.0,0.021125072878721958,19.19,2013-09-30 00:00:00,2013-10-26 00:00:00,61.61645454625459,1.5068431899356114,-4.8495824316862075,2.185283386420545
sh600986,2013-12-27,4.47,4.58,4.46,4.57,0.020089,2843677.0,12899547.0,1532182570.0,1532182570.0,0.008481759383282895,18.74,2013-09-30 00:00:00,2013-10-26 00:00:00,60.1682058318812,1.4714259669120386,-4.7355966210182965,2.133919933618351
sh600986,2013-12-26,4.55,4.58,4.47,4.48,-0.019694,1495794.0,6762768.0,1502008290.0,1502008290.0,0.004461464803233543,18.37,2013-09-30 00:00:00,2013-10-26 00:00:00,58.98329050884894,1.4424486166521142,-4.642336718676798,2.0918958381262334
sh600986,2013-12-25,4.53,4.59,4.51,4.57,0.006608,1928310.0,8773172.0,1532182570.0,1532182570.0,0.0057515186979316705,18.74,2013-09-30 00:00:00,2013-10-26 00:00:00,60.16824390430022,1.471426897980951,-4.7355996175447235,2.133921283891186
sh600986,2013-12-24,4.47,4.58,4.47,4.54,0.011136,1876142.0,8514910.0,1522124470.0,1522124470.0,0.00559591863075429,18.61,2013-09-30 00:00:00,2013-10-26 00:00:00,59.77326218776348,1.4617675380892572,-4.704512200921037,2.11991289945161
sh600986,2013-12-23,4.51,4.52,4.44,4.49,-0.002222,1599677.0,7161909.0,1505360990.0,1505360990.0,0.004771313842801254,18.41,2013-09-30 00:00:00,2013-10-26 00:00:00,59.114958015305035,1.4456685728618672,-4.652699736653662,2.096565545536515
sh600986,2013-12-20,4.56,4.59,4.49,4.5,-0.019608,2290927.0,10383829.0,1508713690.0,1508713690.0,0.006833086733639966,18.45,2013-09-30 00:00:00,2013-10-26 00:00:00,59.24660396932487,1.4488880020023165,-4.66306105832526,2.101234488570118
sh600986,2013-12-19,4.58,4.62,4.54,4.59,0.002183,3040715.0,13928096.0,1538887960.0,1538887960.0,0.009069459384164653,18.82,2013-09-30 00:00:00,2013-10-26 00:00:00,60.43154571775868,1.4778659985009224,-4.756323040503451,2.1432595212630434
sh600986,2013-12-18,4.63,4.63,4.55,4.58,-0.008657999999999999,1725301.0,7917855.0,1535535260.0,1535535260.0,0.005146009203331482,18.78,2013-09-30 00:00:00,2013-10-26 00:00:00,60.29991101201944,1.4746468444395109,-4.745962604138617,2.1385909771599034
sh600986,2013-12-17,4.63,4.65,4.55,4.62,-0.006451999999999999,2538451.0,11641780.0,1548946050.0,1548946050.0,0.007571369977669655,18.94,2013-09-30 00:00:00,2013-10-26 00:00:00,60.826547258180774,1.4875258431898488,-4.7874120173851376,2.1572686087746744
sh600986,2013-12-16,4.65,4.76,4.63,4.65,0.00432,4778253.0,22406831.0,1559004140.0,1559004140.0,0.014251967573351025,19.06,2013-09-30 00:00:00,2013-10-26 00:00:00,61.22154869033079,1.4971856852309589,-4.818500985745166,2.1712776924463384
sh600986,2013-12-13,4.6,4.64,4.57,4.63,0.006522,2255352.0,10398642.0,1552298750.0,1552298750.0,0.006726978141288847,18.98,2013-09-30 00:00:00,2013-10-26 00:00:00,60.95820922647243,1.4907456639626402,-4.7977745994754315,2.1619381197689367
sh600986,2013-12-12,4.59,4.61,4.56,4.6,0.004367,1254700.0,5759467.0,1542240660.0,1542240660.0,0.0037423601579794946,18.86,2013-09-30 00:00:00,2013-10-26 00:00:00,60.56321593216286,1.4810860209341081,-4.766686271611978,2.1479293247131572
sh600986,2013-12-11,4.65,4.65,4.54,4.58,-0.019272,2453600.0,11262080.0,1535535260.0,1535535260.0,0.007318287174988089,18.78,2013-09-30 00:00:00,2013-10-26 00:00:00,60.299886328566025,1.4746462408005323,-4.74596066140363,2.1385901017388638
sh600986,2013-12-10,4.69,4.72,4.64,4.67,0.0,3005603.0,14045267.0,1565709540.0,1565709540.0,0.00896473174072887,19.15,2013-09-30 00:00:00,2013-10-26 00:00:00,61.48482181457655,1.5036240841502766,-4.839222150691762,2.180614912329274
sh600986,2013-12-09,4.61,4.67,4.6,4.67,0.008639,3180924.0,14735055.0,1565709540.0,1565709540.0,0.009487657001821678,19.15,2013-09-30 00:00:00,2013-10-26 00:00:00,61.48482181457655,1.5036240841502766,-4.839222150691762,2.180614912329274
sh600986,2013-12-06,4.59,4.64,4.57,4.63,0.006522,2629260.0,12119126.0,1552298750.0,1552298750.0,0.007842223541054839,18.98,2013-09-30 00:00:00,2013-10-26 00:00:00,60.9582038911608,1.4907455334864865,-4.7977741795545885,2.1619379305472757
sh600986,2013-12-05,4.58,4.63,4.56,4.6,0.004367,2248406.0,10317751.0,1542240660.0,1542240660.0,0.006706260487257546,18.86,2013-09-30 00:00:00,2013-10-26 00:00:00,60.56321063142267,1.481085891303406,-4.766685854412113,2.147929136717604
sh600986,2013-12-04,4.52,4.62,4.52,4.58,0.011038,3389643.0,15532999.0,1535535260.0,1535535260.0,0.010110197625810299,18.78,2013-09-30 00:00:00,2013-10-26 00:00:00,60.2998810508735,1.474646111733466,-4.745960246017754,2.138589914560717
sh600986,2013-12-03,4.45,4.55,4.45,4.53,0.017978,1981414.0,8932929.0,1518771780.0,1518771780.0,0.005909910585776093,18.57,2013-09-30 00:00:00,2013-10-26 00:00:00,59.64155753876066,1.458546673550812,-4.694146259604242,2.1152418747472566
sh600986,2013-12-02,4.66,4.66,4.44,4.45,-0.06118099999999999,4902697.0,22301380.0,1491950200.0,1491950200.0,0.014623143352908161,18.24,2013-09-30 00:00:00,2013-10-26 00:00:00,58.588257839325266,1.4327880106945454,-4.611245291749175,2.077885646592811
sh600986,2013-11-29,4.73,4.76,4.7,4.74,0.002114,3410000.0,16153721.0,1589178420.0,1589178420.0,0.010170915862298206,19.43,2013-09-30 00:00:00,2013-10-26 00:00:00,62.40634013513283,1.5261600060230411,-4.911751138131179,2.2132973944847847
sh600986,2013-11-28,4.69,4.8,4.69,4.73,0.006383,5097426.0,24233745.0,1585825720.0,1585825720.0,0.015203956321253261,19.39,2013-09-30 00:00:00,2013-10-26 00:00:00,62.27469143743411,1.522940509785355,-4.90138960051569,2.2086283541441243
sh600986,2013-11-27,4.66,4.71,4.62,4.7,0.012931,2975852.0,13875233.0,1575767630.0,1575767630.0,0.008875994235266782,19.27,2013-09-30 00:00:00,2013-10-26 00:00:00,61.87971322790041,1.513281235658149,-4.870302459914058,2.194620094083589
sh600986,2013-11-26,4.62,4.66,4.6,4.64,0.0043289999999999995,2497439.0,11592771.0,1555651450.0,1555651450.0,0.007449044553007038,19.02,2013-09-30 00:00:00,2013-10-26 00:00:00,61.08976152166379,1.4939628026569916,-4.80812854963868,2.16660374110733
sh600986,2013-11-25,4.61,4.67,4.61,4.62,0.002169,2291093.0,10617633.0,1548946050.0,1548946050.0,0.006833581879756238,18.94,2013-09-30 00:00:00,2013-10-26 00:00:00,60.82644384625335,1.487523314229691,-4.787403878249737,2.1572649411769746
sh600986,2013-11-22,4.66,4.67,4.6,4.61,-0.008602,2107640.0,9756234.0,1545593350.0,1545593350.0,0.006286401529872008,18.9,2013-09-30 00:00:00,2013-10-26 00:00:00,60.6947968319249,1.4843038591591748,-4.777042473125527,2.1525959605385663
sh600986,2013-11-21,4.7,4.7,4.61,4.65,-0.010638,3066014.0,14219699.0,1559004140.0,1559004140.0,0.009144918050057264,19.06,2013-09-30 00:00:00,2013-10-26 00:00:00,61.22142351701828,1.4971826240916106,-4.8184911338589815,2.1712732530614005
sh600986,2013-11-20,4.69,4.71,4.65,4.7,0.006423999999999999,3121975.0,14625569.0,1575767630.0,1575767630.0,0.009311831402451134,19.27,2013-09-30 00:00:00,2013-10-26 00:00:00,61.87969976309813,1.5132809063736132,-4.870301400153819,2.1946196165421763
sh600986,2013-11-19,4.7,4.71,4.63,4.67,-0.002137,2976753.0,13908890.0,1565709540.0,1565709540.0,0.008878681616770375,19.15,2013-09-30 00:00:00,2013-10-26 00:00:00,61.48472190955117,1.5036216409521368,-4.839214287570465,2.180611369107033
sh600986,2013-11-18,4.65,4.69,4.61,4.68,0.010799,3601199.0,16795230.0,1569062230.0,1569062230.0,0.010741200060624746,19.19,2013-09-30 00:00:00,2013-10-26 00:00:00,61.616396148119705,1.5068417617970973,-4.849577835404726,2.1852813152777815
sh600986,2013-11-15,4.56,4.67,4.54,4.63,0.015350999999999998,4816446.0,22289041.0,1552298750.0,1552298750.0,0.014365884775723745,18.98,2013-09-30 00:00:00,2013-10-26 00:00:00,60.958109523376756,1.4907432257027333,-4.797766752247208,2.161934583708315
sh600986,2013-11-14,4.47,4.57,4.43,4.56,0.020134,2335464.0,10499164.0,1528829870.0,1528829870.0,0.006965926064749113,18.7,2013-09-30 00:00:00,2013-10-26 00:00:00,60.03648937498143,1.4682048136090216,-4.725229750349592,2.1292484901362343
sh600986,2013-11-13,4.56,4.56,4.46,4.47,-0.019737,1236850.0,5559525.0,1498655590.0,1498655590.0,0.0036891194593949364,18.33,2013-09-30 00:00:00,2013-10-26 00:00:00,58.851571827800484,1.4392274089570796,-4.631969672954329,2.0872243157626684
sh600986,2013-11-12,4.51,4.57,4.5,4.56,0.00885,1750316.0,7934997.0,1528829870.0,1528829870.0,0.0052206207614193196,18.7,2013-09-30 00:00:00,2013-10-26 00:00:00,60.036512474509884,1.4682053785127862,-4.72523156842024,2.12924930938194
sh600986,2013-11-11,4.42,4.56,4.41,4.52,0.018018,2233621.0,10029387.0,1515419080.0,1515419080.0,0.006662161677415332,18.53,2013-09-30 00:00:00,2013-10-26 00:00:00,59.509850299360544,1.4553257456636628,-4.683780114407731,2.1105707581721163
sh600986,2013-11-08,4.57,4.59,4.44,4.44,-0.03268,2460910.0,11065495.0,1488597500.0,1488597500.0,0.007340090521447201,18.2,2013-09-30 00:00:00,2013-10-26 00:00:00,58.45657964727592,1.4295677931663906,-4.600881432752398,2.0732155602082836
sh600986,2013-11-07,4.66,4.7,4.58,4.59,-0.017131,2334416.0,10781346.0,1538887960.0,1538887960.0,0.006962800228809379,18.82,2013-09-30 00:00:00,2013-10-26 00:00:00,60.43148042765158,1.4778644018177962,-4.756317901782655,2.1432572056902406
sh600986,2013-11-06,4.64,4.7,4.59,4.67,0.0064659999999999995,4971281.0,23150837.0,1565709540.0,1565709540.0,0.014827706976863664,19.15,2013-09-30 00:00:00,2013-10-26 00:00:00,61.484776127491635,1.5036229668631285,-4.839218554845717,2.1806132919954138
sh600986,2013-11-05,4.6,4.64,4.5,4.64,0.006508,3779829.0,17297210.0,1555651450.0,1555651450.0,0.01127399492990541,19.02,2013-09-30 00:00:00,2013-10-26 00:00:00,61.089769676761684,1.493963002091604,-4.808129191493519,2.166604030335266
sh600986,2013-11-04,4.58,4.64,4.53,4.61,0.004357,2906372.0,13344205.0,1545593350.0,1545593350.0,0.008668758130979278,18.9,2013-09-30 00:00:00,2013-10-26 00:00:00,60.69476812579899,1.484303157144905,-4.777040213782225,2.1525949424498028
sh600986,2013-11-01,4.54,4.61,4.45,4.59,0.004376,4736604.0,21463545.0,1538887960.0,1538887960.0,0.0141277421911859,18.82,2013-09-30 00:00:00,2013-10-26 00:00:00,60.431468218769815,1.4778641032470579,-4.7563169408708506,2.143256772691187
sh600986,2013-10-31,4.59,4.6,4.52,4.57,0.0,2137499.0,9750954.0,1532182570.0,1532182570.0,0.006375461137115012,18.74,2013-09-30 00:00:00,2013-10-26 00:00:00,60.16817229679903,1.4714251468046409,-4.735593981607338,2.1339187442662784
sh600986,2013-10-30,4.51,4.57,4.48,4.57,0.015556,2185908.0,9926963.0,1532182570.0,1532182570.0,0.006519849367559377,18.74,2013-09-30 00:00:00,2013-10-26 00:00:00,60.16817229679903,1.4714251468046409,-4.735593981607338,2.1339187442662784
sh600986,2013-10-29,4.66,4.72,4.4,4.5,-0.036403,4630944.0,21045762.0,1508713690.0,1508713690.0,0.013812592898258914,18.45,2013-09-30 00:00:00,2013-10-26 00:00:00,59.246533225936375,1.4488862719580615,-4.663055490398697,2.1012319795917493
sh600986,2013-10-28,4.56,4.69,4.56,4.67,0.019651,3407932.0,15785676.0,1565709540.0,1565709540.0,0.010164747696434167,19.15,2013-09-30 00:00:00,2013-10-26 00:00:00,61.484763055443686,1.5036226471834817,-4.8392175259975865,2.18061282838339
sh600986,2013-10-25,4.64,4.66,4.55,4.58,-0.015054,3809431.0,17531822.0,1535535260.0,1535535260.0,0.011362288079272111,18.78,2013-06-30 00:00:00,2013-08-17 00:00:00,-259.393255245333,1.1780091140308475,-4.624800633030667,2.1598111371985413
sh600986,2013-10-24,4.8,4.8,4.62,4.65,-0.033264,4949057.0,23132721.0,1559004140.0,1559004140.0,0.014761420101167917,19.06,2013-06-30 00:00:00,2013-08-17 00:00:00,-263.35784423240773,1.196013907392738,-4.695486486599942,2.192821877746132
sh600986,2013-10-23,4.79,4.87,4.75,4.81,0.0020829999999999998,7859141.0,37816262.0,1612647300.0,1612647300.0,0.023441249807071886,19.72,2013-06-30 00:00:00,2013-08-17 00:00:00,-272.4196101442459,1.2371670315295362,-4.857051445896234,2.2682737352763644
sh600986,2013-10-22,4.82,4.84,4.76,4.8,-0.004149,4666210.0,22344709.0,1609294600.0,1609294600.0,0.013917779876972182,19.68,2013-06-30 00:00:00,2013-08-17 00:00:00,-271.8533396377804,1.2345953693751277,-4.846955238135198,2.263558742415912
sh600986,2013-10-21,4.74,4.83,4.72,4.82,0.019027000000000002,5372420.0,25723226.0,1615999990.0,1615999990.0,0.016024173614010977,19.76,2013-06-30 00:00:00,2013-08-17 00:00:00,-272.9859583790952,1.2397390466798022,-4.867149039500084,2.2729893753341734
sh600986,2013-10-18,4.71,4.74,4.66,4.73,0.004246,3202447.0,15050231.0,1585825720.0,1585825720.0,0.009551853093920057,19.39,2013-06-30 00:00:00,2013-08-17 00:00:00,-267.8888374685805,1.21659097028813,-4.776270932468014,2.2305487247483855
sh600986,2013-10-17,4.71,4.76,4.68,4.71,0.0,5159023.0,24352478.0,1579120320.0,1579120320.0,0.015387680104072122,19.31,2013-06-30 00:00:00,2013-08-17 00:00:00,-266.75619068294077,1.2114471656228951,-4.756076631092396,2.221117858321951
sh600986,2013-10-16,4.93,4.94,4.66,4.71,-0.046558999999999996,10007016.0,47743270.0,1579120320.0,1579120320.0,0.029847659334787106,19.31,2013-06-30 00:00:00,2013-08-17 00:00:00,-266.75619068294077,1.2114471656228951,-4.756076631092396,2.221117858321951
sh600986,2013-10-15,4.91,5.01,4.9,4.94,0.0,7764885.0,38401054.0,1656232360.0,1656232360.0,0.023160114985315224,20.25,2013-06-30 00:00:00,2013-08-17 00:00:00,-279.7825882072837,1.270605276700808,-4.988328203939622,2.329580811316013
sh600986,2013-10-14,4.97,4.98,4.88,4.94,0.0,8206016.0,40478532.0,1656232360.0,1656232360.0,0.024475864630491822,20.25,2013-06-30 00:00:00,2013-08-17 00:00:00,-279.7825882072837,1.270605276700808,-4.988328203939622,2.329580811316013
sh600986,2013-10-11,4.93,4.99,4.87,4.94,0.010225,9040174.0,44485899.0,1656232360.0,1656232360.0,0.026963885405547807,20.25,2013-06-30 00:00:00,2013-08-17 00:00:00,-279.7825882072837,1.270605276700808,-4.988328203939622,2.329580811316013
sh600986,2013-10-10,5.01,5.1,4.87,4.89,-0.027833,14639754.0,72130458.0,1639468870.0,1639468870.0,0.043665603153538374,20.05,2013-06-30 00:00:00,2013-08-17 00:00:00,-276.95076661860844,1.257744835755211,-4.937838802187257,2.306001941464538
sh600986,2013-10-09,4.93,5.15,4.89,5.03,0.016162,16437106.0,82302884.0,1686406630.0,1686406630.0,0.04902651692018075,20.62,2013-06-30 00:00:00,2013-08-17 00:00:00,-284.8798268390189,1.2937538877118964,-5.079208409858859,2.3720224420953793
sh600986,2013-10-08,4.9,4.96,4.85,4.95,0.006097999999999999,12027856.0,59126775.0,1659585050.0,1659585050.0,0.035875164819061243,20.29,2013-06-30 00:00:00,2013-08-17 00:00:00,-280.3488290636915,1.2731768042023777,-4.99842388306083,2.3342955572983235
sh600986,2013-09-30,4.94,4.99,4.8,4.92,-0.0020280000000000003,13202315.0,64902847.0,1649526960.0,1649526960.0,0.039378192278833685,20.17,2013-06-30 00:00:00,2013-08-17 00:00:00,-278.64962365862124,1.2654600289458657,-4.96812823707117,2.3201472990686036
sh600986,2013-09-27,5.01,5.08,4.86,4.93,-0.037108999999999996,19987102.0,98642453.0,1652879660.0,1652879660.0,0.05961499511706739,20.21,2013-06-30 00:00:00,2013-08-17 00:00:00,-279.2158734499778,1.2680315970246316,-4.978224075496277,2.3248621194468417
sh600986,2013-09-26,5.45,5.54,5.1,5.12,-0.097002,27307988.0,143578768.0,1716580900.0,1716580900.0,0.08145080640242473,20.99,2013-06-30 00:00:00,2013-08-17 00:00:00,-289.97661568129496,1.3169004560481214,-5.170080596346083,2.41446032774929
sh600986,2013-09-25,5.71,5.8,5.38,5.67,0.023466,60164446.0,338828821.0,1900979240.0,1900979240.0,0.17945088596548797,23.25,2013-06-30 00:00:00,2013-08-17 00:00:00,-321.12653148876853,1.4583647539065663,-5.725461846367416,2.673826883059863
sh600986,2013-09-24,5.54,5.54,5.54,5.54,0.09920599999999999,12090942.0,66983819.0,1857394180.0,1857394180.0,0.036063329691277485,22.71,2013-06-30 00:00:00,2013-08-17 00:00:00,-313.76375130074524,1.4249274073653315,-5.594188616297382,2.612521454606077
sh600986,2013-09-23,4.81,5.04,4.72,5.04,0.100437,21997978.0,107735946.0,1689759330.0,1689759330.0,0.0656127811526864,20.66,2013-06-30 00:00:00,2013-08-17 00:00:00,-285.4458138881568,1.2963242625725584,-5.089299563773653,2.3767350747776823
sh600986,2013-09-18,4.53,4.59,4.51,4.58,0.006593000000000001,2704515.0,12283255.0,1535535260.0,1535535260.0,0.008066684642591667,18.78,2013-06-30 00:00:00,2013-08-17 00:00:00,-259.3931446217792,1.1780086116447908,-4.6247986606899385,2.159810216102951
sh600986,2013-09-17,4.61,4.64,4.51,4.55,-0.013015,4725872.0,21553975.0,1525477170.0,1525477170.0,0.01409573215704041,18.65,2013-06-30 00:00:00,2013-08-17 00:00:00,-257.6941669788874,1.1702928707479494,-4.594507075540897,2.145663854311475
sh600986,2013-09-16,4.62,4.73,4.54,4.61,-0.00432,5930805.0,27308032.0,1545593350.0,1545593350.0,0.017689653653077637,18.9,2013-06-30 00:00:00,2013-08-17 00:00:00,-261.09228304268794,1.1857250826992805,-4.655093112398767,2.1739579165959713
sh600986,2013-09-13,4.54,4.69,4.53,4.63,0.015350999999999998,8804823.0,40728122.0,1552298750.0,1552298750.0,0.02626191027339293,18.98,2013-06-30 00:00:00,2013-08-17 00:00:00,-262.22509545505375,1.1908696395421023,-4.675290366783271,2.1833901620962273
sh600986,2013-09-12,4.5,4.61,4.48,4.56,0.00885,5509272.0,25157234.0,1528829870.0,1528829870.0,0.016432358376148155,18.7,2013-06-30 00:00:00,2013-08-17 00:00:00,-258.2605379371801,1.1728649890945124,-4.6046050742878775,2.1503796835736875
sh600986,2013-09-11,4.5,4.56,4.48,4.52,0.004444,5506141.0,24880832.0,1515419080.0,1515419080.0,0.016423019644176577,18.53,2013-06-30 00:00:00,2013-08-17 00:00:00,-255.99498234344065,1.1625761898146527,-4.564211799859124,2.131515769017879
sh600986,2013-09-10,4.45,4.52,4.41,4.5,0.011236,4279407.0,19160969.0,1508713690.0,1508713690.0,0.012764072883835235,18.45,2013-06-30 00:00:00,2013-08-17 00:00:00,-254.86237395359092,1.1574325595201453,-4.544018183053634,2.1220852222900226
sh600986,2013-09-09,4.39,4.45,4.38,4.45,0.011364,4137656.0,18292883.0,1491950200.0,1491950200.0,0.012341276002375952,18.24,2013-06-30 00:00:00,2013-08-17 00:00:00,-252.03055859719282,1.144572146877826,-4.4935288924184205,2.09850640433096
sh600986,2013-09-06,4.37,4.41,4.36,4.4,0.0068650000000000004,2369637.0,10390746.0,1475186720.0,1475186720.0,0.007067852942710873,18.04,2013-06-30 00:00:00,2013-08-17 00:00:00,-249.19866496849093,1.1317113787694897,-4.4430382062426785,2.0749269346456467
sh600986,2013-09-05,4.42,4.48,4.36,4.37,-0.024554,3829180.0,16826239.0,1465128620.0,1465128620.0,0.01142119290523449,17.92,2013-06-30 00:00:00,2013-08-17 00:00:00,-247.49958034939235,1.1239951520506617,-4.412744713782561,2.0607796821278392
sh600986,2013-09-04,4.51,4.63,4.47,4.48,0.009009,10569968.0,48071434.0,1502008290.0,1502008290.0,0.031526761173868094,18.37,2013-06-30 00:00:00,2013-08-17 00:00:00,-253.72965838128647,1.1522884424669966,-4.523822655259811,2.1126537831185317
sh600986,2013-09-03,4.34,4.45,4.32,4.44,0.023041,3929867.0,17265194.0,1488597500.0,1488597500.0,0.011721509326732042,18.2,2013-06-30 00:00:00,2013-08-17 00:00:00,-251.46421724809832,1.1420001629985426,-4.483431421582772,2.0937908216066767
sh600986,2013-09-02,4.36,4.4,4.23,4.34,-0.004587,3073213.0,13258796.0,1455070530.0,1455070530.0,0.009166390319237652,17.79,2013-06-30 00:00:00,2013-08-17 00:00:00,-245.80072279419718,1.1162799565203567,-4.382455269713307,2.046634320234161
sh600986,2013-08-30,4.37,4.44,4.35,4.36,-0.009091,5156664.0,22693630.0,1461775930.0,1461775930.0,0.015380643899369722,17.88,2013-06-30 00:00:00,2013-08-17 00:00:00,-246.93340632902846,1.1214239280784528,-4.402650226301351,2.056065492648942
sh600986,2013-08-29,4.39,4.41,4.32,4.4,0.016166,2946757.0,12863235.0,1475186720.0,1475186720.0,0.008789213341074546,18.04,2013-06-30 00:00:00,2013-08-17 00:00:00,-249.19887328607211,1.1317123248234224,-4.443041920399704,2.074928669180461
sh600986,2013-08-28,4.4,4.4,4.3,4.33,-0.018141,4586103.0,19894882.0,1451717840.0,1451717840.0,0.013678846841201594,17.75,2013-06-30 00:00:00,2013-08-17 00:00:00,-245.2344137533357,1.1137081193657556,-4.372358374910895,2.0419190065210424
sh600986,2013-08-27,4.45,4.48,4.38,4.41,-0.002262,5288263.0,23424021.0,1478539410.0,1478539410.0,0.015773160777635273,18.08,2013-06-30 00:00:00,2013-08-17 00:00:00,-249.7654080202307,1.1342851869420716,-4.453142839156024,2.0796458621054983
sh600986,2013-08-26,4.36,4.43,4.32,4.42,0.002268,5695097.0,24895527.0,1481892110.0,1481892110.0,0.016986613647602188,18.12,2013-06-30 00:00:00,2013-08-17 00:00:00,-250.3316582311495,1.1368567569262387,-4.463238685061633,2.084360685977178
sh600986,2013-08-23,4.48,4.56,4.32,4.41,0.025581,13163494.0,58192162.0,1478539410.0,1478539410.0,0.03926240189972346,18.08,2013-06-30 00:00:00,2013-08-17 00:00:00,-249.76519077846396,1.1342842003598226,-4.4531389658870015,2.0796440532643747
sh600986,2013-08-22,4.27,4.31,4.23,4.3,0.004673,2507923.0,10736272.0,1441659740.0,1441659740.0,0.007480314945883139,17.63,2013-06-30 00:00:00,2013-08-17 00:00:00,-243.53531391324915,1.1059918235222987,-4.34206461107119,2.027771627267251
sh600986,2013-08-21,4.21,4.28,4.2,4.28,0.016627,1520976.0,6450836.0,1434954350.0,1434954350.0,0.004536574477090508,17.55,2013-06-30 00:00:00,2013-08-17 00:00:00,-242.4025667189714,1.100847562861049,-4.321868519479661,2.018339924798667
sh600986,2013-08-20,4.23,4.3,4.18,4.21,-0.011737000000000001,1940461.0,8216956.0,1411485470.0,1411485470.0,0.005787761180425045,17.26,2013-06-30 00:00:00,2013-08-17 00:00:00,-238.43805714285713,1.0828431301362733,-4.251184081752365,1.985329845458233
sh600986,2013-08-19,4.17,4.28,4.14,4.26,0.019139,2564185.0,10799657.0,1428248960.0,1428248960.0,0.007648126066200671,17.47,2013-06-30 00:00:00,2013-08-17 00:00:00,-241.26984126984127,1.0957034009532618,-4.301672815588932,2.0089084033888076
sh600986,2013-08-16,4.25,4.33,4.17,4.18,-0.023364,3145114.0,13368617.0,1401427380.0,1401427380.0,0.009380847489935581,17.14,2013-03-31 00:00:00,2013-04-18 00:00:00,-52.51237373951417,1.066515438998502,-10269.35549652038,2.077037121097442
sh600986,2013-08-15,4.29,4.31,4.26,4.28,-0.0023309999999999997,1454954.0,6223236.0,1434954350.0,1434954350.0,0.004339652421695506,17.55,2013-03-31 00:00:00,2013-04-18 00:00:00,-53.768623867555746,1.0920296190172205,-10515.028625322413,2.1267259461021735
sh600986,2013-08-14,4.33,4.35,4.26,4.29,-0.00464,2156087.0,9268945.0,1438307050.0,1438307050.0,0.006430903074555604,17.59,2013-03-31 00:00:00,2013-04-18 00:00:00,-53.894251367493375,1.0945810875322581,-10539.596424588128,2.131694926976957
sh600986,2013-08-13,4.28,4.34,4.27,4.31,0.002326,2869585.0,12343113.0,1445012440.0,1445012440.0,0.008559034515993508,17.67,2013-03-31 00:00:00,2013-04-18 00:00:00,-54.14548642450307,1.0996836195268629,-10588.728123079216,2.1416320999205887
sh600986,2013-08-12,4.23,4.31,4.2,4.3,0.018956999999999998,3875644.0,16563888.0,1441659740.0,1441659740.0,0.011559779840976902,17.63,2013-03-31 00:00:00,2013-04-18 00:00:00,-54.01983628530345,1.097131691213101,-10564.15589646404,2.1366622235885213
sh600986,2013-08-09,4.16,4.22,4.13,4.22,0.009569,1915786.0,8034117.0,1414838170.0,1414838170.0,0.0057141637053798175,17.3,2013-03-31 00:00:00,2013-04-18 00:00:00,-53.01483407572984,1.0767203044025422,-10367.616981348614,2.096911080240404
sh600986,2013-08-08,4.16,4.21,4.15,4.18,0.0,1526519.0,6374659.0,1401427380.0,1401427380.0,0.004553107432509275,17.14,2013-03-31 00:00:00,2013-04-18 00:00:00,-52.512343461150095,1.0665148240511964,-10269.349575262924,2.0770359234885425
sh600986,2013-08-07,4.2,4.23,4.16,4.18,-0.007126,2476335.0,10374621.0,1401427380.0,1401427380.0,0.007386098236499417,17.14,2013-03-31 00:00:00,2013-04-18 00:00:00,-52.512343461150095,1.0665148240511964,-10269.349575262924,2.0770359234885425
sh600986,2013-08-06,4.17,4.25,4.16,4.21,0.007176999999999999,2134098.0,8976952.0,1411485470.0,1411485470.0,0.006365317086827681,17.26,2013-03-31 00:00:00,2013-04-18 00:00:00,-52.889232129303515,1.0741693548740288,-10343.054179344937,2.0919431100910515
sh600986,2013-08-05,4.1,4.19,4.07,4.18,0.014563,1907983.0,7930005.0,1401427380.0,1401427380.0,0.005690889912540455,17.14,2013-03-31 00:00:00,2013-04-18 00:00:00,-52.512350986275024,1.0665149768849256,-10269.35104688147,2.077036221131987
sh600986,2013-08-02,4.13,4.13,4.09,4.12,0.004878,1695233.0,6966088.0,1381311200.0,1381311200.0,0.005056326163141224,16.89,2013-03-31 00:00:00,2013-04-18 00:00:00,-51.75859063091697,1.0512062601188152,-10121.94515952333,2.047222519579353
sh600986,2013-08-01,4.06,4.11,4.04,4.1,0.019656,1509075.0,6165991.0,1374605800.0,1374605800.0,0.0045010776907823315,16.81,2013-03-31 00:00:00,2013-04-18 00:00:00,-51.507337836948345,1.0461033678902467,-10072.809992380498,2.03728464508065
sh600986,2013-07-31,4.05,4.08,4.03,4.07,0.009926,1866832.0,7585477.0,1364547710.0,1364547710.0,0.00556814993299135,16.49,2013-03-31 00:00:00,2013-04-18 00:00:00,-50.514426274104544,1.0259375396116404,-9878.635532356499,1.9980117265829356
sh600986,2013-07-30,4.04,4.07,4.0,4.03,0.0,2090549.0,8417919.0,1351136920.0,1351136920.0,0.006235424659996708,16.32,2013-03-31 00:00:00,2013-04-18 00:00:00,-50.01794812105495,1.0158541711092102,-9781.543927333783,1.9783743824626114
sh600986,2013-07-29,4.11,4.11,4.01,4.03,-0.019465,1444381.0,5824261.0,1351136920.0,1351136920.0,0.004308116626699832,16.32,2013-03-31 00:00:00,2013-04-18 00:00:00,-50.01794812105495,1.0158541711092102,-9781.543927333783,1.9783743824626114
sh600986,2013-07-26,4.08,4.13,4.05,4.11,-0.009639,1406092.0,5757455.0,1377958500.0,1377958500.0,0.004193913038745362,16.65,2013-03-31 00:00:00,2013-04-18 00:00:00,-51.010874799017834,1.036020306372756,-9975.721343280744,2.017647898813007
sh600986,2013-07-25,4.16,4.26,4.11,4.15,0.009732,2439152.0,10165474.0,1391369290.0,1391369290.0,0.007275193489429396,16.81,2013-03-31 00:00:00,2013-04-18 00:00:00,-51.50735418601685,1.0461036999364433,-10072.813189615446,2.037285291740089
sh600986,2013-07-24,4.15,4.19,4.09,4.11,-0.016746,2074115.0,8585465.0,1377958500.0,1377958500.0,0.006186407391804616,16.65,2013-03-31 00:00:00,2013-04-18 00:00:00,-51.01091595197225,1.0360211421807402,-9975.729391180477,2.017649526547727
sh600986,2013-07-23,4.06,4.19,4.05,4.18,0.029557,2508565.0,10383483.0,1401427380.0,1401427380.0,0.00748222979630953,16.93,2013-03-31 00:00:00,2013-04-18 00:00:00,-51.87969329590548,1.0536658301728141,-10145.628078991265,2.052012528347433
sh600986,2013-07-22,4.07,4.12,4.03,4.06,-0.0073349999999999995,2292764.0,9337698.0,1361195010.0,1361195010.0,0.0068385659450808595,16.45,2013-03-31 00:00:00,2013-04-18 00:00:00,-50.39030699213883,1.0234167026913654,-9854.362681222374,1.9931024006902316
sh600986,2013-07-19,4.21,4.26,4.06,4.09,-0.033097,2237300.0,9370885.0,1371253110.0,1371253110.0,0.006673134910884541,16.57,2013-03-31 00:00:00,2013-04-18 00:00:00,-50.76265103749889,1.030978933166139,-9927.178535782337,2.007829832511705
sh600986,2013-07-18,4.34,4.34,4.21,4.23,-0.011682,1885377.0,8064542.0,1418190860.0,1418190860.0,0.005623463621814627,17.13,2013-03-31 00:00:00,2013-04-18 00:00:00,-52.50025187376489,1.0662692464147274,-10266.98493621629,2.076557661432124
sh600986,2013-07-17,4.36,4.37,4.24,4.28,-0.020595,2559209.0,10992522.0,1434954350.0,1434954350.0,0.007633284306222007,17.34,2013-03-31 00:00:00,2013-04-18 00:00:00,-53.12080916644733,1.0788726365549623,-10388.341542111233,2.1011027436838385
sh600986,2013-07-16,4.27,4.38,4.26,4.37,0.018647999999999998,2829219.0,12225809.0,1465128620.0,1465128620.0,0.008438635940372252,17.7,2013-03-31 00:00:00,2013-04-18 00:00:00,-54.237837428282816,1.1015592492941761,-10606.788348141203,2.145284885909138
sh600986,2013-07-15,4.25,4.31,4.25,4.29,0.016588,2299907.0,9848639.0,1438307050.0,1438307050.0,0.00685987114503819,17.38,2013-03-31 00:00:00,2013-04-18 00:00:00,-53.244926047351804,1.0813934247101806,-10412.61392369219,2.1060119746066723
sh600986,2013-07-12,4.27,4.31,4.21,4.22,-0.00939,2671950.0,11387421.0,1414838170.0,1414838170.0,0.007969553860707617,17.09,2013-03-31 00:00:00,2013-04-18 00:00:00,-52.37611111615699,1.0637479733286057,-10242.707885290984,2.0716474861071275
sh600986,2013-07-11,4.22,4.32,4.18,4.26,0.009479000000000001,6278344.0,26808610.0,1428248960.0,1428248960.0,0.018726248846699666,17.26,2013-03-31 00:00:00,2013-04-18 00:00:00,-52.872584686361925,1.0738312487544097,-10339.798594089483,2.09128464896087
sh600986,2013-07-10,4.07,4.24,4.06,4.22,0.031785,1624202.0,6730236.0,1414838170.0,1414838170.0,0.004844463900772482,17.09,2013-03-31 00:00:00,2013-04-18 00:00:00,-52.37611152521442,1.0637479816364774,-10242.707965286532,2.071647502286694
sh600986,2013-07-09,4.16,4.17,4.0,4.09,-0.021531,1357518.0,5530538.0,1371253110.0,1371253110.0,0.004049032654518464,16.57,2013-03-31 00:00:00,2013-04-18 00:00:00,-50.76262159773055,1.030978335250539,-9927.172778521235,2.0078286680720248
sh600986,2013-07-08,4.24,4.25,4.09,4.18,-0.016471,2097723.0,8708358.0,1401427380.0,1401427380.0,0.006256822340662417,16.93,2013-03-31 00:00:00,2013-04-18 00:00:00,-51.879642173365276,1.0536647918846065,-10145.618081432558,2.0520105062828
sh600986,2013-07-05,4.25,4.3,4.23,4.25,-0.0023469999999999997,1368845.0,5840273.0,1424896260.0,1424896260.0,0.004082817404545648,17.21,2013-03-31 00:00:00,2013-04-18 00:00:00,-52.74846209249069,1.0713103445700192,-10315.525095276864,2.086375192071408
sh600986,2013-07-04,4.24,4.34,4.18,4.26,0.011876000000000001,2636198.0,11242186.0,1428248960.0,1428248960.0,0.00786291731660004,17.26,2013-03-31 00:00:00,2013-04-18 00:00:00,-52.87255397667394,1.0738306250470044,-10339.79258848203,2.0912834342916904
sh600986,2013-07-03,4.31,4.31,4.19,4.21,-0.025463,1778655.0,7516620.0,1411485470.0,1411485470.0,0.0053051467472775326,17.05,2013-03-31 00:00:00,2013-04-18 00:00:00,-52.25200911640749,1.0612274874065641,-10218.438413878806,2.0667388437829244
sh600986,2013-07-02,4.31,4.33,4.25,4.32,0.00232,1558354.0,6688846.0,1448365140.0,1448365140.0,0.004648060833609956,17.5,2013-03-31 00:00:00,2013-04-18 00:00:00,-53.61726554908381,1.0889555629048093,-10485.428889697165,2.1207392267127103
sh600986,2013-07-01,4.28,4.32,4.21,4.31,0.009368000000000001,1159231.0,4940849.0,1445012440.0,1445012440.0,0.0034576073338164477,17.46,2013-03-31 00:00:00,2013-04-18 00:00:00,-53.49316141460193,1.0864350336267952,-10461.159000815273,2.1158304999528195
sh600986,2013-06-28,4.27,4.35,4.21,4.27,-0.009281000000000001,1833226.0,7871882.0,1431601650.0,1431601650.0,0.005467914220411802,17.3,2013-03-31 00:00:00,2013-04-18 00:00:00,-52.996688437321104,1.076351770243157,-10364.068407969415,2.096193360551176
sh600986,2013-06-27,4.33,4.38,4.2,4.31,-0.006912000000000001,3218089.0,13799340.0,1445012440.0,1445012440.0,0.00959850808620028,17.46,2013-03-31 00:00:00,2013-04-18 00:00:00,-53.49315844081027,1.086434973229702,-10461.158419258554,2.1158303823295768
sh600986,2013-06-26,4.48,4.48,4.2,4.34,-0.03125,5193609.0,22440090.0,1455070530.0,1455070530.0,0.015490838825524149,17.58,2013-03-31 00:00:00,2013-04-18 00:00:00,-53.86547661517436,1.0939966782699038,-10533.969214468965,2.130556790868057
sh600986,2013-06-25,4.6,4.72,4.28,4.48,-0.058824,7407642.0,32502431.0,1502008290.0,1502008290.0,0.02209457589611573,18.15,2013-03-31 00:00:00,2013-04-18 00:00:00,-55.60307263501869,1.1292868936979652,-10873.774673000222,2.1992844292831557
sh600986,2013-06-24,4.78,4.79,4.47,4.76,-0.010395,3504494.0,16336951.0,1595883810.0,1595883810.0,0.010452760617955012,19.28,2013-03-31 00:00:00,2013-04-18 00:00:00,-59.07829421385446,1.1998679244880501,-11553.391366758418,2.33674087448379
sh600986,2013-06-21,4.7,4.85,4.66,4.81,0.0020829999999999998,1460977.0,6988245.0,1612647300.0,1612647300.0,0.00435761704992778,19.48,2013-03-31 00:00:00,2013-04-18 00:00:00,-59.69886390413799,1.2124715664209966,-11674.750397136655,2.3612864471014094
sh600986,2013-06-20,4.85,4.85,4.74,4.8,-0.014374000000000001,5000433.0,23896846.0,1609294600.0,1609294600.0,0.014914657887996391,19.44,2013-03-31 00:00:00,2013-04-18 00:00:00,-59.574769658938415,1.2099512379922586,-11650.482442209532,2.356378111495165
sh600986,2013-06-19,4.81,4.89,4.76,4.87,0.010373,4776254.0,23105628.0,1632763480.0,1632763480.0,0.01424600517155124,19.73,2013-03-31 00:00:00,2013-04-18 00:00:00,-60.44358576066217,1.227596713147034,-11820.388709520175,2.3907426462929804
sh600986,2013-06-18,4.66,4.83,4.58,4.82,0.034335000000000004,6218160.0,29454409.0,1615999990.0,1615999990.0,0.018546739718729825,19.52,2013-03-31 00:00:00,2013-04-18 00:00:00,-59.8230413527105,1.2149935846930133,-11699.034623371937,2.366198073674752
sh600986,2013-06-17,4.64,4.71,4.63,4.66,-0.002141,944463.0,4400828.0,1562356840.0,1562356840.0,0.0028170245537504734,18.88,2013-03-31 00:00:00,2013-04-18 00:00:00,-57.8372010545041,1.1746615793654989,-11310.68234505449,2.287651557449716
sh600986,2013-06-14,4.61,4.72,4.6,4.67,0.015216999999999998,1282353.0,5980359.0,1565709540.0,1565709540.0,0.0038248400210935674,18.92,2013-03-31 00:00:00,2013-04-18 00:00:00,-57.96129618964613,1.177181925868784,-11334.950474019364,2.2925599282561118
sh600986,2013-06-13,4.75,4.75,4.58,4.6,-0.039666,1843725.0,8536043.0,1542240660.0,1542240660.0,0.005499229283709846,18.63,2013-03-31 00:00:00,2013-04-18 00:00:00,-57.092519323106416,1.1595372475724737,-11165.05187956798,2.25819694533889
sh600986,2013-06-07,4.78,4.85,4.71,4.79,-0.0020829999999999998,1390398.0,6640662.0,1605941900.0,1605941900.0,0.004147102968046353,19.4,2013-03-31 00:00:00,2013-04-18 00:00:00,-59.450690408864425,1.207431214111417,-11626.21741973936,2.351470368995464
sh600986,2013-06-06,4.87,4.92,4.8,4.8,-0.020408000000000003,1807332.0,8780975.0,1609294600.0,1609294600.0,0.005390680861043092,19.44,2013-03-31 00:00:00,2013-04-18 00:00:00,-59.574784685364044,1.2099515431758523,-11650.48538078754,2.3563787058397283
sh600986,2013-06-05,4.9,4.94,4.85,4.9,-0.002037,2717154.0,13292757.0,1642821570.0,1642821570.0,0.008104382632375591,19.85,2013-03-31 00:00:00,2013-04-18 00:00:00,-60.81591589698981,1.235158661132239,-11893.201844020306,2.405469527966468
sh600986,2013-06-04,5.12,5.12,4.9,4.91,-0.039139,4031750.0,20073295.0,1646174270.0,1646174270.0,0.012025392973734185,19.89,2013-03-31 00:00:00,2013-04-18 00:00:00,-60.940050780429544,1.2376798149152213,-11917.477746189294,2.4103794709487905
sh600986,2013-06-03,5.09,5.17,5.06,5.11,-0.003899,2990203.0,15280518.0,1713228210.0,1713228210.0,0.008918798582005606,20.7,2013-03-31 00:00:00,2013-04-18 00:00:00,-63.42233765386413,1.2880945474061507,-12402.915454149243,2.5085620822874386
sh600986,2013-05-31,5.08,5.19,5.06,5.13,0.013834,7671870.0,39431092.0,1719933600.0,1719933600.0,0.02288268169189787,20.78,2013-03-31 00:00:00,2013-04-18 00:00:00,-63.6705892814726,1.2931364865672765,-12451.463711159053,2.5183812507842465
sh600986,2013-05-30,5.06,5.08,5.01,5.06,0.0,3200632.0,16156869.0,1696464720.0,1696464720.0,0.009546439562857516,20.5,2013-03-31 00:00:00,2013-04-18 00:00:00,-62.8017893279103,1.2754913393783172,-12281.560601793837,2.4840173546993363
sh600986,2013-05-29,5.04,5.07,5.0,5.06,0.003968,4657567.0,23479839.0,1696464720.0,1696464720.0,0.013892000665949599,20.5,2013-03-31 00:00:00,2013-04-18 00:00:00,-62.8017893279103,1.2754913393783172,-12281.560601793837,2.4840173546993363
sh600986,2013-05-28,5.01,5.05,4.98,5.04,0.0019879999999999997,3058770.0,15351967.0,1689759330.0,1689759330.0,0.009123311542833737,20.41,2013-03-31 00:00:00,2013-04-18 00:00:00,-62.553576735424144,1.2704501930124439,-12233.019978519076,2.4741997301700223
sh600986,2013-05-27,4.94,5.04,4.9,5.03,0.018219,3244232.0,16183068.0,1686406630.0,1686406630.0,0.009676484111071124,20.37,2013-03-31 00:00:00,2013-04-18 00:00:00,-62.429466955117356,1.2679295490688947,-12208.748985535827,2.4692907800991843
sh600986,2013-05-24,4.91,4.96,4.88,4.94,0.00611,2259709.0,11116056.0,1656232360.0,1656232360.0,0.0067399736471759316,20.01,2013-03-31 00:00:00,2013-04-18 00:00:00,-61.312416047154244,1.2452424763915173,-11990.29775081375,2.4251077421450433
sh600986,2013-05-23,5.02,5.02,4.9,4.91,-0.023857,3414004.0,16979737.0,1646174270.0,1646174270.0,0.01018285848921694,19.89,2013-03-31 00:00:00,2013-04-18 00:00:00,-60.94007220597574,1.2376802500636288,-11917.481936183669,2.4103803183996217
sh600986,2013-05-22,5.0,5.06,4.97,5.03,0.006,5690792.0,28625664.0,1686406630.0,1686406630.0,0.01697377325894408,20.37,2013-03-31 00:00:00,2013-04-18 00:00:00,-62.42945163359849,1.2679292378920184,-12208.745989249186,2.469290174082713
sh600986,2013-05-21,4.94,5.0,4.9,5.0,0.012145999999999999,5670577.0,28064445.0,1676348540.0,1676348540.0,0.016913478506086807,20.25,2013-03-31 00:00:00,2013-04-18 00:00:00,-62.05710897972017,1.2603670356779508,-12135.930406808335,2.4545627972989195
sh600986,2013-05-20,4.92,4.96,4.89,4.94,0.00611,3484771.0,17145480.0,1656232360.0,1656232360.0,0.010393933336745093,20.01,2013-03-31 00:00:00,2013-04-18 00:00:00,-61.31240846648622,1.245242322429719,-11990.296268333159,2.4251074423046863
sh600986,2013-05-17,4.84,4.93,4.83,4.91,0.014463,4083771.0,19948046.0,1646174270.0,1646174270.0,0.012180554620137516,19.89,2013-03-31 00:00:00,2013-04-18 00:00:00,-60.94006467134429,1.237680097036824,-11917.480462706022,2.410380020380163
sh600986,2013-05-16,4.78,4.85,4.76,4.84,0.008333,2139052.0,10312973.0,1622705390.0,1622705390.0,0.006380093234299295,19.6,2013-03-31 00:00:00,2013-04-18 00:00:00,-60.071254122963886,1.2200347346693021,-11747.575281410978,2.376015705235345
sh600986,2013-05-15,4.75,4.82,4.71,4.8,0.010526,1447284.0,6905352.0,1609294600.0,1609294600.0,0.004316775312612121,19.44,2013-03-31 00:00:00,2013-04-18 00:00:00,-59.57481717147399,1.2099522029620198,-11650.49173379328,2.35637999077224
sh600986,2013-05-14,4.84,4.84,4.71,4.75,-0.014523,1962607.0,9322575.0,1592531110.0,1592531110.0,0.005853815471146431,19.24,2013-03-31 00:00:00,2013-04-18 00:00:00,-58.95426458247882,1.1973489083526994,-11529.136047754615,2.3318350945668294
sh600986,2013-05-13,4.84,4.87,4.78,4.82,-0.004132,2225490.0,10733988.0,1615999990.0,1615999990.0,0.0066379095707791436,19.52,2013-03-31 00:00:00,2013-04-18 00:00:00,-59.823075102187886,1.214994270137912,-11699.041223442671,2.3661994085776015
sh600986,2013-05-10,4.68,4.84,4.65,4.84,0.034187999999999996,4611439.0,22118827.0,1622705390.0,1622705390.0,0.013754415864730689,19.6,2013-03-31 00:00:00,2013-04-18 00:00:00,-60.071289671108914,1.2200354566447682,-11747.58223323038,2.3760171112814166
sh600986,2013-05-09,4.76,4.76,4.63,4.68,-0.012657999999999999,2234920.0,10458948.0,1569062230.0,1569062230.0,0.006666036183918593,18.96,2013-03-31 00:00:00,2013-04-18 00:00:00,-58.08546383356694,1.1797037450103545,-11359.232782850297,2.297471167023227
sh600986,2013-05-08,4.69,4.76,4.67,4.74,0.014988999999999999,2046779.0,9658023.0,1589178420.0,1589178420.0,0.006104873019858903,19.2,2013-03-31 00:00:00,2013-04-18 00:00:00,-58.83013569114546,1.1948278762681568,-11504.861317406021,2.326925388592025
sh600986,2013-05-07,4.7,4.71,4.64,4.67,-0.004264,1304236.0,6087388.0,1565709540.0,1565709540.0,0.0038901098603512374,18.92,2013-03-31 00:00:00,2013-04-18 00:00:00,-57.9613529714563,1.177183079095593,-11334.961578308752,2.2925621741634883
sh600986,2013-05-06,4.62,4.72,4.62,4.69,0.008602,1544958.0,7254012.0,1572414930.0,1572414930.0,0.004608104948482014,19.0,2013-03-31 00:00:00,2013-04-18 00:00:00,-58.20955852902406,1.18222408258373,-11383.500825830091,2.3023795204386386
sh600986,2013-05-03,4.59,4.68,4.56,4.65,0.013072,1651815.0,7671530.0,1559004140.0,1559004140.0,0.004926824472704736,18.84,2013-03-31 00:00:00,2013-04-18 00:00:00,-57.71311035376101,1.1721413229239384,-11286.415083283686,2.2827433620383846
sh600986,2013-05-02,4.55,4.61,4.47,4.59,0.004376,1264634.0,5753650.0,1538887960.0,1538887960.0,0.003771990041432256,18.59,2013-03-31 00:00:00,2013-04-18 00:00:00,-56.96841917826276,1.1570167993231855,-11140.782770902448,2.253288376382315
sh600986,2013-04-26,4.68,4.71,4.53,4.57,-0.021412999999999998,2101609.0,9666262.0,1532182570.0,1532182570.0,0.006268412993368017,18.51,2013-03-31 00:00:00,2013-04-18 00:00:00,-56.72021153259612,1.1519757534261927,-11092.243115031073,2.243470947515985
sh600986,2013-04-25,4.76,4.79,4.67,4.67,-0.025052,2024928.0,9554538.0,1565709540.0,1565709540.0,0.006039698627626679,18.92,2013-03-31 00:00:00,2013-04-18 00:00:00,-57.9613376558202,1.1771827680381945,-11334.958583172547,2.2925615683797
sh600986,2013-04-24,4.76,4.8,4.65,4.79,0.0063030000000000004,2390376.0,11351330.0,1605941900.0,1605941900.0,0.007129710632744559,19.4,2013-03-31 00:00:00,2013-04-18 00:00:00,-59.45069650465481,1.2074313379156576,-11626.21861183627,2.3514706101040255
sh600986,2013-04-23,4.9,4.92,4.75,4.76,-0.028571,2058236.0,9911411.0,1595883810.0,1595883810.0,0.006139045523621172,19.28,2013-03-31 00:00:00,2013-04-18 00:00:00,-59.07832581703007,1.199868566342004,-11553.397547096918,2.336742124493344
sh600986,2013-04-22,4.86,4.91,4.84,4.9,-0.002037,2000978.0,9747745.0,1642821570.0,1642821570.0,0.005968263613680213,19.85,2013-03-31 00:00:00,2013-04-18 00:00:00,-60.81589680463531,1.2351582733704718,-11893.198110306485,2.405468772801043
sh600986,2013-04-19,4.81,4.94,4.8,4.91,0.016562999999999998,2580398.0,12604641.0,1646174270.0,1646174270.0,0.007696484151705276,19.89,2013-03-31 00:00:00,2013-04-18 00:00:00,-60.94003164910452,1.2376794263619708,-11917.47400485437,2.4103787142419533
sh600986,2013-04-18,4.86,4.87,4.79,4.83,-0.006173,1543399.0,7466978.0,1619352690.0,1619352690.0,0.004603454958289537,19.56,2013-03-31 00:00:00,2013-04-18 00:00:00,-59.947127378337115,1.2175137461839263,-11723.300970873786,2.3711060841698477
sh600986,2013-04-17,4.82,4.88,4.78,4.86,0.010395,1338300.0,6478328.0,1629410780.0,1629410780.0,0.003991711654196863,19.69,2012-09-30 00:00:00,2012-10-27 00:00:00,50.77445026439535,1.1644092149674072,-4.457947747345665,2.4230535118725847
sh600986,2013-04-16,4.72,4.84,4.71,4.81,0.010504000000000001,1431419.0,6842182.0,1612647300.0,1612647300.0,0.004269455193333347,19.48,2012-09-30 00:00:00,2012-10-27 00:00:00,50.252079893898284,1.1524297081511758,-4.412084132785362,2.3981250024718896
sh600986,2013-04-15,4.84,4.84,4.75,4.76,-0.018557,1111218.0,5302414.0,1595883810.0,1595883810.0,0.003314400238197792,19.28,2012-09-30 00:00:00,2012-10-27 00:00:00,49.729718926296464,1.1404504169713092,-4.3662213437901904,2.373196941795272
sh600986,2013-04-12,4.9,4.95,4.82,4.85,-0.01222,1334523.0,6503633.0,1626058080.0,1626058080.0,0.003980446104360553,19.65,2012-09-30 00:00:00,2012-10-27 00:00:00,50.67000215631113,1.1620139090821466,-4.448777304224688,2.418069049140166
sh600986,2013-04-11,4.96,5.0,4.89,4.91,-0.008081,1376111.0,6793555.0,1646174270.0,1646174270.0,0.0041044895021959005,19.89,2012-09-30 00:00:00,2012-10-27 00:00:00,51.29684965914589,1.1763893873961273,-4.503813910207422,2.447983406365958
sh600986,2013-04-10,4.96,5.01,4.91,4.95,-0.002016,1543600.0,7660306.0,1659585050.0,1659585050.0,0.004604054489403842,20.05,2012-09-30 00:00:00,2012-10-27 00:00:00,51.714756607289395,1.185973237125337,-4.540505737068674,2.467926722208122
sh600986,2013-04-09,4.91,4.99,4.88,4.96,0.00813,1748920.0,8664690.0,1662937750.0,1662937750.0,0.00521645695997941,20.09,2012-09-30 00:00:00,2012-10-27 00:00:00,51.81922416320241,1.1883689890071756,-4.549677887690257,2.4729121130279865
sh600986,2013-04-08,4.88,4.93,4.72,4.92,0.0,3106770.0,14983426.0,1649526960.0,1649526960.0,0.009266479888270514,19.93,2012-09-30 00:00:00,2012-10-27 00:00:00,51.401331339412984,1.1787854631914292,-4.512987300933667,2.4529694712269117
sh600986,2013-04-03,5.06,5.1,4.87,4.92,-0.027668,3975938.0,19739697.0,1649526960.0,1649526960.0,0.01185892406390254,19.93,2012-09-30 00:00:00,2012-10-27 00:00:00,51.401331339412984,1.1787854631914292,-4.512987300933667,2.4529694712269117
sh600986,2013-04-02,5.08,5.15,5.04,5.06,-0.001972,2506565.0,12756105.0,1696464720.0,1696464720.0,0.0074762644636665355,20.5,2012-09-30 00:00:00,2012-10-27 00:00:00,52.86397170864786,1.2123281586859522,-4.641405714235125,2.5227694565507583
sh600986,2013-04-01,5.06,5.13,5.03,5.07,0.0019760000000000003,2415760.0,12264417.0,1699817420.0,1699817420.0,0.007205422803585575,20.54,2012-09-30 00:00:00,2012-10-27 00:00:00,52.96842544362267,1.214723593612556,-4.650576651391669,2.5277541878091174
sh600986,2013-03-29,5.04,5.1,5.03,5.06,0.003968,2265280.0,11476196.0,1696464720.0,1696464720.0,0.006756590139994187,20.5,2012-09-30 00:00:00,2012-10-27 00:00:00,52.86396624631995,1.2123280334185211,-4.641405234648004,2.5227691958780625
sh600986,2013-03-28,5.32,5.32,5.04,5.04,-0.061453,7007238.0,35783857.0,1689759330.0,1689759330.0,0.02090030153584061,20.41,2012-09-30 00:00:00,2012-10-27 00:00:00,52.65503108298268,1.2075365284735384,-4.6230609288822,2.5127984117801194
sh600986,2013-03-27,5.41,5.48,5.33,5.37,-0.012868000000000001,3793899.0,20477740.0,1800398330.0,1800398330.0,0.01131596119065496,21.75,2012-09-30 00:00:00,2012-10-27 00:00:00,56.1027109808914,1.2866020864949101,-4.925763897686744,2.6773282656916697
sh600986,2013-03-26,5.5,5.54,5.4,5.44,-0.009106999999999999,3275664.0,17888461.0,1823867210.0,1823867210.0,0.009770235498668789,22.04,2012-09-30 00:00:00,2012-10-27 00:00:00,56.834051556318094,1.303373901864097,-4.989974894630853,2.7122292314418632
sh600986,2013-03-25,5.44,5.5,5.44,5.49,0.005495,3194265.0,17507958.0,1840630700.0,1840630700.0,0.009527448852178768,22.24,2012-09-30 00:00:00,2012-10-27 00:00:00,57.35639625703087,1.3153528199957987,-5.035836255408861,2.7371565158315407
sh600986,2013-03-22,5.45,5.5,5.4,5.46,0.001835,3561766.0,19410380.0,1830572610.0,1830572610.0,0.010623584256513047,22.12,2012-09-30 00:00:00,2012-10-27 00:00:00,57.04294527275706,1.3081644563083838,-5.008315561398973,2.7221980376148465
sh600986,2013-03-21,5.48,5.54,5.41,5.45,-0.001832,4798061.0,26240217.0,1827219910.0,1827219910.0,0.014311048334625471,22.08,2012-09-30 00:00:00,2012-10-27 00:00:00,56.93846319279827,1.305768371346962,-4.999142135580183,2.717211953679844
sh600986,2013-03-20,5.36,5.47,5.3,5.46,0.01676,4516352.0,24410727.0,1830572610.0,1830572610.0,0.013470802406466684,22.12,2012-09-30 00:00:00,2012-10-27 00:00:00,57.04296590633868,1.308164929497802,-5.008317373007532,2.7221990222886765
sh600986,2013-03-19,5.35,5.43,5.22,5.37,0.0037380000000000004,4462637.0,23710124.0,1800398330.0,1800398330.0,0.013310588157455134,21.75,2012-09-30 00:00:00,2012-10-27 00:00:00,56.102684907292456,1.2866014885497088,-4.925761608449911,2.6773270214098472
sh600986,2013-03-18,5.45,5.59,5.34,5.35,-0.025501,5301199.0,28700971.0,1793692940.0,1793692940.0,0.015811744595482437,21.67,2012-09-30 00:00:00,2012-10-27 00:00:00,55.89375405463622,1.2818100824614678,-4.907417681157743,2.6673564430258168
sh600986,2013-03-15,5.62,5.66,5.48,5.49,-0.036842,10860081.0,60291868.0,1840630700.0,1840630700.0,0.03239207337463186,22.24,2012-09-30 00:00:00,2012-10-27 00:00:00,57.3563996008577,1.315352896679697,-5.035836548993631,2.7371566754053283
sh600986,2013-03-14,5.84,6.06,5.7,5.7,-0.018933000000000002,22047271.0,130063161.0,1911037340.0,1911037340.0,0.06575980598055714,23.09,2012-09-30 00:00:00,2012-10-27 00:00:00,59.55035373309228,1.3656667926546804,-5.228463605133976,2.8418563469392644
sh600986,2013-03-13,5.69,5.9,5.6,5.81,0.013962,18282920.0,106016896.0,1947917000.0,1947917000.0,0.054531977081159,23.53,2012-09-30 00:00:00,2012-10-27 00:00:00,60.69957885964188,1.3920219441227568,-5.329364462502538,2.8966995597031238
sh600986,2013-03-12,5.65,5.75,5.41,5.73,-0.003478,12175001.0,68234021.0,1921095430.0,1921095430.0,0.036314050119831895,23.21,2012-09-30 00:00:00,2012-10-27 00:00:00,59.86376102816662,1.372854154418762,-5.255980463274301,2.8568127402241146
sh600986,2013-03-11,5.66,6.19,5.6,5.75,0.007005,18087905.0,104387749.0,1927800820.0,1927800820.0,0.05395031098181606,23.29,2012-09-30 00:00:00,2012-10-27 00:00:00,60.07269385740267,1.3776456058358593,-5.27432456410827,2.8667834129343004
sh600986,2013-03-08,5.4,5.76,5.33,5.71,0.051565,14393763.0,80150734.0,1914390030.0,1914390030.0,0.04293189237409474,23.13,2012-09-30 00:00:00,2012-10-27 00:00:00,59.65481190004288,1.3680623292196754,-5.237634931413718,2.8468412896999524
sh600986,2013-03-07,5.51,5.53,5.35,5.43,-0.005495,5440765.0,29644394.0,1820514510.0,1820514510.0,0.01622802443359817,21.99,2012-09-30 00:00:00,2012-10-27 00:00:00,56.729552524135805,1.300977428137752,-4.980799980423194,2.707242338514454
sh600986,2013-03-06,5.38,5.47,5.35,5.46,0.01676,4807128.0,26070137.0,1830572610.0,1830572610.0,0.014338092210393118,22.12,2012-09-30 00:00:00,2012-10-27 00:00:00,57.043003830182656,1.30816579920438,-5.008320702684446,2.722200832086771
sh600986,2013-03-05,5.3,5.38,5.29,5.37,0.011299,3563799.0,19053402.0,1800398330.0,1800398330.0,0.010629648067936167,21.75,2012-09-30 00:00:00,2012-10-27 00:00:00,56.10272220600992,1.286602343920276,-4.925764883241321,2.677328801375714
sh600986,2013-03-04,5.49,5.49,5.27,5.31,-0.043243000000000004,3749249.0,20146581.0,1780282150.0,1780282150.0,0.01118278481307022,21.51,2012-09-30 00:00:00,2012-10-27 00:00:00,55.47590001177686,1.2722274460078336,-4.870730499329397,2.6474156519246175
sh600986,2013-03-01,5.46,5.56,5.41,5.55,0.018349,4296059.0,23538133.0,1860746880.0,1860746880.0,0.012813740389020565,22.48,2012-09-30 00:00:00,2012-10-27 00:00:00,57.98327058153414,1.3297289134104413,-5.0908752163082145,2.76707215303846
sh600986,2013-02-28,5.37,5.46,5.33,5.45,0.020599,3767460.0,20432906.0,1827219910.0,1827219910.0,0.011237102270848178,22.08,2012-09-30 00:00:00,2012-10-27 00:00:00,56.93850593611242,1.3057693515783306,-4.9991458884019275,2.717213993472238
sh600986,2013-02-27,5.34,5.39,5.3,5.34,0.001876,1974669.0,10545086.0,1790340240.0,1790340240.0,0.005889792467603811,21.63,2012-09-30 00:00:00,2012-10-27 00:00:00,55.789302102111044,1.2794146884117374,-4.898246900498559,2.6623717968293503
sh600986,2013-02-26,5.36,5.42,5.3,5.33,-0.014787,2531869.0,13558044.0,1786987540.0,1786987540.0,0.0075517380328236645,21.59,2012-09-30 00:00:00,2012-10-27 00:00:00,55.6848373472476,1.2770190007662998,-4.889074995806426,2.657386539680909
sh600986,2013-02-25,5.33,5.45,5.33,5.41,0.015009,1824962.0,9835966.0,1813809120.0,1813809120.0,0.005443265397187991,21.91,2012-09-30 00:00:00,2012-10-27 00:00:00,56.520607571405975,1.296185698692871,-4.962454815158169,2.6972710872480454
sh600986,2013-02-22,5.42,5.42,5.31,5.33,-0.012962999999999999,2978825.0,16020191.0,1786987540.0,1786987540.0,0.008884861754548104,21.59,2012-09-30 00:00:00,2012-10-27 00:00:00,55.68483389940973,1.277018921697119,-4.8890746930895865,2.6573863751435165
sh600986,2013-02-21,5.57,5.57,5.3,5.4,-0.035713999999999996,4254443.0,23098038.0,1810456420.0,1810456420.0,0.012689613484316844,21.87,2012-09-30 00:00:00,2012-10-27 00:00:00,56.4161565365936,1.293790325689026,-4.9532841150732825,2.6922864848465826
sh600986,2013-02-20,5.52,5.6,5.44,5.6,0.016334,4128449.0,22788709.0,1877510360.0,1877510360.0,0.012313814555995313,22.68,2012-09-30 00:00:00,2012-10-27 00:00:00,58.50562648072625,1.3417080883565933,-5.136737560301904,2.7919999718409088
sh600986,2013-02-19,5.68,5.68,5.49,5.51,-0.029930000000000002,4309396.0,23936091.0,1847336090.0,1847336090.0,0.012853520314216348,22.32,2012-09-30 00:00:00,2012-10-27 00:00:00,57.56535398867522,1.320144842499211,-5.054182542650254,2.7471283769320993
sh600986,2013-02-18,5.65,5.74,5.63,5.68,-0.001757,3407735.0,19340176.0,1904331940.0,1904331940.0,0.010164160141114893,23.01,2012-09-30 00:00:00,2012-10-27 00:00:00,59.341443389317504,1.3608758568961117,-5.210121478501813,2.8318867472781344
sh600986,2013-02-08,5.68,5.78,5.64,5.69,0.0,3719301.0,21189649.0,1907684640.0,1907684640.0,0.011093459708309023,23.05,2012-09-30 00:00:00,2012-10-27 00:00:00,59.44588981772725,1.363271124261439,-5.219291774148993,2.8368711298532867
sh600986,2013-02-07,5.61,5.7,5.54,5.69,0.012456,4456116.0,25150711.0,1907684640.0,1907684640.0,0.013291138120187413,23.05,2012-09-30 00:00:00,2012-10-27 00:00:00,59.44588981772725,1.363271124261439,-5.219291774148993,2.8368711298532867
sh600986,2013-02-06,5.61,5.66,5.56,5.62,0.005367,3222873.0,18048280.0,1884215760.0,1884215760.0,0.009612777180040147,22.76,2012-09-30 00:00:00,2012-10-27 00:00:00,58.714541488940995,1.3464991310846486,-5.155080096467395,2.8019697940980013
sh600986,2013-02-05,5.46,5.6,5.45,5.59,0.014518999999999999,3715395.0,20587094.0,1874157670.0,1874157670.0,0.011081809381598081,22.64,2012-09-30 00:00:00,2012-10-27 00:00:00,58.40110277037241,1.339311048686349,-5.127560479374592,2.787011901224132
sh600986,2013-02-04,5.65,5.7,5.47,5.51,-0.024779,5629980.0,31244373.0,1847336090.0,1847336090.0,0.016792390928712923,22.32,2012-09-30 00:00:00,2012-10-27 00:00:00,57.56531200536651,1.3201438796970282,-5.054178856556253,2.7471263734086127
sh600986,2013-02-01,5.65,5.68,5.57,5.65,0.0,4845848.0,27282805.0,1894273850.0,1894273850.0,0.014453581355198458,22.89,2012-09-30 00:00:00,2012-10-27 00:00:00,59.02796597424225,1.3536868870717798,-5.182598463893059,2.8169270077332342
sh600986,2013-01-31,5.71,5.77,5.54,5.65,-0.020797,7284054.0,40995867.0,1894273850.0,1894273850.0,0.021725953245883643,22.89,2012-09-30 00:00:00,2012-10-27 00:00:00,59.02796597424225,1.3536868870717798,-5.182598463893059,2.8169270077332342
sh600986,2013-01-30,5.72,5.79,5.64,5.77,-0.018706999999999998,12052980.0,69065802.0,1934506220.0,1934506220.0,0.03595010131319195,23.37,2012-09-30 00:00:00,2012-10-27 00:00:00,60.28164331016372,1.382437438479845,-5.292670124471696,2.8767548789507735
sh600986,2013-01-29,5.54,5.92,5.47,5.88,0.063291,18511145.0,105116351.0,1971385880.0,1971385880.0,0.05521269767844741,23.82,2012-09-30 00:00:00,2012-10-27 00:00:00,61.43082984405649,1.4087917049034744,-5.39356759344222,2.9315962499995143
sh600986,2013-01-28,5.4,5.53,5.3,5.53,0.010969,11814477.0,64266016.0,1854041490.0,1854041490.0,0.03523872478711358,22.4,2012-09-30 00:00:00,2012-10-27 00:00:00,57.77424039520366,1.3249352293055001,-5.072522567615282,2.7570968342622244
sh600986,2013-01-25,5.17,5.66,5.14,5.47,0.058026999999999995,15032664.0,81776749.0,1833925300.0,1833925300.0,0.04483752532341421,22.16,2012-09-30 00:00:00,2012-10-27 00:00:00,57.14739066697758,1.3105596999566753,-5.017485766245336,2.7271823708365184
sh600986,2013-01-24,5.33,5.4,5.13,5.17,-0.033645,6406721.0,33914353.0,1733344390.0,1733344390.0,0.019109155549867387,20.94,2012-09-30 00:00:00,2012-10-27 00:00:00,54.013168536320514,1.2386826611765818,-4.742304086989591,2.577611318838289
sh600986,2013-01-23,5.34,5.41,5.23,5.35,0.0,3754237.0,19979186.0,1793692940.0,1793692940.0,0.01119766237692835,21.67,2012-09-30 00:00:00,2012-10-27 00:00:00,55.893712493152634,1.2818091293329903,-4.907414032099582,2.667354459632629
sh600986,2013-01-22,5.5,5.5,5.32,5.35,-0.030797,6329564.0,34260956.0,1793692940.0,1793692940.0,0.018879021400396438,21.67,2012-09-30 00:00:00,2012-10-27 00:00:00,55.893712493152634,1.2818091293329903,-4.907414032099582,2.667354459632629
sh600986,2013-01-21,5.42,5.54,5.39,5.52,0.012844,8408736.0,45953857.0,1850688790.0,1850688790.0,0.025080512169741945,22.36,2012-09-30 00:00:00,2012-10-27 00:00:00,57.66976834899668,1.322539374447861,-5.06335002275022,2.7521112291569763
sh600986,2013-01-18,5.43,5.54,5.33,5.45,0.022514,8013620.0,43384148.0,1827219910.0,1827219910.0,0.02390201024024525,22.08,2012-09-30 00:00:00,2012-10-27 00:00:00,56.93845088581921,1.3057680891113148,-4.999141055039295,2.717211366367353
sh600986,2013-01-17,5.28,5.44,5.22,5.33,0.00566,6502761.0,34659243.0,1786987540.0,1786987540.0,0.019395611527319324,21.59,2012-09-30 00:00:00,2012-10-27 00:00:00,55.68476410672051,1.2770173211430993,-4.889068565358807,2.657383044503404
sh600986,2013-01-16,5.36,5.39,5.22,5.3,-0.011193999999999999,7055132.0,37286176.0,1776929450.0,1776929450.0,0.021043153739165054,21.47,2012-09-30 00:00:00,2012-10-27 00:00:00,55.37136219668725,1.2698300828740323,-4.861552180019894,2.642426908202975
sh600986,2013-01-15,5.27,5.38,5.27,5.36,0.015152,6886467.0,36685015.0,1797045630.0,1797045630.0,0.020540081177571435,21.71,2012-09-30 00:00:00,2012-10-27 00:00:00,55.99820611594919,1.2842054790060258,-4.916588471368392,2.6723410944138437
sh600986,2013-01-14,5.14,5.3,5.11,5.28,0.023256,5283700.0,27655742.0,1770224060.0,1770224060.0,0.015759550799462077,21.39,2012-09-30 00:00:00,2012-10-27 00:00:00,55.162385648601585,1.2650376288536356,-4.843204240713107,2.632454149145984
sh600986,2013-01-11,5.29,5.31,5.09,5.16,-0.024575,5265453.0,27321661.0,1729991690.0,1729991690.0,0.01570512600554746,20.9,2012-09-30 00:00:00,2012-10-27 00:00:00,53.90868526409969,1.2362865488730441,-4.733130556491345,2.57262517800627
sh600986,2013-01-10,5.35,5.4,5.23,5.29,-0.014898,4601650.0,24528880.0,1773576760.0,1773576760.0,0.013725218467567201,21.43,2012-09-30 00:00:00,2012-10-27 00:00:00,55.26686855893552,1.26743373285803,-4.852377739438034,2.637440272708071
sh600986,2013-01-09,5.32,5.47,5.27,5.37,0.001866,5925241.0,31745263.0,1800398330.0,1800398330.0,0.017673058033774117,21.75,2012-09-30 00:00:00,2012-10-27 00:00:00,56.10268638063421,1.2866015223378189,-4.925761737807896,2.677327091720523
sh600986,2013-01-08,5.38,5.4,5.29,5.36,-0.009242,6355896.0,33915231.0,1797045630.0,1797045630.0,0.018957561227869322,21.71,2012-09-30 00:00:00,2012-10-27 00:00:00,55.99819375109466,1.284205195443122,-4.9165873857460936,2.672340504339426
sh600986,2013-01-07,5.25,5.42,5.23,5.41,0.032443,9946961.0,53067277.0,1813809120.0,1813809120.0,0.029668534807014313,21.91,2012-09-30 00:00:00,2012-10-27 00:00:00,56.52055673645296,1.296184532896148,-4.962450351898338,2.697268661307227
sh600986,2013-01-04,5.21,5.26,5.1,5.24,0.009634,4764169.0,24775153.0,1756813270.0,1756813270.0,0.014209959582101746,21.23,2012-09-30 00:00:00,2012-10-27 00:00:00,54.74448152242105,1.2554538438404328,-4.806512661617481,2.61251096797327
