code,date,open,high,low,close,change,volume,money,traded_market_value,market_value,turnover,adjust_price,report_type,report_date,PE_TTM,PS_TTM,PC_TTM,PB
sh600227,2014-12-31,5.84,6.08,5.84,6.08,0.099458,26400516.0,157925520.0,5778386560.0,5778386560.0,0.027778539149862624,35.94,2014-09-30 00:00:00,2014-10-30 00:00:00,-27.219192748301477,1.808966611675797,22.80974336275936,1.8309513989972532
sh600227,2014-12-30,5.31,5.53,5.2,5.53,0.09940399999999999,68262533.0,370176947.0,5255670670.0,5255670670.0,0.07182562059011205,32.69,2014-09-30 00:00:00,2014-10-30 00:00:00,-24.75691908949817,1.6453257984168534,20.746352623528466,1.6653218212949044
sh600227,2014-12-29,5.03,5.03,4.71,5.03,0.100656,97934666.0,487529920.0,4780474410.0,4780474410.0,0.10304654470057084,29.73,2014-09-30 00:00:00,2014-10-30 00:00:00,-22.518491009217872,1.4965615901132372,18.870544971210276,1.5147496473497497
sh600227,2014-12-26,4.57,4.57,4.57,4.57,0.10120499999999999,2637467.0,12053224.0,4343293840.0,4343293840.0,0.002775134410431692,27.01,2014-09-30 00:00:00,2014-10-30 00:00:00,-20.45915436722997,1.3596996610323635,17.144816337902373,1.3762244037644364
sh600227,2014-12-25,4.15,4.15,4.15,4.15,0.100796,2558029.0,10615820.0,3944128980.0,3944128980.0,0.0026915499984485804,24.53,2014-09-30 00:00:00,2014-10-30 00:00:00,-18.578878925567874,1.2347380015822336,15.569141384122279,1.249744056523932
sh600227,2014-12-24,3.77,3.77,3.77,3.77,0.099125,677134.0,2552795.0,3582979820.0,3582979820.0,0.000712478246667881,22.28,2014-09-30 00:00:00,2014-10-30 00:00:00,-16.877676631789974,1.1216774057883874,14.143530121950189,1.1353094093037512
sh600227,2014-12-23,3.43,3.43,3.43,3.43,0.099359,458777.0,1573605.0,3259846360.0,3259846360.0,0.0004827237041932246,20.27,2014-09-30 00:00:00,2014-10-30 00:00:00,-15.355557040181939,1.020518508621301,12.8679905578985,1.0329211047913125
sh600227,2014-12-22,3.12,3.12,3.12,3.12,0.098592,864264.0,2696504.0,2965224680.0,2965224680.0,0.0009093758385958126,18.44,2014-09-30 00:00:00,2014-10-30 00:00:00,-13.967736690364058,0.9282850357538356,11.704994053715394,0.939566697312991
sh600227,2014-06-05,2.71,2.85,2.71,2.84,0.04797,22472417.0,63197593.0,2699114770.0,2699114770.0,0.023645405889872552,16.79,2014-03-31 00:00:00,2014-04-29 00:00:00,-46.176631235216966,0.7628953749674476,7.888718443748517,0.8004107015953201
sh600227,2014-06-04,2.68,2.73,2.68,2.71,0.011193999999999999,8522836.0,23110450.0,2575563750.0,2575563750.0,0.008967700978086836,16.02,2014-03-31 00:00:00,2014-04-29 00:00:00,-44.062932369454245,0.7279744410311818,7.52761858044459,0.7637725331787362
sh600227,2014-06-03,2.67,2.69,2.65,2.68,0.0037450000000000005,1926750.0,5154728.0,2547051970.0,2547051970.0,0.002027320235636967,15.84,2014-03-31 00:00:00,2014-04-29 00:00:00,-43.575152116660355,0.7199157046335143,7.444287229200915,0.7553175089831785
sh600227,2014-05-30,2.66,2.69,2.66,2.67,0.0,1894159.0,5054651.0,2537548040.0,2537548040.0,0.0019930280925834214,15.78,2014-03-31 00:00:00,2014-04-29 00:00:00,-43.412572034391545,0.7172296794838471,7.416512390299243,0.752499398734916
sh600227,2014-05-29,2.68,2.72,2.66,2.67,-0.0037310000000000004,4641838.0,12506931.0,2537548040.0,2537548040.0,0.00488412722227714,15.78,2014-03-31 00:00:00,2014-04-29 00:00:00,-43.412572034391545,0.7172296794838471,7.416512390299243,0.752499398734916
sh600227,2014-05-28,2.68,2.69,2.66,2.68,0.0037450000000000005,2343338.0,6259265.0,2547051970.0,2547051970.0,0.0024656528072334546,15.84,2014-03-31 00:00:00,2014-04-29 00:00:00,-43.575150922483346,0.719915684904225,7.44428702519023,0.7553174882837027
sh600227,2014-05-27,2.68,2.69,2.66,2.67,-0.0037310000000000004,1808601.0,4839596.0,2537548040.0,2537548040.0,0.001903004236325709,15.78,2014-03-31 00:00:00,2014-04-29 00:00:00,-43.41257084467004,0.7172296598281683,7.416512187049727,0.7524993781126706
sh600227,2014-05-26,2.67,2.69,2.66,2.68,0.0037450000000000005,2024628.0,5429944.0,2547051970.0,2547051970.0,0.0021303071566301807,15.84,2014-03-31 00:00:00,2014-04-29 00:00:00,-43.57514972830635,0.7199156651749359,7.4442868211795465,0.7553174675842272
sh600227,2014-05-23,2.66,2.67,2.65,2.67,0.003759,1063185.0,2824553.0,2537548040.0,2537548040.0,0.0011186798851697797,15.78,2014-03-31 00:00:00,2014-04-29 00:00:00,-43.41256965494856,0.7172296401724898,7.416511983800214,0.7524993574904255
sh600227,2014-05-22,2.68,2.69,2.65,2.66,-0.0037450000000000005,1668599.0,4456818.0,2528044120.0,2528044120.0,0.0017556945722925121,15.72,2014-03-31 00:00:00,2014-04-29 00:00:00,-43.24999293151898,0.7145436705150239,7.388737718715562,0.7496813054631893
sh600227,2014-05-21,2.65,2.68,2.59,2.67,0.007547,2347621.0,6185381.0,2537548040.0,2537548040.0,0.002470159370854709,15.78,2014-03-31 00:00:00,2014-04-29 00:00:00,-43.412573017469406,0.7172296957255159,7.416512558246193,0.7524994157752677
sh600227,2014-05-20,2.65,2.68,2.64,2.65,0.0,1265285.0,3360477.0,2518540190.0,2518540190.0,0.0013313288639638502,15.66,2014-03-31 00:00:00,2014-04-29 00:00:00,-43.08739246652454,0.7118573086173806,7.360959397671964,0.7468628419073927
sh600227,2014-05-19,2.67,2.67,2.63,2.65,-0.007490999999999999,1669513.0,4408885.0,2518540190.0,2518540190.0,0.001756656283495718,15.66,2014-03-31 00:00:00,2014-04-29 00:00:00,-43.08739246652454,0.7118573086173806,7.360959397671964,0.7468628419073927
sh600227,2014-05-16,2.66,2.69,2.64,2.67,0.0,1257854.0,3348851.0,2537548040.0,2537548040.0,0.0013235099895882168,15.78,2014-03-31 00:00:00,2014-04-29 00:00:00,-43.41259622484486,0.7172300791402201,7.416516522945348,0.7524998180443631
sh600227,2014-05-15,2.73,2.73,2.67,2.67,-0.018382,2245385.0,6042618.0,2537548040.0,2537548040.0,0.0023625869758903163,15.78,2014-03-31 00:00:00,2014-04-29 00:00:00,-43.41259622484486,0.7172300791402201,7.416516522945348,0.7524998180443631
sh600227,2014-05-14,2.69,2.73,2.68,2.72,0.011152,2976629.0,8091391.0,2585067670.0,2585067670.0,0.0031319995890088247,16.08,2014-03-31 00:00:00,2014-04-29 00:00:00,-44.22555029028079,0.7306610913208803,7.555399883605788,0.7665912993082472
sh600227,2014-05-13,2.7,2.72,2.66,2.69,-0.003704,2628910.0,7077123.0,2556555890.0,2556555890.0,0.002766130765089591,15.9,2014-03-31 00:00:00,2014-04-29 00:00:00,-43.73778649528537,0.7226026268265111,7.472071343977748,0.7581365603868134
sh600227,2014-05-12,2.64,2.71,2.64,2.7,0.022727,3151788.0,8470073.0,2566059820.0,2566059820.0,0.0033163013323672247,15.96,2014-03-31 00:00:00,2014-04-29 00:00:00,-43.900393553005706,0.7252890976441851,7.499850791308757,0.7609551382187758
sh600227,2014-05-09,2.64,2.66,2.61,2.64,0.0,2437457.0,6445188.0,2509036270.0,2509036270.0,0.002564684519287559,15.6,2014-03-31 00:00:00,2014-04-29 00:00:00,-42.924840698451995,0.7091717512534481,7.333189395907957,0.7440452224481957
sh600227,2014-05-08,2.61,2.65,2.6,2.64,0.011493999999999999,2137754.0,5624274.0,2509036270.0,2509036270.0,0.00224933797389864,15.6,2014-03-31 00:00:00,2014-04-29 00:00:00,-42.924840698451995,0.7091717512534481,7.333189395907957,0.7440452224481957
sh600227,2014-05-07,2.68,2.68,2.61,2.61,-0.02974,1835601.0,4856160.0,2480524490.0,2480524490.0,0.001931413549559432,15.43,2014-03-31 00:00:00,2014-04-29 00:00:00,-42.437069027055024,0.7011131566311299,7.249859510692063,0.7355903469997803
sh600227,2014-05-06,2.68,2.7,2.65,2.69,0.0074340000000000005,1506822.0,4037524.0,2556555890.0,2556555890.0,0.0015854733299024415,15.9,2014-03-31 00:00:00,2014-04-29 00:00:00,-43.73783215535529,0.7226033811876507,7.472079144447945,0.7581373518436092
sh600227,2014-05-05,2.67,2.69,2.64,2.69,0.011278,1434803.0,3826708.0,2556555890.0,2556555890.0,0.0015096951664921358,15.78,2014-03-31 00:00:00,2014-04-29 00:00:00,-43.415084417793416,0.7172711871821387,7.416941600589165,0.7525429475713636
sh600227,2014-04-30,2.68,2.68,2.64,2.66,-0.007462999999999999,1866553.0,4966120.0,2528044120.0,2528044120.0,0.00196398114286075,15.61,2014-03-31 00:00:00,2014-04-29 00:00:00,-42.93090961910911,0.7092720173702372,7.334226197533384,0.7441504191442548
sh600227,2014-04-29,2.64,2.69,2.58,2.68,0.015152,2988719.0,7899230.0,2547051970.0,2547051970.0,0.0031447206473765046,15.72,2014-03-31 00:00:00,2014-04-29 00:00:00,-43.253712072304715,0.7146051153460649,7.389373088895813,0.749745771839493
sh600227,2014-04-28,2.7,2.72,2.63,2.64,-0.029412,4646373.0,12329791.0,2509036270.0,2509036270.0,0.00488889892372899,15.49,2013-12-31 00:00:00,2014-02-18 00:00:00,226.55074998793373,0.604603672425539,13.672430276242519,0.7256051018939124
sh600227,2014-04-25,2.75,2.76,2.69,2.72,-0.014493,5065745.0,13758443.0,2585067670.0,2585067670.0,0.0053301608154807025,15.96,2013-12-31 00:00:00,2014-02-18 00:00:00,233.4159808156846,0.6229251468445303,14.086749760189202,0.7475933165193802
sh600227,2014-04-24,2.76,2.77,2.73,2.76,-0.00361,2134111.0,5867264.0,2623083370.0,2623083370.0,0.002245504823584772,16.19,2013-12-31 00:00:00,2014-02-18 00:00:00,236.84862798101344,0.6320859687902067,14.29391141837572,0.7585875255268407
sh600227,2014-04-23,2.74,2.79,2.72,2.77,0.014652000000000002,4336101.0,11979076.0,2632587300.0,2632587300.0,0.004562431707392952,16.25,2013-12-31 00:00:00,2014-02-18 00:00:00,237.7067493461531,0.6343760663898742,14.34569939318512,0.7613359483002046
sh600227,2014-04-22,2.75,2.76,2.7,2.73,-0.007273000000000001,4095585.0,11155668.0,2594571600.0,2594571600.0,0.004309361533904094,16.02,2013-12-31 00:00:00,2014-02-18 00:00:00,234.2741642909619,0.6252154101996292,14.138541483370771,0.7503419382213847
sh600227,2014-04-21,2.75,2.78,2.74,2.75,-0.014337,3444199.0,9511340.0,2613579450.0,2613579450.0,0.003623975253555043,16.13,2013-12-31 00:00:00,2014-02-18 00:00:00,235.990523367413,0.6297959158959402,14.242124454528554,0.7558391564059249
sh600227,2014-04-18,2.75,2.79,2.75,2.79,0.00722,2516372.0,6979277.0,2651595150.0,2651595150.0,0.0026477186308022926,16.37,2013-12-31 00:00:00,2014-02-18 00:00:00,239.42313282269194,0.6389566372035272,14.449283836898163,0.7668332446342461
sh600227,2014-04-17,2.77,2.8,2.76,2.77,0.0,3318083.0,9205394.0,2632587300.0,2632587300.0,0.0034912763994569148,16.25,2013-12-31 00:00:00,2014-02-18 00:00:00,237.70688908350905,0.6343764393116968,14.345707826391616,0.7613363958561646
sh600227,2014-04-16,2.78,2.79,2.75,2.77,-0.003597,3746814.0,10366070.0,2632587300.0,2632587300.0,0.0039423857966647494,16.25,2013-12-31 00:00:00,2014-02-18 00:00:00,237.70688908350905,0.6343764393116968,14.345707826391616,0.7613363958561646
sh600227,2014-04-15,2.84,2.84,2.76,2.78,-0.021127,4663634.0,13047119.0,2642091220.0,2642091220.0,0.004907060900039628,16.31,2013-12-31 00:00:00,2014-02-18 00:00:00,238.5650074151814,0.6366665288158474,14.397495618130028,0.7640848089138276
sh600227,2014-04-14,2.84,2.86,2.82,2.84,0.0,3425685.0,9699197.0,2699114770.0,2699114770.0,0.0036044948914862184,16.66,2013-12-31 00:00:00,2014-02-18 00:00:00,243.7139520807923,0.6504076921274234,14.708236531327382,0.7805760388874017
sh600227,2014-04-11,2.86,2.87,2.83,2.84,-0.010453,4130361.0,11750962.0,2699114770.0,2699114770.0,0.004345952743610083,16.66,2013-12-31 00:00:00,2014-02-18 00:00:00,243.7139520807923,0.6504076921274234,14.708236531327382,0.7805760388874017
sh600227,2014-04-10,2.86,2.88,2.83,2.87,0.0,5358809.0,15284161.0,2727626550.0,2727626550.0,0.0056385218240378255,16.84,2013-12-31 00:00:00,2014-02-18 00:00:00,246.28840477591496,0.6572782213754611,14.863605802783882,0.7888215909778936
sh600227,2014-04-09,2.85,2.91,2.85,2.87,0.007018000000000001,6860131.0,19693488.0,2727626550.0,2727626550.0,0.007218208068109618,16.84,2013-12-31 00:00:00,2014-02-18 00:00:00,246.28840477591496,0.6572782213754611,14.863605802783882,0.7888215909778936
sh600227,2014-04-08,2.82,2.93,2.81,2.85,0.014235,8731651.0,25031868.0,2708618700.0,2708618700.0,0.009187415471214166,16.72,2013-12-31 00:00:00,2014-02-18 00:00:00,244.57199849050855,0.6526975896910095,14.760019982546371,0.7833242215907695
sh600227,2014-04-04,2.79,2.82,2.77,2.81,0.010791,3273801.0,9151566.0,2670603000.0,2670603000.0,0.003444683021025589,16.49,2013-12-31 00:00:00,2014-02-18 00:00:00,241.13937942440222,0.6435368427346815,14.552860020159404,0.7723301025805357
sh600227,2014-04-03,2.79,2.82,2.77,2.78,-0.007143000000000001,5230195.0,14588945.0,2642091220.0,2642091220.0,0.005503194586899993,16.31,2013-12-31 00:00:00,2014-02-18 00:00:00,238.56502424774482,0.6366665737374804,14.397496633982103,0.7640848628257828
sh600227,2014-04-02,2.77,2.81,2.77,2.8,0.01083,7338779.0,20518802.0,2661099070.0,2661099070.0,0.007721839983958206,16.43,2013-12-31 00:00:00,2014-02-18 00:00:00,240.2813539590745,0.6412470010660956,14.501077832942814,0.7695819869586282
sh600227,2014-04-01,2.76,2.8,2.74,2.77,0.007273000000000001,4078007.0,11307220.0,2632587300.0,2632587300.0,0.00429086601990369,16.25,2013-12-31 00:00:00,2014-02-18 00:00:00,237.70698728675887,0.6343767013900413,14.345713752997845,0.7613367103851569
sh600227,2014-03-31,2.78,2.8,2.73,2.75,-0.00722,4231071.0,11635037.0,2613579450.0,2613579450.0,0.004451919473884752,16.13,2013-12-31 00:00:00,2014-02-18 00:00:00,235.9906274532911,0.6297961936734543,14.242130736153799,0.755839489776016
sh600227,2014-03-28,2.83,2.84,2.76,2.77,-0.028069999999999998,10205248.0,28507968.0,2632587300.0,2632587300.0,0.010737929549382845,16.25,2013-12-31 00:00:00,2014-02-18 00:00:00,237.70687106236136,0.6343763912180486,14.345706738807994,0.7613363381373678
sh600227,2014-03-27,2.85,2.88,2.82,2.85,0.0,5916192.0,16876155.0,2708618700.0,2708618700.0,0.0062249984466252115,16.72,2013-12-31 00:00:00,2014-02-18 00:00:00,244.57200730748238,0.6526976132211668,14.760020514654341,0.7833242498300987
sh600227,2014-03-26,2.9,2.92,2.81,2.85,-0.020619,11176903.0,31929545.0,2708618700.0,2708618700.0,0.011760301865301307,16.72,2013-12-31 00:00:00,2014-02-18 00:00:00,244.57200730748238,0.6526976132211668,14.760020514654341,0.7833242498300987
sh600227,2014-03-25,2.94,2.95,2.88,2.91,-0.013559,11709332.0,34138817.0,2765642250.0,2765642250.0,0.0123205219764053,17.07,2013-12-31 00:00:00,2014-02-18 00:00:00,249.72100470346308,0.6664389172560696,15.070764610151045,0.799815648690447
sh600227,2014-03-24,2.95,2.98,2.89,2.95,0.0,13864961.0,40729755.0,2803657950.0,2803657950.0,0.014588667975706524,17.31,2013-12-31 00:00:00,2014-02-18 00:00:00,253.15351318878984,0.6755993691017198,15.277917898942809,0.8108094135284796
sh600227,2014-03-21,2.88,2.97,2.86,2.95,0.027875,21056998.0,61871514.0,2803657950.0,2803657950.0,0.022156106489381135,17.31,2013-12-31 00:00:00,2014-02-18 00:00:00,253.15351318878984,0.6755993691017198,15.277917898942809,0.8108094135284796
sh600227,2014-03-20,2.91,2.93,2.84,2.87,-0.023809999999999998,13510324.0,39004935.0,2727626550.0,2727626550.0,0.014215520038841096,16.84,2013-12-31 00:00:00,2014-02-18 00:00:00,246.28822881069178,0.6572777517711003,14.863595183210805,0.7888210273899836
sh600227,2014-03-19,2.86,2.96,2.82,2.94,0.031579,26436225.0,77055898.0,2794154030.0,2794154030.0,0.02781611202013799,17.25,2013-12-31 00:00:00,2014-02-18 00:00:00,252.29538185260225,0.6733092448919783,15.226129322376593,0.8080609588194754
sh600227,2014-03-18,2.89,2.89,2.8,2.85,-0.017241,18277311.0,52133488.0,2708618700.0,2708618700.0,0.019231328628869025,16.72,2013-12-31 00:00:00,2014-02-18 00:00:00,244.57204135854087,0.6526977040943818,14.760022569649626,0.7833243588900853
sh600227,2014-03-17,2.74,2.94,2.73,2.9,0.06227100000000001,27651568.0,79198970.0,2756138330.0,2756138330.0,0.029094892055000737,17.01,2013-12-31 00:00:00,2014-02-18 00:00:00,248.86268287397098,0.6641482846703838,15.018964537236112,0.7970665838624579
sh600227,2014-03-14,2.71,2.76,2.7,2.73,-0.00365,3884009.0,10593711.0,2594571600.0,2594571600.0,0.004086741938437929,16.02,2013-12-31 00:00:00,2014-02-18 00:00:00,234.2741945077772,0.6252154908402694,14.138543306967913,0.7503420350009158
sh600227,2014-03-13,2.69,2.76,2.69,2.74,0.014815,6953481.0,19007103.0,2604075520.0,2604075520.0,0.007316430646373881,16.08,2013-12-31 00:00:00,2014-02-18 00:00:00,235.1324278695009,0.6275058873290204,14.190338040816897,0.7530908164810718
sh600227,2014-03-12,2.65,2.73,2.63,2.7,0.015038,3754732.0,10077037.0,2566059820.0,2566059820.0,0.003950717095909323,15.84,2013-12-31 00:00:00,2014-02-18 00:00:00,231.69979540064034,0.6183451046043074,13.98317726956824,0.7420966545440022
sh600227,2014-03-11,2.6,2.67,2.6,2.66,0.015267,3185145.0,8418733.0,2528044120.0,2528044120.0,0.003351399460544225,15.61,2013-12-31 00:00:00,2014-02-18 00:00:00,228.26711453230357,0.6091841927142702,13.776013577391428,0.7311023375913042
sh600227,2014-03-10,2.7,2.71,2.6,2.62,-0.036765,4649006.0,12304745.0,2490028420.0,2490028420.0,0.0048916693569304726,15.37,2013-12-31 00:00:00,2014-02-18 00:00:00,224.8345652250133,0.6000236319256611,13.568857824977497,0.7201084420071806
sh600227,2014-03-07,2.72,2.76,2.69,2.72,-0.0036630000000000005,4294825.0,11708748.0,2585067670.0,2585067670.0,0.004519001237596229,15.96,2013-12-31 00:00:00,2014-02-18 00:00:00,233.41610845226066,0.6229254874725909,14.086757463108688,0.7475937253185159
sh600227,2014-03-06,2.69,2.75,2.68,2.73,0.011111,5011856.0,13660801.0,2594571600.0,2594571600.0,0.00527345897103013,16.02,2013-12-31 00:00:00,2014-02-18 00:00:00,234.2742550485033,0.6252156524073591,14.138546960625458,0.7503422289029874
sh600227,2014-03-05,2.72,2.74,2.69,2.7,-0.007353,3769351.0,10245350.0,2566059820.0,2566059820.0,0.003966099161320409,15.84,2013-12-31 00:00:00,2014-02-18 00:00:00,231.69983814685358,0.6183452186825769,13.983179849319665,0.7420967914531514
sh600227,2014-03-04,2.76,2.76,2.69,2.72,-0.018050999999999998,7801756.0,21144160.0,2585067670.0,2585067670.0,0.008208982908366186,15.96,2013-12-31 00:00:00,2014-02-18 00:00:00,233.4161470763057,0.6229255905498903,14.086759794085577,0.7475938490250325
sh600227,2014-03-03,2.61,2.83,2.6,2.77,0.057252,9614961.0,26197045.0,2632587300.0,2632587300.0,0.01011683144182911,16.25,2013-12-31 00:00:00,2014-02-18 00:00:00,237.70699606222493,0.6343767248094252,14.345714282600806,0.7613367384915434
sh600227,2014-02-28,2.62,2.63,2.58,2.62,0.0,3945269.0,10268114.0,2490028420.0,2490028420.0,0.004151199519240829,15.37,2013-12-31 00:00:00,2014-02-18 00:00:00,224.83475657858762,0.6000241425974367,13.56886937324385,0.7201090548814695
sh600227,2014-02-27,2.66,2.68,2.59,2.62,-0.015038,5997435.0,15768638.0,2490028420.0,2490028420.0,0.006310482070722712,15.37,2013-12-31 00:00:00,2014-02-18 00:00:00,224.83475657858762,0.6000241425974367,13.56886937324385,0.7201090548814695
sh600227,2014-02-26,2.6,2.66,2.58,2.66,0.019157,3650729.0,9562463.0,2528044120.0,2528044120.0,0.003841285467755207,15.61,2013-12-31 00:00:00,2014-02-18 00:00:00,228.26744237705373,0.6091850676446774,13.77603336295598,0.7311033876245677
sh600227,2014-02-25,2.68,2.7,2.59,2.61,-0.02974,5801209.0,15455847.0,2480524490.0,2480524490.0,0.0061040137080041485,15.31,2013-12-31 00:00:00,2014-02-18 00:00:00,223.97672034539696,0.5977342721922897,13.517086536182333,0.7173609047718532
sh600227,2014-02-24,2.7,2.7,2.66,2.69,-0.011029,5304355.0,14200775.0,2556555890.0,2556555890.0,0.005581225509605425,15.78,2013-12-31 00:00:00,2014-02-18 00:00:00,230.84196024302452,0.6160557708163685,13.931406567499778,0.7393491484466569
sh600227,2014-02-21,2.77,2.82,2.7,2.72,-0.028571,8459712.0,23316003.0,2585067670.0,2585067670.0,0.008901282123883435,15.96,2013-12-31 00:00:00,2014-02-18 00:00:00,233.41630871180703,0.6229260219120364,14.08676954885409,0.7475943667171807
sh600227,2014-02-20,2.7,2.88,2.69,2.8,0.03321,16930464.0,47041393.0,2661099070.0,2661099070.0,0.017814180514519513,16.43,2013-12-31 00:00:00,2014-02-18 00:00:00,240.2813882556595,0.6412470925945554,14.501079902755723,0.7695820968049962
sh600227,2014-02-19,2.68,2.73,2.67,2.71,0.011193999999999999,5475997.0,14826533.0,2575563750.0,2575563750.0,0.005761826656397071,15.9,2013-12-31 00:00:00,2014-02-18 00:00:00,232.5581326696988,0.6206357783940878,14.034978274267306,0.7448457688224042
sh600227,2014-02-18,2.72,2.73,2.68,2.68,-0.014706,5263727.0,14197701.0,2547051970.0,2547051970.0,0.005538476845448898,15.72,2013-12-31 00:00:00,2014-02-18 00:00:00,229.9836951857891,0.6137652897407301,13.879609920813719,0.7366002654509464
sh600227,2014-02-17,2.71,2.72,2.69,2.72,0.0074069999999999995,5469237.0,14791554.0,2585067670.0,2585067670.0,0.005754713817607723,15.96,2013-09-30 00:00:00,2013-10-30 00:00:00,-21.141066914662606,0.5149077843923553,2.9371749960840123,0.7703916093162196
sh600227,2014-02-14,2.65,2.71,2.65,2.7,0.015038,7716603.0,20688636.0,2566059820.0,2566059820.0,0.008119385190326546,15.84,2013-09-30 00:00:00,2013-10-30 00:00:00,-20.98562638006546,0.5111219044461229,2.9155793002073764,0.7647272743947776
sh600227,2014-02-13,2.68,2.68,2.65,2.66,-0.007462999999999999,5299016.0,14124504.0,2528044120.0,2528044120.0,0.00557560781811039,15.61,2013-09-30 00:00:00,2013-10-30 00:00:00,-20.67471994158392,0.5035495266641473,2.872384383843143,0.7533976800817087
sh600227,2014-02-12,2.65,2.69,2.63,2.68,0.011321,6846360.0,18257347.0,2547051970.0,2547051970.0,0.007203718265709357,15.72,2013-09-30 00:00:00,2013-10-30 00:00:00,-20.830175541651265,0.507335773542092,2.89398217279874,0.759062563996817
sh600227,2014-02-11,2.64,2.67,2.63,2.65,0.0,6548418.0,17331018.0,2518540190.0,2518540190.0,0.006890224650336034,15.55,2013-09-30 00:00:00,2013-10-30 00:00:00,-20.596996939301434,0.5016565200782858,2.861586155927485,0.7505654129567338
sh600227,2014-02-10,2.57,2.65,2.57,2.65,0.031127999999999996,5598167.0,14691535.0,2518540190.0,2518540190.0,0.005890373561995847,15.55,2013-09-30 00:00:00,2013-10-30 00:00:00,-20.596996939301434,0.5016565200782858,2.861586155927485,0.7505654129567338
sh600227,2014-02-07,2.54,2.58,2.52,2.57,0.007843000000000001,2333462.0,5980735.0,2442508790.0,2442508790.0,0.0024552613135119974,15.08,2013-09-30 00:00:00,2013-10-30 00:00:00,-19.97520864461195,0.4865123632354913,2.775199738468439,0.7279071201215889
sh600227,2014-01-30,2.61,2.61,2.54,2.55,-0.022989,3422559.0,8772408.0,2423500940.0,2423500940.0,0.003601205721009541,14.96,2013-09-30 00:00:00,2013-10-30 00:00:00,-19.819762249290765,0.4827263405465845,2.753603228348502,0.722242571632277
sh600227,2014-01-29,2.61,2.63,2.6,2.61,0.0,2395790.0,6256453.0,2480524490.0,2480524490.0,0.0025208426384050737,15.31,2013-09-30 00:00:00,2013-10-30 00:00:00,-20.286119858722948,0.4940848573317849,2.8183953183213926,0.7392368884611095
sh600227,2014-01-28,2.62,2.63,2.6,2.61,-0.003817,1436181.0,3749846.0,2480524490.0,2480524490.0,0.0015111450925445206,15.31,2013-09-30 00:00:00,2013-10-30 00:00:00,-20.286119858722948,0.4940848573317849,2.8183953183213926,0.7392368884611095
sh600227,2014-01-27,2.63,2.63,2.6,2.62,-0.007576,2184525.0,5705062.0,2490028420.0,2490028420.0,0.0022985502711651783,15.37,2013-09-30 00:00:00,2013-10-30 00:00:00,-20.36384866909287,0.4959780053783139,2.8291943531674324,0.7420693672358486
sh600227,2014-01-24,2.61,2.64,2.59,2.64,0.011493999999999999,2686651.0,7051386.0,2509036270.0,2509036270.0,0.0028268856551842514,15.49,2013-09-30 00:00:00,2013-10-30 00:00:00,-20.5193029079233,0.49976421910223245,2.850791953003386,0.747734201546767
sh600227,2014-01-23,2.61,2.64,2.59,2.61,0.0,2356953.0,6165065.0,2480524490.0,2480524490.0,0.002479978470198454,15.31,2013-09-30 00:00:00,2013-10-30 00:00:00,-20.286134082775877,0.49408520377009896,2.8183972945003988,0.7392374067930874
sh600227,2014-01-22,2.57,2.62,2.57,2.61,0.015563999999999998,3261163.0,8470579.0,2480524490.0,2480524490.0,0.0034313853639880813,15.31,2013-09-30 00:00:00,2013-10-30 00:00:00,-20.286134082775877,0.49408520377009896,2.8183972945003988,0.7392374067930874
sh600227,2014-01-21,2.54,2.57,2.54,2.57,0.011811,2290549.0,5847752.0,2442508790.0,2442508790.0,0.0024101083910531185,15.08,2013-09-30 00:00:00,2013-10-30 00:00:00,-19.97523945588449,0.4865131136689554,2.7752040191464045,0.7279082429005826
sh600227,2014-01-20,2.54,2.54,2.52,2.54,0.0,1335617.0,3382080.0,2413997020.0,2413997020.0,0.0014053319668141098,14.9,2013-09-30 00:00:00,2013-10-30 00:00:00,-19.742065915358197,0.48083398348995554,2.7428087055254435,0.7194112763160143
sh600227,2014-01-17,2.57,2.58,2.54,2.54,-0.011673000000000001,2576054.0,6580047.0,2413997020.0,2413997020.0,0.002710515839824856,14.9,2013-09-30 00:00:00,2013-10-30 00:00:00,-19.742065915358197,0.48083398348995554,2.7428087055254435,0.7194112763160143
sh600227,2014-01-16,2.58,2.59,2.56,2.57,-0.007722,1867980.0,4810638.0,2442508790.0,2442508790.0,0.0019654826298496145,15.08,2013-09-30 00:00:00,2013-10-30 00:00:00,-19.975236855168582,0.48651305032641584,2.7752036578232144,0.7279081481291256
sh600227,2014-01-15,2.59,2.59,2.54,2.59,0.0,2043075.0,5239875.0,2461516640.0,2461516640.0,0.0021497170338040045,15.2,2013-09-30 00:00:00,2013-10-30 00:00:00,-20.13068601255755,0.4902991402877176,2.7968005516833125,0.7335727972696419
sh600227,2014-01-14,2.54,2.6,2.53,2.59,0.023715,2384963.0,6132182.0,2461516640.0,2461516640.0,0.0025094505028412073,15.2,2013-09-30 00:00:00,2013-10-30 00:00:00,-20.13068601255755,0.4902991402877176,2.7968005516833125,0.7335727972696419
sh600227,2014-01-13,2.53,2.57,2.51,2.53,0.0,2303586.0,5838544.0,2404493090.0,2404493090.0,0.002423825880073542,14.84,2013-09-30 00:00:00,2013-10-30 00:00:00,-19.664346046074886,0.4789410532108229,2.7320109128842622,0.7165791233591788
sh600227,2014-01-10,2.58,2.58,2.53,2.53,-0.01938,2245380.0,5730014.0,2404493090.0,2404493090.0,0.002362581711557341,14.84,2013-09-30 00:00:00,2013-10-30 00:00:00,-19.664346046074886,0.4789410532108229,2.7320109128842622,0.7165791233591788
sh600227,2014-01-09,2.62,2.64,2.55,2.58,-0.019011,3106813.0,8109267.0,2452012720.0,2452012720.0,0.0032689787759339196,15.14,2013-09-30 00:00:00,2013-10-30 00:00:00,-20.052972656151095,0.4884063686349686,2.7860036638904595,0.730740881645468
sh600227,2014-01-08,2.62,2.65,2.61,2.63,0.003817,2660393.0,6983200.0,2499532340.0,2499532340.0,0.002799257076225707,15.43,2013-09-30 00:00:00,2013-10-30 00:00:00,-20.44158767952657,0.49787140185564627,2.8399948051308006,0.7449022177062821
sh600227,2014-01-07,2.61,2.64,2.6,2.62,0.0,2496705.0,6545220.0,2490028420.0,2490028420.0,0.002627025076284069,15.37,2013-09-30 00:00:00,2013-10-30 00:00:00,-20.363858830371047,0.4959782528644626,2.8291957648961925,0.7420697375181753
sh600227,2014-01-06,2.71,2.71,2.61,2.62,-0.03321,4510081.0,11893037.0,2490028420.0,2490028420.0,0.004745492912888119,15.37,2013-09-30 00:00:00,2013-10-30 00:00:00,-20.363858830371047,0.4959782528644626,2.8291957648961925,0.7420697375181753
sh600227,2014-01-03,2.75,2.75,2.7,2.71,-0.018116,3416077.0,9271228.0,2575563750.0,2575563750.0,0.0035943853729110764,15.9,2013-09-30 00:00:00,2013-10-30 00:00:00,-21.063373463079927,0.5130154975376893,2.9263808737121733,0.7675604190343045
sh600227,2014-01-02,2.74,2.77,2.72,2.76,0.007298999999999999,3637342.0,9947311.0,2623083370.0,2623083370.0,0.0038271997126801197,16.19,2013-09-30 00:00:00,2013-10-30 00:00:00,-21.451997856243636,0.5224807589671379,2.9803733167178335,0.7817220965351349
sh600227,2013-12-31,2.71,2.74,2.7,2.74,0.007353,2299358.0,6266758.0,2604075520.0,2604075520.0,0.00241937719225593,16.08,2013-09-30 00:00:00,2013-10-30 00:00:00,-21.296554306361504,0.5186948055812007,2.958777201921012,0.7760576517351203
sh600227,2013-12-30,2.75,2.75,2.71,2.72,-0.0036630000000000005,2609942.0,7107599.0,2585067670.0,2585067670.0,0.002746172691100191,15.96,2013-09-30 00:00:00,2013-10-30 00:00:00,-21.141103770338212,0.5149086820421449,2.93718011652421,0.7703929523564435
sh600227,2013-12-27,2.7,2.75,2.68,2.73,0.01487,3473763.0,9428656.0,2594571600.0,2594571600.0,0.0036550823997302676,16.02,2013-09-30 00:00:00,2013-10-30 00:00:00,-21.21882833854229,0.5168017267672935,2.947978561996804,0.7732252765444257
sh600227,2013-12-26,2.75,2.75,2.68,2.69,-0.018248,3178703.0,8632886.0,2556555890.0,2556555890.0,0.003344621216162812,15.78,2013-09-30 00:00:00,2013-10-30 00:00:00,-20.907927457252942,0.5092294843352287,2.9047844177055233,0.7618958847383662
sh600227,2013-12-25,2.75,2.76,2.72,2.74,0.0,2003772.0,5495324.0,2604075520.0,2604075520.0,0.002108362540883607,16.08,2013-09-30 00:00:00,2013-10-30 00:00:00,-21.29654684406341,0.5186946238308948,2.9587761651674995,0.7760573798050487
sh600227,2013-12-24,2.74,2.77,2.72,2.74,0.0036630000000000005,2051425.0,5630727.0,2604075520.0,2604075520.0,0.002158502876291391,16.08,2013-09-30 00:00:00,2013-10-30 00:00:00,-21.29654684406341,0.5186946238308948,2.9587761651674995,0.7760573798050487
sh600227,2013-12-23,2.76,2.78,2.72,2.73,-0.01087,2258675.0,6181158.0,2594571600.0,2594571600.0,0.002376570663920009,16.02,2013-09-30 00:00:00,2013-10-30 00:00:00,-21.218822297985888,0.5168015796446565,2.947977722768997,0.7732250564233699
sh600227,2013-12-20,2.81,2.81,2.73,2.76,-0.017794,2617524.0,7241541.0,2623083370.0,2623083370.0,0.002754150448523487,16.19,2013-09-30 00:00:00,2013-10-30 00:00:00,-21.45200559884534,0.5224809475444648,2.980374392414543,0.7817223786796175
sh600227,2013-12-19,2.8,2.82,2.78,2.81,0.003571,2560500.0,7172110.0,2670603000.0,2670603000.0,0.0026941499728712955,16.49,2013-09-30 00:00:00,2013-10-30 00:00:00,-21.84063790981254,0.5319464018184218,3.034367935458084,0.795884344709376
sh600227,2013-12-18,2.8,2.81,2.78,2.8,0.007194,2662876.0,7457952.0,2661099070.0,2661099070.0,0.0028018696801092786,16.43,2013-09-30 00:00:00,2013-10-30 00:00:00,-21.762922513516774,0.5300535804825187,3.0235707642589156,0.7930523547505618
sh600227,2013-12-17,2.81,2.84,2.78,2.78,-0.010676,4145917.0,11627742.0,2642091220.0,2642091220.0,0.004362320715028151,16.31,2013-09-30 00:00:00,2013-10-30 00:00:00,-21.6074783145221,0.5262676112869207,3.0019745592794593,0.7873878862965444
sh600227,2013-12-16,2.88,2.89,2.81,2.81,-0.024306,3223340.0,9181187.0,2670603000.0,2670603000.0,0.003391588116990807,16.49,2013-09-30 00:00:00,2013-10-30 00:00:00,-21.84064908414443,0.5319466739783132,3.0343694879326284,0.7958847519079134
sh600227,2013-12-13,2.88,2.91,2.86,2.88,-0.00346,3238999.0,9337938.0,2737130470.0,2737130470.0,0.003408064475640432,16.9,2013-09-30 00:00:00,2013-10-30 00:00:00,-22.3847323896062,0.5451982629577646,3.109960180069395,0.8157114340232834
sh600227,2013-12-12,2.9,2.91,2.85,2.89,-0.0034479999999999997,4091402.0,11778425.0,2746634400.0,2746634400.0,0.0043049602014742115,16.96,2013-09-30 00:00:00,2013-10-30 00:00:00,-22.46245247517029,0.5470911985045905,3.1207580027589414,0.8185435948615043
sh600227,2013-12-11,2.9,2.93,2.87,2.9,0.0,5385442.0,15639941.0,2756138330.0,2756138330.0,0.00566654497345204,17.01,2013-09-30 00:00:00,2013-10-30 00:00:00,-22.540170984725624,0.5489840956664485,3.131555606490119,0.8213756982691363
sh600227,2013-12-10,2.93,2.93,2.9,2.9,-0.010239,3286314.0,9574576.0,2756138330.0,2756138330.0,0.0034578491566495504,17.01,2013-09-30 00:00:00,2013-10-30 00:00:00,-22.540170984725624,0.5489840956664485,3.131555606490119,0.8213756982691363
sh600227,2013-12-09,2.93,2.94,2.9,2.93,0.003425,4325026.0,12637659.0,2784650100.0,2784650100.0,0.004550778634629896,17.19,2013-09-30 00:00:00,2013-10-30 00:00:00,-22.773347287603393,0.5546632931247527,3.1639513038906553,0.8298727655152468
sh600227,2013-12-06,2.9,2.95,2.89,2.92,0.003436,3928155.0,11475476.0,2775146180.0,2775146180.0,0.004133192219805877,17.13,2013-09-30 00:00:00,2013-10-30 00:00:00,-22.695614806889797,0.5527700556840349,3.1531517591156843,0.8270401529912519
sh600227,2013-12-05,2.89,2.91,2.88,2.91,0.0034479999999999997,3206691.0,9282512.0,2765642250.0,2765642250.0,0.003374070095291609,17.07,2013-09-30 00:00:00,2013-10-30 00:00:00,-22.617899703508538,0.5508772414823018,3.142354628611774,0.8242081737063965
sh600227,2013-12-04,2.87,2.91,2.85,2.9,0.010453,4619491.0,13368846.0,2756138330.0,2756138330.0,0.004860613763170588,17.01,2013-09-30 00:00:00,2013-10-30 00:00:00,-22.54018115887275,0.5489843434660309,3.131557020006791,0.8213760690204143
sh600227,2013-12-03,2.8,2.87,2.79,2.87,0.017730000000000003,3494741.0,9897396.0,2727626550.0,2727626550.0,0.003677155389912157,16.84,2013-09-30 00:00:00,2013-10-30 00:00:00,-22.307006024894527,0.5433051744772205,3.0991614850040436,0.8128790443696187
sh600227,2013-12-02,2.9,2.9,2.78,2.82,-0.037543,7108152.0,20140169.0,2680106920.0,2680106920.0,0.007479174987541168,16.55,2013-09-30 00:00:00,2013-10-30 00:00:00,-21.918392918450397,0.5338401879449564,3.0451706100871974,0.7987177781627922
sh600227,2013-11-29,2.94,2.95,2.93,2.93,-0.00678,3462624.0,10168865.0,2784650100.0,2784650100.0,0.0036433619864844062,17.19,2013-09-30 00:00:00,2013-10-30 00:00:00,-22.773373686772914,0.5546639360978791,3.163954971585429,0.8298737275148835
sh600227,2013-11-28,2.92,2.96,2.91,2.95,0.0068260000000000005,5416893.0,15951688.0,2803657950.0,2803657950.0,0.0056996376287628105,17.31,2013-09-30 00:00:00,2013-10-30 00:00:00,-22.928831162051626,0.5584502286481133,3.1855530210682725,0.8355386797636815
sh600227,2013-11-27,2.93,2.94,2.89,2.93,0.0,4196559.0,12228473.0,2784650100.0,2784650100.0,0.004415606064833783,17.19,2013-09-30 00:00:00,2013-10-30 00:00:00,-22.773380069695882,0.5546640915591307,3.1639558583789773,0.8298739601119571
sh600227,2013-11-26,2.94,2.96,2.91,2.93,0.003425,3724180.0,10914507.0,2784650100.0,2784650100.0,0.003918570379811812,17.19,2013-09-30 00:00:00,2013-10-30 00:00:00,-22.773380069695882,0.5546640915591307,3.1639558583789773,0.8298739601119571
sh600227,2013-11-25,2.95,2.95,2.91,2.92,-0.013513999999999998,4648506.0,13632594.0,2775146180.0,2775146180.0,0.004891143255019452,17.13,2013-09-30 00:00:00,2013-10-30 00:00:00,-22.695647477086858,0.5527708513931092,3.153156298058128,0.8270413435104339
sh600227,2013-11-22,2.91,3.02,2.91,2.96,0.017182,9757420.0,28989147.0,2813161880.0,2813161880.0,0.010266726349924805,17.37,2013-09-30 00:00:00,2013-10-30 00:00:00,-23.006558103294783,0.560343331170548,3.196351796232413,0.838371090426457
sh600227,2013-11-21,2.91,2.93,2.87,2.91,-0.003425,4440048.0,12911079.0,2765642250.0,2765642250.0,0.004671804417219906,17.07,2013-09-30 00:00:00,2013-10-30 00:00:00,-22.617936714663436,0.5508781429189152,3.1423597706530524,0.8242095224123677
sh600227,2013-11-20,2.9,2.92,2.87,2.92,0.0068969999999999995,4489423.0,12967017.0,2775146180.0,2775146180.0,0.00472375662747971,17.13,2013-09-30 00:00:00,2013-10-30 00:00:00,-22.695669382297808,0.5527713849122396,3.153159341397338,0.8270421417478541
sh600227,2013-11-19,2.91,2.91,2.88,2.9,0.0,3320222.0,9601385.0,2756138330.0,2756138330.0,0.0034935270465905823,17.01,2013-09-30 00:00:00,2013-10-30 00:00:00,-22.540209556983292,0.5489850351249826,3.1315609654188443,0.8213771038625144
sh600227,2013-11-18,2.87,2.9,2.86,2.9,0.013986000000000002,4696769.0,13553708.0,2756138330.0,2756138330.0,0.004941925429410504,17.01,2013-09-30 00:00:00,2013-10-30 00:00:00,-22.540209556983292,0.5489850351249826,3.1315609654188443,0.8213771038625144
sh600227,2013-11-15,2.81,2.88,2.81,2.86,0.014184,4635540.0,13236829.0,2718122620.0,2718122620.0,0.004877500485978811,16.78,2013-09-30 00:00:00,2013-10-30 00:00:00,-22.229310421429183,0.5414128352117117,3.088367063666406,0.8100477756719662
sh600227,2013-11-14,2.79,2.82,2.75,2.82,0.010753,1891316.0,5285723.0,2680106920.0,2680106920.0,0.0019900366959986803,16.55,2013-09-30 00:00:00,2013-10-30 00:00:00,-21.91841955841266,0.5338408367827846,3.045174311235837,0.7987187489370432
sh600227,2013-11-13,2.84,2.84,2.79,2.79,-0.017606,3244776.0,9106939.0,2651595150.0,2651595150.0,0.0034141430074647707,16.37,2013-09-30 00:00:00,2013-10-30 00:00:00,-21.68523819213266,0.5281615160012235,3.0127779103656747,0.7902214971778894
sh600227,2013-11-12,2.8,2.86,2.8,2.84,0.014286000000000002,3538889.0,10021628.0,2699114770.0,2699114770.0,0.0037236077812282135,16.66,2013-09-30 00:00:00,2013-10-30 00:00:00,-22.07387076074636,0.5376269765503693,3.066771489204611,0.804383472596422
sh600227,2013-11-11,2.82,2.82,2.78,2.8,-0.007092,2656015.0,7434054.0,2661099070.0,2661099070.0,0.002794650557673525,16.43,2013-09-30 00:00:00,2013-10-30 00:00:00,-21.762965042154143,0.5300546163018806,3.0235766728561875,0.7930539045164992
sh600227,2013-11-08,2.87,2.87,2.8,2.82,-0.017422,4225394.0,11934809.0,2680106920.0,2680106920.0,0.004445946163968712,16.55,2013-09-30 00:00:00,2013-10-30 00:00:00,-21.918410408773163,0.5338406139359141,3.0451730400562664,0.7987184155193625
sh600227,2013-11-07,2.9,2.91,2.86,2.87,-0.00692,3073384.0,8836688.0,2727626550.0,2727626550.0,0.003233804891655715,16.84,2013-09-30 00:00:00,2013-10-30 00:00:00,-22.307043724542137,0.543306092682631,3.099166722699131,0.8128804181646268
sh600227,2013-11-06,2.93,2.94,2.89,2.89,-0.013652000000000001,3347735.0,9773240.0,2746634400.0,2746634400.0,0.003522476143894506,16.96,2013-09-30 00:00:00,2013-10-30 00:00:00,-22.462484114615275,0.5470919691088644,3.1207623984967285,0.818544747819538
sh600227,2013-11-05,2.91,2.94,2.88,2.93,0.006873000000000001,3079447.0,8966883.0,2784650100.0,2784650100.0,0.0032401843628396976,17.19,2013-09-30 00:00:00,2013-10-30 00:00:00,-22.773386385550815,0.5546642453868861,3.1639567358546157,0.8298741902650363
sh600227,2013-11-04,2.9,2.92,2.88,2.91,0.0034479999999999997,2392809.0,6955014.0,2765642250.0,2765642250.0,0.0025177060373589534,17.07,2013-09-30 00:00:00,2013-10-30 00:00:00,-22.61793332977527,0.5508780604772261,3.1423593003830828,0.8242093990652607
sh600227,2013-11-01,2.9,2.92,2.84,2.9,-0.003436,4589400.0,13236101.0,2756138330.0,2756138330.0,0.00482895210851046,17.01,2013-09-30 00:00:00,2013-10-30 00:00:00,-22.540214669594512,0.5489851596467641,3.131561675725183,0.8213772901687589
sh600227,2013-10-31,2.94,2.94,2.88,2.91,-0.010204000000000001,4817728.0,14010273.0,2765642250.0,2765642250.0,0.005069198114832097,17.07,2013-09-30 00:00:00,2013-10-30 00:00:00,-22.617929876650685,0.5508779763735838,3.1423588206328774,0.8242092732315827
sh600227,2013-10-30,2.92,2.96,2.9,2.94,-0.010101,7336753.0,21466964.0,2794154030.0,2794154030.0,0.007719708215226775,17.25,2013-09-30 00:00:00,2013-10-30 00:00:00,-22.851102526834502,0.5565570848675725,3.174754010556597,0.8327062073716025
sh600227,2013-10-29,3.04,3.08,2.9,2.97,-0.023025999999999998,5266985.0,15759153.0,2822665800.0,2822665800.0,0.005541904907764851,17.43,2013-06-30 00:00:00,2013-08-27 00:00:00,348.3465315617844,0.5864045726280743,3.345991604717928,0.8134007044251629
sh600227,2013-10-28,3.11,3.15,3.03,3.04,-0.022508,5504790.0,16926577.0,2889193280.0,2889193280.0,0.005792122567860881,17.84,2013-06-30 00:00:00,2013-08-27 00:00:00,356.5566039237322,0.6002253618090905,3.424852252688329,0.832571495684801
sh600227,2013-10-25,3.17,3.2,3.09,3.11,-0.018927,4564548.0,14337604.0,2955720760.0,2955720760.0,0.004802802914305071,18.25,2013-06-30 00:00:00,2013-08-27 00:00:00,364.76677448381395,0.6140463162962873,3.503713843886527,0.8517425162403386
sh600227,2013-10-24,3.16,3.2,3.12,3.17,0.003165,5113985.0,16220449.0,3012744310.0,3012744310.0,0.005380918784309313,18.6,2013-06-30 00:00:00,2013-08-27 00:00:00,371.8039070322126,0.6258925852574551,3.5713079902173708,0.8681744541337275
sh600227,2013-10-23,3.22,3.23,3.16,3.16,-0.018634,5047048.0,16085247.0,3003240380.0,3003240380.0,0.005310487893746288,18.54,2013-06-30 00:00:00,2013-08-27 00:00:00,370.63086035917576,0.6239178851509523,3.5600404621546513,0.8654353512470306
sh600227,2013-10-22,3.19,3.23,3.17,3.22,0.00625,7172616.0,22982037.0,3060263930.0,3060263930.0,0.007547003803688265,18.89,2013-06-30 00:00:00,2013-08-27 00:00:00,377.66833205875866,0.6357647250372973,3.6276378661525377,0.8818680810696832
sh600227,2013-10-21,3.17,3.2,3.15,3.2,0.012657999999999999,5253814.0,16701981.0,3041256080.0,3041256080.0,0.0055280464248179985,18.77,2013-06-30 00:00:00,2013-08-27 00:00:00,375.32256602112665,0.6318158758134631,3.6051059539404102,0.8763906395723559
sh600227,2013-10-18,3.15,3.17,3.13,3.16,0.003175,3274103.0,10324332.0,3003240380.0,3003240380.0,0.003445000789447297,18.54,2013-06-30 00:00:00,2013-08-27 00:00:00,370.6311173378639,0.6239183177474162,3.5600429305258134,0.8654359513007903
sh600227,2013-10-17,3.15,3.18,3.13,3.15,0.0,4024227.0,12691412.0,2993736460.0,2993736460.0,0.004234278875034979,18.48,2013-06-30 00:00:00,2013-08-27 00:00:00,369.4580879087536,0.6219436466692414,3.5487755680971054,0.8626968886792338
sh600227,2013-10-16,3.2,3.21,3.13,3.15,-0.015625,5999341.0,18956988.0,2993736460.0,2993736460.0,0.006312487556102383,18.48,2013-06-30 00:00:00,2013-08-27 00:00:00,369.4580879087536,0.6219436466692414,3.5487755680971054,0.8626968886792338
sh600227,2013-10-15,3.22,3.24,3.18,3.2,-0.009288,6618015.0,21164352.0,3041256080.0,3041256080.0,0.006963454389542889,18.77,2013-06-30 00:00:00,2013-08-27 00:00:00,375.3225020025433,0.6318157680449435,3.6051053390192815,0.8763904900868406
sh600227,2013-10-14,3.19,3.25,3.17,3.23,0.012539,8781208.0,28278254.0,3069767860.0,3069767860.0,0.009239559189338832,18.95,2013-06-30 00:00:00,2013-08-27 00:00:00,378.8411788719056,0.6377390887007967,3.6389034744903483,0.8846067172769086
sh600227,2013-10-11,3.15,3.21,3.15,3.19,0.012698000000000001,5897099.0,18772626.0,3031752160.0,3031752160.0,0.006204908850464874,18.72,2013-06-30 00:00:00,2013-08-27 00:00:00,374.14971558814574,0.6298415060563558,3.5938403108328147,0.8736519949126981
sh600227,2013-10-10,3.15,3.17,3.14,3.15,0.0,4339249.0,13680681.0,2993736460.0,2993736460.0,0.0045657440234401925,18.48,2013-06-30 00:00:00,2013-08-27 00:00:00,369.4583336672391,0.62194406037768,3.5487779286942542,0.8626974625334483
sh600227,2013-10-09,3.15,3.16,3.12,3.15,0.0031850000000000003,4272527.0,13429115.0,2993736460.0,2993736460.0,0.004495539346840169,18.48,2013-06-30 00:00:00,2013-08-27 00:00:00,369.4583336672391,0.62194406037768,3.5487779286942542,0.8626974625334483
sh600227,2013-10-08,3.1,3.16,3.09,3.14,0.012903,4933077.0,15408351.0,2984232530.0,2984232530.0,0.0051905679682407325,18.42,2013-06-30 00:00:00,2013-08-27 00:00:00,368.2853448439113,0.6199694576550487,3.5375109562984446,0.8599584947277406
sh600227,2013-09-30,3.1,3.13,3.08,3.1,0.0,3229709.0,10017184.0,2946216830.0,2946216830.0,0.003398289561736025,18.19,2013-06-30 00:00:00,2013-08-27 00:00:00,363.5938928445382,0.6120718940066805,3.4924479010314355,0.8490037987129473
sh600227,2013-09-27,3.17,3.17,3.09,3.1,-0.025157,8250397.0,25720121.0,2946216830.0,2946216830.0,0.008681041544386264,18.19,2013-06-30 00:00:00,2013-08-27 00:00:00,363.5938928445382,0.6120718940066805,3.4924479010314355,0.8490037987129473
sh600227,2013-09-26,3.15,3.26,3.14,3.18,0.019231,17538046.0,56252538.0,3022248230.0,3022248230.0,0.01845347636451424,18.66,2013-06-30 00:00:00,2013-08-27 00:00:00,372.9768720137891,0.6278671478450176,3.5825747336047296,0.8709133662681553
sh600227,2013-09-25,3.13,3.15,3.11,3.12,-0.003195,5013852.0,15688256.0,2965224680.0,2965224680.0,0.0052755591660595515,18.31,2013-06-30 00:00:00,2013-08-27 00:00:00,365.9394896876067,0.6160204584093474,3.5149781880699558,0.854480845135357
sh600227,2013-09-24,3.16,3.16,3.13,3.13,-0.012618,4739862.0,14878279.0,2974728610.0,2974728610.0,0.004987267749443536,18.36,2013-06-30 00:00:00,2013-08-27 00:00:00,367.112413849857,0.617994952281888,3.5262445393732533,0.8572196619553043
sh600227,2013-09-23,3.15,3.18,3.13,3.17,0.009554,4143792.0,13095973.0,3012744310.0,3012744310.0,0.004360084789273072,18.6,2013-06-30 00:00:00,2013-08-27 00:00:00,371.803834635285,0.6258924633848785,3.571307294819283,0.8681742850845006
sh600227,2013-09-18,3.12,3.15,3.11,3.14,0.0,3304045.0,10355508.0,2984232530.0,2984232530.0,0.0034765056662658927,18.42,2013-06-30 00:00:00,2013-08-27 00:00:00,368.28523747643516,0.6199692769132492,3.537509924995873,0.8599582440211228
sh600227,2013-09-17,3.17,3.2,3.13,3.14,-0.012579,4102531.0,12963068.0,2984232530.0,2984232530.0,0.004316670102111648,18.42,2013-06-30 00:00:00,2013-08-27 00:00:00,368.28523747643516,0.6199692769132492,3.537509924995873,0.8599582440211228
sh600227,2013-09-16,3.2,3.21,3.14,3.18,-0.00625,4389546.0,13925561.0,3022248230.0,3022248230.0,0.0046186663760574035,18.66,2013-06-30 00:00:00,2013-08-27 00:00:00,372.97691407863016,0.6278672186567321,3.5825751376524018,0.8709134644909543
sh600227,2013-09-13,3.25,3.25,3.17,3.2,-0.015385,5642669.0,18110123.0,3041256080.0,3041256080.0,0.00593719842230451,18.77,2013-06-30 00:00:00,2013-08-27 00:00:00,375.32268083384173,0.6318160690885356,3.6051070567571344,0.8763909076638535
sh600227,2013-09-12,3.24,3.26,3.18,3.25,0.0,7770203.0,25098716.0,3088775710.0,3088775710.0,0.008175782938282689,19.07,2013-06-30 00:00:00,2013-08-27 00:00:00,381.1872466231387,0.6416884458275931,3.6614382847682947,0.890084863285501
sh600227,2013-09-11,3.2,3.3,3.19,3.25,0.012461,15042517.0,48887492.0,3088775710.0,3088775710.0,0.015827688650789085,19.07,2013-06-30 00:00:00,2013-08-27 00:00:00,381.1872466231387,0.6416884458275931,3.6614382847682947,0.890084863285501
sh600227,2013-09-10,3.17,3.23,3.14,3.21,0.015823,8639405.0,27544299.0,3050760010.0,3050760010.0,0.009090354521200113,18.83,2013-06-30 00:00:00,2013-08-27 00:00:00,376.49573329060456,0.6337907789313298,3.616374640374587,0.8791300240557425
sh600227,2013-09-09,3.13,3.17,3.11,3.16,0.012821,5588889.0,17605622.0,3003240380.0,3003240380.0,0.005880611274945631,18.54,2013-06-30 00:00:00,2013-08-27 00:00:00,370.6312352551622,0.6239185162487264,3.5600440631631574,0.8654362266415927
sh600227,2013-09-06,3.14,3.16,3.1,3.12,-0.006369,5632309.0,17602648.0,2965224680.0,2965224680.0,0.0059262976591709735,18.31,2013-06-30 00:00:00,2013-08-27 00:00:00,365.93952461013566,0.6160205171977343,3.5149785235131947,0.8544809266806205
sh600227,2013-09-05,3.19,3.19,3.13,3.14,-0.015674,4745799.0,14985664.0,2984232530.0,2984232530.0,0.004993514650817107,18.42,2013-06-30 00:00:00,2013-08-27 00:00:00,368.2851326197911,0.6199691003981702,3.5375089178107313,0.8599579991773812
sh600227,2013-09-04,3.2,3.2,3.16,3.19,-0.003125,4070767.0,12950996.0,3031752160.0,3031752160.0,0.0042832481168249585,18.72,2013-06-30 00:00:00,2013-08-27 00:00:00,374.1495527089512,0.6298412318664449,3.59383874632056,0.8736516145843768
sh600227,2013-09-03,3.16,3.22,3.15,3.2,0.006289,6090354.0,19447378.0,3041256080.0,3041256080.0,0.006408251159172364,18.77,2013-06-30 00:00:00,2013-08-27 00:00:00,375.3224353193241,0.631815655790791,3.6051046985033826,0.876390334379312
sh600227,2013-09-02,3.19,3.19,3.11,3.18,-0.003135,5128691.0,16169998.0,3022248230.0,3022248230.0,0.00539639240023643,18.66,2013-06-30 00:00:00,2013-08-27 00:00:00,372.9767843227186,0.6278670002263677,3.5825738913009917,0.8709131615065973
sh600227,2013-08-30,3.21,3.26,3.17,3.19,-0.015432,8771887.0,28172033.0,3031752160.0,3031752160.0,0.009229751659515598,18.72,2013-06-30 00:00:00,2013-08-27 00:00:00,374.14974376943576,0.6298415534965793,3.5938405815240695,0.8736520607169449
sh600227,2013-08-29,3.12,3.26,3.11,3.24,0.041801,10849409.0,34572015.0,3079271780.0,3079271780.0,0.011415713737356436,19.01,2013-06-30 00:00:00,2013-08-27 00:00:00,380.0141216954398,0.6397136139876367,3.6501700050418764,0.8873455776715727
sh600227,2013-08-28,3.14,3.15,3.09,3.11,-0.015823,7090583.0,22099134.0,2955720760.0,2955720760.0,0.007460688921777576,18.25,2013-06-30 00:00:00,2013-08-27 00:00:00,364.7665165376495,0.6140458820711793,3.503711366222413,0.8517419139274897
sh600227,2013-08-27,3.14,3.17,3.12,3.16,0.006369,4586373.0,14455295.0,3003240380.0,3003240380.0,0.004825767120246299,18.54,2013-06-30 00:00:00,2013-08-27 00:00:00,370.63101102509967,0.6239181387811128,3.560041909354123,0.8654357030569599
sh600227,2013-08-26,3.11,3.16,3.1,3.14,0.016181,5754903.0,18019911.0,2984232530.0,2984232530.0,0.0060552906780357366,18.42,2013-03-31 00:00:00,2013-04-26 00:00:00,86.267459050645,0.7054581931711624,6.660388061899675,0.8646756450483678
sh600227,2013-08-23,3.18,3.2,3.08,3.09,-0.028301999999999997,7437249.0,23306620.0,2936712910.0,2936712910.0,0.007825449784943398,18.13,2013-03-31 00:00:00,2013-04-26 00:00:00,84.89379259270248,0.6942249394263054,6.554332409186626,0.8509071169883788
sh600227,2013-08-22,3.19,3.22,3.14,3.18,-0.00625,6469749.0,20566805.0,3022248230.0,3022248230.0,0.0068074493735413655,18.66,2013-03-31 00:00:00,2013-04-26 00:00:00,87.36643750702635,0.7144451665294211,6.7452360807438385,0.875690921447177
sh600227,2013-08-21,3.22,3.23,3.16,3.2,-0.012346,9143312.0,29213862.0,3041256080.0,3041256080.0,0.009620563882275905,18.77,2013-03-31 00:00:00,2013-04-26 00:00:00,87.91591195675608,0.7189385323566502,6.78765894917619,0.8811984115191717
sh600227,2013-08-20,3.33,3.44,3.22,3.24,-0.044248,27061106.0,89619161.0,3079271780.0,3079271780.0,0.0284736099000654,19.01,2013-03-31 00:00:00,2013-04-26 00:00:00,89.0148897860547,0.7279255005868959,6.87250691960564,0.8922136816326078
sh600227,2013-08-19,3.18,3.4,3.11,3.39,0.066038,29329455.0,95763350.0,3221830660.0,3221830660.0,0.03086035951063921,19.89,2013-03-31 00:00:00,2013-04-26 00:00:00,93.13597019525429,0.761625924493902,7.1906801341829665,0.9335200780459865
sh600227,2013-08-16,3.23,3.36,3.18,3.18,-0.036364,10846128.0,35464076.0,3022248230.0,3022248230.0,0.011412261473969001,18.66,2013-03-31 00:00:00,2013-04-26 00:00:00,87.36646366757498,0.7144453804591412,6.745238100502015,0.8756911836594816
sh600227,2013-08-15,3.2,3.55,3.16,3.3,0.01227,20972307.0,69538252.0,3136295340.0,3136295340.0,0.022066994844943396,19.36,2013-03-31 00:00:00,2013-04-26 00:00:00,90.66334556572706,0.7414058632711326,6.999778028739082,0.9087364769056796
sh600227,2013-08-14,3.14,3.27,3.07,3.26,0.041533999999999995,27684707.0,87313412.0,3098279630.0,3098279630.0,0.029129760898954103,19.13,2013-03-31 00:00:00,2013-04-26 00:00:00,89.56439049436126,0.7324190811454776,6.914931815364559,0.8977214348994633
sh600227,2013-08-13,2.99,3.14,2.99,3.13,0.039867,15127395.0,46419200.0,2974728610.0,2974728610.0,0.01591699699624027,18.36,2013-03-31 00:00:00,2013-04-26 00:00:00,85.9927669133809,0.7032118789645635,6.639180108728626,0.8619223519342272
sh600227,2013-08-12,2.94,3.03,2.91,3.01,0.023809999999999998,9721080.0,28957524.0,2860681500.0,2860681500.0,0.01022848953999248,17.66,2013-03-31 00:00:00,2013-04-26 00:00:00,82.69592833831719,0.676251750430164,6.384643525305278,0.8288774929238326
sh600227,2013-08-09,2.92,2.94,2.89,2.94,0.010309,3647019.0,10648917.0,2794154030.0,2794154030.0,0.003837381813915248,17.25,2013-03-31 00:00:00,2013-04-26 00:00:00,80.77272964545881,0.6605246583156679,6.236160542781646,0.8096008955996059
sh600227,2013-08-08,2.91,2.93,2.9,2.91,0.0,2374306.0,6924229.0,2765642250.0,2765642250.0,0.0024982372394694217,17.07,2013-03-31 00:00:00,2013-04-26 00:00:00,79.94854014510295,0.6537847909062158,6.172527952123209,0.8013398827483532
sh600227,2013-08-07,2.94,2.96,2.91,2.91,-0.013559,3174386.0,9293625.0,2765642250.0,2765642250.0,0.0033400788767961585,17.07,2013-03-31 00:00:00,2013-04-26 00:00:00,79.94854014510295,0.6537847909062158,6.172527952123209,0.8013398827483532
sh600227,2013-08-06,2.93,2.96,2.89,2.95,0.010274,4298000.0,12588967.0,2803657950.0,2803657950.0,0.004522341964004561,17.31,2013-03-31 00:00:00,2013-04-26 00:00:00,81.04746269174026,0.6627713070586236,6.2573716543850155,0.812354598752843
sh600227,2013-08-05,2.88,2.93,2.86,2.92,0.013888999999999999,3878307.0,11242893.0,2775146180.0,2775146180.0,0.004080742312464419,17.13,2013-03-31 00:00:00,2013-04-26 00:00:00,80.22324903119379,0.6560312420775193,6.1937371984085665,0.8040933437392659
sh600227,2013-08-02,2.87,2.9,2.86,2.88,0.0,4084153.0,11748092.0,2737130470.0,2737130470.0,0.004297332834119522,16.9,2013-03-31 00:00:00,2013-04-26 00:00:00,79.12429174317286,0.6470444418250118,6.108890813894388,0.7930782795150809
sh600227,2013-08-01,2.83,2.88,2.81,2.88,0.017668,3100186.0,8846104.0,2737130470.0,2737130470.0,0.0032620058772719006,16.9,2013-03-31 00:00:00,2013-04-26 00:00:00,79.12429174317286,0.6470444418250118,6.108890813894388,0.7930782795150809
sh600227,2013-07-31,2.84,2.86,2.81,2.83,0.0,2549418.0,7221652.0,2689610850.0,2689610850.0,0.002682489528178398,16.6,2013-03-31 00:00:00,2013-04-26 00:00:00,77.75059424406865,0.6358109342388791,6.002832764609271,0.7793094403234463
sh600227,2013-07-30,2.82,2.86,2.79,2.83,0.003546,3330289.0,9404518.0,2689610850.0,2689610850.0,0.0035041195160258965,16.6,2013-03-31 00:00:00,2013-04-26 00:00:00,77.75059424406865,0.6358109342388791,6.002832764609271,0.7793094403234463
sh600227,2013-07-29,2.86,2.88,2.8,2.82,-0.024221,3524330.0,9962769.0,2680106920.0,2680106920.0,0.003708288846924062,16.55,2013-03-31 00:00:00,2013-04-26 00:00:00,77.47586482739072,0.6335643151772605,5.981621933234023,0.7765557735504364
sh600227,2013-07-26,2.92,2.94,2.86,2.89,-0.006873000000000001,3455507.0,9966851.0,2746634400.0,2746634400.0,0.0036358735003100525,16.96,2013-03-31 00:00:00,2013-04-26 00:00:00,79.39898770868274,0.6492907873373589,6.130099062629984,0.7958316110004791
sh600227,2013-07-25,2.93,2.97,2.91,2.91,-0.026756,6791001.0,19899255.0,2765642250.0,2765642250.0,0.007145469704188964,17.07,2013-03-31 00:00:00,2013-04-26 00:00:00,79.94847356751225,0.6537842464633011,6.172522811916285,0.8013392154281166
sh600227,2013-07-24,3.02,3.09,2.98,2.99,0.034602,17712108.0,53584202.0,2841673650.0,2841673650.0,0.018636623850173648,17.54,2013-03-31 00:00:00,2013-04-26 00:00:00,82.14638216882123,0.6717577981095194,6.342215119657851,0.8233692839905682
sh600227,2013-07-23,2.81,2.9,2.8,2.89,0.02847,3348095.0,9577021.0,2746634400.0,2746634400.0,0.0035228549347521465,16.96,2013-03-31 00:00:00,2013-04-26 00:00:00,79.3990173697917,0.6492910298931565,6.13010135265334,0.7958319082995859
sh600227,2013-07-22,2.81,2.82,2.77,2.81,0.0,1582525.0,4424134.0,2670603000.0,2670603000.0,0.0016651277820027913,16.49,2013-03-31 00:00:00,2013-04-26 00:00:00,77.20110199596652,0.6313174228642123,5.9604085220311145,0.7738017718548775
sh600227,2013-07-19,2.86,2.87,2.8,2.81,-0.017483000000000002,3095257.0,8801786.0,2670603000.0,2670603000.0,0.0032568195909313366,16.49,2013-03-31 00:00:00,2013-04-26 00:00:00,77.20110199596652,0.6313174228642123,5.9604085220311145,0.7738017718548775
sh600227,2013-07-18,2.9,2.9,2.85,2.86,-0.013793000000000001,2813371.0,8069363.0,2718122620.0,2718122620.0,0.002960220043347419,16.78,2013-03-31 00:00:00,2013-04-26 00:00:00,78.57482567321128,0.642551144523924,6.066468592432614,0.7875708734351442
sh600227,2013-07-17,2.92,2.95,2.89,2.9,-0.010239,3076871.0,8958724.0,2756138330.0,2756138330.0,0.0032374738970376714,17.01,2013-03-31 00:00:00,2013-04-26 00:00:00,79.6737659266374,0.6515378054748386,6.151313661769399,0.7985857669182477
sh600227,2013-07-16,2.91,2.94,2.87,2.93,0.006873000000000001,3659386.0,10651784.0,2784650100.0,2784650100.0,0.0038503943385921275,17.19,2013-03-31 00:00:00,2013-04-26 00:00:00,80.49798479293223,0.658277913026315,6.2149485196622205,0.8068470741100605
sh600227,2013-07-15,2.87,2.92,2.86,2.91,0.013937,2723067.0,7878447.0,2765642250.0,2765642250.0,0.002865202457042302,17.07,2013-03-31 00:00:00,2013-04-26 00:00:00,79.94849876094824,0.6537844524843899,6.17252475700731,0.8013394679468618
sh600227,2013-07-12,2.93,2.93,2.86,2.87,-0.020478,4415587.0,12779518.0,2727626550.0,2727626550.0,0.004646066628879236,16.84,2013-03-31 00:00:00,2013-04-26 00:00:00,78.84957227219071,0.6447979040950176,6.087680750389136,0.7903247124297287
sh600227,2013-07-11,2.88,2.96,2.85,2.93,0.020906,6528169.0,19048532.0,2784650100.0,2784650100.0,0.00686891870903278,17.19,2013-03-31 00:00:00,2013-04-26 00:00:00,80.49801053186218,0.6582781235082188,6.214950506868795,0.8068473320963987
sh600227,2013-07-10,2.82,2.89,2.79,2.87,0.017730000000000003,3506002.0,9983658.0,2727626550.0,2727626550.0,0.003689004178376252,16.84,2013-03-31 00:00:00,2013-04-26 00:00:00,78.84958118755516,0.6447979770010351,6.087681438711101,0.7903248017901733
sh600227,2013-07-09,2.75,2.84,2.75,2.82,0.014388,2481874.0,6955124.0,2680106920.0,2680106920.0,0.0026114199503652637,16.55,2013-03-31 00:00:00,2013-04-26 00:00:00,77.47593289728627,0.6335648718236027,5.981627188656225,0.7765564558283369
sh600227,2013-07-08,2.84,2.85,2.76,2.78,-0.041379,4913855.0,13728107.0,2642091220.0,2642091220.0,0.00517034264244669,16.31,2013-03-31 00:00:00,2013-04-26 00:00:00,76.37702032879555,0.624578437268188,5.896784256769821,0.7655418398367654
sh600227,2013-07-05,2.82,3.08,2.79,2.9,0.028369,10463971.0,30847350.0,2756138330.0,2756138330.0,0.01101015706276252,17.01,2013-03-31 00:00:00,2013-04-26 00:00:00,79.67384433347021,0.6515384466522097,6.151319715267891,0.7985865528052958
sh600227,2013-07-04,2.78,2.83,2.74,2.82,0.014388,4254471.0,11910205.0,2680106920.0,2680106920.0,0.004476540891137283,16.55,2013-03-31 00:00:00,2013-04-26 00:00:00,77.47592968425751,0.6335648455488349,5.981626940590285,0.7765564236235201
sh600227,2013-07-03,2.83,2.83,2.75,2.78,-0.021127,2485503.0,6913004.0,2642091220.0,2642091220.0,0.002615238371671361,16.31,2013-03-31 00:00:00,2013-04-26 00:00:00,76.37701716134015,0.6245784113660994,5.896784012222429,0.7655418080887393
sh600227,2013-07-02,2.87,2.89,2.79,2.84,-0.010453,5359362.0,15119790.0,2699114770.0,2699114770.0,0.005639103697691225,16.66,2013-03-31 00:00:00,2013-04-26 00:00:00,78.02546107752501,0.6380586770358354,6.024054205420344,0.7820644844517514
sh600227,2013-07-01,2.79,2.88,2.75,2.87,0.032374,4736069.0,13416894.0,2727626550.0,2727626550.0,0.004983276772254619,16.84,2013-03-31 00:00:00,2013-04-26 00:00:00,78.8496767485779,0.6447987584579968,6.087688816620478,0.7903257596170282
sh600227,2013-06-28,2.77,2.8,2.71,2.78,0.00361,3106178.0,8638327.0,2642091220.0,2642091220.0,0.0032683106376622376,16.31,2013-03-31 00:00:00,2013-04-26 00:00:00,76.37704625317753,0.6245786492666386,5.896786258294453,0.7655420996819255
sh600227,2013-06-27,2.8,2.85,2.75,2.77,-0.010714,3406693.0,9518430.0,2632587300.0,2632587300.0,0.0035845115601674444,16.25,2013-03-31 00:00:00,2013-04-26 00:00:00,76.1023168892075,0.6223320306360427,5.875575430988585,0.7627884334372173
sh600227,2013-06-26,2.82,2.84,2.74,2.8,-0.007092,3272755.0,9113760.0,2661099070.0,2661099070.0,0.003443582429270474,16.43,2013-03-31 00:00:00,2013-04-26 00:00:00,76.9265074904603,0.6290719070481566,5.93920810664316,0.7710494573229757
sh600227,2013-06-25,2.84,2.88,2.59,2.82,-0.017422,5613925.0,15490151.0,2680106920.0,2680106920.0,0.005906954077787314,16.55,2013-03-31 00:00:00,2013-04-26 00:00:00,77.47596704877016,0.633565151099756,5.981629825364645,0.7765567981353514
sh600227,2013-06-24,3.02,3.04,2.8,2.87,-0.059016,4531030.0,13265778.0,2727626550.0,2727626550.0,0.004767535387129884,16.84,2013-03-31 00:00:00,2013-04-26 00:00:00,78.84968628319601,0.6447988364280048,6.087689552752704,0.7903258551843737
sh600227,2013-06-21,3.02,3.06,2.98,3.05,0.0,3508504.0,10593846.0,2898697200.0,2898697200.0,0.0036916367808269178,17.89,2013-03-31 00:00:00,2013-04-26 00:00:00,83.7949277386183,0.6852388950587945,6.4694931611512025,0.8398929792476532
sh600227,2013-06-20,3.17,3.17,3.05,3.05,-0.037855,4200611.0,13015206.0,2898697200.0,2898697200.0,0.004419869571061096,17.89,2013-03-31 00:00:00,2013-04-26 00:00:00,83.7949277386183,0.6852388950587945,6.4694931611512025,0.8398929792476532
sh600227,2013-06-19,3.21,3.21,3.14,3.17,-0.012461,2871025.0,9080911.0,3012744310.0,3012744310.0,0.003020883391860094,18.6,2013-03-31 00:00:00,2013-04-26 00:00:00,87.09178734870348,0.7121991956085565,6.724031368609932,0.8729380490961894
sh600227,2013-06-18,3.21,3.22,3.18,3.21,0.0,1681405.0,5381185.0,3050760010.0,3050760010.0,0.0017691690045458543,18.83,2013-03-31 00:00:00,2013-04-26 00:00:00,88.19073206091454,0.7211858930214974,6.808876782192837,0.883952987270568
sh600227,2013-06-17,3.18,3.22,3.17,3.21,0.003125,3315471.0,10582154.0,3050760010.0,3050760010.0,0.0034885280635365353,18.83,2013-03-31 00:00:00,2013-04-26 00:00:00,88.19073206091454,0.7211858930214974,6.808876782192837,0.883952987270568
sh600227,2013-06-14,3.18,3.21,3.18,3.2,0.006289,2185456.0,6986391.0,3041256080.0,3041256080.0,0.0022995298705658484,18.77,2013-03-31 00:00:00,2013-04-26 00:00:00,87.91599457785873,0.7189392079965083,6.787665328042704,0.8811992396466721
sh600227,2013-06-13,3.28,3.28,3.16,3.18,-0.030488,4586970.0,14638952.0,3022248230.0,3022248230.0,0.00482639528256089,18.66,2013-03-31 00:00:00,2013-04-26 00:00:00,87.36654636775194,0.7144460567456351,6.7452444854735605,0.8756920125795594
sh600227,2013-06-07,3.32,3.33,3.27,3.28,-0.012048,3689808.0,12165128.0,3117287490.0,3117287490.0,0.0038824042629446408,19.24,2013-03-31 00:00:00,2013-04-26 00:00:00,90.11394017583272,0.7369130621855481,6.957360492158489,0.9032296790339464
sh600227,2013-06-06,3.32,3.36,3.31,3.32,-0.005988,3544562.0,11806473.0,3155303190.0,3155303190.0,0.003729576884178918,19.48,2013-03-31 00:00:00,2013-04-26 00:00:00,91.21287286814817,0.74589966130495,7.042204977730181,0.914244496730556
sh600227,2013-06-05,3.36,3.37,3.32,3.34,-0.0029850000000000002,3108774.0,10393040.0,3174311040.0,3174311040.0,0.003271042134547722,19.6,2013-03-31 00:00:00,2013-04-26 00:00:00,91.76234579476723,0.750393014676835,7.084627728568852,0.9197519715361142
sh600227,2013-06-04,3.43,3.43,3.34,3.35,-0.023324,5553544.0,18707274.0,3183814960.0,3183814960.0,0.005843421377729817,19.65,2013-03-31 00:00:00,2013-04-26 00:00:00,92.03707646802428,0.7526396440142173,7.105838656959877,0.9225056509040629
sh600227,2013-06-03,3.43,3.46,3.42,3.43,-0.002907,4398962.0,15143781.0,3259846360.0,3259846360.0,0.004628573863217284,20.12,2013-03-31 00:00:00,2013-04-26 00:00:00,94.23501393299753,0.7706134316950733,7.275533193157074,0.9445360087726768
sh600227,2013-05-31,3.49,3.53,3.44,3.44,-0.014327000000000001,6740333.0,23431298.0,3269350290.0,3269350290.0,0.007092156992452467,20.18,2013-03-31 00:00:00,2013-04-26 00:00:00,94.5097537872571,0.7728601361107473,7.2967448303789855,0.9472897801636126
sh600227,2013-05-30,3.43,3.49,3.42,3.49,0.017493,9443705.0,32677063.0,3316869920.0,3316869920.0,0.009936636420761416,20.48,2013-03-31 00:00:00,2013-04-26 00:00:00,95.88347635296604,0.784093848680797,7.40280481496296,0.961058870602738
sh600227,2013-05-29,3.45,3.48,3.42,3.43,-0.005797,5040696.0,17343999.0,3259846360.0,3259846360.0,0.005303804342484411,20.12,2013-03-31 00:00:00,2013-04-26 00:00:00,94.23502309398299,0.770613506609674,7.275533900442518,0.944536100595029
sh600227,2013-05-28,3.39,3.46,3.38,3.45,0.017699,8212668.0,28147039.0,3278854210.0,3278854210.0,0.008641343220929607,20.24,2013-03-31 00:00:00,2013-04-26 00:00:00,94.78448877541406,0.7751068007335262,7.3179560919073054,0.9500435027806485
sh600227,2013-05-27,3.39,3.41,3.38,3.39,-0.002941,4531506.0,15375102.0,3221830660.0,3221830660.0,0.004768036238130529,19.89,2013-03-31 00:00:00,2013-04-26 00:00:00,93.13607341209344,0.7616267685568389,7.190688103169312,0.9335211126085892
sh600227,2013-05-24,3.36,3.4,3.35,3.4,0.011904999999999999,3939107.0,13293512.0,3231334590.0,3231334590.0,0.004144715883476493,19.95,2013-03-31 00:00:00,2013-04-26 00:00:00,93.41079455889115,0.7638733199909323,7.2118982960580205,0.9362746964909693
sh600227,2013-05-23,3.4,3.41,3.36,3.36,-0.011765000000000001,5986218.0,20245853.0,3193318890.0,3193318890.0,0.006298679578474545,19.71,2013-03-31 00:00:00,2013-04-26 00:00:00,92.3118223142401,0.7548863974295336,7.127050756798334,0.92525948235355
sh600227,2013-05-22,3.43,3.45,3.38,3.4,-0.011628,6895113.0,23514810.0,3231334590.0,3231334590.0,0.007255016014915373,19.95,2013-03-31 00:00:00,2013-04-26 00:00:00,93.41080038071925,0.7638733675993398,7.2118987455396075,0.9362747548442931
sh600227,2013-05-21,3.43,3.45,3.4,3.44,0.005848,5507121.0,18875768.0,3269350290.0,3269350290.0,0.005794575239596,20.18,2013-03-31 00:00:00,2013-04-26 00:00:00,94.50975986846983,0.7728601858402907,7.29674529988669,0.9472898411167994
sh600227,2013-05-20,3.4,3.46,3.38,3.42,0.00885,7437034.0,25477024.0,3250342440.0,3250342440.0,0.007825223572443031,20.07,2013-03-31 00:00:00,2013-04-26 00:00:00,93.96028015015173,0.7683667769288108,7.254322024686323,0.9417822982367109
sh600227,2013-05-17,3.35,3.4,3.33,3.39,0.008929000000000001,6647365.0,22370546.0,3221830660.0,3221830660.0,0.0069943363658970205,19.89,2013-03-31 00:00:00,2013-04-26 00:00:00,93.13602631724412,0.7616263834354076,7.190684467152028,0.9335206405676869
sh600227,2013-05-16,3.32,3.36,3.28,3.36,0.015106,6146802.0,20429500.0,3193318890.0,3193318890.0,0.006467645553557603,19.71,2013-03-31 00:00:00,2013-04-26 00:00:00,92.31177448288643,0.7548860062852863,7.127047063918303,0.9252590029305204
sh600227,2013-05-15,3.32,3.33,3.29,3.31,-0.003012,3224276.0,10652308.0,3145799260.0,3145799260.0,0.003392572976827517,19.42,2013-03-31 00:00:00,2013-04-26 00:00:00,90.93806408679136,0.743652393233107,7.020988018904727,0.9114900344698191
sh600227,2013-05-14,3.34,3.34,3.3,3.32,-0.008955,2578369.0,8552253.0,3155303190.0,3155303190.0,0.0027129516767610534,19.48,2013-03-31 00:00:00,2013-04-26 00:00:00,91.21279703145011,0.745899041145036,7.042199122662187,0.9142437366044721
sh600227,2013-05-13,3.32,3.35,3.3,3.35,0.006006,4255628.0,14123599.0,3183814960.0,3183814960.0,0.0044777582802739265,19.65,2013-03-31 00:00:00,2013-04-26 00:00:00,92.03698826133034,0.7526389226977949,7.105831846850736,0.9225047667910864
sh600227,2013-05-10,3.3,3.34,3.27,3.33,0.0060420000000000005,3706861.0,12258917.0,3164807110.0,3164807110.0,0.0039003473832564793,19.54,2013-03-31 00:00:00,2013-04-26 00:00:00,91.4875142507404,0.7481455604616621,7.063409012322727,0.9169972811206757
sh600227,2013-05-09,3.33,3.34,3.28,3.31,-0.008981999999999999,3001436.0,9914984.0,3145799260.0,3145799260.0,0.003158101435881195,19.42,2013-03-31 00:00:00,2013-04-26 00:00:00,90.93806645322998,0.7436524125848246,7.020988201608607,0.9114900581890971
sh600227,2013-05-08,3.33,3.36,3.31,3.34,0.003003,2872942.0,9562012.0,3174311040.0,3174311040.0,0.0030229004527546235,19.6,2013-03-31 00:00:00,2013-04-26 00:00:00,91.76227520915863,0.7503924374580729,7.0846222789178475,0.9197512640427289
sh600227,2013-05-07,3.35,3.36,3.33,3.33,-0.002977,1770803.0,5908545.0,3164807110.0,3164807110.0,0.0018632332982846467,19.54,2013-03-31 00:00:00,2013-04-26 00:00:00,91.48753813214778,0.7481457557535449,7.063410856116927,0.9169975204887012
sh600227,2013-05-06,3.32,3.36,3.31,3.36,0.012048,3934627.0,13171827.0,3193318890.0,3193318890.0,0.004140002040322381,19.6,2013-03-31 00:00:00,2013-04-26 00:00:00,91.76070976511853,0.7503796359297076,7.0845014168348435,0.9197355732903866
sh600227,2013-05-03,3.29,3.34,3.29,3.32,0.009119,3364854.0,11172098.0,3155303190.0,3155303190.0,0.003540488697062421,19.36,2013-03-31 00:00:00,2013-04-26 00:00:00,90.66833763331238,0.7414466862537228,7.000163447617942,0.9087865133772178
sh600227,2013-05-02,3.26,3.29,3.24,3.29,0.012308,1650938.0,5410803.0,3126791410.0,3126791410.0,0.0017371117250190987,19.19,2013-03-31 00:00:00,2013-04-26 00:00:00,89.84900456072315,0.734746532622736,6.93690580359496,0.9005741774530237
sh600227,2013-04-26,3.29,3.32,3.23,3.25,-0.015152,4734034.0,15475389.0,3088775710.0,3088775710.0,0.004981135551600152,18.95,2013-03-31 00:00:00,2013-04-26 00:00:00,88.7565884698364,0.7258132234682884,6.852564440461757,0.889624676929377
sh600227,2013-04-25,3.35,3.35,3.28,3.3,-0.014925,4685960.0,15477805.0,3136295340.0,3136295340.0,0.004930552235555724,19.25,2012-12-31 00:00:00,2013-02-28 00:00:00,88.87214874517247,0.8950195499912381,5.2966961899198175,0.9078643395647875
sh600227,2013-04-24,3.35,3.38,3.31,3.35,0.006006,2960967.0,9896723.0,3183814960.0,3183814960.0,0.0031155200834912847,19.54,2012-12-31 00:00:00,2013-02-28 00:00:00,90.21866227969694,0.9085801081047007,5.376947125771964,0.9216195107629241
sh600227,2013-04-23,3.44,3.44,3.32,3.33,-0.029155,3465519.0,11624591.0,3164807110.0,3164807110.0,0.0036464080965743282,19.42,2012-12-31 00:00:00,2013-02-28 00:00:00,89.68004393581842,0.903155754642319,5.344845980811213,0.9161173101978758
sh600227,2013-04-22,3.45,3.45,3.4,3.43,-0.008671,3115112.0,10641439.0,3259846360.0,3259846360.0,0.003277710965494705,20.0,2012-12-31 00:00:00,2013-02-28 00:00:00,92.3731841188021,0.9302780100245859,5.505354593999261,0.9436288080979721
sh600227,2013-04-19,3.39,3.47,3.39,3.46,0.011696,3458369.0,11915751.0,3288358140.0,3288358140.0,0.0036388848873985485,20.18,2012-12-31 00:00:00,2013-02-28 00:00:00,93.18115793929371,0.9384150065463492,5.553509071155249,0.9518825819662011
sh600227,2013-04-18,3.42,3.42,3.37,3.42,0.0,1942287.0,6595390.0,3250342440.0,3250342440.0,0.0020436682173094354,19.95,2012-12-31 00:00:00,2013-02-28 00:00:00,92.10391060090552,0.9275661923605009,5.4893061464661805,0.9408780720356719
sh600227,2013-04-17,3.33,3.44,3.33,3.42,0.023952,5504220.0,18700921.0,3250342440.0,3250342440.0,0.005791522815669847,19.95,2012-12-31 00:00:00,2013-02-28 00:00:00,92.10391060090552,0.9275661923605009,5.4893061464661805,0.9408780720356719
sh600227,2013-04-16,3.3,3.38,3.27,3.34,0.003003,3574695.0,11826240.0,3174311040.0,3174311040.0,0.003761282731764055,19.48,2012-12-31 00:00:00,2013-02-28 00:00:00,89.94944157627069,0.9058688223280982,5.360901825931469,0.9188693142214399
sh600227,2013-04-15,3.37,3.38,3.3,3.33,-0.017699,4201082.0,13958427.0,3164807110.0,3164807110.0,0.0044203651514167636,19.42,2012-12-31 00:00:00,2013-02-28 00:00:00,89.68013213945589,0.9031566429293811,5.344851237664762,0.9161182112331068
sh600227,2013-04-12,3.4,3.44,3.36,3.39,-0.002941,2603967.0,8866738.0,3221830660.0,3221830660.0,0.002739885816965936,19.77,2012-12-31 00:00:00,2013-02-28 00:00:00,91.2959796838809,0.9194296279138281,5.441154226316335,0.9326247364434189
sh600227,2013-04-11,3.42,3.45,3.39,3.4,-0.005848,2478329.0,8469357.0,3231334590.0,3231334590.0,0.00260768990808841,19.83,2012-12-31 00:00:00,2013-02-28 00:00:00,91.5652731522216,0.9221416464961734,5.457203862877056,0.9353756763074391
sh600227,2013-04-10,3.46,3.47,3.38,3.42,-0.011561,3427589.0,11720939.0,3250342440.0,3250342440.0,0.0036064982679178876,19.95,2012-12-31 00:00:00,2013-02-28 00:00:00,92.1038967403592,0.9275660527727886,5.4893053203907005,0.9408779304446796
sh600227,2013-04-09,3.39,3.47,3.39,3.46,0.020649,4627126.0,15886308.0,3288358140.0,3288358140.0,0.004868647293995781,20.18,2012-12-31 00:00:00,2013-02-28 00:00:00,93.1811641794377,0.9384150693900065,5.55350944306194,0.9518826457117533
sh600227,2013-04-08,3.4,3.4,3.31,3.39,-0.011662,4450566.0,14941089.0,3221830660.0,3221830660.0,0.004682871426892436,19.77,2012-12-31 00:00:00,2013-02-28 00:00:00,91.29599321553022,0.9194297641892625,5.441155032789863,0.9326248746745975
sh600227,2013-04-03,3.51,3.53,3.4,3.43,-0.025568,8223084.0,28321893.0,3259846360.0,3259846360.0,0.008652302901784611,20.0,2012-12-31 00:00:00,2013-02-28 00:00:00,92.37325005770315,0.9302786740864587,5.5053585238955325,0.943629481690067
sh600227,2013-04-02,3.65,3.65,3.51,3.52,-0.035616,10440618.0,37261535.0,3345381690.0,3345381690.0,0.010985585133635378,20.53,2012-12-31 00:00:00,2013-02-28 00:00:00,94.7970202720181,0.9546881404617856,5.649812941175508,0.968389258244872
sh600227,2013-04-01,3.64,3.68,3.64,3.65,0.002747,4973835.0,18195897.0,3468932720.0,3468932720.0,0.005233453403501005,21.29,2012-12-31 00:00:00,2013-02-28 00:00:00,98.29800190797245,0.9899460593101769,5.85846814254022,1.0041531778263346
sh600227,2013-03-29,3.7,3.73,3.63,3.64,-0.018868,7430364.0,27231085.0,3459428790.0,3459428790.0,0.007818205432695147,21.23,2012-12-31 00:00:00,2013-02-28 00:00:00,98.02871702231215,0.9872341271628604,5.842419017499149,1.0014023256378075
sh600227,2013-03-28,3.72,3.77,3.66,3.71,-0.015915000000000002,10928426.0,40513211.0,3525956270.0,3525956270.0,0.011498855163056234,21.64,2012-12-31 00:00:00,2013-02-28 00:00:00,99.91389234304064,1.0062194762405674,5.954773687433647,1.0206601411816223
sh600227,2013-03-27,3.76,3.83,3.71,3.77,-0.018229,21222020.0,79844110.0,3582979820.0,3582979820.0,0.022329742119507667,21.99,2012-12-31 00:00:00,2013-02-28 00:00:00,101.52973812530487,1.0224924434785283,6.051076571062101,1.0371666483907613
sh600227,2013-03-26,3.58,3.92,3.58,3.84,0.078652,41417943.0,156259189.0,3649507300.0,3649507300.0,0.043579828192150755,22.4,2012-12-31 00:00:00,2013-02-28 00:00:00,103.41488812086003,1.0414775375097942,6.16342973164017,1.05642420522786
sh600227,2013-03-25,3.54,3.57,3.53,3.56,0.00565,3571794.0,12660609.0,3383397390.0,3383397390.0,0.003758230315357665,20.76,2012-12-31 00:00:00,2013-02-28 00:00:00,95.87419123207486,0.9655361854516509,5.714011313788106,0.9793929879403735
sh600227,2013-03-22,3.56,3.58,3.53,3.54,-0.005618,3849449.0,13657994.0,3364389540.0,3364389540.0,0.004050378024894228,20.65,2012-12-31 00:00:00,2013-02-28 00:00:00,95.3355454005617,0.9601115551649689,5.681908530590272,0.9738905065782069
sh600227,2013-03-21,3.55,3.57,3.53,3.56,0.002817,4506508.0,16013196.0,3383397390.0,3383397390.0,0.0047417334207969,20.76,2012-12-31 00:00:00,2013-02-28 00:00:00,95.87416646777767,0.9655359360537188,5.714009837859366,0.9793927349632303
sh600227,2013-03-20,3.49,3.55,3.46,3.55,0.017192,4245937.0,14933988.0,3373893470.0,3373893470.0,0.00446756143429745,20.7,2012-12-31 00:00:00,2013-02-28 00:00:00,95.60484761205453,0.9628236617984326,5.69795868823461,0.9766415357570029
sh600227,2013-03-19,3.48,3.5,3.43,3.49,0.005764,2888730.0,10003138.0,3316869920.0,3316869920.0,0.0030395125353604464,20.35,2012-12-31 00:00:00,2013-02-28 00:00:00,93.98898891463412,0.9465505644936575,5.601655034875037,0.9601348966144079
sh600227,2013-03-18,3.51,3.54,3.46,3.47,-0.014205,3401144.0,11885613.0,3297862070.0,3297862070.0,0.003578672918846482,20.24,2012-12-31 00:00:00,2013-02-28 00:00:00,93.45034114825556,0.9411259147212044,5.569552136361051,0.9546323954868218
sh600227,2013-03-15,3.54,3.57,3.48,3.52,-0.002833,3743759.0,13197471.0,3345381690.0,3345381690.0,0.0039391713416115455,20.53,2012-12-31 00:00:00,2013-02-28 00:00:00,94.79693156108073,0.9546872470657738,5.649807654087363,0.9683883520273705
sh600227,2013-03-14,3.54,3.57,3.52,3.53,-0.005634,2295080.0,8127809.0,3354885620.0,3354885620.0,0.0024148758907613665,20.59,2012-12-31 00:00:00,2013-02-28 00:00:00,95.0662542593976,0.9573995600193085,5.665859032727079,0.9711395904872209
sh600227,2013-03-13,3.62,3.62,3.52,3.55,-0.019337,3200025.0,11374847.0,3373893470.0,3373893470.0,0.0033670561477449376,20.7,2012-12-31 00:00:00,2013-02-28 00:00:00,95.60489222217736,0.9628241110610264,5.697961346955828,0.9766419914671468
sh600227,2013-03-12,3.66,3.69,3.56,3.62,-0.013624,5920804.0,21393812.0,3440420940.0,3440420940.0,0.006229851187918883,21.11,2012-12-31 00:00:00,2013-02-28 00:00:00,97.49005746334608,0.9818093586288321,5.810315416158077,0.9958997040442504
sh600227,2013-03-11,3.7,3.7,3.64,3.67,-0.008108,3656540.0,13404027.0,3487940570.0,3487940570.0,0.003847399785254942,21.4,2012-12-31 00:00:00,2013-02-28 00:00:00,98.83660740259909,0.9953702833694575,5.890568521697686,1.0096552471311655
sh600227,2013-03-08,3.69,3.78,3.67,3.7,0.0,6846042.0,25437060.0,3516452350.0,3516452350.0,0.007203383660239275,21.58,2012-12-31 00:00:00,2013-02-28 00:00:00,99.6445252130263,1.0035067158213369,5.938719660706695,1.017908448834314
sh600227,2013-03-07,3.7,3.71,3.65,3.7,0.0,5830178.0,21478381.0,3516452350.0,3516452350.0,0.00613449478421057,21.58,2012-12-31 00:00:00,2013-02-28 00:00:00,99.6445252130263,1.0035067158213369,5.938719660706695,1.017908448834314
sh600227,2013-03-06,3.65,3.71,3.62,3.7,0.013699000000000001,7268320.0,26708716.0,3516452350.0,3516452350.0,0.007647703231354749,21.58,2012-12-31 00:00:00,2013-02-28 00:00:00,99.6445252130263,1.0035067158213369,5.938719660706695,1.017908448834314
sh600227,2013-03-05,3.57,3.65,3.57,3.65,0.013888999999999999,4385556.0,15866975.0,3468932720.0,3468932720.0,0.004614468106490114,21.29,2012-12-31 00:00:00,2013-02-28 00:00:00,98.29794170954723,0.98994545305987,5.85846455477089,1.004152562875483
sh600227,2013-03-04,3.7,3.7,3.56,3.6,-0.032257999999999995,7862834.0,28467369.0,3421413090.0,3421413090.0,0.00827324899256757,21.0,2012-12-31 00:00:00,2013-02-28 00:00:00,96.95138393803188,0.9763844494415758,5.778210982435838,0.9903969397788938
sh600227,2013-03-01,3.68,3.72,3.67,3.72,0.005405,7676221.0,28340172.0,3535460200.0,3535460200.0,0.008076895369943635,21.7,2012-12-31 00:00:00,2013-02-28 00:00:00,100.18309005709362,1.0089305304942597,5.9708176171291925,1.0234101028775169
sh600227,2013-02-28,3.7,3.72,3.61,3.7,-0.002695,11780916.0,43226933.0,3516452350.0,3516452350.0,0.012395842417713979,21.58,2012-12-31 00:00:00,2013-02-28 00:00:00,99.6445114725843,1.0035065774431793,5.938718841789321,1.0179083084702352
sh600227,2013-02-27,3.7,3.75,3.69,3.71,0.002703,3002308.0,11139029.0,3525956270.0,3525956270.0,0.003159018951758015,21.64,2012-09-30 00:00:00,2012-10-30 00:00:00,41.78120645825129,1.5036525377521277,64.47471427247717,1.0001873687705396
sh600227,2013-02-26,3.75,3.77,3.69,3.7,-0.013333000000000001,4686626.0,17505974.0,3516452350.0,3516452350.0,0.004931252999916236,21.58,2012-09-30 00:00:00,2012-10-30 00:00:00,41.668576296521785,1.4995991213271802,64.3009089156781,0.9974911501915716
sh600227,2013-02-25,3.72,3.77,3.71,3.75,0.005362,3364132.0,12598786.0,3563971970.0,3563971970.0,0.003539729017565758,21.87,2012-09-30 00:00:00,2012-10-30 00:00:00,42.23165089794408,1.519863460850703,65.16981810041088,1.0109704187852353
sh600227,2013-02-22,3.73,3.76,3.71,3.73,0.0,3576191.0,13379030.0,3544964120.0,3544964120.0,0.0037628568240628624,21.75,2012-09-30 00:00:00,2012-10-30 00:00:00,42.00641251404378,1.5117574175776516,64.82224124286662,1.0055785068316043
sh600227,2013-02-21,3.84,3.85,3.7,3.73,-0.036176,9020889.0,33941140.0,3544964120.0,3544964120.0,0.00949175078533658,21.75,2012-09-30 00:00:00,2012-10-30 00:00:00,42.00641251404378,1.5117574175776516,64.82224124286662,1.0055785068316043
sh600227,2013-02-20,3.83,3.87,3.82,3.87,0.007812999999999999,4957680.0,19051586.0,3678019080.0,3678019080.0,0.005216455157704076,22.57,2012-09-30 00:00:00,2012-10-30 00:00:00,43.58307379152603,1.568499453819008,67.25526781120477,1.0433217131256374
sh600227,2013-02-19,3.9,3.92,3.81,3.84,-0.017903,6927472.0,26668013.0,3649507300.0,3649507300.0,0.007289064055304122,22.4,2012-09-30 00:00:00,2012-10-30 00:00:00,43.24519905133791,1.5563397711867257,66.73387603772204,1.0352334343034244
sh600227,2013-02-18,3.92,3.95,3.87,3.91,0.007731999999999999,12318136.0,48133851.0,3716034780.0,3716034780.0,0.01296110359871282,22.8,2012-09-30 00:00:00,2012-10-30 00:00:00,44.03353136333572,1.584710849525786,67.95039190397897,1.0541050775060148
sh600227,2013-02-08,3.86,3.89,3.84,3.88,0.005181,5556864.0,21536160.0,3687523000.0,3687523000.0,0.005846914668735626,22.63,2012-09-30 00:00:00,2012-10-30 00:00:00,43.69567639346147,1.5725518784019816,67.42903063907762,1.0460172719592258
sh600227,2013-02-07,3.88,3.9,3.82,3.86,-0.005155,6229889.0,24012014.0,3668515150.0,3668515150.0,0.006555069437289908,22.51,2012-09-30 00:00:00,2012-10-30 00:00:00,43.470455961126866,1.5644464811829728,67.08148148351154,1.0406257897425697
sh600227,2013-02-06,3.9,3.92,3.86,3.88,-0.005128,7280464.0,28299697.0,3687523000.0,3687523000.0,0.007660481119710983,22.63,2012-09-30 00:00:00,2012-10-30 00:00:00,43.69570733242552,1.5725529918559904,67.42907838257372,1.0460180125975098
sh600227,2013-02-05,3.84,3.91,3.81,3.9,0.007751999999999999,12166223.0,47125173.0,3706530850.0,3706530850.0,0.012801261238659324,22.75,2012-09-30 00:00:00,2012-10-30 00:00:00,43.92093388136919,1.5806586092039887,67.77663697699174,1.0514096412377774
sh600227,2013-02-04,3.85,3.94,3.84,3.87,0.013088999999999998,13054432.0,50611681.0,3678019080.0,3678019080.0,0.013735831908734961,22.57,2012-09-30 00:00:00,2012-10-30 00:00:00,43.58307786178462,1.5684996003024436,67.25527409222876,1.0433218105622981
sh600227,2013-02-01,3.8,3.85,3.77,3.82,0.013262999999999999,12273413.0,46795120.0,3630499450.0,3630499450.0,0.012914046209261924,22.28,2012-09-30 00:00:00,2012-10-30 00:00:00,43.019989222846796,1.5482347555865714,66.38634324548858,1.029842205928895
sh600227,2013-01-31,3.8,3.88,3.75,3.77,0.005333,14116608.0,53783500.0,3582979820.0,3582979820.0,0.01485345015423503,21.99,2012-09-30 00:00:00,2012-10-30 00:00:00,42.45688357597859,1.5279692987768934,65.51738615294211,1.0163621941479113
sh600227,2013-01-30,3.73,3.77,3.67,3.75,0.005362,10761083.0,40058478.0,3563971970.0,3563971970.0,0.011322777392662827,21.87,2012-09-30 00:00:00,2012-10-30 00:00:00,42.23166212188259,1.51986386478599,65.16983542064382,1.010970687471625
sh600227,2013-01-29,3.67,3.78,3.64,3.73,0.019126,13000075.0,48176710.0,3473889170.0,3544964120.0,0.013958499358227941,21.75,2012-09-30 00:00:00,2012-10-30 00:00:00,42.006423678120505,1.511757819358589,64.8222584707238,1.0055787740849813
sh600227,2013-01-28,3.6,3.67,3.6,3.66,0.008264,6861932.0,25025853.0,3408695540.0,3478436650.0,0.007367824678175864,21.35,2012-09-30 00:00:00,2012-10-30 00:00:00,41.21808655467578,1.483386567861667,63.60573517967728,0.9867070157026525
sh600227,2013-01-25,3.64,3.66,3.58,3.63,-0.002747,8917543.0,32178886.0,3380755420.0,3449924870.0,0.009574984602110021,21.17,2012-09-30 00:00:00,2012-10-30 00:00:00,40.88025215090073,1.4712283368856438,63.084405651374325,0.9786197024813467
sh600227,2013-01-24,3.62,3.72,3.6,3.64,-0.005464,14202807.0,51854220.0,3390068790.0,3459428790.0,0.01524990219446255,21.23,2012-09-30 00:00:00,2012-10-30 00:00:00,40.992859536046254,1.4752809336102712,63.25817586046302,0.9813153758187206
sh600227,2013-01-23,3.7,3.73,3.61,3.66,-0.016128999999999998,11245754.0,41117930.0,3408695540.0,3478436650.0,0.012074841873381276,21.35,2012-09-30 00:00:00,2012-10-30 00:00:00,41.21807509838382,1.4833861555642744,63.60571750088787,0.9867067414540255
sh600227,2013-01-22,3.81,3.81,3.69,3.72,-0.023622,10142695.0,37995950.0,3464575800.0,3535460200.0,0.010890460355925825,21.7,2012-09-30 00:00:00,2012-10-30 00:00:00,41.893779873971106,1.507703911960282,64.64843206160957,1.0028822289243462
sh600227,2013-01-21,3.81,3.82,3.77,3.81,0.0026320000000000002,7612243.0,28813458.0,3548396180.0,3620995520.0,0.008173451993176253,22.22,2012-09-30 00:00:00,2012-10-30 00:00:00,42.907336988308934,1.5441805447892945,66.21250382701123,1.0271454589558
sh600227,2013-01-18,3.73,3.83,3.73,3.8,0.018767,9707976.0,36731641.0,3539082800.0,3611491600.0,0.010423691923794491,22.16,2012-09-30 00:00:00,2012-10-30 00:00:00,42.794701334396805,1.540126930707672,66.03868999494453,1.0244491089011722
sh600227,2013-01-17,3.77,3.78,3.71,3.73,-0.01061,6604288.0,24745564.0,3473889170.0,3544964120.0,0.007091185997738667,21.75,2012-09-30 00:00:00,2012-10-30 00:00:00,42.00636782934351,1.5117558094320604,64.82217228762272,1.0055774371383959
sh600227,2013-01-16,3.74,3.78,3.7,3.77,0.00266,8791560.0,32954763.0,3511142680.0,3582979820.0,0.009439713569258882,21.99,2012-09-30 00:00:00,2012-10-30 00:00:00,42.45683484707094,1.5279675450854169,65.51731095687516,1.0163610276416741
sh600227,2013-01-15,3.7,3.78,3.68,3.76,0.016216,10561868.0,39458096.0,3501829300.0,3573475900.0,0.011340536696063398,21.93,2012-09-30 00:00:00,2012-10-30 00:00:00,42.34419927699413,1.5239139340209211,65.34349725417906,1.0136646795939543
sh600227,2013-01-14,3.61,3.7,3.61,3.7,0.024931000000000002,5469190.0,20052428.0,3445949050.0,3516452350.0,0.0058724034239566025,21.58,2012-09-30 00:00:00,2012-10-30 00:00:00,41.66850283502142,1.4995964775411141,64.30079555348375,0.997489391619453
sh600227,2013-01-11,3.73,3.73,3.6,3.61,-0.02957,6010387.0,21959287.0,3362128660.0,3430917020.0,0.0064534999294167394,21.05,2012-09-30 00:00:00,2012-10-30 00:00:00,40.65493465903697,1.4631194466174935,62.73670671829006,0.9732258967866647
sh600227,2013-01-10,3.69,3.73,3.66,3.72,0.002695,5938998.0,21980697.0,3464575800.0,3535460200.0,0.006376847797643798,21.7,2012-09-30 00:00:00,2012-10-30 00:00:00,41.893732323853314,1.5077022006919545,64.64835868459349,1.0028810906367946
sh600227,2013-01-09,3.64,3.73,3.63,3.71,0.016438,9449842.0,34793466.0,3455262420.0,3525956270.0,0.010146527110956743,21.64,2012-09-30 00:00:00,2012-10-30 00:00:00,41.78113217264803,1.5036498643076457,64.47459963856755,1.0001855904704768
sh600227,2013-01-08,3.62,3.66,3.6,3.65,0.00551,5948699.0,21626840.0,3399382170.0,3468932720.0,0.00638726399803409,21.29,2012-09-30 00:00:00,2012-10-30 00:00:00,41.10544093456564,1.47933259510924,63.431905968261276,0.9840104270702954
sh600227,2013-01-07,3.62,3.63,3.59,3.63,0.00554,3996463.0,14429709.0,3380755420.0,3449924870.0,0.004291100327512009,21.17,2012-09-30 00:00:00,2012-10-30 00:00:00,40.88019108170545,1.4712261390828933,63.08431141237908,0.9786182405647835
sh600227,2013-01-04,3.68,3.7,3.61,3.61,-0.010959,4736635.0,17217738.0,3362128660.0,3430917020.0,0.005085841167660728,21.05,2012-09-30 00:00:00,2012-10-30 00:00:00,40.65496258896259,1.4631204517800318,62.73674981838521,0.973226565392509
