code,date,open,high,low,close,change,volume,money,traded_market_value,market_value,turnover,adjust_price,report_type,report_date,PE_TTM,PS_TTM,PC_TTM,PB
sh600682,2014-12-31,16.0,16.2,15.37,15.8,-0.0125,2796669.0,44002334.0,5655770920.0,5661482620.0,0.007812793485631488,86.88,2014-09-30 00:00:00,2014-10-31 00:00:00,38.37990742766569,1.6112441530359591,-862.0224786064077,3.9453134975024295
sh600682,2014-12-30,15.93,16.32,15.72,16.0,0.006289,2977622.0,47826950.0,5727362960.0,5733146960.0,0.008318305009256826,87.98,2014-09-30 00:00:00,2014-10-31 00:00:00,38.86572904067412,1.6316396486440092,-872.9341555507926,3.9952541746860044
sh600682,2014-12-29,16.25,16.39,15.72,15.9,-0.010579,2093173.0,33377811.0,5691566940.0,5697314790.0,0.005847502287305084,87.43,2014-09-30 00:00:00,2014-10-31 00:00:00,38.62283006241161,1.6214423974067182,-867.4785827439161,3.970285051994014
sh600682,2014-12-26,15.87,16.25,15.87,16.07,0.011328,1433185.0,23102647.0,5752420170.0,5758229480.0,0.0040037553359041226,88.37,2014-09-30 00:00:00,2014-10-31 00:00:00,39.03578968145168,1.6387790408801899,-876.7537607791993,4.012735783851378
sh600682,2014-12-25,15.6,16.2,15.33,15.89,0.03048,2669770.0,42271629.0,5687987340.0,5693731570.0,0.007458287574177337,87.38,2014-09-30 00:00:00,2014-10-31 00:00:00,38.59854535961794,1.620422890377988,-866.9331421449809,3.9677886737550803
sh600682,2014-12-24,15.47,15.6,15.28,15.42,-0.003232,5221854.0,80502723.0,5519746050.0,5525320380.0,0.014587806748826787,84.79,2014-09-30 00:00:00,2014-10-31 00:00:00,37.45686025892587,1.5724932947538892,-841.2906045192345,3.8504276393089434
sh600682,2014-12-23,15.15,15.59,15.05,15.47,0.011111,4793018.0,73553238.0,5537644060.0,5543236470.0,0.013389807589041755,85.07,2014-09-30 00:00:00,2014-10-31 00:00:00,37.578313367730374,1.5775920723316652,-844.0184722214543,3.8629125727440523
sh600682,2014-12-22,16.2,16.2,15.26,15.3,-0.055555999999999994,3582488.0,55595042.0,5476790830.0,5482321780.0,0.0100080627691235,84.13,2014-09-30 00:00:00,2014-10-31 00:00:00,37.16536895329036,1.5602560671693464,-834.7436356853543,3.8204634038637217
sh600682,2014-12-19,16.29,16.5,15.99,16.2,-0.001848,3491709.0,56208587.0,5798955000.0,5804811300.0,0.009754461933227624,89.08,2014-09-30 00:00:00,2014-10-31 00:00:00,39.351585645406566,1.6520366132553612,-883.8466184181955,4.04519844889027
sh600682,2014-12-18,16.13,16.49,15.89,16.23,-0.004294,6213902.0,100203192.0,5809693800.0,5815560950.0,0.017359198768788813,89.25,2014-09-30 00:00:00,2014-10-31 00:00:00,39.424442014248896,1.6550952292389949,-885.4829909855367,4.05268781597419
sh600682,2014-12-17,16.69,16.76,16.1,16.3,-0.016888,5839066.0,96006535.0,5834751020.0,5840643470.0,0.01631205435737685,89.63,2014-09-30 00:00:00,2014-10-31 00:00:00,39.59446062818633,1.6622328571275002,-889.3016522804289,4.070165104934779
sh600682,2014-12-16,16.51,16.66,16.45,16.58,0.004848,6609524.0,109296450.0,5934979870.0,5940973540.0,0.018464411054523084,91.17,2014-09-30 00:00:00,2014-10-31 00:00:00,40.27461838344596,1.6907868657157072,-904.5781683881683,4.140082823660762
sh600682,2014-12-15,15.79,16.75,15.7,16.5,0.037736,6195258.0,101360148.0,5906343050.0,5912307800.0,0.017307114763677668,90.73,2014-09-30 00:00:00,2014-10-31 00:00:00,40.08030904519486,1.6826294780063324,-900.2139312494709,4.120108537471102
sh600682,2014-12-12,15.65,15.98,15.44,15.9,0.023166,4471710.0,69875821.0,5691566940.0,5697314790.0,0.012492199380158744,87.43,2014-09-30 00:00:00,2014-10-31 00:00:00,38.622837643865935,1.6214427156871618,-867.4787530253078,3.970285831339669
sh600682,2014-12-11,15.3,15.56,15.02,15.54,0.011719,4887407.0,75061083.0,5562701270.0,5568318980.0,0.013653493346767477,85.45,2014-09-30 00:00:00,2014-10-31 00:00:00,37.74835915566578,1.5847308410239997,-847.8377438512498,3.8803926550918124
sh600682,2014-12-10,15.02,15.49,15.0,15.36,-0.0013,3478477.0,53029391.0,5498268440.0,5503821080.0,0.009717496936180873,84.46,2014-09-30 00:00:00,2014-10-31 00:00:00,37.311110254592215,1.566374498278672,-838.017022366141,3.835445074266483
sh600682,2014-12-09,16.03,16.03,14.82,15.38,-0.040549,8174470.0,125517078.0,5505427650.0,5510987520.0,0.022836254800296944,84.57,2014-09-30 00:00:00,2014-10-31 00:00:00,37.35967783577873,1.5684134357451407,-839.1078625875048,3.840437643202647
sh600682,2014-12-08,15.89,16.05,15.49,16.03,0.008811,4251078.0,66810271.0,5738101770.0,5743896610.0,0.011875840316439701,88.15,2014-09-30 00:00:00,2014-10-31 00:00:00,38.938599090290936,1.6346988389663888,-874.5708353918071,4.002744948103286
sh600682,2014-12-05,16.44,16.48,15.8,15.89,-0.032867,4503459.0,72344322.0,5687987340.0,5693731570.0,0.012580893597769507,87.38,2014-09-30 00:00:00,2014-10-31 00:00:00,38.59850763947948,1.6204213068318931,-866.9322949410813,3.96778479626341
sh600682,2014-12-04,16.46,16.58,16.23,16.43,-0.001216,4627163.0,75657719.0,5881285840.0,5887225280.0,0.012926473930741648,90.35,2014-09-30 00:00:00,2014-10-31 00:00:00,39.910237412516665,1.6754896243142288,-896.3940791401816,4.102625798378723
sh600682,2014-12-03,16.7,16.7,16.29,16.45,-0.013789,3390240.0,55678254.0,5888445040.0,5894391720.0,0.00947099745708079,90.46,2014-09-30 00:00:00,2014-10-31 00:00:00,39.9588273465701,1.6775295001864554,-897.4854214126193,4.107620665107493
sh600682,2014-12-02,16.62,16.84,16.5,16.68,0.0,3009789.0,50072127.0,5970775890.0,5976805710.0,0.008408166952653786,91.72,2014-09-30 00:00:00,2014-10-31 00:00:00,40.517523477805554,1.70098437371562,-910.0338785641403,4.165052575065066
sh600682,2014-12-01,17.02,17.05,16.29,16.68,-0.021700999999999998,5992237.0,99996241.0,5970775890.0,5976805710.0,0.01673995390237298,91.72,2014-09-30 00:00:00,2014-10-31 00:00:00,40.517523477805554,1.70098437371562,-910.0338785641403,4.165052575065066
sh600682,2014-11-28,16.92,17.1,16.68,17.05,0.0035310000000000003,3928854.0,66111706.0,6103221150.0,6109384730.0,0.010975673182021268,93.76,2014-09-30 00:00:00,2014-10-31 00:00:00,41.4162985731413,1.7387162551690436,-930.2205957116794,4.257443353274476
sh600682,2014-11-27,17.0,17.2,16.72,16.99,-0.002934,4705088.0,79646849.0,6081743540.0,6087885430.0,0.013144165746916714,93.43,2014-09-30 00:00:00,2014-10-31 00:00:00,41.27057218276396,1.7325984500419453,-926.9475439340483,4.24246321565998
sh600682,2014-11-26,17.2,17.28,16.85,17.04,-0.000587,3619144.0,61833023.0,6099641550.0,6105801510.0,0.010110465222337533,93.7,2014-09-30 00:00:00,2014-10-31 00:00:00,41.39201635876056,1.7376968526074958,-929.6752110031315,4.254947230835251
sh600682,2014-11-25,16.8,17.48,16.78,17.05,0.018519,8218626.0,141678186.0,6103221150.0,6109384730.0,0.022959609336784398,93.76,2014-09-30 00:00:00,2014-10-31 00:00:00,41.416327743145786,1.7387174797681197,-930.2212508773965,4.257446351843783
sh600682,2014-11-24,16.51,16.89,16.44,16.74,0.015777,4524224.0,75002428.0,5992253500.0,5998305010.0,0.012638902836804217,92.05,2014-09-30 00:00:00,2014-10-31 00:00:00,40.663284379717794,1.7071036276869844,-913.3077054796195,4.180036260338573
sh600682,2014-11-21,16.54,16.67,16.4,16.48,-0.002421,2852049.0,47143602.0,5899183850.0,5905141370.0,0.007967503423376099,90.62,2014-09-30 00:00:00,2014-10-31 00:00:00,40.03170418282536,1.6805889754217556,-899.1222536832587,4.115112136166278
sh600682,2014-11-20,16.5,16.68,16.4,16.52,0.001212,2316915.0,38157946.0,5913502260.0,5919474240.0,0.006472549449909232,90.84,2014-09-30 00:00:00,2014-10-31 00:00:00,40.128856143548894,1.6846675555737998,-901.3043114212095,4.12509900084733
sh600682,2014-11-19,16.4,16.75,16.35,16.5,0.0,1301703.0,21535716.0,5906343050.0,5912307800.0,0.003636446328663554,90.73,2014-09-30 00:00:00,2014-10-31 00:00:00,40.08027884558804,1.682628210183058,-900.2132529586237,4.1201054330624585
sh600682,2014-11-18,16.79,16.79,16.41,16.5,-0.017856999999999998,4080414.0,67708229.0,5906343050.0,5912307800.0,0.01139907222287063,90.73,2014-09-30 00:00:00,2014-10-31 00:00:00,40.08027884558804,1.682628210183058,-900.2132529586237,4.1201054330624585
sh600682,2014-11-17,16.88,17.05,16.52,16.8,0.0,4700831.0,79021813.0,6013731110.0,6019804310.0,0.013132273351676346,92.38,2014-09-30 00:00:00,2014-10-31 00:00:00,40.80900525237979,1.7132212011723935,-916.5806333279611,4.1950158307522
sh600682,2014-11-14,16.61,16.89,16.61,16.8,0.004785,2245813.0,37619596.0,6013731110.0,6019804310.0,0.0062739184226678875,92.38,2014-09-30 00:00:00,2014-10-31 00:00:00,40.80900525237979,1.7132212011723935,-916.5806333279611,4.1950158307522
sh600682,2014-11-13,16.77,17.07,16.62,16.72,-0.008892,4970390.0,83767488.0,5985094290.0,5991138570.0,0.013885315213638847,91.94,2014-09-30 00:00:00,2014-10-31 00:00:00,40.61466408473433,1.705062477218901,-912.2156812929742,4.175038272617724
sh600682,2014-11-12,16.1,16.9,16.03,16.87,0.047826,5414443.0,89423780.0,6038788320.0,6044886830.0,0.015125824680339184,92.77,2014-09-30 00:00:00,2014-10-31 00:00:00,40.97904979551606,1.7203599176062558,-920.3998769992515,4.212495785139182
sh600682,2014-11-11,16.77,17.02,16.01,16.1,-0.047337,5313455.0,87918972.0,5760985480.0,5768979130.0,0.014849304133292142,88.53,2014-09-30 00:00:00,2014-10-31 00:00:00,39.10863997984023,1.6418374020173732,-878.3899970026051,4.020224526914948
sh600682,2014-11-10,16.83,17.38,16.7,16.9,0.014406,4059293.0,69070596.0,6047245630.0,6055636480.0,0.01134434681463402,92.93,2014-09-30 00:00:00,2014-10-31 00:00:00,41.051914454366575,1.7234188816164508,-922.0364357622842,4.219986004405491
sh600682,2014-11-07,16.61,16.95,16.59,16.66,0.000601,5341817.0,89538006.0,5961367580.0,5969639270.0,0.014928566310618275,91.61,2014-09-30 00:00:00,2014-10-31 00:00:00,40.4689192043093,1.6989438958527958,-908.9422142241709,4.160056234294248
sh600682,2014-11-06,16.78,16.87,16.59,16.65,-0.0077469999999999995,2698110.0,45193813.0,5957789330.0,5966056060.0,0.007540302117396286,91.56,2014-09-30 00:00:00,2014-10-31 00:00:00,40.444611992501805,1.697923443863034,-908.3962680670626,4.157557542211379
sh600682,2014-11-05,16.86,16.99,16.58,16.78,-0.0071010000000000005,5346448.0,89616125.0,6004306600.0,6012637870.0,0.014941508389994609,92.27,2014-09-30 00:00:00,2014-10-31 00:00:00,40.760382677101305,1.7111799549742193,-915.4885579253099,4.190017608625399
sh600682,2014-11-04,17.2,17.4,16.51,16.9,-0.019153,7957797.0,133437963.0,6047245630.0,6055636480.0,0.022239342922142885,92.93,2014-09-30 00:00:00,2014-10-31 00:00:00,41.05189216335328,1.7234179458073977,-922.0359351004583,4.219983712971208
sh600682,2014-11-03,17.08,17.47,17.03,17.23,0.009965,4742338.0,81711740.0,6165327940.0,6173882630.0,0.013253225868144168,94.75,2014-09-30 00:00:00,2014-10-31 00:00:00,41.85351248803665,1.7570711291438905,-940.0405313983306,4.302387337649203
sh600682,2014-10-31,16.95,17.32,16.81,17.06,0.0,7856519.0,133539048.0,6104497660.0,6112967950.0,0.021956305269515,93.81,2014-09-30 00:00:00,2014-10-31 00:00:00,41.44055733420133,1.739734673126188,-930.7654536526816,4.259937064798486
sh600682,2014-10-30,16.64,17.56,16.64,17.06,0.022782,13183309.0,225334964.0,6104497660.0,6112967950.0,0.03684287619826854,93.81,2014-06-30 00:00:00,2014-08-30 00:00:00,40.01771148403924,1.7488362593529674,71.97796496798024,4.164636529127568
sh600682,2014-10-29,16.6,16.87,16.31,16.68,0.002404,10236773.0,169841386.0,5968524090.0,5976805710.0,0.028608307693033037,91.72,2014-06-30 00:00:00,2014-08-30 00:00:00,39.12633531293984,1.709881733695907,70.37468880756626,4.071871160352418
sh600682,2014-10-28,16.6,16.94,16.41,16.64,-0.0018,8728501.0,145417312.0,5954211080.0,5962472840.0,0.02439319914738394,91.5,2014-06-30 00:00:00,2014-08-30 00:00:00,39.03250118010287,1.705781036085158,70.20591379081313,4.062105857870098
sh600682,2014-10-27,16.42,16.98,16.35,16.67,0.014606999999999998,7921015.0,131785759.0,5964945830.0,5973222490.0,0.022136549737954623,91.67,2014-06-30 00:00:00,2014-08-30 00:00:00,39.10288637557891,1.7088569786467223,70.3325123129765,4.069430833370165
sh600682,2014-10-24,16.47,16.8,16.16,16.43,-0.001823,2602453.0,42636381.0,5879067790.0,5887225280.0,0.0072729732531286225,90.35,2014-06-30 00:00:00,2014-08-30 00:00:00,38.53993356598063,1.6842550649135304,69.31995571977771,4.010844428798703
sh600682,2014-10-23,16.9,17.07,16.19,16.46,-0.027761,6244285.0,104327201.0,5889802550.0,5897974940.0,0.017450658188872564,90.51,2014-06-30 00:00:00,2014-08-30 00:00:00,38.610320179668165,1.6873310694531432,69.446556792811,4.018169551891801
sh600682,2014-10-22,16.36,17.45,16.26,16.93,0.031688,10241184.0,172470931.0,6057980380.0,6066386130.0,0.028620634971419305,93.1,2014-06-30 00:00:00,2014-08-30 00:00:00,39.71278685556552,1.7355105786263907,71.42951146046497,4.132903074132802
sh600682,2014-10-21,16.02,16.85,16.0,16.41,0.025625,10964583.0,180082235.0,5871911290.0,5880058850.0,0.03064228973220745,90.24,2014-06-30 00:00:00,2014-08-30 00:00:00,38.49302003664433,1.682204870684151,69.23557457338357,4.005962145661092
sh600682,2014-10-20,15.19,16.12,15.0,16.0,0.058200999999999996,12966256.0,202197579.0,5725202960.0,5733146960.0,0.03623628672196452,87.98,2014-06-30 00:00:00,2014-08-30 00:00:00,37.531280961993254,1.6401753766573075,67.50573998623628,3.9058741213027104
sh600682,2014-10-17,14.76,15.16,14.44,15.12,0.023004,7011645.0,103497528.0,5410316800.0,5417823880.0,0.019595169066624712,83.14,2014-06-30 00:00:00,2014-08-30 00:00:00,35.467062459772066,1.5499658161892758,63.79292779560432,3.691051247638881
sh600682,2014-10-16,14.95,15.12,14.7,14.78,-0.011371,1753135.0,26209397.0,5288656230.0,5295994500.0,0.004899417578517861,81.27,2014-06-30 00:00:00,2014-08-30 00:00:00,34.669524713268046,1.5151121756994848,62.358434371326325,3.60805162798863
sh600682,2014-10-15,14.85,15.28,14.8,14.95,0.008092,2078691.0,31240343.0,5349486520.0,5356909190.0,0.005809236145154357,82.21,2014-06-30 00:00:00,2014-08-30 00:00:00,35.06828619559819,1.5325386729495947,63.07566778976373,3.6495506686417554
sh600682,2014-10-14,14.85,14.93,14.64,14.83,-0.001347,1738712.0,25742019.0,5306547490.0,5313910590.0,0.00485911018578296,81.55,2014-06-30 00:00:00,2014-08-30 00:00:00,34.78679147895053,1.520236915826725,62.569356556508474,3.620255560645017
sh600682,2014-10-13,14.98,14.98,14.51,14.85,-0.008678,1906987.0,28111902.0,5313704000.0,5321077020.0,0.0053293817175363925,81.66,2014-06-30 00:00:00,2014-08-30 00:00:00,34.83371248967413,1.52228743700437,62.65375115932008,3.6251386223693487
sh600682,2014-10-10,15.29,15.29,14.97,14.98,-0.018991,2221184.0,33504451.0,5360221270.0,5367658840.0,0.006207455745572235,82.37,2014-06-30 00:00:00,2014-08-30 00:00:00,35.13864565668281,1.5356134908782109,63.20222002469437,3.6568729659680184
sh600682,2014-10-09,15.18,15.48,14.87,15.27,0.011258,4737060.0,72017272.0,5463990570.0,5471572130.0,0.013238475665963678,83.97,2014-06-30 00:00:00,2014-08-30 00:00:00,35.81888204561101,1.565340879521198,64.42572904498773,3.727665052989339
sh600682,2014-10-08,14.91,15.1,14.81,15.1,0.012064,2169706.0,32629132.0,5403160290.0,5410657440.0,0.0060635922018889435,83.03,2014-06-30 00:00:00,2014-08-30 00:00:00,35.42012230866012,1.5479144585468771,63.70849876588144,3.68616619397754
sh600682,2014-09-30,14.99,15.09,14.88,14.92,-0.00067,1957437.0,29255812.0,5338751760.0,5346159540.0,0.005470372355353717,82.04,2014-06-30 00:00:00,2014-08-30 00:00:00,34.99790755195335,1.5294630167132484,62.94908105206926,3.6422263749896637
sh600682,2014-09-29,14.9,15.09,14.74,14.93,0.011518,4508392.0,67270214.0,5342330010.0,5349742760.0,0.012599426174348222,82.1,2014-06-30 00:00:00,2014-08-30 00:00:00,35.021371871106986,1.5304884439707087,62.99128521316208,3.644668302752508
sh600682,2014-09-26,14.93,15.0,14.68,14.76,-0.00472,2483625.0,36771150.0,5281499730.0,5288828070.0,0.0069408893068333075,81.16,2014-06-30 00:00:00,2014-08-30 00:00:00,34.6225888922461,1.513061007288757,62.27401312993154,3.6031670249590304
sh600682,2014-09-25,15.02,15.29,14.8,14.83,-0.017881,3970415.0,59436996.0,5306547490.0,5313910590.0,0.011095962970454827,81.55,2014-06-30 00:00:00,2014-08-30 00:00:00,34.786782505672875,1.5202365236805289,62.569340416698346,3.620254626797514
sh600682,2014-09-24,15.01,15.2,14.71,15.1,0.010033,5223415.0,78146781.0,5403160290.0,5410657440.0,0.014597672892654458,83.03,2014-06-30 00:00:00,2014-08-30 00:00:00,35.42012984747558,1.5479147880048434,63.70851232559226,3.686166978540802
sh600682,2014-09-23,14.88,15.15,14.88,14.95,-0.00466,2085638.0,31226392.0,5349486520.0,5356909190.0,0.0058286506533714935,82.21,2014-06-30 00:00:00,2014-08-30 00:00:00,35.068289696946124,1.5325388259639474,63.075674087472656,3.649551033026448
sh600682,2014-09-22,15.49,15.54,14.87,15.02,-0.03284,3459400.0,51953424.0,5374534280.0,5381991710.0,0.00966784939736211,82.59,2014-06-30 00:00:00,2014-08-30 00:00:00,35.23247302122503,1.5397138927039478,63.37098286763584,3.666637564075038
sh600682,2014-09-19,15.59,15.68,15.37,15.53,0.000644,2320811.0,36026533.0,5557025120.0,5564735770.0,0.006485879414199949,85.4,2014-06-30 00:00:00,2014-08-30 00:00:00,36.42879463710765,1.5919950087927,65.52274997687645,3.791138554194795
sh600682,2014-09-18,15.14,15.75,15.01,15.52,0.026455000000000003,7908215.0,122222831.0,5553446870.0,5561152550.0,0.02210077807046707,85.34,2014-06-30 00:00:00,2014-08-30 00:00:00,36.40534959197041,1.590970423839747,65.48058048304537,3.788698632275609
sh600682,2014-09-17,14.8,15.2,14.6,15.12,0.019555,3210784.0,47887693.0,5410316800.0,5417823880.0,0.008973052017952073,83.14,2014-06-30 00:00:00,2014-08-30 00:00:00,35.4670683000915,1.5499660714203225,63.79293830031066,3.691051855439946
sh600682,2014-09-16,15.34,15.37,14.79,14.83,-0.035761,5866678.0,88075529.0,5306547490.0,5313910590.0,0.01639537475240799,81.55,2014-06-30 00:00:00,2014-08-30 00:00:00,34.78681218775986,1.5202378208339153,62.569393804464355,3.620257715807333
sh600682,2014-09-15,15.38,15.74,15.3,15.38,-0.002594,8301200.0,128199775.0,5503351350.0,5510987520.0,0.02319903780084839,84.57,2014-06-30 00:00:00,2014-08-30 00:00:00,36.076960367460615,1.5766193037555165,64.88992231642193,3.7545232207028896
sh600682,2014-09-12,14.98,15.55,14.8,15.42,0.030060000000000003,8094642.0,123772087.0,5517664350.0,5525320380.0,0.022621778296463432,84.79,2014-06-30 00:00:00,2014-08-30 00:00:00,36.17078738995014,1.5807196906330183,65.05868454412939,3.7642877832125423
sh600682,2014-09-11,15.12,15.83,14.93,14.97,-0.020929,14152913.0,217994327.0,5356643020.0,5364075620.0,0.039552590459910844,82.32,2014-06-30 00:00:00,2014-08-30 00:00:00,35.11522376361585,1.5345899177067532,63.160092173397075,3.6544354534809065
sh600682,2014-09-10,15.2,15.58,14.76,15.29,0.011243000000000001,8202772.0,123774099.0,5471147080.0,5478738560.0,0.022923964946670743,84.08,2014-06-30 00:00:00,2014-08-30 00:00:00,35.86586035498534,1.5673939047390366,64.51022670817241,3.732554077774652
sh600682,2014-09-09,14.35,15.57,14.05,15.12,0.067797,12817565.0,191322533.0,5410316800.0,5417823880.0,0.03582074580179852,83.14,2014-06-30 00:00:00,2014-08-30 00:00:00,35.46710370799634,1.5499676188008586,63.79300198683444,3.6910555403346694
sh600682,2014-09-05,12.94,14.16,12.83,14.16,0.100233,7831445.0,105716593.0,5066804620.0,5073835060.0,0.021886231958160644,77.86,2014-06-30 00:00:00,2014-08-30 00:00:00,33.215211981300136,1.4515564464040063,59.74263084353528,3.4567015456446026
sh600682,2014-09-04,12.99,13.0,12.82,12.87,-0.009238,3402383.0,43826265.0,4605210130.0,4611600090.0,0.00950850622966036,70.77,2014-06-30 00:00:00,2014-08-30 00:00:00,30.189252623126315,1.3193173140634813,54.29998086181316,3.1417904622426365
sh600682,2014-09-03,13.01,13.22,12.89,12.99,-0.003834,3255869.0,42297661.0,4648149150.0,4654598690.0,0.009099049308690967,71.43,2014-06-30 00:00:00,2014-08-30 00:00:00,30.470741331547146,1.3316188086174896,54.80628128835498,3.171084944964216
sh600682,2014-09-02,12.91,13.08,12.75,13.04,0.011637,4878266.0,63115303.0,4666040410.0,4672514770.0,0.01363309852689424,71.71,2014-06-30 00:00:00,2014-08-30 00:00:00,30.588015784063245,1.3367438846713195,55.017217299481196,3.1832896775880886
sh600682,2014-09-01,12.93,13.02,12.66,12.89,-0.010744,3907530.0,50200936.0,4612366630.0,4618766520.0,0.01092022073275645,70.88,2014-06-30 00:00:00,2014-08-30 00:00:00,30.236157617864162,1.3213671353176284,54.3843466574287,3.146671857186015
sh600682,2014-08-29,12.3,13.29,12.15,13.03,0.05935,7020406.0,88972444.0,4662462160.0,4668931560.0,0.01961965310191386,71.65,2014-03-31 00:00:00,2014-04-30 00:00:00,31.84987038518162,1.3474062620633702,15.915287084783241,3.2412907441363203
sh600682,2014-08-28,12.34,12.35,12.11,12.3,-0.0032409999999999995,2306081.0,28271640.0,4401249780.0,4407356730.0,0.00644471405119843,67.64,2014-03-31 00:00:00,2014-04-30 00:00:00,30.065483914836097,1.2719179327543966,15.02363438408764,3.059697686445764
sh600682,2014-08-27,11.92,12.35,11.92,12.34,0.035235,4424639.0,54162025.0,4415562780.0,4421689590.0,0.012365364955812043,67.86,2014-03-31 00:00:00,2014-04-30 00:00:00,30.163242985351626,1.2760536225450654,15.072484305722487,3.0696464104620724
sh600682,2014-08-26,12.21,12.22,11.9,11.92,-0.018122,1454481.0,17485299.0,4265276210.0,4271194490.0,0.0040647809582301355,65.55,2014-03-31 00:00:00,2014-04-30 00:00:00,29.136614377751552,1.2326221800316504,14.559480992936376,2.9651686916130853
sh600682,2014-08-25,12.21,12.29,12.03,12.14,-0.004918,1197513.0,14538391.0,4343997750.0,4350025260.0,0.0033466425759543727,66.76,2014-03-31 00:00:00,2014-04-30 00:00:00,29.674373371998914,1.2553720319954722,14.828197589656124,3.0198952330259825
sh600682,2014-08-22,12.01,12.28,12.01,12.2,0.012448,3365840.0,41044570.0,4365467260.0,4371524560.0,0.00940638093343529,67.09,2014-03-31 00:00:00,2014-04-30 00:00:00,29.821033213342133,1.261576465050591,14.901483083460583,3.034820480147347
sh600682,2014-08-21,12.08,12.13,11.9,12.05,-0.004132,1964841.0,23603711.0,4311793480.0,4317776300.0,0.005491064022389124,66.26,2014-03-31 00:00:00,2014-04-30 00:00:00,29.454385028507275,1.2460654424233057,14.71827005778132,2.9975075067038968
sh600682,2014-08-20,12.23,12.23,12.05,12.1,-0.005752,2277195.0,27519134.0,4329684740.0,4335692390.0,0.006363987485148861,66.54,2014-03-31 00:00:00,2014-04-30 00:00:00,29.576595521200876,1.2512355477064288,14.779338283569029,3.009944597781932
sh600682,2014-08-19,12.34,12.35,12.06,12.17,0.0016460000000000001,2527727.0,30876339.0,4354732500.0,4360774910.0,0.007064139436808116,66.92,2014-03-31 00:00:00,2014-04-30 00:00:00,29.747704316428976,1.2584742918330525,14.864840848127459,3.0273579607722945
sh600682,2014-08-18,12.11,12.17,12.02,12.15,0.004963,2455811.0,29716806.0,4347576000.0,4353608470.0,0.006863158608383154,66.81,2014-03-31 00:00:00,2014-04-30 00:00:00,29.6988200586125,1.256406247150243,14.840413527461257,3.022383118159803
sh600682,2014-08-15,12.02,12.16,12.0,12.09,0.000828,1486107.0,17922489.0,4326106490.0,4332109170.0,0.0041531649004784435,66.48,2014-03-31 00:00:00,2014-04-30 00:00:00,29.55215272464011,1.2502014971200364,14.767124289611912,3.0074571085301676
sh600682,2014-08-14,12.24,12.24,12.03,12.08,-0.013072,2272091.0,27533747.0,4322528230.0,4328525950.0,0.00634972354593506,66.43,2014-03-31 00:00:00,2014-04-30 00:00:00,29.527703785905377,1.2491671866894574,14.754907226428427,3.0049689942029674
sh600682,2014-08-13,12.2,12.34,12.08,12.24,-0.006494,2720276.0,33099410.0,4379780260.0,4385857420.0,0.007602248574909098,67.31,2014-03-31 00:00:00,2014-04-30 00:00:00,29.918802370492454,1.2657125815555514,14.950338045357338,3.04477023065813
sh600682,2014-08-12,12.15,12.4,11.99,12.32,0.024106,4897637.0,59861411.0,4408406280.0,4414523160.0,0.013687233890792844,67.75,2014-03-31 00:00:00,2014-04-30 00:00:00,30.114365057173735,1.2739858456371187,15.048060147958177,3.064672212002877
sh600682,2014-08-11,11.99,12.13,11.92,12.03,0.0075379999999999996,1665915.0,20070700.0,4304636980.0,4310609870.0,0.004655667259077442,66.15,2014-03-31 00:00:00,2014-04-30 00:00:00,29.40551569581053,1.2439980291465131,14.6938501951538,2.992534182987774
sh600682,2014-08-08,12.03,12.06,11.92,11.94,-0.005,1451250.0,17373914.0,4272432710.0,4278360920.0,0.004055751412875968,65.66,2014-03-31 00:00:00,2014-04-30 00:00:00,29.185515281617697,1.2346909289242818,14.583916631584914,2.970145228257171
sh600682,2014-08-07,12.2,12.38,12.0,12.0,-0.012346,4036269.0,49235961.0,4293902219.9999995,4299860220.0,0.011280002552084199,65.99,2014-03-31 00:00:00,2014-04-30 00:00:00,29.332176162429842,1.240895405954052,14.657202644808958,2.985070581162986
sh600682,2014-08-06,12.27,12.27,12.03,12.15,-0.002463,4183990.0,50626347.0,4347576000.0,4353608470.0,0.011692832626732689,66.81,2014-03-31 00:00:00,2014-04-30 00:00:00,29.69883801658257,1.256407006860755,14.840422501006381,3.0223849457026306
sh600682,2014-08-05,12.05,12.45,12.05,12.18,0.008278,5429927.0,66651315.0,4358310750.0,4364358120.0,0.01517480387556119,66.98,2014-03-31 00:00:00,2014-04-30 00:00:00,29.772166863567538,1.2595091779660852,14.877064711390537,3.029847459996602
sh600682,2014-08-04,11.68,12.09,11.42,12.08,0.035133,6378395.0,74922702.0,4322528230.0,4328525950.0,0.01782545017641215,66.43,2014-03-31 00:00:00,2014-04-30 00:00:00,29.52773626278421,1.2491685606212626,14.7549234550298,3.004972299302972
sh600682,2014-08-01,11.95,11.96,11.66,11.67,-0.026688999999999997,3714245.0,43956661.0,4175819910.0,4181614060.0,0.010380054716009054,64.17,2014-03-31 00:00:00,2014-04-30 00:00:00,28.52554817862459,1.2067710725300638,14.254133000329231,2.9029818383753314
sh600682,2014-07-31,11.93,12.06,11.93,11.99,-0.000833,2521690.0,30207924.0,4290323969.9999995,4296277000.0,0.0070472680644674025,65.93,2014-03-31 00:00:00,2014-04-30 00:00:00,29.30774251870634,1.2398617425777203,14.644993224497854,2.9825840233751917
sh600682,2014-07-30,12.05,12.09,11.96,12.0,-0.004149,2113910.0,25431895.0,4293902219.9999995,4299860220.0,0.0059076613067355795,65.99,2014-03-31 00:00:00,2014-04-30 00:00:00,29.332176221498848,1.2408954084529615,14.657202674325566,2.9850705871743073
sh600682,2014-07-29,12.0,12.1,11.92,12.05,0.000831,1725134.0,20746413.0,4311793480.0,4317776300.0,0.004821164278025672,66.26,2014-03-31 00:00:00,2014-04-30 00:00:00,29.454382454301747,1.2460653335217433,14.718268771458348,2.9975072447327036
sh600682,2014-07-28,11.98,12.29,11.92,12.04,0.00417,6476115.0,78247742.0,4308215230.0,4314193090.0,0.018098544394217743,66.21,2014-03-31 00:00:00,2014-04-30 00:00:00,29.429926185641477,1.245030712999241,14.70604804553251,2.9950183844552214
sh600682,2014-07-25,11.8,12.19,11.75,11.99,0.01011,6843179.0,82072198.0,4290323969.9999995,4296277000.0,0.019124363750553788,65.93,2014-03-31 00:00:00,2014-04-30 00:00:00,29.30771302233833,1.239860494736191,14.644978485249021,2.98258102159517
sh600682,2014-07-24,11.86,12.04,11.65,11.87,-0.014119999999999999,6143464.0,72506552.0,4247384950.0,4253278400.0000005,0.01716889769551027,65.27,2014-03-31 00:00:00,2014-04-30 00:00:00,29.01437766415373,1.2274509654752364,14.498399664639514,2.952728932091722
sh600682,2014-07-23,11.72,12.25,11.67,12.04,0.027304000000000002,6957789.0,82692727.0,4308215230.0,4314193090.0,0.019444659815661066,66.21,2014-03-31 00:00:00,2014-04-30 00:00:00,29.42992825105868,1.2450308003765533,14.706049077615445,2.9950185946481542
sh600682,2014-07-22,11.54,11.75,11.5,11.72,0.009475,6572762.0,76690988.0,4193711170.0,4199530150.0000005,0.0183686399747935,64.45,2014-03-31 00:00:00,2014-04-30 00:00:00,28.647730614364086,1.2119399908659496,14.315187206139028,2.9154160741593085
sh600682,2014-07-21,11.59,11.68,11.39,11.61,0.007812999999999999,4088643.0,46991578.0,4154350400.0,4160114760.0,0.01142637010830863,63.84,2014-03-31 00:00:00,2014-04-30 00:00:00,28.378841094989067,1.2005646408934838,14.18082389968947,2.8880517835105466
sh600682,2014-07-18,11.53,11.74,11.35,11.52,-0.010309,6578502.0,76028408.0,4122146130.0,4127865810.0,0.018384681340736456,63.35,2014-03-31 00:00:00,2014-04-30 00:00:00,28.158836108473558,1.1912573472395014,14.070888051344316,2.8656623634647955
sh600682,2014-07-17,11.72,11.83,11.3,11.64,-0.009362,4848892.0,55662731.0,4165085150.0,4170864410.0,0.013551008166063545,64.01,2014-03-31 00:00:00,2014-04-30 00:00:00,28.452149315769834,1.2036659394088676,14.217455803219707,2.8955121987214145
sh600682,2014-07-16,11.79,11.9,11.68,11.75,-0.008439,4479813.0,52807325.0,4204445920.0,4210279800.0,0.012519557571096076,64.61,2014-03-31 00:00:00,2014-04-30 00:00:00,28.72103565153954,1.215041154699161,14.351817518831002,2.922876165381718
sh600682,2014-07-15,11.63,11.86,11.49,11.85,0.018917,8583949.0,100467058.0,4240228440.0000005,4246111969.9999995,0.02398922536588618,65.16,2014-03-31 00:00:00,2014-04-30 00:00:00,28.965475297575786,1.225382154702697,14.473963295078168,2.947752246590697
sh600682,2014-07-14,11.63,11.79,11.27,11.63,0.0008609999999999999,5555907.0,64006680.0,4161506900.0,4167281200.0,0.015526875231181283,63.95,2014-03-31 00:00:00,2014-04-30 00:00:00,28.42770833892828,1.2026319658055535,14.205242718570961,2.8930248946584434
sh600682,2014-07-11,11.71,11.99,11.48,11.62,-0.027614999999999997,4426859.0,51808336.0,4157928650.0,4163697980.0,0.01237156909366398,63.9,2014-03-31 00:00:00,2014-04-30 00:00:00,28.40325313797648,1.201597390452374,14.193022526175923,2.8905361430392866
sh600682,2014-07-10,11.87,12.15,11.87,11.95,-0.0025039999999999997,5527165.0,66383051.0,4276010960.0,4281944139.9999995,0.015446551088821344,65.71,2014-03-31 00:00:00,2014-04-30 00:00:00,29.20988408704009,1.2357218493213837,14.596093652386577,2.9726251875947143
sh600682,2014-07-09,12.1,12.35,11.75,11.98,-0.018033,5837458.0,70975090.0,4286745719.9999995,4292693790.0,0.01631371474023423,65.88,2014-03-31 00:00:00,2014-04-30 00:00:00,29.283209242984523,1.2388238642775347,14.632734018368572,2.9800873262596683
sh600682,2014-07-08,12.28,12.34,11.82,12.2,-0.0073230000000000005,10565836.0,127370361.0,4365467260.0,4371524560.0,0.02952792714335922,67.09,2014-03-31 00:00:00,2014-04-30 00:00:00,29.82097080959393,1.2615738250649307,14.901451900490109,3.034814129456151
sh600682,2014-07-07,12.5,12.65,11.9,12.29,-0.012851,10256883.0,125589160.0,4397671520.0,4403773510.0,0.02866450836464475,67.58,2014-03-31 00:00:00,2014-04-30 00:00:00,30.04096076527806,1.2708804828407736,15.011380237972785,3.0572020198474945
sh600682,2014-07-04,11.2,12.69,11.2,12.45,0.078178,13571988.0,164999553.0,4454923550.0,4461104980.0,0.0379291021952554,68.46,2014-03-31 00:00:00,2014-04-30 00:00:00,30.43204294921847,1.2874251838788,15.20680286154652,3.0970015872451824
sh600682,2014-02-28,11.37,11.65,11.23,11.64,0.022847,1682064.0,19385802.0,4160021750.0,4170864410.0,0.004706519854132975,63.5,2013-09-30 00:00:00,2013-10-31 00:00:00,30.92216641798216,1.3362798834572809,12.762984244019464,3.1041838482775974
sh600682,2014-02-27,11.62,11.64,11.3,11.38,-0.006981,1312534.0,14951581.0,4067100310.0,4077700780.0,0.003672551887465004,62.08,2013-09-30 00:00:00,2013-10-31 00:00:00,30.231468067054173,1.3064318353158202,12.47790162557984,3.034846705594871
sh600682,2014-02-26,10.9,11.57,10.88,11.46,0.051376,1499088.0,16869808.0,4095691520.0,4106366510.0,0.0041945416045395915,62.51,2013-09-30 00:00:00,2013-10-31 00:00:00,30.443997614400303,1.315616151670633,12.565622234398175,3.056181911519187
sh600682,2014-02-25,11.23,11.28,10.88,10.9,-0.021544,1864519.0,20675453.0,3895553020.0,3905706370.0,0.005217040300994287,59.46,2013-09-30 00:00:00,2013-10-31 00:00:00,28.956336852277683,1.251327928039667,11.951596987565033,2.9068400948083144
sh600682,2014-02-24,11.23,11.28,11.0,11.14,-0.014159,1429666.0,15877491.0,3981326660.0,3991703570.0,0.004000294524941091,60.77,2013-09-30 00:00:00,2013-10-31 00:00:00,29.59390800636685,1.2788801213745604,12.214751595948139,2.970843957018317
sh600682,2014-02-21,11.51,11.61,11.28,11.3,-0.022491,1612940.0,18434181.0,4038509090.0,4049035040.0,0.0045131065930075695,61.64,2013-09-30 00:00:00,2013-10-31 00:00:00,30.018946266555005,1.297247853735603,12.390184214237529,3.013512277353364
sh600682,2014-02-20,11.75,11.8,11.56,11.56,-0.017842,2650649.0,30967241.0,4131430540.0,4142198680.0,0.007416681012383667,63.06,2013-09-30 00:00:00,2013-10-31 00:00:00,30.70963670570297,1.3270955599750007,12.675263567125754,3.082848625796145
sh600682,2014-02-19,11.76,11.81,11.58,11.77,0.00085,1639835.0,19254842.0,4206482480.0000005,4217446230.0000005,0.0045883604749971515,64.21,2013-09-30 00:00:00,2013-10-31 00:00:00,31.267511648536154,1.3512037370514731,12.905523924995524,3.1388520236012383
sh600682,2014-02-18,11.75,11.86,11.59,11.76,0.006848999999999999,1520282.0,17876986.0,4202908580.0,4213863019.9999995,0.004253843732189864,64.15,2013-09-30 00:00:00,2013-10-31 00:00:00,31.240956835226214,1.3500561892905762,12.894563545981441,3.1361862652757537
sh600682,2014-02-17,11.64,11.85,11.64,11.68,-0.006803,1420137.0,16660096.0,4174317360.0,4185197280.0,0.003973631789222657,63.72,2013-09-30 00:00:00,2013-10-31 00:00:00,31.028443028921124,1.3408725531738879,12.806849434206558,3.1148526395474927
sh600682,2014-02-14,11.56,11.92,11.56,11.76,0.017301,2064565.0,24281070.0,4202908580.0,4213863019.9999995,0.005776781468798924,64.15,2013-09-30 00:00:00,2013-10-31 00:00:00,31.240975384461617,1.3500569908828641,12.894571202094406,3.136188127378045
sh600682,2014-02-13,11.63,11.72,11.5,11.56,-0.007725,1273936.0,14820733.0,4131430540.0,4142198680.0,0.0035645522821739126,63.06,2013-09-30 00:00:00,2013-10-31 00:00:00,30.709667428284863,1.3270968876299778,12.675276247732388,3.082851709944299
sh600682,2014-02-12,11.48,11.69,11.43,11.65,0.013043,1009690.0,11692369.0,4163595660.0,4174447630.0,0.0028251755118795566,63.55,2013-09-30 00:00:00,2013-10-31 00:00:00,30.948746494958414,1.3374285229699203,12.77395505049748,3.1068521427470195
sh600682,2014-02-11,11.43,11.55,11.33,11.5,0.004367,824092.0,9445408.0,4109987130.0,4120699380.0,0.002305860748522587,62.73,2013-09-30 00:00:00,2013-10-31 00:00:00,30.550279203309646,1.3202090365067627,12.609489479220015,3.0668512025126473
sh600682,2014-02-10,11.23,11.45,11.18,11.45,0.022321,1053381.0,11930201.0,4092117620.0,4102783290.0,0.002947425653420001,62.46,2013-09-30 00:00:00,2013-10-31 00:00:00,30.41744621568575,1.3144687514690974,12.554663264742883,3.053516495974726
sh600682,2014-02-07,11.25,11.25,11.12,11.2,-0.009726,379708.0,4250234.0,4002770070.0,4013202870.0,0.0010624466371109845,61.1,2013-09-30 00:00:00,2013-10-31 00:00:00,29.75332230843908,1.2857690994013595,12.280549127664289,2.9868470822517836
sh600682,2014-01-30,11.25,11.5,11.05,11.31,0.006228,853897.0,9699935.0,4042082990.0,4052618260.0,0.0023892569979123562,61.7,2013-09-30 00:00:00,2013-10-31 00:00:00,30.04554528185036,1.2983973116545113,12.401162837421046,3.0161824729840263
sh600682,2014-01-29,11.26,11.38,11.18,11.24,-0.006189,430790.0,4870215.0,4017065680.0,4027535740.0,0.001205377254374392,61.31,2013-09-30 00:00:00,2013-10-31 00:00:00,29.85957981873925,1.2903609436971655,12.324406434149164,2.99751395606565
sh600682,2014-01-28,11.36,11.45,11.27,11.31,-0.006151,270440.0,3065422.0,4042082990.0,4052618260.0,0.000756707966552661,61.7,2013-09-30 00:00:00,2013-10-31 00:00:00,30.045531613897662,1.2983967210034557,12.401157196035427,3.0161811008991144
sh600682,2014-01-27,11.3,11.43,11.11,11.38,0.001761,691396.0,7775481.0,4067100310.0,4077700780.0,0.0019345690738569467,62.08,2013-09-30 00:00:00,2013-10-31 00:00:00,30.231485481091863,1.3064325878513294,12.477908813145085,3.034848453738057
sh600682,2014-01-24,11.1,11.4,10.92,11.36,0.025271000000000002,1161836.0,13005455.0,4059952500.0,4070534340.0,0.003250889501786043,61.97,2013-09-30 00:00:00,2013-10-31 00:00:00,30.178341421847986,1.304136004347673,12.455973843207197,3.0295134804988986
sh600682,2014-01-23,10.88,11.16,10.73,11.08,0.018382,774888.0,8524471.0,3959883250.0,3970204270.0,0.0021681848928248072,60.44,2013-09-30 00:00:00,2013-10-31 00:00:00,29.4345021188037,1.2719915069749101,12.148957537282529,2.9548416764922627
sh600682,2014-01-22,10.79,10.95,10.66,10.88,0.011152,409455.0,4444855.0,3888405210.0,3898539930.0,0.001145680596390313,59.35,2013-09-30 00:00:00,2013-10-31 00:00:00,28.903203433292912,1.2490318043473965,11.929666409345934,2.9015061897129595
sh600682,2014-01-21,10.56,10.79,10.56,10.76,0.018938999999999998,432251.0,4625264.0,3845518390.0,3855541330.0,0.0012094652237510167,58.7,2013-09-30 00:00:00,2013-10-31 00:00:00,28.58442987136742,1.2352562269049523,11.79809406434041,2.869505464769846
sh600682,2014-01-20,10.58,10.72,10.52,10.56,-0.0018899999999999998,423814.0,4482944.0,3774040350.0,3783876990.0,0.0011858579731401123,57.61,2013-09-30 00:00:00,2013-10-31 00:00:00,28.05313161177207,1.2122965426830776,11.578803112198482,2.8161700207469202
sh600682,2014-01-17,10.88,10.88,10.5,10.58,-0.017641999999999998,264996.0,2812557.0,3781188160.0,3791043430.0,0.0007414753144683496,57.71,2013-09-30 00:00:00,2013-10-31 00:00:00,28.106252428862618,1.2145921217932667,11.60072848904277,2.821502660775786
sh600682,2014-01-16,10.99,11.0,10.6,10.77,-0.015538999999999999,549827.0,5944022.0,3849092290.0,3859124550.0,0.0015384501965267244,58.75,2013-09-30 00:00:00,2013-10-31 00:00:00,28.61100782898151,1.2364047748308324,11.809063996061285,2.8721735464828364
sh600682,2014-01-15,10.85,11.0,10.71,10.94,0.004591,330753.0,3605422.0,3909848620.0,3920039230.0,0.0009254674980229798,59.68,2013-09-30 00:00:00,2013-10-31 00:00:00,29.062611753011556,1.2559205238509523,11.995461471872714,2.917508714395833
sh600682,2014-01-14,10.56,10.9,10.5,10.89,0.033207,492197.0,5283643.0,3891979110.0,3902123150.0,0.0013771978673338767,59.41,2013-09-30 00:00:00,2013-10-31 00:00:00,28.92979506387331,1.2501809431409918,11.940641984521775,2.9041756440141637
sh600682,2014-01-13,10.81,10.96,10.45,10.54,-0.026777,778681.0,8291894.0,3766892550.0,3776710560.0,0.002178797943148126,57.5,2013-09-30 00:00:00,2013-10-31 00:00:00,27.999999093960174,1.2100004579343653,11.55687290593441,2.810836206117616
sh600682,2014-01-10,11.09,11.09,10.8,10.83,-0.023445,652283.0,7110239.0,3870535700.0,3880623850.0,0.0018251284673591825,59.08,2013-09-30 00:00:00,2013-10-31 00:00:00,28.77038365714762,1.2432920902345768,11.874845647846806,2.888172809435881
sh600682,2014-01-09,11.2,11.31,11.08,11.09,-0.011585999999999999,557028.0,6227467.0,3963457150.0,3973787490.0,0.001558599042757407,60.5,2013-09-30 00:00:00,2013-10-31 00:00:00,29.461099126160452,1.2731408781221505,12.159935331698476,2.957511670551972
sh600682,2014-01-08,11.48,11.49,11.2,11.22,-0.016652,355743.0,4017964.0,4009917880.0,4020369310.0,0.0009953910726969801,61.21,2013-09-30 00:00:00,2013-10-31 00:00:00,29.806436499443,1.2880643921698303,12.30247176962131,2.992179057107621
sh600682,2014-01-07,11.31,11.6,11.19,11.41,0.008842000000000001,2836412.0,32372724.0,4077822010.0,4088450430.0,0.007936457462006783,62.24,2013-09-30 00:00:00,2013-10-31 00:00:00,30.31117823948693,1.3098764548967712,12.510801638505706,3.0428485715205813
sh600682,2014-01-06,11.6,11.6,11.21,11.31,-0.022472,564730.0,6395489.0,4042082990.0,4052618260.0,0.0015801497187963476,61.7,2013-09-30 00:00:00,2013-10-31 00:00:00,30.04551578888164,1.2983960371364112,12.401150664331684,3.0161795122730632
sh600682,2014-01-03,11.33,11.59,11.21,11.57,0.015803,848395.0,9660138.0,4135004440.0,4145781900.0,0.0023738620580538,63.12,2013-09-30 00:00:00,2013-10-31 00:00:00,30.736220127588815,1.3282443440355785,12.686235754200068,3.085517256051042
sh600682,2014-01-02,11.47,11.48,11.31,11.39,0.002641,425851.0,4854264.0,4070674210.0,4081283990.0,0.001191557624062477,62.13,2013-09-30 00:00:00,2013-10-31 00:00:00,30.258052129781873,1.3075806470699325,12.488874077158728,3.037515400181966
sh600682,2013-12-31,11.4,11.48,11.21,11.36,-0.0035090000000000004,653924.0,7411090.0,4059952500.0,4070534340.0,0.0018297200866266292,61.97,2013-09-30 00:00:00,2013-10-31 00:00:00,30.178351104514853,1.3041364227773775,12.455977839684124,3.0295144525128803
sh600682,2013-12-30,11.3,11.46,11.1,11.4,0.015137999999999999,1282713.0,14449984.0,4074248110.0,4084867210.0,0.0035891108752333697,62.19,2013-09-30 00:00:00,2013-10-31 00:00:00,30.284619835517685,1.3087287519680333,12.499839777463242,3.0401824527395434
sh600682,2013-12-27,11.23,11.33,11.15,11.23,0.0,723569.0,8103203.0,4013491780.0,4023952520.0,0.0020245911329610346,61.26,2013-09-30 00:00:00,2013-10-31 00:00:00,29.833007763986455,1.2892126508593247,12.313438938807572,2.9948464669232586
sh600682,2013-12-26,11.41,11.47,11.23,11.23,-0.018357,790250.0,8952236.0,4013491780.0,4023952520.0,0.0022111687245065193,61.26,2013-09-30 00:00:00,2013-10-31 00:00:00,29.833007763986455,1.2892126508593247,12.313438938807572,2.9948464669232586
sh600682,2013-12-25,11.35,11.49,11.31,11.44,0.00439,754628.0,8585955.0,4088543720.0,4099200080.0,0.002111496149049373,62.41,2013-09-30 00:00:00,2013-10-31 00:00:00,30.390893394020488,1.313321289775738,12.543703707771128,3.050850937584497
sh600682,2013-12-24,11.42,11.44,11.02,11.39,-0.004371,1469901.0,16491597.0,4070674210.0,4081283990.0,0.0041128745574556804,62.13,2013-09-30 00:00:00,2013-10-31 00:00:00,30.258060508388663,1.3075810091455888,12.488877535390762,3.037516241285255
sh600682,2013-12-23,11.8,12.06,11.36,11.44,-0.032149000000000004,2108116.0,24440476.0,4088543720.0,4099200080.0,0.0058986398805098254,62.41,2013-09-30 00:00:00,2013-10-31 00:00:00,30.390899128479244,1.313321537586379,12.543706074643026,3.050851513249669
sh600682,2013-12-20,12.03,12.18,11.73,11.82,-0.017456,1802470.0,21401224.0,4224351990.0,4235362320.0000005,0.005043423334616584,64.48,2013-09-30 00:00:00,2013-10-31 00:00:00,31.40039027544451,1.3569459943590274,12.960368976880767,3.152191311730493
sh600682,2013-12-19,11.82,12.29,11.82,12.03,0.014334,2847393.0,34406278.0,4299403930.0,4310609870.0,0.00796718297412916,65.62,2013-09-30 00:00:00,2013-10-31 00:00:00,31.958253549402887,1.3810536671732025,13.19062451847527,3.208193538132127
sh600682,2013-12-18,11.85,12.3,11.8,11.86,0.005937,4065741.0,48922354.0,4238647590.0,4249695179.9999995,0.011376196590101513,64.7,2013-09-30 00:00:00,2013-10-31 00:00:00,31.506637408785355,1.3615373902217638,13.004222000322644,3.162857143832433
sh600682,2013-12-17,11.75,11.87,11.65,11.79,0.003404,764959.0,8977336.0,4213630280.0000005,4224612670.0,0.0021404029330261976,64.32,2013-09-30 00:00:00,2013-10-31 00:00:00,31.32068649307596,1.3535016509202502,12.927471601424983,3.144190087284226
sh600682,2013-12-16,12.17,12.31,11.72,11.75,-0.037674,3740744.0,44898532.0,4199334670.0,4210279800.0,0.010466834737894325,64.1,2013-09-30 00:00:00,2013-10-31 00:00:00,31.214432564625973,1.3489099614116051,12.88361577333256,3.1335235730415927
sh600682,2013-12-13,12.15,12.34,12.02,12.21,0.006595,2771367.0,33708228.0,4363734160.0,4375107770.0,0.007754457496558407,66.61,2013-09-30 00:00:00,2013-10-31 00:00:00,32.43644312283568,1.401718296514492,13.387995100758538,3.2561975599137845
sh600682,2013-12-12,11.75,12.35,11.75,12.13,0.015913,2553360.0,31204326.0,4335142940.0,4346442040.0,0.007144460339293912,66.17,2013-09-30 00:00:00,2013-10-31 00:00:00,32.223926328697935,1.3925345312806963,13.300279755769242,3.2348636342459334
sh600682,2013-12-11,11.55,11.96,11.3,11.94,0.033766000000000004,4116660.0,47687040.0,4267238809.9999995,4278360920.0,0.011518671109948966,65.13,2013-09-30 00:00:00,2013-10-31 00:00:00,31.71917903274979,1.3707222284592246,13.091947593710527,3.184193562092358
sh600682,2013-12-10,11.42,11.56,11.41,11.55,0.003475,1302341.0,14978317.0,4127856640.0,4138615460.0,0.0036440312399027507,63.01,2013-09-30 00:00:00,2013-10-31 00:00:00,30.683132384649706,1.3259501942018066,12.664324028562099,3.080187936237367
sh600682,2013-12-09,11.6,11.62,11.5,11.51,-0.007759,1854290.0,21425024.0,4113561030.0,4124282590.0,0.005188418925682014,62.79,2013-09-30 00:00:00,2013-10-31 00:00:00,30.576877734522242,1.321358473506372,12.620467902600563,3.0695213495476894
sh600682,2013-12-06,11.7,11.77,11.4,11.6,-0.009394,3015352.0,35021402.0,4145726150.0,4156531550.0,0.008437142718652558,63.28,2013-09-30 00:00:00,2013-10-31 00:00:00,30.81597891492313,1.3316910644756383,12.719155832706532,3.09352400228139
sh600682,2013-12-05,11.68,11.77,11.6,11.71,0.002568,2687257.0,31434759.0,4185039070.0,4195946929.9999995,0.007519112472706258,63.88,2013-09-30 00:00:00,2013-10-31 00:00:00,31.10820943434941,1.3443196028245725,12.839772657046831,3.122860150535521
sh600682,2013-12-04,11.58,11.76,11.58,11.68,0.007765,851951.0,9983405.0,4174317360.0,4185197280.0,0.0023838119677608792,63.72,2013-09-30 00:00:00,2013-10-31 00:00:00,31.028528173998584,1.340876232659104,12.806884577451935,3.1148611870072864
sh600682,2013-12-03,11.31,11.64,11.31,11.59,0.013112,710383.0,8195807.0,4142152240.0,4152948330.0,0.001987695886812697,63.22,2013-09-30 00:00:00,2013-10-31 00:00:00,30.789448109428868,1.3305445541957739,12.708205362809718,3.0908606540287535
sh600682,2013-12-02,11.72,11.72,11.11,11.44,-0.028862,2320418.0,26526921.0,4088543720.0,4099200080.0,0.006492674100596385,62.41,2013-09-30 00:00:00,2013-10-31 00:00:00,30.390961818070327,1.313324246673392,12.54373194948803,3.0508578064703147
sh600682,2013-11-29,11.88,11.88,11.7,11.78,-0.000848,669730.0,7884945.0,4210056380.0,4221029450.0,0.0018739462581733879,64.26,2013-09-30 00:00:00,2013-10-31 00:00:00,31.29417427602496,1.3523559439270136,12.916528803823999,3.14152860506984
sh600682,2013-11-28,11.65,11.91,11.54,11.79,0.012887000000000001,1368862.0,16088000.0,4213630280.0000005,4224612670.0,0.0038301611455098987,64.32,2013-09-30 00:00:00,2013-10-31 00:00:00,31.320734258676318,1.3535037150773992,12.927491316460356,3.144194882330056
sh600682,2013-11-27,11.57,11.67,11.51,11.64,0.005181,880889.0,10222700.0,4160021750.0,4170864410.0,0.0024647822959098713,63.5,2013-09-30 00:00:00,2013-10-31 00:00:00,30.922239360043438,1.3362830355976523,12.76301435052514,3.1041911707130763
sh600682,2013-11-26,11.58,11.84,11.53,11.58,0.0,2199572.0,25690976.0,4138578340.0,4149365110.0,0.0061545394740552374,63.17,2013-09-30 00:00:00,2013-10-31 00:00:00,30.76285699793712,1.329395437834233,12.69723000188537,3.088191251837307
sh600682,2013-11-25,11.62,11.62,11.45,11.58,-0.0017239999999999998,2680747.0,30876660.0,4138578340.0,4149365110.0,0.007500897097915029,63.17,2013-09-30 00:00:00,2013-10-31 00:00:00,30.76285699793712,1.329395437834233,12.69723000188537,3.088191251837307
sh600682,2013-11-22,11.67,11.75,11.55,11.6,0.001727,2090468.0,24366127.0,4145726150.0,4156531550.0,0.0058492596767396226,63.28,2013-09-30 00:00:00,2013-10-31 00:00:00,30.815983753928894,1.3316912735899018,12.719157829984262,3.093524488054713
sh600682,2013-11-21,11.76,11.76,11.51,11.58,-0.014468,1030708.0,11923761.0,4138578340.0,4149365110.0,0.002883985189948102,63.17,2013-09-30 00:00:00,2013-10-31 00:00:00,30.762856301096896,1.329395407720768,12.69722971426772,3.0881911818836
sh600682,2013-11-20,11.72,11.83,11.62,11.75,0.00256,948988.0,11127251.0,4199334670.0,4210279800.0,0.0026553275402553234,64.1,2013-09-30 00:00:00,2013-10-31 00:00:00,31.214467212730682,1.3489114587053166,12.88363007418097,3.1335270512612476
sh600682,2013-11-19,11.73,11.86,11.63,11.72,-0.0008529999999999999,975112.0,11455469.0,4188612970.0,4199530150.0000005,0.0027284241160147106,63.93,2013-09-30 00:00:00,2013-10-31 00:00:00,31.134762221443786,1.3454670630239751,12.850732199749611,3.1255257054552823
sh600682,2013-11-18,11.83,11.85,11.53,11.73,0.0008529999999999999,3557609.0,41722501.0,4192010920.0,4203113370.0,0.00995482940440432,63.99,2013-09-30 00:00:00,2013-10-31 00:00:00,31.16134284689219,1.3466157262384568,12.861703232607027,3.128194054984184
sh600682,2013-11-15,11.19,11.8,11.19,11.72,0.037168,4108449.0,47355982.0,4188437170.0,4199530150.0000005,0.01149617872386516,63.93,2013-09-30 00:00:00,2013-10-31 00:00:00,31.13478487539348,1.3454680419986318,12.850741550064821,3.12552797961757
sh600682,2013-11-14,10.81,11.35,10.43,11.3,0.040516,3248251.0,35120343.0,4038339590.0,4049035040.0,0.009089190119348037,61.64,2013-09-30 00:00:00,2013-10-31 00:00:00,30.01903729713361,1.2972517875586518,12.39022178669687,3.013521415641024
sh600682,2013-11-13,11.2,11.24,10.8,10.86,-0.030357,986383.0,10898991.0,3881094510.0,3891373500.0,0.0027600769196419283,59.24,2013-09-30 00:00:00,2013-10-31 00:00:00,28.85014482923243,1.2467389137299683,11.907766710648247,2.896179795064203
sh600682,2013-11-12,11.26,11.36,11.02,11.2,-0.015816999999999998,2092400.0,23352137.0,4002602070.0,4013202870.0,0.005854911277752874,61.1,2013-09-30 00:00:00,2013-10-31 00:00:00,29.753367816023452,1.2857710659799206,12.280567910713783,2.986851650622139
sh600682,2013-11-11,11.16,11.43,11.16,11.38,0.006189,398507.0,4501549.0,4066929610.0,4077700780.0,0.001115094209855282,62.08,2013-09-30 00:00:00,2013-10-31 00:00:00,30.231540085556702,1.3064349475452437,12.477931350890822,3.0348539353170487
sh600682,2013-11-08,11.7,11.87,11.29,11.31,-0.034983,1970480.0,22940535.0,4041913340.0,4052618260.0,0.005513757204898411,61.7,2013-09-30 00:00:00,2013-10-31 00:00:00,30.045587941784994,1.2983991551738727,12.401180445116001,3.0161867554873374
sh600682,2013-11-07,11.75,11.91,11.51,11.72,-0.005937,2182904.0,25595798.0,4188437170.0,4199530150.0000005,0.006108157730822545,63.93,2013-09-30 00:00:00,2013-10-31 00:00:00,31.134775803726768,1.3454676499728737,12.850737805775443,3.125527068940068
sh600682,2013-11-06,11.71,11.97,11.6,11.79,0.000849,3534268.0,41502107.0,4213453429.9999995,4224612670.0,0.009889517093820117,64.32,2013-09-30 00:00:00,2013-10-31 00:00:00,31.32072695968643,1.3535033996566352,12.927488303835313,3.1441941496062804
sh600682,2013-11-05,11.48,11.83,11.45,11.78,0.017271,3144484.0,36340711.0,4209879679.9999995,4221029450.0,0.008798831400331138,64.26,2013-09-30 00:00:00,2013-10-31 00:00:00,31.294158219358184,1.352355250049343,12.916522176507454,3.1415269931890624
sh600682,2013-11-04,11.55,11.65,11.3,11.58,0.008711,796926.0,9189056.0,4138404640.0,4149365110.0,0.0022299421837106773,63.17,2013-09-30 00:00:00,2013-10-31 00:00:00,30.762852985446536,1.329395264437247,12.69722834574804,3.088190849035372
sh600682,2013-11-01,11.64,11.64,11.09,11.48,-0.007779,1388427.0,15822530.0,4102667120.0,4113532940.0,0.003885068296742535,62.62,2013-09-30 00:00:00,2013-10-31 00:00:00,30.497191946401436,1.3179149076764776,12.5875779541891,3.061521931490162
sh600682,2013-10-31,11.61,11.76,11.56,11.57,-0.017827000000000003,1122705.0,13073474.0,4134830890.0,4145781900.0,0.0031415303782835,63.12,2013-09-30 00:00:00,2013-10-31 00:00:00,30.736289542754523,1.3282473437636146,12.68626440499556,3.0855242244320182
sh600682,2013-10-30,11.54,11.89,11.48,11.78,0.009426,1021694.0,11922271.0,4209879679.9999995,4221029450.0,0.002858883444383855,64.26,2013-06-30 00:00:00,2013-08-30 00:00:00,33.308741979787875,1.4288630749627422,12.734394962146816,3.149571732497626
sh600682,2013-10-29,11.8,11.9,10.6,11.67,-0.009337999999999999,3496723.0,39680798.0,4170568410.0,4181614060.0,0.009784459430555175,63.66,2013-06-30 00:00:00,2013-08-30 00:00:00,32.997705606738755,1.4155203798621616,12.615481434148533,3.1201610940253435
sh600682,2013-10-28,11.82,11.9,11.65,11.78,-0.004227000000000001,1199275.0,14172873.0,4209879679.9999995,4221029450.0,0.0033557869995942497,64.26,2013-06-30 00:00:00,2013-08-30 00:00:00,33.30874264556302,1.4288631035228578,12.734395216681907,3.149571795451267
sh600682,2013-10-25,11.87,11.96,11.62,11.83,-0.00337,2268674.0,26729037.0,4227748440.0000005,4238945530.0000005,0.00634815760703113,64.53,2013-06-30 00:00:00,2013-08-30 00:00:00,33.450136372007506,1.4349285464888666,12.788452003299858,3.162941549380499
sh600682,2013-10-24,11.7,12.01,11.63,11.87,0.006784999999999999,3684785.0,43400072.0,4242043450.0,4253278400.0000005,0.010310690700256735,64.75,2013-06-30 00:00:00,2013-08-30 00:00:00,33.5632445059927,1.439780607134911,12.83169481482582,3.173636705076607
sh600682,2013-10-23,12.46,12.47,11.51,11.79,-0.053012000000000004,4551248.0,54331610.0,4213453429.9999995,4224612670.0,0.012735209920191287,64.32,2013-06-30 00:00:00,2013-08-30 00:00:00,33.33705260407405,1.4300775310864893,12.745218507254101,3.1522486976629636
sh600682,2013-10-22,12.0,12.47,12.0,12.45,0.020492,4930191.0,60142427.0,4449321050.0,4461104980.0,0.01379556054962588,67.92,2013-06-30 00:00:00,2013-08-30 00:00:00,35.20324714154145,1.5101326849827974,13.458690614088141,3.3287102874196544
sh600682,2013-10-21,12.6,12.7,12.17,12.2,-0.023219,6852631.0,84450954.0,4359977260.0,4371524560.0,0.019174893173640083,66.55,2013-06-30 00:00:00,2013-08-30 00:00:00,34.49634797876069,1.4798084502208715,13.18843324013137,3.2618680865892675
sh600682,2013-10-18,11.97,12.58,11.84,12.49,0.042571,5439685.0,66108119.0,4463616060.0,4475437850.0,0.015221216327015367,68.13,2013-06-30 00:00:00,2013-08-30 00:00:00,35.31635850693317,1.514984884248231,13.501934661025727,3.33940574866758
sh600682,2013-10-17,12.22,12.36,11.94,11.98,-0.018033,2631320.0,31960649.0,4281354719.9999995,4292693790.0,0.007362906290558425,65.35,2013-06-30 00:00:00,2013-08-30 00:00:00,33.8742958579638,1.4531239447943893,12.950614069474145,3.2030487599094744
sh600682,2013-10-16,12.42,12.45,11.82,12.2,-0.027112999999999998,4442389.0,53826293.0,4359977260.0,4371524560.0,0.012430602860529598,66.55,2013-06-30 00:00:00,2013-08-30 00:00:00,34.49636887793968,1.4798093467442277,13.188441230177942,3.261870062751064
sh600682,2013-10-15,12.51,12.9,12.32,12.54,0.000798,4742716.0,59968996.0,4481484820.0,4493353930.0,0.0132709717936744,68.41,2013-06-30 00:00:00,2013-08-30 00:00:00,35.4577344315832,1.5210495635610588,13.555984641770259,3.3527738193141277
sh600682,2013-10-14,11.79,12.6,11.78,12.53,0.063667,6499033.0,79738228.0,4477911070.0,4489770710.0,0.018185462421432142,68.35,2013-06-30 00:00:00,2013-08-30 00:00:00,35.429461721129734,1.5198367338474483,13.545175591648123,3.3501004391636746
sh600682,2013-10-11,12.03,12.05,11.6,11.78,-0.0134,6538744.0,77406423.0,4209879679.9999995,4221029450.0,0.018296580941714706,64.26,2013-06-30 00:00:00,2013-08-30 00:00:00,33.30879092904991,1.4288651747656442,12.734413676129957,3.149576360988613
sh600682,2013-10-10,11.05,11.97,11.05,11.94,0.071813,6829501.0,79756124.0,4267059710.0,4278360920.0,0.019110171284666647,65.13,2013-06-30 00:00:00,2013-08-30 00:00:00,33.76119088693484,1.4482720198313848,12.907372467190308,3.1923539032927355
sh600682,2013-10-09,10.99,11.35,10.83,11.14,0.012727,4376549.0,48973854.0,3981159560.0,3991703570.0,0.012246370718183424,60.77,2013-06-30 00:00:00,2013-08-30 00:00:00,31.499142935320663,1.3512357284632532,12.042560098814167,2.9784616377042785
sh600682,2013-10-08,10.45,11.12,10.34,11.0,0.052632000000000005,8569031.0,92059370.0,3931127040.0,3941538540.0,0.02397768885128678,60.01,2013-06-30 00:00:00,2013-08-30 00:00:00,31.10329134635559,1.3342546692872346,11.891220535064402,2.9410311344560562
sh600682,2013-09-30,10.3,10.55,10.19,10.45,0.016537,3419358.0,35234542.0,3734570680.0,3744461610.0,0.00956797826624612,57.01,2013-06-30 00:00:00,2013-08-30 00:00:00,29.54811495979183,1.2675414288063014,11.296654989649186,2.793978460141869
sh600682,2013-09-27,10.12,10.4,10.12,10.28,0.005871,3446878.0,35465008.0,3673816900.0,3683546920.0,0.009644984168917072,56.08,2013-06-30 00:00:00,2013-08-30 00:00:00,29.067426920802518,1.2469210946638454,11.112881272053242,2.748526084286031
sh600682,2013-09-26,10.33,10.33,10.1,10.22,-0.001953,5326492.0,54225169.0,3652374390.0,3662047620.0,0.014904481969056848,55.75,2013-06-30 00:00:00,2013-08-30 00:00:00,28.89776812414566,1.2396431497317701,11.048018356283503,2.732483672643939
sh600682,2013-09-25,10.18,10.4,10.08,10.24,0.011858,3790682.0,39033997.0,3659521890.0,3669214050.0,0.01060700956211523,55.86,2013-06-30 00:00:00,2013-08-30 00:00:00,28.954315903104423,1.2420689103136127,11.069637358043762,2.737830655914941
sh600682,2013-09-24,10.15,10.18,9.98,10.12,-0.001972,3890436.0,39161753.0,3616636870.0,3626215450.0,0.010886139177141109,55.21,2013-06-30 00:00:00,2013-08-30 00:00:00,28.6149992420917,1.227513060442881,10.939911882935906,2.7057459207862573
sh600682,2013-09-23,10.1,10.27,10.05,10.14,0.010967,2867047.0,29064447.0,3623784380.0,3633381890.0,0.008022512801934424,55.31,2013-06-30 00:00:00,2013-08-30 00:00:00,28.67153951802123,1.2299384991632307,10.96152801618382,2.7110921945939963
sh600682,2013-09-18,9.94,10.12,9.88,10.03,0.00804,2666713.0,26654034.0,3584473110.0,3593966500.0,0.007461942262973204,54.71,2013-06-30 00:00:00,2013-08-30 00:00:00,28.360509806968214,1.216596089845891,10.84261703515923,2.681682186059482
sh600682,2013-09-17,10.18,10.23,9.91,9.95,-0.022593000000000002,2841097.0,28750357.0,3555883090.0,3565300770.0,0.007949900048598054,54.28,2013-06-30 00:00:00,2013-08-30 00:00:00,28.13430995493057,1.2068926727569251,10.75613768814653,2.6602934269071485
sh600682,2013-09-16,9.98,10.24,9.74,10.18,0.029323000000000002,4114947.0,41209110.0,3638079380.0,3647714750.0,0.011514361311159736,55.53,2013-06-30 00:00:00,2013-08-30 00:00:00,28.7846413571118,1.2347902897737844,11.004768421084083,2.7217867550643167
sh600682,2013-09-13,9.95,10.19,9.88,9.89,-0.016899,2848408.0,28554482.0,3534440580.0,3543801460.0,0.007970357538165206,53.95,2013-06-30 00:00:00,2013-08-30 00:00:00,27.964634383096264,1.1996140082110127,10.691268358993323,2.6442494290561043
sh600682,2013-09-12,9.9,10.18,9.82,10.06,0.016162,3975744.0,39841163.0,3595194360.0,3604716150.0,0.011124846290646717,54.88,2013-06-30 00:00:00,2013-08-30 00:00:00,28.44533204939906,1.2202347553415291,10.875045757245006,2.6897027152409616
sh600682,2013-09-11,9.67,10.28,9.48,9.9,0.028037,6113609.0,60186766.0,3538014330.0,3547384680.0,0.017106976810916424,54.01,2013-06-30 00:00:00,2013-08-30 00:00:00,27.992910627832035,1.200826989536638,10.7020787603207,2.646923143397373
sh600682,2013-09-10,9.56,9.72,9.51,9.63,0.013684,2623573.0,25173351.0,3441523030.0,3450637830.0,0.007341228801830799,52.53,2013-06-30 00:00:00,2013-08-30 00:00:00,27.22947775987833,1.1680775979236524,10.410207765207577,2.5747352900696887
sh600682,2013-09-09,9.58,9.66,9.5,9.5,-0.008351,1752078.0,16785180.0,3395064260.0,3404056010.0,0.004902629147879516,51.82,2013-06-30 00:00:00,2013-08-30 00:00:00,26.86189952675422,1.1523093961467799,10.269677498320558,2.5399782279977674
sh600682,2013-09-06,9.39,9.62,9.35,9.58,0.014831,2327175.0,22157122.0,3423654270.0,3432721740.0,0.006511853926185134,52.26,2013-06-30 00:00:00,2013-08-30 00:00:00,27.088112353014246,1.1620133697979629,10.35616180555878,2.561368213952485
sh600682,2013-09-05,9.5,9.64,9.33,9.44,-0.015641,3432292.0,32380463.0,3373621750.0,3382556710.0,0.009604169904346864,51.5,2013-06-30 00:00:00,2013-08-30 00:00:00,26.692239745350946,1.1450314089715063,10.204814206068576,2.523935723241096
sh600682,2013-09-04,9.67,9.95,9.47,9.59,-0.002081,4740728.0,46009737.0,3427228020.0,3436304960.0,0.013265409028722868,52.31,2013-06-30 00:00:00,2013-08-30 00:00:00,27.11636683908101,1.1632254177302248,10.36696388824461,2.5640398708612366
sh600682,2013-09-03,9.48,9.75,9.42,9.61,0.008395,3864995.0,37086679.0,3434375530.0,3443471390.0,0.010814950673143189,52.42,2013-06-30 00:00:00,2013-08-30 00:00:00,27.172913672433346,1.1656511377478782,10.38858252848639,2.569386764718616
sh600682,2013-09-02,9.38,9.79,9.36,9.53,0.014909,8602101.0,82762684.0,3405785510.0,3414805660.0,0.024070224707133714,51.99,2013-06-30 00:00:00,2013-08-30 00:00:00,26.946696158185382,1.1559469629935475,10.30209642896523,2.5479963354822432
sh600682,2013-08-30,8.9,9.82,8.88,9.39,0.051512,10625858.0,101945390.0,3355752990.0,3364640620.0,0.02973306048369192,51.22,2013-06-30 00:00:00,2013-08-30 00:00:00,26.55084954235836,1.1389661171529146,10.150758766515253,2.5105663024785896
sh600682,2013-08-29,8.8,8.94,8.8,8.93,0.011325,1647696.0,14614272.0,3191360400.0,3199812650.0,0.004610549557486518,48.71,2013-03-31 00:00:00,2013-04-25 00:00:00,27.450252186420798,1.1385520575479662,9.526296606662768,2.459054915852116
sh600682,2013-08-28,8.91,8.91,8.79,8.83,-0.008979000000000001,1381324.0,12210051.0,3155622880.0,3163980480.0,0.0038651928268437453,48.17,2013-03-31 00:00:00,2013-04-25 00:00:00,27.142859304794005,1.1258023459797455,9.41961941676787,2.4315179747876456
sh600682,2013-08-27,8.93,8.96,8.82,8.91,-0.001121,1496930.0,13303773.0,3184212900.0,3192646210.0,0.00418867918662097,48.6,2013-03-31 00:00:00,2013-04-25 00:00:00,27.38878318904847,1.1360025125398405,9.50496449295007,2.4535483857432343
sh600682,2013-08-26,8.81,8.95,8.78,8.92,0.014790000000000001,2210805.0,19661874.0,3187786650.0,3196229430.0,0.0061862297465860834,48.66,2013-03-31 00:00:00,2013-04-25 00:00:00,27.41952047149702,1.1372774005058077,9.51563151587937,2.4563019001733286
sh600682,2013-08-23,8.82,9.0,8.72,8.79,-0.004529999999999999,1972691.0,17491212.0,3141327880.0,3149647610.0,0.005519943970318692,47.95,2013-03-31 00:00:00,2013-04-25 00:00:00,27.01989620660138,1.1207022147496601,9.376946477477478,2.4205026657469313
sh600682,2013-08-22,8.84,8.84,8.75,8.83,0.001134,1063485.0,9351712.0,3155622880.0,3163980480.0,0.00297582217745867,48.17,2013-03-31 00:00:00,2013-04-25 00:00:00,27.142853332196232,1.125802098254754,9.419617344046006,2.431517439748994
sh600682,2013-08-21,8.65,8.85,8.65,8.82,0.020833,2529043.0,22147027.0,3152049130.0,3160397260.0,0.007076716872112968,48.11,2013-03-31 00:00:00,2013-04-25 00:00:00,27.112108201495737,1.124526884767428,9.408947597470476,2.428763222254957
sh600682,2013-08-20,8.65,8.72,8.61,8.64,-0.00346,1543394.0,13363311.0,3087721600.0,3095899360.0,0.004318693809700979,47.13,2013-03-31 00:00:00,2013-04-25 00:00:00,26.558808543116978,1.101577716205714,9.216931268356797,2.3791974027631912
sh600682,2013-08-19,8.58,8.7,8.57,8.67,0.0069689999999999995,2076520.0,17935335.0,3098442850.0,3106649010.0,0.005810476188063304,47.3,2013-03-31 00:00:00,2013-04-25 00:00:00,26.65102107604007,1.1054024085392598,9.248932575066526,2.387458007469034
sh600682,2013-08-16,8.63,8.69,8.55,8.61,0.0,878901.0,7550401.0,3077000340.0,3085149710.0,0.002459322968420601,46.97,2013-03-31 00:00:00,2013-04-25 00:00:00,26.46657551130181,1.0977521736411546,9.184922847740621,2.3709349617208018
sh600682,2013-08-15,8.63,8.64,8.57,8.61,-0.002317,780668.0,6714846.0,3077000340.0,3085149710.0,0.002184449378383884,46.97,2013-03-31 00:00:00,2013-04-25 00:00:00,26.46657551130181,1.0977521736411546,9.184922847740621,2.3709349617208018
sh600682,2013-08-14,8.63,8.74,8.61,8.63,-0.008046,955341.0,8263897.0,3084147850.0,3092316140.0,0.002673215821997639,47.08,2013-03-31 00:00:00,2013-04-25 00:00:00,26.528040982257707,1.1003015723843694,9.20625373765076,2.3764411759254216
sh600682,2013-08-13,8.65,8.72,8.6,8.7,0.0057799999999999995,1286553.0,11137982.0,3109164110.0,3117398660.0,0.003600006530372564,47.46,2013-03-31 00:00:00,2013-04-25 00:00:00,26.743216905479194,1.1092264080636496,9.280928085022856,2.395717115839466
sh600682,2013-08-12,8.58,8.68,8.52,8.65,0.012881,1134710.0,9780217.0,3091295350.0,3099482580.0,0.003175122525901642,47.19,2013-03-31 00:00:00,2013-04-25 00:00:00,26.589529425400382,1.1028519239432577,9.227592599796035,2.3819494480298533
sh600682,2013-08-09,8.54,8.6,8.48,8.54,-0.00117,795729.0,6797006.0,3051984080.0,3060067190.0,0.0022265927612571293,46.59,2013-03-31 00:00:00,2013-04-25 00:00:00,26.251385330952385,1.088826746620045,9.110243552595058,2.3516577446213853
sh600682,2013-08-08,8.62,8.63,8.45,8.55,-0.008121,1787835.0,15271001.0,3055557830.0,3063650410.0,0.005002683667093286,46.64,2013-03-31 00:00:00,2013-04-25 00:00:00,26.28213542940479,1.0901021661544457,9.12091502317217,2.354412407137737
sh600682,2013-08-07,8.8,8.8,8.55,8.62,-0.018223,3197450.0,27793464.0,3080574090.0,3088732920.0,0.008947039803220574,47.02,2013-03-31 00:00:00,2013-04-25 00:00:00,26.497320166476747,1.0990273674051427,9.195592429290437,2.3736891366161967
sh600682,2013-08-06,8.73,8.79,8.7,8.78,0.002283,1092464.0,9553335.0,3137754120.0,3146064390.0,0.0030569106288035088,47.9,2013-03-31 00:00:00,2013-04-25 00:00:00,26.989143325293572,1.1194266797909738,9.366274041142171,2.4177477539361756
sh600682,2013-08-05,8.72,8.85,8.69,8.76,0.002288,707364.0,6190657.0,3130606620.0,3138897960.0,0.001979331609539623,47.79,2013-03-31 00:00:00,2013-04-25 00:00:00,26.927667460481292,1.1168768499425548,9.344939544162846,2.4122406086266808
sh600682,2013-08-02,8.64,8.77,8.63,8.74,0.009238,2002982.0,17485614.0,3123459120.0,3131731530.0,0.005604703633835297,47.68,2013-03-31 00:00:00,2013-04-25 00:00:00,26.86619760037164,1.1143272691507378,9.32360713104701,2.4067340012318623
sh600682,2013-08-01,8.65,8.71,8.59,8.66,0.002315,1093086.0,9447403.0,3094869100.0,3103065790.0,0.003058651094484093,47.24,2013-03-31 00:00:00,2013-04-25 00:00:00,26.620279458731872,1.1041273407766432,9.238264047773677,2.3847041047125277
sh600682,2013-07-31,8.52,8.68,8.52,8.64,0.009346,1314030.0,11306291.0,3087721600.0,3095899360.0,0.003676892113589516,47.13,2013-03-31 00:00:00,2013-04-25 00:00:00,26.558795846347582,1.101577189582759,9.216926862087945,2.3791962653582237
sh600682,2013-07-30,8.62,8.67,8.5,8.56,-0.0034920000000000003,1580558.0,13560855.0,3059131580.0,3067233620.0,0.004422685368767302,46.7,2013-03-31 00:00:00,2013-04-25 00:00:00,26.312875709962267,1.0913771784727526,9.131583086560944,2.357166190145127
sh600682,2013-07-29,8.56,8.68,8.5,8.59,0.004678,2033321.0,17421201.0,3069852840.0,3077983270.0,0.005689597612763744,46.86,2013-03-31 00:00:00,2013-04-25 00:00:00,26.405082257204423,1.0952016225386576,9.163582316008444,2.3654262586402988
sh600682,2013-07-26,8.75,8.8,8.51,8.55,-0.013841,1657061.0,14305332.0,3055557830.0,3063650410.0,0.0046367545103867345,46.64,2013-03-31 00:00:00,2013-04-25 00:00:00,26.28213443232999,1.0901021247988487,9.120914677148745,2.3544123178175487
sh600682,2013-07-25,8.75,9.0,8.6,8.67,-0.014773,2109483.0,18528136.0,3098442850.0,3106649010.0,0.00590271258674337,47.3,2013-03-31 00:00:00,2013-04-25 00:00:00,26.651011076641787,1.1054019937949648,9.24892910488952,2.3874571117005967
sh600682,2013-07-24,8.91,8.93,8.7,8.8,-0.011236,2968859.0,26090808.0,3144901630.0,3153230830.0,0.008307401080777209,48.0,2013-03-31 00:00:00,2013-04-25 00:00:00,27.05063003413608,1.1219769594164237,9.387612301418374,2.4232558706781244
sh600682,2013-07-23,8.93,9.03,8.85,8.9,-0.0033590000000000004,3122199.0,27859060.0,3180639150.0,3189063000.0,0.008736473956814624,48.55,2013-03-31 00:00:00,2013-04-25 00:00:00,27.35802480079784,1.1347267491700987,9.494290145493133,2.4507929806082385
sh600682,2013-07-22,8.79,8.96,8.6,8.93,0.013621000000000001,1831191.0,16110097.0,3191360400.0,3199812650.0,0.0051240015480545536,48.71,2013-03-31 00:00:00,2013-04-25 00:00:00,27.45023012378363,1.1385511424576138,9.52628895007644,2.4590529394317895
sh600682,2013-07-19,8.88,9.01,8.77,8.81,-0.007883,3728924.0,33098756.0,3148475380.0,3156814040.0,0.01043419956487003,48.06,2013-03-31 00:00:00,2013-04-25 00:00:00,27.0813549874989,1.1232513360098237,9.398275045679242,2.426008280641176
sh600682,2013-07-18,8.79,8.95,8.69,8.88,0.00339,3311285.0,29260192.0,3173491640.0,3181896560.0,0.009265570587732825,48.44,2013-03-31 00:00:00,2013-04-25 00:00:00,27.29653356156472,1.1321762816379761,9.472950312996595,2.4452844580237776
sh600682,2013-07-17,8.62,9.03,8.62,8.85,0.026682,6548564.0,58048134.0,3162770390.0,3171146910.0,0.018324059053809467,48.28,2013-03-31 00:00:00,2013-04-25 00:00:00,27.20431094745285,1.1283511711677172,9.440945507725404,2.4370229502225227
sh600682,2013-07-16,8.5,8.65,8.43,8.62,0.015312000000000001,1416479.0,12114040.0,3080574090.0,3088732920.0,0.003963562837081447,47.02,2013-03-31 00:00:00,2013-04-25 00:00:00,26.49730972925682,1.0990269345013524,9.19558880717243,2.373688201626719
sh600682,2013-07-15,8.46,8.53,8.41,8.49,0.001179,911024.0,7712334.0,3034115320.0,3042151110.0,0.0025492088942749877,46.31,2013-03-31 00:00:00,2013-04-25 00:00:00,26.097701720512337,1.0824524230003707,9.05690941028219,2.3378904234626585
sh600682,2013-07-12,8.56,8.64,8.47,8.48,-0.017381,1123143.0,9597879.0,3030541570.0,3038567890.0,0.0031427559794205365,46.26,2013-03-31 00:00:00,2013-04-25 00:00:00,26.066968764339176,1.0811777144750045,9.046243888737367,2.335137296589979
sh600682,2013-07-11,8.53,8.7,8.44,8.63,0.01649,1562895.0,13430921.0,3084147850.0,3092316140.0,0.004373261110034009,47.08,2013-03-31 00:00:00,2013-04-25 00:00:00,26.52805285094139,1.100302064660875,9.20625785654192,2.376442239148621
sh600682,2013-07-10,8.33,8.5,8.33,8.49,0.010714,869052.0,7311287.0,3034115320.0,3042151110.0,0.0024317636944663,46.31,2013-03-31 00:00:00,2013-04-25 00:00:00,26.09770174909876,1.0824524241860476,9.05690942020278,2.337890426023494
sh600682,2013-07-09,8.75,8.75,8.31,8.4,-0.028572000000000004,3420343.0,28868596.0,3001951550.0,3009902150.0,0.00957073447771001,45.82,2013-03-31 00:00:00,2013-04-25 00:00:00,25.821054966190992,1.0709779662555854,8.960902312823194,2.313107789170324
sh600682,2013-07-08,8.65,8.82,8.57,8.75,0.012731000000000001,4032072.0,35246248.0,3127032870.0,3135314740.0,0.011282462150773618,47.17,2013-03-31 00:00:00,2013-04-25 00:00:00,26.580513394910376,1.1024779667207303,9.22446368935546,2.3811417718763757
sh600682,2013-07-05,8.55,8.7,8.55,8.64,0.006993000000000001,2017191.0,17391126.0,3087721600.0,3095899360.0,0.005644462972309422,46.58,2013-03-31 00:00:00,2013-04-25 00:00:00,26.246370847648947,1.088618761270989,9.108503333417715,2.351208536004502
sh600682,2013-07-04,8.51,8.64,8.45,8.58,0.0035090000000000004,697641.0,5975331.0,3066279090.0,3074400060.0,0.001952124905890416,46.25,2013-03-31 00:00:00,2013-04-25 00:00:00,26.064104564429893,1.0810589162695163,9.045249900860997,2.3348807151633646
sh600682,2013-07-03,8.63,8.77,8.5,8.55,-0.010417000000000001,1959717.0,16850773.0,3055557830.0,3063650410.0,0.005483640396359313,46.09,2013-03-31 00:00:00,2013-04-25 00:00:00,25.972965428740444,1.0772787451527752,9.013621104405637,2.3267162677797257
sh600682,2013-07-02,8.6,8.67,8.52,8.64,0.004651,656956.0,5640855.0,3087721600.0,3095899360.0,0.0018382809641905543,46.58,2013-03-31 00:00:00,2013-04-25 00:00:00,26.24637390571629,1.0886188881102195,9.108504394685072,2.351208809953006
sh600682,2013-07-01,8.6,8.68,8.53,8.6,0.004673,1887919.0,16238001.0,3073426590.0,3081566490.0,0.005282736686416187,46.36,2013-03-31 00:00:00,2013-04-25 00:00:00,26.124867148608114,1.0835791614304064,9.066336861940187,2.340323963200162
sh600682,2013-06-28,8.31,8.6,8.2,8.56,0.016627,2651040.0,22384971.0,3059131580.0,3067233620.0,0.007418086410000057,46.15,2013-03-31 00:00:00,2013-04-25 00:00:00,26.00335347780633,1.078539147991841,9.024166929876873,2.329438497103199
sh600682,2013-06-27,8.26,8.59,8.0,8.42,0.01937,2557953.0,21107867.0,3009099060.0,3017068590.0,0.00715761223892709,45.39,2013-03-31 00:00:00,2013-04-25 00:00:00,25.578066958487558,1.060899570827689,8.876576099077512,2.2913403805950456
sh600682,2013-06-26,8.26,8.31,8.13,8.26,0.001212,1327465.0,10899725.0,2951919030.0,2959737120.0,0.0037144856578264613,44.53,2013-03-31 00:00:00,2013-04-25 00:00:00,25.092034254968812,1.0407404287233184,8.707903998624163,2.247800485196784
sh600682,2013-06-25,8.2,8.36,7.56,8.25,0.00365,1117150.0,9002841.0,2948345280.0,2956153900.0,0.003125986485544868,44.47,2013-03-31 00:00:00,2013-04-25 00:00:00,25.061659523626183,1.0394805782624643,8.697362794916724,2.2450794489047117
sh600682,2013-06-24,8.43,8.48,8.1,8.22,-0.024911000000000003,1295479.0,10775881.0,2937624020.0,2945404250.0,0.0036249830841184366,44.31,2013-03-31 00:00:00,2013-04-25 00:00:00,24.970517136079494,1.0357002722686837,8.66573286994144,2.2369147102124365
sh600682,2013-06-21,8.4,8.46,8.26,8.43,0.001188,385635.0,3218446.0,3012672810.0,3020651800.0,0.0010790760414503824,45.45,2013-03-31 00:00:00,2013-04-25 00:00:00,25.608449214460933,1.0621597333870896,8.887119914122136,2.2940620909603497
sh600682,2013-06-20,8.53,8.53,8.41,8.42,-0.014052,449701.0,3806215.0,3009099060.0,3017068590.0,0.0012583442234699977,45.39,2013-03-31 00:00:00,2013-04-25 00:00:00,25.578062476239158,1.0608993849178072,8.876574543564383,2.2913399790652202
sh600682,2013-06-19,8.62,8.62,8.4,8.54,-0.016128999999999998,651683.0,5539759.0,3051984080.0,3060067190.0,0.0018235261633474836,46.04,2013-03-31 00:00:00,2013-04-25 00:00:00,25.942608003910102,1.0760196125128376,9.00308590672569,2.3239967818436877
sh600682,2013-06-18,8.59,8.8,8.59,8.68,0.009302,1258646.0,10965246.0,3102016610.0,3110232230.0,0.003521917724354158,46.79,2013-03-31 00:00:00,2013-04-25 00:00:00,26.36789579519073,1.0936592424340563,9.150677178944893,2.362095012297026
sh600682,2013-06-17,8.48,8.6,8.43,8.6,0.014150999999999999,508578.0,4337882.0,3073426590.0,3081566490.0,0.0014230926530768382,46.36,2013-03-31 00:00:00,2013-04-25 00:00:00,26.124882141510405,1.083579783289894,9.066342065055744,2.340325306297844
sh600682,2013-06-14,8.46,8.48,8.36,8.48,0.009524,695186.0,5845362.0,3030541570.0,3038567890.0,0.0019452553755928187,45.71,2013-03-31 00:00:00,2013-04-25 00:00:00,25.7603474645397,1.068460005748546,8.939834467506065,2.307669475549345
sh600682,2013-06-13,8.5,8.5,8.23,8.4,-0.016393,1336327.0,11180211.0,3001951550.0,3009902150.0,0.003739283133999948,45.28,2013-03-31 00:00:00,2013-04-25 00:00:00,25.517320504059043,1.0583799946792212,8.855494735643795,2.285898577497261
sh600682,2013-06-07,8.39,8.55,8.39,8.54,0.016666999999999998,796582.0,6719647.0,3051984080.0,3060067190.0,0.002228979608569911,46.04,2013-03-31 00:00:00,2013-04-25 00:00:00,25.942597504957813,1.0760191770485785,9.003082263184172,2.323995841324087
sh600682,2013-06-06,8.41,8.44,8.37,8.4,-0.005917,540905.0,4545561.0,3001951550.0,3009902150.0,0.0015135494108823977,45.28,2013-03-31 00:00:00,2013-04-25 00:00:00,25.517300654941902,1.0583791713988737,8.855487847234318,2.285896799369004
sh600682,2013-06-05,8.52,8.54,8.44,8.45,-0.008216,860893.0,7291711.0,3019820310.0,3027818240.0,0.0024089333480905024,45.55,2013-03-31 00:00:00,2013-04-25 00:00:00,25.669185223911786,1.0646788763099997,8.908197652745613,2.299502958373701
sh600682,2013-06-04,8.58,8.58,8.5,8.52,-0.006993000000000001,834489.0,7121215.0,3044836580.0,3052900760.0,0.00233505020489474,45.93,2013-03-31 00:00:00,2013-04-25 00:00:00,25.88183034200167,1.0734987419740587,8.98199371309238,2.3185521831101337
sh600682,2013-06-03,8.55,8.67,8.55,8.58,-0.0034840000000000006,776468.0,6675305.0,3066279090.0,3074400060.0,0.002172697019565822,46.25,2013-03-31 00:00:00,2013-04-25 00:00:00,26.064096569310866,1.0810585846565623,9.045247126246222,2.334879998942741
sh600682,2013-05-31,8.66,8.77,8.58,8.61,-0.0046240000000000005,1790299.0,15566347.0,3077000340.0,3085149710.0,0.005009578383731995,46.42,2013-03-31 00:00:00,2013-04-25 00:00:00,26.15522136053096,1.0848381608088202,9.07687094461727,2.3430431613167686
sh600682,2013-05-30,8.58,8.65,8.58,8.65,0.001157,625653.0,5391801.0,3091295350.0,3099482580.0,0.001750689545080188,46.63,2013-03-31 00:00:00,2013-04-25 00:00:00,26.276724936637972,1.0898777555504857,9.11903737343202,2.353927723108422
sh600682,2013-05-29,8.61,8.69,8.6,8.64,-0.002309,772377.0,6669610.0,3087721600.0,3095899360.0,0.0021612496670684305,46.58,2013-03-31 00:00:00,2013-04-25 00:00:00,26.246357900547036,1.0886182242650109,9.108498840273821,2.351207376174188
sh600682,2013-05-28,8.52,8.68,8.47,8.66,0.016432,743513.0,6375697.0,3094869100.0,3103065790.0,0.0020804830097660675,46.69,2013-03-31 00:00:00,2013-04-25 00:00:00,26.30710099674853,1.0911376611245476,9.129579038273194,2.3566488784344934
sh600682,2013-05-27,8.59,8.59,8.45,8.52,-0.006993000000000001,982952.0,8356095.0,3044836580.0,3052900760.0,0.002750476362182958,45.93,2013-03-31 00:00:00,2013-04-25 00:00:00,25.88181107712915,1.0734979429263816,8.981987027438329,2.3185504573198146
sh600682,2013-05-24,8.5,8.59,8.46,8.58,0.005862,935934.0,7974095.0,3066279090.0,3074400060.0,0.0026189115485896622,46.25,2013-03-31 00:00:00,2013-04-25 00:00:00,26.064077168770357,1.081057779981794,9.045240393510145,2.3348782609989804
sh600682,2013-05-23,8.7,8.73,8.5,8.53,-0.013872999999999998,1222183.0,10515057.0,3048410330.0,3056483970.0,0.0034198876993045742,45.98,2013-03-31 00:00:00,2013-04-25 00:00:00,25.912179969787463,1.0747575512165626,8.992526204897038,2.321270970569502
sh600682,2013-05-22,8.69,8.75,8.6,8.65,0.0,753807.0,6533116.0,3091295350.0,3099482580.0,0.0021092874707038267,46.63,2013-03-31 00:00:00,2013-04-25 00:00:00,26.276716862825438,1.0898774206735669,9.119034571507562,2.353926999838258
sh600682,2013-05-21,8.57,8.7,8.57,8.65,-0.001155,709203.0,6136333.0,3091295350.0,3099482580.0,0.0019844774618510653,46.63,2013-03-31 00:00:00,2013-04-25 00:00:00,26.276716862825438,1.0898774206735669,9.119034571507562,2.353926999838258
sh600682,2013-05-20,8.57,8.68,8.53,8.66,0.010502,1521384.0,13111653.0,3094869100.0,3103065790.0,0.004257105878888384,46.69,2013-03-31 00:00:00,2013-04-25 00:00:00,26.30710156513317,1.0911376846993948,9.129579235524593,2.356648929351659
sh600682,2013-05-17,8.51,8.6,8.48,8.57,0.0,1069205.0,9123804.0,3062705340.0,3070816840.0,0.002991827757743094,46.2,2013-03-31 00:00:00,2013-04-25 00:00:00,26.033695692965644,1.0797976497813906,9.034696849214146,2.3321566205229276
sh600682,2013-05-16,8.5,8.62,8.45,8.57,0.008235,1775175.0,15153727.0,3062705340.0,3070816840.0,0.004967258701419837,46.2,2013-03-31 00:00:00,2013-04-25 00:00:00,26.033695692965644,1.0797976497813906,9.034696849214146,2.3321566205229276
sh600682,2013-05-15,8.45,8.56,8.45,8.5,-0.0023469999999999997,1190753.0,10152377.0,3037689070.0,3045734320.0,0.003331940915203675,45.82,2013-03-31 00:00:00,2013-04-25 00:00:00,25.821059269878198,1.0709781447592979,8.960903806368702,2.313108174704238
sh600682,2013-05-14,8.56,8.6,8.41,8.52,-0.004673,634496.0,5381036.0,3044836580.0,3052900760.0,0.0017754338461080888,45.93,2013-03-31 00:00:00,2013-04-25 00:00:00,25.881803863545937,1.07349764372913,8.981984524046638,2.3185498111109153
sh600682,2013-05-13,8.3,8.61,8.26,8.56,0.032569,1778485.0,15065196.0,3059131580.0,3067233620.0,0.004976520689574262,46.15,2013-03-31 00:00:00,2013-04-25 00:00:00,26.00331736559537,1.078537650168367,9.024154397546374,2.3294352620906653
sh600682,2013-05-10,8.26,8.31,8.23,8.29,0.004848,379203.0,3136110.0,2962640280.0,2970486770.0,0.0010610781508715596,44.69,2013-03-31 00:00:00,2013-04-25 00:00:00,25.18312806756291,1.0445187199774222,8.73951706621676,2.2559608724362876
sh600682,2013-05-09,8.21,8.26,8.18,8.25,0.0,714100.0,5874955.0,2948345280.0,2956153900.0,0.0019981801453050983,44.47,2013-03-31 00:00:00,2013-04-25 00:00:00,25.06162928877095,1.0394793242136344,8.697352302255425,2.245076740398834
sh600682,2013-05-08,8.22,8.32,8.15,8.25,0.00365,973775.0,8004380.0,2948345280.0,2956153900.0,0.0027247974667336116,44.47,2013-03-31 00:00:00,2013-04-25 00:00:00,25.06162928877095,1.0394793242136344,8.697352302255425,2.245076740398834
sh600682,2013-05-07,8.08,8.24,8.01,8.22,0.013563999999999998,1252778.0,10163694.0,2937624020.0,2945404250.0,0.0035054980112805586,44.31,2013-03-31 00:00:00,2013-04-25 00:00:00,24.970487011180143,1.0356990227804856,8.665722415439072,2.2369120115566523
sh600682,2013-05-06,8.06,8.11,7.99,8.11,0.004957,1171529.0,9425531.0,2898312750.0,2905988870.0,0.00327814870565642,43.72,2013-03-31 00:00:00,2013-04-25 00:00:00,24.63631996714578,1.0218388012799249,8.549753558175974,2.206976581209132
sh600682,2013-05-03,8.05,8.18,7.99,8.07,0.0,1636784.0,13181894.0,2884017740.0,2891656000.0,0.004580015821955381,43.5,2013-03-31 00:00:00,2013-04-25 00:00:00,24.514800103035032,1.0167985309619465,8.507581476795497,2.196090560301716
sh600682,2013-05-02,8.25,8.26,7.99,8.07,-0.019441,2192112.0,17726111.0,2884017740.0,2891656000.0,0.0061339233787098685,43.5,2013-03-31 00:00:00,2013-04-25 00:00:00,24.514800103035032,1.0167985309619465,8.507581476795497,2.196090560301716
sh600682,2013-04-26,8.36,8.38,8.22,8.23,-0.01555,439549.0,3646673.0,2941197770.0,2948987470.0,0.0012299371048414742,44.37,2013-03-31 00:00:00,2013-04-25 00:00:00,25.00084146189575,1.036958032063289,8.676256580986456,2.239631231064848
sh600682,2013-04-25,8.4,8.45,8.31,8.36,-0.007126,566951.0,4755106.0,2987656550.0,2995569290.0,0.0015864307964046267,45.07,2013-03-31 00:00:00,2013-04-25 00:00:00,25.395745301331452,1.0533374290855695,8.813303449628174,2.2750075992329197
sh600682,2013-04-24,8.32,8.49,8.32,8.42,0.0047729999999999995,503120.0,4246960.0,3009099060.0,3017068590.0,0.00140782018655112,45.39,2012-12-31 00:00:00,2013-03-28 00:00:00,15.835289494635854,1.0585722721371642,10.554160206628003,2.3779765210911905
sh600682,2013-04-23,8.49,8.49,8.31,8.38,-0.012956,2263842.0,19025334.0,2994804050.0,3002735720.0,0.006334636805369621,45.18,2012-12-31 00:00:00,2013-03-28 00:00:00,15.760066696294443,1.0535437080187906,10.504024497700481,2.366680355753181
sh600682,2013-04-22,8.5,8.55,8.44,8.49,-0.005855,375630.0,3185950.0,3034115320.0,3042151110.0,0.001051080253600908,45.77,2012-12-31 00:00:00,2013-03-28 00:00:00,15.966934297046981,1.0673725872593223,10.64190096662406,2.3977455470609015
sh600682,2013-04-19,8.52,8.56,8.47,8.54,0.004706,562483.0,4796943.0,3051984080.0,3060067190.0,0.0015739285311081963,46.04,2012-12-31 00:00:00,2013-03-28 00:00:00,16.060971283914302,1.073658859883943,10.704576260630052,2.4118670285128445
sh600682,2013-04-18,8.49,8.54,8.41,8.5,0.001178,339367.0,2881303.0,3037689070.0,3045734320.0,0.000949609862473515,45.82,2012-12-31 00:00:00,2013-03-28 00:00:00,15.985742380272736,1.0686298876327431,10.654436482543202,2.4005699463453434
sh600682,2013-04-17,8.45,8.5,8.36,8.49,0.004734,448336.0,3789086.0,3034115320.0,3042151110.0,0.0012545247093640462,45.77,2012-12-31 00:00:00,2013-03-28 00:00:00,15.966933332806693,1.067372522800884,10.641900323961577,2.3977454022614797
sh600682,2013-04-16,8.42,8.47,8.34,8.45,0.0,523161.0,4411306.0,3019820310.0,3027818240.0,0.0014638985092460682,45.55,2012-12-31 00:00:00,2013-03-28 00:00:00,15.89170201546548,1.062343389196428,10.591758937153093,2.386447957630059
sh600682,2013-04-15,8.32,8.5,8.28,8.45,0.009558,718977.0,6035801.0,3019820310.0,3027818240.0,0.00201182687257309,45.55,2012-12-31 00:00:00,2013-03-28 00:00:00,15.89170201546548,1.062343389196428,10.591758937153093,2.386447957630059
sh600682,2013-04-12,8.42,8.5,8.3,8.37,-0.012972,514843.0,4308847.0,2991230300.0,2999152500.0,0.0014406232478990334,45.12,2012-12-31 00:00:00,2013-03-28 00:00:00,15.741247174967144,1.0522856430204386,10.491481358330175,2.3638542388154606
sh600682,2013-04-11,8.5,8.55,8.43,8.48,0.001181,560792.0,4759726.0,3030541570.0,3038567890.0,0.0015691968086087003,45.71,2012-12-31 00:00:00,2013-03-28 00:00:00,15.948126268927675,1.0661152905697089,10.629365487433159,2.3949211560517645
sh600682,2013-04-10,8.43,8.48,8.37,8.47,0.004745,266159.0,2246996.0,3026967820.0,3034984670.0,0.0007447607189956846,45.66,2012-12-31 00:00:00,2013-03-28 00:00:00,15.929313749389644,1.0648576936335277,10.616827014728761,2.3920960905688022
sh600682,2013-04-09,8.34,8.48,8.34,8.43,0.004768,606965.0,5117245.0,3012672810.0,3020651800.0,0.0016983971618212334,45.45,2012-12-31 00:00:00,2013-03-28 00:00:00,15.854086110793926,1.0598288059492982,10.566688079790158,2.3807991983725247
sh600682,2013-04-08,8.39,8.43,8.23,8.39,-0.011779000000000001,434698.0,3617672.0,2998377800.0,3006318940.0,0.0012163631347590687,45.23,2012-12-31 00:00:00,2013-03-28 00:00:00,15.778852541874269,1.0547995218292165,10.516545192313208,2.369501415622835
sh600682,2013-04-03,8.43,8.49,8.3,8.49,0.017986000000000002,823660.0,6896645.0,3034115320.0,3042151110.0,0.002304748719966254,45.77,2012-12-31 00:00:00,2013-03-28 00:00:00,15.96692697470937,1.0673720977688355,10.6418960863139,2.397744447469579
sh600682,2013-04-02,8.51,8.63,8.29,8.34,-0.021127,1245968.0,10516270.0,2980509040.0,2988402850.0,0.0034864424098509025,44.96,2012-12-31 00:00:00,2013-03-28 00:00:00,15.684819805684333,1.048513533357861,10.453872731367523,2.355380572492725
sh600682,2013-04-01,8.56,8.61,8.41,8.52,-0.0023420000000000003,431522.0,3681115.0,3044836580.0,3052900760.0,0.0012074761135456406,45.93,2012-12-31 00:00:00,2013-03-28 00:00:00,16.023345015833854,1.0711435838539434,10.679498496094512,2.406216712988023
sh600682,2013-03-29,8.56,8.67,8.46,8.54,-0.009281000000000001,1038846.0,8880215.0,3051984080.0,3060067190.0,0.0029068778235566677,46.04,2012-12-31 00:00:00,2013-03-28 00:00:00,16.060959783647153,1.0736580911033071,10.704568595745746,2.411865301524192
sh600682,2013-03-28,8.72,8.8,8.58,8.62,-0.020455,2094848.0,18160225.0,3080574090.0,3088732920.0,0.005861761227758686,46.47,2012-12-31 00:00:00,2013-03-28 00:00:00,16.211417953675213,1.0837160598548197,10.80484839368756,2.434459520332397
sh600682,2013-03-27,8.81,8.93,8.75,8.8,-0.004525,1687601.0,14888010.0,3144901630.0,3153230830.0,0.004722210913795736,47.44,2012-09-30 00:00:00,2012-10-26 00:00:00,18.42673088129541,1.251873847659765,13.474855920085876,2.457241847376085
sh600682,2013-03-26,8.76,8.86,8.73,8.84,0.009132,1561004.0,13732255.0,3159196640.0,3167563700.0,0.004367969750689529,47.66,2012-09-30 00:00:00,2012-10-26 00:00:00,18.51049085240253,1.2575643262359828,13.53610680337113,2.4684114090018183
sh600682,2013-03-25,8.88,8.95,8.7,8.76,-0.014622999999999999,3950208.0,34674448.0,3130606620.0,3138897960.0,0.011053391971681193,47.22,2012-09-30 00:00:00,2012-10-26 00:00:00,18.342982734074962,1.246184172373865,13.413613683216003,2.446073862489564
sh600682,2013-03-22,8.8,8.96,8.78,8.89,0.011377,2206028.0,19611874.0,3177065390.0,3185479780.0,0.006172862850644696,47.92,2012-09-30 00:00:00,2012-10-26 00:00:00,18.615192696881454,1.2646775522199774,13.61267178269434,2.4823736118151363
sh600682,2013-03-21,8.83,8.83,8.74,8.79,-0.004529999999999999,939255.0,8252793.0,3141327880.0,3149647610.0,0.0026282043025702873,47.39,2012-09-30 00:00:00,2012-10-26 00:00:00,18.405790023780902,1.2504511692672242,13.4595425669106,2.4544493416551263
sh600682,2013-03-20,8.7,8.85,8.65,8.83,0.011455,1164330.0,10213936.0,3155622880.0,3163980480.0,0.003258004613022707,47.6,2012-09-30 00:00:00,2012-10-26 00:00:00,18.489547674747506,1.2561414902179113,13.5207917535542,2.465618593885427
sh600682,2013-03-19,8.66,8.75,8.54,8.73,0.0022960000000000003,3546845.0,30689737.0,3119885370.0,3128148310.0,0.009924709781885352,47.06,2012-09-30 00:00:00,2012-10-26 00:00:00,18.280148572845558,1.2419153498849789,13.36766514926932,2.437694799951977
sh600682,2013-03-18,8.68,8.75,8.6,8.71,-0.001147,590916.0,5115183.0,3112737860.0,3120981880.0,0.001653489176245635,46.95,2012-09-30 00:00:00,2012-10-26 00:00:00,18.23827349689669,1.2390704441452216,13.33704329785744,2.4321106738448295
sh600682,2013-03-15,8.73,8.82,8.66,8.72,-0.001145,2425031.0,21088135.0,3116311610.0,3124565090.0,0.006785672604800905,47.01,2012-09-30 00:00:00,2012-10-26 00:00:00,18.259216818587607,1.2404932899487928,13.352358453003035,2.434903508168699
sh600682,2013-03-14,8.72,8.83,8.7,8.73,-0.002286,423281.0,3709951.0,3119021100.0,3128148310.0,0.0011847445116674588,47.06,2012-09-30 00:00:00,2012-10-26 00:00:00,18.28014758757538,1.2419152829477682,13.367664428773981,2.4376946685642054
sh600682,2013-03-13,8.71,8.84,8.67,8.75,-0.0034170000000000003,1400359.0,12286458.0,3126166620.0,3135314740.0,0.00391954196286569,47.17,2012-09-30 00:00:00,2012-10-26 00:00:00,18.32203175216082,1.2447608061506286,13.398292926403741,2.4432800066594287
sh600682,2013-03-12,8.8,8.85,8.6,8.78,-0.007909999999999999,1788558.0,15615458.0,3136884900.0,3146064390.0,0.005006093542035923,47.33,2012-09-30 00:00:00,2012-10-26 00:00:00,18.38485279415846,1.24902873734614,13.444231866692226,2.4516573197209146
sh600682,2013-03-11,8.81,8.88,8.41,8.85,-0.001129,2184978.0,19006810.0,3161894240.0,3171146910.0,0.00611565531046984,47.71,2012-09-30 00:00:00,2012-10-26 00:00:00,18.531436456529608,1.258987327103529,13.551423627586436,2.471204547693168
sh600682,2013-03-08,8.92,8.92,8.78,8.86,-0.004494,893025.0,7888342.0,3165467000.0,3174730130.0,0.002499536877181155,47.76,2012-09-30 00:00:00,2012-10-26 00:00:00,18.5523820959159,1.2604103303665128,13.56674047758563,2.4739976910864048
sh600682,2013-03-07,8.72,8.96,8.68,8.9,0.020641999999999997,2037395.0,17970828.0,3179758050.0,3189063000.0,0.0057025771190358345,47.98,2012-09-30 00:00:00,2012-10-26 00:00:00,18.63613287706543,1.2661001845960878,13.627984640560308,2.4851660272126983
sh600682,2013-03-06,8.65,8.74,8.65,8.72,0.011601,1000897.0,8715384.0,3115448330.0,3124565090.0,0.002801465765282007,47.01,2012-09-30 00:00:00,2012-10-26 00:00:00,18.259225935308784,1.240493909319906,13.352365119758257,2.434904723901915
sh600682,2013-03-05,8.63,8.73,8.55,8.62,-0.001159,796542.0,6905736.0,3079720710.0,3088732920.0,0.0022294852964118293,46.47,2012-09-30 00:00:00,2012-10-26 00:00:00,18.049829859113213,1.2262679745471843,13.199240728071896,2.4069813334525323
sh600682,2013-03-04,8.79,8.79,8.6,8.63,-0.019318000000000002,2440296.0,21140360.0,3083293480.0,3092316140.0,0.006830278926286317,46.52,2012-09-30 00:00:00,2012-10-26 00:00:00,18.070773886047142,1.2276908682635017,13.214556398938266,2.4097742618219837
sh600682,2013-03-01,8.75,8.8,8.69,8.8,0.005714,1245273.0,10899961.0,3144030430.0,3153230830.0,0.0034854632116267403,47.44,2012-09-30 00:00:00,2012-10-26 00:00:00,18.426741681857262,1.2518745814275185,13.474863818177823,2.4572432876528616
sh600682,2013-02-28,8.67,8.76,8.65,8.75,0.00344,893389.0,7787046.0,3126166620.0,3135314740.0,0.0025005556965482538,47.17,2012-09-30 00:00:00,2012-10-26 00:00:00,18.32204949106531,1.2447620112949787,13.398305898275078,2.443282372178235
sh600682,2013-02-27,8.64,8.79,8.6,8.72,0.003452,1443863.0,12560539.0,3115448330.0,3124565090.0,0.004041307711240392,47.01,2012-09-30 00:00:00,2012-10-26 00:00:00,18.25923771333145,1.2404947094943184,13.352373732634815,2.4349062945250686
sh600682,2013-02-26,8.71,8.77,8.65,8.69,-0.006856999999999999,664005.0,5787728.0,3104730050.0,3113815440.0,0.0018585201795563513,46.85,2012-09-30 00:00:00,2012-10-26 00:00:00,18.19642365886106,1.2362272530169038,13.306439902092789,2.4265299132644795
sh600682,2013-02-25,8.68,8.85,8.66,8.75,0.006904,2025761.0,17707680.0,3126166620.0,3135314740.0,0.005670014079415895,47.17,2012-09-30 00:00:00,2012-10-26 00:00:00,18.32205801064002,1.2447625900972004,13.398312128356933,2.4432835082807607
sh600682,2013-02-22,8.74,8.76,8.65,8.69,0.001152,998345.0,8681623.0,3104730050.0,3113815440.0,0.002794322826875077,46.85,2012-09-30 00:00:00,2012-10-26 00:00:00,18.196429858894213,1.2362276742342868,13.306444435970988,2.4265307400514455
sh600682,2013-02-21,8.72,8.76,8.53,8.68,-0.010262,3175287.0,27348411.0,3101157290.0,3110232230.0,0.0088874857295613,46.79,2012-09-30 00:00:00,2012-10-26 00:00:00,18.175491692464494,1.2348051786684608,13.291133050696587,2.423738593192088
sh600682,2013-02-20,8.67,8.77,8.65,8.77,0.011534,2165841.0,18863670.0,3133312140.0,3142481180.0,0.006062091716786314,47.28,2012-09-30 00:00:00,2012-10-26 00:00:00,18.36394247009258,1.247608133332721,13.428940841613219,2.4488688856971117
sh600682,2013-02-19,8.81,8.85,8.64,8.67,-0.015891,1245649.0,10850448.0,3097584520.0,3106649010.0,0.003486515625407374,46.74,2012-09-30 00:00:00,2012-10-26 00:00:00,18.15454791444735,1.233382301863033,13.275817561854788,2.4209456980161934
sh600682,2013-02-18,8.81,8.91,8.79,8.81,-0.006764,1366253.0,12061596.0,3147603190.0,3156814040.0,0.003824080801620995,47.49,2012-09-30 00:00:00,2012-10-26 00:00:00,18.447700320236226,1.2532984678150825,13.490190173908367,2.4600381644880733
sh600682,2013-02-08,8.81,8.93,8.8,8.87,0.0,1289395.0,11427518.0,3169039760.0,3178313350.0,0.0036089587118338963,47.82,2012-09-30 00:00:00,2012-10-26 00:00:00,18.57333032656511,1.2618335096745208,13.582059222489283,2.4767911800297946
sh600682,2013-02-07,8.9,8.98,8.78,8.87,-0.012249,1576459.0,13966100.0,3169039760.0,3178313350.0,0.004412437958809327,47.82,2012-09-30 00:00:00,2012-10-26 00:00:00,18.57333032656511,1.2618335096745208,13.582059222489283,2.4767911800297946
sh600682,2013-02-06,8.82,9.28,8.79,8.98,0.014688999999999999,2863705.0,25826069.0,3208340140.0,3217728730.0,0.008015381716977178,48.41,2012-09-30 00:00:00,2012-10-26 00:00:00,18.803656312739857,1.2774813790869568,13.750488961782152,2.5075056163241487
sh600682,2013-02-05,8.79,8.86,8.67,8.85,0.001131,1324130.0,11610678.0,3161894240.0,3171146910.0,0.0037061804129160246,47.71,2012-09-30 00:00:00,2012-10-26 00:00:00,18.531447874905375,1.2589881028442773,13.551431977465166,2.4712060703566796
sh600682,2013-02-04,8.89,8.92,8.78,8.84,-0.0056240000000000005,1404905.0,12446514.0,3158321480.0,3167563700.0,0.00393226600858884,47.66,2012-09-30 00:00:00,2012-10-26 00:00:00,18.51051248528452,1.2575657959290816,13.536122622778803,2.468414293790403
sh600682,2013-02-01,8.98,8.98,8.84,8.89,-0.004479,1361765.0,12112867.0,3176185280.0,3185479780.0,0.0038115190968960105,47.93,2012-09-30 00:00:00,2012-10-26 00:00:00,18.615204394800877,1.2646783469523415,13.612680336994057,2.4823751717563605
sh600682,2013-01-31,8.81,8.94,8.72,8.93,0.011325,2795228.0,24740849.0,3190476330.0,3199812650.0,0.007823717670395629,48.14,2012-09-30 00:00:00,2012-10-26 00:00:00,18.698957023308274,1.270368326687575,13.67392585088015,2.4935437542315637
sh600682,2013-01-30,8.88,8.9,8.61,8.83,0.003409,3963324.0,34695225.0,3154748710.0,3163980480.0,0.011093165933967527,47.6,2012-09-30 00:00:00,2012-10-26 00:00:00,18.489562725442635,1.2561425127308976,13.520802759627369,2.465620600926076
sh600682,2013-01-29,8.73,8.81,8.71,8.8,0.0068650000000000004,1516441.0,13304481.0,3144030430.0,3153230830.0,0.004244450267613982,47.44,2012-09-30 00:00:00,2012-10-26 00:00:00,18.426745948504184,1.2518748712946541,13.474866938234925,2.457243856618862
sh600682,2013-01-28,8.66,8.8,8.66,8.74,0.008074,1884222.0,16466345.0,3122593860.0,3131731530.0,0.00527385277059374,47.12,2012-09-30 00:00:00,2012-10-26 00:00:00,18.301108836342692,1.243339346679698,13.382992693394772,2.440489893499985
sh600682,2013-01-25,8.76,8.77,8.56,8.67,-0.008009,1358340.0,11769614.0,3097584520.0,3106649010.0,0.0038019326749476395,46.74,2012-09-30 00:00:00,2012-10-26 00:00:00,18.154529167841545,1.233381028257547,13.275803853084968,2.420943198118378
sh600682,2013-01-24,8.71,8.8,8.61,8.74,0.001145,3748563.0,32711900.0,3122593860.0,3131731530.0,0.010492059514905982,47.12,2012-09-30 00:00:00,2012-10-26 00:00:00,18.30110269936073,1.2433389297458821,13.38298820562381,2.4404890751210226
sh600682,2013-01-23,8.7,8.73,8.6,8.73,0.0034479999999999997,1836894.0,15875477.0,3119021100.0,3128148310.0,0.00514138382071221,47.06,2012-09-30 00:00:00,2012-10-26 00:00:00,18.28017190253233,1.2419169348554726,13.36768220949394,2.4376979110129127
sh600682,2013-01-22,8.7,8.77,8.59,8.7,0.0,2624304.0,22745563.0,3108302810.0,3117398660.0,0.007345309062729316,46.9,2012-09-30 00:00:00,2012-10-26 00:00:00,18.217358450594684,1.237649519312882,13.321748819564087,2.429321610101284
sh600682,2013-01-21,8.71,8.74,8.64,8.7,0.001151,1898100.0,16496250.0,3108302810.0,3117398660.0,0.0053126966738481956,46.9,2012-09-30 00:00:00,2012-10-26 00:00:00,18.217358450594684,1.237649519312882,13.321748819564087,2.429321610101284
sh600682,2013-01-18,8.58,8.82,8.58,8.69,0.012821,4906969.0,42734181.0,3104730050.0,3113815440.0,0.01373438589612646,46.85,2012-09-30 00:00:00,2012-10-26 00:00:00,18.196414377646015,1.2362266224704186,13.306433115048666,2.4265286755956734
sh600682,2013-01-17,8.5,8.6,8.5,8.58,0.0,3301983.0,28250749.0,3065429670.0,3074400060.0,0.009242102148766636,46.25,2012-09-30 00:00:00,2012-10-26 00:00:00,17.966071376527555,1.2205775970980248,13.137990933292919,2.395811970324148
sh600682,2013-01-16,8.62,8.67,8.47,8.58,-0.006944,3650732.0,31161038.0,3065429670.0,3074400060.0,0.010218234939965203,46.25,2012-09-30 00:00:00,2012-10-26 00:00:00,17.966071376527555,1.2205775970980248,13.137990933292919,2.395811970324148
sh600682,2013-01-15,8.37,8.66,8.33,8.64,0.033493,4570537.0,38697653.0,3086866240.0,3095899360.0,0.012792727837795786,46.58,2012-09-30 00:00:00,2012-10-26 00:00:00,18.091700142315794,1.2291125546777069,13.229859074707688,2.412564820437264
sh600682,2013-01-14,8.18,8.37,8.14,8.36,0.022005,2501037.0,20714770.0,2986828910.0,2995569290.0,0.0070002902576699645,45.07,2012-09-30 00:00:00,2012-10-26 00:00:00,17.505392046502294,1.1892799996494479,12.80111144894807,2.334379449534021
sh600682,2013-01-11,8.33,8.38,8.15,8.18,-0.023866,2470580.0,20423208.0,2922519190.0,2931071380.0,0.006915042497975864,44.1,2012-09-30 00:00:00,2012-10-26 00:00:00,17.128479847458955,1.1636733672041208,12.525488083666975,2.284117445153419
sh600682,2013-01-10,8.42,8.49,8.32,8.38,-0.004751,2548974.0,21333045.0,2993974430.0,3002735720.0,0.00713446377696686,45.18,2012-09-30 00:00:00,2012-10-26 00:00:00,17.547262821968044,1.1921246132233083,12.83173015555956,2.3399630021630426
sh600682,2013-01-09,8.38,8.49,8.34,8.42,0.0035759999999999998,2693689.0,22649892.0,3008265480.0,3017068590.0,0.00753951455773777,45.39,2012-09-30 00:00:00,2012-10-26 00:00:00,17.63102783521314,1.197815434351914,12.89298472599275,2.351133236168077
sh600682,2013-01-08,8.38,8.41,8.29,8.39,0.001193,2462964.0,20580794.0,2997547190.0,3006318940.0,0.006893725653073038,45.23,2012-09-30 00:00:00,2012-10-26 00:00:00,17.5682039379311,1.1935473091743067,12.847043697729669,2.342755542348638
sh600682,2013-01-07,8.28,8.5,8.21,8.38,0.010856000000000001,3828934.0,32151458.0,2993974430.0,3002735720.0,0.010717014346712374,45.18,2012-09-30 00:00:00,2012-10-26 00:00:00,17.547270044767693,1.192125103925324,12.831735437352908,2.3399639653379904
sh600682,2013-01-04,8.23,8.45,8.15,8.29,0.01968,4649427.0,38588902.0,2961819570.0,2970486770.0,0.013013537428277577,44.69,2012-09-30 00:00:00,2012-10-26 00:00:00,17.35882266590661,1.1793223801662396,12.693930131841638,2.314834126065424
