code,date,open,high,low,close,change,volume,money,traded_market_value,market_value,turnover,adjust_price,report_type,report_date,PE_TTM,PS_TTM,PC_TTM,PB
sh600455,2014-12-31,19.2,19.6,18.71,19.1,-0.014447999999999999,1655798.0,31635620.0,949609370.0,1192947800.0,0.03330394875947781,21.58,2014-09-30 00:00:00,2014-10-29 00:00:00,1602.2122375212705,5.299022643364729,33.979487893661954,9.313983666609156
sh600455,2014-12-30,19.95,20.29,18.88,19.38,-0.039167,754250.0,14671807.0,963530340.0,1210436040.0,0.01517063282096545,21.9,2014-09-30 00:00:00,2014-10-29 00:00:00,1625.7003562686398,5.376705281268497,34.477620555447054,9.450524849636707
sh600455,2014-12-29,20.2,20.4,19.59,20.17,0.003982,778827.0,15537253.0,1002807380.0,1259777860.0,0.015664963085931818,22.79,2014-09-30 00:00:00,2014-10-29 00:00:00,1691.969734874468,5.595879077080509,35.883052055296865,9.835762145593154
sh600455,2014-12-26,20.4,20.79,20.0,20.09,-0.02,1251519.0,25399201.0,998829960.0,1254781220.0,0.025172469506221058,22.7,2014-09-30 00:00:00,2014-10-29 00:00:00,1685.2590334034555,5.573684664745493,35.740732458646534,9.796751481195036
sh600455,2014-12-25,20.36,20.96,20.17,20.5,0.017875,867402.0,17951370.0,1019214240.0,1280389000.0,0.01744651938928954,23.16,2014-09-30 00:00:00,2014-10-29 00:00:00,1719.6520749014853,5.687433331372952,36.47013516188422,9.996685184892895
sh600455,2014-12-24,19.21,20.16,19.21,20.14,0.051148,1328975.0,26432731.0,1001315850.0,1257904120.0,0.026730383325101664,22.76,2014-09-30 00:00:00,2014-10-29 00:00:00,1689.453100726008,5.587555771949357,35.829679638348736,9.821132442483501
sh600455,2014-12-23,19.05,19.35,18.82,19.16,0.007361,1795050.0,34365868.0,952592430.0,1196695280.0,0.036104798775274755,21.65,2014-09-30 00:00:00,2014-10-29 00:00:00,1607.2456977761533,5.315669888492731,34.086236798575214,9.343244188718907
sh600455,2014-12-22,20.98,20.98,19.0,19.02,-0.09299,1491644.0,29037235.0,945631950.0,1187951160.0,0.030002231713934794,21.49,2014-09-30 00:00:00,2014-10-29 00:00:00,1595.5012133447228,5.276827163740438,33.8371614531188,9.274971126258519
sh600455,2014-12-19,20.85,21.16,20.01,20.97,0.005755,1618182.0,33127180.0,1042581590.0,1309744260.0,0.03254735827437736,23.7,2014-09-30 00:00:00,2014-10-29 00:00:00,1759.0778639096845,5.817826885856207,37.30627165424726,10.225875267371384
sh600455,2014-12-18,21.31,21.46,20.82,20.85,-0.03338,1001537.0,21044344.0,1036615460.0,1302249300.0,0.020144448212261856,23.56,2014-09-30 00:00:00,2014-10-29 00:00:00,1749.0122981339239,5.784536876134056,37.09280257542569,10.16736209849455
sh600455,2014-12-17,21.67,21.78,20.8,21.57,-0.010095999999999999,2359082.0,50034075.0,1072412260.0,1347219060.0,0.0474494750181241,24.37,2014-09-30 00:00:00,2014-10-29 00:00:00,1809.4104178828534,5.9842925618485605,38.37371725748038,10.518468579684415
sh600455,2014-12-16,21.81,22.17,21.6,21.79,-0.005023,2223137.0,48589841.0,1083350160.0,1360959820.0,0.04471514106759351,24.62,2014-09-30 00:00:00,2014-10-29 00:00:00,1827.864538261138,6.045326174910457,38.76508960210322,10.625746112435564
sh600455,2014-12-15,22.3,22.45,21.7,21.9,-0.008601000000000001,1666725.0,36597125.0,1088819120.0,1367830200.0,0.03352372935919788,24.75,2014-09-30 00:00:00,2014-10-29 00:00:00,1837.0922526461798,6.075845145074164,38.96078964850767,10.679388681784166
sh600455,2014-12-12,21.05,22.59,21.02,22.09,0.049905,3182817.0,68960873.0,1098265500.0,1379697220.0,0.0640176965679064,24.96,2014-09-30 00:00:00,2014-10-29 00:00:00,1853.030165096172,6.128556862649815,39.29879861539872,10.77203898912967
sh600455,2014-12-11,20.6,22.21,20.4,21.04,0.016916,1783459.0,37840265.0,1046061840.0,1314116320.0,0.035871662577807065,23.78,2014-09-30 00:00:00,2014-10-29 00:00:00,1764.9503194062052,5.8372489536194365,37.43081385020427,10.26001303844602
sh600455,2014-12-10,19.0,21.1,18.65,20.69,0.053462,2502936.0,50348153.0,1028660620.0,1292256020.0,0.050342887472449374,23.38,2014-09-30 00:00:00,2014-10-29 00:00:00,1735.5910610180242,5.7401485999034705,36.80816689894177,10.089341733679106
sh600455,2014-12-09,21.6,21.7,19.64,19.64,-0.09990800000000001,3882969.0,78784628.0,976456960.0,1226675120.0,0.0781002279506513,22.19,2014-09-30 00:00:00,2014-10-29 00:00:00,1647.5117859192117,5.448842577998514,34.940194234762885,9.577319099957196
sh600455,2014-12-08,22.68,22.88,21.45,21.82,-0.057451,3131599.0,68969286.0,1084841700.0,1362833560.0,0.06298752175547824,24.66,2014-09-30 00:00:00,2014-10-29 00:00:00,1830.3815453522657,6.0536507134809705,38.81846992836608,10.640377983536343
sh600455,2014-12-05,24.7,24.7,22.35,23.15,-0.06615599999999999,3893130.0,90380260.0,1150966330.0,1445902700.0,0.07830460123016804,26.16,2014-09-30 00:00:00,2014-10-29 00:00:00,1941.9484242753063,6.422637670275996,41.184564333913755,11.288938806933478
sh600455,2014-12-04,24.1,25.33,23.95,24.79,0.035505,5597408.0,138238197.0,1232503470.0,1548333820.0,0.112583654080909,28.01,2014-09-30 00:00:00,2014-10-29 00:00:00,2079.5212308215355,6.877634455300882,44.102188731644425,12.08867734539546
sh600455,2014-12-03,24.95,24.95,23.3,23.94,-0.052257000000000005,11337142.0,272801611.0,1190243370.0,1495244520.0,0.2280299864052173,27.05,2014-09-30 00:00:00,2014-10-29 00:00:00,2008.219400989407,6.641816751537542,42.59002972621516,11.674185393016414
sh600455,2014-12-02,25.26,25.26,25.26,25.26,0.100174,1468658.0,37098301.0,1255870820.0,1577689080.0,0.02953990210553662,28.54,2014-09-30 00:00:00,2014-10-29 00:00:00,2118.949336465062,7.008035671629907,44.93837435487802,12.317880894943476
sh600455,2014-08-22,21.72,23.15,21.48,22.96,0.057089999999999995,2457596.0,55154608.0,1141519950.0,1434035680.0,0.04943094000240644,25.94,2014-03-31 00:00:00,2014-04-26 00:00:00,176.82362812636083,5.695445577592322,51.87064605709929,11.683263848038337
sh600455,2014-08-21,21.84,22.0,21.61,21.72,-0.010929000000000001,940230.0,20490502.0,1079869920.0,1356587760.0,0.018911347766775465,24.54,2014-03-31 00:00:00,2014-04-26 00:00:00,167.27395787147816,5.38785304713158,49.069280815350915,11.052288686903042
sh600455,2014-08-20,22.34,22.34,21.88,21.96,-0.01701,1481364.0,32839019.0,1091802190.0,1371577680.0,0.0297954645428949,24.81,2014-03-31 00:00:00,2014-04-26 00:00:00,169.1222954383236,5.4473875456176355,49.61148473198679,11.17441385593455
sh600455,2014-08-19,23.15,23.15,22.15,22.34,-0.032482,2249607.0,50839751.0,1110694940.0,1395311720.0,0.04524754599134124,25.24,2014-03-31 00:00:00,2014-04-26 00:00:00,172.04884631412688,5.5416510296316694,50.46997907607076,11.36777979016526
sh600455,2014-08-18,22.04,23.1,20.54,23.09,0.036355,1875950.0,42238845.0,1147983260.0,1442155220.0,0.037731983565683705,26.09,2014-03-31 00:00:00,2014-04-26 00:00:00,177.82495655287744,5.7276981199643515,52.164382550061866,11.749424600023215
sh600455,2014-08-15,22.15,22.45,21.83,22.28,0.004961999999999999,1656071.0,36648030.0,1107711870.0,1391564240.0,0.03330943982752483,25.18,2014-03-31 00:00:00,2014-04-26 00:00:00,171.58691428407974,5.526772312541891,50.33447279171892,11.337258564896405
sh600455,2014-08-14,22.91,22.91,22.07,22.17,-0.0323,1397975.0,31266006.0,1102242920.0,1384693860.0,0.028118217125858245,25.05,2014-03-31 00:00:00,2014-04-26 00:00:00,170.73970387345963,5.499483873561281,50.085946326049076,11.281280849322071
sh600455,2014-08-13,22.85,22.99,22.62,22.91,0.0013109999999999999,806160.0,18432120.0,1139034060.0,1430912780.0,0.016214726362089645,25.89,2014-03-31 00:00:00,2014-04-26 00:00:00,176.43867301173879,5.683046268018271,51.75772070481458,11.657828716877203
sh600455,2014-08-12,23.0,23.07,22.73,22.88,-0.008236,912649.0,20883542.0,1137542530.0,1429039040.0,0.018356596407872326,25.85,2014-03-31 00:00:00,2014-04-26 00:00:00,176.2076647632342,5.675605549143344,51.689955173582014,11.642565313750877
sh600455,2014-08-11,23.32,23.47,22.85,23.07,-0.003886,763594.0,17628808.0,1146988910.0,1440906060.0,0.015358573588998345,26.07,2014-03-31 00:00:00,2014-04-26 00:00:00,177.67096281296173,5.722738019471713,52.11920897873084,11.739249774896926
sh600455,2014-08-08,22.7,23.21,22.7,23.16,0.013123,584254.0,13474710.0,1151463510.0,1446527280.0,0.011751412461172998,26.17,2014-03-31 00:00:00,2014-04-26 00:00:00,178.36408564979686,5.745063335593831,52.32253434720408,11.785046465461713
sh600455,2014-08-07,22.6,23.5,22.6,22.86,0.0,667162.0,15300776.0,1136548180.0,1427789880.0,0.013418985299857678,25.83,2014-03-31 00:00:00,2014-04-26 00:00:00,176.0537325179636,5.670647429378101,51.644799641508556,11.632394551758978
sh600455,2014-08-06,22.62,22.89,22.55,22.86,-0.000874,683604.0,15544639.0,1136548180.0,1427789880.0,0.013749692019215587,25.83,2014-03-31 00:00:00,2014-04-26 00:00:00,176.0537325179636,5.670647429378101,51.644799641508556,11.632394551758978
sh600455,2014-08-05,22.59,22.95,22.2,22.88,0.007486,760439.0,17184008.0,1137542530.0,1429039040.0,0.01529511544504626,25.85,2014-03-31 00:00:00,2014-04-26 00:00:00,176.20773808104644,5.6756079106920465,51.68997668112787,11.642570158077138
sh600455,2014-08-04,22.76,22.91,22.15,22.71,-0.0021969999999999997,1026257.0,23227833.0,1129090510.0,1418421180.0,0.02064165473324189,25.66,2014-03-31 00:00:00,2014-04-26 00:00:00,174.89844829709438,5.633436008730688,51.305900708424595,11.5560614818242
sh600455,2014-08-01,22.82,23.37,22.5,22.76,0.002202,1496146.0,34394495.0,1131576400.0,1421544080.0,0.030092782917706663,25.72,2014-03-31 00:00:00,2014-04-26 00:00:00,175.28354624820167,5.645839919032803,51.41886796133565,11.581506050617406
sh600455,2014-07-31,21.5,23.25,21.3,22.71,0.059729,1351623.0,30383504.0,1129090510.0,1418421180.0,0.02718591473238049,25.66,2014-03-31 00:00:00,2014-04-26 00:00:00,174.89841992752127,5.633435094953715,51.30589238630101,11.556059607361995
sh600455,2014-07-30,21.38,21.58,21.23,21.43,-0.000932,627110.0,13445631.0,1065451770.0,1338474940.0,0.012613398070566816,24.22,2014-03-31 00:00:00,2014-04-26 00:00:00,165.04070373418233,5.315920480569765,48.41416285323986,10.90473093343864
sh600455,2014-07-29,21.1,21.48,20.8,21.45,0.014663999999999998,819142.0,17382455.0,1066446120.0000001,1339724100.0,0.01647584024216807,24.24,2014-03-31 00:00:00,2014-04-26 00:00:00,165.19466516211344,5.320879540301325,48.45932694595349,10.914903623615853
sh600455,2014-07-28,20.7,21.15,20.3,21.14,0.033741,1226311.0,25512887.0,1051033620.0000001,1320362120.0,0.024665447466846964,23.89,2014-03-31 00:00:00,2014-04-26 00:00:00,162.80725950867816,5.243981791313504,47.75898912936055,10.757160620280064
sh600455,2014-07-25,19.62,20.47,19.61,20.45,0.035968,809530.0,16433547.0,1016728360.0,1277266100.0,0.0162825088305789,23.11,2014-03-31 00:00:00,2014-04-26 00:00:00,157.4932787890566,5.072819779145361,46.200149872512114,10.406050084382901
sh600455,2014-07-24,19.68,19.98,19.5,19.74,-0.00504,561712.0,11079072.0,981428740.0,1232920920.0,0.011298013221010829,22.31,2014-03-31 00:00:00,2014-04-26 00:00:00,152.0252351318348,4.896695437644175,44.596116745413106,10.0447601512623
sh600455,2014-07-23,20.28,20.65,19.67,19.84,-0.021214,1445761.0,29141264.0,986400520.0,1239166720.0,0.02907936244802466,22.42,2014-03-31 00:00:00,2014-04-26 00:00:00,152.79532356259028,4.921499796619137,44.822019724826234,10.095642187889263
sh600455,2014-07-22,20.0,20.47,19.95,20.27,0.014515,825062.0,16712200.0,1007779160.0,1266023660.0,0.016594912262325408,22.91,2014-03-31 00:00:00,2014-04-26 00:00:00,156.10697697207587,5.028167338538901,45.79348266610498,10.314452993697563
sh600455,2014-07-21,20.45,20.5,19.96,19.98,-0.023459999999999998,699565.0,14025797.0,993361000.0,1247910840.0,0.014070724238217527,22.58,2014-03-31 00:00:00,2014-04-26 00:00:00,153.87350307494307,4.956227693566778,45.138300238148254,10.166880720046093
sh600455,2014-07-18,20.16,20.54,19.9,20.46,0.005405,730257.0,14858020.0,1017225530.0,1277890680.0,0.01468804879484297,23.12,2014-03-31 00:00:00,2014-04-26 00:00:00,157.5700975637896,5.075294092988284,46.222684414512734,10.411125729664013
sh600455,2014-07-17,21.42,21.43,19.79,20.35,-0.049510000000000005,2680227.0,54361915.0,1011756580.0,1271020300.0,0.05390883590794142,23.0,2014-03-31 00:00:00,2014-04-26 00:00:00,156.72300969638064,5.048009601094369,45.974193896502136,10.35515611088468
sh600455,2014-07-16,22.09,22.55,21.09,21.41,-0.03948,1501361.0,32385170.0,1064457409.9999999,1337225780.0,0.03019767508593886,24.19,2014-03-31 00:00:00,2014-04-26 00:00:00,164.88654241115705,5.310954982266377,48.36894012193935,10.894545035597094
sh600455,2014-07-15,22.08,22.4,21.84,22.29,0.010426000000000001,1280654.0,28442199.0,1108209050.0,1392188820.0,0.025758477301732915,25.19,2014-03-31 00:00:00,2014-04-26 00:00:00,171.663830436802,5.529249762905903,50.35703589924141,11.342340644231347
sh600455,2014-07-14,21.34,22.17,21.19,22.06,0.031323000000000004,1072716.0,23256395.0,1096773960.0,1377823480.0,0.02157610941091271,24.93,2014-03-31 00:00:00,2014-04-26 00:00:00,169.89253090953912,5.472196640729655,49.83743084524884,11.225305607962726
sh600455,2014-07-11,21.26,21.91,21.2,21.39,0.007537,810966.0,17459625.0,1063463060.0,1335976620.0,0.01631139189733586,24.17,2014-03-31 00:00:00,2014-04-26 00:00:00,164.732611325006,5.30599689983609,48.323784929889904,10.884374350191674
sh600455,2014-07-10,21.51,21.73,21.0,21.23,-0.013475999999999998,1538534.0,32739068.0,1055508210.0,1325983340.0,0.030945355526888797,23.99,2014-03-31 00:00:00,2014-04-26 00:00:00,163.50030949236208,5.266304760853537,47.962293126594766,10.802952497220128
sh600455,2014-07-09,22.0,22.3,21.48,21.52,-0.030631,1730846.0,37632488.0,1069926370.0000001,1344096160.0,0.0348134291895245,24.32,2014-03-31 00:00:00,2014-04-26 00:00:00,165.73373733671158,5.338242922476835,48.61746204511473,10.950521728027018
sh600455,2014-07-08,22.0,22.49,21.68,22.2,0.010929000000000001,1580405.0,34800833.0,1103734450.0,1386567600.0,0.03178752914706975,25.09,2014-03-31 00:00:00,2014-04-26 00:00:00,170.9707421391767,5.50692555928324,50.15372066273496,11.296546235775045
sh600455,2014-07-07,22.75,22.75,21.57,21.96,-0.024434,2163057.0,47499700.0,1091802190.0,1371577680.0,0.043506719582601314,24.81,2014-03-31 00:00:00,2014-04-26 00:00:00,169.12240339250008,5.447391022795112,49.61151639999937,11.174420988788574
sh600455,2014-07-04,24.4,24.4,22.22,22.51,-0.065587,4111025.0,94920252.0,1119146960.0,1405929580.0,0.08268723952929291,25.44,2014-03-31 00:00:00,2014-04-26 00:00:00,173.35823859431352,5.583826232971538,50.85408511571679,11.454295238649742
sh600455,2014-07-03,24.23,24.27,22.42,24.09,0.092022,7386218.0,173783687.0,1197701030.0,1504613220.0,0.14856294447705368,27.22,2014-03-31 00:00:00,2014-04-26 00:00:00,185.52635568459934,5.975758292073782,54.42356336621686,12.258278982259174
sh600455,2014-07-02,20.8,22.33,20.5,22.06,0.051477999999999996,3899339.0,83729711.0,1096773960.0,1377823480.0,0.07842948636380827,24.93,2014-03-31 00:00:00,2014-04-26 00:00:00,169.89250737127946,5.4721958825681,49.837423940375615,11.225304052719792
sh600455,2014-07-01,21.2,21.55,20.76,20.98,-0.014098,2691707.0,56659329.0,1043078770.0,1310368840.0,0.05413973947528431,23.71,2014-03-31 00:00:00,2014-04-26 00:00:00,161.5749519926042,5.204289469269067,47.39749565884937,10.675738391787364
sh600455,2014-06-30,21.68,22.69,21.2,21.28,-0.007,4667992.0,101576571.0,1057994100.0000001,1329106240.0,0.09388981447061,24.05,2014-03-31 00:00:00,2014-04-26 00:00:00,163.8854084813746,5.278708704586325,48.075260683972004,10.828397134590826
sh600455,2014-06-27,20.0,21.59,19.72,21.43,0.08837,4118568.0,84731913.0,1065451770.0,1338474940.0,0.08283895594823593,24.22,2014-03-31 00:00:00,2014-04-26 00:00:00,165.04069333471764,5.315920145605565,48.41415980259014,10.904730246315031
sh600455,2014-06-26,18.43,20.2,18.31,19.69,0.068367,2659321.0,51623622.0,978942850.0,1229798020.0,0.053488342542161685,22.25,2014-03-31 00:00:00,2014-04-26 00:00:00,151.64024489348077,4.884294996743354,44.48318108969389,10.019322699371566
sh600455,2014-06-25,18.3,18.7,18.11,18.43,0.007654,754729.0,13932629.0,916298460.0,1151100940.0,0.01518026721337063,20.83,2014-03-31 00:00:00,2014-04-26 00:00:00,141.93647397708912,4.571738921871749,41.6366109115069,9.378165648481811
sh600455,2014-06-24,18.41,18.47,18.16,18.29,-0.006518,585775.0,10711422.0,909337980.0,1142356820.0,0.011782005135208364,20.67,2014-03-31 00:00:00,2014-04-26 00:00:00,140.8583442105019,4.537012627222984,41.32034499094619,9.306930403175901
sh600455,2014-06-23,18.1,18.49,17.92,18.41,0.018252,722531.0,13210631.0,915304110.0,1149851780.0,0.014532651568668254,20.8,2014-03-31 00:00:00,2014-04-26 00:00:00,141.7824824309871,4.5667788920413095,41.59143798372411,9.36799096830733
sh600455,2014-06-20,17.87,18.1,17.68,18.08,0.011752,496594.0,8923076.0,898897250.0,1129240640.0,0.009988260082006034,20.43,2014-03-31 00:00:00,2014-04-26 00:00:00,139.24105470059192,4.484920129831623,40.84591828321881,9.20007126753233
sh600455,2014-06-19,18.43,18.46,17.45,17.87,-0.035618000000000004,991969.0,17826540.0,888456510.0,1116124460.0,0.019952001961244,20.19,2014-03-31 00:00:00,2014-04-26 00:00:00,137.62370096682972,4.432825563805777,40.37147273562969,9.09320788842753
sh600455,2014-06-18,18.56,18.71,18.15,18.53,-0.001616,771411.0,14261856.0,921270240.0,1157346740.0,0.015515801129101926,20.94,2014-03-31 00:00:00,2014-04-26 00:00:00,142.70662555587904,4.5965453148293705,41.862532415194075,9.42905185748752
sh600455,2014-06-17,18.71,18.79,18.36,18.56,-0.007487000000000001,452391.0,8387852.0,922761770.0,1159220480.0,0.00909918164468387,20.97,2014-03-31 00:00:00,2014-04-26 00:00:00,142.93761273806376,4.6039853551633145,41.930291766689045,9.44431386869934
sh600455,2014-06-16,18.4,18.78,18.32,18.7,0.016857,1158651.0,21528979.0,929722260.0,1167964600.0,0.023304565924881695,21.13,2014-03-31 00:00:00,2014-04-26 00:00:00,144.01585947797537,4.638715417494093,42.24659200100054,9.515556842781244
sh600455,2014-06-13,18.46,18.96,18.36,18.39,-0.0037920000000000002,1400788.0,26138251.0,914309750.0,1148602620.0,0.028174796692258832,20.78,2014-03-31 00:00:00,2014-04-26 00:00:00,141.62842904948818,4.561816870507942,41.54624691672531,9.357812202483974
sh600455,2014-06-12,18.51,18.68,18.32,18.46,-0.0021620000000000003,840490.0,15553256.0,917790000.0,1152974680.0,0.016905223852951113,20.86,2014-03-31 00:00:00,2014-04-26 00:00:00,142.16752831686574,4.579181125335213,41.704389963466774,9.393432096995781
sh600455,2014-06-11,18.9,18.9,18.49,18.5,-0.022715,1029252.0,19181915.0,919778710.0,1155473000.0,0.020701894698127988,20.9,2014-03-31 00:00:00,2014-04-26 00:00:00,142.47556047862048,4.589102765514254,41.7947502134282,9.413784699516134
sh600455,2014-06-10,18.89,19.03,18.63,18.93,-0.003684,1072986.0,20239619.0,941157350.0,1182329940.0,0.02158153998372323,21.39,2014-03-31 00:00:00,2014-04-26 00:00:00,145.78711479110035,4.695767115543832,42.76618408491709,9.632588957690064
sh600455,2014-06-09,19.14,19.14,18.46,19.0,-0.000526,1409339.0,26510406.0,944637590.0,1186702000.0,0.028346787470102688,21.47,2014-03-31 00:00:00,2014-04-26 00:00:00,146.32618043984073,4.713130287523068,42.924317269738815,9.668206630918368
sh600455,2014-06-06,18.79,19.17,18.74,19.01,0.005288,1130626.0,21373521.0,945134770.0,1187326580.0,0.022740884096349563,21.48,2014-03-31 00:00:00,2014-04-26 00:00:00,146.40318851700067,4.71561069875061,42.946907343001236,9.67329478397474
sh600455,2014-06-05,18.46,19.2,18.32,18.91,0.023822,1415373.0,26598498.0,940162990.0,1181080780.0,0.028468152559376965,21.37,2014-03-31 00:00:00,2014-04-26 00:00:00,145.63308078580533,4.690805718113228,42.72099870186577,9.622411472110219
sh600455,2014-06-04,18.77,18.81,18.3,18.47,-0.014408,1079613.0,20031146.0,918287170.0,1153599260.0,0.021714832528913583,20.87,2014-03-31 00:00:00,2014-04-26 00:00:00,142.24453155509974,4.581661380702141,41.726978617245734,9.3985199303299
sh600455,2014-06-03,18.3,19.0,18.2,18.74,0.0048259999999999996,2004514.0,37181059.0,931710970.0,1170462920.0,0.04031785990455816,21.18,2014-03-31 00:00:00,2014-04-26 00:00:00,144.32395104170868,4.648638970996256,42.336969676342484,9.535913370167272
sh600455,2014-05-30,17.5,19.25,17.41,18.65,0.065714,4153180.0,77850183.0,927236370.0,1164841700.0,0.08353512600028835,21.07,2014-03-31 00:00:00,2014-04-26 00:00:00,143.6307888546959,4.626312387414592,42.13363276462042,9.49011407961903
sh600455,2014-05-29,17.77,17.96,17.49,17.5,-0.023982,1622525.0,28736228.0,870060940.0,1093015000.0,0.032634711196206555,19.77,2014-03-31 00:00:00,2014-04-26 00:00:00,134.774234789724,4.34104495898017,39.53559094149127,8.904935169866429
sh600455,2014-05-28,18.07,18.3,17.76,17.93,-0.0077480000000000005,1475142.0,26518300.0,891439580.0,1119871940.0,0.029670318273281066,20.26,2014-03-31 00:00:00,2014-04-26 00:00:00,138.08580865283633,4.447709938730812,40.5070305480957,9.123740719808884
sh600455,2014-05-27,18.0,18.36,17.9,18.07,0.000554,2018981.0,36661667.0,898400070.0,1128616060.0,0.04060884219432441,20.42,2014-03-31 00:00:00,2014-04-26 00:00:00,139.16405172560633,4.482439882943861,40.823329706662925,9.194983451591819
sh600455,2014-05-26,18.04,18.18,17.67,18.06,0.0022199999999999998,2780115.0,49830918.0,897902890.0,1127991480.0,0.05591793662675481,20.41,2014-03-31 00:00:00,2014-04-26 00:00:00,139.08699752897527,4.479957986219496,40.80072610440109,9.189892251284608
sh600455,2014-05-23,17.01,18.08,17.01,18.02,0.056891,2738369.0,48361301.0,895914180.0,1125493160.0,0.05507827700639809,20.36,2014-03-31 00:00:00,2014-04-26 00:00:00,138.7789083524329,4.470034509608166,40.71034912933397,9.169535881627395
sh600455,2014-05-22,17.32,17.72,17.02,17.05,-0.016156999999999998,2654793.0,46161499.0,847687940.0,1064908899.9999999,0.053397268634021146,19.27,2014-03-31 00:00:00,2014-04-26 00:00:00,131.30862913245824,4.229418653019249,38.51896660046682,8.675952280440837
sh600455,2014-05-21,16.75,17.36,16.35,17.33,0.032162,3610705.0,61561808.0,861608920.0,1082397140.0,0.07262403649442255,19.58,2014-03-31 00:00:00,2014-04-26 00:00:00,133.46502351742933,4.298875585859989,39.15153799993172,8.818431681112573
sh600455,2014-05-20,16.23,16.8,16.08,16.79,0.034504,2336888.0,38443005.0,834761320.0,1048669820.0000001,0.04700307570552023,18.97,2014-03-31 00:00:00,2014-04-26 00:00:00,129.30627509773592,4.164923321978515,37.931582445325155,8.543650784578942
sh600455,2014-05-19,15.71,16.24,15.57,16.23,0.030476,1678133.0,26800982.0,806919370.0,1013693340.0,0.0337531847698736,18.34,2014-03-31 00:00:00,2014-04-26 00:00:00,124.99349939462381,4.026009877176419,36.6664434795082,8.25869284659986
sh600455,2014-05-16,16.01,16.13,15.51,15.75,-0.019913,1434064.0,22620976.0,783054850.0,983713500.0,0.028844094382405015,17.8,2014-03-31 00:00:00,2014-04-26 00:00:00,121.29685639900765,3.906941915363792,35.58204507383792,8.014444631995175
sh600455,2014-05-15,16.31,16.72,16.02,16.07,-0.030175,1471378.0,24041147.0,798964530.0,1003700060.0,0.02959461098980201,18.16,2014-03-31 00:00:00,2014-04-26 00:00:00,123.76131547404226,3.9863215361123987,36.30498626533963,8.17727878442952
sh600455,2014-05-14,16.66,16.86,16.27,16.57,-0.0036079999999999997,1496868.0,24798044.0,823823420.0,1034929060.0,0.03010730474256243,18.72,2014-03-31 00:00:00,2014-04-26 00:00:00,127.61200780969995,4.110351389284044,37.434574552460106,8.431705497826432
sh600455,2014-05-13,16.88,17.28,16.53,16.63,-0.020612000000000002,2503511.0,42501043.0,826806480.0,1038676540.0,0.05035445287027745,18.79,2014-03-31 00:00:00,2014-04-26 00:00:00,128.0740991594673,4.12523523802283,37.570127572742564,8.462237249823795
sh600455,2014-05-12,16.91,17.1,16.62,16.98,0.008314,2281645.0,38471994.0,844207700.0,1060536840.0000001,0.04589194353474862,19.19,2014-03-31 00:00:00,2014-04-26 00:00:00,130.7695205163503,4.212054097071672,38.36082081130518,8.640331768230563
sh600455,2014-05-09,16.56,16.9,16.28,16.84,0.008987,2135067.0,35587034.0,837247210.0,1051792720.0,0.04294374212366739,19.03,2014-03-31 00:00:00,2014-04-26 00:00:00,129.69126731985304,4.177323826775857,38.044518682974925,8.569088367542813
sh600455,2014-05-08,16.71,17.14,16.49,16.69,-0.01067,2406013.0,40490857.0,829789550.0,1042424020.0,0.04839342333245822,18.86,2014-03-31 00:00:00,2014-04-26 00:00:00,128.53611326989648,4.140116598901528,37.70565793511207,8.492763898387999
sh600455,2014-05-07,16.88,17.3,16.66,16.87,-0.00823,2711688.0,46065435.0,838738750.0,1053666460.0,0.05454162760454314,19.06,2014-03-31 00:00:00,2014-04-26 00:00:00,129.92238511911748,4.184768074253817,38.112316350572684,8.58435900901418
sh600455,2014-05-06,16.98,17.65,16.78,17.01,-0.012768,3984895.0,68498056.0,845699230.0,1062410580.0000001,0.08015032004936318,19.22,2014-03-31 00:00:00,2014-04-26 00:00:00,131.00051939372784,4.2194945141049,38.42858359354758,8.655594552178611
sh600455,2014-05-05,16.85,17.86,16.57,17.23,0.013529,5423603.0,93494482.0,856637140.0,1076151340.0,0.10908782181683134,19.47,2014-03-31 00:00:00,2014-04-26 00:00:00,132.69476616816294,4.274065786061331,38.92558546881339,8.767538483536404
sh600455,2014-04-30,17.27,17.3,16.4,17.0,0.001768,5002064.0,84061017.0,845202060.0,1061786000.0,0.10060918214042214,19.21,2014-03-31 00:00:00,2014-04-26 00:00:00,130.9235021081419,4.217013806276221,38.40599081902283,8.650505790694103
sh600455,2014-04-29,15.37,16.97,15.37,16.97,0.09980599999999999,3873534.0,64088869.0,843710520.0,1059912260.0,0.07791045675239416,19.18,2014-03-31 00:00:00,2014-04-26 00:00:00,130.69243787797362,4.209571284245674,38.338208865748186,8.635238688692494
sh600455,2014-04-28,15.35,15.77,15.12,15.43,-0.017197,2737398.0,42248057.0,767145160.0,963726940.0,0.05505874682178794,17.44,2014-03-31 00:00:00,2014-04-26 00:00:00,118.83226485214085,3.8275580277300483,34.85906502214771,7.851601726752258
sh600455,2014-04-25,15.65,16.55,15.58,15.7,0.001276,4381216.0,70538771.0,780568960.0,980590600.0,0.0881217352019737,17.74,2013-12-31 00:00:00,2014-03-28 00:00:00,93.05691865245598,3.7648944027861306,124.90755231819162,7.841690295052474
sh600455,2014-04-24,15.2,15.85,14.97,15.68,0.024837,2113093.0,32709172.0,779574600.0,979341440.0,0.04250176729719003,17.72,2013-12-31 00:00:00,2014-03-28 00:00:00,92.93832934421275,3.760096519627086,124.74837339374119,7.831697049617161
sh600455,2014-04-23,15.18,15.4,15.1,15.3,0.007242,927324.0,14166020.0,760681850.0,955607400.0,0.01865176249439894,17.29,2013-12-31 00:00:00,2014-03-28 00:00:00,90.68596210344937,3.6689703041821145,121.72508739803617,7.641895296146764
sh600455,2014-04-22,15.21,15.36,15.0,15.19,-0.008486,1399699.0,21213046.0,755212900.0,948737020.0,0.028152892793542057,17.16,2013-12-31 00:00:00,2014-03-28 00:00:00,90.03393633650046,3.6425906626035407,120.84989247671979,7.5869505999022735
sh600455,2014-04-21,15.4,15.65,15.28,15.32,-0.016057,1611216.0,24860418.0,761676210.0,956856560.0,0.0324072470636834,17.31,2013-12-31 00:00:00,2014-03-28 00:00:00,90.80450335194506,3.673766242941139,121.8842018133075,7.651884491698828
sh600455,2014-04-18,15.79,15.91,15.56,15.57,-0.015803,1388884.0,21796320.0,774105650.0,972471060.0,0.027935364998304818,17.59,2013-12-31 00:00:00,2014-03-28 00:00:00,92.28634519676956,3.733718561889396,123.87323433705761,7.776755860551706
sh600455,2014-04-17,15.3,15.96,15.3,15.82,0.031963,3520050.0,55679129.0,786535090.0,988085560.0,0.07080064412637967,17.88,2013-12-31 00:00:00,2014-03-28 00:00:00,93.76816348431217,3.7936699277577524,125.86223524056427,7.901625244287177
sh600455,2014-04-16,15.07,15.45,15.0,15.33,0.016578,1473579.0,22556358.0,762173380.0,957481140.0,0.02963888094596009,17.32,2013-12-31 00:00:00,2014-03-28 00:00:00,90.8638812479829,3.6761685523199503,121.96390300869729,7.656888129019333
sh600455,2014-04-15,15.18,15.21,14.95,15.08,-0.007895000000000001,1237835.0,18657082.0,749743940.0,941866640.0,0.024897235981660618,17.04,2013-12-31 00:00:00,2014-03-28 00:00:00,89.38210471600102,3.6162188757969878,119.97495815244604,7.532022263927936
sh600455,2014-04-14,15.0,15.27,14.9,15.2,0.017403000000000002,1684173.0,25443194.0,755710070.0,949361600.0,0.03387467048043967,17.18,2013-12-31 00:00:00,2014-03-28 00:00:00,90.09339204620582,3.6449961201656955,120.9296981190963,7.591960794399721
sh600455,2014-04-11,14.65,15.18,14.55,14.94,0.015636,2066353.0,30632267.0,742783450.0,933122520.0,0.04156166083129612,16.88,2013-12-31 00:00:00,2014-03-28 00:00:00,88.55231608930367,3.5826473090463615,118.86115739691773,7.46209790456655
sh600455,2014-04-10,14.76,14.85,14.62,14.71,-0.002712,1008746.0,14891126.0,731348370.0,918757180.0,0.02028944654652064,16.62,2013-12-31 00:00:00,2014-03-28 00:00:00,87.18902844060634,3.527491452692068,117.03125666766215,7.347216822332556
sh600455,2014-04-09,14.5,14.94,14.36,14.75,0.021468,1459756.0,21353675.0,733337080.0,921255500.0,0.029360851356377615,16.67,2013-12-31 00:00:00,2014-03-28 00:00:00,87.42612810001359,3.5370840245666937,117.34950853480858,7.367196659673592
sh600455,2014-04-08,14.25,14.46,14.24,14.44,0.009085,1098242.0,15773154.0,717924570.0,901893520.0,0.022089527427651624,16.32,2013-12-31 00:00:00,2014-03-28 00:00:00,85.58870968059067,3.4627457977799536,114.88319608133449,7.212361679145693
sh600455,2014-04-04,14.08,14.35,13.97,14.31,0.013456000000000001,969047.0,13759105.0,711461260.0,893773980.0,0.019490959451537813,16.17,2013-12-31 00:00:00,2014-03-28 00:00:00,84.81813690679245,3.431569984471034,113.84887901547886,7.147427302106059
sh600455,2014-04-03,14.13,14.16,13.99,14.12,0.003554,809640.0,11404550.0,702014880.0,881906960.0,0.01628472148624542,15.96,2013-12-31 00:00:00,2014-03-28 00:00:00,83.69197765546059,3.3860078626709345,112.33726872748188,7.052528478894062
sh600455,2014-04-02,14.06,14.19,13.99,14.07,-0.0035409999999999994,1362122.0,19149529.0,699529000.0,878784060.0,0.027397086525362064,15.9,2013-12-31 00:00:00,2014-03-28 00:00:00,83.39558972956172,3.3740166076473552,111.93943597203724,7.027552557106105
sh600455,2014-04-01,13.84,14.16,13.8,14.12,0.020968999999999998,1259025.0,17573196.0,702014880.0,881906960.0,0.025323441862087025,15.96,2013-12-31 00:00:00,2014-03-28 00:00:00,83.69194289936837,3.3860064565098567,112.33722207540625,7.052525550078935
sh600455,2014-03-31,14.12,14.2,13.73,13.83,-0.019844,2143594.0,29947428.0,687596730.0,863794140.0,0.04311525015542177,15.63,2013-12-31 00:00:00,2014-03-28 00:00:00,81.97305001363253,3.3164635326928216,110.03000294368023,6.9076784408526954
sh600455,2014-03-28,14.9,14.94,14.08,14.11,-0.08495499999999999,3834841.0,55678259.0,701517710.0,881282380.0,0.07713220313425873,15.94,2013-12-31 00:00:00,2014-03-28 00:00:00,83.63265644819042,3.383607846804816,112.25764362374993,7.047529618604279
sh600455,2014-03-27,15.37,16.15,15.32,15.42,0.006527,3642990.0,57556190.0,766647980.0,963102360.0,0.07327340222040368,17.42,2013-09-30 00:00:00,2013-10-30 00:00:00,62.982290172885854,3.5303053219220084,31.490887840523577,7.563444122453993
sh600455,2014-03-26,15.39,15.43,15.22,15.32,-0.002604,1340925.0,20587733.0,761676210.0,956856560.0,0.026970739968365298,17.31,2013-09-30 00:00:00,2013-10-30 00:00:00,62.57387052000181,3.507412440920123,31.286679682237615,7.514397648998978
sh600455,2014-03-25,15.25,15.46,15.05,15.36,0.003266,1892752.0,28855907.0,763664920.0,959354880.0,0.03806993088015618,17.36,2013-09-30 00:00:00,2013-10-30 00:00:00,62.73723828850508,3.5165695881276076,31.368362899227204,7.5340162272547495
sh600455,2014-03-24,14.83,15.49,14.8,15.31,0.028207,2133408.0,32618915.0,761179030.0,956231980.0,0.04291037350306406,17.3,2013-09-30 00:00:00,2013-10-30 00:00:00,62.53300549256635,3.505121860132415,31.26624733542969,7.5094902321565264
sh600455,2014-03-21,14.52,15.0,14.32,14.89,0.024072,1611080.0,23629831.0,740297570.0,929999620.0,0.03240451160740673,16.83,2013-09-30 00:00:00,2013-10-30 00:00:00,60.81752554939458,3.408965179319354,30.40851437057877,7.3034809451370455
sh600455,2014-03-20,15.02,15.36,14.5,14.54,-0.03963,1941808.0,29235477.0,722896350.0,908139320.0,0.039056620385481265,16.43,2013-09-30 00:00:00,2013-10-30 00:00:00,59.38793907986408,3.328833499323635,29.69372697484041,7.13180415550571
sh600455,2014-03-19,14.64,15.17,14.64,15.14,0.031335,2664501.0,39961920.0,752727010.0,945614120.0,0.0535925303650257,17.11,2013-09-30 00:00:00,2013-10-30 00:00:00,61.838602913318915,3.4661989642779707,30.919048882035476,7.426100519076722
sh600455,2014-03-18,14.84,15.11,14.65,14.68,-0.010782,2145437.0,31881258.0,729856830.0,916883440.0,0.04315231955834407,16.59,2013-09-30 00:00:00,2013-10-30 00:00:00,59.95976371723923,3.3608856135765497,29.97963695795787,7.200473676425916
sh600455,2014-03-17,14.53,14.85,14.53,14.84,0.016438,1555722.0,22942056.0,737811680.0,926876720.0,0.03129106668520076,16.77,2013-09-30 00:00:00,2013-10-30 00:00:00,60.613296277705444,3.39751764886663,30.306400568891657,7.278955373260409
sh600455,2014-03-14,14.26,14.69,14.2,14.6,0.020266,2071067.0,30037310.0,725879410.0,911886800.0,0.041656475970299256,16.5,2013-09-30 00:00:00,2013-10-30 00:00:00,59.633048230886146,3.3425724430478105,29.816280549223524,7.161238927765797
sh600455,2014-03-13,14.36,14.48,14.18,14.31,-0.003482,1632580.0,23396750.0,711461260.0,893773980.0,0.032836952780816206,16.17,2013-09-30 00:00:00,2013-10-30 00:00:00,58.44853031551198,3.276177431226573,29.224026429601224,7.018992035180822
sh600455,2014-03-12,14.28,14.45,13.93,14.36,0.009845,2053219.0,29202061.0,713947150.0,896896880.0,0.0412974893729879,16.23,2013-09-30 00:00:00,2013-10-30 00:00:00,58.652759223126914,3.287624941272082,29.32614004925273,7.043517563336359
sh600455,2014-03-11,14.32,14.55,14.12,14.22,-0.013869999999999999,2194548.0,31397857.0,706986660.0,888152760.0,0.04414011511900381,16.07,2013-09-30 00:00:00,2013-10-30 00:00:00,58.08095224824295,3.2555738170432904,29.04023889730872,6.974850163476928
sh600455,2014-03-10,15.05,15.2,14.36,14.42,-0.048813,2565455.0,37807714.0,716930210.0,900644360.0,0.05160036581524441,16.29,2013-09-30 00:00:00,2013-10-30 00:00:00,58.89786564473543,3.301363732006217,29.448692258940216,7.072952007825467
sh600455,2014-03-07,15.58,15.68,15.0,15.16,-0.023825,2652084.0,40532820.0,753721360.0,946863280.0,0.05334278099800701,17.13,2013-09-30 00:00:00,2013-10-30 00:00:00,61.920385418151675,3.4707830657969643,30.959939800418024,7.435921651395012
sh600455,2014-03-06,15.76,15.95,15.28,15.53,-0.015843,3614129.0,56190119.0,772116940.0,969972740.0,0.07269290500218788,17.55,2013-09-30 00:00:00,2013-10-30 00:00:00,63.43164434466327,3.555492678871067,31.715563091062588,7.617406357871295
sh600455,2014-03-05,14.76,16.34,14.7,15.78,0.052702,6424699.0,99854630.0,784546380.0,985587240.0,0.12922339941202712,17.83,2013-09-30 00:00:00,2013-10-30 00:00:00,64.45276957300844,3.612729146742915,32.226121534534215,7.740031679773955
sh600455,2014-03-04,14.0,15.51,13.91,14.99,0.059364,5351245.0,79577336.0,745269340.0,936245420.0,0.10763244674737324,16.94,2013-09-30 00:00:00,2013-10-30 00:00:00,61.226035072611666,3.431863097764529,30.612767463664184,7.352538210978942
sh600455,2014-03-03,14.7,14.7,13.71,14.15,0.059132000000000004,6205528.0,88536594.0,703506420.0,883780700.0,0.12481509578832273,15.99,2013-09-30 00:00:00,2013-10-30 00:00:00,57.795087498359074,3.2395504262600285,28.897307689957543,6.94052111547961
sh600455,2014-01-16,13.35,13.57,13.33,13.36,-0.004471,562449.0,7557922.0,664229380.0,834438880.0,0.011312836899807112,15.1,2013-09-30 00:00:00,2013-10-30 00:00:00,54.56835172420349,3.058684305884469,27.283952982213314,6.553027493720907
sh600455,2014-01-15,13.3,13.5,13.21,13.42,0.007508,841995.0,11271577.0,667212450.0,838186360.0,0.016935494683889666,15.16,2013-09-30 00:00:00,2013-10-30 00:00:00,54.81342253636357,3.0724211006253648,27.40648738732203,6.582457661927385
sh600455,2014-01-14,12.7,13.39,12.7,13.32,0.044706,1012635.0,13375996.0,662240670.0,831940560.0,0.020367668146989523,15.05,2013-09-30 00:00:00,2013-10-30 00:00:00,54.40495017048357,3.0495252649362237,27.202252872753395,6.533404858251631
sh600455,2014-01-13,12.74,12.89,12.64,12.75,0.009501,525120.0,6697045.0,633901540.0,796339500.0,0.010562018827087878,14.41,2013-09-30 00:00:00,2013-10-30 00:00:00,52.07680454643084,2.9190272334381384,26.038189569843954,6.253821513661864
sh600455,2014-01-10,13.1,13.1,12.51,12.63,-0.035141000000000006,1013951.0,12913444.0,627935410.0,788844540.0,0.020394137559466508,14.27,2013-09-30 00:00:00,2013-10-30 00:00:00,51.58667950445898,2.891554573435924,25.79312905073294,6.194963168597024
sh600455,2014-01-09,13.3,13.4,13.02,13.09,-0.018005,850998.0,11296955.0,650805580.0,817575220.0,0.017116576996773752,14.79,2013-09-30 00:00:00,2013-10-30 00:00:00,53.46551102747549,2.9968674940441287,26.732537138310303,6.420589089801747
sh600455,2014-01-08,13.3,13.43,13.21,13.33,0.0037649999999999997,804584.0,10703662.0,662737850.0,832565140.0,0.016183027301066327,15.06,2013-09-30 00:00:00,2013-10-30 00:00:00,54.44580779685793,3.0518154308770704,27.222681519061,6.538311386312301
sh600455,2014-01-07,13.42,13.48,13.18,13.28,-0.008955,1121772.0,14906773.0,660251960.0,829442240.0,0.022562798844247275,15.01,2013-09-30 00:00:00,2013-10-30 00:00:00,54.24158821722009,3.04036844368659,27.120572563359946,6.513786978338854
sh600455,2014-01-06,14.1,14.1,13.38,13.4,-0.050992,1066977.0,14503742.0,666218090.0,836937200.0,0.021460677838994136,15.14,2013-09-30 00:00:00,2013-10-30 00:00:00,54.73171068641695,3.067840959478722,27.365631796093968,6.572645014443193
sh600455,2014-01-03,14.33,14.4,14.08,14.12,-0.018763,745875.0,10579546.0,702014880.0,881906960.0,0.015002182005031004,15.96,2013-09-30 00:00:00,2013-10-30 00:00:00,57.67254932141453,3.232681873576116,28.83603910198225,6.925805698627613
sh600455,2014-01-02,14.23,14.43,14.12,14.39,0.011244,793043.0,11358900.0,715438680.0,898770620.0,0.015950897105535305,16.26,2013-09-30 00:00:00,2013-10-30 00:00:00,58.775351236668136,3.2944965116237115,29.387435555306467,7.058239445340538
sh600455,2013-12-31,14.2,14.32,13.99,14.23,0.004944,815940.0,11588745.0,707483840.0,888777340.0,0.016411436620234324,16.08,2013-09-30 00:00:00,2013-10-30 00:00:00,58.12182938704025,3.257865076701282,29.060677299748097,6.979759034753766
sh600455,2013-12-30,14.25,14.39,14.1,14.16,0.0007070000000000001,776923.0,11031575.0,704003590.0,884405280.0,0.015626667017422453,16.0,2013-09-30 00:00:00,2013-10-30 00:00:00,57.83588875304518,3.241837432435321,28.917708150651272,6.9454208739529415
sh600455,2013-12-27,13.8,14.15,13.68,14.15,0.03059,783074.0,10960961.0,703506420.0,883780700.0,0.01575038519193613,15.99,2013-09-30 00:00:00,2013-10-30 00:00:00,57.79502766848358,3.239547072654955,28.897277775264165,6.940513930604006
sh600455,2013-12-26,14.23,14.23,13.7,13.73,-0.028308999999999997,632514.0,8845933.0,682624950.0,857548340.0,0.012722091713758777,15.51,2013-09-30 00:00:00,2013-10-30 00:00:00,56.07955410831036,3.1433907496239577,28.03954800188646,6.734505410108778
sh600455,2013-12-25,13.72,14.19,13.7,14.13,0.026889999999999997,1060567.0,14867900.0,702512060.0,882531540.0,0.0213317501054715,15.97,2013-09-30 00:00:00,2013-10-30 00:00:00,57.71336166364653,3.2349695012344024,28.85644510640364,6.9307067885868845
sh600455,2013-12-24,13.54,13.87,13.52,13.76,0.017751,521060.0,7148311.0,684116490.0,859422080.0,0.010480357811576798,15.55,2013-09-30 00:00:00,2013-10-30 00:00:00,56.202087529965745,3.1502590357627422,28.100814212236596,6.749220255905582
sh600455,2013-12-23,13.76,13.88,13.0,13.52,-0.026638,786721.0,10687322.0,672184220.0,844432160.0,0.015823739390966363,15.28,2013-09-30 00:00:00,2013-10-30 00:00:00,55.22184456705593,3.095314114908992,27.61069673450244,6.63150442092966
sh600455,2013-12-20,14.05,14.24,13.76,13.89,-0.007857,816281.0,11461444.0,690579800.0,867541620.0,0.016418295307797884,15.7,2013-09-30 00:00:00,2013-10-30 00:00:00,56.73310090907179,3.1800235831160375,28.36631873290969,6.812988817037915
sh600455,2013-12-19,14.15,14.15,13.88,14.0,0.0,1066660.0,14937676.0,696048750.0,874412000.0,0.02145430187181573,15.82,2013-09-30 00:00:00,2013-10-30 00:00:00,57.18238289144992,3.205206893679679,28.59095788904391,6.866942383343849
sh600455,2013-12-18,13.86,14.08,13.5,14.0,0.007918999999999999,807643.0,11284211.0,696048750.0,874412000.0,0.01624455470970963,15.82,2013-09-30 00:00:00,2013-10-30 00:00:00,57.18238289144992,3.205206893679679,28.59095788904391,6.866942383343849
sh600455,2013-12-17,14.27,14.27,13.85,13.89,-0.023893,1326148.0,18573706.0,690579800.0,867541620.0,0.026673522335869077,15.7,2013-09-30 00:00:00,2013-10-30 00:00:00,56.73311336669903,3.1800242813953092,28.366324961672426,6.812990313054768
sh600455,2013-12-16,14.54,14.65,14.08,14.23,-0.02132,1105026.0,15802561.0,707483840.0,888777340.0,0.022225977599714505,16.08,2013-09-30 00:00:00,2013-10-30 00:00:00,58.12181796329606,3.2578644363735836,29.060671587922663,6.979757662894302
sh600455,2013-12-13,14.34,14.66,14.22,14.54,0.01183,1188021.0,17218435.0,722896350.0,908139320.0,0.023895300259850528,16.43,2013-09-30 00:00:00,2013-10-30 00:00:00,59.387969472448674,3.328835202899399,29.693742171008566,7.13180780530337
sh600455,2013-12-12,14.3,14.52,14.27,14.37,0.001394,1478050.0,21313093.0,714444330.0,897521460.0,0.029728808261379858,16.24,2013-09-30 00:00:00,2013-10-30 00:00:00,58.69362390169166,3.2899155025047677,29.346572221626722,7.048424938283477
sh600455,2013-12-11,14.5,14.5,14.0,14.35,-0.008293,1728726.0,24653953.0,713449970.0,896272300.0,0.034770788623062106,16.22,2013-09-30 00:00:00,2013-10-30 00:00:00,58.611918886763505,3.2853357444769666,29.305720047879976,7.038613111605898
sh600455,2013-12-10,14.96,15.08,14.43,14.47,-0.034045,2143158.0,31443972.0,719416100.0,903767260.0,0.043106480741812704,16.35,2013-09-30 00:00:00,2013-10-30 00:00:00,59.10205220570543,3.3128088684227968,29.55078470544221,7.097472450639048
sh600455,2013-12-09,14.96,15.28,14.86,14.98,0.005369,1315014.0,19691240.0,744772160.0,935620840.0,0.02644957851270918,16.93,2013-09-30 00:00:00,2013-10-30 00:00:00,61.18509889767684,3.4295685289923417,30.592299543397168,7.3476222501452435
sh600455,2013-12-06,14.97,15.4,14.87,14.9,-0.004676,1511584.0,22865735.0,740794740.0,930624200.0,0.030403295790140197,16.84,2013-09-30 00:00:00,2013-10-30 00:00:00,60.85835041430246,3.4112535089030414,30.428926636286945,7.3083835389247565
sh600455,2013-12-05,14.96,15.38,14.82,14.97,-0.013834,2032834.0,30751215.0,744274990.0,934996260.0,0.04088747491031507,16.92,2013-09-30 00:00:00,2013-10-30 00:00:00,61.14426097863856,3.427279467693978,30.571880750677114,7.342718088707553
sh600455,2013-12-04,14.93,15.57,14.54,15.18,0.005298,3038484.0,46134530.0,754715720.0,948112440.0,0.06111465005658024,17.15,2013-09-30 00:00:00,2013-10-30 00:00:00,62.00199659959739,3.4753575642376417,31.00074505780681,7.445722209757336
sh600455,2013-12-03,14.95,15.22,14.35,15.1,-0.007884,2910065.0,43138126.0,750738300.0,943115800.0,0.05853169007096081,17.06,2013-09-30 00:00:00,2013-10-30 00:00:00,61.67524117186883,3.457042154900976,30.83736867854786,7.406482664600283
sh600455,2013-12-02,15.71,15.86,14.86,15.22,-0.07813400000000001,4566013.0,69849528.0,756704430.0,950610760.0,0.09183865602584089,17.2,2013-09-30 00:00:00,2013-10-30 00:00:00,62.16535281345007,3.4845140637798164,31.082422497518298,7.465339400433299
sh600455,2013-11-29,15.96,17.1,15.87,16.51,0.021027,7057747.0,117282957.0,820840350.0,1031181580.0,0.1419562317690645,18.66,2013-09-30 00:00:00,2013-10-30 00:00:00,67.43426139314181,3.779848767369462,33.71685526694584,8.0980743409924
sh600455,2013-11-28,16.42,16.83,16.03,16.17,0.029936,7349780.0,119909277.0,803936310.0,1009945860.0,0.1478300471339577,18.27,2013-09-30 00:00:00,2013-10-30 00:00:00,66.04552219788685,3.7020066730551324,33.02249134150796,7.931302836254478
sh600455,2013-11-27,14.31,15.7,14.27,15.7,0.10021000000000001,5257510.0,80143815.0,780568960.0,980590600.0,0.10574710400987505,17.74,2013-09-30 00:00:00,2013-10-30 00:00:00,64.12585073042098,3.5944045776195144,32.06266344851327,7.700772510383634
sh600455,2013-11-26,14.03,14.31,13.93,14.27,0.017106,1124281.0,15928693.0,709472550.0,891275660.0,0.022613263712598888,16.13,2013-09-30 00:00:00,2013-10-30 00:00:00,58.28510078114267,3.2670168218971964,29.142312329930895,6.999366039559387
sh600455,2013-11-25,14.0,14.19,13.89,14.03,0.002143,596496.0,8397158.0,697540290.0,876285740.0,0.011997642286727265,15.85,2013-09-30 00:00:00,2013-10-30 00:00:00,57.30484411766587,3.212071133094482,28.652188001969204,6.881648559303933
sh600455,2013-11-22,13.93,14.13,13.92,14.0,-0.0014269999999999999,669002.0,9387888.0,696048750.0,874412000.0,0.013455994282009701,15.82,2013-09-30 00:00:00,2013-10-30 00:00:00,57.182302443529395,3.2052023843847457,28.59091766541223,6.86693272247966
sh600455,2013-11-21,14.04,14.05,13.81,14.02,-0.004261,900274.0,12540334.0,697043110.0,875661160.0,0.018107691330597902,15.84,2013-09-30 00:00:00,2013-10-30 00:00:00,57.26401819749722,3.2097827443609486,28.631775208634952,6.876745838791615
sh600455,2013-11-20,14.2,14.2,13.97,14.08,-0.007751999999999999,886094.0,12459166.0,700026170.0,879408640.0,0.01782248157951009,15.91,2013-09-30 00:00:00,2013-10-30 00:00:00,57.509064320567155,3.2235181552203427,28.754297269299435,6.906173042124107
sh600455,2013-11-19,13.91,14.28,13.81,14.19,0.020128999999999998,1606822.0,22548769.0,705495130.0,886279020.0,0.03231886828191145,16.03,2013-09-30 00:00:00,2013-10-30 00:00:00,57.958357507968934,3.2487020938518825,28.978942027899716,6.960127954023698
sh600455,2013-11-18,13.87,13.98,13.73,13.91,0.010901000000000001,927375.0,12888538.0,691574150.0,868790780.0,0.018652788352485416,15.72,2013-09-30 00:00:00,2013-10-30 00:00:00,56.81473373266414,3.184599294649875,28.40713481128339,6.822791974371573
sh600455,2013-11-15,13.5,13.89,13.45,13.76,0.019259000000000002,823481.0,11301426.0,684116490.0,859422080.0,0.01656311275291727,15.55,2013-09-30 00:00:00,2013-10-30 00:00:00,56.20207491402632,3.1502583286097,28.10080790431841,6.749218740877268
sh600455,2013-11-14,13.2,13.57,13.17,13.5,0.024279,603488.0,8075483.0,671189870.0,843183000.0,0.012138276163196562,15.25,2013-09-30 00:00:00,2013-10-30 00:00:00,55.14013112862024,3.090733884723805,27.569840349036326,6.621691582686314
sh600455,2013-11-13,13.52,13.54,13.11,13.18,-0.030882,584658.0,7816266.0,655280180.0,823196440.0,0.011759538400810475,14.89,2013-09-30 00:00:00,2013-10-30 00:00:00,53.833116883798496,3.0174726658691675,26.916338565016297,6.464734298649406
sh600455,2013-11-12,13.43,13.66,13.42,13.6,0.0074069999999999995,495599.0,6713723.0,676161640.0,849428800.0,0.009968247237450501,15.37,2013-09-30 00:00:00,2013-10-30 00:00:00,55.54856775315131,3.113627717026376,27.774056993076485,6.670740094239716
sh600455,2013-11-11,13.4,13.57,13.35,13.5,0.0,557994.0,7512425.0,671189870.0,843183000.0,0.011223231065748952,15.25,2013-09-30 00:00:00,2013-10-30 00:00:00,55.140144701348426,3.090734645507105,27.569847135344983,6.621693212613885
sh600455,2013-11-08,13.78,13.78,13.4,13.5,-0.023861,617212.0,8378665.0,671189870.0,843183000.0,0.012414314298277475,15.25,2013-09-30 00:00:00,2013-10-30 00:00:00,55.140144701348426,3.090734645507105,27.569847135344983,6.621693212613885
sh600455,2013-11-07,13.6,14.0,13.56,13.83,0.020664,1644324.0,22842083.0,687596730.0,863794140.0,0.03307316618565071,15.63,2013-09-30 00:00:00,2013-10-30 00:00:00,56.48800498837607,3.166285380982734,28.243771773635707,6.783555633586903
sh600455,2013-11-06,13.6,13.68,13.46,13.55,-0.000737,759173.0,10296600.0,673675760.0,846305900.0,0.015269651605098572,15.31,2013-09-30 00:00:00,2013-10-30 00:00:00,55.34436894842579,3.1021818943185355,27.671958424746737,6.6462181810928
sh600455,2013-11-05,13.32,13.6,13.23,13.56,0.014211000000000001,578688.0,7775443.0,674172930.0,846930480.0,0.011639460635122207,15.32,2013-09-30 00:00:00,2013-10-30 00:00:00,55.38518783185787,3.1044698886264532,27.692367699741446,6.651120056574496
sh600455,2013-11-04,13.33,13.44,13.22,13.37,0.00602,683532.0,9114607.0,664726560.0,835063460.0,0.013748243849320538,15.11,2013-09-30 00:00:00,2013-10-30 00:00:00,54.60913738054298,3.06097043773579,27.304345643797443,6.557925379013338
sh600455,2013-11-01,13.13,13.39,13.03,13.29,0.012186,565114.0,7477465.0,660749140.0,830066820.0,0.011366439402403157,15.02,2013-09-30 00:00:00,2013-10-30 00:00:00,54.28235758786404,3.0426536626864182,27.140957082162824,6.518682907907733
sh600455,2013-10-31,13.14,13.27,13.04,13.13,-0.012039,541698.0,7117098.0,652794290.0,820073540.0,0.010895461018814978,14.84,2013-09-30 00:00:00,2013-10-30 00:00:00,53.62883658523634,3.0060222752403387,26.81419925010109,6.4402025990358815
sh600455,2013-10-30,13.1,13.29,12.9,13.29,0.034241,758133.0,9906430.0,660749140.0,830066820.0,0.015248733535998246,15.02,2013-09-30 00:00:00,2013-10-30 00:00:00,54.282341696925634,3.0426527719619894,27.140949136758525,6.518680999589945
sh600455,2013-10-29,13.43,13.6,12.5,12.85,-0.043187,931149.0,12072571.0,638873320.0,802585300.0,0.018728696715649355,14.52,2013-06-30 00:00:00,2013-08-23 00:00:00,54.62682020458846,2.355939733000168,17.66310036833578,6.728433717404084
sh600455,2013-10-28,13.55,13.62,13.3,13.43,-0.006657,604199.0,8139117.0,667709620.0,838810940.0,0.01215257699896551,15.18,2013-06-30 00:00:00,2013-08-23 00:00:00,57.09247282863888,2.4622781389886716,18.460347391115903,7.032130329964249
sh600455,2013-10-25,13.78,13.88,13.41,13.52,-0.023121,745572.0,10165269.0,672184220.0,844432160.0,0.014996087590393002,15.28,2013-06-30 00:00:00,2013-08-23 00:00:00,57.475084465928575,2.478779373276574,18.58406148844448,7.079256943436707
sh600455,2013-10-24,13.78,13.99,13.71,13.84,0.005814,705183.0,9773046.0,688093910.0,864418720.0,0.014183721986436415,15.64,2013-06-30 00:00:00,2013-08-23 00:00:00,58.83541816942382,2.537447701584919,19.02391338993312,7.246810447800298
sh600455,2013-10-23,14.09,14.12,13.7,13.76,-0.022033,1183007.0,16463065.0,684116490.0,859422080.0,0.023794451029823884,15.55,2013-06-30 00:00:00,2013-08-23 00:00:00,58.495326342071024,2.522780257169734,18.91394769801685,7.204921036891809
sh600455,2013-10-22,14.47,14.5,14.05,14.07,-0.022917,1018699.0,14550295.0,699529000.0,878784060.0,0.020489636498272408,15.9,2013-06-30 00:00:00,2013-08-23 00:00:00,59.8131903653917,2.579616957596457,19.340067403109565,7.367243513218554
sh600455,2013-10-21,14.31,14.6,14.2,14.4,0.013371000000000001,1371696.0,19767337.0,715935860.0,899395200.0,0.027589653631821153,16.27,2013-06-30 00:00:00,2013-08-23 00:00:00,61.21607925364753,2.64012060141918,19.79367914814766,7.540038577294409
sh600455,2013-10-18,13.96,14.24,13.7,14.21,0.018638,722167.0,10146290.0,706489480.0,887528180.0,0.014525330327636303,16.06,2013-06-30 00:00:00,2013-08-23 00:00:00,60.40835908433095,2.60528533125497,19.532509957505855,7.440550970270917
sh600455,2013-10-17,14.16,14.34,13.9,13.95,-0.011339,910516.0,12911507.0,693562860.0,871289100.0,0.018313694305949427,15.76,2013-06-30 00:00:00,2013-08-23 00:00:00,59.30306849374454,2.557616475386712,19.175123996459835,7.30441135150163
sh600455,2013-10-16,14.65,14.65,13.95,14.11,-0.045332,1401883.0,20045812.0,701517710.0,881282380.0,0.028196820761659747,15.94,2013-06-30 00:00:00,2013-08-23 00:00:00,59.98321820497071,2.5869499003062857,19.39504440496777,7.388185992470252
sh600455,2013-10-15,14.48,14.8,14.3,14.78,0.021424000000000002,1858538.0,27066389.0,734828610.0,923129240.0,0.03738176666801256,16.7,2013-06-30 00:00:00,2013-08-23 00:00:00,62.8314955617772,2.7097901053625826,20.316009759379984,7.739010831483041
sh600455,2013-10-14,14.34,15.0,14.16,14.47,0.010475,2606570.0,38042266.0,719416100.0,903767260.0,0.05242733363904423,16.35,2013-06-30 00:00:00,2013-08-23 00:00:00,61.51362760398933,2.652953235250574,19.889888782112013,7.576687870544495
sh600455,2013-10-11,13.87,14.36,13.8,14.32,0.036930000000000004,1912712.0,26955355.0,711958440.0,894398560.0,0.03847139706637932,16.18,2013-06-30 00:00:00,2013-08-23 00:00:00,60.87595200671894,2.6254516294322707,19.68370200362405,7.49814480372547
sh600455,2013-10-10,14.36,14.36,13.77,13.81,-0.035615,1594665.0,22345288.0,686602380.0,862544980.0,0.03207434796541195,15.61,2013-06-30 00:00:00,2013-08-23 00:00:00,58.707870354526285,2.5319468328935133,18.98267192927589,7.231100270727504
sh600455,2013-10-09,13.98,14.34,13.76,14.32,0.026523,1670741.0,23415165.0,711958440.0,894398560.0,0.03360450522926591,16.18,2013-06-30 00:00:00,2013-08-23 00:00:00,60.87596795317875,2.6254523171695054,19.683707159771142,7.498146767865016
sh600455,2013-10-08,13.9,13.99,13.7,13.95,0.003597,1064798.0,14753469.0,693562860.0,871289100.0,0.021416850521667207,15.76,2013-06-30 00:00:00,2013-08-23 00:00:00,59.30307255967839,2.557616650741878,19.175125311143674,7.304411852306296
sh600455,2013-09-30,13.98,14.09,13.75,13.9,0.0,920332.0,12767762.0,691076980.0,868166200.0,0.01851112852869155,15.71,2013-06-30 00:00:00,2013-08-23 00:00:00,59.09052394504805,2.548449876535978,19.106399591811925,7.27823205161663
sh600455,2013-09-27,13.76,14.0,13.66,13.9,0.010909,1366252.0,18965414.0,691076980.0,868166200.0,0.02748015539455532,15.71,2013-06-30 00:00:00,2013-08-23 00:00:00,59.09052394504805,2.548449876535978,19.106399591811925,7.27823205161663
sh600455,2013-09-26,13.45,13.97,13.45,13.75,0.020787,1775917.0,24392703.0,683619310.0,858797500.0,0.035719966350862734,15.54,2013-06-30 00:00:00,2013-08-23 00:00:00,58.45286167701351,2.5209488455795506,18.900217123214777,7.199690626571363
sh600455,2013-09-25,13.46,13.55,13.41,13.47,-0.000742,694921.0,9363173.0,669698330.0,841309260.0,0.01397731702571216,15.22,2013-06-30 00:00:00,2013-08-23 00:00:00,57.2625451509605,2.469613000145526,18.515338776076476,7.053078288194661
sh600455,2013-09-24,13.61,13.64,13.38,13.48,-0.008094,762993.0,10314317.0,670195510.0,841933840.0,0.015346485445717177,15.23,2013-06-30 00:00:00,2013-08-23 00:00:00,57.3050655095686,2.4714468136812773,18.529087358896778,7.058315558338949
sh600455,2013-09-23,13.51,13.62,13.45,13.59,0.0074129999999999995,967502.0,13148450.0,675664470.0,848804220.0,0.019459883956899494,15.36,2013-06-30 00:00:00,2013-08-23 00:00:00,57.77267756175344,2.4916139368864365,18.680285590466013,7.115911748027484
sh600455,2013-09-18,13.41,13.55,13.37,13.49,0.0029739999999999996,328616.0,4425026.0,670692690.0,842558420.0,0.006609628979257252,15.24,2013-06-30 00:00:00,2013-08-23 00:00:00,57.34756009874147,2.473279515835548,18.54282760939755,7.063549654439128
sh600455,2013-09-17,13.88,13.88,13.42,13.45,-0.023239,581183.0,7918206.0,668703980.0,840060100.0,0.011689643824162672,15.2,2013-06-30 00:00:00,2013-08-23 00:00:00,57.17751417159514,2.465945793047026,18.487844759084034,7.0426049473257795
sh600455,2013-09-16,13.64,13.8,13.58,13.77,0.016236,734406.0,10059757.0,684613670.0,860046660.0,0.014771499698508796,15.56,2013-06-30 00:00:00,2013-08-23 00:00:00,58.537875868912806,2.5246153286699875,18.92770571212818,7.210161899713215
sh600455,2013-09-13,13.63,13.72,13.47,13.55,-0.012391,671602.0,9110941.0,673675760.0,846305900.0,0.013508289358667144,15.31,2013-06-30 00:00:00,2013-08-23 00:00:00,57.60263941536495,2.484280549665617,18.625305255991897,7.094967999276955
sh600455,2013-09-12,13.93,13.94,13.6,13.72,-0.015075,959440.0,13155710.0,682127780.0,856923760.0,0.019297728645503925,15.5,2013-06-30 00:00:00,2013-08-23 00:00:00,58.32534881250065,2.5154494842246446,18.858986963456083,7.183984754368334
sh600455,2013-09-11,13.58,14.1,13.51,13.93,0.025773,2063449.0,28607068.0,692568510.0,870039940.0,0.0415032508047471,15.74,2013-06-30 00:00:00,2013-08-23 00:00:00,59.218061083331875,2.553950284767515,19.14763760028031,7.293940913641479
sh600455,2013-09-10,13.54,13.62,13.45,13.58,-0.001471,930871.0,12585221.0,675167290.0,848179640.0,0.018723105172941658,15.35,2013-06-30 00:00:00,2013-08-23 00:00:00,57.73018112519228,2.4897811550581994,18.66654474262854,7.1106774243828585
sh600455,2013-09-09,13.55,13.74,13.48,13.6,0.016442,1145333.0,15572402.0,676161640.0,849428800.0,0.023036694007072037,15.37,2013-06-30 00:00:00,2013-08-23 00:00:00,57.81522732458675,2.493449018564508,18.69404368088312,7.1211526399161755
sh600455,2013-09-06,13.3,13.42,13.17,13.38,0.00905,717119.0,9535550.0,665223740.0,835688040.0,0.0144237970521016,15.12,2013-06-30 00:00:00,2013-08-23 00:00:00,56.880006261632985,2.453114903324054,18.39164820115965,7.00596063515299
sh600455,2013-09-05,13.24,13.39,13.13,13.26,0.005307,786771.0,10440620.0,659257600.0,828193080.0,0.015824745076886484,14.98,2013-06-30 00:00:00,2013-08-23 00:00:00,56.36985903734501,2.4311133277082937,18.22669659695719,6.943125350728893
sh600455,2013-09-04,13.38,13.44,13.05,13.19,-0.00976,931327.0,12302856.0,655777360.0,823821020.0,0.018732276957533267,14.9,2013-06-30 00:00:00,2013-08-23 00:00:00,56.07228342918632,2.4182795183046513,18.130478149418227,6.906472700109413
sh600455,2013-09-03,13.28,13.39,13.13,13.32,0.0060420000000000005,808424.0,10738464.0,662240670.0,831940560.0,0.016260263326926146,15.05,2013-06-30 00:00:00,2013-08-23 00:00:00,56.624942871613264,2.44211455637487,18.30917570429212,6.974544252009021
sh600455,2013-09-02,13.58,13.58,13.0,13.24,-0.019259000000000002,1626864.0,21461918.0,658263250.0,826943920.0,0.032721983735230546,14.96,2013-06-30 00:00:00,2013-08-23 00:00:00,56.28486968895261,2.427447916065999,18.199216040972562,6.93265713758374
sh600455,2013-08-30,13.81,13.81,13.45,13.5,-0.013878999999999999,1234676.0,16826482.0,671189870.0,843183000.0,0.024833697207021315,15.25,2013-06-30 00:00:00,2013-08-23 00:00:00,57.390146520796634,2.4751161785486677,18.556597553250615,7.0687950616765685
sh600455,2013-08-29,13.7,13.89,13.42,13.69,-0.004364,1312924.0,17989798.0,680636240.0,855050020.0,0.026407541214672908,15.47,2013-06-30 00:00:00,2013-08-23 00:00:00,58.197874825499746,2.509951799574969,18.817769374397884,7.168283670742809
sh600455,2013-08-28,13.9,13.99,13.66,13.75,-0.019957,1781565.0,24647884.0,683619310.0,858797500.0,0.03583356758895532,15.54,2013-06-30 00:00:00,2013-08-23 00:00:00,58.4529635584689,2.5209532395122,18.90025006568453,7.199703175400256
sh600455,2013-08-27,14.03,14.1,13.9,14.03,0.0,1169884.0,16390882.0,697540290.0,876285740.0,0.023530501041022302,15.85,2013-06-30 00:00:00,2013-08-23 00:00:00,59.64326418174397,2.572288399092897,19.285123270799883,7.346313555017744
sh600455,2013-08-26,13.98,14.07,13.77,14.03,0.011536,1236865.0,17326085.0,697540290.0,876285740.0,0.02487772562929662,15.85,2013-06-30 00:00:00,2013-08-23 00:00:00,59.64326418174397,2.572288399092897,19.285123270799883,7.346313555017744
sh600455,2013-08-23,13.95,14.14,13.54,13.87,-0.0050219999999999996,1408562.0,19440540.0,689585440.0,866292460.0,0.028331159283177438,15.67,2013-06-30 00:00:00,2013-08-23 00:00:00,58.963066249489856,2.542952894501923,19.065187270447996,7.262532974622499
sh600455,2013-08-22,14.04,14.18,13.8,13.94,-0.008535,1442050.0,20169036.0,693065690.0,870664520.0,0.029004721038780608,15.75,2013-03-31 00:00:00,2013-04-27 00:00:00,60.17535253118832,2.770852263179607,20.091030250408625,7.445063477211466
sh600455,2013-08-21,13.75,14.15,13.6,14.06,0.02106,2213857.0,30961685.0,699031820.0,878159480.0,0.04452848715813824,15.89,2013-03-31 00:00:00,2013-04-27 00:00:00,60.69337044796166,2.794705070960253,20.263983348286246,7.509154107519141
sh600455,2013-08-20,13.3,13.78,13.27,13.77,0.026080000000000002,1705823.0,23094435.0,684613670.0,860046660.0,0.034310128090197206,15.56,2013-03-31 00:00:00,2013-04-27 00:00:00,59.44153178849595,2.7370625339943326,19.846026039886244,7.354273115702449
sh600455,2013-08-19,13.02,13.42,12.93,13.42,0.018983,1448128.0,19188073.0,667212450.0,838186360.0,0.029126971116920856,15.16,2013-03-31 00:00:00,2013-04-27 00:00:00,57.930699154545394,2.6674942830913104,19.34159718529378,7.167348662582301
sh600455,2013-08-16,13.8,13.88,13.0,13.17,-0.052517999999999995,1990949.0,26937086.0,654783000.0,822571860.0,0.040045019998992036,14.88,2013-03-31 00:00:00,2013-04-27 00:00:00,56.85148736980439,2.6178005747802566,18.98127563000931,7.033825552126286
sh600455,2013-08-15,14.0,14.15,13.85,13.9,-0.015581,2001398.0,27990302.0,691076980.0,868166200.0,0.04025518575369129,15.71,2013-03-31 00:00:00,2013-04-27 00:00:00,60.00270967660008,2.7629026987111702,20.033389162020292,7.423703618777229
sh600455,2013-08-14,13.86,14.25,13.72,14.12,0.018759,3188270.0,44610007.0,702014880.0,881906960.0,0.06412737633139629,15.96,2013-03-31 00:00:00,2013-04-27 00:00:00,60.95240916378095,2.8066328450702094,20.35046983248017,7.541203104346046
sh600455,2013-08-13,13.85,13.92,13.67,13.86,0.0,1975493.0,27197204.0,689088260.0,865667880.0,0.03973414520224158,15.66,2013-03-31 00:00:00,2013-04-27 00:00:00,59.830057122225135,2.7549526876034562,19.97574483511819,7.402342560258163
sh600455,2013-08-12,13.74,13.9,13.53,13.86,0.013158000000000001,2299624.0,31542851.0,689088260.0,865667880.0,0.04625356502228031,15.66,2013-03-31 00:00:00,2013-04-27 00:00:00,59.830057122225135,2.7549526876034562,19.97574483511819,7.402342560258163
sh600455,2013-08-09,13.81,13.97,13.45,13.68,-0.012987,2367308.0,32415196.0,680139070.0,854425440.0,0.04761492887035588,15.46,2013-03-31 00:00:00,2013-04-27 00:00:00,59.05303725798457,2.71917379875938,19.716317529070672,7.30620748220728
sh600455,2013-08-08,14.11,14.11,13.63,13.86,-0.017718,2899926.0,40084354.0,689088260.0,865667880.0,0.0583277595819148,15.66,2013-03-31 00:00:00,2013-04-27 00:00:00,59.83005011887844,2.7549523651252614,19.975742496877622,7.402341693784458
sh600455,2013-08-07,14.32,14.75,13.9,14.11,-0.027567,3574895.0,50608679.0,701517710.0,881282380.0,0.07190377054058977,15.94,2013-03-31 00:00:00,2013-04-27 00:00:00,60.90924003379726,2.8046450664119487,20.33605675038087,7.535862098444701
sh600455,2013-08-06,13.87,15.5,13.77,14.51,0.029807999999999998,6515650.0,94358034.0,721404810.0,906265580.0,0.13105274623827362,16.4,2013-03-31 00:00:00,2013-04-27 00:00:00,62.635924566316916,2.8841524983335085,20.91255310173644,7.749492354172165
sh600455,2013-08-05,14.3,14.4,13.71,14.09,-0.039536,7763204.0,109026628.0,700523350.0,880033220.0,0.15614546518684924,15.92,2013-03-31 00:00:00,2013-04-27 00:00:00,60.82291511263935,2.800670123298234,20.307235039673838,7.525181736956951
sh600455,2013-08-02,14.67,14.67,14.67,14.67,0.0997,839339.0,12313103.0,729359660.0,916258860.0,0.01688207314618963,16.58,2013-03-31 00:00:00,2013-04-27 00:00:00,63.326595387895175,2.915955333357871,21.14315064351588,7.834944086355086
sh600455,2013-08-01,13.34,13.34,13.34,13.34,0.099753,324225.0,4325162.0,663235030.0,833189720.0,0.006521310401834474,15.07,2013-03-31 00:00:00,2013-04-27 00:00:00,57.585337262794575,2.6515916462288547,19.22628957307983,7.12461952019195
sh600455,2013-05-14,12.02,12.16,11.91,12.13,0.004971,795836.0,9576599.0,603076530.0,757615540.0,0.01600707406073322,13.71,2013-03-31 00:00:00,2013-04-27 00:00:00,52.36206426606208,2.4110792570957793,17.482370653301082,6.478381527662984
sh600455,2013-05-13,12.04,12.12,11.94,12.07,0.0024920000000000003,739049.0,8916538.0,600093460.0,753868060.0,0.014864886929445958,13.64,2013-03-31 00:00:00,2013-04-27 00:00:00,52.10305995502564,2.3991530671987342,17.39589565599513,6.446336787492359
sh600455,2013-05-10,11.77,12.12,11.75,12.04,0.015177000000000001,900130.0,10736571.0,598601930.0,751994320.0,0.018104794951128874,13.61,2013-03-31 00:00:00,2013-04-27 00:00:00,51.97354188863916,2.3931892396136174,17.35265284510513,6.430312448869777
sh600455,2013-05-09,12.0,12.03,11.81,11.86,-0.01495,777410.0,9246923.0,589652730.0,740751880.0,0.015636462159685074,13.4,2013-03-31 00:00:00,2013-04-27 00:00:00,51.19653212064414,2.3574108156642803,17.093228909938986,6.334178619954723
sh600455,2013-05-08,11.8,12.14,11.8,12.04,0.016891999999999997,586611.0,7050755.0,598601930.0,751994320.0,0.011798820027192361,13.61,2013-03-31 00:00:00,2013-04-27 00:00:00,51.973536491187396,2.3931889910809407,17.35265104303232,6.430311781081898
sh600455,2013-05-07,11.85,11.87,11.73,11.84,-0.002527,578931.0,6834564.0,588658370.0,739502720.0,0.011644348215077618,13.38,2013-03-31 00:00:00,2013-04-27 00:00:00,51.11018327530102,2.353434770930385,17.064399211550807,6.323495298499643
sh600455,2013-05-06,11.7,11.97,11.62,11.87,0.021515,730672.0,8604854.0,590149910.0,741376460.0,0.014696395768322662,13.41,2013-03-31 00:00:00,2013-04-27 00:00:00,51.23966591105827,2.359396967066161,17.107630193048642,6.339515253545352
sh600455,2013-05-03,11.5,11.68,11.45,11.62,0.015734,440774.0,5112537.0,577720460.0,725761960.0,0.0088655227478009,13.13,2013-03-31 00:00:00,2013-04-27 00:00:00,50.16046353803739,2.3097036921299847,16.747311780099793,6.205993307533763
sh600455,2013-05-02,11.4,11.57,11.26,11.44,0.002629,768400.0,8749689.0,568771270.0,714519520.0,0.015455239150880458,12.93,2013-03-31 00:00:00,2013-04-27 00:00:00,49.383464113672865,2.273925744466548,16.487891298410602,6.109860758361701
sh600455,2013-04-26,11.52,11.7,11.4,11.41,-0.009549,692839.0,7993344.0,567279730.0,712645780.0,0.013935440615866884,12.89,2012-12-31 00:00:00,2013-03-23 00:00:00,43.7643598075973,2.280357595607381,11.443935459385923,6.223379493073505
sh600455,2013-04-25,11.7,11.85,11.51,11.52,-0.019574,745593.0,8718379.0,572748690.0,719516160.0,0.014996509830515717,13.02,2012-12-31 00:00:00,2013-03-23 00:00:00,44.18629473603167,2.3023426657223642,11.554267156462988,6.283379483763968
sh600455,2013-04-24,11.56,11.8,11.5,11.75,0.019965,695484.0,8099902.0,584183770.0,733881500.0,0.013988640937422823,13.28,2012-12-31 00:00:00,2013-03-23 00:00:00,45.06846486734508,2.34830845542893,11.784945683267262,6.4088258407712235
sh600455,2013-04-23,12.08,12.2,11.48,11.52,-0.046357999999999996,1179538.0,13961692.0,572748690.0,719516160.0,0.023724677152906274,13.02,2012-12-31 00:00:00,2013-03-23 00:00:00,44.18628567386634,2.3023421935350035,11.554264786798822,6.283378195105933
sh600455,2013-04-22,12.1,12.23,12.01,12.08,-0.010647,770223.0,9323751.0,600590640.0,754492640.0,0.015491906167568646,13.65,2012-12-31 00:00:00,2013-03-23 00:00:00,46.334248778751714,2.4142625781320493,12.1159353161866,6.588822844532784
sh600455,2013-04-19,12.12,12.28,11.96,12.21,0.007426,881112.0,10708484.0,607053950.0,762612180.0,0.0177222757878439,13.8,2012-12-31 00:00:00,2013-03-23 00:00:00,46.832878435453985,2.440243854450382,12.246321905514614,6.659728978971898
sh600455,2013-04-18,11.9,12.27,11.8,12.12,0.008319,1129325.0,13694449.0,602579350.0,756990960.0,0.02271471632740153,13.7,2012-12-31 00:00:00,2013-03-23 00:00:00,46.48766106438983,2.422256180057277,12.156051070266814,6.610638378374092
sh600455,2013-04-17,12.08,12.2,11.9,12.02,-0.009885,400532.0,4807759.0,597607570.0,750745160.0,0.008056113880886749,13.58,2012-12-31 00:00:00,2013-03-23 00:00:00,46.104120882766104,2.402271681935258,12.055759209403785,6.556098197469345
sh600455,2013-04-16,11.85,12.19,11.21,12.14,0.01251,735004.0,8768670.0,603573700.0,758240120.0,0.01478352777796647,13.72,2012-12-31 00:00:00,2013-03-23 00:00:00,46.56441007637103,2.4262552147328926,12.176120157157285,6.6215522413753405
sh600455,2013-04-15,11.79,12.47,11.76,11.99,0.018692,767864.0,9244488.0,596116040.0,748871420.0,0.015444458364180236,13.55,2012-12-31 00:00:00,2013-03-23 00:00:00,45.98908660296791,2.3962777797087362,12.025678913943848,6.539740092814235
sh600455,2013-04-12,11.8,11.95,11.75,11.77,-0.006751000000000001,533376.0,6311234.0,585178130.0,735130660.0,0.010728076115899958,13.3,2012-12-31 00:00:00,2013-03-23 00:00:00,45.14523192777396,2.3523084305253565,11.805019489643435,6.419742270297828
sh600455,2013-04-11,11.95,11.99,11.78,11.85,-0.000843,428502.0,5085789.0,589155550.0,740127300.0,0.008618689410631878,13.39,2012-12-31 00:00:00,2013-03-23 00:00:00,45.45207891251233,2.36829680223726,11.885256858696494,6.463376525219585
sh600455,2013-04-10,11.98,12.1,11.77,11.86,-0.016584,652945.0,7767283.0,589652730.0,740751880.0,0.013133031199567243,13.4,2012-12-31 00:00:00,2013-03-23 00:00:00,45.49042734276228,2.37029496088929,11.89528458360047,6.468829748697738
sh600455,2013-04-09,11.78,12.23,11.74,12.06,0.022034,1287909.0,15456655.0,599596280.0,753243480.0,0.025904401108025554,13.63,2012-12-31 00:00:00,2013-03-23 00:00:00,46.2575627636344,2.4102668259305218,12.09588270233601,6.577917939811573
sh600455,2013-04-08,11.6,11.82,11.41,11.8,-0.003378,1582865.0,18253075.0,586669660.0,737004400.0,0.03183700858162667,13.33,2012-12-31 00:00:00,2013-03-23 00:00:00,45.26029737135398,2.358303956551858,11.835107934115703,6.436104806505041
sh600455,2013-04-03,12.66,12.74,11.6,11.84,-0.06477100000000001,2612226.0,31511418.0,588658370.0,739502720.0,0.052541095848174214,13.38,2012-12-31 00:00:00,2013-03-23 00:00:00,45.41370486639265,2.3662973088611907,11.875222435502831,6.457919659113526
sh600455,2013-04-02,12.86,12.99,12.55,12.66,-0.01171,1501371.0,19176502.0,629426940.0,790718280.0,0.030197876277745596,14.31,2012-12-31 00:00:00,2013-03-23 00:00:00,48.55891430483084,2.5301795697750933,12.69766274944728,6.905174731657728
sh600455,2013-04-01,12.62,12.99,12.59,12.81,0.015055,1120479.0,14288773.0,636884610.0,800086980.0,0.022536792010094262,14.48,2012-12-31 00:00:00,2013-03-23 00:00:00,49.134276684809976,2.560159032040285,12.848114166335066,6.986992412811754
sh600455,2013-03-29,12.99,13.18,12.6,12.62,-0.037376,1654037.0,21253485.0,627438230.0,788219960.0,0.033268528983323185,14.26,2012-12-31 00:00:00,2013-03-23 00:00:00,48.40553140944084,2.5221874992392386,12.657554680618356,6.883363377168483
sh600455,2013-03-28,13.7,13.97,13.1,13.11,-0.079354,2411017.0,32476870.0,651799940.0,818824380.0,0.04849407146309341,14.81,2012-12-31 00:00:00,2013-03-23 00:00:00,50.28498293148814,2.6201169919295992,13.14901215907598,7.150625142494351
sh600455,2013-03-22,14.21,14.35,13.99,14.24,0.002111,1542052.0,21858599.0,707981020.0,889401920.0,0.03101611464103939,16.09,2012-09-30 00:00:00,2012-10-23 00:00:00,29.80863111915912,2.8330038833714952,14.950382601901778,7.9379349882075445
sh600455,2013-03-21,13.79,14.3,13.73,14.21,0.025253,1625993.0,22944276.0,706489480.0,887528180.0,0.03270446508276387,16.06,2012-09-30 00:00:00,2012-10-23 00:00:00,29.745837655867586,2.8270360103536385,14.918888827586741,7.921213306916643
sh600455,2013-03-20,13.89,13.9,13.61,13.86,0.0,1053393.0,14527617.0,689088260.0,865667880.0,0.021187455696894328,15.66,2012-09-30 00:00:00,2012-10-23 00:00:00,29.013168121300385,2.7574033047000484,14.551421773539547,7.7261059532785
sh600455,2013-03-19,13.88,14.12,13.45,13.86,0.0028940000000000003,1291353.0,17796731.0,689088260.0,865667880.0,0.025973672196940346,15.66,2012-09-30 00:00:00,2012-10-23 00:00:00,29.013168121300385,2.7574033047000484,14.551421773539547,7.7261059532785
sh600455,2013-03-18,13.29,13.91,13.18,13.82,0.043019,1725231.0,23756507.0,687099550.0,863169560.0,0.03470049197383407,15.62,2012-09-30 00:00:00,2012-10-23 00:00:00,28.929446303697485,2.7494464067987727,14.509431478839785,7.703811123885975
sh600455,2013-03-15,13.22,13.35,13.14,13.25,0.005311,630500.0,8347136.0,658760430.0,827568500.0,0.012681582893495896,14.97,2012-09-30 00:00:00,2012-10-23 00:00:00,27.736260129199458,2.6360463297397008,13.910994410302964,7.386069787689367
sh600455,2013-03-14,12.77,13.37,12.77,13.18,0.030493,1357718.0,17867327.0,655280180.0,823196440.0,0.02730850678254911,14.89,2012-09-30 00:00:00,2012-10-23 00:00:00,27.589731067499958,2.6221202490967475,13.837503429588416,7.347049607225391
sh600455,2013-03-13,12.76,12.88,12.71,12.79,0.0023510000000000002,502591.0,6419192.0,635890250.0,798837820.0,0.010108881037254462,14.45,2012-09-30 00:00:00,2012-10-23 00:00:00,26.773331859119818,2.544529898889898,13.428042140595245,7.129645332113262
sh600455,2013-03-12,13.1,13.16,12.65,12.76,-0.021472,873063.0,11243303.0,634398720.0,796964080.0,0.017560382025991476,14.42,2012-09-30 00:00:00,2012-10-23 00:00:00,26.710535390416947,2.5385617402385967,13.396546858929902,7.112922850491755
sh600455,2013-03-11,12.92,13.2,12.88,13.04,0.009288,674085.0,8832685.0,648319690.0,814452320.0,0.013558231433631145,14.74,2012-09-30 00:00:00,2012-10-23 00:00:00,27.296649038573193,2.594265815836233,13.690509478451206,7.269002880338382
sh600455,2013-03-08,12.8,12.94,12.75,12.92,0.0078,499061.0,6407544.0,642353560.0,806957360.0,0.010037880260210592,14.6,2012-09-30 00:00:00,2012-10-23 00:00:00,27.04545089070037,2.570392014802745,13.564522196292046,7.202109685578726
sh600455,2013-03-07,12.83,13.04,12.7,12.82,-0.006971,535481.0,6905369.0,637381790.0,800711560.0,0.010770415044333162,14.49,2012-09-30 00:00:00,2012-10-23 00:00:00,26.83612908384637,2.550498129393476,13.45953780144081,7.14636801506125
sh600455,2013-03-06,12.66,12.96,12.66,12.91,0.020553000000000002,563422.0,7249810.0,641856380.0,806332780.0,0.011332407446039564,14.59,2012-09-30 00:00:00,2012-10-23 00:00:00,27.024516991796176,2.5684024629627893,13.554022895042145,7.1965350609712795
sh600455,2013-03-05,12.45,12.8,12.43,12.65,0.0023769999999999998,995440.0,12610276.0,628929770.0,790093700.0,0.02002181579033856,14.29,2012-09-30 00:00:00,2012-10-23 00:00:00,26.48026804271427,2.516677196542256,13.281057323864752,7.051603455157428
sh600455,2013-03-04,13.18,13.35,12.62,12.62,-0.049699,1414000.0,18132147.0,627438230.0,788219960.0,0.02844053668836851,14.26,2012-09-30 00:00:00,2012-10-23 00:00:00,26.417473707711032,2.5107092406771656,13.249563112346701,7.034881541732728
sh600455,2013-03-01,12.85,13.44,12.77,13.28,0.0375,1321127.0,17464866.0,660251960.0,829442240.0,0.026572532340532543,15.01,2012-09-30 00:00:00,2012-10-23 00:00:00,27.799059148323572,2.6420147307823165,13.942490971120417,7.402792948479197
sh600455,2013-02-28,12.73,12.87,12.7,12.8,0.002349,572111.0,7325690.0,636387430.0,799462400.0,0.01150717386105505,14.46,2012-09-30 00:00:00,2012-10-23 00:00:00,26.79427387790224,2.5465202224407872,13.438545514332933,7.135222119016094
sh600455,2013-02-27,12.75,12.95,12.62,12.77,0.000784,398277.0,5064749.0,634895900.0,797588660.0,0.008010757810847416,14.43,2012-09-30 00:00:00,2012-10-23 00:00:00,26.7314816275591,2.5405524647012037,13.40705234836662,7.11850076072914
sh600455,2013-02-26,12.81,12.97,12.72,12.76,-0.012384000000000001,543400.0,7000037.0,634398720.0,796964080.0,0.010929694183493939,14.42,2012-09-30 00:00:00,2012-10-23 00:00:00,26.710540563757117,2.5385622319113854,13.396549453595002,7.1129242281342835
sh600455,2013-02-25,12.7,12.94,12.67,12.92,0.014925,503576.0,6468859.0,642353560.0,806957360.0,0.010128692865032148,14.6,2012-09-30 00:00:00,2012-10-23 00:00:00,27.04547168510546,2.570393991097132,13.564532625630813,7.202115223056617
sh600455,2013-02-22,12.67,12.78,12.61,12.73,0.004736,581823.0,7403151.0,632907190.0,795090340.0,0.011702516430568596,14.38,2012-09-30 00:00:00,2012-10-23 00:00:00,26.647753957292863,2.5325950105644575,13.365059118290329,7.096204372792685
sh600455,2013-02-21,13.01,13.01,12.61,12.67,-0.029119,980503.0,12551476.0,629924120.0,791342860.0,0.01972138010844862,14.32,2012-09-30 00:00:00,2012-10-23 00:00:00,26.522145078202495,2.5206571781686504,13.302060559480626,7.062755164334397
sh600455,2013-02-20,12.88,13.09,12.63,13.05,0.013199,853521.0,11072171.0,648816870.0,815076900.0,0.01716732342363416,14.75,2012-09-30 00:00:00,2012-10-23 00:00:00,27.317606460732566,2.5962576033197173,13.701020577682154,7.274583769107024
sh600455,2013-02-19,12.87,13.05,12.85,12.88,-0.009992000000000001,762419.0,9860870.0,640364850.0,804459040.0,0.015334940261009018,14.55,2012-09-30 00:00:00,2012-10-23 00:00:00,26.961738474606243,2.562436010418208,13.522536616876009,7.17981735977535
sh600455,2013-02-18,13.0,13.14,12.86,13.01,-0.00687,563813.0,7318671.0,646828160.0,812578580.0,0.01134027178099358,14.7,2012-09-30 00:00:00,2012-10-23 00:00:00,27.233859195689572,2.588298286900922,13.659017519935203,7.252282163149541
sh600455,2013-02-08,13.12,13.19,12.77,13.1,-0.0038020000000000003,1422938.0,18415809.0,651302760.0,818199800.0,0.028620311389437377,14.8,2012-09-30 00:00:00,2012-10-23 00:00:00,27.422250053557512,2.6062029008296212,13.753504093054486,7.3024499946125285
sh600455,2013-02-07,13.02,13.25,12.81,13.15,0.012317,969953.0,12678872.0,653788650.0,821322700.0,0.019509182286966898,14.86,2012-09-30 00:00:00,2012-10-23 00:00:00,27.526907355322443,2.61614950123331,13.805994484082968,7.330319870761161
sh600455,2013-02-06,12.76,12.99,12.75,12.99,0.014844,1006969.0,12992218.0,645833810.0,811329420.0,0.02025370475726565,14.68,2012-09-30 00:00:00,2012-10-23 00:00:00,27.191983692185794,2.5843184508738966,13.63801505267912,7.241130861934712
sh600455,2013-02-05,12.65,12.9,12.61,12.8,-0.000781,710569.0,9055620.0,636387430.0,799462400.0,0.014292053505833702,14.46,2012-09-30 00:00:00,2012-10-23 00:00:00,26.794249847450242,2.5465179385934156,13.438533461969643,7.135215719790147
sh600455,2013-02-04,13.0,13.1,12.6,12.81,-0.016884,1106669.0,14153827.0,636884610.0,800086980.0,0.022259024111133726,14.48,2012-09-30 00:00:00,2012-10-23 00:00:00,26.81519251280274,2.5485083235941426,13.449037159991596,7.140792678872346
sh600455,2013-02-01,12.95,13.12,12.83,13.03,0.006954999999999999,1274948.0,16557741.0,647822520.0,813827740.0,0.025643709391269694,14.72,2012-09-30 00:00:00,2012-10-23 00:00:00,27.275715696624548,2.592276316929175,13.680010456539813,7.263428404046263
sh600455,2013-01-31,12.63,13.08,12.63,12.94,0.007788,1299665.0,16723089.0,643347920.0,808206520.0,0.02614085563531471,14.62,2012-09-30 00:00:00,2012-10-23 00:00:00,27.087323362637406,2.5743715627105233,13.585523143079694,7.213260179497856
sh600455,2013-01-30,12.88,13.0,12.56,12.84,-0.013066999999999999,1235860.0,15730121.0,638376140.0,801960720.0,0.024857511748481075,14.51,2012-09-30 00:00:00,2012-10-23 00:00:00,26.877997517967472,2.554477293548368,13.480536723080343,7.157517433724013
sh600455,2013-01-29,12.78,13.3,12.75,13.01,0.01403,1440542.0,18728314.0,646828160.0,812578580.0,0.02897439007602885,14.7,2012-09-30 00:00:00,2012-10-23 00:00:00,27.233862397921108,2.5882985912401026,13.659019125999784,7.252283015892682
sh600455,2013-01-28,12.41,12.88,12.41,12.83,0.028045,1041046.0,13216206.0,637878960.0,801336140.0,0.02093911387201108,14.5,2012-09-30 00:00:00,2012-10-23 00:00:00,26.857057875921925,2.55248719588188,13.470034541384164,7.15194127973796
sh600455,2013-01-25,12.66,12.74,12.25,12.48,-0.021176,1161064.0,14413889.0,620477740.0,779475840.0,0.023353100016126283,14.1,2012-09-30 00:00:00,2012-10-23 00:00:00,26.124399103076147,2.4828555130192544,13.102572884829128,6.956836791908873
sh600455,2013-01-24,12.99,13.39,12.4,12.75,-0.013921000000000001,2813752.0,36093926.0,633901540.0,796339500.0,0.05659449573193969,14.41,2012-09-30 00:00:00,2012-10-23 00:00:00,26.689577598297703,2.53656991759423,13.386035574147272,7.107341863204083
sh600455,2013-01-23,12.29,12.93,12.29,12.93,0.050366,3569526.0,45876861.0,642850740.0,807581940.0,0.0717957813659824,14.61,2012-09-30 00:00:00,2012-10-23 00:00:00,27.066368514386475,2.57238001985057,13.575013334780754,7.207679976152097
sh600455,2013-01-22,12.64,12.79,12.2,12.31,0.001627,2424443.0,30518723.0,612025720.0,768857980.0,0.048764116204135996,13.91,2012-09-30 00:00:00,2012-10-23 00:00:00,25.768511656305012,2.449032070583558,12.924079163625587,6.862065200275043
sh600455,2013-01-21,11.63,12.29,11.63,12.29,0.050427,1477877.0,17997662.0,611031370.0,767608820.0,0.029725328717574676,13.89,2012-09-30 00:00:00,2012-10-23 00:00:00,25.726654389613113,2.4450539677779832,12.903085842959092,6.850918755459909
sh600455,2013-01-18,11.27,11.73,11.22,11.7,0.047449,1962402.0,22644379.0,581697890.0,730758600.0,0.03947083837625748,13.22,2012-09-30 00:00:00,2012-10-23 00:00:00,24.491615685443268,2.3276762381183875,12.283657829586533,6.522032235900172
sh600455,2013-01-17,11.35,11.47,11.15,11.17,-0.021891,980778.0,11078238.0,555347470.0,697655860.0,0.01972691126152065,12.62,2012-09-30 00:00:00,2012-10-23 00:00:00,23.382155776026583,2.2222334816476863,11.727213286361943,6.22658691344416
sh600455,2013-01-16,11.47,11.83,11.35,11.42,0.001754,1428673.0,16451206.0,567776910.0,713270360.0,0.02873566249814562,12.9,2012-09-30 00:00:00,2012-10-23 00:00:00,23.905470429192025,2.2719691584963297,11.989679357169749,6.365943788927574
sh600455,2013-01-15,11.44,11.46,11.3,11.4,-0.0017510000000000002,1040798.0,11828247.0,566782560.0,712021200.0,0.020934125425454166,12.88,2012-09-30 00:00:00,2012-10-23 00:00:00,23.86361365084844,2.2679911021032404,11.968686281432117,6.354797474157901
sh600455,2013-01-14,11.05,11.46,11.05,11.42,0.028829,949981.0,10785401.0,567776910.0,713270360.0,0.019107474835494808,12.9,2012-09-30 00:00:00,2012-10-23 00:00:00,23.905472132552536,2.2719693203832314,11.98968021148242,6.365944242526564
sh600455,2013-01-11,11.29,11.53,11.08,11.1,-0.013333000000000001,1024350.0,11537586.0,551867220.0,693283800.0,0.020603298380360405,12.54,2012-09-30 00:00:00,2012-10-23 00:00:00,23.23561265531253,2.20830606483996,11.65371525441295,6.187562989113413
sh600455,2013-01-10,11.25,11.28,11.1,11.25,0.0026739999999999997,751279.0,8407959.0,559324890.0,702652500.0,0.015110875452011441,12.71,2012-09-30 00:00:00,2012-10-23 00:00:00,23.549599464979096,2.23814728255831,11.811193902717886,6.271176586541775
sh600455,2013-01-09,11.32,11.47,11.1,11.22,-0.020087,1244098.0,14065184.0,557833360.0,700778760.0,0.025023206858765135,12.68,2012-09-30 00:00:00,2012-10-23 00:00:00,23.48679577308187,2.2321784374166573,11.77969499829245,6.254452181408687
sh600455,2013-01-08,11.43,11.76,11.22,11.45,0.010591,1675933.0,19295841.0,569268440.0,715144100.0,0.033708935014911415,12.94,2012-09-30 00:00:00,2012-10-23 00:00:00,23.968245929058877,2.277935324275377,12.021164122011292,6.382660686620841
sh600455,2013-01-07,10.96,11.43,10.93,11.33,0.026268,1315166.0,14627893.0,563302310.0,707649140.0,0.026452635672663937,12.8,2012-09-30 00:00:00,2012-10-23 00:00:00,23.71705856183053,2.2540625478312957,11.895182246835061,6.315770362709385
sh600455,2013-01-04,11.49,11.49,10.97,11.04,-0.044156,1484606.0,16350444.0,548884160.0,689536320.0,0.029860672678184045,12.48,2012-09-30 00:00:00,2012-10-23 00:00:00,23.11000495175776,2.1963683441667246,11.59071728518775,6.154114093696174
