code,date,open,high,low,close,change,volume,money,traded_market_value,market_value,turnover,adjust_price,report_type,report_date,PE_TTM,PS_TTM,PC_TTM,PB
sh600727,2014-12-31,5.69,5.71,5.61,5.67,-0.005263,3165001.0,17914066.0,1989753860.0,1990094060.0,0.00901898271477659,29.91,2014-09-30 00:00:00,2014-10-31 00:00:00,272.11250889509967,3.5649622868081456,10.152099257388805,1.930552756225068
sh600727,2014-12-30,5.81,5.81,5.68,5.7,-0.010417000000000001,2789713.0,16002099.0,2000281660.0,2000623660.0,0.00794956251311128,30.07,2014-09-30 00:00:00,2014-10-31 00:00:00,273.552214198426,3.5838239522689372,10.205812448304231,1.9407670130145636
sh600727,2014-12-29,5.87,5.89,5.74,5.76,-0.023729,3757685.0,21832456.0,2021337260.0,2021682860.0,0.010707894238292525,30.39,2014-09-30 00:00:00,2014-10-31 00:00:00,276.43180430385934,3.6215496348148033,10.313245526958559,1.9611968000810076
sh600727,2014-12-26,5.93,5.96,5.82,5.9,0.005111,4194321.0,24699841.0,2070466980.0,2070820980.0,0.011952131639404364,31.12,2014-09-30 00:00:00,2014-10-31 00:00:00,283.15068695460513,3.7095741190866094,10.563916706486783,2.008865161498198
sh600727,2014-12-25,5.86,5.92,5.8,5.87,0.0034189999999999997,2741481.0,16084987.0,2059939180.0,2060291380.0,0.007812120681155256,30.97,2014-09-30 00:00:00,2014-10-31 00:00:00,281.7108627351657,3.6907108956986927,10.510199078994043,1.9986500610362419
sh600727,2014-12-24,5.65,5.86,5.65,5.85,0.042781,3889157.0,22413253.0,2052920650.0,2053271650.0,0.011082536702039604,30.86,2014-09-30 00:00:00,2014-10-31 00:00:00,280.75097515112395,3.6781353509338497,10.474387149330482,1.991839960212276
sh600727,2014-12-23,5.61,5.76,5.6,5.61,0.001786,3903195.0,22177937.0,1968698270.0,1969034870.0,0.011122539336614544,29.59,2014-09-30 00:00:00,2014-10-31 00:00:00,269.2329215349378,3.5272366402282453,10.044666281156333,1.9101229886354623
sh600727,2014-12-22,5.98,6.0,5.58,5.6,-0.06822,7013230.0,40204104.0,1965189000.0,1965525000.0,0.019984891020660096,29.54,2014-09-30 00:00:00,2014-10-31 00:00:00,268.7529288040937,3.520948226695367,10.026758490492313,1.9067175910179042
sh600727,2014-12-19,6.12,6.13,5.92,6.01,-0.017974,5884273.0,35375591.0,2109068910.0000002,2109429509.9999998,0.016767816623876927,31.7,2014-09-30 00:00:00,2014-10-31 00:00:00,288.4295958317346,3.7787334206522645,10.760864678885909,2.0463173614135357
sh600727,2014-12-18,6.22,6.22,6.08,6.12,-0.023923,6101853.0,37500362.0,2147670830.0,2148038030.0,0.017387832361628715,32.29,2014-09-30 00:00:00,2014-10-31 00:00:00,293.7087162984836,3.8478954942662056,10.95782054536836,2.083771062490744
sh600727,2014-12-17,6.3,6.39,6.2,6.27,0.0,7490017.0,47130808.0,2200309830.0,2200686030.0,0.021343542600089187,33.08,2014-09-30 00:00:00,2014-10-31 00:00:00,300.907322166677,3.94220486115973,11.226389460430234,2.1348429094126224
sh600727,2014-12-16,6.28,6.3,6.23,6.27,-0.001592,4048195.0,25326211.0,2200309830.0,2200686030.0,0.011535731152007804,33.08,2014-09-30 00:00:00,2014-10-31 00:00:00,300.907322166677,3.94220486115973,11.226389460430234,2.1348429094126224
sh600727,2014-12-15,6.18,6.31,6.12,6.28,0.009646,5069166.0,31595842.0,2203819090.0,2204195890.0,0.014445088811713669,33.13,2014-09-30 00:00:00,2014-10-31 00:00:00,301.3871304783986,3.9484908586066316,11.244290370700389,2.1382469986344486
sh600727,2014-12-12,6.15,6.22,6.06,6.22,0.011382,4979780.0,30677489.0,2182763500.0,2183136700.0,0.014190374541263862,32.81,2014-09-30 00:00:00,2014-10-31 00:00:00,298.50772496340164,3.910767594391135,11.136864178831383,2.1178185211791547
sh600727,2014-12-11,6.0,6.17,5.93,6.15,0.0199,5619563.0,34055717.0,2158198630.0,2158567630.0,0.01601349939231497,32.44,2014-09-30 00:00:00,2014-10-31 00:00:00,295.1483464837239,3.866756175600451,11.011530933743515,2.0939847863410215
sh600727,2014-12-10,5.86,6.06,5.86,6.03,0.016863,6136751.0,36659938.0,2116087440.0,2116449240.0000002,0.017487277619302913,31.81,2014-09-30 00:00:00,2014-10-31 00:00:00,289.3894955228198,3.7913091240322094,10.796677060244644,2.0531275481331708
sh600727,2014-12-09,6.14,6.23,5.91,5.93,-0.034201999999999996,9044414.0,55351424.0,2080994780.0,2081350580.0,0.025772950290629752,31.28,2014-09-30 00:00:00,2014-10-31 00:00:00,284.5904468181257,3.728436499343775,10.617631932959153,2.0190798053751298
sh600727,2014-12-08,6.15,6.2,6.06,6.14,-0.011271999999999999,7179012.0,44048451.0,2154689370.0,2155057770.0,0.020457303170340512,32.39,2014-09-30 00:00:00,2014-10-31 00:00:00,294.66870589722254,3.8604723755317107,10.9936362810434,2.0905818870769353
sh600727,2014-12-05,6.45,6.47,6.03,6.21,-0.041667,10393923.0,64974575.0,2179254230.0,2179626830.0,0.029618509369602097,32.76,2014-09-30 00:00:00,2014-10-31 00:00:00,298.0280783969125,3.9044837159782175,11.118969303027121,2.1144155794889348
sh600727,2014-12-04,6.43,6.51,6.39,6.48,0.006211,10656755.0,68946013.0,2274004410.0,2274393210.0,0.030367475144870107,34.18,2014-09-30 00:00:00,2014-10-31 00:00:00,310.9859291049276,4.074245294671287,11.602406786604577,2.2063474590658307
sh600727,2014-12-03,6.47,6.47,6.32,6.44,-0.004637,8433260.0,53891443.0,2259967350.0,2260353750.0,0.02403140664841906,33.97,2014-09-30 00:00:00,2014-10-31 00:00:00,309.0663182025713,4.049096357196737,11.53078905577913,2.1927284228316233
sh600727,2014-12-02,6.35,6.51,6.33,6.47,0.022116999999999998,7870802.0,50900648.0,2270495150.0,2270883350.0,0.02242862705079991,34.13,2014-09-30 00:00:00,2014-10-31 00:00:00,310.50613515126787,4.0679594853302135,11.584506412011631,2.2029434717099425
sh600727,2014-12-01,6.42,6.46,6.32,6.33,-0.021638,7226143.0,46088371.0,2221365420.0,2221745220.0,0.020591607656339585,33.39,2014-09-30 00:00:00,2014-10-31 00:00:00,303.78727205522245,3.9799352572457103,11.333835962039208,2.155275249027208
sh600727,2014-11-28,6.47,6.51,6.41,6.47,-0.0015429999999999999,8073032.0,52103653.0,2270495150.0,2270883350.0,0.02300490139342513,34.13,2014-09-30 00:00:00,2014-10-31 00:00:00,310.5060009027563,4.067957726532419,11.58450140340611,2.2029425192589325
sh600727,2014-11-27,6.51,6.67,6.43,6.48,-0.004608,11609091.0,76013410.0,2274004410.0,2274393210.0,0.03308125056802331,34.18,2014-09-30 00:00:00,2014-10-31 00:00:00,310.9858520725042,4.074244285464891,11.60240391264332,2.2063469125449897
sh600727,2014-11-26,6.48,6.52,6.39,6.51,0.00774,9889492.0,63853121.0,2284532210.0,2284922810.0,0.02818108347879236,34.34,2014-09-30 00:00:00,2014-10-31 00:00:00,312.4255088171335,4.093105314755283,11.656115291908431,2.2165608248257866
sh600727,2014-11-25,6.33,6.5,6.33,6.46,0.010955,9351339.0,60212373.0,2266985880.0,2267373480.0,0.02664756338932292,34.08,2014-09-30 00:00:00,2014-10-31 00:00:00,310.0259082869922,4.061668004401217,11.566589886189327,2.1995364129892496
sh600727,2014-11-24,6.52,6.53,6.27,6.39,-0.010836,12073202.0,77060098.0,2242421020.0,2242804420.0,0.0344037805978112,33.71,2014-09-30 00:00:00,2014-10-31 00:00:00,306.6663781147451,4.017654598277091,11.441250981684966,2.175701601939997
sh600727,2014-11-21,6.45,6.51,6.37,6.46,0.00155,8749369.0,56429962.0,2266985880.0,2267373480.0,0.02493219046428291,34.08,2014-09-30 00:00:00,2014-10-31 00:00:00,310.02581787726314,4.061666819937939,11.566586513141365,2.199535771560628
sh600727,2014-11-20,6.41,6.49,6.36,6.45,-0.0015480000000000001,9451956.0,60804022.0,2263476620.0,2263863620.0,0.02693428138877794,34.03,2014-09-30 00:00:00,2014-10-31 00:00:00,309.5460215438701,4.055380979419837,11.548686049764228,2.1961317673212792
sh600727,2014-11-19,6.64,6.7,6.39,6.46,-0.03003,18872421.0,122198881.0,2266985880.0,2267373480.0,0.05377882620953952,34.08,2014-09-30 00:00:00,2014-10-31 00:00:00,310.0259417016242,4.0616684421683145,11.566591132837862,2.1995366500555655
sh600727,2014-11-18,6.78,6.82,6.58,6.66,-0.023459999999999998,25706203.0,171221713.0,2337171200.0,2337570800.0,0.0732523625055794,35.13,2014-09-30 00:00:00,2014-10-31 00:00:00,319.6242581746077,4.1874165615104735,11.924689560334714,2.267633689759029
sh600727,2014-11-17,6.4,6.95,6.36,6.82,0.057364,35319038.0,234720599.0,2393319460.0,2393728660.0,0.10064508444685442,35.98,2014-09-30 00:00:00,2014-10-31 00:00:00,327.3027814268824,4.288013354814421,12.211163454988753,2.3221103997368564
sh600727,2014-11-14,6.46,6.55,6.36,6.45,-0.024206000000000002,20023953.0,129026177.0,2263476620.0,2263863620.0,0.05706023013836123,34.03,2014-09-30 00:00:00,2014-10-31 00:00:00,309.54598551386505,4.055380507388582,11.548684705540147,2.1961315116997135
sh600727,2014-11-13,6.28,6.75,6.25,6.61,0.037676999999999995,38168515.0,246896591.0,2319624870.0,2320021470.0,0.10876495049391327,34.87,2014-09-30 00:00:00,2014-10-31 00:00:00,317.22472726196816,4.155980163219471,11.835166751937544,2.250609771836795
sh600727,2014-11-12,5.75,6.37,5.73,6.37,0.100173,34890065.0,215220972.0,2235402490.0,2235784690.0,0.09942268340678102,33.6,2014-09-30 00:00:00,2014-10-31 00:00:00,305.7066189787074,4.005080736317248,11.40544384421891,2.168892412414263
sh600727,2014-11-11,6.01,6.03,5.69,5.79,-0.036606,10297402.0,60227710.0,2031865050.0,2032212450.0,0.02934346332695668,30.54,2014-09-30 00:00:00,2014-10-31 00:00:00,277.8714065685191,3.640409950359849,10.366954873659786,1.9714103258435376
sh600727,2014-11-10,6.01,6.02,5.94,6.01,0.003339,4972015.0,29722544.0,2109068910.0000002,2109429509.9999998,0.014168247423456634,31.7,2014-09-30 00:00:00,2014-10-31 00:00:00,288.429662805165,3.77873429807519,10.760867177561607,2.046317836568982
sh600727,2014-11-07,6.07,6.25,5.93,5.99,-0.009917,13771812.0,84012457.0,2102050380.0,2102409779.9999998,0.03924413737410042,31.6,2014-09-30 00:00:00,2014-10-31 00:00:00,287.4698011391613,3.7661590928641164,10.725056214860187,2.0395079196253527
sh600727,2014-11-06,6.04,6.09,5.96,6.05,0.0,5420725.0,32662354.0,2123105970.0000002,2123468970.0000002,0.015446890882229489,31.92,2014-09-30 00:00:00,2014-10-31 00:00:00,290.3491940970215,3.8038821925678112,10.832481938241731,2.0599363079917064
sh600727,2014-11-05,6.06,6.16,6.04,6.05,-0.00165,4833345.0,29457813.0,2123105970.0000002,2123468970.0000002,0.013773093601163957,31.92,2014-09-30 00:00:00,2014-10-31 00:00:00,290.3491940970215,3.8038821925678112,10.832481938241731,2.0599363079917064
sh600727,2014-11-04,6.18,6.21,6.05,6.06,-0.019417,6553281.0,40079920.0,2126615240.0000002,2126978839.9999998,0.018674220946521568,31.97,2014-09-30 00:00:00,2014-10-31 00:00:00,290.829062049403,3.8101689713705724,10.850385073613193,2.063340820345276
sh600727,2014-11-03,6.16,6.21,6.08,6.18,0.011457,8009491.0,49271694.0,2168726430.0,2169097230.0,0.02282383508370855,32.6,2014-09-30 00:00:00,2014-10-31 00:00:00,296.5879094879301,3.8856159767919416,11.065238815697592,2.104198033562968
sh600727,2014-10-31,6.1,6.17,6.03,6.11,-0.0032630000000000003,6562817.0,40049043.0,2144161569.9999998,2144528170.0,0.01870139472278668,32.23,2014-09-30 00:00:00,2014-10-31 00:00:00,293.22839180304265,3.841602734265462,10.939900377077416,2.0803633111076083
sh600727,2014-10-30,6.18,6.2,6.11,6.13,-0.008091,9745633.0,59862556.0,2151180100.0,2151547900.0,0.0277711430530619,32.34,2014-06-30 00:00:00,2014-08-27 00:00:00,249.96927912323287,4.643979060369518,21.42741113365762,2.090294865386996
sh600727,2014-10-29,6.28,6.29,6.1,6.18,-0.004831,16585467.0,102555700.0,2168726430.0,2169097230.0,0.04726192508291606,32.6,2014-06-30 00:00:00,2014-08-27 00:00:00,252.0082781013509,4.681859989544926,21.602194489270307,2.107345396994075
sh600727,2014-10-28,6.11,6.27,6.07,6.21,0.011401,19149236.0,118144437.0,2179254230.0,2179626830.0,0.05456763782902007,32.76,2014-06-30 00:00:00,2014-08-27 00:00:00,253.23164015493944,4.704587853465017,21.707061302422314,2.1175754037696866
sh600727,2014-10-27,6.03,6.2,5.98,6.14,0.00821,14742830.0,89687058.0,2154689370.0,2155057770.0,0.04201114901309417,32.39,2014-06-30 00:00:00,2014-08-27 00:00:00,250.37709094111975,4.651555469556602,21.462368835330707,2.093705072241066
sh600727,2014-10-24,5.75,6.2,5.75,6.09,0.059129999999999995,17796076.0,107825696.0,2137143040.0,2137508440.0,0.05071167479739681,32.13,2014-06-30 00:00:00,2014-08-27 00:00:00,248.33823403965417,4.613677179909544,21.287597658553977,2.0766557287083702
sh600727,2014-10-23,5.95,6.02,5.72,5.75,-0.038462,9764248.0,57293704.0,2017827990.0,2018172990.0,0.027824188324397262,30.33,2014-06-30 00:00:00,2014-08-27 00:00:00,234.47379834359728,4.356100931811529,20.099135761005712,1.9607184469407632
sh600727,2014-10-22,5.86,6.19,5.84,5.98,0.017006999999999998,17405763.0,104991319.0,2098541109.9999998,2098899910.0000002,0.049599439460111416,31.55,2014-06-30 00:00:00,2014-08-27 00:00:00,243.8528673267175,4.530347143650619,20.90311122493933,2.039148163609512
sh600727,2014-10-21,5.67,6.12,5.64,5.88,0.037037,19374780.0,114145571.0,2063448450.0,2063801250.0,0.05521034770701444,31.02,2014-06-30 00:00:00,2014-08-27 00:00:00,239.77501366924463,4.454587966110969,20.553556883029643,2.0050483070514873
sh600727,2014-10-20,5.66,5.69,5.61,5.67,0.0017670000000000001,4856763.0,27517460.0,1989753860.0,1990094060.0,0.013839825499823379,29.91,2014-06-30 00:00:00,2014-08-27 00:00:00,231.21162858147267,4.295495692160425,19.819501987903656,1.933439507993917
sh600727,2014-10-17,5.81,5.84,5.57,5.66,-0.027491,11496508.0,65221380.0,1986244600.0,1986584200.0,0.03276043407745451,29.86,2014-06-30 00:00:00,2014-08-27 00:00:00,230.80379826992967,4.287918939394514,19.784542700951075,1.9300291464920654
sh600727,2014-10-16,5.86,5.99,5.8,5.82,-0.010204000000000001,7624969.0,45026058.0,2042392850.0,2042742050.0,0.021728101711676086,30.7,2014-06-30 00:00:00,2014-08-27 00:00:00,237.32818747171464,4.409130341615877,20.343814505522396,1.9845874397995966
sh600727,2014-10-15,5.78,5.9,5.78,5.88,0.015544,7555708.0,44208957.0,2063448450.0,2063801250.0,0.021530735618813256,31.02,2014-06-30 00:00:00,2014-08-27 00:00:00,239.77485004153846,4.45458492620285,20.55354285683352,2.005046938762731
sh600727,2014-10-14,5.78,5.85,5.74,5.79,-0.0017239999999999998,6145488.0,35681030.0,2031865050.0,2032212450.0,0.017512174600375158,30.54,2014-06-30 00:00:00,2014-08-27 00:00:00,236.10483646354905,4.386402682899854,20.238948639186013,1.9743575253880985
sh600727,2014-10-13,5.8,5.81,5.69,5.8,-0.005146,7831616.0,45058116.0,2035374320.0,2035722320.0,0.022316962709837077,30.6,2014-06-30 00:00:00,2014-08-27 00:00:00,236.51258415863853,4.393977900800835,20.27390084424149,1.9777671960340613
sh600727,2014-10-10,5.88,5.89,5.79,5.83,-0.010187,6953021.0,40635431.0,2045902120.0,2046251920.0,0.01981331952967525,30.76,2014-06-30 00:00:00,2014-08-27 00:00:00,237.73597347815706,4.416706271272804,20.378769994633867,1.9879974308130246
sh600727,2014-10-09,5.91,5.97,5.8,5.89,-0.008418,8877522.0,52252178.0,2066957720.0,2067311120.0,0.025297375013553735,31.07,2014-06-30 00:00:00,2014-08-27 00:00:00,240.18271479376114,4.462162318814568,20.588505096047303,2.008457588264677
sh600727,2014-10-08,5.93,5.95,5.84,5.94,0.003378,7932099.0,46803931.0,2084504050.0,2084860450.0,0.022603298880613833,31.34,2014-06-30 00:00:00,2014-08-27 00:00:00,242.2217373790177,4.500043686568098,20.76329047526811,2.025508317279536
sh600727,2014-09-30,5.85,5.94,5.82,5.92,0.010239,6286034.0,36956238.0,2077485510.0,2077840710.0,0.017912674288640407,31.23,2014-06-30 00:00:00,2014-08-27 00:00:00,241.4062670090611,4.4848937155968125,20.693388209895083,2.0186891852118904
sh600727,2014-09-29,5.78,5.88,5.78,5.86,0.015597999999999999,7659468.0,44719096.0,2056429920.0,2056781520.0,0.0218264099561438,30.91,2014-06-30 00:00:00,2014-08-27 00:00:00,238.9595600734688,4.439438306773755,20.48365605554238,1.9982293152530142
sh600727,2014-09-26,5.75,5.78,5.65,5.77,0.0,5702884.0,32658744.0,2024846520.0,2025192720.0,0.016250930801412048,30.44,2014-06-30 00:00:00,2014-08-27 00:00:00,235.28951423050142,4.371255464045572,20.169059072135216,1.9675396320719558
sh600727,2014-09-25,5.8,5.88,5.73,5.77,-0.0051719999999999995,7043970.0,40909062.0,2024846520.0,2025192720.0,0.020072487716254167,30.44,2014-06-30 00:00:00,2014-08-27 00:00:00,235.28951423050142,4.371255464045572,20.169059072135216,1.9675396320719558
sh600727,2014-09-24,5.74,5.84,5.7,5.8,0.0051990000000000005,8140227.0,47074207.0,2035374320.0,2035722320.0,0.02319638021177353,30.6,2014-06-30 00:00:00,2014-08-27 00:00:00,236.51275821599452,4.393981134473067,20.27391576446905,1.9777686515377086
sh600727,2014-09-23,5.69,5.82,5.6,5.77,0.019435,7594423.0,43276473.0,2024846520.0,2025192720.0,0.021641057866450042,30.44,2014-06-30 00:00:00,2014-08-27 00:00:00,235.28948816701424,4.371254979832916,20.16905683796845,1.96753941412368
sh600727,2014-09-22,5.64,5.93,5.6,5.66,0.003546,11743754.0,67148061.0,1986244600.0,1986584200.0,0.033464985953895104,29.86,2014-06-30 00:00:00,2014-08-27 00:00:00,230.803816002996,4.287919268842953,19.78454422103268,1.9300292947796376
sh600727,2014-09-19,5.56,5.64,5.51,5.64,0.012567,7374795.0,41271751.0,1979226060.0,1979564460.0,0.021015206216514752,29.75,2014-06-30 00:00:00,2014-08-27 00:00:00,229.98827757073022,4.272768033396528,19.714636121346388,1.9232095935608708
sh600727,2014-09-18,5.62,5.74,5.51,5.57,-0.00713,11862714.0,66635602.0,1954661200.0,1954995400.0,0.03380397430511231,29.38,2014-06-30 00:00:00,2014-08-27 00:00:00,227.13388602505333,4.219738578678278,19.46995716959607,1.899340580485904
sh600727,2014-09-17,5.32,5.63,5.28,5.61,0.052533,15687930.0,85931664.0,1968698270.0,1969034870.0,0.04470430468758425,29.59,2014-06-30 00:00:00,2014-08-27 00:00:00,228.76498033484077,4.250041373672564,19.609774864379098,1.912980128804279
sh600727,2014-09-16,5.52,5.54,5.28,5.33,-0.030909,13385413.0,72941768.0,1870438820.0,1870758620.0,0.03814305526977889,28.12,2014-06-30 00:00:00,2014-08-27 00:00:00,217.3470858726907,4.037917455958686,18.631030917205536,1.8175013313637471
sh600727,2014-09-15,5.45,5.63,5.43,5.5,0.014759999999999999,10665260.0,58857048.0,1930096340.0,1930426340.0,0.030391710913249027,29.01,2014-06-30 00:00:00,2014-08-27 00:00:00,224.27933586494018,4.166706177189435,19.22526462138802,1.875470241044182
sh600727,2014-09-12,5.27,5.51,5.26,5.42,0.024575,11722553.0,63378434.0,1902022210.0,1902347410.0,0.03340457168478595,28.59,2014-06-30 00:00:00,2014-08-27 00:00:00,221.0171231275771,4.10610013913579,18.945627164440868,1.8481909427294942
sh600727,2014-09-11,5.22,5.41,5.21,5.29,0.007619,13970102.0,74216129.0,1856401750.0,1856719150.0,0.03980918439664259,27.91,2014-06-30 00:00:00,2014-08-27 00:00:00,215.71590476790578,4.007613048469648,18.491205782339865,1.8038610572476335
sh600727,2014-09-10,5.15,5.28,5.07,5.25,0.003824,15481192.0,79987343.0,1842364690.0,1842679690.0,0.04411518438295731,27.7,2014-06-30 00:00:00,2014-08-27 00:00:00,214.08479273208007,3.9773099241574923,18.351386568077682,1.790221360700457
sh600727,2014-09-05,5.14,5.26,5.12,5.23,0.019493,11137491.0,57766803.0,1835346150.0,1835659950.0,0.03173737985611052,27.59,2014-06-30 00:00:00,2014-08-27 00:00:00,213.26925111581318,3.9621586295580618,18.28147819545825,1.7834016328564137
sh600727,2014-09-04,5.08,5.16,5.06,5.13,0.009843000000000001,7454133.0,38137754.0,1800253490.0,1800561290.0,0.02124128768665795,27.06,2014-06-30 00:00:00,2014-08-27 00:00:00,209.1914815656539,3.8864010145808376,17.931931063242462,1.7493024796211585
sh600727,2014-09-03,5.07,5.12,5.04,5.08,0.0,6454592.0,32843355.0,1782707160.0,1783011960.0,0.01839299695189422,26.8,2014-06-30 00:00:00,2014-08-27 00:00:00,207.1524797078891,3.8485200319067787,17.757147460785948,1.7322519239338772
sh600727,2014-09-02,5.02,5.09,4.99,5.08,0.011951999999999999,7243655.0,36710435.0,1782707160.0,1783011960.0,0.020641509848426255,26.8,2014-06-30 00:00:00,2014-08-27 00:00:00,207.1524797078891,3.8485200319067787,17.757147460785948,1.7322519239338772
sh600727,2014-09-01,4.93,5.03,4.9,5.02,0.016194,5727508.0,28584015.0,1761651570.0,1761952770.0,0.016321099273904655,26.48,2014-06-30 00:00:00,2014-08-27 00:00:00,204.70583556126093,3.803065789589604,17.547420688714432,1.7117925790293187
sh600727,2014-08-29,4.85,4.97,4.85,4.94,0.014374000000000001,4949316.0,24341107.0,1733577440.0,1733873840.0,0.014103564384178882,26.06,2014-06-30 00:00:00,2014-08-27 00:00:00,201.4436569801248,3.742460386097147,17.26778615964514,1.6845135663360726
sh600727,2014-08-28,4.84,4.93,4.82,4.87,0.004124,5542486.0,27091694.0,1709012580.0,1709304780.0,0.01579386081523168,25.69,2014-06-30 00:00:00,2014-08-27 00:00:00,198.58913672878523,3.689428540259457,17.023096175222488,1.6606434769977072
sh600727,2014-08-27,4.88,4.9,4.82,4.85,-0.004107,3983517.0,19343678.0,1701994040.0,1702285040.0,0.011351424855753314,25.59,2014-06-30 00:00:00,2014-08-27 00:00:00,197.77351873751172,3.6742758267499402,16.953181255723884,1.6538231104900463
sh600727,2014-08-26,5.04,5.04,4.84,4.87,-0.03373,7860681.0,38782147.0,1709012580.0,1709304780.0,0.022399786237969063,25.69,2014-03-31 00:00:00,2014-04-30 00:00:00,131.02348533420863,3.7107651749634463,12.97936080505741,1.6648452300718861
sh600727,2014-08-25,5.08,5.08,5.01,5.04,-0.009823,5873358.0,29629631.0,1768670100.0,1768972500.0,0.01673671326269382,26.59,2014-03-31 00:00:00,2014-04-30 00:00:00,135.59717815332016,3.840298441391585,13.43243690175356,1.722960694290298
sh600727,2014-08-22,5.08,5.1,5.03,5.09,0.0019690000000000003,6880621.0,34803842.0,1786216430.0,1786521830.0,0.019607008591898352,26.85,2014-03-31 00:00:00,2014-04-30 00:00:00,136.94236298492103,3.878395924558523,13.565692701157024,1.7400532372397035
sh600727,2014-08-21,5.04,5.16,5.01,5.08,0.005940999999999999,10705958.0,54502713.0,1782707160.0,1783011960.0,0.030507683965323842,26.8,2014-03-31 00:00:00,2014-04-30 00:00:00,136.67325334907667,3.8707743698243386,13.539034342536569,1.7366338052771129
sh600727,2014-08-20,5.05,5.13,4.98,5.05,-0.007859,14557156.0,73566575.0,1772179370.0,1772482370.0,0.04148205257575027,26.64,2014-03-31 00:00:00,2014-04-30 00:00:00,135.86607300932826,3.8479139132656273,13.459073983997639,1.7263773971605818
sh600727,2014-08-19,5.41,5.41,5.05,5.09,-0.013566,31551494.0,164283707.0,1786216430.0,1786521830.0,0.08990909598788092,26.85,2014-03-31 00:00:00,2014-04-30 00:00:00,136.94230256518804,3.878394213388648,13.565686715897879,1.7400524695185275
sh600727,2014-08-18,4.89,5.16,4.85,5.16,0.100213,9906855.0,49982061.0,1810781290.0,1811090890.0,0.02823056107455142,27.22,2014-03-31 00:00:00,2014-04-30 00:00:00,138.82561080131873,3.9317320909342626,13.75224973581393,1.7639826582604894
sh600727,2014-08-01,4.75,4.77,4.68,4.69,-0.016771,4093461.0,19392739.0,1645845790.0,1646127190.0,0.01166472108544264,24.74,2014-03-31 00:00:00,2014-04-30 00:00:00,126.1806675628435,3.573609920019362,12.49962483247692,1.6033101392734763
sh600727,2014-07-31,4.77,4.77,4.71,4.77,0.002101,4515726.0,21415396.0,1673919920.0,1674206120.0,0.0128680068637931,25.16,2014-03-31 00:00:00,2014-04-30 00:00:00,128.33293928763644,3.6345652132101085,12.712831733479097,1.630657902964087
sh600727,2014-07-30,4.73,4.78,4.71,4.76,0.004219,4105167.0,19475731.0,1670410650.0,1670696250.0,0.011698078505426196,25.11,2014-03-31 00:00:00,2014-04-30 00:00:00,128.06387708188743,3.6269450017614084,12.686178073346998,1.627239073670306
sh600727,2014-07-29,4.73,4.75,4.7,4.74,0.002114,5917172.0,27981319.0,1663392120.0,1663676520.0,0.01686156555797559,25.01,2014-03-31 00:00:00,2014-04-30 00:00:00,127.52584553955603,3.6117072090464415,12.632879952826023,1.6204025951214884
sh600727,2014-07-28,4.68,4.75,4.68,4.73,0.012847999999999998,5435946.0,25623047.0,1659882850.0,1660166650.0,0.015490264617168615,24.95,2014-03-31 00:00:00,2014-04-30 00:00:00,127.25682461232557,3.6040881666621174,12.606230381798902,1.616984290331727
sh600727,2014-07-25,4.59,4.68,4.57,4.67,0.017429,3959759.0,18381014.0,1638827250.0,1639107450.0,0.011283724095996085,24.64,2014-03-31 00:00:00,2014-04-30 00:00:00,125.64256888726203,3.5583702259984893,12.446320061646864,1.596472807698418
sh600727,2014-07-24,4.6,4.65,4.56,4.59,-0.0021739999999999997,3788214.0,17432270.0,1610753130.0,1611028530.0,0.010794889630293625,24.21,2014-03-31 00:00:00,2014-04-30 00:00:00,123.49025719461706,3.497413800863244,12.23310920137608,1.569124536157725
sh600727,2014-07-23,4.57,4.61,4.53,4.6,0.004367,3441656.0,15744241.0,1614262390.0,1614538390.0,0.009807338446384789,24.27,2014-03-31 00:00:00,2014-04-30 00:00:00,123.75930993441449,3.5050337442231854,12.259761923798418,1.5725432451727308
sh600727,2014-07-22,4.53,4.59,4.5,4.58,0.011038,3306033.0,15034357.0,1607243860.0,1607518660.0,0.009420867310079505,24.16,2014-03-31 00:00:00,2014-04-30 00:00:00,123.22120294117039,3.489793814634676,12.206456329009633,1.5657058079095896
sh600727,2014-07-21,4.59,4.59,4.52,4.53,-0.010917,2495074.0,11324881.0,1589697530.0,1589969330.0,0.00710995960344733,23.9,2014-03-31 00:00:00,2014-04-30 00:00:00,121.87593635567643,3.451694016085128,12.073192430956732,1.5486122261572657
sh600727,2014-07-18,4.55,4.63,4.52,4.58,0.002188,2477131.0,11362590.0,1607243860.0,1607518660.0,0.0070588292556924125,24.16,2014-03-31 00:00:00,2014-04-30 00:00:00,123.22114155806582,3.4897920761807932,12.206450248317614,1.5657050279473668
sh600727,2014-07-17,4.63,4.63,4.53,4.57,-0.012959,3441326.0,15731694.0,1603734590.0,1604008790.0,0.009806398089848522,24.11,2014-03-31 00:00:00,2014-04-30 00:00:00,122.95212231444181,3.4821730814785177,12.179800844070785,1.5622867445502906
sh600727,2014-07-16,4.54,4.66,4.53,4.63,0.017582,4791046.0,22000766.0,1624790190.0,1625067990.0,0.013652558414326712,24.42,2014-03-31 00:00:00,2014-04-30 00:00:00,124.56637800703497,3.5278910212225405,12.339711161006266,1.5827982267710161
sh600727,2014-07-15,4.59,4.59,4.51,4.55,-0.00655,3099928.0,14084932.0,1596716060.0,1596989060.0,0.008833550781721327,24.0,2014-03-31 00:00:00,2014-04-30 00:00:00,122.41409341658458,3.4669353636586933,12.126502985514941,1.5554502996033892
sh600727,2014-07-14,4.52,4.59,4.51,4.58,0.013274000000000001,3549098.0,16210644.0,1607243860.0,1607518660.0,0.010113505015971877,24.16,2014-03-31 00:00:00,2014-04-30 00:00:00,123.22119222566268,3.4897935111567704,12.20645526751718,1.565705671753374
sh600727,2014-07-11,4.44,4.53,4.44,4.52,0.018018,2412347.0,10829664.0,1586188260.0,1586459460.0,0.006874220869595895,23.84,2014-03-31 00:00:00,2014-04-30 00:00:00,121.60698115777437,3.4440768352457183,12.046549371164344,1.5451947565548645
sh600727,2014-07-10,4.39,4.46,4.38,4.44,0.009091,1874444.0,8295313.0,1558114140.0,1558380540.0,0.005341413152184089,23.42,2014-03-31 00:00:00,2014-04-30 00:00:00,119.45464732232077,3.3831197829957014,11.833336317397473,1.5178462036573659
sh600727,2014-07-09,4.5,4.51,4.37,4.4,-0.022222,3159509.0,14038452.0,1544077070.0,1544341070.0,0.009003332715769169,23.21,2014-03-31 00:00:00,2014-04-30 00:00:00,118.37846866369908,3.3526409243524133,11.726728627445366,1.5041717780233554
sh600727,2014-07-08,4.51,4.56,4.49,4.5,-0.0022170000000000002,2051964.0,9263657.0,1579169730.0,1579439730.0,0.005847273934259112,23.74,2014-03-31 00:00:00,2014-04-30 00:00:00,121.06886089040567,3.428836529715757,11.993242461423112,1.538357150624534
sh600727,2014-07-07,4.47,4.52,4.45,4.51,0.011211,2907909.0,13040059.0,1582679000.0,1582949600.0,0.008286373667686246,23.79,2014-03-31 00:00:00,2014-04-30 00:00:00,121.33786694141479,3.436455150785047,12.019890558791953,1.5417752663901207
sh600727,2014-07-04,4.46,4.48,4.44,4.46,0.0,2465556.0,10993852.0,1565132670.0,1565400270.0,0.007025845138099379,23.53,2014-03-31 00:00:00,2014-04-30 00:00:00,119.99262957129102,3.398356179654935,11.8866295548525,1.5246820558618532
sh600727,2014-07-03,4.47,4.51,4.44,4.46,-0.004464,2794108.0,12496929.0,1565132670.0,1565400270.0,0.007962086485614028,23.53,2014-03-31 00:00:00,2014-04-30 00:00:00,119.99262957129102,3.398356179654935,11.8866295548525,1.5246820558618532
sh600727,2014-07-02,4.41,4.48,4.4,4.48,0.013575,4047923.0,18008491.0,1572151200.0,1572420000.0,0.011534956078015907,23.63,2014-03-31 00:00:00,2014-04-30 00:00:00,120.53067852020523,3.41359446534825,11.939929399692728,1.5315187555867926
sh600727,2014-07-01,4.4,4.43,4.36,4.42,0.006834000000000001,2542674.0,11216277.0,1551095600.0,1551360800.0,0.007245600516177082,23.32,2014-03-31 00:00:00,2014-04-30 00:00:00,118.91638854569739,3.367875554693289,11.780015686745164,1.5110068377641446
sh600727,2014-06-30,4.35,4.39,4.35,4.39,0.004577,2019147.0,8835622.0,1540567800.0,1540831200.0,0.0057537586661229705,23.16,2014-03-31 00:00:00,2014-04-30 00:00:00,118.10923006741668,3.345015717281388,11.700057493832315,1.500750707429571
sh600727,2014-06-27,4.33,4.39,4.31,4.37,0.009238,2763075.0,12023803.0,1533549270.0,1533811470.0,0.00787365491687137,23.05,2014-03-31 00:00:00,2014-04-30 00:00:00,117.57110711017341,3.3297753355704818,11.646750317628529,1.4939130673204453
sh600727,2014-06-26,4.26,4.35,4.26,4.33,0.016432,1587968.0,6844408.0,1519512210.0,1519772010.0,0.004525071529369284,22.84,2014-03-31 00:00:00,2014-04-30 00:00:00,116.49492697478037,3.299296435103,11.54014248138549,1.4802386229218927
sh600727,2014-06-25,4.26,4.29,4.25,4.26,-0.0023420000000000003,1259795.0,5373827.0,1494947350.0,1495202950.0,0.003589910173090711,22.47,2014-03-31 00:00:00,2014-04-30 00:00:00,114.6116286921116,3.2459588394531065,11.353580447472618,1.4563085606532387
sh600727,2014-06-24,4.25,4.29,4.24,4.27,0.004706,1439659.0,6140816.0,1498456610.0,1498712810.0,0.004102450407289403,22.53,2014-03-31 00:00:00,2014-04-30 00:00:00,114.88067924289845,3.2535787208172606,11.380232953048658,1.4597272418536598
sh600727,2014-06-23,4.24,4.28,4.23,4.25,0.002358,1605489.0,6831925.0,1491438080.0,1491693080.0,0.00457499935230298,22.42,2014-03-31 00:00:00,2014-04-30 00:00:00,114.34258304707889,3.238339097026653,11.326928427867115,1.4528899417876073
sh600727,2014-06-20,4.21,4.26,4.19,4.24,0.007126,1883615.0,7958197.0,1487928810.0,1488183210.0,0.005367546851922304,22.37,2014-03-31 00:00:00,2014-04-30 00:00:00,114.07359750416407,3.2307210567747777,11.300282362057382,1.449472086607387
sh600727,2014-06-19,4.35,4.35,4.2,4.21,-0.032184,2569266.0,10962312.0,1477401020.0,1477653620.0,0.007321377008390044,22.21,2014-03-31 00:00:00,2014-04-30 00:00:00,113.26646070517896,3.2078618333503233,11.220326316724403,1.4392162317400077
sh600727,2014-06-18,4.43,4.43,4.33,4.35,-0.013605,2466647.0,10782798.0,1526530740.0,1526791740.0,0.007028954064822828,22.95,2014-03-31 00:00:00,2014-04-30 00:00:00,117.03305246573622,3.3145368885721282,11.593449908582214,1.4870762952255465
sh600727,2014-06-17,4.44,4.44,4.38,4.41,-0.008989,1812175.0,7983602.0,1547586340.0,1547850940.0,0.005163971497706552,23.26,2014-03-31 00:00:00,2014-04-30 00:00:00,118.64724827856611,3.360253132438961,11.753354293748664,1.507587016586202
sh600727,2014-06-16,4.4,4.45,4.39,4.45,0.00907,2902185.0,12843923.0,1561623400.0,1561890400.0,0.008270062583590896,23.48,2014-03-31 00:00:00,2014-04-30 00:00:00,119.72344230141353,3.3907324262182366,11.859963505701415,1.5212616374451968
sh600727,2014-06-13,4.37,4.44,4.36,4.41,0.009153,2095181.0,9259001.0,1547586340.0,1547850940.0,0.0059704250232655845,23.26,2014-03-31 00:00:00,2014-04-30 00:00:00,118.64731118892993,3.3602549141469242,11.753360525733017,1.5075878159544898
sh600727,2014-06-12,4.42,4.42,4.35,4.37,-0.011312000000000001,1245529.0,5453060.0,1533549270.0,1533811470.0,0.0035492578141946493,23.05,2014-03-31 00:00:00,2014-04-30 00:00:00,117.57118215863198,3.3297774610459707,11.6467577520287,1.493914020921
sh600727,2014-06-11,4.42,4.45,4.39,4.42,0.002268,2241364.0,9910482.0,1551095600.0,1551360800.0,0.006386987932916578,23.32,2014-03-31 00:00:00,2014-04-30 00:00:00,118.9163640689803,3.3678748614790215,11.780013262048998,1.5110065267516142
sh600727,2014-06-10,4.34,4.47,4.34,4.41,0.011468,2902220.0,12819519.0,1547586340.0,1547850940.0,0.008270162296728466,23.26,2014-03-31 00:00:00,2014-04-30 00:00:00,118.64727205595739,3.3602538058473597,11.753356649168683,1.5075873187127737
sh600727,2014-06-09,4.35,4.36,4.3,4.36,0.002299,1601375.0,6954626.0,1530040010.0,1530301610.0,0.0045632760936754856,23.0,2014-03-31 00:00:00,2014-04-30 00:00:00,117.30205212221978,3.322155328539667,11.620097372500844,1.4904943297393232
sh600727,2014-06-06,4.33,4.36,4.3,4.35,0.006944,1656500.0,7188999.0,1526530740.0,1526791740.0,0.004720360233296055,22.95,2014-03-31 00:00:00,2014-04-30 00:00:00,117.03299327069045,3.314535212087079,11.593444044642212,1.487075543065815
sh600727,2014-06-05,4.27,4.33,4.25,4.32,0.01171,1006710.0,4326826.0,1516002940.0,1516262140.0,0.002868719502615213,22.79,2014-03-31 00:00:00,2014-04-30 00:00:00,116.22592047888507,3.2916778014339214,11.51349433994563,1.4768205015033755
sh600727,2014-06-04,4.33,4.34,4.25,4.27,-0.013857,1565876.0,6697139.0,1498456610.0,1498712810.0,0.004462118205745043,22.53,2014-03-31 00:00:00,2014-04-30 00:00:00,114.88066785826477,3.2535783983887883,11.380231825271697,1.4597270971952192
sh600727,2014-06-03,4.32,4.36,4.31,4.33,0.002315,1276820.0,5531910.0,1519512210.0,1519772010.0,0.003638424596798732,22.84,2014-03-31 00:00:00,2014-04-30 00:00:00,116.49493821713968,3.299296753502066,11.54014359506856,1.480238765772529
sh600727,2014-05-30,4.38,4.39,4.3,4.32,-0.0068969999999999995,2545918.0,11032551.0,1516002940.0,1516262140.0,0.00725484461131718,22.79,2014-03-31 00:00:00,2014-04-30 00:00:00,116.22587531578363,3.291676522352819,11.513489866028703,1.4768199276400422
sh600727,2014-05-29,4.44,4.45,4.34,4.35,-0.022472,1932053.0,8491480.0,1526530740.0,1526791740.0,0.005505575701672408,22.95,2014-03-31 00:00:00,2014-04-30 00:00:00,117.03305227734045,3.3145368832365016,11.593449889919478,1.4870762928317025
sh600727,2014-05-28,4.46,4.46,4.38,4.45,0.0,2989838.0,13199363.0,1561623400.0,1561890400.0,0.008519838457850978,23.48,2014-03-31 00:00:00,2014-04-30 00:00:00,119.72347828127731,3.3907334452174274,11.8599670699146,1.5212620946220492
sh600727,2014-05-27,4.48,4.5,4.45,4.45,-0.011111,1338909.0,5982838.0,1561623400.0,1561890400.0,0.0038153533367904194,23.48,2014-03-31 00:00:00,2014-04-30 00:00:00,119.72347828127731,3.3907334452174274,11.8599670699146,1.5212620946220492
sh600727,2014-05-26,4.45,4.51,4.43,4.5,0.011236,1612646.0,7204237.0,1579169730.0,1579439730.0,0.00459539393526749,23.74,2014-03-31 00:00:00,2014-04-30 00:00:00,121.06867229919366,3.428831188553445,11.993223779326698,1.5383547542970437
sh600727,2014-05-23,4.42,4.47,4.41,4.45,0.004515,1320057.0,5858152.0,1561623400.0,1561890400.0,0.003761632702225133,23.48,2014-03-31 00:00:00,2014-04-30 00:00:00,119.72345950815998,3.390732913536944,11.859965210224615,1.5212618560821052
sh600727,2014-05-22,4.5,4.52,4.42,4.43,-0.015556,3067389.0,13739731.0,1554604870.0,1554870670.0,0.008740827674108598,23.37,2014-03-31 00:00:00,2014-04-30 00:00:00,119.18533770840651,3.3754925646077396,11.80665814868331,1.5144242306805824
sh600727,2014-05-21,4.39,4.53,4.37,4.5,0.015801,3816297.0,17040144.0,1579169730.0,1579439730.0,0.010874914946602985,23.74,2014-03-31 00:00:00,2014-04-30 00:00:00,121.06868212758319,3.428831466906944,11.993224752940044,1.538354879181124
sh600727,2014-05-20,4.38,4.45,4.34,4.43,0.018391,2567730.0,11298470.0,1554604870.0,1554870670.0,0.007317000042589601,23.37,2014-03-31 00:00:00,2014-04-30 00:00:00,119.185433099183,3.375495266205629,11.806667598220562,1.514425442760072
sh600727,2014-05-19,4.33,4.41,4.32,4.35,0.006944,2126078.0,9269460.0,1526530740.0,1526791740.0,0.00605846908788748,22.95,2014-03-31 00:00:00,2014-04-30 00:00:00,117.03307776598871,3.31453760511005,11.593452414858891,1.4870766167023
sh600727,2014-05-16,4.25,4.32,4.24,4.32,0.014085,1018394.0,4366432.0,1516002940.0,1516262140.0,0.002902014213771908,22.79,2014-03-31 00:00:00,2014-04-30 00:00:00,116.22600439149416,3.2916801779543348,11.513502652440344,1.4768215677359415
sh600727,2014-05-15,4.34,4.37,4.26,4.26,-0.022936,1487668.0,6417247.0,1494947350.0,1495202950.0,0.004239256773825513,22.47,2014-03-31 00:00:00,2014-04-30 00:00:00,114.61169861648105,3.245960819807349,11.353587374273701,1.4563094491447381
sh600727,2014-05-14,4.39,4.42,4.34,4.36,-0.006834000000000001,1659092.0,7242114.0,1530040010.0,1530301610.0,0.004727746380959019,23.0,2014-03-31 00:00:00,2014-04-30 00:00:00,117.30214051124699,3.322157831838394,11.620106128435497,1.4904954528513361
sh600727,2014-05-13,4.4,4.47,4.38,4.39,-0.002273,2256664.0,9965408.0,1540567800.0,1540831200.0,0.006430586800528999,23.16,2014-03-31 00:00:00,2014-04-30 00:00:00,118.10929946378249,3.3450176826818416,11.700064368328656,1.5007515892120111
sh600727,2014-05-12,4.28,4.4,4.28,4.4,0.030445,3019838.0,13139992.0,1544077070.0,1544341070.0,0.008605326416770117,23.21,2014-03-31 00:00:00,2014-04-30 00:00:00,118.37837350676335,3.352638229377216,11.726719201072692,1.5041705689151552
sh600727,2014-05-09,4.27,4.3,4.19,4.27,0.0,1793906.0,7618775.0,1498456610.0,1498712810.0,0.005111912196109568,22.53,2014-03-31 00:00:00,2014-04-30 00:00:00,114.88082673676261,3.2535828980461994,11.380247563987105,1.4597291159791692
sh600727,2014-05-08,4.26,4.35,4.23,4.27,-0.002336,1760366.0,7563862.0,1498456610.0,1498712810.0,0.005016336655887553,22.53,2014-03-31 00:00:00,2014-04-30 00:00:00,114.88082673676261,3.2535828980461994,11.380247563987105,1.4597291159791692
sh600727,2014-05-07,4.38,4.38,4.27,4.28,-0.022831,2640183.0,11367483.0,1501965880.0,1502222680.0,0.0075234620110012085,22.58,2014-03-31 00:00:00,2014-04-30 00:00:00,115.14981670859389,3.2612010637310753,11.406894068531194,1.463147027435258
sh600727,2014-05-06,4.34,4.41,4.31,4.38,0.009217,3081198.0,13449960.0,1537058540.0,1537321340.0,0.008780177780346609,23.11,2014-03-31 00:00:00,2014-04-30 00:00:00,117.84022692962414,3.337397178718395,11.673409685050585,1.4973326286806663
sh600727,2014-05-05,4.32,4.36,4.24,4.34,0.00463,2184230.0,9399943.0,1523021470.0,1523281870.0,0.006224178967089676,22.9,2014-03-31 00:00:00,2014-04-30 00:00:00,116.76401302160401,3.306917321763699,11.566798503246165,1.4836577551514356
sh600727,2014-04-30,4.3,4.36,4.29,4.32,0.0,2924445.0,12663000.0,1516002940.0,1516262140.0,0.008333494656679229,22.79,2014-03-31 00:00:00,2014-04-30 00:00:00,116.22588716403455,3.2916768579115687,11.513491039732205,1.4768200781894187
sh600727,2014-04-29,4.29,4.33,4.2,4.32,0.009346,3128733.0,13340872.0,1516002940.0,1516262140.0,0.00891563347495883,22.79,2013-12-31 00:00:00,2014-02-28 00:00:00,107.00495875955038,3.0591594082802356,19.126572605818406,1.481697349561757
sh600727,2014-04-28,4.43,4.47,4.25,4.28,-0.042506,4510300.0,19798635.0,1501965880.0,1502222680.0,0.01285254495927697,22.58,2013-12-31 00:00:00,2014-02-28 00:00:00,106.01415050889423,3.03083324081161,18.94947085124269,1.467977630625927
sh600727,2014-04-25,4.69,4.73,4.44,4.47,-0.054967999999999996,8381011.0,38326853.0,1568641930.0,1568910130.0,0.023882518026277673,23.58,2013-12-31 00:00:00,2014-02-28 00:00:00,110.72043324437985,3.165380922294667,19.79069409442011,1.533145513837086
sh600727,2014-04-24,4.88,5.08,4.73,4.73,-0.046370999999999996,12453548.0,61088958.0,1659882850.0,1660166650.0,0.035487614104814685,24.95,2013-12-31 00:00:00,2014-02-28 00:00:00,117.1605122835839,3.349496019494226,20.94182429210875,1.622321269371922
sh600727,2014-04-23,4.84,5.18,4.73,4.96,0.024793,15302166.0,75466469.0,1740595970.0,1740893570.0,0.043605032223532035,26.17,2013-12-31 00:00:00,2014-02-28 00:00:00,122.85753923547196,3.512368037773837,21.960137844076414,1.7012079848367887
sh600727,2014-04-22,4.67,4.86,4.66,4.84,0.038627,13717291.0,65206787.0,1698484780.0,1698775180.0,0.039088774431054955,25.53,2013-12-31 00:00:00,2014-02-28 00:00:00,119.88522485562642,3.4273926907910544,21.428852308784716,1.6600503563517597
sh600727,2014-04-21,4.61,4.69,4.56,4.66,0.0043100000000000005,4103324.0,19083674.0,1635317990.0,1635597590.0,0.011692826689933253,24.58,2013-12-31 00:00:00,2014-02-28 00:00:00,115.42664003114345,3.2999264324835136,20.631903762163624,1.598312345386515
sh600727,2014-04-18,4.63,4.64,4.57,4.64,0.0,3258735.0,14967327.0,1628299460.0,1628577860.0,0.00928608697075905,24.48,2013-12-31 00:00:00,2014-02-28 00:00:00,114.93128618767459,3.285764786254756,20.54336187249318,1.5914531821713565
sh600727,2014-04-17,4.56,4.66,4.56,4.64,0.019780000000000002,4605451.0,21255868.0,1628299460.0,1628577860.0,0.013123687113425682,24.48,2013-12-31 00:00:00,2014-02-28 00:00:00,114.93128618767459,3.285764786254756,20.54336187249318,1.5914531821713565
sh600727,2014-04-16,4.51,4.58,4.5,4.55,0.0066370000000000005,2776181.0,12631373.0,1596716060.0,1596989060.0,0.007911001753185848,24.0,2013-12-31 00:00:00,2014-02-28 00:00:00,112.70203983964639,3.222032974028473,20.14489583291806,1.56058481453976
sh600727,2014-04-15,4.54,4.6,4.51,4.52,-0.004405,2577441.0,11728768.0,1586188260.0,1586459460.0,0.007344672516993663,23.84,2013-12-31 00:00:00,2014-02-28 00:00:00,111.95896816791593,3.20078933521068,20.01207568658619,1.5502955032844612
sh600727,2014-04-14,4.51,4.56,4.49,4.54,0.002208,1855546.0,8391584.0,1593206800.0,1593479200.0,0.005287561438979548,23.95,2013-12-31 00:00:00,2014-02-28 00:00:00,112.45432948931636,3.2149511952256487,20.100618912897502,1.557154770046516
sh600727,2014-04-11,4.51,4.55,4.49,4.53,-0.004396,2549098.0,11507635.0,1589697530.0,1589969330.0,0.00726390632311041,23.9,2013-12-31 00:00:00,2014-02-28 00:00:00,112.20657736649115,3.207868222191051,20.056334526263512,1.5537241471296537
sh600727,2014-04-10,4.53,4.56,4.47,4.55,0.004415,4183592.0,18855606.0,1596716060.0,1596989060.0,0.011921558301355094,24.0,2013-12-31 00:00:00,2014-02-28 00:00:00,112.70201542630518,3.2220322760766837,20.144891469161948,1.5605844764882961
sh600727,2014-04-09,4.51,4.53,4.48,4.53,0.004435000000000001,2356200.0,10632418.0,1589697530.0,1589969330.0,0.006714224434883534,23.9,2013-12-31 00:00:00,2014-02-28 00:00:00,112.20662318494365,3.207869532092495,20.056342716070496,1.553724781577631
sh600727,2014-04-08,4.46,4.53,4.46,4.51,0.015766,3424452.0,15400973.0,1582679000.0,1582949600.0,0.009758313922153513,23.79,2013-12-31 00:00:00,2014-02-28 00:00:00,111.71118408353318,3.1937054484287137,19.967785586992186,1.5468644377960055
sh600727,2014-04-04,4.36,4.47,4.35,4.44,0.018349,3186536.0,14139668.0,1558114140.0,1558380540.0,0.009080348786257726,23.42,2013-12-31 00:00:00,2014-02-28 00:00:00,109.97728225155517,3.144135015770083,19.657859769860565,1.5228551042228287
sh600727,2014-04-03,4.39,4.43,4.32,4.36,-0.006834000000000001,3148501.0,13783234.0,1530040010.0,1530301610.0,0.0089719643083059,23.0,2013-12-31 00:00:00,2014-02-28 00:00:00,107.99566970808159,3.087482793983284,19.303656968151945,1.4954157211553492
sh600727,2014-04-02,4.48,4.49,4.34,4.39,-0.017897,4014983.0,17797802.0,1540567800.0,1540831200.0,0.011441090336952387,23.16,2013-12-31 00:00:00,2014-02-28 00:00:00,108.73879060306292,3.108727840042132,19.43648591288057,1.5057057140048584
sh600727,2014-04-01,4.4,4.49,4.39,4.47,0.011312000000000001,2887591.0,12875984.0,1568641930.0,1568910130.0,0.00822847555145998,23.58,2013-12-31 00:00:00,2014-02-28 00:00:00,110.72035275634322,3.1653786212262176,19.790679707607627,1.5331443993194793
sh600727,2014-03-31,4.48,4.52,4.4,4.42,-0.013393,2955501.0,13173957.0,1551095600.0,1551360800.0,0.008421991797281871,23.32,2013-12-31 00:00:00,2014-02-28 00:00:00,109.48189357620913,3.1299723737345326,19.569311654175593,1.5159954586907691
sh600727,2014-03-28,4.56,4.64,4.47,4.48,-0.011038,5940913.0,27002300.0,1572151200.0,1572420000.0,0.016929217902196685,23.63,2013-12-31 00:00:00,2014-02-28 00:00:00,110.96808919479501,3.1724611458610497,19.834961290742505,1.536574805054869
sh600727,2014-03-27,4.67,4.68,4.52,4.53,-0.034115,6066803.0,27856287.0,1589697530.0,1589969330.0,0.017287953885164558,23.9,2013-12-31 00:00:00,2014-02-28 00:00:00,112.20662593183056,3.2078696106231073,20.056343207062056,1.5537248196137659
sh600727,2014-03-26,4.75,4.76,4.65,4.69,-0.014706,4615851.0,21744522.0,1645845790.0,1646127190.0,0.01315332294284995,24.74,2013-12-31 00:00:00,2014-02-28 00:00:00,116.16975719866295,3.3211713719781417,20.764732040628083,1.608602286621871
sh600727,2014-03-25,4.71,4.77,4.66,4.76,0.010616,6381148.0,30106365.0,1670410650.0,1670696250.0,0.018183710981488296,25.11,2013-12-31 00:00:00,2014-02-28 00:00:00,117.90364824982488,3.3707414964245617,21.07465593074563,1.6326114709131194
sh600727,2014-03-24,4.7,4.78,4.66,4.71,-0.0063289999999999996,5511820.0,26008559.0,1652864320.0,1653146920.0,0.015706475048115263,24.85,2013-12-31 00:00:00,2014-02-28 00:00:00,116.66513121682705,3.3353335949802516,20.853277536419007,1.615461729195975
sh600727,2014-03-21,4.64,4.83,4.53,4.74,0.010661,7165437.0,33371540.0,1663392120.0,1663676520.0,0.020418619862164554,25.01,2013-12-31 00:00:00,2014-02-28 00:00:00,117.40820776376391,3.3565773731750763,20.98609855416834,1.6257511079582427
sh600727,2014-03-20,4.9,4.93,4.68,4.69,-0.050607,7072213.0,34037956.0,1645845790.0,1646127190.0,0.020152968869580425,24.74,2013-12-31 00:00:00,2014-02-28 00:00:00,116.16972235375059,3.321170375798687,20.764725812283586,1.6086018041244718
sh600727,2014-03-19,4.92,4.97,4.77,4.94,-0.00202,9332658.0,45384666.0,1733577440.0,1733873840.0,0.02659433000004892,26.06,2013-12-31 00:00:00,2014-02-28 00:00:00,122.36210120966827,3.4982039848605235,21.871580907257147,1.6943476559490873
sh600727,2014-03-18,4.82,5.0,4.75,4.95,0.018519,11711959.0,57191317.0,1737086700.0,1737383700.0,0.03337438312664532,26.11,2013-12-31 00:00:00,2014-02-28 00:00:00,122.60977295102936,3.505284659873468,21.915850926127927,1.697777165824052
sh600727,2014-03-17,4.85,4.87,4.71,4.86,-0.006135,8051209.0,38678334.0,1705503310.0,1705794910.0,0.022942714628915027,25.64,2013-12-31 00:00:00,2014-02-28 00:00:00,120.38044744479912,3.4415505845973104,21.51737073744125,1.6669077020890646
sh600727,2014-03-14,4.78,5.02,4.67,4.89,0.016632,12266635.0,59642941.0,1716031110.0,1716324510.0,0.03495498700486846,25.8,2013-12-31 00:00:00,2014-02-28 00:00:00,121.12354036493801,3.4627948308847887,21.650194681814185,1.6771973075710127
sh600727,2014-03-13,4.81,4.85,4.73,4.81,-0.018366999999999998,10776190.0,51686672.0,1687956980.0,1688245580.0,0.03070781691367513,25.37,2013-12-31 00:00:00,2014-02-28 00:00:00,119.1419711015766,3.4061438464309495,21.295999616197587,1.6497585238031194
sh600727,2014-03-12,5.2,5.28,4.82,4.9,-0.08582100000000001,19833970.0,98047041.0,1719540370.0,1719834370.0,0.05651885509381789,25.85,2013-12-31 00:00:00,2014-02-28 00:00:00,121.37119585586122,3.4698750413147783,21.69446179600481,1.6806265924262118
sh600727,2014-03-11,5.61,5.61,5.17,5.36,0.050980000000000004,34136634.0,184553452.0,1880966610.0,1881288210.0,0.09727570774900679,28.28,2013-12-31 00:00:00,2014-02-28 00:00:00,132.76524166039826,3.795618846325259,23.73108745224383,1.8383999112058054
sh600727,2014-03-10,5.1,5.1,5.1,5.1,0.099138,730629.0,3726208.0,1789725700.0,1790031700.0,0.002081999437120448,26.9,2013-12-31 00:00:00,2014-02-28 00:00:00,126.32518379074604,3.6115043543409566,22.579961038501047,1.7492244488056912
sh600727,2013-10-08,4.63,4.7,4.56,4.64,0.008695999999999999,5549983.0,25747728.0,1628299460.0,1628577860.0,0.015815224258564818,24.48,2013-06-30 00:00:00,2013-08-08 00:00:00,166.63684373826436,2.423294379888743,33.129862653186045,1.5944040966166941
sh600727,2013-09-30,4.5,4.63,4.5,4.6,0.019956,5834502.0,26704104.0,1614262390.0,1614538390.0,0.016625989285422176,24.27,2013-06-30 00:00:00,2013-08-08 00:00:00,165.20026225767165,2.4024030826817424,32.84424906333131,1.5806586886601057
sh600727,2013-09-27,4.42,4.53,4.39,4.51,0.020362,3976503.0,17779295.0,1582679000.0,1582949600.0,0.011331437726791092,23.79,2013-06-30 00:00:00,2013-08-08 00:00:00,161.96802828521191,2.3553987453201333,32.20163326979919,1.5497322322336506
sh600727,2013-09-26,4.51,4.55,4.4,4.42,-0.022124,3525035.0,15709757.0,1551095600.0,1551360800.0,0.010044935141328492,23.32,2013-06-30 00:00:00,2013-08-08 00:00:00,158.73584892931328,2.3083952022126795,31.559028334845085,1.518806298385917
sh600727,2013-09-25,4.56,4.6,4.51,4.52,-0.008772,5059001.0,23013530.0,1586188260.0,1586459460.0,0.014416122661253337,23.84,2013-06-30 00:00:00,2013-08-08 00:00:00,162.32717535690952,2.3606215943664424,32.273037005556,1.5531686005034553
sh600727,2013-09-24,4.56,4.59,4.49,4.56,-0.012987,6894282.0,31285665.0,1600225330.0,1600498930.0,0.019645936938143576,24.06,2013-06-30 00:00:00,2013-08-08 00:00:00,163.7637106265254,2.381512219556391,32.55864140798686,1.566913566307101
sh600727,2013-09-23,4.48,4.65,4.45,4.62,0.0043479999999999994,14417363.0,65272910.0,1621280920.0,1621558120.0,0.04108369884473815,24.37,2013-06-30 00:00:00,2013-08-08 00:00:00,165.91849410952582,2.412847874907819,32.98704415036769,1.5875308291857364
sh600727,2013-09-18,4.35,4.72,4.35,4.6,0.072261,26449817.0,122010618.0,1614262390.0,1614538390.0,0.07537136400730986,24.27,2013-06-30 00:00:00,2013-08-08 00:00:00,165.20020362416793,2.402402230011728,32.84423740612585,1.5806581276467282
sh600727,2013-09-17,4.46,4.48,4.28,4.29,-0.038117000000000005,3282896.0,14294147.0,1505475140.0,1505732540.0,0.009354936169852663,22.63,2013-06-30 00:00:00,2013-08-08 00:00:00,154.06715680619547,2.240501361153421,30.630823471268524,1.4741356140405446
sh600727,2013-09-16,4.5,4.5,4.43,4.46,0.002247,2073730.0,9232683.0,1565132670.0,1565400270.0,0.005909298283320609,23.53,2013-06-30 00:00:00,2013-08-08 00:00:00,160.1724500861284,2.3292867855585557,31.84464583662308,1.5325518946072905
sh600727,2013-09-13,4.5,4.56,4.42,4.45,-0.011111,3633384.0,16253789.0,1561623400.0,1561890400.0,0.01035368629850193,23.48,2013-06-30 00:00:00,2013-08-08 00:00:00,159.81334948982473,2.32406461237455,31.773251340860163,1.5291159710204074
sh600727,2013-09-12,4.47,4.52,4.44,4.5,0.006711,2586926.0,11618199.0,1579169730.0,1579439730.0,0.00737170095072681,23.74,2013-06-30 00:00:00,2013-08-08 00:00:00,161.60898694375683,2.350177433841968,32.13025055477426,1.5462968756052575
sh600727,2013-09-11,4.48,4.56,4.45,4.47,-0.002232,4721522.0,21203907.0,1568641930.0,1568910130.0,0.01345444293969625,23.58,2013-06-30 00:00:00,2013-08-08 00:00:00,160.53165898033978,2.3345105336506387,31.91606186360759,1.5359888544033566
sh600727,2013-09-10,4.43,4.51,4.4,4.48,0.011287,5397963.0,24020291.0,1572151200.0,1572420000.0,0.015382028293461851,23.63,2013-06-30 00:00:00,2013-08-08 00:00:00,160.89076717266917,2.33973281729885,31.987457869572477,1.5394248506700523
sh600727,2013-09-09,4.36,4.44,4.36,4.43,0.011415999999999999,3968647.0,17486869.0,1554604870.0,1554870670.0,0.01130905128966951,23.37,2013-06-30 00:00:00,2013-08-08 00:00:00,159.09506121671606,2.313618999649802,31.630445036446105,1.5222432906485024
sh600727,2013-09-06,4.38,4.4,4.33,4.38,-0.002278,2538454.0,11091701.0,1537058540.0,1537321340.0,0.007233575189660635,23.11,2013-06-30 00:00:00,2013-08-08 00:00:00,157.29933204212318,2.28750484434674,31.273427587111637,1.5050615084678336
sh600727,2013-09-05,4.44,4.47,4.37,4.39,-0.015694999999999997,3874721.0,17110177.0,1540567800.0,1540831200.0,0.011041399924105903,23.16,2013-06-30 00:00:00,2013-08-08 00:00:00,157.65847805513278,2.292727677997217,31.34483111238565,1.5084978666079663
sh600727,2013-09-04,4.45,4.47,4.38,4.46,0.011337999999999999,3322710.0,14706026.0,1565132670.0,1565400270.0,0.009468390050282447,23.53,2013-06-30 00:00:00,2013-08-08 00:00:00,160.1723836159857,2.3292858189252494,31.844632621378185,1.5325512586118801
sh600727,2013-09-03,4.38,4.44,4.37,4.41,0.009153,4580480.0,20182109.0,1547586340.0,1547850940.0,0.013052529786480282,23.26,2013-06-30 00:00:00,2013-08-08 00:00:00,158.3767084950686,2.3031724496906567,31.48762591871183,1.5153699936241691
sh600727,2013-09-02,4.35,4.38,4.25,4.37,0.009238,4459708.0,19285574.0,1533549270.0,1533811470.0,0.012708378101213533,23.05,2013-06-30 00:00:00,2013-08-08 00:00:00,156.94023452842987,2.2822827159911894,31.20203370421713,1.5016256143757876
sh600727,2013-08-30,4.32,4.4,4.28,4.33,0.002315,7921048.0,34492808.0,1519512210.0,1519772010.0,0.02257180798830172,22.84,2013-06-30 00:00:00,2013-08-08 00:00:00,155.50369142702698,2.2613919769085085,30.916427744711484,1.4878805736365333
sh600727,2013-08-29,4.32,4.34,4.27,4.32,0.006993000000000001,3208817.0,13811621.0,1516002940.0,1516262140.0,0.009143840736878784,22.79,2013-06-30 00:00:00,2013-08-08 00:00:00,155.14453183582702,2.2561689457989833,30.845021519892924,1.484444085578419
sh600727,2013-08-28,4.32,4.34,4.25,4.29,-0.018307,4236675.0,18230295.0,1505475140.0,1505732540.0,0.012072823567182917,22.63,2013-06-30 00:00:00,2013-08-08 00:00:00,154.06714032354446,2.240501121456637,30.630820194274364,1.474135456332287
sh600727,2013-08-27,4.31,4.37,4.25,4.37,0.011574,5559595.0,23986017.0,1533549270.0,1533811470.0,0.015842614662129505,23.05,2013-06-30 00:00:00,2013-08-08 00:00:00,156.9402453960092,2.2822828740315324,31.202035864852213,1.501625718358272
sh600727,2013-08-26,4.26,4.32,4.21,4.32,0.016471,5363749.0,22850431.0,1516002940.0,1516262140.0,0.015284532152688308,22.79,2013-06-30 00:00:00,2013-08-08 00:00:00,155.14460177506461,2.256169962881146,30.845035424845058,1.4844447547666033
sh600727,2013-08-23,4.31,4.37,4.18,4.25,-0.011628,4214857.0,18038197.0,1491438080.0,1491693080.0,0.012010650988608257,22.42,2013-06-30 00:00:00,2013-08-08 00:00:00,152.63062278713767,2.219610754149549,30.345219317467055,1.4603906602024095
sh600727,2013-08-22,4.28,4.37,4.26,4.3,0.004673,4448331.0,19133613.0,1508984410.0,1509242410.0,0.012675958196281166,22.68,2013-06-30 00:00:00,2013-08-08 00:00:00,154.42629170710794,2.2457240332076878,30.70222478729371,1.4775718658586134
sh600727,2013-08-21,4.28,4.34,4.21,4.28,-0.004651,4588667.0,19554713.0,1501965880.0,1502222680.0,0.013075859459603703,22.58,2013-06-30 00:00:00,2013-08-08 00:00:00,153.70801415695252,2.235278576420077,30.559420614760935,1.4706992880853906
sh600727,2013-08-20,4.28,4.45,4.25,4.3,0.021378,8717081.0,37826557.0,1508984410.0,1509242410.0,0.024840182609971433,22.68,2013-06-30 00:00:00,2013-08-08 00:00:00,154.4262506487197,2.245723436121478,30.702216624280464,1.4775714730063432
sh600727,2013-08-19,4.18,4.24,4.13,4.21,0.0,3485575.0,14593582.0,1477401020.0,1477653620.0,0.009932489927480895,22.21,2013-06-30 00:00:00,2013-08-08 00:00:00,151.19402478682693,2.1987192167067215,30.059602443248693,1.4466450941829012
sh600727,2013-08-16,4.4,4.42,4.2,4.21,-0.038813,8446850.0,36544654.0,1477401020.0,1477653620.0,0.024070132630611016,22.21,2013-06-30 00:00:00,2013-08-08 00:00:00,151.19402478682693,2.1987192167067215,30.059602443248693,1.4466450941829012
sh600727,2013-08-15,4.26,4.41,4.23,4.38,0.028169,10269779.0,44350814.0,1537058540.0,1537321340.0,0.029264748771377306,23.11,2013-06-30 00:00:00,2013-08-08 00:00:00,157.2992818117879,2.287504113878696,31.27341760058001,1.50506102785712
sh600727,2013-08-14,4.24,4.33,4.19,4.26,0.007092,5612136.0,23857926.0,1494947350.0,1495202950.0,0.015992335355489273,22.47,2013-06-30 00:00:00,2013-08-08 00:00:00,152.98971454283085,2.22483279877014,30.416612055586203,1.4638264992011232
sh600727,2013-08-13,4.21,4.27,4.19,4.23,0.00237,4492972.0,18994481.0,1484419550.0,1484673350.0,0.012803167109999326,22.31,2013-06-30 00:00:00,2013-08-08 00:00:00,151.91235214144373,2.2091653977691608,30.202416517643073,1.4535181484920177
sh600727,2013-08-12,4.18,4.23,4.14,4.22,0.016867,3906867.0,16366180.0,1480910280.0,1481163480.0,0.011133003101308743,22.26,2013-06-30 00:00:00,2013-08-08 00:00:00,151.5531711258754,2.203942055098577,30.13100603334405,1.4500814554426187
sh600727,2013-08-09,4.18,4.18,4.1,4.15,0.0,2724119.0,11280448.0,1456345420.0,1456594420.0,0.007762645931897119,21.89,2013-06-30 00:00:00,2013-08-08 00:00:00,149.039324833902,2.1673847760804286,29.631216307879054,1.426028630531445
sh600727,2013-08-08,4.25,4.25,4.13,4.15,-0.014252,3745531.0,15602212.0,1456345420.0,1456594420.0,0.01067326022833237,21.89,2013-06-30 00:00:00,2013-08-08 00:00:00,149.039324833902,2.1673847760804286,29.631216307879054,1.426028630531445
sh600727,2013-08-07,4.3,4.34,4.19,4.21,-0.025463,2611362.0,11106570.0,1477401020.0,1477653620.0,0.0074413337145252546,22.21,2013-03-31 00:00:00,2013-04-23 00:00:00,86.58671042847612,1.8388706827479187,45.89176823620928,1.4564833574015372
sh600727,2013-08-06,4.35,4.4,4.3,4.32,0.004651,4269098.0,18565471.0,1516002940.0,1516262140.0,0.012165216091203624,22.79,2013-03-31 00:00:00,2013-04-23 00:00:00,88.84907441018261,1.8869172568593275,47.09084235509712,1.4945387988363061
sh600727,2013-08-05,4.18,4.43,4.17,4.3,0.023809999999999998,3575194.0,15275868.0,1508984410.0,1509242410.0,0.010187868143713957,22.68,2013-03-31 00:00:00,2013-04-23 00:00:00,88.4377504329191,1.8781818331533315,46.872836791181335,1.4876198787800998
sh600727,2013-08-02,4.23,4.24,4.18,4.2,-0.004739,1090191.0,4576933.0,1473891750.0,1474143750.0,0.003106606845448453,22.16,2013-03-31 00:00:00,2013-04-23 00:00:00,86.38101838516823,1.8345023326137968,45.78274952499128,1.4530233918208453
sh600727,2013-08-01,4.16,4.23,4.13,4.22,0.021792,1919698.0,8050482.0,1480910280.0,1481163480.0,0.005470368913908816,22.26,2013-03-31 00:00:00,2013-04-23 00:00:00,86.79232722388222,1.8432374348173965,46.00074706533391,1.4599420572300588
sh600727,2013-07-31,4.18,4.21,4.12,4.13,-0.0072120000000000005,1638700.0,6809196.0,1449326890.0,1449574690.0,0.004669637365246152,21.79,2013-03-31 00:00:00,2013-04-23 00:00:00,84.94128670402803,1.8039262734660246,45.019678237189076,1.4288055271817146
sh600727,2013-07-30,4.22,4.25,4.15,4.16,-0.011876000000000001,2564278.0,10771913.0,1459854690.0,1460104290.0,0.007307163208140941,21.95,2013-03-31 00:00:00,2013-04-23 00:00:00,85.55833340454159,1.8170306988662481,45.346718772979806,1.4391849288888612
sh600727,2013-07-29,4.26,4.31,4.17,4.21,-0.011737000000000001,2938108.0,12474626.0,1477401020.0,1477653620.0,0.00837242868561171,22.21,2013-03-31 00:00:00,2013-04-23 00:00:00,86.58663629720722,1.8388691083975777,45.891728945941814,1.4564821104323558
sh600727,2013-07-26,4.3,4.34,4.24,4.26,-0.013888999999999999,3259201.0,13969377.0,1494947350.0,1495202950.0,0.009287414877855062,22.47,2013-03-31 00:00:00,2013-04-23 00:00:00,87.61497323810282,1.8607082410224582,46.43675716478489,1.4737798647043912
sh600727,2013-07-25,4.37,4.4,4.3,4.32,-0.018182,8130427.0,35328994.0,1516002940.0,1516262140.0,0.02316845417199521,22.79,2013-03-31 00:00:00,2013-04-23 00:00:00,88.84899695683633,1.8869156119569281,47.0908013040975,1.4945374959861428
sh600727,2013-07-24,4.19,4.43,4.15,4.4,0.055156,14069106.0,61064624.0,1544077070.0,1544341070.0,0.04009130606414614,23.21,2013-03-31 00:00:00,2013-04-23 00:00:00,90.49436551054914,1.9218588495596212,47.9628620621108,1.5222143981737377
sh600727,2013-07-23,4.13,4.22,4.09,4.17,0.009685,1739578.0,7271634.0,1463363950.0,1463614150.0,0.004957099195999738,22.0,2013-03-31 00:00:00,2013-04-23 00:00:00,85.76396808675602,1.8213978308038066,45.45570708228054,1.4426439295931006
sh600727,2013-07-22,4.03,4.15,4.03,4.13,0.00978,1091683.0,4473483.0,1449326890.0,1449574690.0,0.003110858441327891,21.79,2013-03-31 00:00:00,2013-04-23 00:00:00,84.94131148502358,1.8039267997482449,45.019691371349026,1.4288059440252165
sh600727,2013-07-19,4.21,4.26,4.07,4.09,-0.033097,3155176.0,13137573.0,1435289820.0,1435535220.0,0.008990985416450594,21.58,2013-03-31 00:00:00,2013-04-23 00:00:00,84.11863127119133,1.7864552672346896,44.58366314578327,1.414967561275938
sh600727,2013-07-18,4.17,4.27,4.13,4.23,0.019277000000000002,3996708.0,16808370.0,1484419550.0,1484673350.0,0.01138901386740696,22.31,2013-03-31 00:00:00,2013-04-23 00:00:00,86.99800421675322,1.8476054653203993,46.10975779967926,1.4634017696459087
sh600727,2013-07-17,4.28,4.28,4.14,4.15,-0.004796,1618250.0,6757506.0,1456345420.0,1456594420.0,0.004611363078959661,21.89,2013-03-31 00:00:00,2013-04-23 00:00:00,85.35266097121118,1.8126627651957212,45.23771045523372,1.4357252931694806
sh600727,2013-07-16,4.1,4.19,4.06,4.17,0.022059,2064095.0,8548319.0,1463363950.0,1463614150.0,0.005881842415210516,22.0,2013-03-31 00:00:00,2013-04-23 00:00:00,85.7639850434797,1.8213981909193706,45.455716069503055,1.4426442148237755
sh600727,2013-07-15,4.01,4.18,4.0,4.08,0.02,3082528.0,12599555.0,1431780560.0,1432025360.0,0.00878396773315598,21.52,2013-03-31 00:00:00,2013-04-23 00:00:00,83.91294929498171,1.7820871308988724,44.47464977022173,1.4115077650348713
sh600727,2013-07-12,3.98,4.08,3.94,4.0,0.005025,4024428.0,16240147.0,1403706430.0,1403946430.0,0.011468004745123238,21.1,2013-03-31 00:00:00,2013-04-23 00:00:00,82.26759734802128,1.7471442459792865,43.60259781394287,1.3838311421910503
sh600727,2013-07-11,3.84,4.04,3.84,3.98,0.033766000000000004,2860025.0,11312198.0,1396687900.0,1396926700.0,0.008149923472523819,21.0,2013-03-31 00:00:00,2013-04-23 00:00:00,81.85626959331486,1.7384087420504828,43.38459024794694,1.3769121585941146
sh600727,2013-07-10,3.79,3.86,3.75,3.85,0.02122,1352549.0,5147354.0,1351067440.0,1351298440.0,0.003854221851427343,20.31,2013-03-31 00:00:00,2013-04-23 00:00:00,79.18259025090288,1.6816269272257771,41.96751513199983,1.3319379420430877
sh600727,2013-07-09,3.71,3.8,3.66,3.77,0.018919,1880459.0,7025656.0,1322993310.0,1323219510.0,0.005358553498656769,19.89,2013-03-31 00:00:00,2013-04-23 00:00:00,77.53724980993603,1.6466842866627927,41.09546927400543,1.304261512742688
sh600727,2013-07-08,3.91,3.91,3.68,3.7,-0.063291,2816935.0,10674063.0,1298428450.0,1298650450.0,0.008027134263732437,19.52,2013-03-31 00:00:00,2013-04-23 00:00:00,76.09756007095368,1.6161091182545353,40.33242021594007,1.2800443536166153
sh600727,2013-07-05,3.92,4.03,3.88,3.95,0.007653,3026863.0,11994345.0,1386160100.0,1386397100.0,0.008625344828494199,20.84,2013-03-31 00:00:00,2013-04-23 00:00:00,81.23927502666642,1.725305423834441,43.057577343593444,1.3665336338357112
sh600727,2013-07-04,3.89,3.98,3.84,3.92,0.002558,2426320.0,9484628.0,1375632300.0,1375867500.0,0.006914038293517825,20.68,2013-03-31 00:00:00,2013-04-23 00:00:00,80.62227277313363,1.7122019423694874,42.73056036511919,1.3561549797754897
sh600727,2013-07-03,4.01,4.02,3.86,3.91,-0.027363,2812943.0,11009153.0,1372123030.0,1372357630.0,0.008015758710791408,20.63,2013-03-31 00:00:00,2013-04-23 00:00:00,80.41656719425073,1.7078333047758705,42.62153447991955,1.3526947865115928
sh600727,2013-07-02,4.01,4.04,3.9,4.02,-0.0024809999999999997,1775396.0,7098111.0,1410724960.0,1410966160.0,0.005059166118390647,21.21,2013-03-31 00:00:00,2013-04-23 00:00:00,82.67891021444869,1.755879433720772,43.82059748901137,1.3907498753508172
sh600727,2013-07-01,3.98,4.05,3.95,4.03,0.020253,1436352.0,5752315.0,1414234230.0,1414476030.0,0.004093026768274447,21.26,2013-03-31 00:00:00,2013-04-23 00:00:00,82.88454677499746,1.7602466055491393,43.9295867938469,1.3942089076506985
sh600727,2013-06-28,3.93,4.05,3.9,3.95,0.0,1820223.0,7221546.0,1386160100.0,1386397100.0,0.005186905069623632,20.84,2013-03-31 00:00:00,2013-04-23 00:00:00,81.23920907362924,1.7253040231679195,43.05754238786546,1.36653252443335
sh600727,2013-06-27,4.05,4.09,3.9,3.95,-0.024691,3142540.0,12565324.0,1386160100.0,1386397100.0,0.008954977855732538,20.84,2013-03-31 00:00:00,2013-04-23 00:00:00,81.23920907362924,1.7253040231679195,43.05754238786546,1.36653252443335
sh600727,2013-06-26,3.97,4.11,3.97,4.05,0.0,3007286.0,12186203.0,1421252760.0,1421495760.0,0.008569558239591386,21.37,2013-03-31 00:00:00,2013-04-23 00:00:00,83.29586733397235,1.7689819566598068,44.14759054603768,1.4011277702075444
sh600727,2013-06-25,4.05,4.2,3.73,4.05,-0.021738999999999998,4699230.0,18605231.0,1421252760.0,1421495760.0,0.013390919641908031,21.37,2013-03-31 00:00:00,2013-04-23 00:00:00,83.29586733397235,1.7689819566598068,44.14759054603768,1.4011277702075444
sh600727,2013-06-24,4.55,4.69,4.14,4.14,-0.1,6343733.0,27568912.0,1452836150.0,1453084550.0,0.01807709329093993,21.84,2013-03-31 00:00:00,2013-04-23 00:00:00,85.14687525514393,1.8082924257021455,45.12864209657512,1.432263751910323
sh600727,2013-06-21,4.46,4.71,4.37,4.6,0.010989,4456100.0,20267659.0,1614262390.0,1614538390.0,0.012698096744978366,24.27,2013-03-31 00:00:00,2013-04-23 00:00:00,94.60763917238214,2.0092138063357172,50.14293566286125,1.5914041687892477
sh600727,2013-06-20,4.73,4.77,4.54,4.55,-0.050104,4798028.0,22277215.0,1596716060.0,1596989060.0,0.013672454324784582,24.0,2013-03-31 00:00:00,2013-04-23 00:00:00,93.57929628550076,1.9873745474339655,49.59790429258997,1.5741063144992156
sh600727,2013-06-19,4.77,4.8,4.62,4.79,-0.004158,5279928.0,24914848.0,1680938450.0,1681225850.0,0.015045675896104347,25.27,2013-03-31 00:00:00,2013-04-23 00:00:00,98.51530723942491,2.092202248913529,52.21403637091848,1.6571354279828694
sh600727,2013-06-18,4.68,4.84,4.62,4.81,0.012631999999999999,8893316.0,42257659.0,1687956980.0,1688245580.0,0.025342381628707146,25.37,2013-03-31 00:00:00,2013-04-23 00:00:00,98.92664422611712,2.1009379489050763,52.43204882995342,1.664054566871923
sh600727,2013-06-17,4.55,4.78,4.43,4.75,0.039387,10497113.0,48817816.0,1666901380.0,1667186380.0,0.029912559524067347,25.06,2013-03-31 00:00:00,2013-04-23 00:00:00,97.69259141140819,2.0747299600497278,51.77798926950108,1.6432964461639794
sh600727,2013-06-14,4.61,4.65,4.47,4.57,-0.023504,8111403.0,36986431.0,1603734590.0,1604008790.0,0.023114243429768516,24.11,2013-03-31 00:00:00,2013-04-23 00:00:00,93.99058426881247,1.996109206724471,49.81589077937388,1.581024629097708
sh600727,2013-06-13,4.44,4.79,4.44,4.68,0.063636,17620537.0,81133159.0,1642336520.0,1642617320.0,0.0502114591959509,24.69,2013-03-31 00:00:00,2013-04-23 00:00:00,96.2529127296092,2.0441550264665405,51.01494607184656,1.6190794730318483
sh600727,2013-06-07,4.43,4.46,4.35,4.4,-0.009009,1852339.0,8150632.0,1544077070.0,1544341070.0,0.005278422792717206,23.21,2013-03-31 00:00:00,2013-04-23 00:00:00,90.49422239338384,1.921855810132922,47.96278620867154,1.522211990786179
sh600727,2013-06-06,4.54,4.54,4.43,4.44,-0.022026,1876637.0,8394678.0,1558114140.0,1558380540.0,0.005347662322094067,23.42,2013-03-31 00:00:00,2013-04-23 00:00:00,91.316896312261,1.9393272089584286,48.39881109785209,1.5360502676474148
sh600727,2013-06-05,4.51,4.54,4.49,4.54,0.008889,1357886.0,6126478.0,1593206800.0,1593479200.0,0.0038694301580937266,23.95,2013-03-31 00:00:00,2013-04-23 00:00:00,93.37354194718979,1.9830048743202053,49.488852564436364,1.5706453010483048
sh600727,2013-06-04,4.58,4.58,4.47,4.5,-0.017467,2202343.0,9949241.0,1579169730.0,1579439730.0,0.006275793736243918,23.74,2013-03-31 00:00:00,2013-04-23 00:00:00,92.55085737597476,1.9655332492674669,49.05282202941688,1.5568068450030725
sh600727,2013-06-03,4.54,4.62,4.51,4.58,0.004386,2254011.0,10266274.0,1607243860.0,1607518660.0,0.006423026795697325,24.16,2013-03-31 00:00:00,2013-04-23 00:00:00,94.19618208851485,2.0004755558006364,49.92485955119765,1.5844830097340978
sh600727,2013-05-31,4.57,4.59,4.54,4.56,-0.002188,2223282.0,10161357.0,1600225330.0,1600498930.0,0.006335461469041987,24.06,2013-03-31 00:00:00,2013-04-23 00:00:00,93.78484177250067,1.9917397851031744,49.70684532759084,1.5775638148422002
sh600727,2013-05-30,4.59,4.6,4.54,4.57,-0.006522,2362455.0,10803067.0,1603734590.0,1604008790.0,0.006732048692670525,24.11,2013-03-31 00:00:00,2013-04-23 00:00:00,93.99049297112148,1.9961072678051317,49.81584239074178,1.5810230933704947
sh600727,2013-05-29,4.57,4.61,4.5,4.6,0.0065650000000000005,3753375.0,17109221.0,1614262390.0,1614538390.0,0.010695612502004707,24.27,2013-03-31 00:00:00,2013-04-23 00:00:00,94.60752323767761,2.0092113441919515,50.14287421638101,1.5914022186404677
sh600727,2013-05-28,4.47,4.61,4.46,4.57,0.022371000000000002,4928154.0,22356809.0,1603734590.0,1604008790.0,0.014043261223167857,24.11,2013-03-31 00:00:00,2013-04-23 00:00:00,93.9904757642851,1.9961069023778415,49.815833270957185,1.5810228039326502
sh600727,2013-05-27,4.43,4.49,4.41,4.47,0.006756999999999999,2081292.0,9283279.0,1568641930.0,1568910130.0,0.005930846971558385,23.58,2013-03-31 00:00:00,2013-04-23 00:00:00,91.93382418347656,1.952429110741445,48.72578865300092,1.5464276705155473
sh600727,2013-05-24,4.39,4.46,4.37,4.44,0.013699000000000001,2037324.0,8987401.0,1558114140.0,1558380540.0,0.005805555785534428,23.42,2013-03-31 00:00:00,2013-04-23 00:00:00,91.3167965889252,1.9393250911008766,48.39875824354926,1.5360485901916228
sh600727,2013-05-23,4.45,4.47,4.35,4.38,-0.011287,2813215.0,12405080.0,1537058540.0,1537321340.0,0.00801653377495954,23.11,2013-03-31 00:00:00,2013-04-23 00:00:00,90.08275295617851,1.913117297245905,47.744703549622976,1.515290623934346
sh600727,2013-05-22,4.48,4.5,4.42,4.43,-0.013363,2825612.0,12579687.0,1554604870.0,1554870670.0,0.008051860251795042,23.37,2013-03-31 00:00:00,2013-04-23 00:00:00,91.11112421519545,1.9349571586961085,48.28974995739207,1.5325889554747905
sh600727,2013-05-21,4.45,4.5,4.42,4.49,0.0044740000000000005,3373567.0,15067761.0,1575660470.0,1575929870.0,0.009613312079854362,23.69,2013-03-31 00:00:00,2013-04-23 00:00:00,92.34513221701135,1.9611641958451875,48.94378576659102,1.5533463223807644
sh600727,2013-05-20,4.43,4.48,4.39,4.47,0.006756999999999999,3868042.0,17174364.0,1568641930.0,1568910130.0,0.011022367443665106,23.58,2013-03-31 00:00:00,2013-04-23 00:00:00,91.93382030496693,1.9524290283722499,48.72578659735445,1.546427605274765
sh600727,2013-05-17,4.34,4.48,4.34,4.44,0.013699000000000001,4826325.0,21362976.0,1558114140.0,1558380540.0,0.013753089359679388,23.42,2013-03-31 00:00:00,2013-04-23 00:00:00,91.31679273644677,1.9393250092845145,48.39875620169957,1.5360485253887135
sh600727,2013-05-16,4.25,4.42,4.23,4.38,0.030588,6465791.0,28148356.0,1537058540.0,1537321340.0,0.01842490955484363,23.11,2013-03-31 00:00:00,2013-04-23 00:00:00,90.082749155762,1.9131172165351993,47.744701535366595,1.5152905600071755
sh600727,2013-05-15,4.23,4.28,4.23,4.25,0.004728,1272761.0,5407776.0,1491438080.0,1491693080.0,0.003626858079150024,22.42,2013-03-31 00:00:00,2013-04-23 00:00:00,87.40908021028966,1.8563356225137486,46.32763192989497,1.4703165183440672
sh600727,2013-05-14,4.32,4.32,4.21,4.23,-0.020833,1550867.0,6592023.0,1484419550.0,1484673350.0,0.004419348566245978,22.31,2013-03-31 00:00:00,2013-04-23 00:00:00,86.9977548254748,1.8476001689151178,46.10962561996377,1.4633975746113048
sh600727,2013-05-13,4.32,4.34,4.26,4.32,0.0,1557510.0,6688312.0,1516002940.0,1516262140.0,0.004438278464024615,22.79,2013-03-31 00:00:00,2013-04-23 00:00:00,88.8487406392115,1.886910168454531,47.09066545335349,1.4945331844428016
sh600727,2013-05-10,4.24,4.34,4.24,4.32,0.01171,1920249.0,8229822.0,1516002940.0,1516262140.0,0.005471939045184174,22.79,2013-03-31 00:00:00,2013-04-23 00:00:00,88.8487406392115,1.886910168454531,47.09066545335349,1.4945331844428016
sh600727,2013-05-09,4.29,4.32,4.23,4.27,-0.011574,2026569.0,8641927.0,1498456610.0,1498712810.0,0.005774908377226885,22.53,2013-03-31 00:00:00,2013-04-23 00:00:00,87.82036417472546,1.8650701964540537,46.545616286636964,1.4772347653406623
sh600727,2013-05-08,4.33,4.35,4.27,4.32,0.0,1356262.0,5837582.0,1516002940.0,1516262140.0,0.0038648024257789374,22.79,2013-03-31 00:00:00,2013-04-23 00:00:00,88.84869901714994,1.886909284513007,47.09064339327067,1.4945324843141137
sh600727,2013-05-07,4.3,4.33,4.26,4.32,0.006993000000000001,1879859.0,8077747.0,1516002940.0,1516262140.0,0.005356843753878209,22.79,2013-03-31 00:00:00,2013-04-23 00:00:00,88.84869901714994,1.886909284513007,47.09064339327067,1.4945324843141137
sh600727,2013-05-06,4.28,4.32,4.26,4.29,0.004684000000000001,1903863.0,8149188.0,1505475140.0,1505732540.0,0.005425245527468491,22.63,2013-03-31 00:00:00,2013-04-23 00:00:00,88.23169477558427,1.87380576082754,46.763625361120354,1.4841537968130003
sh600727,2013-05-03,4.22,4.32,4.22,4.27,0.009456,1078057.0,4617625.0,1498456610.0,1498712810.0,0.0030720298200693306,22.53,2013-03-31 00:00:00,2013-04-23 00:00:00,87.82034428296289,1.865069774006096,46.54560574381633,1.4772344307394172
sh600727,2013-05-02,4.18,4.27,4.18,4.23,0.007143000000000001,970999.0,4108714.0,1484419550.0,1484673350.0,0.0027669574750615487,22.31,2013-03-31 00:00:00,2013-04-23 00:00:00,86.9976940876699,1.8475988790062134,46.10959342835778,1.4633965529348654
sh600727,2013-04-26,4.21,4.28,4.16,4.2,-0.014085,1259433.0,5316731.0,1473891750.0,1474143750.0,0.0035888786269412257,22.16,2013-03-31 00:00:00,2013-04-23 00:00:00,86.38067691248402,1.834495080645165,45.78256854126751,1.4530176478760866
sh600727,2013-04-25,4.3,4.34,4.24,4.26,-0.009302,2314864.0,9933836.0,1494947350.0,1495202950.0,0.006596433406166445,22.47,2013-03-31 00:00:00,2013-04-23 00:00:00,87.61473039002756,1.860703083577352,46.43662845302841,1.4737757797336346
sh600727,2013-04-24,4.36,4.39,4.22,4.3,-0.013761,3627181.0,15549903.0,1508984410.0,1509242410.0,0.010336010230881047,22.68,2013-03-31 00:00:00,2013-04-23 00:00:00,88.43737485089054,1.8781738567932427,46.87263772918529,1.4876135610787895
sh600727,2013-04-23,4.56,4.58,4.35,4.36,-0.048035,2184771.0,9706899.0,1530040010.0,1530301610.0,0.00622572056792162,23.0,2013-03-31 00:00:00,2013-04-23 00:00:00,89.67134219077784,1.9043800303914595,47.52665198718089,1.5083702440065638
sh600727,2013-04-22,4.55,4.62,4.55,4.58,0.0,1499836.0,6870164.0,1607243860.0,1607518660.0,0.004273930702712406,24.16,2012-12-31 00:00:00,2013-03-27 00:00:00,86.73917739315966,1.9023505003277676,16.96554678567344,1.5916783909993117
sh600727,2013-04-19,4.51,4.59,4.5,4.58,0.017778,1898556.0,8626240.0,1607243860.0,1607518660.0,0.00541012269289366,24.16,2012-12-31 00:00:00,2013-03-27 00:00:00,86.73917739315966,1.9023505003277676,16.96554678567344,1.5916783909993117
sh600727,2013-04-18,4.45,4.54,4.44,4.5,0.006711,1305440.0,5881074.0,1579169730.0,1579439730.0,0.003719980118919832,23.74,2012-12-31 00:00:00,2013-03-27 00:00:00,85.22406398365817,1.8691212625226399,16.66920171753903,1.5638758069041692
sh600727,2013-04-17,4.51,4.51,4.44,4.47,-0.002232,1166434.0,5211513.0,1568641930.0,1568910130.0,0.003323868806694463,23.58,2012-12-31 00:00:00,2013-03-27 00:00:00,84.65593798384859,1.8566612091480477,16.55808043970815,1.5534505999280523
sh600727,2013-04-16,4.44,4.49,4.41,4.48,0.009009,1174706.0,5238292.0,1572151200.0,1572420000.0,0.0033474406787336996,23.63,2012-12-31 00:00:00,2013-03-27 00:00:00,84.84531272184374,1.860814547217437,16.59512074922041,1.556925657996701
sh600727,2013-04-15,4.52,4.52,4.39,4.44,-0.017699,1497994.0,6678035.0,1558114140.0,1558380540.0,0.0042686817282846816,23.42,2012-12-31 00:00:00,2013-03-27 00:00:00,84.0877660376109,1.8442001480833543,16.446950175092997,1.543024549827307
sh600727,2013-04-12,4.55,4.59,4.5,4.52,-0.006593000000000001,1222925.0,5571611.0,1522908260.0,1586459460.0,0.0036296480524703437,23.84,2012-12-31 00:00:00,2013-03-27 00:00:00,85.60285089561235,1.8774287597013075,16.74328965876345,1.5708266099976553
sh600727,2013-04-11,4.58,4.63,4.54,4.55,-0.00655,1705095.0,7805217.0,1533016060.0,1596989060.0,0.0050607312293910345,24.0,2012-12-31 00:00:00,2013-03-27 00:00:00,86.17097614131201,1.8898887965368751,16.854410789095958,1.5812518031357292
sh600727,2013-04-10,4.68,4.71,4.54,4.58,-0.021368,3073443.0,14201916.0,1543123860.0,1607518660.0,0.009121995521474214,24.16,2012-12-31 00:00:00,2013-03-27 00:00:00,86.73911736002015,1.9023491836900448,16.965535043631746,1.5916772893811757
sh600727,2013-04-09,4.79,4.79,4.66,4.68,-0.025,4072881.0,19245666.0,1576816520.0,1642617320.0,0.012088332940601104,24.69,2012-12-31 00:00:00,2013-03-27 00:00:00,88.63302790019144,1.9438861427891638,17.335970051696396,1.626430864084943
sh600727,2013-04-08,4.86,4.96,4.65,4.8,-0.026369,5759184.0,27361967.0,1617247710.0,1684735710.0,0.017093289438016888,25.32,2012-12-31 00:00:00,2013-03-27 00:00:00,90.90566964122199,1.9937293772196552,17.780482104303996,1.6681342195743005
sh600727,2013-04-03,4.99,5.04,4.82,4.93,-0.012024,4988225.0,24525139.0,1661048170.0,1730363970.0,0.014805078921943606,26.01,2012-12-31 00:00:00,2013-03-27 00:00:00,93.36768204917674,2.0477258604334243,18.262033670152245,1.7133125584274749
sh600727,2013-04-02,4.87,5.01,4.79,4.99,0.024641,8879508.0,43866510.0,1681263770.0,1751423170.0,0.026354427967004844,26.32,2012-12-31 00:00:00,2013-03-27 00:00:00,94.50399812260292,2.0726473724396386,18.484288758180607,1.7341641481447676
sh600727,2013-04-01,4.82,4.93,4.82,4.87,0.010373,3440040.0,16783681.0,1640832580.0,1709304780.0,0.010210057384404203,25.69,2012-12-31 00:00:00,2013-03-27 00:00:00,92.23132601818872,2.0228034720840165,18.03977076671791,1.6924602354822493
sh600727,2013-03-29,4.73,4.89,4.73,4.82,0.012605,2393330.0,11537901.0,1623986250.0,1691755450.0,0.007103416423630434,25.43,2012-12-31 00:00:00,2013-03-27 00:00:00,91.28443259884094,2.002036349035471,17.85456536023618,1.675084583101735
sh600727,2013-03-28,4.85,4.9,4.76,4.76,-0.02459,2677321.0,12924235.0,1603770650.0,1670696250.0,0.007946303269734984,25.11,2012-12-31 00:00:00,2013-03-27 00:00:00,90.14811560168175,1.9771148167700847,17.632310091532414,1.6542329764337873
sh600727,2013-03-27,4.73,4.91,4.73,4.88,0.016666999999999998,4840457.0,23449019.0,1644201840.0,1712814640.0,0.014366502691664668,25.74,2012-12-31 00:00:00,2013-03-27 00:00:00,92.4207416385743,2.0269577067798,18.076819072525826,1.6959360437495896
sh600727,2013-03-26,4.85,4.88,4.76,4.8,-0.014374000000000001,2481814.0,11933676.0,1617247710.0,1684735710.0,0.007366037451368535,25.32,2012-09-30 00:00:00,2012-10-25 00:00:00,77.88657642008052,2.1179271871670755,201.73127391849718,1.6510682705955453
sh600727,2013-03-25,4.94,4.94,4.86,4.87,-0.014169999999999999,2421549.0,11856406.0,1640832580.0,1709304780.0,0.007187170570442963,25.69,2012-09-30 00:00:00,2012-10-25 00:00:00,79.02244504515964,2.148814243097357,204.67324717336717,1.6751468311464444
sh600727,2013-03-22,4.85,4.95,4.84,4.94,0.012295,3172789.0,15505118.0,1664417440.0,1733873840.0,0.009416854980803375,26.06,2012-09-30 00:00:00,2012-10-25 00:00:00,80.15828798592014,2.1797006006079718,207.61515390418953,1.6992248472317177
sh600727,2013-03-21,4.84,4.92,4.83,4.88,0.004115,2523550.0,12300539.0,1644201840.0,1712814640.0,0.007489910119550773,25.74,2012-09-30 00:00:00,2012-10-25 00:00:00,79.1847119524646,2.153226678594651,205.093528965558,1.6785866246812617
sh600727,2013-03-20,4.75,4.87,4.75,4.86,0.021008000000000002,2251354.0,10836562.0,1637463310.0,1705794910.0,0.006682030903031348,25.64,2012-09-30 00:00:00,2012-10-25 00:00:00,78.86020222032793,2.1444024624616214,204.25302775634066,1.6717075481207448
sh600727,2013-03-19,4.75,4.78,4.7,4.76,0.008475,1381128.0,6548712.0,1603770650.0,1670696250.0,0.004099195405527592,25.11,2012-09-30 00:00:00,2012-10-25 00:00:00,77.23759482817759,2.100279784743725,200.05036959195292,1.6373109203069367
sh600727,2013-03-18,4.83,4.83,4.71,4.72,-0.022774000000000003,1889847.0,8998544.0,1590293590.0,1656656790.0,0.0056090761454933614,24.9,2012-09-30 00:00:00,2012-10-25 00:00:00,76.58850722940835,2.0826294997334838,198.36919070076397,1.6235513228458185
sh600727,2013-03-15,4.82,4.92,4.82,4.83,0.00625,3032476.0,14794005.0,1627355510.0,1695265310.0,0.009000405252568322,25.48,2012-09-30 00:00:00,2012-10-25 00:00:00,78.37338264578342,2.131164643320464,202.99213355023704,1.6613877678713198
sh600727,2013-03-14,4.75,4.85,4.73,4.8,0.010526,1920923.0,9210494.0,1617247710.0,1684735710.0,0.005701309912505611,25.32,2012-09-30 00:00:00,2012-10-25 00:00:00,77.88659144922575,2.1179275958464236,201.73131284495605,1.6510685891888892
sh600727,2013-03-13,4.77,4.83,4.69,4.75,-0.004193,1967060.0,9328934.0,1600401380.0,1667186380.0,0.005838244778319299,25.06,2012-09-30 00:00:00,2012-10-25 00:00:00,77.0752968743266,2.0958665050146394,199.6300073871984,1.6338704686360264
sh600727,2013-03-12,4.94,4.99,4.72,4.77,-0.030488,3443313.0,16633573.0,1607139920.0,1674206120.0,0.010219771661200475,25.16,2012-09-30 00:00:00,2012-10-25 00:00:00,77.39983437988144,2.1046914763750806,200.47058053136644,1.640750133947669
sh600727,2013-03-11,4.94,4.98,4.87,4.92,-0.008065000000000001,2030938.0,9993691.0,1657678910.0,1726854110.0,0.006027835004548619,25.95,2012-09-30 00:00:00,2012-10-25 00:00:00,79.83380750303394,2.170877179833855,206.77472845242391,1.692346390707561
sh600727,2013-03-08,5.06,5.07,4.94,4.96,-0.017822,3878634.0,19449775.0,1671155970.0,1740893570.0,0.01151180678844716,26.17,2012-09-30 00:00:00,2012-10-25 00:00:00,80.4829021085393,2.18852765537445,208.45592549151297,1.706106136700047
sh600727,2013-03-07,5.18,5.18,5.0,5.05,-0.026975,5995039.0,30426949.0,1701479370.0,1772482370.0,0.017793308272670973,26.64,2012-09-30 00:00:00,2012-10-25 00:00:00,81.94329552132028,2.228239336835533,212.23843895048861,1.737064092964867
sh600727,2013-03-06,5.2,5.3,5.16,5.19,-0.007648,9865715.0,51588565.0,1748649090.0,1821620490.0,0.02928149572307844,27.38,2012-09-30 00:00:00,2012-10-25 00:00:00,84.21499501176257,2.2900124219167366,218.12228766012032,1.785220413622329
sh600727,2013-03-05,5.05,5.54,5.04,5.23,0.031557999999999996,9589378.0,50199883.0,1762126150.0,1835659950.0,0.0284613260747535,27.59,2012-09-30 00:00:00,2012-10-25 00:00:00,84.86403515260973,2.3076614164295903,219.80334363221954,1.7989790050529744
sh600727,2013-03-04,5.12,5.12,4.96,5.07,-0.017442,5854257.0,29509895.0,1708217900.0,1779502100.0,0.017375466554940093,26.75,2012-09-30 00:00:00,2012-10-25 00:00:00,82.26782706605904,2.237064146106753,213.07899665575715,1.7439436319169395
sh600727,2013-03-01,5.14,5.19,5.06,5.16,0.0,5866354.0,30060127.0,1738541290.0,1811090890.0,0.01741137056342217,27.22,2012-09-30 00:00:00,2012-10-25 00:00:00,83.72821458484795,2.276775667295725,216.86149484891186,1.7749014632387496
sh600727,2013-02-28,5.07,5.2,5.03,5.16,0.015747999999999998,6071021.0,31115634.0,1738541290.0,1811090890.0,0.01801882333205903,27.22,2012-09-30 00:00:00,2012-10-25 00:00:00,83.72821458484795,2.276775667295725,216.86149484891186,1.7749014632387496
sh600727,2013-02-27,5.06,5.1,5.02,5.08,-0.007812999999999999,3478115.0,17578612.0,1711587160.0,1783011960.0,0.010323064237055857,26.8,2012-09-30 00:00:00,2012-10-25 00:00:00,82.43010528679156,2.241476889243912,213.49930775045766,1.7473836652779524
sh600727,2013-02-26,4.88,5.14,4.7,5.12,0.042769999999999996,7069373.0,35277758.0,1725064230.0,1797051430.0,0.020981937443569854,27.01,2012-09-30 00:00:00,2012-10-25 00:00:00,83.07920310061667,2.2591274520265956,215.1805130993025,1.7611434792815794
sh600727,2013-02-25,4.79,4.91,4.77,4.91,0.025052,2248800.0,10949867.0,1654309640.0,1723344240.0,0.006674450618567393,25.9,2012-09-30 00:00:00,2012-10-25 00:00:00,79.671646768335,2.1664676314303213,206.35472165415436,1.6889088478586645
sh600727,2013-02-22,4.75,4.82,4.74,4.79,0.0063030000000000004,2548880.0,12186856.0,1613878450.0,1681225850.0,0.0075650896757435485,25.27,2012-09-30 00:00:00,2012-10-25 00:00:00,77.72449277532748,2.11351973502839,201.31146678817692,1.6476323619276527
sh600727,2013-02-21,4.9,4.9,4.75,4.76,-0.03252,2573280.0,12413117.0,1603770650.0,1670696250.0,0.0076375090166415005,25.11,2012-09-30 00:00:00,2012-10-25 00:00:00,77.23766378051887,2.1002816597271297,200.0505481829796,1.6373123819840076
sh600727,2013-02-20,4.87,4.94,4.86,4.92,0.006135,2878886.0,14118317.0,1657678910.0,1726854110.0,0.008544549269797972,25.95,2012-09-30 00:00:00,2012-10-25 00:00:00,79.83386093823012,2.170878632867997,206.77486685304046,1.6923475234464873
sh600727,2013-02-19,5.0,5.02,4.86,4.89,-0.022,3084250.0,15231280.0,1647571110.0,1716324510.0,0.009154070745996511,25.8,2012-09-30 00:00:00,2012-10-25 00:00:00,79.34706668412302,2.157641502251683,205.51403822850858,1.6820282799490003
sh600727,2013-02-18,5.03,5.04,4.96,5.0,-0.001996,2863925.0,14299734.0,1684633040.0,1754933040.0,0.00850014493364086,26.38,2012-09-30 00:00:00,2012-10-25 00:00:00,81.13197002466566,2.20617740516532,210.13705340338296,1.719865316921268
sh600727,2013-02-08,4.96,5.03,4.96,5.01,0.006024,2420330.0,12106724.0,1688002300.0,1758442900.0,0.007183552593500613,26.43,2012-09-30 00:00:00,2012-10-25 00:00:00,81.29423331436112,2.2105897422909324,210.55732582573117,1.7233050337686704
sh600727,2013-02-07,4.93,5.07,4.9,4.98,0.014256999999999999,3473391.0,17347441.0,1677894500.0,1747913300.0,0.010309043375492322,26.27,2012-09-30 00:00:00,2012-10-25 00:00:00,80.80744924013854,2.197352888490665,209.29652356775898,1.7129860060681161
sh600727,2013-02-06,4.94,4.97,4.9,4.91,-0.006072999999999999,2105881.0,10376654.0,1654309640.0,1723344240.0,0.006250266250035272,25.9,2012-09-30 00:00:00,2012-10-25 00:00:00,79.67157164322113,2.166465588594079,206.35452707524718,1.688907255328892
sh600727,2013-02-05,4.93,4.94,4.87,4.94,0.004065,2354936.0,11569543.0,1664417440.0,1733873840.0,0.006989462835717463,26.06,2012-09-30 00:00:00,2012-10-25 00:00:00,80.15837344515356,2.1797029244542903,207.61537524913518,1.6992266588279543
sh600727,2013-02-04,4.94,4.96,4.89,4.92,0.0,2152263.0,10594809.0,1657678910.0,1726854110.0,0.006387928262898633,25.95,2012-09-30 00:00:00,2012-10-25 00:00:00,79.83384884958001,2.1708783041479287,206.7748355426543,1.6923472671868398
sh600727,2013-02-01,4.88,4.94,4.85,4.92,0.006135,1874829.0,9210862.0,1657678910.0,1726854110.0,0.005564502645448991,25.95,2012-09-30 00:00:00,2012-10-25 00:00:00,79.83384884958001,2.1708783041479287,206.7748355426543,1.6923472671868398
sh600727,2013-01-31,4.94,4.96,4.83,4.89,-0.010121,2190273.0,10709104.0,1647571110.0,1716324510.0,0.006500742156130669,25.8,2012-09-30 00:00:00,2012-10-25 00:00:00,79.34705466918456,2.157641175536015,205.51400710904034,1.6820280252519193
sh600727,2013-01-30,4.93,4.97,4.89,4.94,0.0020280000000000003,2725980.0,13457617.0,1664417440.0,1733873840.0,0.008090723442551769,26.06,2012-09-30 00:00:00,2012-10-25 00:00:00,80.15833719998562,2.1797019388592096,207.61528137180437,1.6992258904895643
sh600727,2013-01-29,4.85,4.95,4.84,4.93,0.014403000000000001,3232584.0,15827465.0,1661048170.0,1730363970.0,0.009594326888184105,26.01,2012-09-30 00:00:00,2012-10-25 00:00:00,79.99610509884516,2.1752904498269605,207.1950897298323,1.695786834788613
sh600727,2013-01-28,4.74,4.88,4.74,4.86,0.010395,2977612.0,14376510.0,1637463310.0,1705794910.0,0.008837568592605595,25.64,2012-09-30 00:00:00,2012-10-25 00:00:00,78.86028047910463,2.1444045905098474,204.25323045163736,1.6717092070790536
sh600727,2013-01-25,4.83,4.86,4.77,4.81,0.0,2240767.0,10774121.0,1620616980.0,1688245580.0,0.006650608628079412,25.37,2012-09-30 00:00:00,2012-10-25 00:00:00,78.04896152406201,2.122342836722121,202.15186184773023,1.65451056970695
sh600727,2013-01-24,4.98,5.04,4.79,4.81,-0.03992,5856813.0,28804779.0,1620616980.0,1688245580.0,0.017383052798817397,25.37,2012-09-30 00:00:00,2012-10-25 00:00:00,78.04896152406201,2.122342836722121,202.15186184773023,1.65451056970695
sh600727,2013-01-23,5.08,5.27,4.92,5.01,-0.025292,9602392.0,48556939.0,1688002300.0,1758442900.0,0.028499951641061155,26.43,2012-09-30 00:00:00,2012-10-25 00:00:00,81.2942270686422,2.210589572454505,210.5573096489149,1.7233049013696253
sh600727,2013-01-22,5.29,5.5,5.11,5.14,-0.056880999999999994,17710165.0,93219162.0,1731802760.0,1804071160.0,0.05256386593355469,27.12,2012-09-30 00:00:00,2012-10-25 00:00:00,83.4036727600904,2.2679505784855616,216.0209105177293,1.768021706367061
sh600727,2013-01-21,5.1,5.58,4.97,5.45,0.062377999999999996,22090459.0,115030401.0,1836250010.0,1912877010.0,0.06556460225696609,28.75,2012-09-30 00:00:00,2012-10-25 00:00:00,88.43388030576249,2.4047342684068096,229.04947362711314,1.874653894542535
sh600727,2013-01-18,5.13,5.24,5.08,5.13,-0.007737000000000001,17167297.0,88296767.0,1728433490.0,1800561290.0,0.05095263087618142,27.06,2012-09-30 00:00:00,2012-10-25 00:00:00,83.2414454231568,2.2635392190037904,215.6007312153613,1.7645827516595174
sh600727,2013-01-17,5.1,5.19,5.03,5.17,0.007797,15673536.0,80050714.0,1741910560.0,1814600760.0,0.046519139949412786,27.27,2012-09-30 00:00:00,2012-10-25 00:00:00,83.89050627016908,2.2811887765680976,217.28184081776834,1.7783417820270604
sh600727,2013-01-16,5.09,5.16,4.99,5.13,0.005882,12152101.0,61811301.0,1728433490.0,1800561290.0,0.0360675018684115,27.06,2012-09-30 00:00:00,2012-10-25 00:00:00,83.24147250901629,2.2635399555347933,215.60080136949045,1.764583325835521
sh600727,2013-01-15,5.0,5.17,4.91,5.1,0.009901,15163124.0,76511859.0,1718325700.0,1790031700.0,0.045004234296210546,26.9,2012-09-30 00:00:00,2012-10-25 00:00:00,82.75470930886156,2.2503036693516663,214.34005317670506,1.7542647406311287
sh600727,2013-01-14,4.7,5.07,4.65,5.05,0.063158,13075359.0,64053336.0,1701479370.0,1772482370.0,0.038807736440554075,26.64,2012-09-30 00:00:00,2012-10-25 00:00:00,81.94338782599638,2.22824184682624,212.23867802557388,1.7370660496733135
sh600727,2013-01-11,4.68,4.82,4.63,4.75,0.012793,8925266.0,42242652.0,1600401380.0,1667186380.0,0.02649023803016216,25.06,2012-09-30 00:00:00,2012-10-25 00:00:00,77.07545616549599,2.0958708365325194,199.63041996163682,1.6338738453487753
sh600727,2013-01-10,4.71,4.85,4.63,4.69,-0.010549,9247300.0,43845576.0,1580185790.0,1646127190.0,0.027446036582824858,24.74,2012-09-30 00:00:00,2012-10-25 00:00:00,76.10188475384011,2.069397040197275,197.10880699376557,1.6132357207729273
sh600727,2013-01-09,4.73,4.78,4.66,4.74,0.002114,3962657.0,18719034.0,1597032120.0,1663676520.0,0.011761187483192262,25.01,2012-09-30 00:00:00,2012-10-25 00:00:00,76.91324254949474,2.0914598501565775,199.21027619737166,1.6304351815025984
sh600727,2013-01-08,4.62,4.79,4.58,4.73,0.023809999999999998,5889206.0,27640694.0,1593662850.0,1660166650.0,0.017479195414513177,24.95,2012-09-30 00:00:00,2012-10-25 00:00:00,76.75099095461668,2.087047831041755,198.7900340653575,1.6269957125662335
sh600727,2013-01-07,4.53,4.63,4.51,4.62,0.013158000000000001,3752734.0,17246423.0,1556600920.0,1621558120.0,0.011138134930563962,24.37,2012-09-30 00:00:00,2012-10-25 00:00:00,74.96604932030033,2.038510886826418,194.1669197071307,1.5891578638284771
sh600727,2013-01-04,4.5,4.59,4.45,4.56,0.017856999999999998,5522460.0,24888450.0,1536385330.0,1600498930.0,0.016390691259724536,24.06,2012-09-30 00:00:00,2012-10-25 00:00:00,73.99245657666457,2.0120365104222815,191.64525148805092,1.56851928704948
