code,date,open,high,low,close,change,volume,money,traded_market_value,market_value,turnover,adjust_price,report_type,report_date,PE_TTM,PS_TTM,PC_TTM,PB
sh600604,2014-12-31,11.02,11.19,11.01,11.14,0.011807,846998.0,9403928.0,3715459480.0,3715459480.0,0.0025395399332951416,290.88,2014-09-30 00:00:00,2014-10-30 00:00:00,78.90855427393836,22.0065783864814,-21.263223304385917,4.920857227116467
sh600604,2014-12-30,11.41,11.42,10.98,11.01,-0.040105,2054934.0,22887515.0,3672101330.0,3672101330.0,0.0061612742423967914,287.49,2014-09-30 00:00:00,2014-10-30 00:00:00,77.98775287573457,21.749778748794387,-21.01509804180631,4.86343465415486
sh600604,2014-12-29,11.64,11.65,11.35,11.47,-0.006065999999999999,1981514.0,22781306.0,3825522460.0,3825522460.0,0.0059411402802220115,299.5,2014-09-30 00:00:00,2014-10-30 00:00:00,81.2461288742358,22.658497803191377,-21.893121687066095,5.066631927611728
sh600604,2014-12-26,11.31,11.6,11.29,11.54,0.019435,2070251.0,23675497.0,3848869150.0,3848869150.0,0.006207198948293683,301.33,2014-09-30 00:00:00,2014-10-30 00:00:00,81.74197569882487,22.79678308941175,-22.026735866834315,5.097553688284864
sh600604,2014-12-25,11.32,11.43,11.17,11.32,0.000884,935630.0,10571091.0,3775493830.0,3775493830.0,0.0028052837792612684,295.58,2014-09-30 00:00:00,2014-10-30 00:00:00,80.1836072911219,22.362174233189705,-21.60680756186938,5.00037146878895
sh600604,2014-12-24,11.08,11.39,11.05,11.31,0.025384999999999998,1570558.0,17550191.0,3772158590.0,3772158590.0,0.004708977779218981,295.32,2014-09-30 00:00:00,2014-10-30 00:00:00,80.11278758689508,22.342423530788484,-21.587724013841143,4.995955044529586
sh600604,2014-12-23,11.11,11.27,11.0,11.03,-0.007201000000000001,1349971.0,15029991.0,3678771820.0,3678771820.0,0.00404759546353163,288.01,2014-09-30 00:00:00,2014-10-30 00:00:00,78.1294709664127,21.789302097054748,-21.05328634009776,4.872272409416547
sh600604,2014-12-22,11.68,11.76,10.99,11.11,-0.057676,3564824.0,39869794.0,3705453750.0,3705453750.0,0.010688352172793953,290.1,2014-09-30 00:00:00,2014-10-30 00:00:00,78.69616202918485,21.947344927880415,-21.205990678977074,4.907612124323802
sh600604,2014-12-19,12.08,12.12,11.6,11.79,-0.030427999999999997,3268112.0,38785417.0,3932250200.0,3932250200.0,0.009798725543964623,307.86,2014-09-30 00:00:00,2014-10-30 00:00:00,83.51284911472578,23.290656852505524,-22.50392718319503,5.207988042673011
sh600604,2014-12-18,12.26,12.29,12.1,12.16,-0.008157,1774286.0,21588009.0,4055654150.0,4055654150.0,0.005319812035747673,317.52,2014-09-30 00:00:00,2014-10-30 00:00:00,86.13372613351642,24.021585660998387,-23.21016611782831,5.371429912036457
sh600604,2014-12-17,12.56,12.65,12.09,12.26,-0.023885,2867376.0,35247993.0,4089006570.0,4089006570.0,0.008597205496786473,320.13,2014-09-30 00:00:00,2014-10-30 00:00:00,86.842097119722,24.21914119573197,-23.401048470199733,5.415605002038081
sh600604,2014-12-16,12.67,12.69,12.4,12.56,0.0,2729940.0,34242658.0,4189063830.0,4189063830.0,0.008185133431113175,327.96,2014-09-30 00:00:00,2014-10-30 00:00:00,88.96707572337479,24.811770330065585,-23.973659323132754,5.548121893463455
sh600604,2014-12-15,12.18,12.58,12.12,12.56,0.025306,2926887.0,36332055.0,4189063830.0,4189063830.0,0.008775636326362685,327.96,2014-09-30 00:00:00,2014-10-30 00:00:00,88.96707572337479,24.811770330065585,-23.973659323132754,5.548121893463455
sh600604,2014-12-12,12.01,12.35,12.01,12.25,0.009893,2305352.0,28165801.0,4085671330.0,4085671330.0,0.006912098335624075,319.87,2014-09-30 00:00:00,2014-10-30 00:00:00,86.77124265670423,24.19938079955212,-23.38195555583675,5.41118641016775
sh600604,2014-12-11,12.0,12.3,11.9,12.13,0.005804,2710273.0,32903100.0,4045648420.0,4045648420.0,0.008126166210458793,316.73,2014-09-30 00:00:00,2014-10-30 00:00:00,85.921223987793,23.96232155243389,-23.152903877773934,5.35817795565248
sh600604,2014-12-10,11.71,12.14,11.66,12.06,0.031651,3065832.0,36615498.0,4022301730.0,4022301730.0,0.009192232806463278,314.91,2014-09-30 00:00:00,2014-10-30 00:00:00,85.42541487983047,23.824046784894364,-23.019299861378492,5.327258547045429
sh600604,2014-12-09,12.66,12.66,11.6,11.69,-0.083137,6002733.0,73533224.0,3898897780.0,3898897780.0,0.01799789395094118,305.25,2014-09-30 00:00:00,2014-10-30 00:00:00,82.80456751346189,23.0931262460797,-22.31306891708387,5.163818526852035
sh600604,2014-12-08,12.8,12.87,12.45,12.75,0.008703,6377354.0,81167820.0,4252433420.0,4252433420.0,0.01912111383509915,332.92,2014-09-30 00:00:00,2014-10-30 00:00:00,90.31291208551538,25.18710673904356,-24.33631733103405,5.632050291976047
sh600604,2014-12-05,13.16,13.2,12.4,12.64,-0.047476,9440792.0,120624811.0,4215745760.0,4215745760.0,0.0283061687477093,330.05,2014-09-30 00:00:00,2014-10-30 00:00:00,89.53370029187519,24.969794616496195,-24.126345744023812,5.5834574616869865
sh600604,2014-12-04,13.18,13.68,13.0,13.27,0.060751,13490884.0,178951777.0,4425866000.0,4425866000.0,0.04044949184634148,346.5,2014-09-30 00:00:00,2014-10-30 00:00:00,93.99626706715546,26.214346952408754,-25.328858636657777,5.861749899936365
sh600604,2014-12-03,12.25,12.61,12.11,12.51,0.022059,4941526.0,61140630.0,4172387620.0,4172387620.0,0.014816094737621716,326.66,2014-09-30 00:00:00,2014-10-30 00:00:00,88.61294221467192,24.713007060477672,-23.87823215500883,5.526037590288734
sh600604,2014-12-02,12.38,12.39,12.0,12.24,-0.012107,3944933.0,48135792.0,4082336090.0,4082336090.0,0.011828026614045882,319.61,2014-09-30 00:00:00,2014-10-30 00:00:00,86.70041770061407,24.179628632473932,-23.362870592606523,5.406769658394215
sh600604,2014-12-01,12.66,12.97,12.37,12.39,0.008137,4714350.0,59588603.0,4132364710.0,4132364710.0,0.014134956761839157,323.52,2014-09-30 00:00:00,2014-10-30 00:00:00,87.76296390460715,24.47595906892136,-23.649191352308925,5.473031652612393
sh600604,2014-11-28,12.45,12.65,12.16,12.29,-0.015224000000000001,3985297.0,49494138.0,4099012300.0,4099012300.0,0.011949049318539491,320.91,2014-09-30 00:00:00,2014-10-30 00:00:00,87.05460061936733,24.278405681887833,-23.458311075090908,5.428857042854684
sh600604,2014-11-27,12.35,12.49,12.1,12.48,0.01546,3662730.0,44994161.0,4162381890.0,4162381890.0,0.010981902095485045,325.87,2014-09-30 00:00:00,2014-10-30 00:00:00,88.40040843741859,24.653734130287326,-23.820961391312245,5.512783661314536
sh600604,2014-11-26,12.35,12.48,12.11,12.29,0.0016300000000000002,3330847.0,40859313.0,4099012300.0,4099012300.0,0.00998682283290538,320.91,2014-09-30 00:00:00,2014-10-30 00:00:00,87.05454516910424,24.2783902175244,-23.458296133094603,5.428853584892104
sh600604,2014-11-25,11.99,12.5,11.88,12.27,0.023353,5690568.0,70007299.0,4092341810.0,4092341810.0,0.017061934853384107,320.39,2014-09-30 00:00:00,2014-10-30 00:00:00,86.91287717930199,24.238880841752344,-23.420121335318033,5.420018953997089
sh600604,2014-11-24,12.12,12.26,11.91,11.99,0.0033469999999999997,3063095.0,37007107.0,3998955040.0,3998955040.0,0.009184026497582229,313.08,2014-09-30 00:00:00,2014-10-30 00:00:00,84.92951814212886,23.685747578550455,-22.88567223169135,5.296333673714827
sh600604,2014-11-21,11.8,12.11,11.73,11.95,0.007589,2979246.0,35671218.0,3985614070.0,3985614070.0,0.008932623448913105,312.03,2014-09-30 00:00:00,2014-10-30 00:00:00,84.64620728634148,23.606735833715014,-22.809329406168903,5.278665978684172
sh600604,2014-11-20,11.52,11.87,11.47,11.86,0.032202,2092001.0,24480698.0,3955596890.0,3955596890.0,0.006272411610678559,309.68,2014-09-30 00:00:00,2014-10-30 00:00:00,84.00866552368224,23.428933656198122,-22.637533166964804,5.238907906581127
sh600604,2014-11-19,11.6,11.61,11.48,11.49,-0.012887000000000001,2016050.0,23258428.0,3832192940.0,3832192940.0,0.006044688997313376,300.02,2014-09-30 00:00:00,2014-10-30 00:00:00,81.38781510177489,22.69801226523309,-21.931301399304402,5.075467695839697
sh600604,2014-11-18,11.63,11.73,11.59,11.64,-0.002571,1063500.0,12401884.0,3882221570.0,3882221570.0,0.003188674262092671,303.94,2014-09-30 00:00:00,2014-10-30 00:00:00,82.4503527982864,22.994340329053603,-22.217619866524302,5.141729159518411
sh600604,2014-11-17,11.7,11.74,11.52,11.67,0.007772,1417529.0,16510607.0,3892227300.0,3892227300.0,0.00425015348666816,304.72,2014-09-30 00:00:00,2014-10-30 00:00:00,82.66287906035056,23.053611163354585,-22.274888605128083,5.154982619834003
sh600604,2014-11-14,11.44,11.68,11.28,11.58,0.017575,1600557.0,18467811.0,3862210120.0,3862210120.0,0.004798923280745792,302.37,2014-09-30 00:00:00,2014-10-30 00:00:00,82.0253778239032,22.875820288075662,-22.103103286386293,5.115227075007049
sh600604,2014-11-13,11.75,11.85,11.38,11.38,-0.037225,2507410.0,29072117.0,3795505280.0,3795505280.0,0.007517925465776194,297.15,2014-09-30 00:00:00,2014-10-30 00:00:00,80.60868026818976,22.480721605852803,-21.721350550461928,5.0268796648964935
sh600604,2014-11-12,11.6,11.92,11.46,11.82,0.011120999999999999,2974780.0,35050251.0,3942255930.0,3942255930.0,0.008919233105193148,308.64,2014-09-30 00:00:00,2014-10-30 00:00:00,83.72535667023942,23.349922469790762,-22.561190881007427,5.221240336419718
sh600604,2014-11-11,12.23,12.35,11.62,11.69,-0.044154,2581034.0,30803881.0,3898897780.0,3898897780.0,0.007738671071289281,305.25,2014-09-30 00:00:00,2014-10-30 00:00:00,82.80448795964027,23.09310405954457,-22.313047479982544,5.163813565754957
sh600604,2014-11-10,11.95,12.26,11.88,12.23,0.025147,2275530.0,27707572.0,4079000840.0,4079000840.0,0.006822683542276496,319.35,2014-09-30 00:00:00,2014-10-30 00:00:00,86.629528145371,24.159858449524894,-23.343768222059353,5.402348878119444
sh600604,2014-11-07,12.21,12.37,11.86,11.93,-0.021329,2456935.0,29734325.0,3978943590.0,3978943590.0,0.007366587107106989,311.51,2014-09-30 00:00:00,2014-10-30 00:00:00,84.50449364371254,23.56721372595822,-22.77114230647834,5.269828500809584
sh600604,2014-11-06,12.01,12.25,11.97,12.19,0.009106,2291132.0,27832692.0,4065659880.0,4065659880.0,0.006869462745122693,318.3,2014-09-30 00:00:00,2014-10-30 00:00:00,86.34617112769516,24.080833830733948,-23.267412957447746,5.3846783043633515
sh600604,2014-11-05,12.1,12.28,12.01,12.08,-0.004942,2351348.0,28539118.0,4028972220.0,4028972220.0,0.00705000736887682,315.43,2014-09-30 00:00:00,2014-10-30 00:00:00,85.56699804351094,23.86353250375475,-23.057451801344698,5.336087888054724
sh600604,2014-11-04,12.3,12.3,12.01,12.14,-0.025682,2965861.0,36216653.0,4048983670.0,4048983670.0,0.008892491418716935,317.0,2014-09-30 00:00:00,2014-10-30 00:00:00,85.99197036103517,23.98205180376898,-23.171967665547832,5.362589806880326
sh600604,2014-11-03,12.46,12.7,12.31,12.46,-0.001603,5676622.0,70669101.0,4155711410.0,4155711410.0,0.01702012077879104,325.35,2014-09-30 00:00:00,2014-10-30 00:00:00,88.25862845706962,24.614193521795734,-23.78275641581889,5.503942046519027
sh600604,2014-10-31,11.78,12.9,11.76,12.48,0.049622,7925401.0,97932045.0,4162381890.0,4162381890.0,0.02376259725654342,325.87,2014-09-30 00:00:00,2014-10-30 00:00:00,88.40033419278065,24.65371342441507,-23.82094138485882,5.512779031306211
sh600604,2014-10-30,11.81,11.93,11.75,11.89,-0.001679,3075226.0,36403948.0,3965602620.0,3965602620.0,0.00922039867423731,310.47,2014-09-30 00:00:00,2014-10-30 00:00:00,84.22111407038024,23.4881828166855,-22.69478096386968,5.252156520448515
sh600604,2014-10-29,11.69,11.97,11.44,11.91,0.037456,3107935.0,36671854.0,3972273100.0,3972273100.0,0.009318469530707744,310.99,2014-06-30 00:00:00,2014-08-30 00:00:00,45.70060540773378,17.566006193775806,-20.27535777321797,4.8480236324608965
sh600604,2014-10-28,11.23,11.51,11.23,11.48,0.022262,1795649.0,20477445.0,3828857700.0,3828857700.0,0.005383864362470301,299.76,2014-06-30 00:00:00,2014-08-30 00:00:00,44.05064446852087,16.93180837912722,-19.543342342439555,4.672992042516403
sh600604,2014-10-27,11.08,11.31,11.03,11.23,0.010801,1125050.0,12579366.0,3745476650.0,3745476650.0,0.0033732185995606193,293.23,2014-06-30 00:00:00,2014-08-30 00:00:00,43.09134494730399,16.563081068382875,-19.117743144555458,4.571227378613704
sh600604,2014-10-24,11.3,11.4,11.01,11.11,-0.016814,2077682.0,23210823.0,3705453750.0,3705453750.0,0.006229479188614889,290.1,2014-06-30 00:00:00,2014-08-30 00:00:00,42.63088871825808,16.386094857823522,-18.91345887524395,4.522381139921413
sh600604,2014-10-23,11.65,11.78,11.19,11.3,-0.034187999999999996,2251034.0,25737764.0,3768823350.0,3768823350.0,0.006749237583661224,295.06,2014-06-30 00:00:00,2014-08-30 00:00:00,43.35994279643737,16.666322402702562,-19.236908250569016,4.599720846229922
sh600604,2014-10-22,11.85,12.0,11.61,11.7,-0.018456,1345011.0,15971579.0,3902233020.0,3902233020.0,0.0040327239863292424,305.51,2014-06-30 00:00:00,2014-08-30 00:00:00,44.894806438972985,17.256280107000702,-19.917860049956943,4.762542654502038
sh600604,2014-10-21,11.95,12.08,11.9,11.92,-0.00251,1448449.0,17360729.0,3975608340.0,3975608340.0,0.00434286041365936,311.25,2014-06-30 00:00:00,2014-08-30 00:00:00,45.738964772820154,17.580750437067216,-20.292376144071934,4.852092880708392
sh600604,2014-10-20,11.86,12.06,11.86,11.95,0.010144,1810106.0,21694506.0,3985614070.0,3985614070.0,0.005427210542740782,312.03,2014-06-30 00:00:00,2014-08-30 00:00:00,45.85405845955363,17.62498915985846,-20.343438173888394,4.864302279429761
sh600604,2014-10-17,11.68,11.9,11.52,11.83,0.010248,2644064.0,31046587.0,3945591170.0,3945591170.0,0.007927652859178515,308.9,2014-06-30 00:00:00,2014-08-30 00:00:00,45.39358592394117,17.447996681521108,-20.13914667006723,4.815454310899991
sh600604,2014-10-16,12.06,12.08,11.65,11.71,-0.027408999999999996,2293053.0,27364358.0,3905568260.0,3905568260.0,0.006875222462505368,305.77,2014-06-30 00:00:00,2014-08-30 00:00:00,44.93311139833107,17.271003438285558,-19.93485428337124,4.766606131266769
sh600604,2014-10-15,12.0,12.13,11.97,12.04,0.000831,2212920.0,26677005.0,4015631250.0,4015631250.0,0.006634961016403087,314.38,2014-06-30 00:00:00,2014-08-30 00:00:00,46.19939049233549,17.757724920635248,-20.49664687764049,4.900935882880645
sh600604,2014-10-14,12.13,12.22,11.97,12.03,-0.009877,2395952.0,28849931.0,4012296010.0,4012296010.0,0.007183742796683637,314.12,2014-06-30 00:00:00,2014-08-30 00:00:00,46.16103067584386,17.74298050383656,-20.479628306517775,4.896866586747057
sh600604,2014-10-13,11.98,12.28,11.88,12.15,0.013344,3080643.0,37351207.0,4052318910.0,4052318910.0,0.009236640373400424,317.26,2014-06-30 00:00:00,2014-08-30 00:00:00,46.62151134338245,17.919976107853834,-20.683923418118532,4.945715417929952
sh600604,2014-10-10,12.53,12.53,11.95,11.99,-0.036174,5439643.0,66206622.0,3998955040.0,3998955040.0,0.016309590609950943,313.08,2014-06-30 00:00:00,2014-08-30 00:00:00,46.007586114273586,17.684000801163112,-20.411551672599362,4.880588840443079
sh600604,2014-10-09,12.56,12.75,12.38,12.44,-0.011129,3448571.0,43264499.0,4149040920.0,4149040920.0,0.010339792753839604,324.83,2014-06-30 00:00:00,2014-08-30 00:00:00,47.7343276839114,18.347710895081804,-21.177631307517505,5.063765493401381
sh600604,2014-10-08,12.45,12.58,12.3,12.58,0.013699000000000001,3723738.0,46393547.0,4195734309.9999995,4195734309.9999995,0.011164821358767115,328.48,2014-06-30 00:00:00,2014-08-30 00:00:00,48.27154167116984,18.554200593486712,-21.415969633569496,5.120754368771438
sh600604,2014-09-30,12.39,12.58,12.29,12.41,-0.001609,3022308.0,37516570.0,4139035200.0,4139035200.0,0.009061735517494512,324.05,2014-06-30 00:00:00,2014-08-30 00:00:00,47.61920616590314,18.303461474744193,-21.12655693018292,5.051553142275408
sh600604,2014-09-29,12.51,12.65,12.38,12.43,-0.0056,3269175.0,40901303.0,4145705680.0,4145705680.0,0.009801912722853977,324.57,2014-06-30 00:00:00,2014-08-30 00:00:00,47.69594894776008,18.332959206106818,-21.160604342570114,5.059694190227483
sh600604,2014-09-26,12.65,12.78,12.4,12.5,-0.010293,2970816.0,37122395.0,4169052380.0,4169052380.0,0.00890734790911886,326.4,2014-06-30 00:00:00,2014-08-30 00:00:00,47.964550430169034,18.43620193695376,-21.279771060508967,5.088188043269795
sh600604,2014-09-25,12.25,12.67,12.17,12.63,0.032706,5826923.0,72823222.0,4212410519.9999995,4212410519.9999995,0.017470765762402477,329.79,2014-06-30 00:00:00,2014-08-30 00:00:00,48.46338404211452,18.627939316336818,-21.50108169438932,5.1411054415799775
sh600604,2014-09-24,12.08,12.24,11.9,12.23,0.018318,3124918.0,37846157.0,4079000840.0,4079000840.0,0.009369389377227979,319.35,2014-06-30 00:00:00,2014-08-30 00:00:00,46.92853923780294,18.037988852913433,-20.820138252696623,4.978285631709293
sh600604,2014-09-23,11.85,12.07,11.82,12.01,0.009244,2141473.0,25685824.0,4005625520.0,4005625520.0,0.006420742678411935,313.6,2014-06-30 00:00:00,2014-08-30 00:00:00,46.08436582462741,17.7135127267842,-20.445615468543835,4.888733805853666
sh600604,2014-09-22,12.28,12.28,11.81,11.9,-0.030155,3392741.0,40707279.0,3968937860.0,3968937860.0,0.010172398592302475,310.73,2014-06-30 00:00:00,2014-08-30 00:00:00,45.662263857528416,17.551268798015343,-20.25834730604674,4.843956274056289
sh600604,2014-09-19,12.14,12.45,11.88,12.27,0.006562999999999999,3285619.0,39900259.0,4092341810.0,4092341810.0,0.00985121649210431,320.39,2014-06-30 00:00:00,2014-08-30 00:00:00,47.082022238118896,18.0969833303418,-20.88823194020358,4.994567455682392
sh600604,2014-09-18,12.0,12.29,11.84,12.19,0.012458,2680409.0,32447700.0,4065659880.0,4065659880.0,0.008036625461645847,318.3,2014-06-30 00:00:00,2014-08-30 00:00:00,46.77503766591748,17.978987237104683,-20.75203632579737,4.962001837622078
sh600604,2014-09-17,12.02,12.17,11.69,12.04,-0.0016579999999999998,4036974.0,48062621.0,4015631250.0,4015631250.0,0.012103991610285431,314.38,2014-06-30 00:00:00,2014-08-30 00:00:00,46.199484488163925,17.75776104994447,-20.496688579474277,4.900945854170817
sh600604,2014-09-16,12.84,13.05,12.0,12.06,-0.060748,8073726.0,101227632.0,4022301730.0,4022301730.0,0.024207317624578104,314.91,2014-06-30 00:00:00,2014-08-30 00:00:00,46.27621044508187,17.787252314281552,-20.53072852737266,4.909085117295293
sh600604,2014-09-15,12.97,13.12,12.72,12.84,-0.013066999999999999,4970330.0,63835208.0,4282450599.9999995,4282450599.9999995,0.014902457298631771,335.27,2014-06-30 00:00:00,2014-08-30 00:00:00,49.26921682901061,18.937678401836305,-21.858594421276358,5.226590007043151
sh600604,2014-09-12,12.83,13.09,12.6,13.01,0.004633,4692620.0,60529690.0,4339149710.0,4339149710.0,0.014069804058454576,339.71,2014-06-30 00:00:00,2014-08-30 00:00:00,49.92154161327122,19.18841339973058,-22.148002368221913,5.295790096230595
sh600604,2014-09-11,12.99,13.28,12.68,12.95,-0.002311,6428974.0,82995711.0,4319138260.0,4319138260.0,0.019275885208638818,338.15,2014-06-30 00:00:00,2014-08-30 00:00:00,49.69132171974365,19.099923454366504,-22.04586388086188,5.271367848986242
sh600604,2014-09-10,13.16,13.49,12.92,12.98,-0.019637,7316500.0,95900510.0,4329143990.0,4329143990.0,0.021936939547256777,338.93,2014-06-30 00:00:00,2014-08-30 00:00:00,49.80642436645452,19.1441656211169,-22.096929885828025,5.283578198202287
sh600604,2014-09-09,12.78,13.49,12.56,13.24,0.035184,10439039.0,136194443.0,4415860280.0,4415860280.0,0.031299195988148426,345.72,2014-06-30 00:00:00,2014-08-30 00:00:00,50.804063766640034,19.52762968524608,-22.53953880942878,5.389410043221019
sh600604,2014-09-05,12.3,12.95,12.05,12.79,0.044935,9658215.0,121056728.0,4265774389.9999995,4265774389.9999995,0.02895806448169895,333.97,2014-06-30 00:00:00,2014-08-30 00:00:00,49.07732709029509,18.863921472169277,-21.773461345450453,5.206233909354297
sh600604,2014-09-04,12.2,12.65,12.2,12.24,0.005752,7657989.0,94729553.0,4082336090.0,4082336090.0,0.0229608202983601,319.61,2014-06-30 00:00:00,2014-08-30 00:00:00,46.96687075300865,18.05272239150691,-20.837144267777852,4.98235192557843
sh600604,2014-09-03,12.36,12.39,11.94,12.17,-0.010569,7077899.0,85955802.0,4058989390.0,4058989390.0,0.02122154619132917,317.78,2014-06-30 00:00:00,2014-08-30 00:00:00,46.69826234798305,17.949476999804038,-20.717974478577077,4.95385733816928
sh600604,2014-09-02,12.22,12.7,12.2,12.3,-0.016787,8250744.0,102035024.0,4102347540.0,4102347540.0,0.02473806770647228,321.17,2014-06-30 00:00:00,2014-08-30 00:00:00,47.19708837501862,18.141211463764567,-20.93928174736498,5.006773931855056
sh600604,2014-09-01,11.48,12.55,11.32,12.51,0.078448,10083517.0,120257007.0,4172387620.0,4172387620.0,0.030233240331108066,326.66,2014-06-30 00:00:00,2014-08-30 00:00:00,48.00291328025425,18.4509475197791,-21.296790977504344,5.0922576612138535
sh600604,2014-08-29,11.72,11.85,11.31,11.6,-0.026029000000000004,6909595.0,79656556.0,3868880600.0,3868880600.0,0.020716923132753178,302.9,2014-03-31 00:00:00,2014-04-30 00:00:00,41.369650166897756,16.627259118871955,-25.868130056833426,5.096074877674309
sh600604,2014-08-28,12.0,12.4,11.85,11.91,-0.042605000000000004,13802583.0,166358641.0,3972273100.0,3972273100.0,0.04138405376256733,310.99,2014-03-31 00:00:00,2014-04-30 00:00:00,42.47523814045567,17.071616217394517,-26.55944587347408,5.232265516811392
sh600604,2014-08-27,11.46,12.76,11.36,12.44,0.07241399999999999,23245991.0,285335812.0,4149040920.0,4149040920.0,0.06969806603883771,324.83,2014-03-31 00:00:00,2014-04-30 00:00:00,44.36542716481251,17.831319588460893,-27.741366806254558,5.465106373870129
sh600604,2014-08-26,10.76,11.62,10.66,11.6,0.06715700000000001,15169285.0,170481135.0,3868880600.0,3868880600.0,0.0454818135250801,302.9,2014-03-31 00:00:00,2014-04-30 00:00:00,41.36968294409856,16.627272292660198,-25.868150552169734,5.096078915297757
sh600604,2014-08-25,11.0,11.27,10.81,10.87,-0.018953,5574262.0,61470340.0,3625407950.0,3625407950.0,0.016713216491953686,283.83,2014-03-31 00:00:00,2014-04-30 00:00:00,38.76625739614561,15.580905426905506,-24.240248203563052,4.775378801148995
sh600604,2014-08-22,10.59,11.14,10.5,11.08,0.041352999999999994,8609867.0,94235617.0,3695448030.0,3695448030.0,0.025814820174862533,289.32,2014-03-31 00:00:00,2014-04-30 00:00:00,39.51518876888223,15.881915368892116,-24.708549339188693,4.8676350889906335
sh600604,2014-08-21,10.76,10.84,10.48,10.64,-0.013902000000000001,3947547.0,41984463.0,3548697380.0,3548697380.0,0.01183586414460621,277.83,2014-03-31 00:00:00,2014-04-30 00:00:00,37.94600751991134,15.251231204876845,-23.72735214589932,4.674337221855254
sh600604,2014-08-20,10.68,10.82,10.6,10.79,0.015052000000000001,5225294.0,56143943.0,3598726010.0,3598726010.0,0.01566691159686258,281.75,2014-03-31 00:00:00,2014-04-30 00:00:00,38.480969964355815,15.466242913865402,-24.061860125362106,4.740235982483743
sh600604,2014-08-19,10.63,10.84,10.45,10.63,-0.003749,5159810.0,54953382.0,3545362140.0,3545362140.0,0.01547057201327253,277.57,2014-03-31 00:00:00,2014-04-30 00:00:00,37.91034347437945,15.236897138142087,-23.705051687363905,4.669943985612306
sh600604,2014-08-18,10.64,10.84,10.63,10.67,0.0018780000000000001,5585873.0,59832880.0,3558703110.0,3558703110.0,0.01674802956799619,278.61,2014-03-31 00:00:00,2014-04-30 00:00:00,38.05300418707681,15.294235226004378,-23.794256354436687,4.687517488677358
sh600604,2014-08-15,10.5,10.68,10.46,10.65,0.0066159999999999995,5580247.0,59110143.0,3552032620.0,3552032620.0,0.016731161255495453,278.09,2014-03-31 00:00:00,2014-04-30 00:00:00,37.981674602173925,15.265566492132155,-23.74965450327953,4.6787308321745344
sh600604,2014-08-14,10.98,10.98,10.53,10.58,-0.039055,8895166.0,95524817.0,3528685930.0,3528685930.0,0.026670227429393244,276.26,2014-03-31 00:00:00,2014-04-30 00:00:00,37.732039429309616,15.165233308562703,-23.59355951353796,4.647979797832077
sh600604,2014-08-13,11.13,11.19,10.72,11.01,-0.039267,12249412.0,134512630.0,3672101330.0,3672101330.0,0.03672720712203222,287.49,2014-03-31 00:00:00,2014-04-30 00:00:00,39.26555570746464,15.781583033953767,-24.55245566971883,4.83688431474442
sh600604,2014-08-12,11.56,12.22,11.44,11.46,0.002625,21201831.0,249403417.0,3822187220.0,3822187220.0,0.06356909519989447,299.24,2014-03-31 00:00:00,2014-04-30 00:00:00,40.870414264384216,16.42660659512452,-25.55596161443276,5.034577051838982
sh600604,2014-08-11,11.43,11.43,10.81,11.43,0.09990399999999999,13652043.0,153718486.0,3812181490.0,3812181490.0,0.040932692186698594,298.46,2014-03-31 00:00:00,2014-04-30 00:00:00,40.763410312314384,16.38359964605363,-25.489052850699668,5.0213958876339415
sh600604,2014-04-09,10.11,10.43,9.94,10.42,0.03373,6503383.0,66390603.0,3475322060.0,3475322060.0,0.019498984465341894,271.35,2013-12-31 00:00:00,2014-03-29 00:00:00,36.424594945778054,14.68412139268954,-23.314520036615978,4.848118404459019
sh600604,2014-04-08,9.95,10.09,9.81,10.08,0.011033,3655268.0,36400507.0,3361923840.0,3361923840.0,0.010959528886888765,262.49,2013-12-31 00:00:00,2014-03-29 00:00:00,35.23608190318367,14.204987175267759,-22.55378100337223,4.689927161308097
sh600604,2014-04-04,9.54,9.99,9.51,9.97,0.047269,4743688.0,46537252.0,3325236170.0,3325236170.0,0.014222920400868852,259.63,2013-12-31 00:00:00,2014-03-29 00:00:00,34.851564591050604,14.049973814175953,-22.30766058414733,4.638747856210525
sh600604,2014-04-03,9.36,9.54,9.29,9.52,0.013845,2361852.0,22212649.0,3175150290.0,3175150290.0,0.007081501342098676,247.91,2013-12-31 00:00:00,2014-03-29 00:00:00,33.27852212855589,13.415821354566928,-21.30079338178379,4.429375696416608
sh600604,2014-04-02,9.68,9.86,9.33,9.39,-0.03096,3801306.0,36591100.0,3131792140.0,3131792140.0,0.01139739221007177,244.53,2013-12-31 00:00:00,2014-03-29 00:00:00,32.824072840084916,13.232615788968658,-21.009911161749372,4.368888436019913
sh600604,2014-04-01,9.46,9.72,9.46,9.69,0.008325,2723093.0,26146326.0,3231849400.0,3231849400.0,0.00816460419535638,252.34,2013-12-31 00:00:00,2014-03-29 00:00:00,33.87277392066882,13.655386556766137,-21.68115987136689,4.5084706885370185
sh600604,2014-03-31,10.1,10.3,9.45,9.61,-0.056919000000000004,6139112.0,59824068.0,3205167470.0,3205167470.0,0.018406796796798887,250.25,2013-12-31 00:00:00,2014-03-29 00:00:00,33.593111269351475,13.542644045090757,-21.502154435689775,4.471247552661115
sh600604,2014-03-28,9.88,10.66,9.88,10.19,0.032421,12744121.0,131374706.0,3398611500.0,3398611500.0,0.03821048477885748,265.36,2013-09-30 00:00:00,2013-10-30 00:00:00,30.48825841106289,15.639242001161394,-146.47792246629479,4.731502910498579
sh600604,2014-03-27,9.83,10.17,9.76,9.87,0.0010140000000000001,5910934.0,59106386.0,3291883760.0,3291883760.0,0.017722654514386618,257.03,2013-09-30 00:00:00,2013-10-30 00:00:00,29.530839077336562,15.14812465182459,-141.87809281900968,4.582920059257395
sh600604,2014-03-26,9.84,9.88,9.68,9.86,0.0,2759171.0,26950351.0,3288548510.0,3288548510.0,0.008272776265051964,256.77,2013-09-30 00:00:00,2013-10-30 00:00:00,29.500925139245364,15.132780012891518,-141.73437416360778,4.578277685684111
sh600604,2014-03-25,9.71,10.03,9.66,9.86,0.016495,6396426.0,63272144.0,3288548510.0,3288548510.0,0.01917829710226777,256.77,2013-09-30 00:00:00,2013-10-30 00:00:00,29.500925139245364,15.132780012891518,-141.73437416360778,4.578277685684111
sh600604,2014-03-24,9.49,9.75,9.37,9.7,0.037433,2905394.0,27969725.0,3235184640.0,3235184640.0,0.008711194239596784,252.6,2013-09-30 00:00:00,2013-10-30 00:00:00,29.02220388614343,14.887215394951788,-139.43440367498886,4.50398446198369
sh600604,2014-03-21,9.13,9.44,8.98,9.35,0.0141,1855068.0,17072869.0,3118451180.0,3118451180.0,0.005562019348335606,243.48,2013-09-30 00:00:00,2013-10-30 00:00:00,27.97501514424877,14.350049974265122,-134.40328548926905,4.341470207698897
sh600604,2014-03-20,9.6,9.69,9.21,9.22,-0.036573,1806533.0,17140976.0,3075093030.0,3075093030.0,0.0054164976790962325,240.1,2013-09-30 00:00:00,2013-10-30 00:00:00,27.586051813675937,14.150527536007418,-132.5345483574293,4.281106604574399
sh600604,2014-03-19,9.53,9.85,9.51,9.57,-0.010341,2703340.0,25907163.0,3191826500.0,3191826500.0,0.008105379098769936,249.21,2013-09-30 00:00:00,2013-10-30 00:00:00,28.633255881012197,14.687700818025048,-137.56574017276793,4.4436232372295965
sh600604,2014-03-18,9.36,9.94,9.3,9.67,0.03312,4152990.0,40050552.0,3225178920.0,3225178920.0,0.012451840439289489,251.82,2013-09-30 00:00:00,2013-10-30 00:00:00,28.93244630828619,14.841173392072472,-139.00317197415265,4.490054894897734
sh600604,2014-03-17,9.25,9.37,9.16,9.36,0.010799,1320955.0,12263248.0,3121786420.0,3121786420.0,0.0039605972787850096,243.74,2013-09-30 00:00:00,2013-10-30 00:00:00,28.004923250238292,14.365391621566198,-134.5469761248961,4.346111676182567
sh600604,2014-03-14,9.15,9.31,9.12,9.26,0.008715,1502804.0,13843257.0,3088434000.0,3088434000.0,0.0045058320948415925,241.14,2013-09-30 00:00:00,2013-10-30 00:00:00,27.70572908188304,14.211917128495575,-133.10952634984412,4.299679437932336
sh600604,2014-03-13,9.09,9.25,9.03,9.18,0.013244999999999998,1646451.0,15048472.0,3061752060.0,3061752060.0,0.004936526499797635,239.06,2013-09-30 00:00:00,2013-10-30 00:00:00,27.466359756604227,14.089130357430564,-131.95949931332845,4.262531476117967
sh600604,2014-03-12,9.01,9.09,8.81,9.06,0.004435000000000001,1944945.0,17451487.0,3021729160.0,3021729160.0,0.00583149606300255,235.93,2013-09-30 00:00:00,2013-10-30 00:00:00,27.107323260025197,13.904959173181775,-130.23454279402165,4.206812247894604
sh600604,2014-03-11,9.06,9.3,8.91,9.02,-0.013129,2578657.0,23467332.0,3008388190.0,3008388190.0,0.00773154415953215,234.89,2013-09-30 00:00:00,2013-10-30 00:00:00,26.987633107194785,13.843562971403598,-129.65950289866606,4.188237414959259
sh600604,2014-03-10,9.67,9.67,9.13,9.14,-0.063525,3676436.0,34361146.0,3048411100.0,3048411100.0,0.01102299655056367,238.02,2013-09-30 00:00:00,2013-10-30 00:00:00,27.346667504866176,14.027733078997759,-131.38444933397176,4.243956317451074
sh600604,2014-03-07,9.99,10.07,9.61,9.76,-0.024975,4148044.0,40751914.0,3255196090.0,3255196090.0,0.012437010957456637,254.16,2013-09-30 00:00:00,2013-10-30 00:00:00,29.20170587027542,14.979292644221958,-140.29680379505248,4.531841552044715
sh600604,2014-03-06,9.58,10.08,9.52,10.01,0.042707999999999996,5431451.0,53651796.0,3338577140.0,3338577140.0,0.01628502869039593,260.67,2013-09-30 00:00:00,2013-10-30 00:00:00,29.949699618240988,15.362983148352052,-143.89046823932975,4.647923439957657
sh600604,2014-03-05,9.82,9.93,9.57,9.6,-0.023398,3738210.0,36400636.0,3201832220.0,3201832220.0,0.011208212527763243,249.99,2013-09-30 00:00:00,2013-10-30 00:00:00,28.72299782704361,14.733734802410694,-137.99689677199152,4.457550378397075
sh600604,2014-03-04,9.95,9.95,9.61,9.83,-0.017,4865999.0,47625062.0,3278542790.0,3278542790.0,0.014589643397638864,255.98,2013-09-30 00:00:00,2013-10-30 00:00:00,29.41116015228682,15.08673420944325,-141.3031068664528,4.564346968772412
sh600604,2014-03-03,9.88,10.18,9.65,10.0,0.019368,8922109.0,89150934.0,3335241900.0,3335241900.0,0.02675101017410461,260.41,2013-09-30 00:00:00,2013-10-30 00:00:00,29.919796696120876,15.347644160166073,-143.74680250910762,4.643282775963797
sh600604,2014-02-28,9.34,9.83,9.33,9.81,0.041401,5894336.0,56845205.0,3271872300.0,3271872300.0,0.017672889054991543,255.46,2013-09-30 00:00:00,2013-10-30 00:00:00,29.351320324084014,15.056038800674607,-141.01561213330967,4.555060366780002
sh600604,2014-02-27,9.65,9.76,9.39,9.42,-0.023834,5411379.0,51867778.0,3141797870.0,3141797870.0,0.016224847138240628,245.31,2013-09-30 00:00:00,2013-10-30 00:00:00,28.184455674695926,14.457484485490802,-135.4095224925938,4.37397349030777
sh600604,2014-02-26,9.09,9.65,8.73,9.65,0.046638,6547120.0,60899045.0,3218508430.0,3218508430.0,0.01963012040331987,251.3,2013-09-30 00:00:00,2013-10-30 00:00:00,28.872605350622667,14.810477403936217,-138.71567181462353,4.4807681176232
sh600604,2014-02-25,9.16,9.53,9.13,9.22,0.00655,5148802.0,48130880.0,3075093030.0,3075093030.0,0.01543756692134937,240.1,2013-09-30 00:00:00,2013-10-30 00:00:00,27.58604727768595,14.150525209228231,-132.5345265646991,4.281105900629636
sh600604,2014-02-24,9.15,9.24,9.04,9.16,-0.010799,2176682.0,19844353.0,3055081580.0,3055081580.0,0.006526309231978022,238.54,2013-09-30 00:00:00,2013-10-30 00:00:00,27.406534476862504,14.058442411433345,-131.6720744768756,4.25324713191559
sh600604,2014-02-21,9.18,9.27,9.01,9.26,0.010917,2777475.0,25334034.0,3088434000.0,3088434000.0,0.008327656831908987,241.14,2013-09-30 00:00:00,2013-10-30 00:00:00,27.705728640450733,14.211916902058677,-133.10952422902483,4.299679369426022
sh600604,2014-02-20,9.4,9.54,9.0,9.16,-0.024494,4155440.0,38091599.0,3055081580.0,3055081580.0,0.0124591862453637,238.54,2013-09-30 00:00:00,2013-10-30 00:00:00,27.406531535675757,14.05844090272364,-131.67206034622507,4.253246675469915
sh600604,2014-02-19,9.56,9.65,9.28,9.39,-0.017782,3706464.0,34877643.0,3131792140.0,3131792140.0,0.011113029027526712,244.53,2013-09-30 00:00:00,2013-10-30 00:00:00,28.094682693572114,14.41143458135946,-134.97821678823613,4.360041532773674
sh600604,2014-02-18,9.67,9.68,9.51,9.56,-0.011375,2199458.0,21066547.0,3188491260.0,3188491260.0,0.006594598123502462,248.95,2013-09-30 00:00:00,2013-10-30 00:00:00,28.603306693190426,14.672338097407561,-137.42185216340582,4.438975393215839
sh600604,2014-02-17,9.64,9.75,9.55,9.67,0.002073,2718240.0,26185293.0,3225178920.0,3225178920.0,0.008150053517030924,251.82,2013-09-30 00:00:00,2013-10-30 00:00:00,28.93241288981204,14.841156249748451,-139.00301141828885,4.490049708651752
sh600604,2014-02-14,9.39,9.79,9.32,9.65,0.026595999999999998,6072586.0,58575838.0,3218508430.0,3218508430.0,0.018207333047128293,251.3,2013-09-30 00:00:00,2013-10-30 00:00:00,28.87256007278116,14.810454178236963,-138.71545428156315,4.480761090910294
sh600604,2014-02-13,9.25,9.5,9.17,9.4,0.014024000000000002,2838120.0,26551525.0,3135127390.0,3135127390.0,0.008509487711757703,244.79,2013-09-30 00:00:00,2013-10-30 00:00:00,28.12455929380317,14.426760067482206,-135.12175605745898,4.364678111847596
sh600604,2014-02-12,9.27,9.29,9.11,9.27,0.006515000000000001,1616173.0,14870939.0,3091769240.0,3091769240.0,0.004845744474125113,241.4,2013-09-30 00:00:00,2013-10-30 00:00:00,27.73559530524245,14.227237291703359,-133.2530157643793,4.304314406609307
sh600604,2014-02-11,9.17,9.34,9.1,9.21,0.0043619999999999996,1560648.0,14389063.0,3071757790.0,3071757790.0,0.004679264793204936,239.84,2013-09-30 00:00:00,2013-10-30 00:00:00,27.556067525315026,14.13514681023468,-132.3904917108829,4.276453313273332
sh600604,2014-02-10,8.86,9.25,8.82,9.17,0.03733,2051764.0,18702408.0,3058416820.0,3058416820.0,0.006151769685859889,238.8,2013-09-30 00:00:00,2013-10-30 00:00:00,27.436389992169183,14.073757081843679,-131.81551244559523,4.257880438799289
sh600604,2014-02-07,8.89,8.92,8.71,8.84,-0.013393,1075305.0,9473248.0,2948353840.0,2948353840.0,0.0032240689943782326,230.2,2013-09-30 00:00:00,2013-10-30 00:00:00,26.44904706522436,13.567290140884463,-127.07191775577228,4.104653715596087
sh600604,2014-01-30,8.8,9.13,8.5,8.96,0.012429,2308880.0,20531658.0,2988376740.0,2988376740.0,0.006922676288800188,233.33,2013-09-30 00:00:00,2013-10-30 00:00:00,26.808087784927896,13.751463491425117,-128.79689456467696,4.160373599210311
sh600604,2014-01-29,9.04,9.04,8.8,8.85,-0.015572999999999998,1051260.0,9356754.0,2951689080.0,2951689080.0,0.003151975275119424,230.46,2013-09-30 00:00:00,2013-10-30 00:00:00,26.478980535847843,13.582644799215666,-127.21573025335799,4.109299120442333
sh600604,2014-01-28,8.94,9.0,8.85,8.99,0.007848,1045531.0,9328578.0,2998382470.0,2998382470.0,0.0031347981066604893,234.11,2013-09-30 00:00:00,2013-10-30 00:00:00,26.897860924017568,13.797513476586548,-129.2282010279665,4.174305581259284
sh600604,2014-01-27,8.97,9.06,8.84,8.92,-0.011086,1128414.0,10064822.0,2975035770.0,2975035770.0,0.003383304826617261,232.29,2013-09-30 00:00:00,2013-10-30 00:00:00,26.68841028013904,13.6900737775801,-128.2219154356277,4.1418007291370165
sh600604,2014-01-24,8.83,9.07,8.83,9.02,0.008948999999999999,1565138.0,14041042.0,3008388190.0,3008388190.0,0.0046927270911803435,234.89,2013-09-30 00:00:00,2013-10-30 00:00:00,26.987594755599616,13.84354329858825,-129.65931864209395,4.188231463137357
sh600604,2014-01-23,8.9,8.99,8.78,8.94,0.0056240000000000005,1371083.0,12185090.0,2981706260.0,2981706260.0,0.004110895222790993,232.81,2013-09-30 00:00:00,2013-10-30 00:00:00,26.74822489104961,13.720756250898953,-128.50928901470138,4.151083417632959
sh600604,2014-01-22,8.4,8.92,8.4,8.89,0.053318,2549232.0,22258636.0,2965030050.0,2965030050.0,0.007643319662139682,231.5,2013-09-30 00:00:00,2013-10-30 00:00:00,26.598634172463672,13.644022269654418,-127.79059471005205,4.1278682863903
sh600604,2014-01-21,8.34,8.45,8.31,8.44,0.01199,969743.0,8121203.0,2814944160.0,2814944160.0,0.00290756421967532,219.79,2013-09-30 00:00:00,2013-10-30 00:00:00,25.25223548108328,12.953374260816219,-121.32195093034777,3.9189193447660635
sh600604,2014-01-20,8.5,8.5,8.15,8.34,-0.002392,1524621.0,12614116.0,2781591740.0,2781591740.0,0.00457124564944243,217.18,2013-09-30 00:00:00,2013-10-30 00:00:00,24.95304843040275,12.799903418824513,-119.88453535148349,3.8724882111147974
sh600604,2014-01-17,8.65,8.75,8.28,8.36,-0.036866,1774812.0,15027526.0,2788262230.0,2788262230.0,0.005321389129170967,217.7,2013-09-30 00:00:00,2013-10-30 00:00:00,25.012879237538943,12.830594200151276,-120.17198674377461,3.881773413118978
sh600604,2014-01-16,8.9,8.9,8.62,8.68,-0.020316,1576084.0,13769512.0,2894989970.0,2894989970.0,0.004725546292652614,226.04,2013-09-30 00:00:00,2013-10-30 00:00:00,25.970300329485767,13.321712451383998,-124.77182483826198,4.030356537220135
sh600604,2014-01-15,8.61,8.88,8.5,8.86,0.030233,1370077.0,11979158.0,2955024320.0,2955024320.0,0.004107878956475052,230.72,2013-09-30 00:00:00,2013-10-30 00:00:00,26.50885421164964,13.597968785224621,-127.35925547244007,4.1139352456711915
sh600604,2014-01-14,8.38,8.61,8.38,8.6,0.026253,888955.0,7592860.0,2868308030.0,2868308030.0,0.0026653389106190244,223.95,2013-09-30 00:00:00,2013-10-30 00:00:00,25.730930975468304,13.198925665577224,-123.62179766367419,3.993208570945787
sh600604,2014-01-13,8.8,8.89,8.35,8.38,-0.049887,1832443.0,15710150.0,2794932710.0,2794932710.0,0.005494183199852422,218.22,2013-09-30 00:00:00,2013-10-30 00:00:00,25.072697449331017,12.861278520576528,-120.45937762293917,3.8910566604392747
sh600604,2014-01-10,9.0,9.19,8.58,8.82,-0.02,2242295.0,19868595.0,2941683360.0,2941683360.0,0.006723035581912528,229.68,2013-09-30 00:00:00,2013-10-30 00:00:00,26.389174181735243,13.536577776092452,-126.78426421166658,4.0953619837211725
sh600604,2014-01-09,9.17,9.28,8.96,9.0,-0.021738999999999998,1518683.0,13811651.0,3001717710.0,3001717710.0,0.004553441835808071,234.37,2013-09-30 00:00:00,2013-10-30 00:00:00,26.92772875687269,13.812834465400458,-129.37169817516994,4.178940799715481
sh600604,2014-01-08,8.99,9.25,8.75,9.2,0.016575,2714378.0,24348458.0,3068422550.0,3068422550.0,0.008138474148549065,239.58,2013-09-30 00:00:00,2013-10-30 00:00:00,27.526119059098427,14.119784459771427,-132.24660716840387,4.271805581246192
sh600604,2014-01-07,9.43,9.43,8.78,9.05,-0.05235599999999999,4282123.0,38694416.0,3018393920.0,3018393920.0,0.0128390177614723,235.67,2013-09-30 00:00:00,2013-10-30 00:00:00,27.07731260270854,13.8895649212025,-130.0903594603486,4.202154864369272
sh600604,2014-01-06,9.76,9.86,9.54,9.55,-0.029472,3179706.0,30743945.0,3185156010.0,3185156010.0,0.009533659326156524,248.69,2013-09-30 00:00:00,2013-10-30 00:00:00,28.573296092951086,14.656943874706641,-137.2776691039553,4.434318018548392
sh600604,2014-01-03,9.51,9.87,9.4,9.84,0.0347,3640975.0,34999885.0,3281878030.0,3281878030.0,0.010916674438385511,256.24,2013-09-30 00:00:00,2013-10-30 00:00:00,29.440980675416974,15.102030930283968,-141.44637671860605,4.568974845185704
sh600604,2014-01-02,9.5,9.74,9.4,9.51,0.0,3187389.0,30487341.0,3171815050.0,3171815050.0,0.009556695113733065,247.65,2013-09-30 00:00:00,2013-10-30 00:00:00,28.453639388631462,14.595564830660065,-136.70278990877168,4.415748376520446
sh600604,2013-12-31,9.0,9.61,8.7,9.51,0.061384,5296893.0,49401471.0,3171815050.0,3171815050.0,0.015881585664964924,247.65,2013-09-30 00:00:00,2013-10-30 00:00:00,28.453639388631462,14.595564830660065,-136.70278990877168,4.415748376520446
sh600604,2013-12-30,9.32,9.48,8.95,8.96,-0.038627,5027116.0,46276367.0,2988376740.0,2988376740.0,0.015072717826066336,233.33,2013-09-30 00:00:00,2013-10-30 00:00:00,26.808053813352622,13.751446065382616,-128.7967313514917,4.160368327128019
sh600604,2013-12-27,9.25,9.37,9.08,9.32,0.019694,2024077.0,18749557.0,3108445450.0,3108445450.0,0.006068756213817425,242.7,2013-09-30 00:00:00,2013-10-30 00:00:00,27.88517444670552,14.303965334352657,-133.97165444784875,4.327527741186843
sh600604,2013-12-26,9.1,9.36,9.06,9.14,0.0010949999999999998,2055661.0,18983485.0,3048411100.0,3048411100.0,0.006163453984273972,238.01,2013-09-30 00:00:00,2013-10-30 00:00:00,27.346610303390538,14.027703736957022,-131.38417451495127,4.243947440297621
sh600604,2013-12-25,9.06,9.15,9.02,9.13,0.007726,1491585.0,13545090.0,3045075850.0,3045075850.0,0.004472194362580492,237.75,2013-09-30 00:00:00,2013-10-30 00:00:00,27.316698518512766,14.012360202535245,-131.2404662044574,4.239305400883652
sh600604,2013-12-24,9.12,9.3,8.92,9.06,-0.006579000000000001,1692642.0,15474849.0,3021729160.0,3021729160.0,0.005075020198037868,235.93,2013-09-30 00:00:00,2013-10-30 00:00:00,27.107267767739213,13.904930707886118,-130.23427618663942,4.206803635991979
sh600604,2013-12-23,9.34,9.34,9.0,9.12,-0.020408000000000003,1573925.0,14384218.0,3041740610.0,3041740610.0,0.004719073004716204,237.49,2013-09-30 00:00:00,2013-10-30 00:00:00,27.286787542984506,13.997017083276997,-131.09676178240585,4.234663487073435
sh600604,2013-12-20,9.41,9.52,9.2,9.31,-0.006403,1565563.0,14580904.0,3105110210.0,3105110210.0,0.004694001353980927,242.44,2013-09-30 00:00:00,2013-10-30 00:00:00,27.855257640920414,14.28861922440873,-133.82792201488564,4.322884922573311
sh600604,2013-12-19,9.74,9.74,9.29,9.37,-0.030021,1705902.0,16182557.0,3125121660.0,3125121660.0,0.0051147774323768245,244.0,2013-09-30 00:00:00,2013-10-30 00:00:00,28.034764236325604,14.380698839075329,-134.69034428937047,4.350742728262375
sh600604,2013-12-18,9.58,9.77,9.55,9.66,0.008351,1678161.0,16202563.0,3221843680.0,3221843680.0,0.00503160204842713,251.56,2013-09-30 00:00:00,2013-10-30 00:00:00,28.902444523361435,14.825783691270974,-138.85903126703823,4.4853988882876585
sh600604,2013-12-17,9.67,9.71,9.49,9.58,-0.008282,1910599.0,18273380.0,3195161740.0,3195161740.0,0.00572851702336671,249.47,2013-09-30 00:00:00,2013-10-30 00:00:00,28.66307914938492,14.70299894706404,-137.70902321417663,4.448251539679792
sh600604,2013-12-16,10.02,10.15,9.58,9.66,-0.035927999999999995,3114601.0,30375466.0,3221843680.0,3221843680.0,0.009338456066869142,251.56,2013-09-30 00:00:00,2013-10-30 00:00:00,28.902449233940416,14.825786107607247,-138.85905389856455,4.485399619327059
sh600604,2013-12-13,9.83,10.05,9.82,10.02,0.020367,3099352.0,30849392.0,3341912380.0,3341912380.0,0.009292735269139521,260.93,2013-09-30 00:00:00,2013-10-30 00:00:00,29.979554674277875,15.378297583175579,-144.0339040015316,4.652556675566824
sh600604,2013-12-12,10.03,10.18,9.8,9.82,-0.024825999999999997,4398942.0,43706526.0,3275207550.0,3275207550.0,0.013189274200348006,255.72,2013-09-30 00:00:00,2013-10-30 00:00:00,29.381148816335564,15.071339609351908,-141.15892027234472,4.559689479929108
sh600604,2013-12-11,10.45,10.46,9.92,10.07,-0.039122000000000004,5645694.0,56928903.0,3358588590.0,3358588590.0,0.016927389901006003,262.23,2013-09-30 00:00:00,2013-10-30 00:00:00,30.1291347147643,15.455026086987456,-144.7525470042728,4.675770149664682
sh600604,2013-12-10,10.15,10.58,10.1,10.48,0.032512,5825729.0,60808822.0,3495333510.0,3495333510.0,0.017467185819415556,272.91,2013-09-30 00:00:00,2013-10-30 00:00:00,31.355837801223778,16.08427509734582,-150.64612469457393,4.8661434122382685
sh600604,2013-12-09,10.0,10.33,10.0,10.15,0.000986,4015474.0,40788451.0,3385270530.0,3385270530.0,0.012039528521816542,264.32,2013-09-30 00:00:00,2013-10-30 00:00:00,30.368497219619506,15.577809359451336,-145.90254127271538,4.712917053010782
sh600604,2013-12-06,10.46,10.72,10.1,10.14,-0.035205,7106309.0,73571261.0,3381935290.0,3381935290.0,0.021306727385667988,264.06,2013-09-30 00:00:00,2013-10-30 00:00:00,30.338583376410366,15.562464769188917,-145.75882307316525,4.708274694162338
sh600604,2013-12-05,10.17,10.57,10.03,10.51,0.029383,6740165.0,69755460.0,3505339240.0,3505339240.0,0.020208923958526765,273.69,2013-09-30 00:00:00,2013-10-30 00:00:00,31.44562666308425,16.130333147652006,-151.07750669641246,4.880077834319558
sh600604,2013-12-04,10.2,10.69,10.11,10.21,-0.0039020000000000005,11246940.0,117964375.0,3405281980.0,3405281980.0,0.03372151207284162,265.88,2013-09-30 00:00:00,2013-10-30 00:00:00,30.54803378634022,15.669904348189167,-146.76510754152,4.7407795099778784
sh600604,2013-12-03,9.9,10.28,9.7,10.25,0.022954,8938761.0,89483600.0,3418622950.0,3418622950.0,0.026800937567566494,266.92,2013-09-30 00:00:00,2013-10-30 00:00:00,30.66769914841734,15.73128783331476,-147.3400283320717,4.759350495611756
sh600604,2013-12-02,9.45,10.3,9.31,10.02,0.036194,14233190.0,141489208.0,3341912380.0,3341912380.0,0.042675135546192865,260.93,2013-09-30 00:00:00,2013-10-30 00:00:00,29.979548590080633,15.378294462228762,-144.03387477058766,4.6525557313542505
sh600604,2013-11-29,9.58,9.77,9.53,9.67,0.012565,3155685.0,30469670.0,3225178920.0,3225178920.0,0.009461637542266957,251.82,2013-09-30 00:00:00,2013-10-30 00:00:00,28.932370376667524,14.841134442226805,-139.00280716795083,4.4900431109949
sh600604,2013-11-28,9.71,9.98,9.54,9.55,-0.013430000000000001,5418578.0,53048162.0,3185156010.0,3185156010.0,0.01624643180350843,248.69,2013-09-30 00:00:00,2013-10-30 00:00:00,28.573346280651144,14.656969618964515,-137.27791022596165,4.434325807227093
sh600604,2013-11-27,9.26,9.7,9.18,9.68,0.041981,4478582.0,42691053.0,3228514160.0,3228514160.0,0.01342805749379151,252.08,2013-09-30 00:00:00,2013-10-30 00:00:00,28.962310105366214,14.856492310697178,-139.14664973186052,4.494689487038013
sh600604,2013-11-26,9.5,9.5,9.26,9.29,-0.019007,2115029.0,19785412.0,3098439730.0,3098439730.0,0.006341456062467931,241.92,2013-09-30 00:00:00,2013-10-30 00:00:00,27.79543015214885,14.257930145268654,-133.54048656536014,4.313600235549412
sh600604,2013-11-25,9.16,9.52,9.16,9.47,0.032715,3632118.0,34101744.0,3158474080.0,3158474080.0,0.010890118642354032,246.61,2013-09-30 00:00:00,2013-10-30 00:00:00,28.33397399588871,14.534181329804243,-136.12786897088984,4.397177386127539
sh600604,2013-11-22,9.14,9.4,9.09,9.17,0.004381,2901948.0,26805969.0,3058416820.0,3058416820.0,0.008700862153903536,238.8,2013-09-30 00:00:00,2013-10-30 00:00:00,27.436392417935934,14.073758326163794,-131.81552409995965,4.257880815256424
sh600604,2013-11-21,9.45,9.5,9.11,9.13,-0.040966,3205787.0,29700297.0,3045075850.0,3045075850.0,0.009611857553564716,237.75,2013-09-30 00:00:00,2013-10-30 00:00:00,27.31671787691716,14.01237013261282,-131.24055921006038,4.239308405133535
sh600604,2013-11-20,9.3,9.55,9.3,9.52,0.008475,2941179.0,27717216.0,3175150290.0,3175150290.0,0.008818487795108432,247.91,2013-09-30 00:00:00,2013-10-30 00:00:00,28.4835760535259,14.610921127522921,-136.8466177529268,4.420394277088753
sh600604,2013-11-19,9.67,9.85,9.32,9.44,-0.018711000000000002,4595159.0,43880517.0,3148468350.0,3148468350.0,0.013777588381982623,245.83,2013-09-30 00:00:00,2013-10-30 00:00:00,28.244206404249887,14.488134190260466,-135.6965891597975,4.383246264992938
sh600604,2013-11-18,9.53,9.83,9.53,9.62,0.031083,7135428.0,69198660.0,3208502710.0,3208502710.0,0.021394034403044028,250.51,2013-09-30 00:00:00,2013-10-30 00:00:00,28.782760638557942,14.764390704736796,-138.28402148581867,4.466825028093597
sh600604,2013-11-15,9.26,9.57,9.25,9.33,0.014130000000000002,5373427.0,50686822.0,3111780690.0,3111780690.0,0.016111056306477693,242.96,2013-09-30 00:00:00,2013-10-30 00:00:00,27.915076321264095,14.319303785181987,-134.11531514516162,4.332168242608595
sh600604,2013-11-14,9.18,9.45,8.92,9.2,-0.027483999999999998,4138605.0,38020303.0,3068422550.0,3068422550.0,0.012408710136744367,239.58,2013-09-30 00:00:00,2013-10-30 00:00:00,27.52613207504373,14.119791136424311,-132.24666970226858,4.271807601203588
sh600604,2013-11-13,9.6,9.7,9.11,9.46,-0.010459999999999999,5374132.0,50403802.0,3155138840.0,3155138840.0,0.016113170068927932,246.35,2013-09-30 00:00:00,2013-10-30 00:00:00,28.30404031917596,14.518826565757593,-135.98405548316796,4.392531949298097
sh600604,2013-11-12,9.13,9.56,9.06,9.56,0.041394,6742045.0,63448065.0,3188491260.0,3188491260.0,0.020214560726128507,248.95,2013-09-30 00:00:00,2013-10-30 00:00:00,28.603230106085615,14.67229881132404,-137.42148420798344,4.438963507587461
sh600604,2013-11-11,8.62,9.2,8.58,9.18,0.0625,4119843.0,36905876.0,3061752060.0,3061752060.0,0.012352456371010002,239.06,2013-09-30 00:00:00,2013-10-30 00:00:00,27.46629047803772,14.08909482033125,-131.95916647107958,4.262520724708863
sh600604,2013-11-08,8.6,8.9,8.5,8.64,-0.0011560000000000001,1978239.0,17177549.0,2881649000.0,2881649000.0,0.005931320906883524,224.99,2013-09-30 00:00:00,2013-10-30 00:00:00,25.850626332270796,13.260324536782353,-124.19686256101608,4.011784211490694
sh600604,2013-11-07,8.27,8.79,8.23,8.65,0.045949000000000004,3055786.0,26168527.0,2884984240.0,2884984240.0,0.00916211206061909,225.25,2013-09-30 00:00:00,2013-10-30 00:00:00,25.88054424141387,13.275671212704239,-124.34060029495706,4.016427201335438
sh600604,2013-11-06,8.26,8.45,8.23,8.27,-0.007203,982541.0,8217082.0,2758245050.0,2758245050.0,0.0029459362466724994,215.36,2013-09-30 00:00:00,2013-10-30 00:00:00,24.74360054019256,12.692465132338418,-118.87826298888093,3.839983786337037
sh600604,2013-11-05,8.28,8.34,8.15,8.33,0.006039,897337.0,7386237.0,2778256500.0,2778256500.0,0.0026904705199105984,216.92,2013-09-30 00:00:00,2013-10-30 00:00:00,24.923121786420143,12.784552262283649,-119.74075565184116,3.8678438657016865
sh600604,2013-11-04,8.29,8.47,8.22,8.28,0.0,724449.0,6006852.0,2761580290.0,2761580290.0,0.0021721033213196925,215.62,2013-09-30 00:00:00,2013-10-30 00:00:00,24.77351453216043,12.707809798908043,-119.02198190312818,3.8446261682714953
sh600604,2013-11-01,8.19,8.43,8.16,8.28,0.010989,1134689.0,9404002.0,2761580290.0,2761580290.0,0.0034021190526385167,215.62,2013-09-30 00:00:00,2013-10-30 00:00:00,24.77351453216043,12.707809798908043,-119.02198190312818,3.8446261682714953
sh600604,2013-10-31,8.15,8.29,8.03,8.19,0.018657,950732.0,7702315.0,2731563120.0,2731563120.0,0.0028505638485849813,213.28,2013-09-30 00:00:00,2013-10-30 00:00:00,24.504237466639534,12.569681568155584,-117.72826598818405,3.8028367947341626
sh600604,2013-10-30,7.93,8.1,7.93,8.04,0.006258,1162616.0,9330710.0,2681534490.0,2681534490.0,0.0034858521025399897,209.37,2013-09-30 00:00:00,2013-10-30 00:00:00,24.05543521189128,12.339464184858677,-115.5720384665143,3.7331867299141543
sh600604,2013-10-29,8.25,8.3,7.61,7.99,-0.029162,1923771.0,15258975.0,2664858280.0,2664858280.0,0.00576801040616689,208.07,2013-06-30 00:00:00,2013-08-09 00:00:00,22.150789933521974,21.032874205687513,27.900637581513543,3.864907648962776
sh600604,2013-10-28,8.43,8.51,8.13,8.23,-0.023725,1682998.0,13840324.0,2744904080.0,2744904080.0,0.00504610475860417,214.32,2013-06-30 00:00:00,2013-08-09 00:00:00,22.816154634987477,21.664658991188553,28.738716018031376,3.9810016181513044
sh600604,2013-10-25,8.59,8.66,8.4,8.43,-0.018626,1324186.0,11202621.0,2811608920.0,2811608920.0,0.003970284736470391,219.53,2013-06-30 00:00:00,2013-08-09 00:00:00,23.37062265753756,22.191143879735275,29.437111488086224,4.077746145452157
sh600604,2013-10-24,8.42,8.77,8.42,8.59,0.007034,2289785.0,19824412.0,2864972790.0,2864972790.0,0.006865424069175889,223.69,2013-06-30 00:00:00,2013-08-09 00:00:00,23.814185680013495,22.61232097012482,29.99581351053342,4.155139778975353
sh600604,2013-10-23,9.08,9.24,8.51,8.53,-0.065717,3755472.0,32825324.0,2844961340.0,2844961340.0,0.0112599688823891,222.13,2013-06-30 00:00:00,2013-08-09 00:00:00,23.647846726141807,22.454376883128887,29.78629669954879,4.126116674288407
sh600604,2013-10-22,9.11,9.34,9.07,9.13,0.006615,3628232.0,33308376.0,3045075850.0,3045075850.0,0.010878467332759543,237.75,2013-06-30 00:00:00,2013-08-09 00:00:00,25.311224464259556,24.03380654804689,31.881449945625462,4.41634566216918
sh600604,2013-10-21,8.86,9.13,8.86,9.07,0.013408000000000002,2313254.0,20929939.0,3025064400.0,3025064400.0,0.006935790781842529,236.19,2013-06-30 00:00:00,2013-08-09 00:00:00,25.144891010226903,23.875867683321715,31.671940062114572,4.38732351710354
sh600604,2013-10-18,8.91,9.13,8.8,8.95,0.004489,2140948.0,19337609.0,2985041500.0,2985041500.0,0.0064191685777232905,233.07,2013-06-30 00:00:00,2013-08-09 00:00:00,24.81220891311979,23.559975531396745,31.252901163316817,4.32927657676231
sh600604,2013-10-17,8.95,9.18,8.88,8.91,0.00678,3331480.0,30114156.0,2971700530.0,2971700530.0,0.009988720767903218,232.03,2013-06-30 00:00:00,2013-08-09 00:00:00,24.701324666691015,23.454687439480917,31.113233856534833,4.309929304116133
sh600604,2013-10-16,9.23,9.39,8.71,8.85,-0.069401,7035898.0,63166512.0,2951689080.0,2951689080.0,0.02109561529427754,230.46,2013-06-30 00:00:00,2013-08-09 00:00:00,24.53497751911144,23.29673557230072,30.90370672493974,4.280904769777044
sh600604,2013-10-15,8.81,9.76,8.71,9.51,0.07094600000000001,11653886.0,110150019.0,3171815050.0,3171815050.0,0.03494165142447382,247.65,2013-06-30 00:00:00,2013-08-09 00:00:00,26.36471511264405,25.034129170889628,33.208403109115466,4.600160509281704
sh600604,2013-10-14,8.95,9.06,8.82,8.88,0.010239,3906433.0,34862638.0,2961694810.0,2961694810.0,0.01171259270971272,231.24,2013-06-30 00:00:00,2013-08-09 00:00:00,24.618155455685024,23.375715648491738,31.008475786001785,4.295417798172554
sh600604,2013-10-11,8.45,8.88,8.39,8.79,0.050179,3512674.0,30544777.0,2931677630.0,2931677630.0,0.010531991697873002,228.9,2013-06-30 00:00:00,2013-08-09 00:00:00,24.368644900548304,23.13879750088022,30.694197893767495,4.251882770485552
sh600604,2013-10-10,8.58,8.58,8.35,8.37,-0.014134,3086603.0,26141105.0,2791597470.0,2791597470.0,0.009254510146120743,217.96,2013-06-30 00:00:00,2013-08-09 00:00:00,23.204277461792994,22.033193865884027,29.227586814978682,4.048721951672574
sh600604,2013-10-09,8.55,8.6,8.4,8.49,-0.013937,3229174.0,27395173.0,2831620370.0,2831620370.0,0.00968197840023308,221.09,2013-06-30 00:00:00,2013-08-09 00:00:00,23.53694869464308,22.34907570185403,29.646612029402252,4.106766996399688
sh600604,2013-10-08,8.5,8.68,8.3,8.61,0.001163,2183047.0,18581416.0,2871643280.0,2871643280.0,0.006545393294810628,224.21,2013-06-30 00:00:00,2013-08-09 00:00:00,23.869619582768117,22.664957210496723,30.065636809617892,4.164811980978586
sh600604,2013-09-30,8.35,8.68,8.33,8.6,0.031175,1697405.0,14425143.0,2868308030.0,2868308030.0,0.0050893010260128855,223.95,2013-06-30 00:00:00,2013-08-09 00:00:00,23.84189146299665,22.638628485568006,30.030711092617178,4.159973931296488
sh600604,2013-09-27,8.37,8.55,8.23,8.34,-0.015347999999999999,2705401.0,22685229.0,2781591740.0,2781591740.0,0.00811155857832681,217.18,2013-06-30 00:00:00,2013-08-09 00:00:00,23.12109143743463,21.954206110086076,29.122807566724546,4.034207512106566
sh600604,2013-09-26,9.26,9.26,8.47,8.47,-0.09989400000000001,6343936.0,55656101.0,2824949890.0,2824949890.0,0.019020917188729322,220.57,2013-06-30 00:00:00,2013-08-09 00:00:00,23.48148527341094,22.296411432756013,29.57675154950637,4.0970896439620965
sh600604,2013-09-25,9.63,9.7,9.35,9.41,-0.034872,5277800.0,50346962.0,3138462630.0,3138462630.0,0.01582433944736822,245.05,2013-06-30 00:00:00,2013-08-09 00:00:00,26.08746666882672,24.77087302246182,32.859187195181875,4.551785727416656
sh600604,2013-09-24,9.45,9.8,9.14,9.75,0.043897000000000005,9655356.0,91445377.0,3251860850.0,3251860850.0,0.028949492411398846,253.9,2013-06-30 00:00:00,2013-08-09 00:00:00,27.0300588821656,25.665894080849192,34.04645518022674,4.716250826228911
sh600604,2013-09-23,8.9,9.39,8.9,9.34,0.054176,6621372.0,61071647.0,3115115930.0,3115115930.0,0.019852748940871683,243.22,2013-06-30 00:00:00,2013-08-09 00:00:00,25.89341561683346,24.586615423599447,32.614764847706944,4.517927368532442
sh600604,2013-09-18,8.7,8.97,8.67,8.86,0.014891,2267159.0,19984681.0,2955024320.0,2955024320.0,0.006797584914631091,230.72,2013-06-30 00:00:00,2013-08-09 00:00:00,24.562706433113124,23.323065051376094,30.938633442335004,4.285742958037787
sh600604,2013-09-17,9.04,9.08,8.72,8.73,-0.022396,3123758.0,27804704.0,2911666180.0,2911666180.0,0.00936591135595084,227.34,2013-06-30 00:00:00,2013-08-09 00:00:00,24.202309837325508,22.980857108178213,30.484685983356837,4.222860344645668
sh600604,2013-09-16,9.02,9.19,8.85,8.93,-0.008879000000000001,3385303.0,30359364.0,2978371020.0,2978371020.0,0.010150097347509109,232.55,2013-06-30 00:00:00,2013-08-09 00:00:00,24.756762285470913,23.507327208336104,31.183061836241293,4.3196021544978
sh600604,2013-09-13,9.12,9.38,8.93,9.01,-0.012061,3769569.0,34314653.0,3005052950.0,3005052950.0,0.01130223568606337,234.63,2013-06-30 00:00:00,2013-08-09 00:00:00,24.978546802530584,23.717918607653463,31.462416633530413,4.358299495720301
sh600604,2013-09-12,9.11,9.38,9.08,9.12,-0.003279,4025367.0,37062619.0,3041740610.0,3041740610.0,0.012069190554680465,237.49,2013-06-30 00:00:00,2013-08-09 00:00:00,25.283490987328754,24.007472736326292,31.84651748086715,4.411506677760774
sh600604,2013-09-11,9.5,9.5,8.9,9.15,-0.041885000000000006,7403325.0,67861534.0,3051746340.0,3051746340.0,0.022197265500775533,238.27,2013-06-30 00:00:00,2013-08-09 00:00:00,25.36666829266039,24.086452213133157,31.95128574683101,4.426019596016111
sh600604,2013-09-10,9.48,9.99,9.31,9.55,0.008448,9641800.0,93720405.0,3185156010.0,3185156010.0,0.028908847701937215,248.69,2013-06-30 00:00:00,2013-08-09 00:00:00,26.47559874614257,25.139416680808832,33.348069643864264,4.6195076749827635
sh600604,2013-09-09,9.63,9.64,9.34,9.47,-0.022704,8795758.0,83497423.0,3158474080.0,3158474080.0,0.0263721740784398,246.61,2013-06-30 00:00:00,2013-08-09 00:00:00,26.253806588086416,24.928818026124137,33.068705222147564,4.58080900054615
sh600604,2013-09-06,9.05,10.1,9.05,9.69,0.049837,12737478.0,122149084.0,3231849400.0,3231849400.0,0.038190567239921515,252.34,2013-06-30 00:00:00,2013-08-09 00:00:00,26.863720498279353,25.507950535072425,33.83693908718296,4.687227820993998
sh600604,2013-09-05,9.87,9.87,9.07,9.23,-0.035528,9224672.0,86193610.0,3078428270.0,3078428270.0,0.027658179789259798,240.36,2013-06-30 00:00:00,2013-08-09 00:00:00,25.58846801768213,24.29705805289052,32.23065969972764,4.4647195907498
sh600604,2013-09-04,8.71,9.57,8.44,9.57,0.1,8700071.0,79482519.0,3191826500.0,3191826500.0,0.026085277338852846,249.21,2013-06-30 00:00:00,2013-08-09 00:00:00,26.531063646930264,25.192082354791552,33.4179319873751,4.629185285575734
sh600604,2013-09-03,8.4,8.89,8.18,8.7,0.028369,6068641.0,52375519.0,2901660450.0,2901660450.0,0.01819550481862893,226.56,2013-06-30 00:00:00,2013-08-09 00:00:00,24.1191487699366,22.901893049810496,30.379938170340996,4.208350259614304
sh600604,2013-09-02,8.95,9.08,8.16,8.46,-0.050505,6132270.0,51947457.0,2821614650.0,2821614650.0,0.018386282549248886,220.31,2013-06-30 00:00:00,2013-08-09 00:00:00,23.453788251042766,22.270112235793277,29.541865002096515,4.092257020208022
sh600604,2013-08-30,8.8,9.33,8.78,8.91,-0.00224,9429145.0,85732614.0,2971700530.0,2971700530.0,0.028271247759275395,232.03,2013-06-30 00:00:00,2013-08-09 00:00:00,24.701328865389254,23.45469142627742,31.113239145120847,4.30993003671217
sh600604,2013-08-29,8.51,9.21,8.42,8.93,0.035963,10931703.0,96674865.0,2978371020.0,2978371020.0,0.032776342213402275,232.55,2013-06-30 00:00:00,2013-08-09 00:00:00,24.75678406168743,23.50734788554103,31.18308926507461,4.31960595404924
sh600604,2013-08-28,8.01,8.89,7.96,8.62,0.061576,11256578.0,95551911.0,2874978520.0,2874978520.0,0.033750409502189944,224.47,2013-06-30 00:00:00,2013-08-09 00:00:00,23.897363189310266,22.691300640603025,30.10058203340719,4.169652732818875
sh600604,2013-08-27,7.95,8.5,7.86,8.12,0.02396,9809982.0,80536200.0,2708216420.0,2708216420.0,0.029413104968915294,211.45,2013-06-30 00:00:00,2013-08-09 00:00:00,22.511212752841306,21.375107048956476,28.35461807106339,3.9277948378814846
sh600604,2013-08-26,7.35,8.03,7.32,7.93,0.080381,8164332.0,63498960.0,2644846830.0,2644846830.0,0.02447898003983845,206.51,2013-06-30 00:00:00,2013-08-09 00:00:00,21.984464972109564,20.87494340497332,27.6911383951164,3.8358869857040165
sh600604,2013-08-23,7.41,7.63,7.26,7.34,-0.00542,2620852.0,19501398.0,2448067550.0,2448067550.0,0.00785805672723369,191.14,2013-06-30 00:00:00,2013-08-09 00:00:00,20.348807478204044,19.321834986891954,25.630900946162882,3.550494673364319
sh600604,2013-08-22,7.35,7.43,7.33,7.38,-0.001353,1446165.0,10660301.0,2461408520.0,2461408520.0,0.004336012333296059,192.18,2013-06-30 00:00:00,2013-08-09 00:00:00,20.459699047038995,19.42713003166357,25.77057747608325,3.569843223636428
sh600604,2013-08-21,7.42,7.49,7.33,7.39,-0.005384000000000001,1944358.0,14343710.0,2464743760.0,2464743760.0,0.0058297360777170605,192.44,2013-06-30 00:00:00,2013-08-09 00:00:00,20.487418524302377,19.45345055025807,25.80549230717486,3.574679765358959
sh600604,2013-08-20,7.6,7.65,7.38,7.43,-0.022368,2520281.0,18855476.0,2478084730.0,2478084730.0,0.007556516370608522,193.48,2013-06-30 00:00:00,2013-08-09 00:00:00,20.598319878528372,19.558754886567346,25.945181162554046,3.594030023002806
sh600604,2013-08-19,7.2,7.62,7.18,7.6,0.041096,3370368.0,25267642.0,2534783840.0,2534783840.0,0.010105318014020476,197.91,2013-06-30 00:00:00,2013-08-09 00:00:00,21.06960479866491,20.00625479379495,26.53880106477084,3.6762606205635717
sh600604,2013-08-16,7.35,7.55,7.28,7.3,-0.020134,2855510.0,21056883.0,2434726590.0,2434726590.0,0.008561627858181809,190.1,2013-06-30 00:00:00,2013-08-09 00:00:00,20.23790774209574,19.2165321870365,25.491214128928398,3.53114469805241
sh600604,2013-08-15,7.6,7.6,7.43,7.45,-0.032468000000000004,4242272.0,31769395.0,2484755220.0,2484755220.0,0.012719533153853279,194.01,2013-06-30 00:00:00,2013-08-09 00:00:00,20.653750351676393,19.611387870419527,26.015000141783062,3.6037016266024233
sh600604,2013-08-14,7.86,8.07,7.65,7.7,0.049046,8920328.0,69632589.0,2568136260.0,2568136260.0,0.02674567026283878,200.52,2013-06-30 00:00:00,2013-08-09 00:00:00,21.34683953778934,20.269497929184283,26.887999716581014,3.7246330112104027
sh600604,2013-08-13,7.37,7.37,7.26,7.34,-0.001361,1413700.0,10319369.0,2448067550.0,2448067550.0,0.004238673070928945,191.14,2013-06-30 00:00:00,2013-08-09 00:00:00,20.348811718255767,19.3218390129549,25.63090628683682,3.5504954131757835
sh600604,2013-08-12,7.08,7.37,7.06,7.35,0.038136,2615851.0,18967878.0,2451402800.0,2451402800.0,0.007843062286622174,191.4,2013-06-30 00:00:00,2013-08-09 00:00:00,20.376544194905033,19.348171874876606,25.66583749166297,3.555334223053359
sh600604,2013-08-09,7.14,7.16,6.95,7.08,-0.008403,1511094.0,10631300.0,2361351270.0,2361351270.0,0.004530687854839996,184.37,2013-06-30 00:00:00,2013-08-09 00:00:00,19.628010390647308,18.637415401138778,24.72300112091573,3.424728766802576
sh600604,2013-08-08,7.11,7.24,7.06,7.14,-0.006954000000000001,1328039.0,9489745.0,2381362720.0,2381362720.0,0.003981837113835392,185.93,2013-03-31 00:00:00,2013-04-27 00:00:00,24.151668409805506,16.987215929175747,-158.7873197959966,3.4933188445584347
sh600604,2013-08-07,7.13,7.38,7.13,7.19,0.008415,2190331.0,15842507.0,2398038930.0,2398038930.0,0.0065672327888355005,187.23,2013-03-31 00:00:00,2013-04-27 00:00:00,24.320795219763742,17.106172251009266,-159.89925924478484,3.5177814970891927
sh600604,2013-08-06,7.04,7.15,6.93,7.13,0.012784,1381730.0,9761736.0,2378027470.0,2378027470.0,0.004142817954916223,185.67,2013-03-31 00:00:00,2013-04-27 00:00:00,24.11784356615455,16.963425029386972,-158.56493531411652,3.4884263890255425
sh600604,2013-08-05,6.91,7.05,6.91,7.04,0.01295,1057511.0,7408855.0,2348010300.0,2348010300.0,0.0031707175390159065,183.33,2013-03-31 00:00:00,2013-04-27 00:00:00,23.813412895695976,16.749301953217046,-156.56342844487725,3.444393265519146
sh600604,2013-08-02,6.95,7.08,6.92,6.95,0.002886,1399365.0,9812975.0,2317993120.0,2317993120.0,0.0041956926731516785,180.98,2013-03-31 00:00:00,2013-04-27 00:00:00,23.508971712025247,16.535171482518432,-154.5618524555775,3.4003586213723738
sh600604,2013-08-01,6.8,6.95,6.77,6.93,0.022124,1726179.0,11837808.0,2311322640.0,2311322640.0,0.005175573614421914,180.46,2013-03-31 00:00:00,2013-04-27 00:00:00,23.441320062325378,16.487588302676908,-154.1170705898552,3.3905734264636
sh600604,2013-07-31,6.72,6.89,6.7,6.78,0.014969999999999999,1221330.0,8308399.0,2261294010.0,2261294010.0,0.0036618933068327548,176.56,2013-03-31 00:00:00,2013-04-27 00:00:00,22.933929799442513,16.13071242107309,-150.78118759549253,3.317184046616262
sh600604,2013-07-30,6.64,6.71,6.47,6.68,0.01059,1332294.0,8797453.0,2227941590.0,2227941590.0,0.0039945948134125,173.95,2013-03-31 00:00:00,2013-04-27 00:00:00,22.59567258090635,15.892797246296038,-148.5572850384667,3.2682582210471858
sh600604,2013-07-29,6.9,6.9,6.53,6.61,-0.040639,1647704.0,10999439.0,2204594900.0,2204594900.0,0.004940283332779188,172.13,2013-03-31 00:00:00,2013-04-27 00:00:00,22.358891915520978,15.726256193209942,-147.00054922220355,3.2340100545692967
sh600604,2013-07-26,7.0,7.05,6.81,6.89,-0.015714,1372541.0,9457296.0,2297981670.0,2297981670.0,0.004115266720121401,179.42,2013-03-31 00:00:00,2013-04-27 00:00:00,23.306025485214615,16.392428077866352,-153.22756420388524,3.371004298245704
sh600604,2013-07-25,7.18,7.18,6.95,7.0,-0.018233000000000003,1671186.0,11787796.0,2334669330.0,2334669330.0,0.005010689029782218,182.29,2013-03-31 00:00:00,2013-04-27 00:00:00,23.678103198881843,16.654131093875513,-155.67382265305534,3.424821950373879
sh600604,2013-07-24,7.2,7.2,7.06,7.13,-0.008345,1501736.0,10713812.0,2378027470.0,2378027470.0,0.004502629938080573,185.67,2013-03-31 00:00:00,2013-04-27 00:00:00,24.117843845720873,16.963425226021563,-158.5649371521505,3.4884264294622644
sh600604,2013-07-23,7.12,7.2,6.99,7.19,0.028612000000000002,1502956.0,10724311.0,2398038930.0,2398038930.0,0.004506287827445737,187.23,2013-03-31 00:00:00,2013-04-27 00:00:00,24.320800929477365,17.106176266969428,-159.89929678381145,3.51778232294726
sh600604,2013-07-22,6.8,7.05,6.76,6.99,0.014513999999999999,1157415.0,8054685.0,2331334090.0,2331334090.0,0.0034702580315290636,182.03,2013-03-31 00:00:00,2013-04-27 00:00:00,23.64429048997811,16.630348729131516,-155.4515179521641,3.419931250021641
sh600604,2013-07-19,7.15,7.19,6.88,6.89,-0.028208999999999998,2327577.0,16375145.0,2297981670.0,2297981670.0,0.0069787351828615755,179.42,2013-03-31 00:00:00,2013-04-27 00:00:00,23.306026816759662,16.39242901441628,-153.22757295824812,3.3710044908415666
sh600604,2013-07-18,7.32,7.32,7.07,7.09,-0.031421,2333563.0,16736960.0,2364686510.0,2364686510.0,0.006996682900686062,184.63,2013-03-31 00:00:00,2013-04-27 00:00:00,23.982550586247108,16.868265927978626,-157.6754394291037,3.468857491828558
sh600604,2013-07-17,7.42,7.47,7.3,7.32,-0.012145999999999999,1573295.0,11590968.0,2441397070.0,2441397070.0,0.004717184083455954,190.62,2013-03-31 00:00:00,2013-04-27 00:00:00,24.76055188709141,17.415477651258833,-162.79047907202585,3.5813882933953334
sh600604,2013-07-16,7.4,7.42,7.26,7.41,-0.001348,1593415.0,11705188.0,2471414250.0,2471414250.0,0.004777509537302377,192.96,2013-03-31 00:00:00,2013-04-27 00:00:00,25.06499127106982,17.629606856133428,-164.79204322908632,3.6254226772330056
sh600604,2013-07-15,7.36,7.46,7.25,7.42,0.016438,1901531.0,14020529.0,2474749490.0,2474749490.0,0.0057013285898282985,193.22,2013-03-31 00:00:00,2013-04-27 00:00:00,25.098824486477596,17.653403644245873,-165.0144827518358,3.6303163436642647
sh600604,2013-07-12,7.25,7.53,7.22,7.3,0.0068969999999999995,2033774.0,15017220.0,2434726590.0,2434726590.0,0.006097830557639739,190.1,2013-03-31 00:00:00,2013-04-27 00:00:00,24.692922230846936,17.367909940641606,-162.34584180425742,3.5716062796395502
sh600604,2013-07-11,7.13,7.39,7.07,7.25,0.02546,2208487.0,16041913.0,2418050380.0,2418050380.0,0.006621669623773513,188.8,2013-03-31 00:00:00,2013-04-27 00:00:00,24.523781708404073,17.24894397405257,-161.23381220150367,3.5471416437227945
sh600604,2013-07-10,6.72,7.08,6.72,7.07,0.036657,1406427.0,9815671.0,2358016020.0,2358016020.0,0.004216866554621627,184.11,2013-03-31 00:00:00,2013-04-27 00:00:00,23.914908146981915,16.820689226349703,-157.23071811821393,3.459073629125265
sh600604,2013-07-09,6.9,7.09,6.72,6.82,-0.029872000000000003,2165958.0,14880159.0,2274634980.0,2274634980.0,0.006494155629313323,177.6,2013-03-31 00:00:00,2013-04-27 00:00:00,23.06925834387065,16.22589653699315,-151.6709173026507,3.336758087897217
sh600604,2013-07-08,7.39,7.39,7.01,7.03,-0.058901999999999996,2055732.0,14665236.0,2344675060.0,2344675060.0,0.006163666857956855,183.07,2013-03-31 00:00:00,2013-04-27 00:00:00,23.77960263374591,16.72552130955209,-156.34113983170334,3.439502919096467
sh600604,2013-07-05,7.4,7.56,7.35,7.47,0.006739,2236505.0,16687527.0,2491425700.0,2491425700.0,0.006705675529476958,194.53,2013-03-31 00:00:00,2013-04-27 00:00:00,25.267934512394998,17.772348160927013,-166.1263118524355,3.654776568536398
sh600604,2013-07-04,7.34,7.57,7.29,7.42,0.012278,3421583.0,25435353.0,2474749490.0,2474749490.0,0.010258875075068709,193.22,2013-03-31 00:00:00,2013-04-27 00:00:00,25.098793741371892,17.653382019497617,-165.0142806153685,3.630311896664774
sh600604,2013-07-03,7.39,7.39,7.15,7.33,-0.006775,2543530.0,18444452.0,2444732310.0,2444732310.0,0.007626223461659898,190.88,2013-03-31 00:00:00,2013-04-27 00:00:00,24.794368485111693,17.439262751435493,-163.0128093422642,3.5862795562728556
sh600604,2013-07-02,7.34,7.45,7.11,7.38,0.006821,2294902.0,16743848.0,2461408520.0,2461408520.0,0.00688076628580127,192.18,2013-03-31 00:00:00,2013-04-27 00:00:00,24.963496171674787,17.558219689834118,-164.12475455437004,3.610742335596522
sh600604,2013-07-01,7.45,7.45,7.03,7.33,-0.016107,3652006.0,26325453.0,2444732310.0,2444732310.0,0.010949748514592995,190.88,2013-03-31 00:00:00,2013-04-27 00:00:00,24.794373748337375,17.439266453355778,-163.01284394581563,3.58628031755051
sh600604,2013-06-28,7.67,7.82,7.38,7.45,-0.029948000000000002,2714599.0,20639144.0,2484755220.0,2484755220.0,0.008139136759716718,194.01,2013-03-31 00:00:00,2013-04-27 00:00:00,25.200274570850056,17.724759148968207,-165.68147547123073,3.6449901742877624
sh600604,2013-06-27,7.78,7.86,7.4,7.68,-0.010309,4346385.0,33199968.0,2561465780.0,2561465780.0,0.013031693439215104,199.99,2013-03-31 00:00:00,2013-04-27 00:00:00,25.978271856405694,18.271968048071862,-170.7964887152758,3.757520395079607
sh600604,2013-06-26,7.8,7.89,7.61,7.76,-0.004093,1544817.0,11957027.0,2588147710.0,2588147710.0,0.0046317989787375774,202.08,2013-03-31 00:00:00,2013-04-27 00:00:00,26.24887147241482,18.462295856051902,-172.5755702691808,3.796660164717681
sh600604,2013-06-25,7.68,7.9,7.18,7.82,-0.001277,2975465.0,22470819.0,2608159170.0,2608159170.0,0.00892128692437126,202.91,2013-03-31 00:00:00,2013-04-27 00:00:00,26.35674964872706,18.538172596489336,-173.28482505814378,3.8122637602885425
sh600604,2013-06-24,8.38,8.48,7.56,7.83,-0.06563200000000001,2440810.0,19523784.0,2611494410.0,2611494410.0,0.0073182397889949916,203.17,2013-03-31 00:00:00,2013-04-27 00:00:00,26.390450253701037,18.561876112284722,-173.50639272164932,3.817138245828465
sh600604,2013-06-21,8.2,8.5,7.97,8.38,0.003593,1657626.0,13643692.0,2794932710.0,2794932710.0,0.00497003231251317,217.44,2013-03-31 00:00:00,2013-04-27 00:00:00,28.244171732872953,19.865701856532674,-185.6938515891483,4.08526217275042
sh600604,2013-06-20,8.52,8.66,8.31,8.35,-0.041332,2429757.0,20636437.0,2784926990.0,2784926990.0,0.0072850997612687865,216.66,2013-03-31 00:00:00,2013-04-27 00:00:00,28.14305374078232,19.79457993084116,-185.02904224037863,4.070636376250553
sh600604,2013-06-19,8.39,8.77,8.05,8.71,0.041866,3780891.0,31516177.0,2904995690.0,2904995690.0,0.01133618226125492,226.0,2013-03-31 00:00:00,2013-04-27 00:00:00,29.356413003023285,20.648003199064913,-193.00638202211678,4.2461377413771535
sh600604,2013-06-18,8.49,8.5,8.29,8.36,-0.010651,1717285.0,14376454.0,2788262230.0,2788262230.0,0.005148906887427155,216.92,2013-03-31 00:00:00,2013-04-27 00:00:00,28.176764577232852,19.81829064300487,-185.25067717164853,4.075512341680363
sh600604,2013-06-17,8.55,8.65,8.38,8.45,-0.004711,1816077.0,15401936.0,2818279410.0,2818279410.0,0.005445113282788379,219.26,2013-03-31 00:00:00,2013-04-27 00:00:00,28.480106188243834,20.031647722901493,-187.24502392143572,4.1193879426576085
sh600604,2013-06-14,8.47,8.57,8.37,8.49,0.01555,1830046.0,15553411.0,2831620370.0,2831620370.0,0.005486996316529536,220.29,2013-03-31 00:00:00,2013-04-27 00:00:00,28.6149110341256,20.126463492414256,-188.13131052532052,4.138886235714058
sh600604,2013-06-13,9.05,9.05,8.24,8.36,-0.086339,3529435.0,29866769.0,2788262230.0,2788262230.0,0.010582245917379154,216.92,2013-03-31 00:00:00,2013-04-27 00:00:00,28.176762379130125,19.81828909695658,-185.2506627200241,4.0755120237448255
sh600604,2013-06-07,9.38,9.55,9.1,9.15,-0.035827,3637150.0,34126723.0,3051746340.0,3051746340.0,0.010905206000836885,237.42,2013-03-31 00:00:00,2013-04-27 00:00:00,30.83940583994515,21.691074804502527,-202.7564520320164,4.460639147063108
sh600604,2013-06-06,9.72,9.88,9.46,9.49,-0.027663999999999998,2872453.0,27734726.0,3165144560.0,3165144560.0,0.0086124277906599,246.24,2013-03-31 00:00:00,2013-04-27 00:00:00,31.985344787652373,22.497077603814382,-210.29053088192305,4.626388777805547
sh600604,2013-06-05,9.66,9.78,9.55,9.76,0.0072239999999999995,2714029.0,26203497.0,3255196090.0,3255196090.0,0.00813742776399071,253.25,2013-03-31 00:00:00,2013-04-27 00:00:00,32.89536208435394,23.1371435427819,-216.27352158299502,4.758014490675596
sh600604,2013-06-04,10.0,10.07,9.61,9.69,-0.038689999999999995,4748030.0,46407877.0,3231849400.0,3231849400.0,0.014235938933293116,251.43,2013-03-31 00:00:00,2013-04-27 00:00:00,32.659430359437366,22.971199596893943,-214.72236720232544,4.723889115703753
sh600604,2013-06-03,10.2,10.66,9.95,10.08,-0.00198,9744545.0,100281788.0,3361923840.0,3361923840.0,0.029216906234259016,261.55,2013-03-31 00:00:00,2013-04-27 00:00:00,33.97387976764766,23.895725205078428,-223.3643332560001,4.914012249642418
sh600604,2013-05-31,9.26,10.2,9.26,10.1,0.07446799999999999,9562471.0,94425847.0,3368594320.0,3368594320.0,0.028670996838823855,262.07,2013-03-31 00:00:00,2013-04-27 00:00:00,34.04128150502761,23.943132607641555,-223.8074720506604,4.923761297010499
sh600604,2013-05-30,9.7,9.7,9.4,9.4,-0.040816000000000005,5080661.0,48354091.0,3135127390.0,3135127390.0,0.015233260872375587,243.91,2013-03-31 00:00:00,2013-04-27 00:00:00,31.68198727651974,22.283709340475063,-208.29607959535363,4.5825108770205345
sh600604,2013-05-29,9.99,10.05,9.79,9.8,-0.019019,3886274.0,38485584.0,3268537060.0,3268537060.0,0.01165215033541642,254.28,2013-03-31 00:00:00,2013-04-27 00:00:00,33.03014570355608,23.231944382386548,-217.1596686301623,4.777509713486186
sh600604,2013-05-28,9.86,10.05,9.66,9.99,0.012158,4490862.0,44461291.0,3331906660.0,3331906660.0,0.01346487640803239,259.21,2013-03-31 00:00:00,2013-04-27 00:00:00,33.670525426645455,23.682359171468715,-221.3699028117388,4.870134807387897
sh600604,2013-05-27,9.8,9.87,9.54,9.87,0.006116,3815890.0,37011203.0,3291883760.0,3291883760.0,0.011441119142068369,256.1,2013-03-31 00:00:00,2013-04-27 00:00:00,33.266076468936134,23.397887653378938,-218.7108167022726,4.811634949669812
sh600604,2013-05-24,9.77,9.89,9.65,9.81,0.0040939999999999995,3099858.0,30225017.0,3271872300.0,3271872300.0,0.009294252400987656,254.54,2013-03-31 00:00:00,2013-04-27 00:00:00,33.06385791393452,23.25565606091041,-217.381312594445,4.782385877642153
sh600604,2013-05-23,9.8,10.32,9.72,9.77,-0.012133,4509629.0,45022341.0,3258531340.0,3258531340.0,0.01352114518254104,253.51,2013-03-31 00:00:00,2013-04-27 00:00:00,32.92904639798118,23.16083559996416,-216.49498213757377,4.762886619820607
sh600604,2013-05-22,9.85,10.15,9.71,9.89,-0.0030239999999999998,4511567.0,44952884.0,3298554240.0,3298554240.0,0.013526955867186226,256.62,2013-03-31 00:00:00,2013-04-27 00:00:00,33.3334815293771,23.445297393236288,-219.15397734469693,4.8213844776884
sh600604,2013-05-21,9.26,10.19,9.18,9.92,0.06666699999999999,7836957.0,76621649.0,3308559960.0,3308559960.0,0.02349741711798991,257.4,2013-03-31 00:00:00,2013-04-27 00:00:00,33.434587722650406,23.51641102016126,-219.8187091210791,4.836008567596814
sh600604,2013-05-20,9.2,9.33,9.04,9.3,0.026489999999999996,4331733.0,39813820.0,3101774970.0,3101774970.0,0.012987762584208357,241.31,2013-03-31 00:00:00,2013-04-27 00:00:00,31.344916194698442,22.046628441829792,-206.07997540101934,4.53375661532307
sh600604,2013-05-17,9.1,9.16,8.96,9.06,-0.004396,3747554.0,34018646.0,3021729160.0,3021729160.0,0.011236228477869275,235.08,2013-03-31 00:00:00,2013-04-27 00:00:00,30.536017101675075,21.47768457737513,-200.76179543981857,4.416756729557103
sh600604,2013-05-16,9.07,9.17,8.9,9.1,0.0033079999999999997,3266627.0,29500860.0,3035070130.0,3035070130.0,0.009794273089828076,236.12,2013-03-31 00:00:00,2013-04-27 00:00:00,30.670846141312282,21.572517363705977,-201.64824110772813,4.4362585220199025
sh600604,2013-05-15,9.1,9.22,8.94,9.07,-0.0022,3240573.0,29382610.0,3025064400.0,3025064400.0,0.00971615583126098,235.34,2013-03-31 00:00:00,2013-04-27 00:00:00,30.569721502581736,21.501390763061767,-200.98338806002553,4.421631764144113
sh600604,2013-05-14,9.01,9.14,8.83,9.09,0.01,3681594.0,33060695.0,3031734890.0,3031734890.0,0.011038461697421044,235.86,2013-03-31 00:00:00,2013-04-27 00:00:00,30.637123173563577,21.548798118923397,-201.42652641814544,4.431380801908311
sh600604,2013-05-13,8.75,9.12,8.69,9.0,0.020408000000000003,4692700.0,42149953.0,3001717710.0,3001717710.0,0.014070043914955614,233.53,2013-03-31 00:00:00,2013-04-27 00:00:00,30.333785320359972,21.33544368210237,-199.4322043744014,4.387505744463674
sh600604,2013-05-10,8.13,8.94,8.09,8.82,0.084871,7579270.0,66122761.0,2941683360.0,2941683360.0,0.02272479842969911,228.86,2013-03-31 00:00:00,2013-04-27 00:00:00,29.727114370291076,20.90873815385843,-195.44359155788806,4.299756317535412
sh600604,2013-05-09,8.39,8.4,8.01,8.13,-0.032143,3203238.0,26234728.0,2711551660.0,2711551660.0,0.009604214931313535,210.95,2013-03-31 00:00:00,2013-04-27 00:00:00,27.401519969001914,19.27301785544865,-180.15376165266474,3.9633802705901546
sh600604,2013-05-08,8.55,8.67,8.37,8.4,-0.012925999999999998,2932870.0,24885339.0,2801603200.0,2801603200.0,0.008793575050171275,217.96,2013-03-31 00:00:00,2013-04-27 00:00:00,28.31153772613301,19.913084118261946,-186.13675538087213,4.095006050057142
sh600604,2013-05-07,8.4,8.52,8.36,8.51,0.013094999999999999,2412513.0,20327353.0,2838290860.0,2838290860.0,0.007233397365765396,220.81,2013-03-31 00:00:00,2013-04-27 00:00:00,28.68228494128405,20.173851320429822,-188.57426634768228,4.148631257694096
sh600604,2013-05-06,8.45,8.5,8.32,8.4,-0.011765000000000001,3371469.0,28313719.0,2801603200.0,2801603200.0,0.010108619093524738,217.96,2013-03-31 00:00:00,2013-04-27 00:00:00,28.311545256154698,19.913089414546334,-186.13680488767812,4.09500713920619
sh600604,2013-05-03,8.33,8.57,8.33,8.5,0.013111000000000001,2450234.0,20709785.0,2834955620.0,2834955620.0,0.007346495604047586,220.55,2013-03-31 00:00:00,2013-04-27 00:00:00,28.648595987952962,20.15015599988498,-188.3527752889526,4.143758457458185
sh600604,2013-05-02,8.3,8.5,8.3,8.39,0.010843,1770156.0,14895191.0,2798267950.0,2798267950.0,0.005307429133082128,217.7,2013-03-31 00:00:00,2013-04-27 00:00:00,28.27784516005942,19.889386256673728,-185.91524056984142,4.090132727270936
sh600604,2013-04-26,8.25,8.44,8.2,8.3,0.010962000000000001,1882371.0,15678032.0,2768250780.0,2768250780.0,0.005643881476663036,215.36,2012-12-31 00:00:00,2013-03-29 00:00:00,32.07627359433062,15.354688831806438,735.6192858922097,4.142394906707094
sh600604,2013-04-25,8.49,8.5,8.19,8.21,-0.036385,2570951.0,21471806.0,2738233600.0,2738233600.0,0.007708439378583333,213.03,2012-12-31 00:00:00,2013-03-29 00:00:00,31.728466148411737,15.188195829127546,727.6428648081826,4.097478349044865
sh600604,2013-04-24,8.58,8.75,8.19,8.52,-0.006993000000000001,4361182.0,36824698.0,2841626100.0,2841626100.0,0.013076059035353032,221.07,2012-12-31 00:00:00,2013-03-29 00:00:00,32.926496732005766,15.761684727954156,755.1178269414471,4.252194443885643
sh600604,2013-04-23,9.16,9.16,8.57,8.58,-0.060240999999999996,3712914.0,32815188.0,2861637550.0,2861637550.0,0.011132367940866585,222.63,2012-12-31 00:00:00,2013-03-29 00:00:00,33.158373236045435,15.872682395949031,760.4355527619113,4.282139445024702
sh600604,2013-04-22,9.43,9.43,9.05,9.13,-0.030786,3293750.0,30223844.0,3045075850.0,3045075850.0,0.009875595545509975,236.9,2012-12-31 00:00:00,2013-03-29 00:00:00,35.2839113390193,16.890162686336634,809.181452651064,4.556635738550737
sh600604,2013-04-19,9.31,9.47,9.25,9.42,0.011815,3038243.0,28552178.0,3141797870.0,3141797870.0,0.009109513165466624,244.42,2012-12-31 00:00:00,2013-03-29 00:00:00,36.40466536700801,17.426659836049247,834.8841975570555,4.701372182563126
sh600604,2013-04-18,9.39,9.56,9.3,9.31,-0.02,2973620.0,27933788.0,3105110210.0,3105110210.0,0.008915755102940454,241.57,2012-12-31 00:00:00,2013-03-29 00:00:00,35.97956678543805,17.22316810488997,825.1352248751556,4.646474091175882
sh600604,2013-04-17,9.43,9.53,9.27,9.5,0.0021100000000000003,3365670.0,31648474.0,3168479810.0,3168479810.0,0.010091232047333134,246.5,2012-12-31 00:00:00,2013-03-29 00:00:00,36.71384365861026,17.57466133152038,841.9747192603628,4.741300093036615
sh600604,2013-04-16,9.19,9.49,9.12,9.48,0.023758,4694983.0,43852309.0,3161809320.0,3161809320.0,0.014076889001010345,245.98,2012-12-31 00:00:00,2013-03-29 00:00:00,36.63654055803281,17.537656875513047,840.2018932655724,4.731317014136786
sh600604,2013-04-15,9.06,9.3,8.89,9.26,0.036954,4173075.0,38290683.0,3088434000.0,3088434000.0,0.012512060966820077,240.27,2012-12-31 00:00:00,2013-03-29 00:00:00,35.78632895472642,17.130666500787342,820.7036167390853,4.621518966529967
sh600604,2013-04-12,9.0,9.11,8.82,8.93,0.006764,2409558.0,21669559.0,2978371020.0,2978371020.0,0.007224537438589501,231.71,2012-12-31 00:00:00,2013-03-29 00:00:00,34.51100912357388,16.520179777297106,791.4561463084045,4.456821581796268
sh600604,2013-04-11,9.06,9.11,8.86,8.87,-0.016630000000000002,1856552.0,16589103.0,2958359570.0,2958359570.0,0.00556646879811165,230.15,2012-12-31 00:00:00,2013-03-29 00:00:00,34.279144986882606,16.409188029465803,786.138704113779,4.426878177801618
sh600604,2013-04-10,9.06,9.15,8.77,9.02,-0.0055130000000000005,2509974.0,22466997.0,3008388190.0,3008388190.0,0.0075256130692362535,234.05,2012-12-31 00:00:00,2013-03-29 00:00:00,34.858847622850604,16.686687645002188,799.433279552741,4.501742149751993
sh600604,2013-04-09,9.18,9.45,9.0,9.07,-0.016269,3736461.0,34271696.0,3025064400.0,3025064400.0,0.011202968528537773,235.34,2012-12-31 00:00:00,2013-03-29 00:00:00,35.05208979388429,16.779191326786762,803.8649872273253,4.526697834915885
sh600604,2013-04-08,8.75,9.3,8.61,9.22,0.029018000000000002,2958396.0,26873842.0,3075093030.0,3075093030.0,0.008870109246743668,239.24,2012-12-31 00:00:00,2013-03-29 00:00:00,35.63178327600156,17.05668656043854,817.1593527370036,4.601560624719446
sh600604,2013-04-03,9.1,9.19,8.67,8.96,-0.014301,4339255.0,38592201.0,2988376740.0,2988376740.0,0.013010315693997807,232.49,2012-12-31 00:00:00,2013-03-29 00:00:00,34.62697763887664,16.575693098117366,794.1157032598104,4.471797990627419
sh600604,2013-04-02,9.5,9.67,8.95,9.09,-0.049163,5093433.0,47354301.0,3031734890.0,3031734890.0,0.015271554951165271,235.86,2012-12-31 00:00:00,2013-03-29 00:00:00,35.129362654194274,16.81618130698861,805.6371197087655,4.536677008526355
sh600604,2013-04-01,9.4,9.75,9.32,9.56,0.0063159999999999996,4169440.0,40007759.0,3188491260.0,3188491260.0,0.012501162195439106,248.06,2012-12-31 00:00:00,2013-03-29 00:00:00,36.94572534955441,17.685661482450314,847.292564034388,4.771245764023018
sh600604,2013-03-29,9.44,9.77,9.21,9.5,-0.001052,5848255.0,55594341.0,3168479810.0,3168479810.0,0.017534725114754637,246.5,2012-12-31 00:00:00,2013-03-29 00:00:00,36.713840731494294,17.57465993033035,841.9746521315253,4.741299715022933
sh600604,2013-03-28,10.2,10.2,9.4,9.51,-0.08469700000000001,8211839.0,79846127.0,3171815050.0,3171815050.0,0.024621419489765015,246.76,2012-09-30 00:00:00,2012-10-29 00:00:00,76.74051427715425,15.210340307729071,60961.48391847477,5.147695411662849
sh600604,2013-03-27,10.54,11.08,10.38,10.39,-0.018886,8063753.0,86736008.0,3465316330.0,3465316330.0,0.024177415765677012,269.59,2012-09-30 00:00:00,2012-10-29 00:00:00,83.84165055413808,16.61781979052737,66602.51732866032,5.624034239659271
sh600604,2013-03-26,10.32,10.78,10.1,10.59,0.025169,8162719.0,85635336.0,3532021170.0,3532021170.0,0.024474143854013197,274.78,2012-09-30 00:00:00,2012-10-29 00:00:00,85.45556434230689,16.937705292685017,67884.58561253872,5.732294350767872
sh600604,2013-03-25,10.46,10.69,10.23,10.33,-0.007684999999999999,6370362.0,66532476.0,3445304880.0,3445304880.0,0.019100149842181748,268.04,2012-09-30 00:00:00,2012-10-29 00:00:00,83.35753845688554,16.52186643634856,66217.94612648131,5.591560367868978
sh600604,2013-03-22,9.79,10.45,9.75,10.41,0.055781,8237629.0,84147501.0,3471986820.0,3471986820.0,0.02469874522449944,270.11,2012-09-30 00:00:00,2012-10-29 00:00:00,84.00310229804602,16.649820305395522,66730.7721101478,5.6348643000145895
sh600604,2013-03-21,9.96,10.16,9.65,9.86,-0.012024,7455078.0,74224780.0,3288548510.0,3288548510.0,0.022352435689020747,255.84,2012-09-30 00:00:00,2012-10-29 00:00:00,79.56489300152779,15.770145802392282,63205.12692513674,5.337152591318266
sh600604,2013-03-20,9.69,10.25,9.55,9.98,0.029927999999999996,10386781.0,102379949.0,3328571420.0,3328571420.0,0.031142511696504324,258.96,2012-09-30 00:00:00,2012-10-29 00:00:00,80.53322449282958,15.962073777492854,63974.354564419315,5.402107532286478
sh600604,2013-03-19,8.84,9.78,8.65,9.69,0.089989,8384221.0,78121035.0,3231849400.0,3231849400.0,0.025138269589542135,251.43,2012-09-30 00:00:00,2012-10-29 00:00:00,78.19306251779696,15.49824237955746,62115.36589394532,5.245131244403957
sh600604,2013-03-18,9.1,9.4,8.84,8.89,-0.037879,5343899.0,48343493.0,2965030050.0,2965030050.0,0.016022522979151597,230.67,2012-09-30 00:00:00,2012-10-29 00:00:00,71.7374785596891,14.218714482033727,56987.14931430072,4.812095575647054
sh600604,2013-03-15,9.27,9.75,9.0,9.24,-0.017021,6838060.0,63494931.0,3081763520.0,3081763520.0,0.020502440888131482,239.75,2012-09-30 00:00:00,2012-10-29 00:00:00,74.5618051780276,14.778509649029306,59230.75092873008,5.001549260069216
sh600604,2013-03-14,8.8,9.67,8.67,9.4,0.068182,12484861.0,116679827.0,3135127390.0,3135127390.0,0.03743314985360132,243.91,2012-09-30 00:00:00,2012-10-29 00:00:00,75.85289734371496,15.034410347555038,60256.374682195725,5.088154741931633
sh600604,2013-03-13,8.41,8.96,8.25,8.8,0.043891,7849224.0,68036604.0,2935012870.0,2935012870.0,0.023534197040846368,228.34,2012-09-30 00:00:00,2012-10-29 00:00:00,71.01121095816534,14.074764738176679,56410.21350499796,4.763378096552493
sh600604,2013-03-12,8.45,8.51,8.08,8.43,-0.002367,3488290.0,28893543.0,2811608920.0,2811608920.0,0.010458881564510046,218.74,2012-09-30 00:00:00,2012-10-29 00:00:00,68.02550358051303,13.482983125802098,54038.41349815063,4.563099113367671
sh600604,2013-03-11,8.14,8.55,8.11,8.45,0.03681,5278282.0,44405309.0,2818279410.0,2818279410.0,0.015825784605224786,219.26,2012-09-30 00:00:00,2012-10-29 00:00:00,68.18690197749378,13.51497306705181,54166.62590165986,4.573925595251632
sh600604,2013-03-08,7.88,8.15,7.88,8.15,0.032952999999999996,2952344.0,23856072.0,2718222150.0,2718222150.0,0.008851963626298903,211.47,2012-09-30 00:00:00,2012-10-29 00:00:00,65.76605354644899,13.035149224112239,52243.5411518599,4.41153692118289
sh600604,2013-03-07,7.88,8.06,7.84,7.89,0.001269,1842757.0,14670474.0,2631505860.0,2631505860.0,0.005525107487315267,204.73,2012-09-30 00:00:00,2012-10-29 00:00:00,63.668001880481484,12.61930525794711,50576.88118613326,4.270801208944541
sh600604,2013-03-06,7.74,7.94,7.73,7.88,0.015463999999999999,1577711.0,12402235.0,2628170620.0,2628170620.0,0.004730424495803853,204.47,2012-09-30 00:00:00,2012-10-29 00:00:00,63.58730958461861,12.603311655456336,50512.78046771973,4.26538843102557
sh600604,2013-03-05,7.61,7.82,7.55,7.76,0.011734,1489598.0,11514523.0,2588147710.0,2588147710.0,0.004466236774407284,201.35,2012-09-30 00:00:00,2012-10-29 00:00:00,62.6189698350888,12.41138204353511,49743.54626822785,4.200432936101693
sh600604,2013-03-04,7.79,7.99,7.6,7.67,-0.054254,2478623.0,19281395.0,2558130540.0,2558130540.0,0.0074316138729964894,199.02,2012-09-30 00:00:00,2012-10-29 00:00:00,61.89272065097032,12.267435950096678,49166.625089428504,4.1517166924326885
sh600604,2013-03-01,8.1,8.12,7.94,8.11,0.004957,1977155.0,15925512.0,2704881180.0,2704881180.0,0.005928070766494814,210.43,2012-09-30 00:00:00,2012-10-29 00:00:00,65.44328038497686,12.97117402568626,51987.135118127386,4.389885542664404
sh600604,2013-02-28,7.92,8.1,7.85,8.07,0.026718000000000002,1736221.0,13957960.0,2691540210.0,2691540210.0,0.005205682388820786,209.4,2012-09-30 00:00:00,2012-10-29 00:00:00,65.12047817466502,12.907193069640051,51730.70600844352,4.368232215571814
sh600604,2013-02-27,7.87,8.04,7.78,7.86,-0.001271,1083306.0,8557030.0,2621500130.0,2621500130.0,0.003248058263495108,203.95,2012-09-30 00:00:00,2012-10-29 00:00:00,63.4258658898208,12.571312735960655,50384.53208032149,4.254558910598444
sh600604,2013-02-26,8.09,8.2,7.86,7.87,-0.027194,1079751.0,8649830.0,2624835380.0,2624835380.0,0.0032373993564503083,204.21,2012-09-30 00:00:00,2012-10-29 00:00:00,63.506582756504315,12.587311208506666,50448.65231741693,4.259973336709401
sh600604,2013-02-25,7.82,8.14,7.82,8.09,0.031888,1682910.0,13492566.0,2698210700.0,2698210700.0,0.005045840897451041,209.91,2012-09-30 00:00:00,2012-10-29 00:00:00,65.28185759185727,12.939179249004084,51858.903334700786,4.379057424305978
sh600604,2013-02-22,7.96,8.08,7.8,7.84,-0.018772999999999998,2195981.0,17380934.0,2614829650.0,2614829650.0,0.0065841730990009225,203.43,2012-09-30 00:00:00,2012-10-29 00:00:00,63.26447985814089,12.539325245573245,50256.329499617,4.2437332581694704
sh600604,2013-02-21,8.3,8.39,7.97,7.99,-0.04881,3126972.0,25272523.0,2664858280.0,2664858280.0,0.009375547835887166,207.32,2012-09-30 00:00:00,2012-10-29 00:00:00,64.4748665274609,12.779229725204509,51217.84204839145,4.324925076633104
sh600604,2013-02-20,8.3,8.41,8.26,8.4,0.01083,1939818.0,16131761.0,2801603200.0,2801603200.0,0.005816123853656364,217.96,2012-09-30 00:00:00,2012-10-29 00:00:00,67.78337296172259,13.434991668546251,53846.068659669945,4.5468571753625495
sh600604,2013-02-19,8.49,8.51,8.29,8.31,-0.01889,1889912.0,15805256.0,2771586020.0,2771586020.0,0.005666491534691751,215.62,2012-09-30 00:00:00,2012-10-29 00:00:00,67.05714409121475,13.291049601363488,53269.16361769037,4.498142294315119
sh600604,2013-02-18,8.58,8.64,8.35,8.47,-0.012821,1869277.0,15814441.0,2824949890.0,2824949890.0,0.005604621960214665,219.77,2012-09-30 00:00:00,2012-10-29 00:00:00,68.3482423899611,13.546951515491113,54294.79224316372,4.584748187578475
sh600604,2013-02-08,8.56,8.66,8.47,8.58,0.002336,1487362.0,12713946.0,2861637550.0,2861637550.0,0.004459532605727794,222.63,2012-09-30 00:00:00,2012-10-29 00:00:00,69.23591606989321,13.7228927230939,54999.94655798363,4.644292663821328
sh600604,2013-02-07,8.66,8.84,8.43,8.56,-0.019472999999999997,2377539.0,20381761.0,2854967070.0,2854967070.0,0.007128535405488933,222.11,2012-09-30 00:00:00,2012-10-29 00:00:00,69.07455790263265,13.69091075556889,54871.76611234519,4.633468880516442
sh600604,2013-02-06,8.47,8.95,8.47,8.73,0.024648,3494518.0,30664000.0,2911666180.0,2911666180.0,0.010477554861732125,226.52,2012-09-30 00:00:00,2012-10-29 00:00:00,70.44635986834902,13.962808525995603,55961.50448926464,4.725488314463999
sh600604,2013-02-05,8.49,8.66,8.3,8.52,-0.009302,2573235.0,21894615.0,2841626100.0,2841626100.0,0.007715287454602138,221.07,2012-09-30 00:00:00,2012-10-29 00:00:00,68.75176633180274,13.626931908319348,54615.34545450207,4.611816267112217
sh600604,2013-02-04,8.24,8.76,8.24,8.6,0.031175,4535430.0,38544675.0,2868308030.0,2868308030.0,0.01359850392358313,223.15,2012-09-30 00:00:00,2012-10-29 00:00:00,69.39730001655674,13.754879800221003,55128.1474823832,4.655118176388988
sh600604,2013-02-01,8.35,8.54,8.22,8.34,-0.018824,3689803.0,30797864.0,2781591740.0,2781591740.0,0.01106307463366281,216.4,2012-09-30 00:00:00,2012-10-29 00:00:00,67.29924602182632,13.33903537248382,53461.485666723114,4.514382307938989
sh600604,2013-01-31,8.33,8.77,8.33,8.5,0.004728,5034261.0,43041218.0,2834955620.0,2834955620.0,0.015094140521324986,220.55,2012-09-30 00:00:00,2012-10-29 00:00:00,68.59039155240886,13.594946648189335,54487.15181244049,4.600991369478044
sh600604,2013-01-30,8.99,8.99,8.2,8.46,-0.029817000000000003,9545267.0,82076111.0,2821614650.0,2821614650.0,0.02861941435553576,219.52,2012-09-30 00:00:00,2012-10-29 00:00:00,68.26762223448421,13.530972211573017,54230.74883196296,4.579340248781803
sh600604,2013-01-29,8.13,8.72,8.13,8.72,0.099622,7897968.0,67782755.0,2908330940.0,2908330940.0,0.02368034531861082,226.26,2012-09-30 00:00:00,2012-10-29 00:00:00,70.36571681268815,13.94682468315052,55897.44288651004,4.720078839540379
sh600604,2013-01-28,7.7,7.95,7.54,7.93,0.029869999999999997,2633040.0,20668341.0,2644846830.0,2644846830.0,0.007894599779148647,205.76,2012-09-30 00:00:00,2012-10-29 00:00:00,63.990823039815616,12.683289969780994,50833.32534862892,4.292455807123155
sh600604,2013-01-25,7.7,7.85,7.65,7.7,0.005222,1294610.0,9993107.0,2568136260.0,2568136260.0,0.0038816075125234985,199.8,2012-09-30 00:00:00,2012-10-29 00:00:00,62.134854923257905,12.31542813149329,49358.97283019112,4.167958875511624
sh600604,2013-01-24,8.09,8.13,7.6,7.66,-0.054321,3967937.0,31102693.0,2554795300.0,2554795300.0,0.011896999113784185,198.76,2012-09-30 00:00:00,2012-10-29 00:00:00,61.81207228180234,12.251451054088838,49102.5592657056,4.146306861083048
sh600604,2013-01-23,7.84,8.18,7.79,8.1,0.026616,4445225.0,35699362.0,2701545940.0,2701545940.0,0.013328043757049714,210.17,2012-09-30 00:00:00,2012-10-29 00:00:00,65.36263603379406,12.955189926062477,51923.0724862301,4.3844759808381575
sh600604,2013-01-22,8.15,8.15,7.86,7.89,-0.023515,3227154.0,25774218.0,2631505860.0,2631505860.0,0.009675921854112838,204.73,2012-09-30 00:00:00,2012-10-29 00:00:00,63.668047287198,12.619314257777472,50576.917256530294,4.270804254792598
sh600604,2013-01-21,8.08,8.28,8.0,8.08,0.0,3294503.0,26728616.0,2694875460.0,2694875460.0,0.009877853219977743,209.66,2012-09-30 00:00:00,2012-10-29 00:00:00,65.20125479367118,12.923203385384795,51794.87371186479,4.3736506498231895
sh600604,2013-01-18,7.92,8.2,7.92,8.08,-0.013431,6543899.0,52861250.0,2694875460.0,2694875460.0,0.019620462876603583,209.66,2012-09-30 00:00:00,2012-10-29 00:00:00,65.20125479367118,12.923203385384795,51794.87371186479,4.3736506498231895
sh600604,2013-01-17,7.8,8.21,7.51,8.19,0.05,6590843.0,51597001.0,2731563120.0,2731563120.0,0.019761214293301778,212.51,2012-09-30 00:00:00,2012-10-29 00:00:00,66.08889473890947,13.099137906608453,52500.00122836293,4.433192863168404
sh600604,2013-01-16,7.55,8.0,7.55,7.8,0.033113,6177810.0,48134615.0,2601488680.0,2601488680.0,0.018522824400681228,202.39,2012-09-30 00:00:00,2012-10-29 00:00:00,62.941804513247114,12.475369434865195,50000.001169869465,4.222088441112766
sh600604,2013-01-15,7.36,7.66,7.36,7.55,0.024423,3200816.0,24062448.0,2518107630.0,2518107630.0,0.009596953089729528,195.9,2012-09-30 00:00:00,2012-10-29 00:00:00,60.924414379885945,12.075512973764916,48397.417484698635,4.086763443217505
sh600604,2013-01-14,7.15,7.39,7.06,7.37,0.04539,2645980.0,19211681.0,2458073280.0,2458073280.0,0.007933397575518985,191.23,2012-09-30 00:00:00,2012-10-29 00:00:00,59.47193139932035,11.78762383679878,47243.58735082933,3.9893319880728026
sh600604,2013-01-11,7.34,7.38,7.0,7.05,-0.036885,1875682.0,13415161.0,2351345540.0,2351345540.0,0.005623825964770792,182.93,2012-09-30 00:00:00,2012-10-29 00:00:00,56.889707572600024,11.275814611579198,45192.30846940311,3.8161183750301824
sh600604,2013-01-10,7.39,7.47,7.23,7.32,-0.010811,2040031.0,14976758.0,2441397070.0,2441397070.0,0.006116590825596429,189.94,2012-09-30 00:00:00,2012-10-29 00:00:00,59.06844724939393,11.707651330920191,46923.06574957624,3.9622665777505106
sh600604,2013-01-09,7.26,7.59,7.21,7.4,0.017882,3076265.0,22865805.0,2468079010.0,2468079010.0,0.009223513877701995,192.01,2012-09-30 00:00:00,2012-10-29 00:00:00,59.71401547064709,11.835606068122665,47435.89521272096,4.005570803709412
sh600604,2013-01-08,7.13,7.45,7.06,7.27,0.013947,2902643.0,21062944.0,2424720860.0,2424720860.0,0.008702945958901018,188.64,2012-09-30 00:00:00,2012-10-29 00:00:00,58.664968503861054,11.627679896218487,46602.548441490246,3.9352015299508327
sh600604,2013-01-07,6.98,7.19,6.88,7.17,0.025751,1513122.0,10680726.0,2391368440.0,2391368440.0,0.004536768386890646,186.04,2012-09-30 00:00:00,2012-10-29 00:00:00,57.85802266179698,11.467739335703433,45961.52307910596,3.881072215757661
sh600604,2013-01-04,7.17,7.3,6.96,6.99,-0.025105000000000002,1999451.0,14144844.0,2331334090.0,2331334090.0,0.005994920483490207,181.37,2012-09-30 00:00:00,2012-10-29 00:00:00,56.405524012939765,11.179847093206277,44807.680498586844,3.7836397095958576
