code,date,open,high,low,close,change,volume,money,traded_market_value,market_value,turnover,adjust_price,report_type,report_date,PE_TTM,PS_TTM,PC_TTM,PB
sh600893,2014-12-31,29.0,29.45,28.5,28.96,-0.00034500000000000004,12800380.0,371151704.0,31457045770.0,56434895000.0,0.011784291745333847,92.85,2014-09-30 00:00:00,2014-10-28 00:00:00,95.7715609208531,2.9970764223588566,-14.53304248188667,3.9399531151518903
sh600893,2014-12-30,30.0,30.16,28.82,28.97,-0.04168,16438200.0,484455085.0,31467908010.0,56454382190.0,0.015133343273047148,92.88,2014-09-30 00:00:00,2014-10-28 00:00:00,95.80461351251492,2.9981107705747054,-14.538058111935287,3.941312868091382
sh600893,2014-12-29,29.49,30.5,29.0,30.23,0.025093,24037774.0,713962559.0,32836550190.0,58909767810.0,0.02212966660064359,96.92,2014-09-30 00:00:00,2014-10-28 00:00:00,99.97142239806634,3.1285069398266816,-15.17035866092254,4.1127315177512545
sh600893,2014-12-26,29.6,29.63,28.98,29.49,0.0064849999999999994,16434380.0,482326781.0,32032744460.0,57467715940.0,0.015129826506286186,94.55,2014-09-30 00:00:00,2014-10-28 00:00:00,97.5242464811157,3.051924986149239,-14.799007173907674,4.012056972149116
sh600893,2014-12-25,29.21,29.84,29.03,29.3,0.004457,13379814.0,392164280.0,31826361910.0,57097459380.0,0.012317730543899291,93.94,2014-09-30 00:00:00,2014-10-28 00:00:00,96.8958767205827,3.0322607750232127,-14.703653977861242,3.9862064234927654
sh600893,2014-12-24,28.49,29.5,28.2,29.17,0.028199000000000002,14686130.0,424827542.0,31685152800.0,56844125940.0,0.013520351781292341,93.52,2014-09-30 00:00:00,2014-10-28 00:00:00,96.46592807913402,3.018805956873428,-14.638410581897725,3.9685187354886926
sh600893,2014-12-23,28.83,29.42,28.04,28.37,-0.015956,12316104.0,355271029.0,30816173630.0,55285150940.0,0.011338457352792375,90.96,2014-09-30 00:00:00,2014-10-28 00:00:00,93.82028972906413,2.9360133173378187,-14.236943025521056,3.859679629613229
sh600893,2014-12-22,30.27,30.53,28.8,28.83,-0.046312,16988283.0,499222982.0,31315836650.0,56181561560.0,0.01563976094152988,92.43,2014-09-30 00:00:00,2014-10-28 00:00:00,95.341559654918,2.983619957377738,-14.467791100317726,3.922263262225296
sh600893,2014-12-19,30.54,30.6,29.63,30.23,-0.022632,16541540.0,498043915.0,32836550190.0,58909767810.0,0.015228480193765445,96.92,2014-09-30 00:00:00,2014-10-28 00:00:00,99.97143683774777,3.128507391702253,-15.17036085210019,4.112732111786345
sh600893,2014-12-18,29.94,31.98,29.5,30.93,0.033066000000000005,30246783.0,941863928.0,33596906960.0,60273870940.0,0.027845807332914075,99.17,2014-09-30 00:00:00,2014-10-28 00:00:00,102.28638224061743,3.2009513220222607,-15.521646761608922,4.207966816783796
sh600893,2014-12-17,30.65,30.88,29.61,29.94,-0.028238,19455628.0,584817852.0,32521545240.0,58344639380.0,0.01791124923558522,95.99,2014-09-30 00:00:00,2014-10-28 00:00:00,99.01243699881461,3.0984964387776386,-15.024835549334622,4.073279748616057
sh600893,2014-12-16,30.4,31.21,30.26,30.81,0.010164,19742028.0,608518715.0,33466560080.0,60040024690.0,0.018174914936760957,98.78,2014-09-30 00:00:00,2014-10-28 00:00:00,101.88959539353732,3.188534269479192,-15.461435566871952,4.191643374217202
sh600893,2014-12-15,29.6,31.18,29.31,30.5,-0.023062,22194735.0,673883328.0,33129830660.0,59435921880.0,0.02043292718418018,97.79,2014-09-30 00:00:00,2014-10-28 00:00:00,100.86440953502333,3.156452090432041,-15.30586673735349,4.1494681796393476
sh600893,2014-12-12,31.35,31.65,30.97,31.22,-0.005732,14017163.0,438147774.0,33911911909.999996,60838999380.0,0.012904487072902402,100.1,2014-09-30 00:00:00,2014-10-28 00:00:00,103.24545624699145,3.230964595943694,-15.667183319057598,4.247422231133754
sh600893,2014-12-11,31.0,31.94,30.3,31.4,0.011271999999999999,25963825.0,805877029.0,34107432220.0,61189768750.0,0.023902828560689576,100.67,2014-09-30 00:00:00,2014-10-28 00:00:00,103.84067097300873,3.249591253005924,-15.757505339664553,4.271908812446698
sh600893,2014-12-10,30.01,31.7,28.78,31.05,0.013050999999999998,41853685.0,1260681976.0,33727253830.0,60507717190.0,0.03853135881742199,99.55,2014-09-30 00:00:00,2014-10-28 00:00:00,102.68322565344312,3.2133701447344767,-15.581866540025386,4.224292586412655
sh600893,2014-12-09,34.05,34.17,30.65,30.65,-0.099853,58482502.0,1886570870.0,33292764250.0,59728229690.0,0.053840188001211105,98.27,2014-09-30 00:00:00,2014-10-28 00:00:00,101.36037144570523,3.171972728652829,-15.38112744573115,4.1698715922620435
sh600893,2014-12-08,33.0,35.25,33.0,34.05,0.056469000000000005,69618702.0,2383288948.0,36985925700.0,66353873440.0,0.06409240158885626,109.17,2014-09-30 00:00:00,2014-10-28 00:00:00,112.60424291332995,3.5238385826457557,-17.08735067242478,4.6324340271778315
sh600893,2014-12-05,30.27,32.23,28.5,32.23,0.1,69272847.0,2143271048.0,35008998100.0,62807205310.0,0.06377400039934304,103.34,2014-09-30 00:00:00,2014-10-28 00:00:00,106.58546811437908,3.335486968993653,-16.17401994040978,4.3848272189508934
sh600893,2014-12-04,28.75,29.96,28.7,29.3,0.019485,29716792.0,875715614.0,31826361910.0,57097459380.0,0.027357886775190007,93.94,2014-09-30 00:00:00,2014-10-28 00:00:00,96.89588010398099,3.032260880903321,-14.703654491281618,3.98620656268263
sh600893,2014-12-03,27.55,28.78,27.01,28.74,0.043194,26674827.0,742720584.0,31218076500.0,56006176880.0,0.024557391547810448,92.15,2014-09-30 00:00:00,2014-10-28 00:00:00,95.04394876234666,2.974306518392444,-14.422629554413865,3.9100198263658905
sh600893,2014-12-02,27.31,27.9,27.31,27.55,0.008787999999999999,11623558.0,321290847.0,29925469990.0,53687201560.0,0.010700885333029318,88.33,2014-09-30 00:00:00,2014-10-28 00:00:00,91.10860373271575,2.8511537819355213,-13.825452940118392,3.7481233848794098
sh600893,2014-12-01,27.7,28.1,27.01,27.31,-0.017626,15537354.0,428567431.0,29664776240.0,53219509060.0,0.014304006013968843,87.56,2014-09-30 00:00:00,2014-10-28 00:00:00,90.31491624872197,2.826316115908914,-13.705013283384014,3.715471818538097
sh600893,2014-11-28,28.62,28.86,27.49,27.8,-0.029330000000000002,19059397.0,535354215.0,30197025980.0,54174381250.0,0.017546470866069044,89.13,2014-09-30 00:00:00,2014-10-28 00:00:00,91.93536906384124,2.8770265865229674,-13.950912059341974,3.782135743146802
sh600893,2014-11-27,29.09,29.32,28.3,28.64,-0.019178,18223043.0,524772945.0,31109454100.0,55811305000.0,0.01677650626212692,91.83,2014-09-30 00:00:00,2014-10-28 00:00:00,94.71331045962195,2.963959519221741,-14.372456199678545,3.8964176735108764
sh600893,2014-11-26,28.65,29.36,28.15,29.2,0.041741,22738542.0,657304175.0,31717739520.0,56902587500.0,0.02093356703372031,93.62,2014-09-30 00:00:00,2014-10-28 00:00:00,96.56523860560016,3.0219137817277155,-14.653480651615224,3.9726042783612896
sh600893,2014-11-25,27.9,28.18,27.76,28.03,0.005741,14439524.0,403778005.0,30446857490.0,54622586560.0,0.013293321251723047,89.87,2014-09-30 00:00:00,2014-10-28 00:00:00,92.69601427379757,2.900830227213593,-14.06633765169579,3.813427981006113
sh600893,2014-11-24,27.61,27.97,27.27,27.87,0.020878999999999998,12618753.0,349173507.0,30273061650.0,54310791560.0,0.011617082215732879,89.36,2014-09-30 00:00:00,2014-10-28 00:00:00,92.16688419165328,2.884271623821235,-13.986043774387033,3.7916600605982187
sh600893,2014-11-21,27.41,27.51,27.2,27.3,0.0,5858958.0,160171578.0,29653914000.0,53200021880.0,0.005393876619457384,87.53,2014-09-30 00:00:00,2014-10-28 00:00:00,90.28188863876451,2.8252825494708333,-13.700001444232893,3.714113093322733
sh600893,2014-11-20,27.57,27.6,27.18,27.3,-0.012301000000000001,5369565.0,146726685.0,29653914000.0,53200021880.0,0.004943331409809848,87.53,2014-09-30 00:00:00,2014-10-28 00:00:00,90.28188863876451,2.8252825494708333,-13.700001444232893,3.714113093322733
sh600893,2014-11-19,27.48,27.87,27.12,27.64,0.005822,9871659.0,271576633.0,30023230140.0,53862586250.0,0.009088051268556809,88.62,2014-09-30 00:00:00,2014-10-28 00:00:00,91.40627725528174,2.860469180864649,-13.87062398993306,3.760369397278658
sh600893,2014-11-18,27.69,27.78,27.37,27.48,-0.011866,6023697.0,165909157.0,29849434310.0,53550791250.0,0.005545538714096991,88.11,2014-09-30 00:00:00,2014-10-28 00:00:00,90.87719025362513,2.8439119256336105,-13.79033664995701,3.7386032491620362
sh600893,2014-11-17,27.1,28.01,27.1,27.81,0.027337,12551951.0,346941985.0,30207888220.0,54193868440.0,0.011555582924823202,89.16,2014-09-30 00:00:00,2014-10-28 00:00:00,91.96848833622276,2.87806302144609,-13.955937807986581,3.783498239269205
sh600893,2014-11-14,26.73,27.31,26.41,27.07,0.002964,8471703.0,227925867.0,29404082490.0,52751816560.0,0.007799223127876623,86.79,2014-09-30 00:00:00,2014-10-28 00:00:00,89.5212460334075,2.8014789902885715,-13.584576247119086,3.6828209626142203
sh600893,2014-11-13,27.61,27.68,26.17,26.99,-0.022101,15110939.0,403109292.0,29317184570.0,52595919060.0,0.013911439641695443,86.54,2014-09-30 00:00:00,2014-10-28 00:00:00,89.25668920659913,2.7931999456496657,-13.544430554954202,3.6719373403374598
sh600893,2014-11-12,27.17,27.97,27.17,27.6,0.015826,9847024.0,272010786.0,29979781190.0,53784637500.0,0.009065371780987305,88.49,2014-09-30 00:00:00,2014-10-28 00:00:00,91.27393443146903,2.8563276428850686,-13.85054136976743,3.7549249363558608
sh600893,2014-11-11,28.8,28.84,27.02,27.17,-0.058559,20504409.0,570347026.0,29512704880.0,52946688440.0,0.01887677848557811,87.11,2014-09-30 00:00:00,2014-10-28 00:00:00,89.85193766596744,2.8118276583638036,-13.634757694494366,3.696425309409152
sh600893,2014-11-10,29.1,29.22,28.22,28.86,-0.005171,15870542.0,454006549.0,31348423370.0,56240023130.0,0.014610745705263198,92.53,2014-09-30 00:00:00,2014-10-28 00:00:00,95.44085892367919,2.986727429933266,-14.482859461712808,3.9263483419663605
sh600893,2014-11-07,29.38,29.7,28.92,29.01,-0.009559999999999999,11283774.0,330024458.0,31511356960.0,56532330940.0,0.010388073231994515,93.01,2014-09-30 00:00:00,2014-10-28 00:00:00,95.9369488863706,3.002252075415238,-14.558139601592643,3.9467570225298623
sh600893,2014-11-06,29.35,29.56,28.97,29.29,0.006529000000000001,7954706.0,232758240.0,31815499670.0,57077972190.0,0.00732326511155498,93.91,2014-09-30 00:00:00,2014-10-28 00:00:00,96.86295877223316,3.0312306403368585,-14.698658779524902,3.9848522096541563
sh600893,2014-11-05,29.03,29.48,28.9,29.1,0.002411,7556749.0,220500582.0,31609117120.0,56707715630.0,0.006956897754061662,93.3,2014-09-30 00:00:00,2014-10-28 00:00:00,96.23464278946076,3.0115681121327436,-14.60331374408974,3.9590038733649564
sh600893,2014-11-04,29.8,29.91,28.98,29.03,-0.028122,11890021.0,348442128.0,31533081440.0,56571305310.0,0.010946196624861158,93.08,2014-09-30 00:00:00,2014-10-28 00:00:00,96.00317912459138,3.0043246853164463,-14.568189838389385,3.9494816730512308
sh600893,2014-11-03,29.75,30.3,29.62,29.87,0.0016769999999999999,10133671.0,302968169.0,32445509570.0,58208229060.0,0.009329264874603107,95.77,2014-09-30 00:00:00,2014-10-28 00:00:00,98.78110125405802,3.0912570150949463,-14.989731055121512,4.063762810817027
sh600893,2014-10-31,29.96,30.08,29.28,29.82,-0.001005,13899909.0,411930618.0,32391198370.0,58110793130.0,0.012796540641852148,95.61,2014-09-30 00:00:00,2014-10-28 00:00:00,98.61572268711173,3.0860816561575706,-14.964635361620077,4.05695929008755
sh600893,2014-10-30,30.84,30.96,29.72,29.85,-0.027687,19831594.0,598908831.0,32423785090.0,58169254690.0,0.01825737122476098,95.7,2014-09-30 00:00:00,2014-10-28 00:00:00,98.71493119296066,3.0891862883773897,-14.979689950019846,4.061040635926657
sh600893,2014-10-29,30.91,31.13,30.4,30.7,-0.007115000000000001,18810980.0,577299646.0,33347075450.0,59825665630.0,0.01731777309425196,98.43,2014-09-30 00:00:00,2014-10-28 00:00:00,101.52587818219098,3.1771520985293726,-15.406242588569572,4.176680385767399
sh600893,2014-10-28,29.7,30.97,29.55,30.92,0.043889,20801823.0,631094950.0,33586044720.0,60254383750.0,0.019150583896441618,99.14,2014-09-30 00:00:00,2014-10-28 00:00:00,102.25341120289961,3.1999195259565534,-15.516643507122751,4.206610418897857
sh600893,2014-10-27,29.3,29.8,28.72,29.62,0.019972,10213485.0,301028794.0,32173953580.0,57721049380.0,0.009402743276413964,94.97,2014-06-30 00:00:00,2014-08-28 00:00:00,131.32360480930436,3.617265380866719,-24.469057723388158,4.120026287004185
sh600893,2014-10-24,29.3,29.82,29.0,29.04,-0.0061600000000000005,7906998.0,232491975.0,31543943680.0,56590792500.0,0.007279344150794526,93.11,2014-06-30 00:00:00,2014-08-28 00:00:00,128.75216653918375,3.5464359618369117,-23.98993082495221,4.0393523420291775
sh600893,2014-10-23,29.11,29.87,29.01,29.22,-0.005446,11834615.0,349213463.0,31739463990.0,56941561880.0,0.01089518872810681,93.69,2014-06-30 00:00:00,2014-08-28 00:00:00,129.55019574497283,3.5684174131016184,-24.138624753433366,4.064388978134487
sh600893,2014-10-22,28.47,30.2,28.46,29.38,0.032326,18675706.0,553168709.0,31913259830.0,57253356880.0,0.017193237080851353,94.2,2014-06-30 00:00:00,2014-08-28 00:00:00,130.25958946922216,3.5879574292613747,-24.270803549564285,4.0866448459656155
sh600893,2014-10-21,28.91,29.08,28.19,28.46,-0.016926,8061874.0,231276072.0,30913933790.0,55460535630.0,0.007421926164382847,91.25,2014-06-30 00:00:00,2014-08-28 00:00:00,126.180673032765,3.4756050213414897,-23.510793634534327,3.958676664121232
sh600893,2014-10-20,29.13,29.22,28.71,28.95,-0.0006900000000000001,8357257.0,242144723.0,31446183530.0,56415407810.0,0.007693861797861229,92.82,2014-06-30 00:00:00,2014-08-28 00:00:00,128.35317893949488,3.5354459799989515,-23.91558889212239,4.026834871150322
sh600893,2014-10-17,28.98,29.39,28.38,28.97,-0.010925,12236898.0,353539331.0,31467908010.0,56454382190.0,0.011265538686186086,92.88,2014-06-30 00:00:00,2014-08-28 00:00:00,128.4418037841059,3.5378871221132098,-23.932102042531735,4.029615305711262
sh600893,2014-10-16,29.67,29.95,29.2,29.29,-0.023341,10260709.0,304355540.0,31815499670.0,57077972190.0,0.009446218658429135,93.91,2014-06-30 00:00:00,2014-08-28 00:00:00,129.86053007517722,3.5769654698715567,-24.196448239548808,4.074125122676503
sh600893,2014-10-15,30.8,30.89,29.6,29.99,-0.028192000000000002,18032840.0,541628767.0,32575856440.0,58442075310.0,0.016601401488740106,96.15,2014-06-30 00:00:00,2014-08-28 00:00:00,132.96404382202718,3.6624507324169,-24.774714859074468,4.17149191547562
sh600893,2014-10-14,30.57,32.13,30.28,30.86,0.0012980000000000001,28947744.0,903999544.0,33520871280.0,60137460630.0,0.026649885451306803,98.94,2014-06-30 00:00:00,2014-08-28 00:00:00,136.82131019916196,3.7686978625581387,-25.493425511082915,4.292506251724229
sh600893,2014-10-13,29.65,30.87,29.25,30.82,0.035966000000000005,27529363.0,833629510.0,33477422320.0,60059511880.0,0.025344094881317013,98.81,2014-06-30 00:00:00,2014-08-28 00:00:00,136.64394635679082,3.763812434018782,-25.46037794051612,4.2869418012661855
sh600893,2014-10-10,29.51,30.08,29.35,29.75,0.0,14077450.0,418845482.0,32315162690.0,57974382810.0,0.01295998852048484,95.38,2014-06-30 00:00:00,2014-08-28 00:00:00,131.9000298820529,3.6331428193770665,-24.576460946127696,4.138110518362751
sh600893,2014-10-09,29.78,30.34,29.48,29.75,-0.0070090000000000005,12248123.0,365821238.0,32315162690.0,57974382810.0,0.011275872652894262,95.38,2014-06-30 00:00:00,2014-08-28 00:00:00,131.9000298820529,3.6331428193770665,-24.576460946127696,4.138110518362751
sh600893,2014-10-08,29.74,30.15,29.46,29.96,0.008075,13448435.0,402119751.0,32543269720.0,58383613750.0,0.012380904440968999,96.06,2014-06-30 00:00:00,2014-08-28 00:00:00,132.83104266005725,3.6587872592773407,-24.74993322812361,4.167319259049428
sh600893,2014-09-30,30.13,30.13,29.4,29.72,-0.009663,10844583.0,321911723.0,32282575970.0,57915921250.0,0.009983745010296339,95.29,2014-06-30 00:00:00,2014-08-28 00:00:00,131.76702394172779,3.6294792146192902,-24.551678424843004,4.133937712024828
sh600893,2014-09-29,30.21,30.67,29.71,30.01,-0.0046429999999999996,14109898.0,425767960.0,32597580920.0,58481049690.0,0.012989860812653211,96.22,2014-06-30 00:00:00,2014-08-28 00:00:00,133.05271230068936,3.6648930764167056,-24.791236139660548,4.174273718971247
sh600893,2014-09-26,30.51,30.89,29.98,30.15,-0.005607,16917204.0,514599257.0,32749652270.0,58753870310.0,0.015574324160602757,96.67,2014-06-30 00:00:00,2014-08-28 00:00:00,133.67335770049274,3.681988549250877,-24.90687877782599,4.193745278298387
sh600893,2014-09-25,30.38,31.21,29.8,30.32,0.011341,26776320.0,817223139.0,32934310350.0,59085152500.0,0.024650828080874022,97.21,2014-06-30 00:00:00,2014-08-28 00:00:00,134.42709039634505,3.702749867759404,-25.04731909599725,4.217392196343283
sh600893,2014-09-24,28.82,30.36,28.58,29.98,0.04025,24963849.0,743239097.0,32564994200.0,58422588130.0,0.022982230195514666,96.12,2014-06-30 00:00:00,2014-08-28 00:00:00,132.919648660882,3.661227882345721,-24.76644286743764,4.170099102422707
sh600893,2014-09-23,27.9,28.95,27.9,28.82,0.031865,17009613.0,486668506.0,31304974410.0,56162074380.0,0.015659397776201536,92.4,2014-06-30 00:00:00,2014-08-28 00:00:00,127.77663894340974,3.519565375963202,-23.808164256128464,4.008747034292437
sh600893,2014-09-22,28.77,28.78,27.8,27.93,-0.033898000000000005,13698475.0,387459216.0,30338235090.0,54427714690.0,0.012611096381018913,89.55,2014-06-30 00:00:00,2014-08-28 00:00:00,123.83077141235503,3.4108777562599775,-23.072944867912433,3.884953006732893
sh600893,2014-09-19,28.45,29.0,28.11,28.91,0.016884,12371124.0,354430833.0,31402734570.0,56337459060.0,0.01138910988922835,92.69,2014-06-30 00:00:00,2014-08-28 00:00:00,128.1756702836295,3.5305565626196587,-23.882514338975007,4.021265877446576
sh600893,2014-09-18,28.6,29.0,28.25,28.43,-0.011474,9447131.0,270541386.0,30881347070.0,55402074060.0,0.008697222103724766,91.15,2014-06-30 00:00:00,2014-08-28 00:00:00,126.0474845544128,3.471936388633963,-23.485977101591736,3.954498131002727
sh600893,2014-09-17,28.29,28.86,27.79,28.76,0.019858,13556198.0,384257434.0,31239800970.0,56045151250.0,0.012480113264946963,92.21,2014-06-30 00:00:00,2014-08-28 00:00:00,127.51054049606464,3.5122357819965915,-23.758583083896358,4.000398705752531
sh600893,2014-09-16,29.93,30.0,28.18,28.2,-0.057172,24896228.0,720516506.0,30631515560.0,54953868750.0,0.02291997691804708,90.41,2014-06-30 00:00:00,2014-08-28 00:00:00,125.02773964224889,3.4438478513642017,-23.29597167830851,3.922505589751251
sh600893,2014-09-15,30.02,30.4,29.78,29.91,-0.003,17547420.0,527421823.0,32488958520.0,58286177810.0,0.016154513905913902,95.9,2014-06-30 00:00:00,2014-08-28 00:00:00,132.6092772406514,3.652678803943245,-24.708612470470236,4.16036179425224
sh600893,2014-09-12,29.5,30.16,29.5,30.0,0.014542,14677538.0,438197766.0,32586718680.0,58461562500.0,0.013512441811769433,96.19,2014-06-30 00:00:00,2014-08-28 00:00:00,133.00830214709268,3.6636698133833954,-24.78296135453384,4.172880435558917
sh600893,2014-09-11,29.99,30.29,29.38,29.57,-0.019237,18564529.0,553270910.0,32119642380.0,57623613440.0,0.017090885260659616,94.81,2014-06-30 00:00:00,2014-08-28 00:00:00,131.10181948809677,3.6111563773440576,-24.427733257503224,4.113068197826129
sh600893,2014-09-10,29.97,30.84,29.53,30.15,0.0056700000000000006,18857933.0,569572496.0,32749652270.0,58753870310.0,0.01736099898901308,96.67,2014-06-30 00:00:00,2014-08-28 00:00:00,133.67329261819293,3.681986756580394,-24.906866651273774,4.193743236466026
sh600893,2014-09-09,29.65,30.1,29.62,29.98,0.0033469999999999997,19118473.0,572288321.0,32564994200.0,58422588130.0,0.01760085744280587,96.12,2014-06-30 00:00:00,2014-08-28 00:00:00,132.91963826920653,3.661227596110448,-24.766440931193905,4.170098776403816
sh600893,2014-09-05,29.95,30.02,29.5,29.88,-0.002337,19159749.0,569051085.0,32456371810.0,58227716250.0,0.017638856969946697,95.8,2014-06-30 00:00:00,2014-08-28 00:00:00,132.47624029294602,3.6490143450974064,-24.683824171691253,4.156188015117218
sh600893,2014-09-04,29.8,31.4,29.45,29.95,0.009097,31979276.0,967080204.0,32532407480.0,58364126560.0,0.029440775841407234,96.03,2014-06-30 00:00:00,2014-08-28 00:00:00,132.78656248948394,3.6575620676495033,-24.741645396984005,4.165923778988715
sh600893,2014-09-03,29.68,30.15,29.38,29.68,-0.008020999999999999,22580099.0,671454574.0,32239127010.0,57837972500.0,0.020787701171688766,95.16,2014-06-30 00:00:00,2014-08-28 00:00:00,131.58949287281993,3.624589179880134,-24.518599695553558,4.128368015154852
sh600893,2014-09-02,28.89,30.62,28.61,29.92,0.034578,35928826.0,1063191134.0,32499820760.0,58305665000.0,0.033076812387933925,95.93,2014-06-30 00:00:00,2014-08-28 00:00:00,132.65350664965678,3.6538970884264015,-24.71685357810352,4.161749407149598
sh600893,2014-09-01,29.08,29.93,28.75,28.92,0.006964,29812375.0,872239014.0,31413596810.0,56356946250.0,0.027445882437936598,92.72,2014-06-30 00:00:00,2014-08-28 00:00:00,128.2199183141888,3.5317753600273756,-23.890758916295844,4.0226540745594805
sh600893,2014-08-29,27.48,28.88,27.48,28.72,0.030129000000000003,30383209.0,857940230.0,31196352020.0,55967202500.0,0.027971403897499678,92.08,2014-06-30 00:00:00,2014-08-28 00:00:00,127.33317011749058,3.507350173419681,-23.725534295462246,3.9948340502336532
sh600893,2014-08-28,30.77,30.77,27.69,27.88,-0.017272,59851307.0,1742067341.0,30283923890.0,54330278750.0,0.05510033789614044,89.39,2014-06-30 00:00:00,2014-08-28 00:00:00,123.60895588561294,3.404767920735831,-23.03161477393826,3.877993969914111
sh600893,2014-08-27,26.7,28.37,26.7,28.37,0.100039,18187547.0,512986580.0,30816173630.0,55285150940.0,0.01674382791923541,90.96,2014-03-31 00:00:00,2014-04-24 00:00:00,89.91320736863551,3.742325129466075,1187.3184102699176,6.820109908307134
sh600893,2014-08-26,25.08,26.07,24.51,25.79,0.024631999999999998,18111219.0,458646619.0,28013715830.0,50257456560.0,0.01667355879685883,82.69,2014-03-31 00:00:00,2014-04-24 00:00:00,81.73638149977911,3.4019931379397232,1079.342105388916,6.199880102711935
sh600893,2014-08-25,25.36,25.62,25.12,25.17,-0.007492,8049351.0,204284791.0,27340256970.0,49049250940.0,0.007410397235560439,80.7,2014-03-31 00:00:00,2014-04-24 00:00:00,79.77145111589246,3.3202097318254,1053.394882639734,6.050835912514868
sh600893,2014-08-22,25.39,25.77,25.26,25.36,0.001184,9596523.0,244752289.0,27546639520.0,49419507500.0,0.008834755437348534,81.31,2014-03-31 00:00:00,2014-04-24 00:00:00,80.37361020353734,3.3452725134965156,1061.3464905469114,6.096510972722505
sh600893,2014-08-21,25.58,25.78,25.18,25.33,-0.013628999999999999,12507542.0,317308338.0,27514052810.0,49361045940.0,0.011514699090235553,81.21,2014-03-31 00:00:00,2014-04-24 00:00:00,80.2785603880379,3.341316394884972,1060.0913423975126,6.08930124005428
sh600893,2014-08-20,25.82,25.99,25.5,25.68,-0.005037,11681232.0,300768555.0,27894231190.0,50043097500.0,0.01075398119836118,82.34,2014-03-31 00:00:00,2014-04-24 00:00:00,81.38779464120286,3.3874844200457757,1074.7389596789774,6.173439040740534
sh600893,2014-08-19,25.99,26.13,25.47,25.81,-0.006926000000000001,18778978.0,484877277.0,28035440300.0,50296430940.0,0.017288311401337256,82.75,2014-03-31 00:00:00,2014-04-24 00:00:00,81.79982033623648,3.404633559283888,1080.1798254598184,6.204692074720902
sh600893,2014-08-18,25.36,26.07,25.2,25.99,0.029307,20980980.0,539190935.0,28230960620.0,50647200310.0,0.019315519494355768,83.33,2014-03-31 00:00:00,2014-04-24 00:00:00,82.37031715283702,3.428378508836087,1087.713327969334,6.247965483660736
sh600893,2014-08-15,24.83,25.56,24.83,25.25,0.018144999999999998,16413209.0,414200972.0,27427154890.0,49205148440.0,0.015110336048785847,80.96,2014-03-31 00:00:00,2014-04-24 00:00:00,80.02502378089046,3.3307638137466147,1056.7433505934905,6.070069943817283
sh600893,2014-08-14,24.36,25.76,24.3,24.8,0.017644999999999997,27800189.0,698735563.0,26938354110.0,48328225000.0,0.025593422834398995,79.51,2014-03-31 00:00:00,2014-04-24 00:00:00,78.59884768956333,3.2714041848131794,1037.910465202393,5.961891423930071
sh600893,2014-08-13,24.79,24.85,24.13,24.37,-0.016546,10462035.0,256059355.0,26471277810.0,47490275940.0,0.009631563492325421,78.13,2014-03-31 00:00:00,2014-04-24 00:00:00,77.2360181493186,3.214681136165538,1019.914081238932,5.858517876007911
sh600893,2014-08-12,24.74,24.95,24.62,24.78,-0.002415,9185374.0,227341651.0,26916629630.0,48289250630.0,0.008456243253661769,79.45,2014-03-31 00:00:00,2014-04-24 00:00:00,78.53546596924573,3.2687661407300572,1037.0734993593314,5.957083784302988
sh600893,2014-08-11,24.72,24.96,24.61,24.84,0.006075,13677344.0,339228584.0,26981803070.0,48406173750.0,0.012591642748210155,79.64,2014-03-31 00:00:00,2014-04-24 00:00:00,78.72558826490547,3.276679321290975,1039.5840949486324,5.971504968802646
sh600893,2014-08-08,24.4,24.84,24.4,24.69,0.011470999999999999,10963563.0,270342135.0,26818869470.0,48113865940.0,0.010093280433494724,79.16,2014-03-31 00:00:00,2014-04-24 00:00:00,78.25021818940483,3.2568936921113982,1033.3067564034811,5.935447127503065
sh600893,2014-08-07,24.7,25.15,24.35,24.41,-0.013338999999999998,14484067.0,358043688.0,26514726770.0,47568224690.0,0.013334328448371185,78.26,2014-03-31 00:00:00,2014-04-24 00:00:00,77.3627896295641,3.219957558952652,1021.5881190894065,5.868133765083788
sh600893,2014-08-06,24.2,24.94,24.02,24.74,0.020627,15879192.0,390962171.0,26873180670.0,48211301880.0,0.014618709072966612,79.32,2014-03-31 00:00:00,2014-04-24 00:00:00,78.40868305280547,3.2634892419510364,1035.39931049206,5.947467027767174
sh600893,2014-08-05,24.42,24.44,23.92,24.24,-0.005334,8948180.0,216295619.0,26330068690.0,47236942500.0,0.008237877605020406,77.72,2014-03-31 00:00:00,2014-04-24 00:00:00,76.82403370948,3.197533714031704,1014.4737602395976,5.8272679713227
sh600893,2014-08-04,24.22,24.9,24.19,24.37,0.009528,13447155.0,328884291.0,26471277810.0,47490275940.0,0.012379726045042025,78.13,2014-03-31 00:00:00,2014-04-24 00:00:00,77.2360105899669,3.2146808215337654,1019.9139814164731,5.858517302614848
sh600893,2014-08-01,24.56,25.18,24.1,24.14,-0.023858,18261239.0,450950362.0,26221446300.0,47042070630.0,0.01681167027998757,77.4,2014-03-31 00:00:00,2014-04-24 00:00:00,76.50705140418779,3.1843404259552632,1010.2879577549836,5.803224182603006
sh600893,2014-07-31,24.36,24.99,24.18,24.73,0.016441,15063940.0,370308997.0,26862318430.0,48191814690.0,0.013868171400423682,79.29,2014-03-31 00:00:00,2014-04-24 00:00:00,78.37696913378156,3.2621692601642627,1034.9805230744948,5.945061458889184
sh600893,2014-07-30,24.35,24.68,23.93,24.33,0.001235,15224878.0,370451228.0,26427828850.0,47412327190.0,0.014016334215059819,78.01,2014-03-31 00:00:00,2014-04-24 00:00:00,77.10921650521927,3.20940345791272,1018.2396450699009,5.84889969893893
sh600893,2014-07-29,23.8,24.56,23.61,24.3,0.025749,18012127.0,435415535.0,26395242130.0,47353865630.0,0.016582332677393022,77.91,2014-03-31 00:00:00,2014-04-24 00:00:00,77.0141040866722,3.205444733666641,1016.9836702371579,5.841685217695075
sh600893,2014-07-28,23.22,23.87,23.22,23.69,0.025097,15550286.0,367168147.0,25732645520.0,46165147190.0,0.01431591147725879,75.95,2014-03-31 00:00:00,2014-04-24 00:00:00,75.08084734830082,3.1249796330941018,991.4547030873615,5.695043541543863
sh600893,2014-07-25,22.95,23.18,22.85,23.11,0.005657,5900717.0,136014996.0,25102635620.0,45034890310.0,0.00543232081022415,74.1,2014-03-31 00:00:00,2014-04-24 00:00:00,73.24267591096336,3.0484721280952933,967.181352679172,5.555614289714888
sh600893,2014-07-24,23.17,23.28,22.36,22.98,-0.005195,15031325.0,341219740.0,24961426510.0,44781556880.0,0.013838145362470312,73.68,2014-03-31 00:00:00,2014-04-24 00:00:00,72.83067279496225,3.031323928631028,961.7407850580985,5.5243629684026345
sh600893,2014-07-23,23.48,23.69,23.03,23.1,-0.016603,9359628.0,218838069.0,25091773380.0,45015403130.0,0.008616665052950515,74.06,2014-03-31 00:00:00,2014-04-24 00:00:00,73.21100396053725,3.0471538931057123,966.7631194637125,5.553211904245189
sh600893,2014-07-22,23.21,23.6,23.05,23.49,0.0072900000000000005,8703759.0,203071449.0,25515400730.0,45775403440.0,0.008012858628930497,75.31,2014-03-31 00:00:00,2014-04-24 00:00:00,74.44704830352062,3.0985999480430717,983.0852844412914,5.646968522626354
sh600893,2014-07-21,23.29,23.4,22.91,23.32,0.002149,6890675.0,159420434.0,25330742650.0,45444121250.0,0.006343696401652874,74.77,2014-03-31 00:00:00,2014-04-24 00:00:00,73.9082571091946,3.0761746349542554,975.9704597894265,5.606100053238248
sh600893,2014-07-18,23.27,23.49,23.08,23.27,0.009106999999999999,6912370.0,160960733.0,25276431460.0,45346685310.0,0.0063636692606132625,74.61,2014-03-31 00:00:00,2014-04-24 00:00:00,73.74976885592321,3.069578111592443,973.8775968338306,5.594078378802202
sh600893,2014-07-17,23.14,23.28,22.95,23.06,-0.003026,7165914.0,165284372.0,25048324430.0,44937454380.0,0.006597087054736778,73.93,2014-03-31 00:00:00,2014-04-24 00:00:00,73.08419112732665,3.04187574914498,965.0885355406618,5.543592878458084
sh600893,2014-07-16,23.99,23.99,23.05,23.13,-0.039452,14088522.0,330159028.0,25124360100.0,45073864690.0,0.012970181631013957,74.16,2014-03-31 00:00:00,2014-04-24 00:00:00,73.30601512910732,3.051108403172981,968.0177572741734,5.560418705460808
sh600893,2014-07-15,24.01,24.38,23.71,24.08,0.005007999999999999,10954481.0,263586590.0,26156272860.0,46925147500.0,0.010084919357275736,77.21,2014-03-31 00:00:00,2014-04-24 00:00:00,76.31686821388136,3.176424710866069,1007.7765580420482,5.788798379113598
sh600893,2014-07-14,24.07,24.24,23.61,23.96,-0.002913,11605623.0,276720968.0,26025925990.0,46691301250.0,0.010684374004092832,76.82,2014-03-31 00:00:00,2014-04-24 00:00:00,75.93657783209822,3.160596443875143,1002.7547621929859,5.759952536809258
sh600893,2014-07-11,23.7,24.2,23.45,24.03,0.017358000000000002,11402034.0,272676312.0,26101961660.0,46827711560.0,0.010496945807712139,77.04,2014-03-31 00:00:00,2014-04-24 00:00:00,76.1584273309132,3.1698301591286855,1005.6843206189492,5.776780297816799
sh600893,2014-07-10,24.08,24.28,23.51,23.62,-0.020730000000000002,15493119.0,368920290.0,25656609840.0,46028736880.0,0.014263282369031809,75.73,2014-03-31 00:00:00,2014-04-24 00:00:00,74.85902438562748,3.115747022315336,988.52549507543,5.6782177933596625
sh600893,2014-07-09,24.32,25.17,24.1,24.12,-0.011475,21612431.0,533627475.0,26199721820.0,47003096250.0,0.019896846207048777,77.33,2014-03-31 00:00:00,2014-04-24 00:00:00,76.4437023350327,3.1817037408634348,1009.451423075791,5.798419019636732
sh600893,2014-07-08,25.1,25.37,24.2,24.4,-0.028662,16175134.0,397481967.0,26503864530.0,47548737500.0,0.014891159330869097,78.23,2014-03-31 00:00:00,2014-04-24 00:00:00,77.33107643714898,3.218637607408447,1021.1693412668278,5.865728251320636
sh600893,2014-07-07,25.17,25.4,24.8,25.12,0.005202,15023415.0,377932489.0,27285945770.0,48951815000.0,0.013830863257630818,80.54,2014-03-31 00:00:00,2014-04-24 00:00:00,79.6129425978897,3.313612365014492,1051.3017520850906,6.03881270095542
sh600893,2014-07-04,24.79,25.07,24.42,24.99,0.004825,11831041.0,292291846.0,27144736660.0,48698481560.0,0.010891898429269933,80.12,2014-03-31 00:00:00,2014-04-24 00:00:00,79.20093931159082,3.296464158462172,1045.8611822152072,6.007561366725714
sh600893,2014-07-03,25.09,25.55,24.8,24.87,-0.013878,14815043.0,369971438.0,27014389790.0,48464635310.0,0.013639031726209502,79.74,2014-03-31 00:00:00,2014-04-24 00:00:00,78.82062977293639,3.2806350941329803,1040.8391333965687,5.978714071331538
sh600893,2014-07-02,24.95,26.08,24.79,25.22,0.005582,21734470.0,552868218.0,27394568170.0,49146686880.0,0.020009197808793202,80.86,2014-03-31 00:00:00,2014-04-24 00:00:00,79.92989688186287,3.3268044868008015,1055.4871845436658,6.062854364197876
sh600893,2014-07-01,26.19,26.2,24.9,25.08,-0.026775,21618477.0,546739426.0,27242496820.0,48873866250.0,0.019902412276761344,80.41,2014-03-31 00:00:00,2014-04-24 00:00:00,79.48620488618816,3.308337347725796,1049.6281601536878,6.029199373296136
sh600893,2014-06-30,24.4,26.28,24.4,25.77,0.058751,29464037.0,749265147.0,27991991350.0,50218482190.0,0.027125195345918108,82.62,2014-03-31 00:00:00,2014-04-24 00:00:00,81.67299944636459,3.3993550799925982,1078.5051351472557,6.195072437818734
sh600893,2014-06-27,23.79,24.64,23.6,24.34,0.031356,18362178.0,445969319.0,26438691090.0,26520212560.0,0.016904596789553094,78.04,2014-03-31 00:00:00,2014-04-24 00:00:00,77.14089473952288,3.210721954446889,1018.657961264977,5.851302561054237
sh600893,2014-06-26,23.5,23.79,23.35,23.6,0.004255,8584018.0,202279476.0,25634885360.0,25713928370.0,0.00790262261582433,75.67,2014-03-31 00:00:00,2014-04-24 00:00:00,74.79560378717231,3.1131073600647006,987.6880158402889,5.673407204742336
sh600893,2014-06-25,23.74,23.91,23.45,23.5,-0.016736,10497266.0,248476035.0,25526262970.0,25604971050.0,0.009663997871130606,75.35,2014-03-31 00:00:00,2014-04-24 00:00:00,74.47869693172782,3.099917212326253,983.5032096830876,5.649369139055656
sh600893,2014-06-24,23.01,23.95,22.73,23.9,0.040487999999999996,12161215.0,284373696.0,25960752550.0,26040800340.0,0.011195863368760472,76.63,2014-03-31 00:00:00,2014-04-24 00:00:00,75.74638848948788,3.152680472717655,1000.2432812378846,5.745526266654382
sh600893,2014-06-23,23.16,23.55,22.87,22.97,0.000436,7440530.0,172521201.0,24950564270.0,25027497230.0,0.0068499041645121075,73.65,2014-03-31 00:00:00,2014-04-24 00:00:00,72.79890636844237,3.0300017614020103,961.3213042705773,5.521953416718292
sh600893,2014-06-20,22.73,23.06,22.55,22.96,0.005693999999999999,5211527.0,119301673.0,24939702030.0,25016601500.0,0.004797838393420452,73.61,2014-03-31 00:00:00,2014-04-24 00:00:00,72.76717987801555,3.0286812563742305,960.9023508456086,5.519546894272389
sh600893,2014-06-19,23.18,23.68,22.27,22.83,-0.033037000000000004,12320182.0,283349568.0,24798492920.0,24874956980.0,0.011342211640335439,73.2,2014-03-31 00:00:00,2014-04-24 00:00:00,72.35518942940452,3.0115335841461026,955.4619504994646,5.48829653380888
sh600893,2014-06-18,23.76,24.77,23.4,23.61,0.01287,20121264.0,484687300.0,25645747600.0,25724824100.0,0.01852404735668536,75.7,2014-03-31 00:00:00,2014-04-24 00:00:00,74.82725753664259,3.114424837502679,988.1060087091903,5.675808209630442
sh600893,2014-06-17,23.7,23.8,23.28,23.31,-0.023459999999999998,8648073.0,202912675.0,25319880410.0,25397952130.0,0.007961592960383181,74.74,2014-03-31 00:00:00,2014-04-24 00:00:00,73.87646740118927,3.0748514987142266,975.5506715661339,5.603688735603227
sh600893,2014-06-16,23.29,24.1,23.12,23.87,0.023585,18912952.0,448582352.0,25928165830.0,26008113140.0,0.017411650604210904,76.53,2014-03-31 00:00:00,2014-04-24 00:00:00,75.651245623517,3.148720481203255,998.9869043419974,5.73830947590803
sh600893,2014-06-13,23.47,23.6,23.05,23.32,-0.000857,15828922.0,369889190.0,25330742650.0,25408847860.0,0.014572429483823287,74.77,2014-03-31 00:00:00,2014-04-24 00:00:00,73.90812255310209,3.076169034524007,975.9686829545152,5.606089846869612
sh600893,2014-06-12,21.99,23.76,21.98,23.34,0.070642,24061620.0,557383326.0,25352467130.0,25430639330.0,0.022151619718912934,74.83,2014-03-31 00:00:00,2014-04-24 00:00:00,73.97151614243616,3.0788075726137367,976.8058055298543,5.610898386787087
sh600893,2014-06-11,21.83,22.08,21.65,21.8,0.000918,7567830.0,165484606.0,23679682240.0,23752696540.0,0.006967099149722375,69.89,2014-03-31 00:00:00,2014-04-24 00:00:00,69.09080359488621,2.875664855865674,912.3552088651988,5.240685856511409
sh600893,2014-06-10,21.75,21.95,21.62,21.78,0.001379,5318379.0,115921626.0,23657957760.0,23730905080.0,0.004896208531399458,69.83,2014-03-31 00:00:00,2014-04-24 00:00:00,69.02743640826341,2.8730274166971457,911.5184349419222,5.235879319296295
sh600893,2014-06-09,21.46,22.06,21.45,21.75,0.014931999999999999,10673407.0,232757075.0,23625371040.0,23698217880.0,0.009826156882656097,69.73,2014-03-31 00:00:00,2014-04-24 00:00:00,68.93237865809391,2.869070967832505,910.2631820139251,5.228668984766303
sh600893,2014-06-06,21.59,21.8,21.19,21.43,-0.00787,5220849.0,112150676.0,23277779380.0,23349554450.0,0.004806420416808676,68.71,2014-03-31 00:00:00,2014-04-24 00:00:00,67.91822374119046,2.8268602899824864,896.871102708285,5.151743155961485
sh600893,2014-06-05,21.35,21.83,21.11,21.6,0.014561000000000001,9267703.0,199302590.0,23462437450.0,23534781900.0,0.008532037015617062,69.25,2014-03-31 00:00:00,2014-04-24 00:00:00,68.45698017516905,2.849284156292509,903.9854683441536,5.192608988702576
sh600893,2014-06-04,21.65,21.7,21.12,21.29,-0.020699000000000002,6353275.0,135424987.0,23125708020.0,23197014190.0,0.00584895496531483,68.26,2014-03-31 00:00:00,2014-04-24 00:00:00,67.4744842105788,2.8083911724307447,891.0114506117951,5.118084559432676
sh600893,2014-06-03,21.85,21.95,21.63,21.74,-0.004123,6060238.0,132078268.0,23614508800.0,23687322150.0,0.005579179107041176,69.7,2014-03-31 00:00:00,2014-04-24 00:00:00,68.90065895018876,2.867750745103645,909.8443181532492,5.226262976789236
sh600893,2014-05-30,21.77,22.02,21.55,21.83,0.008314,7917563.0,172567642.0,23712268960.0,23785383740.0,0.007289070505296765,69.99,2014-03-31 00:00:00,2014-04-24 00:00:00,69.18591246729139,2.8796234325159076,913.6111368705665,5.247900068772786
sh600893,2014-05-29,21.7,21.93,21.5,21.65,0.002315,7735950.0,167933940.0,23516748650.0,23589260560.0,0.007121873860738823,69.41,2014-03-31 00:00:00,2014-04-24 00:00:00,68.6154436686304,2.855879649113181,906.0780043424633,5.204628785053848
sh600893,2014-05-28,21.4,21.64,21.05,21.6,0.009818,8471670.0,181091810.0,23462437450.0,23534781900.0,0.00779919274755488,69.25,2014-03-31 00:00:00,2014-04-24 00:00:00,68.45696579282003,2.8492835576771585,903.9852784229142,5.19260789777051
sh600893,2014-05-27,21.61,21.92,21.35,21.39,-0.01018,6048444.0,130701212.0,23234330420.0,23305971520.0,0.005568321308223868,68.58,2014-03-31 00:00:00,2014-04-24 00:00:00,67.79138992652143,2.821581272741383,895.1962417216905,5.142122538685693
sh600893,2014-05-26,22.02,22.13,21.54,21.61,0.002912,6897467.0,149997531.0,23473299690.0,23545677630.0,0.006349949254620538,69.29,2014-03-31 00:00:00,2014-04-24 00:00:00,68.4886039143697,2.8506003846571932,904.4030649226027,5.19500771724727
sh600893,2014-05-23,21.46,21.71,21.3,21.63,0.007922,5252033.0,113007485.0,23495024170.0,23567469090.0,0.004835129045538666,69.08,2014-03-31 00:00:00,2014-04-24 00:00:00,68.28974417931953,2.842323538513043,901.7770900364166,5.179923779202233
sh600893,2014-05-22,21.75,21.96,21.42,21.46,-0.013333000000000001,7293850.0,157719962.0,23310366100.0,23382241640.0,0.006714867554139359,68.54,2014-03-31 00:00:00,2014-04-24 00:00:00,67.75300487470213,2.8199836282103603,894.6893609192144,5.13921095005589
sh600893,2014-05-21,21.3,21.76,21.22,21.75,0.008345,6666774.0,143707456.0,23625371040.0,23698217880.0,0.006137568559431184,69.47,2014-03-31 00:00:00,2014-04-24 00:00:00,68.66856282281877,2.858090549506936,906.7794513439839,5.208657986996514
sh600893,2014-05-20,21.5,21.85,21.0,21.57,-0.001389,14113243.0,301865384.0,23429850730.0,23502094700.0,0.01299294028878348,68.89,2014-03-31 00:00:00,2014-04-24 00:00:00,68.10026610219596,2.834437171312335,899.2750014568267,5.165551460062295
sh600893,2014-05-19,23.5,23.7,21.55,21.6,-0.057179999999999995,16187428.0,361873877.0,23462437450.0,23534781900.0,0.01490247744059516,68.99,2014-03-31 00:00:00,2014-04-24 00:00:00,68.19498894183616,2.8383796806888117,900.5258318372485,5.172736390909267
sh600893,2014-05-16,22.8,23.29,22.68,22.91,0.010140999999999999,8097137.0,185897038.0,24885390830.0,24962122840.0,0.007454390004852498,73.17,2014-03-31 00:00:00,2014-04-24 00:00:00,72.33086797250394,3.01052128793281,955.1407817369684,5.486451699061611
sh600893,2014-05-15,22.8,23.49,22.66,22.68,-0.008308,10861445.0,251262046.0,24635559320.0,24711520990.0,0.009999268512650112,72.44,2014-03-31 00:00:00,2014-04-24 00:00:00,71.60472446173746,2.9802980850522944,945.5519395183132,5.431372154047416
sh600893,2014-05-14,22.93,23.14,22.83,22.87,-0.005652,6496554.0,149070953.0,24841941870.0,24918539910.0,0.005980860544538421,73.04,2014-03-31 00:00:00,2014-04-24 00:00:00,72.20460028087093,3.0052658335978255,953.4733964964054,5.476874023434107
sh600893,2014-05-13,22.78,23.06,22.61,23.0,0.0074459999999999995,8424778.0,192728196.0,24983150990.0,25060184430.0,0.007756023012371827,73.46,2014-03-31 00:00:00,2014-04-24 00:00:00,72.61502037603628,3.022348145315146,958.8930600719318,5.508005269215713
sh600893,2014-05-12,22.7,23.0,22.48,22.83,0.016927,9520951.0,216600419.0,24798492920.0,24874956980.0,0.008765182304876936,72.92,2014-03-31 00:00:00,2014-04-24 00:00:00,72.07832516684397,3.0000100703314585,951.8059132419324,5.467295784802077
sh600893,2014-05-09,22.77,22.77,22.1,22.45,-0.00883,6173896.0,138226782.0,24385727810.0,24460919150.0,0.005683814987189427,71.7,2014-03-31 00:00:00,2014-04-24 00:00:00,70.87856371877625,2.9500741649414937,935.9628697457463,5.376291301934237
sh600893,2014-05-08,22.16,23.09,22.11,22.65,0.021651,8453642.0,192079958.0,24602972600.0,24678833800.0,0.007782595803077876,72.34,2014-03-31 00:00:00,2014-04-24 00:00:00,71.50999699221752,2.976355382973147,944.3010479995826,5.424186872014121
sh600893,2014-05-07,22.8,22.8,22.13,22.17,-0.028908999999999997,5342176.0,119881728.0,24081585100.0,24155838640.0,0.004918116537104528,70.81,2014-03-31 00:00:00,2014-04-24 00:00:00,69.99454509633674,2.91327995858972,924.2892612052281,5.30923659059123
sh600893,2014-05-06,22.46,22.96,22.38,22.83,0.016474000000000003,7778805.0,176739625.0,24798492920.0,24874956980.0,0.007161327050111721,72.92,2014-03-31 00:00:00,2014-04-24 00:00:00,72.07825538115041,3.00000716574422,951.8049917105895,5.467290491407324
sh600893,2014-05-05,22.14,22.58,21.81,22.46,0.01629,5232360.0,116271214.0,24396590050.0,24471814880.0,0.004817017679894982,71.74,2014-03-31 00:00:00,2014-04-24 00:00:00,70.91008267909501,2.951386032248951,936.3790827021543,5.378682082775678
sh600893,2014-04-30,21.91,22.37,21.91,22.1,0.004089,6015042.0,133616994.0,24005549430.0,24079568520.0,0.005537570743282921,70.59,2014-03-31 00:00:00,2014-04-24 00:00:00,69.77347280706788,2.904078591985507,921.3699659567193,5.29246778259717
sh600893,2014-04-29,21.99,22.2,21.32,22.01,0.012884999999999999,8313173.0,181087396.0,23907789270.0,23981506920.0,0.00765327716685199,70.3,2014-03-31 00:00:00,2014-04-24 00:00:00,69.4893309328833,2.8922521728507204,917.6178266634922,5.270915011116713
sh600893,2014-04-28,22.18,22.18,21.51,21.73,-0.031639999999999995,8349594.0,182554722.0,23603646560.0,23676426420.0,0.007686807085455698,69.4,2014-03-31 00:00:00,2014-04-24 00:00:00,68.60535098543596,2.855459576211238,905.9447288324856,5.203863233354935
sh600893,2014-04-25,23.0,23.07,22.34,22.44,-0.02773,7399229.0,167461834.0,24374865570.0,24450023420.0,0.0068118816197434325,71.67,2014-03-31 00:00:00,2014-04-24 00:00:00,70.84694843388405,2.948758288458051,935.5453848078045,5.373893214666999
sh600893,2014-04-24,23.83,24.04,23.0,23.08,-0.032691000000000005,12949020.0,305312482.0,25070048900.0,25147350290.0,0.011921132774495703,73.72,2014-03-31 00:00:00,2014-04-24 00:00:00,72.86756604017819,3.032859481890885,962.2279663136829,5.527161400297241
sh600893,2014-04-23,22.9,24.04,22.72,23.86,0.035141000000000006,19119815.0,447939200.0,25917303590.0,25997217410.0,0.017602092915098656,76.21,2013-12-31 00:00:00,2014-03-28 00:00:00,78.82384282409545,3.2793906351528324,81.82041062107339,5.794962851934112
sh600893,2014-04-22,22.39,23.06,21.7,23.05,0.029018000000000002,10779356.0,240114040.0,25037462190.0,25114663090.0,0.009923695697051794,73.62,2013-12-31 00:00:00,2014-03-28 00:00:00,76.1479284697403,3.1680617762728285,79.04276868665562,5.598235266436275
sh600893,2014-04-21,22.68,23.18,22.36,22.4,-0.026087,7339617.0,167063511.0,24331416610.0,24406440490.0,0.00675700159325824,71.54,2013-12-31 00:00:00,2014-03-28 00:00:00,74.00057964947192,3.0787233811972468,76.81378623761258,5.44036670537957
sh600893,2014-04-18,22.42,23.1,22.42,23.0,0.016799,9842366.0,223723003.0,24983150990.0,25060184430.0,0.009061083531481311,73.46,2013-12-31 00:00:00,2014-03-28 00:00:00,75.9827414250266,3.1611893271752685,78.87130189001746,5.586091062938446
sh600893,2014-04-17,23.87,24.09,22.41,22.62,-0.024159,21591540.0,499943138.0,24570385880.0,24646146600.0,0.01987761352977172,72.25,2013-12-31 00:00:00,2014-03-28 00:00:00,74.72739590128097,3.108961876610095,77.56823314147384,5.493800704896882
sh600893,2014-04-09,22.88,23.33,22.61,23.18,0.021595,14981202.0,345499219.0,25178671300.0,25256307610.0,0.013792001103727821,74.04,2013-12-31 00:00:00,2014-03-28 00:00:00,76.57743003345931,3.1859307782826245,79.48859818502588,5.629811316492012
sh600893,2014-04-08,21.1,23.25,21.05,22.69,0.072813,19803112.0,449806237.0,24646421560.0,24722416720.0,0.018231150115895364,72.47,2013-12-31 00:00:00,2014-03-28 00:00:00,74.9586969723416,3.1185849365772396,77.80832735577786,5.510805472317321
sh600893,2014-04-04,20.65,21.16,20.65,21.15,0.019769,3657781.0,76703995.0,22973636670.0,23044473940.0,0.003367428033325818,67.55,2013-12-31 00:00:00,2014-03-28 00:00:00,69.87116764276867,2.906923141849734,72.52739047324916,5.1367810348283625
sh600893,2014-04-03,21.12,21.24,20.63,20.74,-0.011909999999999999,4603468.0,96140892.0,22528284850.0,22597748910.0,0.004238046835598316,66.24,2013-12-31 00:00:00,2014-03-28 00:00:00,68.51666175650436,2.8505702191866344,71.12139168110541,5.037200615853555
sh600893,2014-04-02,21.19,21.35,20.94,20.99,-0.009906,3942200.0,82958748.0,22799840840.0,22870142220.0,0.0036292699839741514,67.04,2013-12-31 00:00:00,2014-03-28 00:00:00,69.34253130433903,2.884929732298307,71.97865749183313,5.097916805001118
sh600893,2014-04-01,20.8,21.25,20.74,21.2,0.017274,5795939.0,122450599.0,23027947870.0,23098952600.0,0.005335860038144163,67.71,2013-12-31 00:00:00,2014-03-28 00:00:00,70.03631100111608,2.9137937734177837,72.6988119227398,5.148922026596583
sh600893,2014-03-31,20.63,21.0,20.32,20.84,0.007737000000000001,5399263.0,111843007.0,22636907240.0,22706706240.0,0.004970671997152205,66.56,2013-12-31 00:00:00,2014-03-28 00:00:00,68.84704710934919,2.8643155859854708,71.46433696598929,5.061489850911931
sh600893,2014-03-28,21.65,21.8,20.5,20.68,-0.043036000000000005,9714677.0,204052699.0,22463111410.0,22532374520.0,0.008943530426090692,66.05,2013-12-31 00:00:00,2014-03-28 00:00:00,68.31846712917078,2.842324521165215,70.9156624853402,5.022629764424577
sh600893,2014-03-27,21.85,22.13,21.6,21.61,-0.023056,5158637.0,112675122.0,23473299690.0,23545677630.0,0.004749146777071631,69.02,2013-09-30 00:00:00,2013-10-17 00:00:00,76.95635662603314,3.2222536897098406,-229.5098674707469,5.402101196574626
sh600893,2014-03-26,22.1,22.32,21.75,22.12,-0.001354,5375719.0,118463421.0,24027273910.0,24101359980.0,0.004948996907656263,70.65,2013-09-30 00:00:00,2013-10-17 00:00:00,78.77253622114793,3.2982992778601847,-234.9263289100981,5.529591457212108
sh600893,2014-03-25,22.13,22.38,21.88,22.15,0.002716,5067864.0,112430130.0,24059860630.0,24134047180.0,0.00466557929516984,70.75,2013-09-30 00:00:00,2013-10-17 00:00:00,78.87933884594533,3.3027712301057477,-235.24485043759057,5.537088675278435
sh600893,2014-03-24,22.15,22.38,21.91,22.09,-0.006745,7317698.0,162082484.0,23994687190.0,24068672780.0,0.0067368225115836565,70.55,2013-09-30 00:00:00,2013-10-17 00:00:00,78.66568285132115,3.2938252008602116,-234.6076560437757,5.522090676999704
sh600893,2014-03-21,21.4,22.4,20.81,22.24,0.035382,13340187.0,287808538.0,24157620780.0,24232108770.0,0.012281249117281654,71.03,2013-09-30 00:00:00,2013-10-17 00:00:00,79.19988608295064,3.3161929221199102,-236.20083064648622,5.559590112307215
sh600893,2014-03-20,22.05,22.15,21.46,21.48,-0.032432,6494711.0,141361013.0,23332090570.0,23404033110.0,0.00597916384138226,68.61,2013-09-30 00:00:00,2013-10-17 00:00:00,76.49339672019666,3.202869010780476,-228.12916454650193,5.369602825147836
sh600893,2014-03-19,21.95,22.28,21.6,22.2,-0.005822,7348795.0,161128570.0,24114171820.0,24188525840.0,0.0067654510475325955,70.91,2013-09-30 00:00:00,2013-10-17 00:00:00,79.05738585835482,3.310226269141265,-235.77584681025203,5.549587031761939
sh600893,2014-03-18,22.5,22.54,22.2,22.33,-0.004902,7853353.0,175641302.0,24255380940.0,24330170360.0,0.007229957464852744,71.32,2013-09-30 00:00:00,2013-10-17 00:00:00,79.52035335559107,3.3296112659315185,-237.15657237461704,5.582085936081807
sh600893,2014-03-17,22.68,22.82,22.17,22.44,0.012179,9501824.0,213518422.0,24374865570.0,24450023420.0,0.008747573599848986,71.67,2013-09-30 00:00:00,2013-10-17 00:00:00,79.91208238343467,3.3460134237346657,-238.32484074394384,5.609584117425426
sh600893,2014-03-14,22.4,22.55,22.0,22.17,-0.016415,6709975.0,149135797.0,24081585100.0,24155838640.0,0.006177340284381862,70.81,2013-09-30 00:00:00,2013-10-17 00:00:00,78.95054371157143,3.3057526620633952,-235.4572074148385,5.542087039372903
sh600893,2014-03-13,21.8,22.73,21.66,22.54,0.03537,13821955.0,309132311.0,24483487970.0,24558980740.0,0.012724774594279344,71.99,2013-09-30 00:00:00,2013-10-17 00:00:00,80.26814531694914,3.360922199976001,-239.38674076448757,5.6345786478778175
sh600893,2014-03-12,21.56,21.91,21.2,21.77,0.0013800000000000002,8755646.0,188575280.0,23647095520.0,23720009350.0,0.008060626864672977,69.53,2013-09-30 00:00:00,2013-10-17 00:00:00,77.52604896505515,3.2461073818789434,-231.20888258737222,5.442091858830967
sh600893,2014-03-11,21.93,22.2,21.5,21.74,-0.01851,9237068.0,200862231.0,23614508800.0,23687322150.0,0.008503833809153804,69.44,2013-09-30 00:00:00,2013-10-17 00:00:00,77.41921045462777,3.2416339270596013,-230.89025403680145,5.434592121703017
sh600893,2014-03-10,22.0,22.33,21.4,22.15,-0.024659,13966718.0,305053896.0,24059860630.0,24134047180.0,0.012858046372648502,70.75,2013-09-30 00:00:00,2013-10-17 00:00:00,78.87926566203198,3.302768165808721,-235.2446321784241,5.537083537991235
sh600893,2014-03-07,22.8,23.44,22.6,22.71,-0.005256,8847564.0,203355849.0,24668146040.0,24744208190.0,0.008145248455809774,72.53,2013-09-30 00:00:00,2013-10-17 00:00:00,80.87352593814059,3.3862702027380376,-241.19219040153553,5.677074518544011
sh600893,2014-03-06,23.47,23.55,22.5,22.83,-0.028097000000000004,12828305.0,292895318.0,24798492920.0,24874956980.0,0.011810000071165614,72.92,2013-09-30 00:00:00,2013-10-17 00:00:00,81.30084316984127,3.40416248073679,-242.4665948239301,5.707070883105613
sh600893,2014-03-05,23.8,24.2,23.28,23.49,-0.025715,14112125.0,333125281.0,25515400730.0,25594075310.0,0.012991911032784317,75.03,2013-09-30 00:00:00,2013-10-17 00:00:00,83.65119067421469,3.5025743111573795,-249.47612552274262,5.872058099528054
sh600893,2014-03-04,23.5,24.4,23.12,24.11,0.016871,19190926.0,461215971.0,26188859580.0,26269610720.0,0.017667559156082962,77.01,2013-09-30 00:00:00,2013-10-17 00:00:00,85.85905630715312,3.5950202570678798,-256.06072712065014,6.027043523741055
sh600893,2014-03-03,23.93,24.88,23.36,23.71,0.028633,22653877.0,543691988.0,25754370000.0,25833781430.0,0.020855622702865572,75.73,2013-09-30 00:00:00,2013-10-17 00:00:00,84.43456083136712,3.5353749463480417,-251.81240011825503,5.927048292006611
sh600893,2014-02-28,22.11,23.28,22.07,23.05,0.037821,14603852.0,330874349.0,25037462190.0,25114663090.0,0.013444604970165308,73.62,2013-09-30 00:00:00,2013-10-17 00:00:00,82.08424270985583,3.436964346222649,-244.80295704906905,5.762063138171351
sh600893,2014-02-27,22.11,23.33,22.11,22.21,0.011384,23792376.0,540229410.0,24125034060.0,24199421570.0,0.021903748183143498,70.94,2013-09-30 00:00:00,2013-10-17 00:00:00,79.09287122717292,3.3117120835121363,-235.88167617447425,5.552077996274262
sh600893,2014-02-26,22.41,22.41,20.83,21.96,-0.027458,22056149.0,477039203.0,23853478070.0,23927028260.0,0.02030534208129423,70.14,2013-09-30 00:00:00,2013-10-17 00:00:00,78.20261268437399,3.2744359051677066,-233.22662428362938,5.489584565579702
sh600893,2014-02-25,24.96,25.0,22.39,22.58,-0.09244400000000001,42301823.0,989867745.0,24526936930.0,24602563670.0,0.03894392382000551,72.12,2013-09-30 00:00:00,2013-10-17 00:00:00,80.41052487643104,3.3668838005635817,-239.81136473656605,5.644573258100629
sh600893,2014-02-24,25.0,25.77,24.72,24.88,-0.016212,14672938.0,370014203.0,27025252030.0,27108582110.0,0.013508206955285885,79.46,2013-09-30 00:00:00,2013-10-17 00:00:00,88.60117158217348,3.709835867498624,-264.23864173292446,6.219531641133582
sh600893,2014-02-21,25.08,25.65,24.61,25.29,0.003571,12814086.0,320724803.0,27470603850.0,27555307140.0,0.011796909769786512,80.77,2013-09-30 00:00:00,2013-10-17 00:00:00,90.06124447764505,3.7709708468680487,-268.59307262634275,6.322024299070105
sh600893,2014-02-20,25.66,26.35,25.15,25.2,-0.013699000000000001,18646547.0,480304009.0,27372843690.0,27457245550.0,0.01716639271102344,80.49,2013-09-30 00:00:00,2013-10-17 00:00:00,89.74078015172326,3.757552626439035,-267.6373396863229,6.299528682146162
sh600893,2014-02-19,25.88,25.88,25.15,25.55,-0.014655000000000001,11697021.0,297913091.0,27753022080.0,27838596180.0,0.010768516873172176,81.6,2013-09-30 00:00:00,2013-10-17 00:00:00,90.987213996258,3.809742286015157,-271.35462671772905,6.387024531199058
sh600893,2014-02-18,26.01,26.18,25.58,25.93,0.0,21625816.0,559799389.0,28165787180.0,28252634010.0,0.01990916871225184,82.82,2013-09-30 00:00:00,2013-10-17 00:00:00,92.34046348868466,3.8664044431292153,-275.3904741158975,6.482018512499741
sh600893,2014-02-17,24.1,25.93,24.1,25.93,0.100127,28738937.0,733599282.0,28165787180.0,28252634010.0,0.02645765345195653,82.82,2013-09-30 00:00:00,2013-10-17 00:00:00,92.34046348868466,3.8664044431292153,-275.3904741158975,6.482018512499741
sh600893,2014-02-14,23.35,23.87,23.35,23.57,0.011154,13651542.0,321619729.0,25602298640.0,25681241170.0,0.012567888901869322,75.28,2013-09-30 00:00:00,2013-10-17 00:00:00,83.93618508470809,3.5145073642672298,-250.32607518577174,5.892063836720434
sh600893,2014-02-13,24.03,24.05,23.26,23.31,-0.036379,14985725.0,353544422.0,25319880410.0,25397952130.0,0.013796165072408412,74.45,2013-09-30 00:00:00,2013-10-17 00:00:00,83.01028832868988,3.47573897177604,-247.56473809703738,5.827068712303402
sh600893,2014-02-12,23.81,24.81,23.37,24.19,0.016387,18300302.0,439907808.0,26275757500.0,26356776580.0,0.01684763247567649,77.26,2013-09-30 00:00:00,2013-10-17 00:00:00,86.14412546913142,3.606956440110832,-256.9108997178739,6.04705450825937
sh600893,2014-02-11,24.58,24.64,23.68,23.8,-0.035656,23176080.0,557504149.0,25852130150.0,25931843020.0,0.0213363734748179,76.02,2013-09-30 00:00:00,2013-10-17 00:00:00,84.75524132946546,3.548802218161814,-252.76877775677366,5.949559083557119
sh600893,2014-02-10,24.4,25.44,24.14,24.68,0.013552000000000002,21837900.0,542440294.0,26808007230.0,26890667460.0,0.020104417585984066,78.83,2013-09-30 00:00:00,2013-10-17 00:00:00,87.88901193916846,3.680016900775879,-262.1147409604598,6.169540209258438
sh600893,2014-02-07,23.93,25.1,23.7,24.35,0.016701,26679329.0,652494793.0,26449553330.0,26531108300.0,0.024561536183416523,77.77,2013-09-30 00:00:00,2013-10-17 00:00:00,86.71386563212194,3.6308121347260713,-258.61005746173834,6.087048527612237
sh600893,2014-01-30,21.94,24.21,21.8,23.95,0.088142,38584871.0,905270557.0,26015063750.0,26095279000.0,0.03552202175364648,76.49,2013-09-30 00:00:00,2013-10-17 00:00:00,85.28944658471069,3.5711700241526967,-254.3619583945903,5.987058660916274
sh600893,2014-01-29,20.3,22.26,20.3,22.01,0.087451,31033655.0,675653300.0,23907789270.0,23981506920.0,0.028570217799564868,70.3,2013-09-30 00:00:00,2013-10-17 00:00:00,78.3808056160967,3.281897054017488,-233.75805583700503,5.50209316515333
sh600893,2014-01-28,20.76,21.03,20.0,20.24,-0.025987,10295981.0,209988820.0,21985172870.0,22052962300.0,0.009478690782748437,64.65,2013-09-30 00:00:00,2013-10-17 00:00:00,72.0775516470137,3.017972353712938,-214.9596219388322,5.059623987796535
sh600893,2014-01-27,20.62,21.29,20.41,20.78,-0.0019210000000000002,15899623.0,331304603.0,22571733810.0,22641331840.0,0.014637518266037004,66.37,2013-09-30 00:00:00,2013-10-17 00:00:00,74.00060537899772,3.0984928884038894,-220.69481817884585,5.194616486429375
sh600893,2014-01-24,19.96,20.9,19.78,20.82,0.045181,14987895.0,303499108.0,22615182760.0,22684914770.0,0.013798162818826587,66.5,2013-09-30 00:00:00,2013-10-17 00:00:00,74.14303414759524,3.104456549435355,-221.11958890914033,5.204614550981812
sh600893,2014-01-23,20.15,20.32,19.86,19.92,-0.011414,11628395.0,233818831.0,21637581200.0,21704298860.0,0.010705338376731316,63.62,2013-09-30 00:00:00,2013-10-17 00:00:00,70.93798504526512,2.97025735201401,-211.5610491476025,4.979629892795422
sh600893,2014-01-22,19.84,20.3,19.71,20.15,0.012054,14471183.0,290291125.0,21887412710.0,21954900710.0,0.013322467178442488,64.36,2013-09-30 00:00:00,2013-10-17 00:00:00,71.75701966775286,3.0045513005585858,-214.0036872336878,5.037123621814816
sh600893,2014-01-21,19.9,19.97,19.44,19.91,0.005556,8183763.0,161524189.0,21626718960.0,21693403130.0,0.007534139673769543,63.59,2013-09-30 00:00:00,2013-10-17 00:00:00,70.90236258910379,2.9687657976339064,-211.45481094258588,4.977129305170292
sh600893,2014-01-20,19.81,20.32,19.42,19.8,-0.0070209999999999995,9912438.0,196006976.0,21507234330.0,21573550070.0,0.009125593248697356,63.24,2013-09-30 00:00:00,2013-10-17 00:00:00,70.51060566403443,2.9523624717409143,-210.28645937430227,4.949629165526627
sh600893,2014-01-17,20.19,20.19,19.74,19.94,-0.013848,14476276.0,289305460.0,21659305680.0,21726090330.0,0.013327155898009377,63.69,2013-09-30 00:00:00,2013-10-17 00:00:00,71.00916098329816,2.9732375727391154,-211.77331985299008,4.984626226261207
sh600893,2014-01-16,19.8,20.55,19.57,20.22,0.034270999999999996,29599836.0,593532307.0,21963448390.0,22031170830.0,0.027250214688168097,64.58,2013-09-30 00:00:00,2013-10-17 00:00:00,72.00630428503733,3.014989142382832,-214.74713822310358,5.054622640588069
sh600893,2014-01-15,17.8,19.55,17.78,19.55,0.10016900000000001,25934146.0,502217069.0,21235678340.0,21301156760.0,0.023875505466900006,62.44,2013-09-30 00:00:00,2013-10-17 00:00:00,69.62034542691165,2.915086222453141,-207.631402430411,4.887135615895708
sh600893,2014-01-14,17.4,17.89,17.3,17.77,0.021263999999999998,4647268.0,82109729.0,19302199700.0,19361716400.0,0.004278370011890406,56.76,2013-09-30 00:00:00,2013-10-17 00:00:00,63.2815007757096,2.649671298185225,-188.72682508815555,4.442168081354509
sh600893,2014-01-13,17.4,17.72,17.2,17.4,0.0,5400837.0,94163178.0,18900296830.0,18958574310.0,0.004972121054249072,55.57,2013-09-30 00:00:00,2013-10-17 00:00:00,61.963900397653894,2.5945018116620435,-184.79729539879557,4.349676559003851
sh600893,2014-01-10,17.89,17.93,17.28,17.4,-0.032257999999999995,9322548.0,163423481.0,18900296830.0,18958574310.0,0.008582528446988416,55.57,2013-09-30 00:00:00,2013-10-17 00:00:00,61.963900397653894,2.5945018116620435,-184.79729539879557,4.349676559003851
sh600893,2014-01-09,18.28,18.48,17.86,17.98,-0.018022999999999997,7479546.0,135521971.0,19530306730.0,19590526780.0,0.006885823092241829,57.43,2013-09-30 00:00:00,2013-10-17 00:00:00,64.02935947561838,2.680985026651776,-190.95719251494256,4.494665477992947
sh600893,2014-01-08,18.0,18.65,18.0,18.31,0.013281999999999999,7093371.0,129938829.0,19888760630.0,19950085950.0,0.006530302487229442,58.48,2013-09-30 00:00:00,2013-10-17 00:00:00,65.20454091655749,2.730191263799229,-194.46198079480735,4.5771596259311025
sh600893,2014-01-07,17.85,18.25,17.75,18.07,0.007245999999999999,6063145.0,109439512.0,19628066880.0,19688588370.0,0.005581855351310072,57.71,2013-09-30 00:00:00,2013-10-17 00:00:00,64.34984625855142,2.6944041873824167,-191.9129924293606,4.5171626713304915
sh600893,2014-01-06,18.74,18.8,17.93,17.94,-0.0432,10810331.0,196126133.0,19486857770.0,19546943850.0,0.009952211917847852,57.3,2013-09-30 00:00:00,2013-10-17 00:00:00,63.88692162446057,2.6750209853227673,-190.53239469738335,4.484666775872518
sh600893,2014-01-03,19.18,19.25,18.6,18.75,-0.026985000000000002,9924147.0,186844362.0,20366699180.0,20429498180.0,0.009136372791950866,59.89,2013-09-30 00:00:00,2013-10-17 00:00:00,66.77144818610009,2.795799524793862,-199.13502790278358,4.687151730635993
sh600893,2014-01-02,19.13,19.51,19.01,19.27,0.007318000000000001,5574236.0,107654475.0,20931535630.0,20996076260.0,0.005131755721068421,61.55,2013-09-30 00:00:00,2013-10-17 00:00:00,68.62324649270575,2.873336510530528,-204.6577163792784,4.817142316034175
sh600893,2013-12-31,19.36,19.49,18.94,19.13,-0.015947,5144160.0,98739223.0,20779464280.0,20843536000.0,0.0047358189544239775,61.1,2013-09-30 00:00:00,2013-10-17 00:00:00,68.12470986590705,2.852462192207951,-203.17091164783955,4.782146567453551
sh600893,2013-12-30,19.46,19.75,19.29,19.44,0.003614,7112338.0,138925282.0,21116193700.0,21181303710.0,0.0065477638955357765,62.09,2013-09-30 00:00:00,2013-10-17 00:00:00,69.22869994391263,2.898687562771468,-206.46338322004968,4.8596432991450165
sh600893,2013-12-27,18.83,19.42,18.83,19.37,0.028678,7993448.0,153995138.0,21040158030.0,21105033580.0,0.007358931788403493,61.87,2013-09-30 00:00:00,2013-10-17 00:00:00,68.97940836209203,2.888249429333855,-205.71991146003313,4.842143791482599
sh600893,2013-12-26,19.25,19.45,18.75,18.83,-0.021818,5670938.0,108093619.0,20453597090.0,20516664030.0,0.005220781560824223,60.14,2013-09-30 00:00:00,2013-10-17 00:00:00,67.0563659007892,2.8077293665596574,-199.98474883300037,4.707152084017155
sh600893,2013-12-25,19.21,19.51,19.05,19.25,0.002082,7950035.0,153126961.0,20909811150.0,20974284790.0,0.007318964894142528,61.48,2013-09-30 00:00:00,2013-10-17 00:00:00,68.55203418258485,2.8703547668630764,-204.44533720003065,4.812143429358908
sh600893,2013-12-24,19.17,19.73,18.84,19.21,0.008929000000000001,11234030.0,217383925.0,20866362190.0,20930701860.0,0.010342277888927989,61.36,2013-09-30 00:00:00,2013-10-17 00:00:00,68.409605384175,2.864391104583334,-204.02056638082576,4.802145362713738
sh600893,2013-12-23,18.32,19.19,18.11,19.04,0.039300999999999996,12160902.0,228406907.0,20681704120.0,20745474410.0,0.011195575216458515,60.81,2013-09-30 00:00:00,2013-10-17 00:00:00,67.80418184448558,2.839041304773015,-202.21498874630996,4.759646479300067
sh600893,2013-12-20,18.73,18.92,18.09,18.32,-0.016640000000000002,9090780.0,167469907.0,19899622870.0,19960981680.0,0.008369158083446633,58.51,2013-09-30 00:00:00,2013-10-17 00:00:00,65.24017762369667,2.731683414884634,-194.5682615010569,4.579661213931351
sh600893,2013-12-19,19.01,19.2,18.58,18.63,-0.013241999999999999,6474304.0,122434932.0,20236352300.0,20298749390.0,0.0059603767384500414,59.5,2013-09-30 00:00:00,2013-10-17 00:00:00,66.34414418290012,2.7779078006880837,-197.8606629322495,4.6571562946747385
sh600893,2013-12-18,19.29,19.33,18.78,18.88,-0.024288999999999998,8482723.0,161531542.0,20507908290.0,20571142700.0,0.007809368365378036,60.3,2013-09-30 00:00:00,2013-10-17 00:00:00,67.23446294116705,2.8151865003253924,-200.5158944059734,4.719653952311243
sh600893,2013-12-17,19.1,19.65,18.76,19.35,0.014683000000000002,13180616.0,253381632.0,21018433550.0,21083242120.0,0.012134344788030124,61.8,2013-09-30 00:00:00,2013-10-17 00:00:00,68.90817356898411,2.88526674427714,-205.50746522891862,4.83714332657031
sh600893,2013-12-16,19.85,19.96,18.95,19.07,-0.042671,15560759.0,299765789.0,20714290840.0,20778161610.0,0.014325553137304506,60.91,2013-09-30 00:00:00,2013-10-17 00:00:00,67.91103582989376,2.8435154075481104,-202.53366344850417,4.767147302724406
sh600893,2013-12-13,19.8,20.12,19.7,19.92,-0.0035020000000000003,6857778.0,136558567.0,21637581200.0,21704298860.0,0.006313410750366128,63.62,2013-09-30 00:00:00,2013-10-17 00:00:00,70.93803261981385,2.970259344016645,-211.5611910309875,4.979633232383441
sh600893,2013-12-12,19.88,20.4,19.82,19.99,-0.0005,7896645.0,158503304.0,21713616880.0,21780568990.0,0.007269812966783817,63.85,2013-09-30 00:00:00,2013-10-17 00:00:00,71.1873306517563,2.98069774752849,-212.3046820274476,4.997133192824713
sh600893,2013-12-11,20.36,20.36,19.86,20.0,-0.019127,12147473.0,243280031.0,21724479120.0,21791464720.0,0.011183212203064318,63.88,2013-09-30 00:00:00,2013-10-17 00:00:00,71.2229421228177,2.982188841949464,-212.41088747118317,4.9996330093293775
sh600893,2013-12-10,21.29,21.39,20.0,20.39,-0.0145,24076779.0,497114746.0,22148106460.0,22216398280.0,0.022165575404679536,65.12,2013-09-30 00:00:00,2013-10-17 00:00:00,72.61178778783564,3.0403414529194546,-216.5528946878782,5.097125733228845
sh600893,2013-12-09,20.3,20.74,20.16,20.69,0.026289999999999997,12739688.0,260412678.0,22473973650.0,22543270250.0,0.011728417449666274,66.08,2013-09-30 00:00:00,2013-10-17 00:00:00,73.68014996228882,3.08507504101416,-219.7391118091103,5.172121494904967
sh600893,2013-12-06,20.5,20.7,20.01,20.16,-0.028901999999999997,16697069.0,338742015.0,21898274950.0,21965796440.0,0.015371663375703481,64.39,2013-09-30 00:00:00,2013-10-17 00:00:00,71.79271937005021,3.0060460893257854,-214.11015581279204,5.03962963188277
sh600893,2013-12-05,20.9,21.64,20.61,20.76,0.000482,19672585.0,415143146.0,22550009330.0,22619540380.0,0.018110984284900957,66.31,2013-09-30 00:00:00,2013-10-17 00:00:00,73.9294276891212,3.0955125943270256,-220.48254224886887,5.189620029989528
sh600893,2013-12-04,20.58,21.5,20.45,20.75,0.0029,24876624.0,524028812.0,22539147090.0,22608644650.0,0.022901929072064103,66.27,2013-09-30 00:00:00,2013-10-17 00:00:00,73.89381087228074,3.094021276071958,-220.37632086221322,5.187119838227501
sh600893,2013-12-03,19.93,21.0,19.7,20.69,0.043369,24933258.0,509279043.0,22473973650.0,22543270250.0,0.022954067493978755,66.08,2013-09-30 00:00:00,2013-10-17 00:00:00,73.68013847071568,3.085074559848398,-219.73907753735492,5.1721206882316295
sh600893,2013-12-02,21.01,21.94,19.48,19.83,-0.081944,42092867.0,868147960.0,21539821050.0,21606237270.0,0.03875155465184331,63.34,2013-09-30 00:00:00,2013-10-17 00:00:00,70.61752694465302,2.956839392246078,-210.60533477356037,4.957134712869205
sh600893,2013-11-29,20.25,22.2,20.21,21.6,0.061425,37229690.0,796050498.0,23462437450.0,23534781900.0,0.03427441440019694,68.99,2013-09-30 00:00:00,2013-10-17 00:00:00,76.92071828369187,3.220761470156589,-229.40358188777196,5.399599493788184
sh600893,2013-11-28,20.75,21.65,20.3,20.35,-0.011656,28913474.0,605255166.0,22104657500.0,22172815350.0,0.026618335791902686,65.0,2013-09-30 00:00:00,2013-10-17 00:00:00,72.46929202128446,3.034374986604413,-216.12792414704,5.087122965624687
sh600893,2013-11-27,19.9,20.76,19.72,20.59,0.031047,25802700.0,523869715.0,22365351250.0,22434312930.0,0.02375449359419294,65.76,2013-09-30 00:00:00,2013-10-17 00:00:00,73.32395605303869,3.070160780663831,-218.6768211746518,5.1471177703559565
sh600893,2013-11-26,19.9,20.54,19.43,19.97,-0.004983,22203481.0,443562386.0,21691892400.0,21758777520.0,0.02044097893321654,63.78,2013-09-30 00:00:00,2013-10-17 00:00:00,71.11601707103429,2.9777117635411683,-212.09200082503688,4.992127197262547
sh600893,2013-11-25,20.5,20.82,19.78,20.07,0.009557,35727066.0,726936101.0,21800514800.0,21867734850.0,0.03289106799533009,64.1,2013-09-30 00:00:00,2013-10-17 00:00:00,71.47216285855849,2.9926240089779053,-213.15414794424302,5.017127543813369
sh600893,2013-11-22,19.55,20.24,19.0,19.88,0.016880000000000003,30639942.0,606753110.0,21594132250.0,21660715930.0,0.028207757547655102,63.5,2013-09-30 00:00:00,2013-10-17 00:00:00,70.7955695998923,2.9642942488417248,-211.13631815166752,4.969632763492669
sh600893,2013-11-21,20.0,20.76,19.41,19.55,-0.033136,48029043.0,960549592.0,21235678340.0,21301156760.0,0.0442165197464561,62.44,2013-09-30 00:00:00,2013-10-17 00:00:00,69.62037762557263,2.915087570649166,-207.63149845770147,4.887137876143368
sh600893,2013-11-20,18.4,20.22,18.2,20.22,0.100109,62943423.0,1247002727.0,21963448390.0,22031170830.0,0.05794700315090184,64.58,2013-09-30 00:00:00,2013-10-17 00:00:00,72.00638106866387,3.014992357404109,-214.74736721783154,5.054628030564141
sh600893,2013-11-19,18.2,18.59,18.11,18.38,0.006021,22935376.0,420464375.0,19964796310.0,20026356080.0,0.021114776446221603,58.7,2013-09-30 00:00:00,2013-10-17 00:00:00,65.45386054351331,2.7406305715198305,-195.20553619489667,4.594661102276358
sh600893,2013-11-18,17.71,18.63,17.5,18.27,0.039249,35663229.0,649468907.0,19845311680.0,19906503020.0,0.03283229834513741,58.35,2013-09-30 00:00:00,2013-10-17 00:00:00,65.06212150990218,2.72422799476336,-194.03723798498905,4.567162218558417
sh600893,2013-11-15,17.33,18.38,17.15,17.58,0.032296,31370020.0,554444418.0,19095817150.0,19154697490.0,0.028879882294013268,56.15,2013-09-30 00:00:00,2013-10-17 00:00:00,62.60494021153947,2.621342907006271,-186.7090928016183,4.394675596087576
sh600893,2013-11-14,16.04,17.12,15.61,17.03,0.066374,18332067.0,303846384.0,18498393970.0,18555432210.0,0.01687687598806179,54.39,2013-09-30 00:00:00,2013-10-17 00:00:00,60.64630707814373,2.539332620688514,-180.86778676040424,4.2571855321415315
sh600893,2013-11-13,16.75,17.2,15.9,15.97,-0.004364,9631494.0,159069309.0,17346996580.0,17400484580.0,0.008866950452814352,51.01,2013-09-30 00:00:00,2013-10-17 00:00:00,56.87151700823888,2.381277694963037,-169.61008685545997,3.9922067981229215
sh600893,2013-11-12,15.89,16.1,15.81,16.04,0.010712000000000001,3320263.0,53093029.0,17423032250.0,17476754710.0,0.003056702057129005,51.23,2013-09-30 00:00:00,2013-10-17 00:00:00,57.120792145160365,2.39171513983327,-170.3535095712288,4.009705151403647
sh600893,2013-11-11,16.15,16.2,15.8,15.87,-0.017337,4174240.0,66620609.0,17238374180.0,17291527260.0,0.003842890756882271,50.69,2013-09-30 00:00:00,2013-10-17 00:00:00,56.515399189047294,2.366366620593473,-168.54802314727522,3.967208414863628
sh600893,2013-11-08,16.4,16.5,16.0,16.15,-0.014643000000000002,4694076.0,76297289.0,17542516890.0,17596607760.0,0.004321462414735631,51.58,2013-09-30 00:00:00,2013-10-17 00:00:00,57.51249328513162,2.4081161299382114,-171.52169476949393,4.037201375103803
sh600893,2013-11-07,16.5,16.58,16.3,16.39,-0.006667,3286384.0,53962074.0,17803210640.0,17858105340.0,0.0030255123555624013,52.35,2013-09-30 00:00:00,2013-10-17 00:00:00,58.36716366264371,2.443902189702018,-174.0706107223006,4.097196625287894
sh600893,2013-11-06,16.48,16.75,16.44,16.5,-0.0018149999999999998,4432017.0,73505635.0,17922695270.0,17977958390.0,0.004080205538193029,52.7,2013-09-30 00:00:00,2013-10-17 00:00:00,58.75890931102028,2.4603050434265428,-175.23892865967463,4.124695973342166
sh600893,2013-11-05,16.56,16.73,16.22,16.53,-0.003617,5173101.0,85305036.0,17955281990.0,18010645590.0,0.004762462632312021,52.8,2013-09-30 00:00:00,2013-10-17 00:00:00,58.86575064844722,2.4647786166157006,-175.5575656413136,4.13219590891685
sh600893,2013-11-04,17.0,17.18,16.52,16.59,-0.018924,6309281.0,105630764.0,18020455430.0,18076019990.0,0.005808453187911467,52.99,2013-09-30 00:00:00,2013-10-17 00:00:00,59.07944098649537,2.473726083861026,-176.1948624588272,4.147196317999053
sh600893,2013-11-01,16.9,16.98,16.68,16.91,0.0077469999999999995,2899008.0,48828958.0,18368047100.0,18424683420.0,0.002668886083159053,54.01,2013-09-30 00:00:00,2013-10-17 00:00:00,60.219025831327414,2.5214418494194395,-179.59348965709813,4.227191693608908
sh600893,2013-10-31,17.01,17.1,16.65,16.78,-0.016413,4528572.0,76344412.0,18226837980.0,18283038900.0,0.004169096046356583,53.59,2013-09-30 00:00:00,2013-10-17 00:00:00,59.756095360569084,2.502058402971618,-178.21287451820558,4.194695388434704
sh600893,2013-10-30,16.3,17.1,16.2,17.06,0.041513999999999995,7379759.0,123362650.0,18530980690.0,18588119410.0,0.006793957138379598,54.49,2013-09-30 00:00:00,2013-10-17 00:00:00,60.75323826013264,2.543809955775766,-181.18669168889542,4.264691774530066
sh600893,2013-10-29,16.76,16.97,15.98,16.38,-0.025580000000000002,8604085.0,141327537.0,17792348400.0,17847209610.0,0.007921096705817653,52.32,2013-09-30 00:00:00,2013-10-17 00:00:00,58.33165781749706,2.4424155179630476,-173.9647202907454,4.0947042233998445
sh600893,2013-10-28,16.44,17.18,16.38,16.81,0.020644,7390018.0,124703903.0,18259424700.0,18315726100.0,0.006803401784066066,53.69,2013-09-30 00:00:00,2013-10-17 00:00:00,59.86295213306076,2.5065326224451963,-178.53155753242484,4.202196407503791
sh600893,2013-10-25,16.9,17.0,16.2,16.47,-0.024867,7279034.0,120610414.0,17890108560.0,17945271200.0,0.006701227640845573,52.6,2013-09-30 00:00:00,2013-10-17 00:00:00,58.65213740840171,2.455834377554951,-174.9204987561038,4.117200911878962
sh600893,2013-10-24,17.3,17.3,16.88,16.89,-0.023699,7592445.0,129306116.0,18346322620.0,18402891960.0,0.00698976022095048,53.95,2013-09-30 00:00:00,2013-10-17 00:00:00,60.147833586189485,2.518460945896561,-179.38117031841176,4.222194215434163
sh600893,2013-10-23,17.7,17.85,17.09,17.3,-0.025901,11065139.0,193365299.0,18791674440.0,18849616980.0,0.010186793375502946,55.25,2013-09-30 00:00:00,2013-10-17 00:00:00,61.607878703585754,2.5795947621651116,-183.7355183682202,4.32468492343464
sh600893,2013-10-22,17.39,17.92,17.25,17.76,0.023631,19391359.0,340916958.0,19291337460.0,19350820670.0,0.017852081876338712,56.72,2013-09-30 00:00:00,2013-10-17 00:00:00,63.24601370454724,2.648185412535186,-188.6209906469673,4.439676997342817
sh600893,2013-10-21,17.13,17.38,16.92,17.35,0.019988,12428362.0,213291003.0,18845985640.0,18904095640.0,0.01144180436189699,55.41,2013-09-30 00:00:00,2013-10-17 00:00:00,61.78594992194182,2.587050814732248,-184.26658693119617,4.337184979101665
sh600893,2013-10-18,16.78,17.04,16.71,17.01,0.016736,5802530.0,98318931.0,18476669490.0,18533640740.0,0.00534192784870776,54.33,2013-09-30 00:00:00,2013-10-17 00:00:00,60.57517335688443,2.5363541676296664,-180.6556419597056,4.252192162164325
sh600893,2013-10-17,17.15,17.2,16.69,16.73,-0.011229000000000001,5986742.0,101205356.0,18172526780.0,18228560240.0,0.005511517185944134,53.43,2013-09-30 00:00:00,2013-10-17 00:00:00,59.57807469872653,2.4946044672655106,-177.6819567318415,4.182198881680519
sh600893,2013-10-16,17.13,17.28,16.7,16.92,-0.015707,11860815.0,200225739.0,18378909340.0,18435579150.0,0.0109193089800616,54.04,2013-06-30 00:00:00,2013-08-16 00:00:00,57.68704012547807,2.4782893778698005,111.69726023780935,4.323978353057066
sh600893,2013-10-15,17.52,17.54,17.13,17.19,-0.013203,8185952.0,141569637.0,18672189800.0,18729763930.0,0.007536154912050005,54.9,2013-06-30 00:00:00,2013-08-16 00:00:00,58.60758953429323,2.517837044325014,113.47968566047851,4.392978872202755
sh600893,2013-10-14,17.25,17.53,17.02,17.42,0.013380000000000001,12748336.0,220760775.0,18922021310.0,18980365770.0,0.011736378977791142,55.64,2013-06-30 00:00:00,2013-08-16 00:00:00,59.39173865981881,2.551524826610756,114.99800431140194,4.4517553987322165
sh600893,2013-10-11,17.25,17.38,17.04,17.19,-0.0005809999999999999,8136532.0,139921622.0,18672189800.0,18729763930.0,0.007490657848818567,54.9,2013-06-30 00:00:00,2013-08-16 00:00:00,58.60756938149442,2.5178361785418657,113.47964663936722,4.39297736163356
sh600893,2013-10-10,17.15,17.27,16.78,17.2,0.004086,9868566.0,168206670.0,18683052040.0,18740659660.0,0.00908520378986216,54.94,2013-06-30 00:00:00,2013-08-16 00:00:00,58.64164017443578,2.5192998917789895,113.5456166426366,4.395531165240564
sh600893,2013-10-09,16.7,17.2,16.61,17.13,0.025135,8931119.0,151689104.0,18607016370.0,18664389530.0,0.00822217089660141,54.71,2013-06-30 00:00:00,2013-08-16 00:00:00,58.403005493987344,2.509047921969821,113.0835572278038,4.377644111401379
sh600893,2013-10-08,16.33,16.87,15.98,16.71,0.022644,11580569.0,190000096.0,18150802300.0,18206768770.0,0.010661308783579225,53.37,2013-06-30 00:00:00,2013-08-16 00:00:00,56.97103844272935,2.4475292736759755,110.31089293390998,4.270309872749813
sh600893,2013-09-30,16.41,16.6,16.1,16.34,0.0,6736830.0,109564105.0,17748899440.0,17803626680.0,0.006202063546087678,52.19,2013-06-30 00:00:00,2013-08-16 00:00:00,55.709551361695105,2.393334604883004,107.86832263613725,4.175754096977845
sh600893,2013-09-27,16.33,16.5,16.23,16.34,0.006157999999999999,6307534.0,103200594.0,17748899440.0,17803626680.0,0.005806844864292048,52.19,2013-06-30 00:00:00,2013-08-16 00:00:00,55.709551361695105,2.393334604883004,107.86832263613725,4.175754096977845
sh600893,2013-09-26,16.7,16.83,16.2,16.24,-0.033333,10222141.0,168717373.0,17640277050.0,17694669350.0,0.009410712165657285,51.87,2013-06-30 00:00:00,2013-08-16 00:00:00,55.368591574777625,2.3786866524770502,107.20813494116953,4.150197182726615
sh600893,2013-09-25,17.15,17.38,16.77,16.8,-0.026087,12410972.0,211448508.0,18248562460.0,18304830360.0,0.011425794774631251,53.66,2013-06-30 00:00:00,2013-08-16 00:00:00,57.277833602241124,2.460709481628162,110.90492893744126,4.2933059499565145
sh600893,2013-09-24,17.37,17.37,17.13,17.25,-0.0034659999999999995,6541964.0,112679782.0,18737363240.0,18795138320.0,0.006022665919134949,55.1,2013-06-30 00:00:00,2013-08-16 00:00:00,58.81206391355402,2.526621455538803,113.87560176056925,4.408305413272557
sh600893,2013-09-23,17.3,17.45,17.19,17.31,0.006981,7018902.0,121529125.0,18802536680.0,18860512720.0,0.00646174480006386,55.29,2013-06-30 00:00:00,2013-08-16 00:00:00,59.01661550288702,2.5354091837697488,114.27166735963773,4.423637741685237
sh600893,2013-09-18,17.16,17.37,17.0,17.19,-0.0029,7386469.0,126996738.0,18672189800.0,18729763930.0,0.006800134503238607,54.9,2013-06-30 00:00:00,2013-08-16 00:00:00,58.60747670798856,2.517832197201088,113.47946719912069,4.3929704152166105
sh600893,2013-09-17,17.18,17.68,17.09,17.24,0.0,10029793.0,174209576.0,18726501000.0,18784242590.0,0.00923363266421207,55.06,2013-06-30 00:00:00,2013-08-16 00:00:00,58.777932712855836,2.5251551471277587,113.80951479201754,4.405747081753696
sh600893,2013-09-16,17.42,17.86,17.01,17.24,-0.008626,13562836.0,235842635.0,18726501000.0,18784242590.0,0.012486224342710898,55.06,2013-06-30 00:00:00,2013-08-16 00:00:00,58.777932712855836,2.5251551471277587,113.80951479201754,4.405747081753696
sh600893,2013-09-13,17.58,17.7,17.23,17.39,-0.018068999999999998,7769237.0,134991651.0,18889434590.0,18947678570.0,0.007152518556671103,55.54,2013-06-30 00:00:00,2013-08-16 00:00:00,59.289362755989,2.5471266617116837,114.7997776742355,4.44408173076326
sh600893,2013-09-12,17.2,17.8,17.08,17.71,0.029651,18117836.0,315459897.0,19237026260.0,19296342010.0,0.016679650545946702,56.56,2013-06-30 00:00:00,2013-08-16 00:00:00,60.38037576569943,2.5939976044260584,116.91226539770668,4.525859485812405
sh600893,2013-09-11,18.55,18.85,17.05,17.2,-0.047619,30793886.0,545790702.0,18683052040.0,18740659660.0,0.028349481555048964,54.94,2013-06-30 00:00:00,2013-08-16 00:00:00,58.641593865979274,2.5192979023242423,113.54552697730267,4.395527694153072
sh600893,2013-09-10,18.25,18.39,17.88,18.06,-0.023256,22117421.0,399700541.0,19617204650.0,19677692640.0,0.020361750330213327,57.68,2013-06-30 00:00:00,2013-08-16 00:00:00,61.573670480594714,2.645262665177321,119.22279736502792,4.615303848095533
sh600893,2013-09-09,18.38,19.08,18.01,18.49,0.009279,24211154.0,448724345.0,20084280950.0,20146209130.0,0.022289283772441947,59.06,2013-06-30 00:00:00,2013-08-16 00:00:00,63.039722261508345,2.708245625442614,122.06145864733023,4.7251929349917
sh600893,2013-09-06,18.01,18.43,17.93,18.32,0.025756,20736350.0,377570279.0,19899622870.0,19960981680.0,0.019090308116979905,58.51,2013-06-30 00:00:00,2013-08-16 00:00:00,62.46015448801407,2.683346850021267,120.93926322387588,4.681750967761838
sh600893,2013-09-05,18.29,18.29,17.78,17.86,-0.021906000000000002,16114176.0,289332753.0,19399959850.0,19459777990.0,0.014835040153961969,57.04,2013-06-30 00:00:00,2013-08-16 00:00:00,60.8918246522702,2.615969928541746,117.90256476576876,4.564195547246946
sh600893,2013-09-04,17.61,18.5,17.61,18.26,0.03809,34860898.0,633745746.0,19834449440.0,19895607290.0,0.0320936560102472,58.32,2013-06-30 00:00:00,2013-08-16 00:00:00,62.255595732383796,2.6745588139194654,120.54318374897376,4.666418102193599
sh600893,2013-09-03,17.18,17.6,16.88,17.59,0.022080000000000002,19626348.0,339248730.0,19106679390.0,19165593220.0,0.01806841755562634,56.18,2013-06-30 00:00:00,2013-08-16 00:00:00,59.97128932210483,2.5764228669185387,116.12016660306311,4.495196083377741
sh600893,2013-09-02,17.6,17.94,17.16,17.21,0.0005809999999999999,19624128.0,344078844.0,18693914280.0,18751555390.0,0.01806637378461329,54.97,2013-06-30 00:00:00,2013-08-16 00:00:00,58.675729220907186,2.520764389204894,113.61162198953417,4.398086337055553
sh600893,2013-08-30,17.1,17.44,16.69,17.2,0.002915,14909175.0,253733343.0,18683052040.0,18740659660.0,0.013725691576032241,54.94,2013-06-30 00:00:00,2013-08-16 00:00:00,58.641658417366685,2.519300675512421,113.54565196574205,4.395532532654081
sh600893,2013-08-29,17.55,17.79,16.95,17.15,-0.032713,18846652.0,325463271.0,18628740850.0,18686181000.0,0.017350613463496648,54.78,2013-06-30 00:00:00,2013-08-16 00:00:00,58.47121482614847,2.5119782588877633,113.21562840893003,4.382756796592015
sh600893,2013-08-28,16.8,18.25,16.8,17.73,0.05914,39771212.0,697488472.0,19258750740.0,19318133470.0,0.03661419155788918,56.63,2013-06-30 00:00:00,2013-08-16 00:00:00,60.44867224117398,2.5969316851025215,117.04450531117446,4.530978702899981
sh600893,2013-08-27,16.6,16.77,16.44,16.74,0.01087,10833127.0,180060347.0,18183389020.0,18239455970.0,0.009973198383455143,53.47,2013-06-30 00:00:00,2013-08-16 00:00:00,57.0733540808335,2.451924849502919,110.50900288080375,4.277979023452973
sh600893,2013-08-26,16.16,16.76,16.0,16.56,0.023486,15037563.0,249094937.0,17987868710.0,18043332790.0,0.013843888194578664,52.89,2013-06-30 00:00:00,2013-08-16 00:00:00,56.45963781775451,2.4255590229237387,109.32068701297275,4.231977428801898
sh600893,2013-08-23,15.73,16.2,15.59,16.18,0.033206,12819440.0,204117889.0,17575103610.0,17629294960.0,0.011801838771634985,51.68,2013-06-30 00:00:00,2013-08-16 00:00:00,55.164054826108526,2.3698995618149525,106.81209807752401,4.134865966707798
sh600893,2013-08-22,15.78,15.86,15.61,15.66,-0.008232999999999999,7715566.0,121197331.0,17010267149.999998,17062716879.999998,0.007103107934433589,50.02,2013-06-30 00:00:00,2013-08-16 00:00:00,53.39114835386992,2.2937338360549133,103.37928552246504,4.001976340350131
sh600893,2013-08-21,15.91,15.96,15.61,15.79,-0.003157,7977095.0,125334909.0,17151476270.0,17204361400.0,0.0073438768807508594,50.43,2013-06-30 00:00:00,2013-08-16 00:00:00,53.83436669486878,2.312774911904624,104.23747263466625,4.0351981265258186
sh600893,2013-08-20,16.18,16.3,15.7,15.84,-0.019802,10981547.0,176161358.0,17205787460.0,17258840060.0,0.010109836872296224,50.59,2013-06-30 00:00:00,2013-08-16 00:00:00,54.00486003800877,2.320099465918529,104.56759252426536,4.047977591783078
sh600893,2013-08-19,15.91,16.2,15.87,16.16,0.013802000000000002,8125628.0,130371301.0,17553379130.0,17607503490.0,0.007480619401399553,51.61,2013-06-30 00:00:00,2013-08-16 00:00:00,55.095868424551746,2.3669702100172914,106.68007129607014,4.1297550002989984
sh600893,2013-08-16,16.59,17.27,15.9,15.94,-0.038021,13704907.0,224442424.0,17314409860.0,17367797380.0,0.012617017810389293,50.91,2013-06-30 00:00:00,2013-08-16 00:00:00,54.345787860501105,2.3347460451027824,105.22771832771106,4.073532110115188
sh600893,2013-08-15,16.7,16.93,16.52,16.57,-0.006595,10021052.0,167725610.0,17998730950.0,18054228520.0,0.009225585520516933,52.92,2013-03-31 00:00:00,2013-04-25 00:00:00,61.91602045967137,2.549075797745556,66.43776889047473,4.25108283351788
sh600893,2013-08-14,16.68,16.79,16.45,16.68,0.0006,8213985.0,136734711.0,18118215590.0,18174081580.0,0.00756196266235068,53.27,2013-03-31 00:00:00,2013-04-25 00:00:00,62.32706746963361,2.5659985582371303,66.87883480602044,4.279304848997016
sh600893,2013-08-13,16.93,16.95,16.58,16.67,-0.010095,10097338.0,168525158.0,18107353350.0,18163185840.0,0.009295815970808348,53.24,2013-03-31 00:00:00,2013-04-25 00:00:00,62.289693653441546,2.564459882307746,66.8387315670802,4.276738805713587
sh600893,2013-08-12,16.49,16.86,16.38,16.84,0.031863,15148809.0,252371076.0,18292011420.0,18348413290.0,0.013946303536694382,53.79,2013-03-31 00:00:00,2013-04-25 00:00:00,62.924920728192646,2.590612111574086,67.52034949523458,4.320352766895397
sh600893,2013-08-09,16.16,16.42,15.9,16.32,0.011152,7717749.0,124767591.0,17727174960.0,17781835210.0,0.007105117649270384,52.12,2013-03-31 00:00:00,2013-04-25 00:00:00,60.981855855082166,2.5106163430359323,65.43538192108312,4.186944164967051
sh600893,2013-08-08,16.3,16.47,16.09,16.14,-0.013447,7161552.0,116670442.0,17531654650.0,17585712030.0,0.006593071309444257,51.55,2013-03-31 00:00:00,2013-04-25 00:00:00,60.30928668991622,2.4829267439869893,64.7136947967102,4.140766338757231
sh600893,2013-08-07,16.59,16.88,16.29,16.36,-0.012674,11372612.0,188338256.0,17770623920.0,17825418140.0,0.010469859311501314,52.25,2013-03-31 00:00:00,2013-04-25 00:00:00,61.131319543822,2.51676974677183,65.59576099480738,4.197206170126928
sh600893,2013-08-06,16.1,16.6,16.09,16.57,0.026642000000000002,12705342.0,208606051.0,17998730950.0,18054228520.0,0.011696797820070753,52.92,2013-03-31 00:00:00,2013-04-25 00:00:00,61.91604347887324,2.5490767454435823,66.43779359077689,4.251084413989835
sh600893,2013-08-05,15.76,16.2,15.75,16.14,0.015094,6513461.0,104563073.0,17531654650.0,17585712030.0,0.005996425473735875,51.55,2013-03-31 00:00:00,2013-04-25 00:00:00,60.30928354662409,2.4829266145779956,64.71369142386236,4.140766122942404
sh600893,2013-08-02,16.11,16.2,15.81,15.9,-0.011193999999999999,9758931.0,156683684.0,17270960900.0,17324214450.0,0.008984271564183785,50.78,2013-03-31 00:00:00,2013-04-25 00:00:00,59.41251110402002,2.4460065910920523,63.75142737900368,4.079194757276079
sh600893,2013-08-01,15.8,16.15,15.8,16.08,0.015793,8461828.0,135342813.0,17466481210.0,17520337630.0,0.007790132002208817,51.36,2013-03-31 00:00:00,2013-04-25 00:00:00,60.085103755458626,2.473697157068275,64.47313970485989,4.125374196026399
sh600893,2013-07-31,15.61,15.99,15.57,15.83,0.014744,8445494.0,133249732.0,17194925220.0,17247944330.0,0.007775094588053114,50.56,2013-03-31 00:00:00,2013-04-25 00:00:00,59.15093306949214,2.4352374519890128,63.4707462099659,4.061235109935193
sh600893,2013-07-30,15.61,15.9,15.28,15.6,0.005803,10590627.0,165361816.0,16945093710.0,16997342480.0,0.00974994792165124,49.83,2013-03-31 00:00:00,2013-04-25 00:00:00,58.291483437686885,2.3998540045459866,62.54853067371268,4.002226285580592
sh600893,2013-07-29,16.01,16.04,15.43,15.51,-0.039628,13144659.0,206755554.0,16847333559.999998,16899280890.0,0.012101242037140508,49.54,2013-03-31 00:00:00,2013-04-25 00:00:00,57.95516958856444,2.3860080001212824,62.187655707641234,3.9791353630687047
sh600893,2013-07-26,16.5,16.62,15.85,16.15,-0.022989,12780304.0,206300675.0,17542516890.0,17596607760.0,0.011765809370128529,51.58,2013-03-31 00:00:00,2013-04-25 00:00:00,60.3465840201135,2.4844622709963247,64.75371596385695,4.1433271306001265
sh600893,2013-07-25,16.95,17.1,16.5,16.53,-0.024203,10538777.0,177230754.0,17955281990.0,18010645590.0,0.009702213750083243,52.8,2013-03-31 00:00:00,2013-04-25 00:00:00,61.766534890716166,2.5429214932035817,66.27736633861538,4.240819326087553
sh600893,2013-07-24,16.82,17.15,16.69,16.94,0.007732999999999999,13616935.0,229910183.0,18400633810.0,18457370620.0,0.012536028991275273,54.11,2013-03-31 00:00:00,2013-04-25 00:00:00,63.29854968883503,2.605994375063237,67.9212647083516,4.346005702095367
sh600893,2013-07-23,16.3,16.85,16.28,16.81,0.030025,12622311.0,209903211.0,18259424700.0,18315726100.0,0.011620357782137571,53.69,2013-03-31 00:00:00,2013-04-25 00:00:00,62.81281816595769,2.585996861334537,67.40006004403112,4.312655933759603
sh600893,2013-07-22,16.15,16.42,15.91,16.32,0.010526,10666905.0,172727865.0,17727174960.0,17781835210.0,0.00982017100822928,52.12,2013-03-31 00:00:00,2013-04-25 00:00:00,60.981838466015574,2.5106156271299604,65.43536326208697,4.186942971053716
sh600893,2013-07-19,17.19,17.27,16.1,16.15,-0.052786,16121006.0,267787464.0,17542516890.0,17596607760.0,0.014841327988027377,51.58,2013-03-31 00:00:00,2013-04-25 00:00:00,60.3466298403164,2.4844641574090724,64.75376513032516,4.143330276562618
sh600893,2013-07-18,16.87,17.23,16.58,17.05,0.008876,14182393.0,240675887.0,18520118450.0,18577223670.0,0.013056601193066343,54.46,2013-03-31 00:00:00,2013-04-25 00:00:00,63.70960505262422,2.6229174794809538,68.36233958780714,4.374228291138663
sh600893,2013-07-17,17.4,17.57,16.83,16.9,-0.029851,17359252.0,299246595.0,18357184860.0,18413787690.0,0.01598128258975325,53.98,2013-03-31 00:00:00,2013-04-25 00:00:00,63.149093696969906,2.5998412882068296,67.76089389360747,4.335744225394065
sh600893,2013-07-16,16.63,17.49,16.55,17.42,0.053203999999999994,24923716.0,426504148.0,18922021310.0,18980365770.0,0.0229452829381683,55.64,2013-03-31 00:00:00,2013-04-25 00:00:00,65.09215975790306,2.6798371056475134,69.84586274232872,4.46915290887695
sh600893,2013-07-15,16.55,16.84,16.42,16.54,0.003032,12979438.0,215877605.0,17966144230.0,18021541320.0,0.011949136207062498,52.83,2013-03-31 00:00:00,2013-04-25 00:00:00,61.80394278592093,2.544461572162196,66.31750614537043,4.243387709196842
sh600893,2013-07-12,16.86,17.16,16.47,16.49,-0.024837,15198827.0,256152217.0,17911833030.0,17967062660.0,0.013992351135153474,52.67,2013-03-31 00:00:00,2013-04-25 00:00:00,61.61711967905404,2.5367700852636768,66.1170392822666,4.230560649308139
sh600893,2013-07-11,16.52,17.18,16.42,16.91,0.031098,19370906.0,326965442.0,18368047100.0,18424683420.0,0.017833252423443535,54.01,2013-03-31 00:00:00,2013-04-25 00:00:00,63.18648234095637,2.6013805745948897,67.80101304322108,4.338311286736822
sh600893,2013-07-10,15.92,16.47,15.89,16.4,0.025,13371076.0,216282127.0,17814072880.0,17869001070.0,0.012309686160888771,52.38,2013-03-31 00:00:00,2013-04-25 00:00:00,61.280772866358355,2.522922723732264,65.75612894528074,4.207467463555182
sh600893,2013-07-09,15.81,16.03,15.57,16.0,0.0133,11883813.0,188472026.0,17379583300.0,17433171780.0,0.010940481409585924,51.1,2013-03-31 00:00:00,2013-04-25 00:00:00,59.786119869617906,2.461388023153428,64.15232092222512,4.104846305907495
sh600893,2013-07-08,16.68,16.69,15.76,15.79,-0.071723,21245667.0,342660898.0,17151476270.0,17204361400.0,0.019559195759537962,50.43,2013-03-31 00:00:00,2013-04-25 00:00:00,59.00140123321612,2.429081242626495,63.31029401186726,4.050968425843772
sh600893,2013-07-05,17.81,18.28,16.95,17.01,-0.037351,24706059.0,436081404.0,18476669490.0,18533640740.0,0.02274490344796442,54.33,2013-03-31 00:00:00,2013-04-25 00:00:00,63.56012400739879,2.61676336118044,68.20194189004712,4.363965094302426
sh600893,2013-07-04,17.18,18.33,17.11,17.67,0.013188,29271765.0,522716355.0,19193577300.0,19252759080.0,0.026948185815783284,56.44,2013-03-31 00:00:00,2013-04-25 00:00:00,66.026271265434,2.71829437435705,70.84819273696552,4.533287931844758
sh600893,2013-07-03,17.68,17.7,16.8,17.44,-0.019122999999999998,19331916.0,334225798.0,18943745790.0,19002157240.0,0.017797357438040243,55.7,2013-03-31 00:00:00,2013-04-25 00:00:00,65.16685083660093,2.6829121291971973,69.92600853638764,4.474281112532678
sh600893,2013-07-02,17.44,18.0,17.15,17.78,0.021838999999999997,26164527.0,460632513.0,19313061940.0,19372612140.0,0.024087598926843187,56.79,2013-03-31 00:00:00,2013-04-25 00:00:00,66.4373319351977,2.7352176972211577,71.28927330989272,4.561510885190169
sh600893,2013-07-01,16.28,17.48,16.2,17.4,0.055825,25689867.0,436651453.0,18900296830.0,18958574310.0,0.02365061722684066,55.57,2013-03-31 00:00:00,2013-04-25 00:00:00,65.01741657462449,2.6767599369579336,69.7656610384735,4.46402112778057
sh600893,2013-06-28,16.25,16.98,16.01,16.48,-0.007229000000000001,22454656.0,371592593.0,17900970790.0,17956166930.0,0.020672215782102845,52.64,2013-03-31 00:00:00,2013-04-25 00:00:00,61.579728245328994,2.535230684022384,66.07691713917883,4.227993396425137
sh600893,2013-06-27,17.73,17.88,16.0,16.6,-0.066367,35768438.0,608275865.0,18031317670.0,18086915720.0,0.032929155908992425,53.02,2013-03-31 00:00:00,2013-04-25 00:00:00,62.028129594165215,2.5536913185642853,66.55806539391142,4.258780117897417
sh600893,2013-06-26,17.73,18.18,17.08,17.78,0.0056560000000000004,31299157.0,553045644.0,19313061940.0,19372612140.0,0.028814644368090295,56.79,2013-03-31 00:00:00,2013-04-25 00:00:00,66.43737913523324,2.7352196404414637,71.2893239569632,4.561514125890384
sh600893,2013-06-25,17.6,18.08,16.28,17.68,-0.022664,46895880.0,803260695.0,19204439540.0,19263654810.0,0.04317330670718443,56.47,2013-03-31 00:00:00,2013-04-25 00:00:00,66.06372271953155,2.7198362466305213,70.8883792837344,4.535859305657584
sh600893,2013-06-24,18.3,19.3,17.5,18.09,-0.011475,50480120.0,935219466.0,19649791360.0,19710379840.0,0.046473031396095196,57.78,2013-03-31 00:00:00,2013-04-25 00:00:00,67.59571193482238,2.7829080752479407,72.53225020231976,4.641043925177814
sh600893,2013-06-21,17.75,18.9,17.6,18.3,-0.028662,51048944.0,933904219.0,19877898390.0,19939190220.0,0.04699670241145648,58.45,2013-03-31 00:00:00,2013-04-25 00:00:00,68.38037675812183,2.8152126402953295,73.37421936958576,4.694918110495753
sh600893,2013-06-20,18.84,18.84,18.27,18.84,0.099825,81174167.0,1523705713.0,20464459330.0,20527559770.0,0.07473059911424497,60.17,2013-03-31 00:00:00,2013-04-25 00:00:00,70.39812789999138,2.898283234358513,75.53932757658586,4.8334545858349545
sh600893,2013-06-19,17.13,17.13,17.13,17.13,0.10019299999999999,809192.0,13861459.0,18607016370.0,18664389530.0,0.0007449587125826772,54.71,2013-03-31 00:00:00,2013-04-25 00:00:00,64.00848125837416,2.635222180218228,68.6830428264368,4.3947487880662415
sh600893,2013-06-18,15.57,15.57,15.57,15.57,0.099859,1910309.0,29743511.0,16912506989.999998,16964655280.000002,0.0017586695542882375,49.73,2013-03-31 00:00:00,2013-04-25 00:00:00,58.17932059045473,2.3952362723796896,62.428176534877785,3.9945253133461502
sh600893,2013-01-22,14.7,14.73,14.17,14.23,-0.033944,12466493.0,179101529.0,15456966890.0,15504627150.0,0.011476908545671342,45.21,2012-09-30 00:00:00,2012-10-26 00:00:00,57.40539355098896,2.2720712159387464,26.93457410187529,3.768526403738457
sh600893,2013-01-21,14.33,14.87,14.28,14.73,0.008214,15492455.0,226180871.0,16000078870.0,16049413770.0,0.014262671078320754,46.8,2012-09-30 00:00:00,2012-10-26 00:00:00,59.422428462727794,2.3519042539342925,27.880965598138506,3.900939907974752
sh600893,2013-01-18,14.31,14.77,14.22,14.61,0.022393,18213993.0,264166412.0,15869732000.0,15918664980.0,0.016768174644033056,46.42,2012-09-30 00:00:00,2012-10-26 00:00:00,58.938309191032644,2.3327431020936946,27.65381714411673,3.869158638914706
sh600893,2013-01-17,15.7,15.7,14.29,14.29,-0.10012599999999999,37744588.0,561483167.0,15522140330.0,15570001540.0,0.03474844003810137,45.4,2012-09-30 00:00:00,2012-10-26 00:00:00,57.6474107227188,2.281650111154609,27.04812840474918,3.784414250600998
sh600893,2013-01-16,15.2,16.0,14.74,15.88,0.054449000000000004,36629492.0,564713318.0,17249236420.0,17302422990.0,0.0337218598433472,50.46,2012-09-30 00:00:00,2012-10-26 00:00:00,64.06164721140827,2.5355217632186386,30.057684081048215,4.205493491978875
sh600893,2013-01-15,15.31,16.51,14.89,15.06,-0.008558,44064481.0,683937030.0,16358532780.0,16408972930.0,0.04056666284101795,47.85,2012-09-30 00:00:00,2012-10-26 00:00:00,60.753670600861945,2.40459402324687,28.505583561697357,3.988332761450649
sh600893,2013-01-14,14.25,15.43,14.18,15.19,0.074257,39696364.0,592905611.0,16499741890.0,16550617450.0,0.036545284961424326,48.26,2012-09-30 00:00:00,2012-10-26 00:00:00,61.278088482091675,2.4253501700017446,28.75164009765307,4.0227595375732
sh600893,2013-01-11,14.05,14.89,13.99,14.14,0.010722,25048243.0,361649276.0,15359206740.0,15406565560.0,0.023059925034904505,44.93,2012-09-30 00:00:00,2012-10-26 00:00:00,57.04229852083038,2.25770013134822,26.764210144921627,3.744690085866976
sh600893,2013-01-10,13.8,14.38,13.8,13.99,0.008652,15752388.0,221324509.0,15196273140.0,15243129570.0,0.014501970719381264,44.45,2012-09-30 00:00:00,2012-10-26 00:00:00,56.43717908666318,2.2337498652925536,26.480288491713477,3.7049654463511987
sh600893,2013-01-09,14.2,14.4,13.62,13.87,-0.0321,22592928.0,315232965.0,15065926270.0,15112380780.0,0.020799511808575973,44.07,2012-09-30 00:00:00,2012-10-26 00:00:00,55.953073098217395,2.2145892391950377,26.25314627018384,3.6731850493046148
sh600893,2013-01-08,13.96,14.65,13.71,14.33,0.029454,34011059.0,483096857.0,15565589290.0,15613584470.0,0.03131127684212462,45.53,2012-09-30 00:00:00,2012-10-26 00:00:00,57.80873344169584,2.2880351680907514,27.12382092177275,3.795004700180406
sh600893,2013-01-07,12.61,13.96,12.49,13.92,0.096927,38847151.0,532388756.0,15120237470.0,15166859450.0,0.03576348208769237,44.23,2012-09-30 00:00:00,2012-10-26 00:00:00,56.15475139413304,2.222571545781308,26.347773598211038,3.68642474571997
sh600893,2013-01-04,12.76,12.78,12.35,12.69,0.004751,12707698.0,158643097.0,13784182000.0,13826684360.0,0.011698966802672801,40.32,2012-09-30 00:00:00,2012-10-26 00:00:00,51.192788028859745,2.0261799971933483,24.019623546700043,3.36068375171727
