code,date,open,high,low,close,change,volume,money,traded_market_value,market_value,turnover,adjust_price,report_type,report_date,PE_TTM,PS_TTM,PC_TTM,PB
sh600686,2014-12-31,11.61,11.99,11.5,11.92,0.028473000000000002,5311160.0,62360120.0,5275757400.0,5275757400.0,0.011999988323951364,153.5,2014-09-30 00:00:00,2014-10-30 00:00:00,20.407322921992442,0.2502504015401879,-18.578233459257202,2.268332092225876
sh600686,2014-12-30,11.63,11.87,11.51,11.59,-0.008554,8439672.0,98743189.0,5129700350.0,5129700350.0,0.01906852092832284,149.25,2014-09-30 00:00:00,2014-10-30 00:00:00,19.842351643642996,0.24332228608839312,-18.063900033600497,2.2055339247854593
sh600686,2014-12-29,11.89,11.94,11.5,11.69,-0.016821,10057923.0,117391589.0,5173960060.0,5173960060.0,0.02272478304944627,150.53,2014-09-30 00:00:00,2014-10-30 00:00:00,20.01354752920784,0.24542162264852863,-18.21975179041571,2.224562835278431
sh600686,2014-12-26,11.79,12.03,11.75,11.89,0.001685,5583702.0,66324779.0,5262479480.0,5262479480.0,0.012615767345471911,153.11,2014-09-30 00:00:00,2014-10-30 00:00:00,20.355955049088557,0.24962048889218405,-18.531469641251196,2.2626224067829264
sh600686,2014-12-25,11.83,12.08,11.78,11.87,0.005932,5486365.0,65315507.0,5253627540.0,5253627540.0,0.012395844976478861,152.85,2014-09-30 00:00:00,2014-10-30 00:00:00,20.321712962746332,0.24920058590493424,-18.500296641410422,2.2588163013152105
sh600686,2014-12-24,11.79,12.04,11.79,11.8,0.002549,4766391.0,56707129.0,5222645740.0,5222645740.0,0.010769142040256401,151.95,2014-09-30 00:00:00,2014-10-30 00:00:00,20.201875437650187,0.24773104534395388,-18.391200042756786,2.245496018930912
sh600686,2014-12-23,11.75,12.0,11.6,11.77,0.002555,5479665.0,64643980.0,5209367830.0,5209367830.0,0.012380707055965369,151.57,2014-09-30 00:00:00,2014-10-30 00:00:00,20.150511783115032,0.24710118442485496,-18.344440065031026,2.239786802371667
sh600686,2014-12-22,12.37,12.47,11.51,11.74,-0.05093,7786278.0,92394961.0,5196089920.0,5196089920.0,0.017592248234226095,151.18,2014-09-30 00:00:00,2014-10-30 00:00:00,20.099158433317903,0.246471449870436,-18.297689468439163,2.2340787312134167
sh600686,2014-12-19,12.55,12.65,12.23,12.37,-0.025983999999999997,6945480.0,86050884.0,5474926090.0,5474926090.0,0.015692556609471962,159.29,2014-09-30 00:00:00,2014-10-30 00:00:00,21.177740770773394,0.25969786198113526,-19.27959946941655,2.3539662313774716
sh600686,2014-12-18,12.83,12.94,12.5,12.7,-0.015503999999999999,5390298.0,68749983.0,5620983130.0,5620983130.0,0.012178792039890004,163.54,2014-09-30 00:00:00,2014-10-30 00:00:00,21.742703169941144,0.26662586854952613,-19.793924811724395,2.4167634118715418
sh600686,2014-12-17,13.06,13.2,12.71,12.9,-0.011493999999999999,9160969.0,118835023.0,5709502550.0,5709502550.0,0.02069821303433869,166.12,2014-09-30 00:00:00,2014-10-30 00:00:00,22.085110726647077,0.27082473524476086,-20.105642696084487,2.454822987469265
sh600686,2014-12-16,13.23,13.33,12.93,13.05,-0.018797,7411518.0,96878012.0,5775892120.0,5775892120.0,0.016745518768449576,168.05,2014-09-30 00:00:00,2014-10-30 00:00:00,22.34190862437565,0.27397378998686994,-20.339424035953737,2.48336680553205
sh600686,2014-12-15,13.21,13.36,12.93,13.3,0.001506,8075913.0,106204088.0,5886541390.0,5886541390.0,0.01824664701796992,171.27,2014-09-30 00:00:00,2014-10-30 00:00:00,22.769914711202116,0.2792223321645673,-20.72906833341698,2.5309409016605637
sh600686,2014-12-12,12.63,13.42,12.63,13.28,0.05480499999999999,16502828.0,217606858.0,5877689450.0,5877689450.0,0.03728634486464745,171.01,2014-09-30 00:00:00,2014-10-30 00:00:00,22.73567478497594,0.27880245566633377,-20.697897300083053,2.527135036295902
sh600686,2014-12-11,12.37,12.6,12.24,12.59,0.016963,7338895.0,91679938.0,5572297450.0,5572297450.0,0.016581435014744232,162.12,2014-09-30 00:00:00,2014-10-30 00:00:00,21.554386625941234,0.26431658521369716,-19.622486905241303,2.39583149140922
sh600686,2014-12-10,12.2,12.42,12.05,12.38,0.006504,9624593.0,117779585.0,5479352060.0,5479352060.0,0.021745721033300424,159.42,2014-09-30 00:00:00,2014-10-30 00:00:00,21.194858245522436,0.25990776971600454,-19.295182720749235,2.3558688874710487
sh600686,2014-12-09,12.11,12.68,11.95,12.3,0.01318,11590181.0,142448475.0,5443944290.0,5443944290.0,0.02618675333652248,158.39,2014-09-30 00:00:00,2014-10-30 00:00:00,21.0578976790181,0.25822825315746833,-19.17049780303827,2.340645330243147
sh600686,2014-12-08,12.19,12.44,11.89,12.14,-0.007359,8474405.0,102914632.0,5373128760.0,5373128760.0,0.019146996339614985,156.33,2014-09-30 00:00:00,2014-10-30 00:00:00,20.78396502005379,0.2548690787001997,-18.92111747472144,2.310196934644532
sh600686,2014-12-05,12.77,12.87,11.86,12.23,-0.041536000000000003,12921159.0,159037288.0,5412962500.0,5412962500.0,0.02919395332408085,157.49,2014-09-30 00:00:00,2014-10-30 00:00:00,20.938048116140468,0.2567585649798867,-19.06139024553836,2.327323709825135
sh600686,2014-12-04,12.71,12.87,12.69,12.76,0.0,9875158.0,126073868.0,5647538960.0,5647538960.0,0.022311845384772697,164.31,2014-09-30 00:00:00,2014-10-30 00:00:00,21.84541945878037,0.2678854552491139,-19.887434734677942,2.428180620059945
sh600686,2014-12-03,12.67,12.79,12.58,12.76,0.009493999999999999,7028961.0,89163618.0,5647538960.0,5647538960.0,0.015881172842763355,164.31,2014-09-30 00:00:00,2014-10-30 00:00:00,21.84541945878037,0.2678854552491139,-19.887434734677942,2.428180620059945
sh600686,2014-12-02,12.55,12.8,12.51,12.64,0.007170999999999999,7350500.0,92962478.0,5594427310.0,5594427310.0,0.016607655234687463,162.77,2014-09-30 00:00:00,2014-10-30 00:00:00,21.63996958751649,0.2653660697825979,-19.700399145193476,2.4053442814518413
sh600686,2014-12-01,12.79,12.83,12.4,12.55,-0.017997,9708977.0,122155776.0,5554593570.0,5554593570.0,0.02193637748909143,161.61,2014-09-30 00:00:00,2014-10-30 00:00:00,21.485894239922008,0.2634766785209243,-19.56013342837857,2.3882183675382245
sh600686,2014-11-28,13.31,13.31,12.63,12.78,-0.03982,11626404.0,150063824.0,5656390900.0,5656390900.0,0.02626859524860631,164.57,2014-09-30 00:00:00,2014-10-30 00:00:00,21.879662526409806,0.26830537026966755,-19.918608627854063,2.4319868346005302
sh600686,2014-11-27,13.48,13.61,13.06,13.31,-0.011144,6116140.0,81084425.0,5890967360.0,5890967360.0,0.013818753088457106,171.4,2014-09-30 00:00:00,2014-10-30 00:00:00,22.787042561196653,0.2794323671287337,-20.74466103007151,2.532844710992241
sh600686,2014-11-26,12.88,13.69,12.88,13.46,0.03858,9437194.0,125977252.0,5957356930.0,5957356930.0,0.02132231335683961,173.33,2014-09-30 00:00:00,2014-10-30 00:00:00,23.04384314925192,0.28258145486171266,-20.97844481913596,2.5613888280925043
sh600686,2014-11-25,12.86,13.09,12.79,12.96,0.0,6817000.0,88151255.0,5736058380.0,5736058380.0,0.015402270016645124,166.89,2014-09-30 00:00:00,2014-10-30 00:00:00,22.187836420162064,0.27208443727176784,-20.199161180781413,2.466241241014177
sh600686,2014-11-24,12.66,13.04,12.45,12.96,0.030206999999999998,6003966.0,76464986.0,5736058380.0,5736058380.0,0.013565308127146363,166.89,2014-09-30 00:00:00,2014-10-30 00:00:00,22.187836420162064,0.27208443727176784,-20.199161180781413,2.466241241014177
sh600686,2014-11-21,12.48,12.6,12.23,12.58,0.0031899999999999997,3585238.0,44577595.0,5567871480.0,5567871480.0,0.008100455300020683,162.0,2014-09-30 00:00:00,2014-10-30 00:00:00,21.537260395398267,0.26410657010850036,-19.6068956828884,2.3939278620841993
sh600686,2014-11-20,12.79,12.79,12.38,12.54,-0.020313,4021467.0,50280461.0,5550167600.0,5550167600.0,0.009086067271193756,161.48,2014-09-30 00:00:00,2014-10-30 00:00:00,21.468775003138255,0.26326674917862053,-19.544548572940716,2.3863155155894686
sh600686,2014-11-19,12.85,12.97,12.8,12.8,-0.010819,2780631.0,35809419.0,5665242840.0,5665242840.0,0.006282533300902596,164.83,2014-09-30 00:00:00,2014-10-30 00:00:00,21.91391230376463,0.2687253675700714,-19.949788629369092,2.4357937949462114
sh600686,2014-11-18,12.9,13.03,12.75,12.94,0.003101,2624256.0,33863870.0,5727206440.0,5727206440.0,0.005929220990329798,166.63,2014-09-30 00:00:00,2014-10-30 00:00:00,22.15359201578339,0.2716645058589595,-20.16798607066765,2.4624348778901046
sh600686,2014-11-17,12.88,13.1,12.88,12.9,0.001553,3139562.0,40710206.0,5709502550.0,5709502550.0,0.0070934988548170454,166.12,2014-09-30 00:00:00,2014-10-30 00:00:00,22.085106101761824,0.27082467853083536,-20.105638485723418,2.4548224734000903
sh600686,2014-11-14,13.01,13.01,12.76,12.88,-0.013027,2488366.0,32064911.0,5700650610.0,5700650610.0,0.005622192320255179,165.86,2014-09-30 00:00:00,2014-10-30 00:00:00,22.050861114451084,0.2704047399696625,-20.07446284492525,2.4510160454814582
sh600686,2014-11-13,12.91,13.18,12.64,13.05,0.010844,4753744.0,61451251.0,5775892120.0,5775892120.0,0.010740567502150647,168.05,2014-09-30 00:00:00,2014-10-30 00:00:00,22.341909165145434,0.2739737966182079,-20.339424528254828,2.4833668656401526
sh600686,2014-11-12,12.59,12.97,12.49,12.91,0.025417,8092250.0,103255635.0,5713928520.0,5713928520.0,0.018283558699470744,166.25,2014-09-30 00:00:00,2014-10-30 00:00:00,22.102232555315588,0.27103469637076333,-20.12122991109887,2.456726127513397
sh600686,2014-11-11,12.8,13.03,12.41,12.59,-0.016406,7363136.0,93899571.0,5572297450.0,5572297450.0,0.01663620491759642,162.12,2014-09-30 00:00:00,2014-10-30 00:00:00,21.554384757923447,0.26431656230661604,-19.62248520465222,2.39583128377372
sh600686,2014-11-10,12.83,12.97,12.63,12.8,0.003135,4876695.0,62372914.0,5665242840.0,5665242840.0,0.011018361924270133,164.83,2014-09-30 00:00:00,2014-10-30 00:00:00,21.91390427140004,0.2687252690709948,-19.949781316937905,2.4357929021259994
sh600686,2014-11-07,13.38,13.5,12.6,12.76,-0.046338,7697592.0,101046163.0,5647538960.0,5647538960.0,0.01739187186058828,164.31,2014-09-30 00:00:00,2014-10-30 00:00:00,21.845418883201198,0.2678854481909162,-19.887434210687395,2.4281805560826797
sh600686,2014-11-06,13.2,13.39,13.06,13.38,0.016717,3450532.0,45602125.0,5921949160.0,5921949160.0,0.007796101741609684,172.3,2014-09-30 00:00:00,2014-10-30 00:00:00,22.906877786051243,0.28090187948237033,-20.85375553465211,2.546164737698136
sh600686,2014-11-05,13.05,13.21,12.88,13.16,0.0,4615404.0,60163282.0,5824577800.0,5824577800.0,0.010428003320687038,169.46,2014-09-30 00:00:00,2014-10-30 00:00:00,22.530239767852056,0.2762832523527887,-20.510875233375764,2.5043003487677846
sh600686,2014-11-04,13.56,13.58,13.1,13.16,-0.030927999999999997,5928563.0,78691428.0,5824577800.0,5824577800.0,0.013394943248933854,169.46,2014-09-30 00:00:00,2014-10-30 00:00:00,22.530239767852056,0.2762832523527887,-20.510875233375764,2.5043003487677846
sh600686,2014-11-03,13.95,13.95,13.39,13.58,0.006672,7837784.0,106053246.0,6010468580.0,6010468580.0,0.017708620435047676,174.87,2014-09-30 00:00:00,2014-10-30 00:00:00,23.24929393053566,0.2851008514875971,-21.16548123707605,2.5842252678519086
sh600686,2014-10-31,13.44,13.74,13.2,13.49,0.0029739999999999996,7333650.0,98459178.0,5970634840.0,5970634840.0,0.016569584499995984,173.71,2014-09-30 00:00:00,2014-10-30 00:00:00,23.0952027378686,0.2832112659213697,-21.025201095367755,2.567097592713325
sh600686,2014-10-30,13.57,13.86,13.36,13.45,-0.011756,9718651.0,132288557.0,5952930950.0,5952930950.0,0.021958234867481538,173.2,2014-09-30 00:00:00,2014-10-30 00:00:00,23.026721268815145,0.28237149310088766,-20.962857556993256,2.559485682294182
sh600686,2014-10-29,12.85,14.05,12.85,13.61,0.061622,16373863.0,220046573.0,6023746490.0,6023746490.0,0.03699496248720786,175.26,2014-06-30 00:00:00,2014-08-20 00:00:00,24.506087735480037,0.29912715138361173,-7.450690276680661,2.6580070568749723
sh600686,2014-10-28,12.58,12.83,12.48,12.82,0.020701,5689428.0,71976799.0,5674094780.0,5674094780.0,0.01285464374283857,165.09,2014-06-30 00:00:00,2014-08-20 00:00:00,23.083628387015374,0.2817642733323271,-7.0182138997502514,2.503722659171506
sh600686,2014-10-27,12.64,12.74,12.42,12.56,0.0,5123224.0,64359277.0,5559019540.0,5559019540.0,0.01157536737854316,161.74,2014-06-30 00:00:00,2014-08-20 00:00:00,22.61546563294772,0.27604976710351714,-6.875876382750923,2.452944260044328
sh600686,2014-10-24,12.22,12.62,12.06,12.56,0.030352999999999998,7420191.0,92367434.0,5559019540.0,5559019540.0,0.016765114475564516,161.74,2014-06-30 00:00:00,2014-08-20 00:00:00,22.61546563294772,0.27604976710351714,-6.875876382750923,2.452944260044328
sh600686,2014-10-23,12.22,12.41,12.01,12.19,0.0,5285318.0,64616492.0,5395258610.0,5395258610.0,0.01194160114968057,156.97,2014-06-30 00:00:00,2014-08-20 00:00:00,21.949240340880962,0.26791766229973335,-6.673321068362904,2.3806833774874514
sh600686,2014-10-22,12.13,12.54,12.03,12.19,0.0032920000000000002,8054467.0,99224835.0,5395258610.0,5395258610.0,0.018198192121507962,156.97,2014-06-30 00:00:00,2014-08-20 00:00:00,21.949240340880962,0.26791766229973335,-6.673321068362904,2.3806833774874514
sh600686,2014-10-21,12.28,12.49,11.91,12.15,-0.014599,6083334.0,74020892.0,5377554730.0,5377554730.0,0.013744631493504113,156.46,2014-06-30 00:00:00,2014-08-20 00:00:00,21.87722053089326,0.26703857132293823,-6.651424578649988,2.3728718832477993
sh600686,2014-10-20,11.83,12.39,11.75,12.33,0.033529,5534488.0,66901119.0,5457222210.0,5457222210.0,0.012504573648284702,158.78,2014-06-30 00:00:00,2014-08-20 00:00:00,22.201337862345646,0.27099482476975184,-6.749967352022161,2.4080266645231734
sh600686,2014-10-17,12.18,12.29,11.65,11.93,-0.023732,7506809.0,89244183.0,5280183370.0,5280183370.0,0.016960818421349635,153.63,2014-06-30 00:00:00,2014-08-20 00:00:00,21.481098123367264,0.26220340674499876,-6.5309897951795834,2.3299072058192594
sh600686,2014-10-16,12.39,12.41,12.12,12.22,-0.019262,3433829.0,42106517.0,5408536530.0,5408536530.0,0.0077583631260044385,157.36,2014-06-30 00:00:00,2014-08-20 00:00:00,22.0032799634601,0.26857728282090443,-6.689750965082931,2.386544684266266
sh600686,2014-10-15,12.36,12.55,12.13,12.46,0.002414,4667017.0,57502217.0,5514759830.0,5514759830.0,0.010544617283904456,160.45,2014-06-30 00:00:00,2014-08-20 00:00:00,22.435431240005077,0.27385222436665496,-6.821139759123162,2.433417165712215
sh600686,2014-10-14,12.3,12.62,12.27,12.43,0.008929000000000001,5221857.0,64881582.0,5501481920.0,5501481920.0,0.011798217908166823,160.06,2014-06-30 00:00:00,2014-08-20 00:00:00,22.38140253428731,0.2731927370992973,-6.804713181503015,2.4275570430103883
sh600686,2014-10-13,12.28,12.45,12.05,12.32,0.001626,5039125.0,61593283.0,5452796240.0,5452796240.0,0.011385354828516388,158.65,2014-06-30 00:00:00,2014-08-20 00:00:00,22.183327602127903,0.27077498723824694,-6.7444916158649555,2.406073215271231
sh600686,2014-10-10,12.56,12.64,12.2,12.3,-0.031495999999999996,6381329.0,79329992.0,5443944290.0,5443944290.0,0.014417918795418093,158.39,2014-06-30 00:00:00,2014-08-20 00:00:00,22.147316066204258,0.27033542184233134,-6.733542875149962,2.4021672912556498
sh600686,2014-10-09,12.75,12.83,12.25,12.7,0.001577,9544005.0,120031421.0,5620983130.0,5620983130.0,0.021563641216621122,163.54,2014-06-30 00:00:00,2014-08-20 00:00:00,22.867552499735943,0.2791267995200137,-6.952519427023494,2.4802863914404583
sh600686,2014-10-08,12.69,12.77,12.54,12.68,0.00158,4984789.0,62960359.0,5612131190.0,5612131190.0,0.011262588556843768,163.28,2014-06-30 00:00:00,2014-08-20 00:00:00,22.83154714988058,0.27868730963272287,-6.9415725670852,2.4763811383852246
sh600686,2014-09-30,12.51,12.68,12.36,12.66,0.00556,5755584.0,72185656.0,5603279250.0,5603279250.0,0.013004116016527286,163.03,2014-06-30 00:00:00,2014-08-20 00:00:00,22.795530212145394,0.27824767830100733,-6.930622184034426,2.4724746284722388
sh600686,2014-09-29,12.64,12.9,12.41,12.59,-0.0023769999999999998,6895657.0,87104303.0,5572297450.0,5572297450.0,0.015579986963904807,162.12,2014-06-30 00:00:00,2014-08-20 00:00:00,22.669487859645763,0.27670917528641487,-6.892300990527096,2.4588036800113757
sh600686,2014-09-26,12.32,12.79,12.1,12.62,0.027687,9747968.0,121481322.0,5585575360.0,5585575360.0,0.022024473439384407,162.51,2014-06-30 00:00:00,2014-08-20 00:00:00,22.723501623003646,0.27736848016376414,-6.908723025157897,2.4646621820180328
sh600686,2014-09-25,12.23,13.0,12.01,12.28,0.0016309999999999999,12111840.0,150834447.0,5435092350.0,5435092350.0,0.02736538509782635,158.13,2014-06-30 00:00:00,2014-08-20 00:00:00,22.11130589664328,0.2698958731245643,-6.722594549856033,2.398261515440044
sh600686,2014-09-24,11.5,12.3,11.3,12.26,0.06980800000000001,18383245.0,217994018.0,5426240410.0,5426240410.0,0.04153494255150409,157.88,2014-06-30 00:00:00,2014-08-20 00:00:00,22.075301080580854,0.2694563897528774,-6.7116478522090794,2.3943563202816645
sh600686,2014-09-23,10.97,11.5,10.9,11.46,0.044667,11559468.0,129874607.0,5072162730.0,5072162730.0,0.02611736064706268,147.57,2014-06-30 00:00:00,2014-08-20 00:00:00,20.63482520282224,0.25187359764824846,-6.273693833107511,2.2381177933626075
sh600686,2014-09-22,10.88,11.22,10.75,10.97,0.015740999999999998,14801602.0,162735859.0,4855290150.0,4855290150.0,0.033442609797480385,141.26,2014-06-30 00:00:00,2014-08-20 00:00:00,19.75253856283604,0.24110419650304685,-6.005448466456307,2.1424222200592222
sh600686,2014-09-19,10.72,10.82,10.64,10.8,0.002786,5269333.0,56537711.0,4780048650.0,4780048650.0,0.011905484769490788,139.07,2014-06-30 00:00:00,2014-08-20 00:00:00,19.446432272435633,0.23736779011878703,-5.9123816666417,2.1092209727275186
sh600686,2014-09-18,10.81,10.86,10.62,10.77,0.0,6381059.0,68409550.0,4766770730.0,4766770730.0,0.014417308765760587,138.69,2014-06-30 00:00:00,2014-08-20 00:00:00,19.392405032016434,0.23670832073721315,-5.89595553452252,2.1033610089565657
sh600686,2014-09-17,10.94,10.95,10.63,10.77,-0.015538999999999999,5901701.0,63494125.0,4766770730.0,4766770730.0,0.013334251502798834,138.69,2014-06-30 00:00:00,2014-08-20 00:00:00,19.392405032016434,0.23670832073721315,-5.89595553452252,2.1033610089565657
sh600686,2014-09-16,11.38,11.42,10.93,10.94,-0.041192,8107477.0,90434932.0,4842012240.0,4842012240.0,0.0183179624469516,140.88,2014-06-30 00:00:00,2014-08-20 00:00:00,19.698500023887622,0.24044458920893072,-5.989018899197144,2.1365610308143905
sh600686,2014-09-15,11.19,11.42,11.14,11.41,0.01875,6618060.0,74771479.0,5050032880.0,5050032880.0,0.014952786723242089,146.93,2014-06-30 00:00:00,2014-08-20 00:00:00,20.544780627495417,0.25077449208697755,-6.2463171971835285,2.228351276600102
sh600686,2014-09-12,11.29,11.32,11.11,11.2,-0.010601000000000001,9507147.0,106359654.0,4957087490.0,4957087490.0,0.021480364551725917,144.23,2014-06-30 00:00:00,2014-08-20 00:00:00,20.166655830670347,0.24615901063752393,-6.131354303983832,2.1873386764172777
sh600686,2014-09-11,11.65,11.67,11.2,11.32,-0.027491,9664565.0,110095535.0,5010199140.0,5010199140.0,0.021836033407646147,145.77,2014-06-30 00:00:00,2014-08-20 00:00:00,20.382733185166295,0.24879650235903203,-6.197049222794678,2.210775103287226
sh600686,2014-09-10,11.75,11.78,11.55,11.64,-0.016061000000000002,7250124.0,84339308.0,5151830210.0,5151830210.0,0.016380866589157255,149.89,2014-06-30 00:00:00,2014-08-20 00:00:00,20.95891470944361,0.25582951145853877,-6.372228146777745,2.273269556669631
sh600686,2014-09-09,11.27,11.85,11.25,11.83,0.051556,14212595.0,164021869.0,5235923660.0,5235923660.0,0.03211181250301117,152.34,2014-06-30 00:00:00,2014-08-20 00:00:00,21.301030561288464,0.26000545913775014,-6.4762430869980205,2.3103765138587153
sh600686,2014-09-05,11.3,11.38,11.23,11.25,-0.004425,5704427.0,64339654.0,4979217340.0,4979217340.0,0.012888532347133897,144.87,2014-06-30 00:00:00,2014-08-20 00:00:00,20.25667730609541,0.24725783423588488,-6.158723916746251,2.1971026876920634
sh600686,2014-09-04,11.41,11.5,11.22,11.3,-0.015679,6739544.0,76250504.0,5001347200.0,5001347200.0,0.015227266605285873,145.51,2014-06-30 00:00:00,2014-08-20 00:00:00,20.346711504502835,0.24835681313400285,-6.186097397731212,2.2068680789413793
sh600686,2014-09-03,11.46,11.59,11.38,11.48,0.0034969999999999997,8054251.0,92422714.0,5081014670.0,5081014670.0,0.018197704097555775,147.83,2014-06-30 00:00:00,2014-08-20 00:00:00,20.67080912070639,0.25231282593178733,-6.284634176992274,2.2420207218390944
sh600686,2014-09-02,11.53,11.53,11.18,11.44,-0.0078060000000000004,10245214.0,116061025.0,5063310790.0,5063310790.0,0.02314794667384026,147.32,2014-06-30 00:00:00,2014-08-20 00:00:00,20.598775203818633,0.25143356276280576,-6.262733398298423,2.2342076975208633
sh600686,2014-09-01,11.34,11.6,11.25,11.53,0.021258000000000003,5016798.0,57464182.0,5103144530.0,5103144530.0,0.011334909407317923,148.47,2014-06-30 00:00:00,2014-08-20 00:00:00,20.760834276178482,0.2534116944496799,-6.312004908615072,2.251785132263311
sh600686,2014-08-29,11.1,11.32,10.88,11.29,0.022645,5701132.0,62978680.0,4996921230.0,4996921230.0,0.012881087637236978,145.38,2014-06-30 00:00:00,2014-08-20 00:00:00,20.328687046934743,0.2481368023062536,-6.180617345093083,2.204913089800335
sh600686,2014-08-28,11.22,11.22,11.01,11.04,-0.016043,4107826.0,45566714.0,4886271950.0,4886271950.0,0.00928118604614301,142.16,2014-06-30 00:00:00,2014-08-20 00:00:00,19.878537563802436,0.24264217035848568,-6.043756479612263,2.156088466476964
sh600686,2014-08-27,11.22,11.33,11.17,11.22,-0.0008900000000000001,2667471.0,29993101.0,4965939430.0,4965939430.0,0.006026860585369645,144.48,2014-06-30 00:00:00,2014-08-20 00:00:00,20.20264865619375,0.24659834764983193,-6.142297356096113,2.191242571044227
sh600686,2014-08-26,11.38,11.64,11.14,11.23,-0.012313,6876206.0,77858714.0,4970365400.0,4970365400.0,0.015536039539467259,144.61,2014-06-30 00:00:00,2014-08-20 00:00:00,20.220645030270692,0.24681801568379053,-6.1477688703907605,2.193194514161831
sh600686,2014-08-25,11.7,11.72,11.28,11.37,-0.029035000000000002,10446440.0,119247621.0,5032328990.0,5032328990.0,0.023602594948785333,146.41,2014-06-30 00:00:00,2014-08-20 00:00:00,20.472725701837415,0.24989497247993597,-6.224410031103741,2.220535973604827
sh600686,2014-08-22,11.91,11.99,11.61,11.71,-0.016793000000000002,6046943.0,70758508.0,5182812010.0,5182812010.0,0.013662409980021637,150.79,2014-06-30 00:00:00,2014-08-20 00:00:00,21.08492654404373,0.2573676419643715,-6.410540061798049,2.286937195063496
sh600686,2014-08-21,12.18,12.27,11.88,11.91,-0.03013,3941922.0,47124137.0,5271331430.0,5271331430.0,0.008906343993627431,153.37,2014-06-30 00:00:00,2014-08-20 00:00:00,21.445053324522437,0.2617634353339343,-6.520030941396928,2.325997674003029
sh600686,2014-08-20,12.15,12.5,12.15,12.28,0.012366,6601677.0,81236139.0,5435092350.0,5435092350.0,0.014915771129445482,158.13,2014-06-30 00:00:00,2014-08-20 00:00:00,22.111265761929367,0.2698953832306745,-6.722582347527944,2.398257162303225
sh600686,2014-08-19,11.96,12.2,11.79,12.13,0.009992000000000001,6844607.0,81916247.0,5368702790.0,5368702790.0,0.015464645028338402,156.2,2014-03-31 00:00:00,2014-04-30 00:00:00,23.77940006816066,0.2725530807855943,63.02028714471941,2.3987524985270747
sh600686,2014-08-18,11.86,12.05,11.58,12.01,0.013502000000000002,7244681.0,85296613.0,5315591130.0,5315591130.0,0.016368568740914427,154.66,2014-03-31 00:00:00,2014-04-30 00:00:00,23.544146951818092,0.2698566729098788,62.39681813788566,2.3750212858389714
sh600686,2014-08-15,11.99,11.99,11.65,11.85,-0.0125,3793304.0,44844895.0,5244775600.0,5244775600.0,0.008570557794693828,152.6,2014-03-31 00:00:00,2014-04-30 00:00:00,23.23048889081432,0.2662616086696216,61.56555994747486,2.343380956168781
sh600686,2014-08-14,11.95,12.16,11.89,12.0,0.008403,7114577.0,85324519.0,5311165160.0,5311165160.0,0.016074612900947707,154.53,2014-03-31 00:00:00,2014-04-30 00:00:00,23.524545712217037,0.26963200877936366,62.34487083288594,2.3730440062468667
sh600686,2014-08-13,12.28,12.34,11.82,11.9,-0.033306,6171501.0,74277334.0,5266905450.0,5266905450.0,0.013943835255292083,153.24,2014-03-31 00:00:00,2014-04-30 00:00:00,23.328516190666864,0.26738517118588867,61.8253523966965,2.353269482783041
sh600686,2014-08-12,12.27,12.35,12.1,12.31,0.0032600000000000003,3737983.0,45724689.0,5448370260.0,5448370260.0,0.008445566019589866,158.52,2014-03-31 00:00:00,2014-04-30 00:00:00,24.132265422839975,0.2765975284690799,63.95545270447164,2.4343478730425985
sh600686,2014-08-11,11.79,12.42,11.63,12.27,0.035443,6819036.0,82533160.0,5430666380.0,5430666380.0,0.015406870145464543,158.0,2014-03-31 00:00:00,2014-04-30 00:00:00,24.053849872256418,0.2756987505423119,63.74763541302517,2.4264376861856327
sh600686,2014-08-08,11.62,12.09,11.6,11.85,0.012821,5462908.0,65087675.0,5244775600.0,5244775600.0,0.012342846431790141,152.6,2014-03-31 00:00:00,2014-04-30 00:00:00,23.230491559898923,0.2662616392619506,61.56556702109646,2.3433812254133093
sh600686,2014-08-07,11.55,11.88,11.44,11.7,0.010362999999999999,6525294.0,76371387.0,5178386030.0,5178386030.0,0.014743192059785469,150.66,2014-03-31 00:00:00,2014-04-30 00:00:00,22.93642367200021,0.2628911123110112,60.78622680720133,2.313717058999872
sh600686,2014-08-06,11.41,11.8,11.38,11.58,0.007833,6340574.0,73708032.0,5125274380.0,5125274380.0,0.014325837306684838,149.12,2014-03-31 00:00:00,2014-04-30 00:00:00,22.701171432445776,0.2601947144848052,60.162760124035955,2.289985934757975
sh600686,2014-08-05,11.75,11.8,11.38,11.49,-0.022128000000000002,7330057.0,84869493.0,5085440640.0,5085440640.0,0.016561466526133713,147.96,2014-03-31 00:00:00,2014-04-30 00:00:00,22.524735181766992,0.2581724496864115,59.6951678740783,2.2721878870388004
sh600686,2014-08-04,11.51,11.8,11.3,11.75,0.016436000000000003,9183263.0,105928964.0,5200515890.0,5200515890.0,0.02074858389674106,151.31,2014-03-31 00:00:00,2014-04-30 00:00:00,23.03444129882745,0.26401456395766676,61.04599362092206,2.323604609845461
sh600686,2014-08-01,12.01,12.01,11.55,11.56,-0.039069,6994936.0,82070204.0,5116422440.0,5116422440.0,0.01580429706660422,148.86,2014-03-31 00:00:00,2014-04-30 00:00:00,22.661969173491936,0.25974538874820136,60.05886609773962,2.286031397791362
sh600686,2014-07-31,12.01,12.17,11.81,12.03,0.0,4915002.0,58882501.0,5324443080.0,5324443080.0,0.01110491241461445,154.91,2014-03-31 00:00:00,2014-04-30 00:00:00,23.583346955704346,0.2703059727995052,62.5007061877904,2.378975595325119
sh600686,2014-07-30,12.0,12.39,11.92,12.03,-0.004963,4659051.0,56299331.0,5324443080.0,5324443080.0,0.010526618969884827,154.91,2014-03-31 00:00:00,2014-04-30 00:00:00,23.583346955704346,0.2703059727995052,62.5007061877904,2.378975595325119
sh600686,2014-07-29,12.04,12.59,11.78,12.09,0.0041530000000000004,8339723.0,100776632.0,5350998900.0,5350998900.0,0.018842697028025927,155.69,2014-03-31 00:00:00,2014-04-30 00:00:00,23.700974894103787,0.27165419255716644,62.81244434909496,2.3908413409000056
sh600686,2014-07-28,12.1,12.35,11.75,12.04,-0.0016579999999999998,9184880.0,110777266.0,5328869050.0,5328869050.0,0.020752237325103718,155.04,2014-03-31 00:00:00,2014-04-30 00:00:00,23.60295183513248,0.2705306786487382,62.55266313907836,2.380953242085624
sh600686,2014-07-25,11.16,12.1,11.02,12.06,0.08648600000000001,13606984.0,159634091.0,5337720990.0,5337720990.0,0.030743500334212862,155.3,2014-03-31 00:00:00,2014-04-30 00:00:00,23.642150520695793,0.270979963428102,62.65654769515694,2.384907418585639
sh600686,2014-07-24,11.11,11.45,10.87,11.1,-0.007156,8129083.0,90173991.0,4912827780.0,4912827780.0,0.01836677883709573,142.94,2014-03-31 00:00:00,2014-04-30 00:00:00,21.760198033564897,0.24940953075152553,57.668987630910046,2.1950650248467434
sh600686,2014-07-23,11.25,11.45,11.1,11.18,-0.012367,10069424.0,113378170.0,4948235540.0,4948235540.0,0.022750768311243324,143.97,2014-03-31 00:00:00,2014-04-30 00:00:00,21.9170363456544,0.25120716925471226,58.084641324226205,2.2108861259641426
sh600686,2014-07-22,11.19,11.59,11.11,11.32,0.020738999999999997,9994054.0,113296858.0,5010199140.0,5010199140.0,0.02258047796479403,145.77,2014-03-31 00:00:00,2014-04-30 00:00:00,22.191478358514143,0.2543527497103805,58.811968944158615,2.238570527679961
sh600686,2014-07-21,10.65,11.33,10.65,11.09,0.048204000000000004,10336785.0,114377604.0,4908401810.0,4908401810.0,0.02335484136943548,142.81,2014-03-31 00:00:00,2014-04-30 00:00:00,21.740600053994353,0.24918490398660237,57.61704896565979,2.1930880741109733
sh600686,2014-07-18,10.45,10.65,10.34,10.58,0.01633,3320812.0,35003901.0,4682677290.0,4682677290.0,0.007503013507898598,136.24,2014-03-31 00:00:00,2014-04-30 00:00:00,20.74081004651228,0.23772558012238304,54.96740039692636,2.0922340251620617
sh600686,2014-07-17,10.53,10.67,10.38,10.41,-0.007626000000000001,4105607.0,42941172.0,4607435780.0,4607435780.0,0.009276172454865991,134.05,2014-03-31 00:00:00,2014-04-30 00:00:00,20.407554678610566,0.23390589682719493,54.08420532398567,2.058616812612106
sh600686,2014-07-16,10.47,10.8,10.32,10.49,-0.012241,6513421.0,68831712.0,4642843550.0,4642843550.0,0.01471636628591545,135.08,2014-03-31 00:00:00,2014-04-30 00:00:00,20.564378630043276,0.23570337073240022,54.49982095861608,2.0744364650949194
sh600686,2014-07-15,11.17,11.25,10.38,10.62,-0.056838,15393524.0,164897423.0,4700381170.0,4700381170.0,0.03477999314681111,136.76,2014-03-31 00:00:00,2014-04-30 00:00:00,20.81922678511993,0.23862437166596326,55.17522083688033,2.100144331861233
sh600686,2014-07-14,10.88,11.45,10.88,11.26,0.039705000000000004,8382466.0,94092490.0,4983643310.0,4983643310.0,0.018939270186252556,145.0,2014-03-31 00:00:00,2014-04-30 00:00:00,22.073860890408998,0.2530046499604132,58.5002585312813,2.2267058382984395
sh600686,2014-07-11,10.8,11.48,10.61,10.83,0.007442,9759696.0,107413874.0,4793326560.0,4793326560.0,0.022050971565767886,139.46,2014-03-31 00:00:00,2014-04-30 00:00:00,21.230888463947938,0.24334272698545564,56.26620871428076,2.1416707992155843
sh600686,2014-07-10,10.13,10.82,10.0,10.75,0.061203999999999995,12168696.0,128977665.0,4757918790.0,4757918790.0,0.027493845055728664,138.43,2014-03-31 00:00:00,2014-04-30 00:00:00,21.074055344077316,0.2415451479940837,55.850568781409514,2.125850221864469
sh600686,2014-07-09,10.02,10.79,10.02,10.13,-0.010742,11179475.0,116363780.0,4483508590.0,4483508590.0,0.025258807801235864,130.45,2014-03-31 00:00:00,2014-04-30 00:00:00,19.858627883118906,0.22761424570024583,52.629436735452856,2.0032436947697794
sh600686,2014-07-08,9.68,10.38,9.5,10.24,0.057851,13068222.0,131003048.0,4532194270.0,4532194270.0,0.029526226218012496,131.86,2014-03-31 00:00:00,2014-04-30 00:00:00,20.074265644673993,0.2300858276609801,53.20092102914796,2.024996203993073
sh600686,2014-07-07,9.72,9.85,9.62,9.68,-0.008197,4660361.0,45531330.0,4284339900.0000005,4284339900.0000005,0.010529578775950992,124.65,2014-03-31 00:00:00,2014-04-30 00:00:00,18.97645854158477,0.21750305823880686,50.291507054536,1.9142546577855224
sh600686,2014-07-04,9.85,9.92,9.63,9.76,-0.014140999999999999,11823687.0,115214529.0,4319747670.0,4319747670.0,0.026714334710203107,125.68,2014-03-31 00:00:00,2014-04-30 00:00:00,19.13329415376317,0.21930066579633947,50.707153592534006,1.9300754865487628
sh600686,2014-07-03,9.88,10.03,9.59,9.9,0.004057,11004439.0,108424495.0,4381711260.0,4381711260.0,0.024863332984656778,127.48,2014-03-31 00:00:00,2014-04-30 00:00:00,19.40773899083253,0.22244627862233793,51.43448869720112,1.9577601731573813
sh600686,2014-07-02,9.35,9.93,9.31,9.86,0.061355999999999994,14847073.0,144866189.0,4364007380.0,4364007380.0,0.033545346520472655,126.97,2014-03-31 00:00:00,2014-04-30 00:00:00,19.329319939836612,0.221547460574786,51.22666212894399,1.9498496331955069
sh600686,2014-07-01,8.95,9.39,8.93,9.29,0.037989,7723672.0,71176887.0,4111727030.0,4111727030.0,0.017450796795720168,119.63,2014-03-31 00:00:00,2014-04-30 00:00:00,18.211909990461837,0.20874000860671257,48.26529659128887,1.8371306453211806
sh600686,2014-06-30,9.05,9.05,8.86,8.95,-0.008859,4334243.0,38645637.0,3961244020.0,3961244020.0,0.009792750624335432,115.25,2014-03-31 00:00:00,2014-04-30 00:00:00,17.54537860272299,0.20110040530941325,46.49885171354308,1.7698941369524923
sh600686,2014-06-27,8.81,9.08,8.76,9.03,0.034753,7667723.0,68628955.0,3996651790.0,3996651790.0,0.01732438609319027,116.28,2014-03-31 00:00:00,2014-04-30 00:00:00,17.7022024139078,0.20289787760713482,46.91446697648778,1.7857137752877663
sh600686,2014-06-26,8.73,9.1,8.73,8.92,0.006772,6872929.0,61374176.0,3947966110.0,3947966110.0,0.015528635497836125,112.38,2014-03-31 00:00:00,2014-04-30 00:00:00,17.107659909087285,0.19608339150225687,45.33880740281765,1.7257391621843727
sh600686,2014-06-25,8.42,9.08,8.28,8.86,0.068758,13331542.0,115969521.0,3921410280.0,3921410280.0,0.030121169091238267,111.62,2014-03-31 00:00:00,2014-04-30 00:00:00,16.992586115910342,0.19476444666941162,45.03383825018739,1.7141310666013483
sh600686,2014-06-24,8.35,8.35,8.2,8.29,-0.0036060000000000003,2176918.0,18021209.0,3669129930.0,3669129930.0,0.004918509446189058,104.44,2014-03-31 00:00:00,2014-04-30 00:00:00,15.899376768090008,0.18223437548014762,42.136609270000676,1.6038533200231935
sh600686,2014-06-23,8.22,8.37,8.16,8.32,0.015872999999999998,3182263.0,26362340.0,3682407850.0,3682407850.0,0.0071899771123940005,104.82,2014-03-31 00:00:00,2014-04-30 00:00:00,15.956917412278685,0.1828938908505547,42.289103778224955,1.6096577458547456
sh600686,2014-06-20,8.1,8.23,8.09,8.19,0.007379999999999999,1743800.0,14217023.0,3624870220.0,3624870220.0,0.003939926434111067,103.18,2014-03-31 00:00:00,2014-04-30 00:00:00,15.707590823142935,0.18003617661908003,41.62833718213295,1.584506868333685
sh600686,2014-06-19,8.2,8.29,8.02,8.13,-0.006111999999999999,2181719.0,17859555.0,3598314400.0,3598314400.0,0.004929356776050476,102.42,2014-03-31 00:00:00,2014-04-30 00:00:00,15.592518040007679,0.17871724336306066,41.32337070632031,1.5728988746388504
sh600686,2014-06-18,8.32,8.42,8.14,8.18,-0.015643999999999998,2996382.0,24645595.0,3620444250.0,3620444250.0,0.006769999223161633,103.05,2014-03-31 00:00:00,2014-04-30 00:00:00,15.688405574881356,0.179816280469289,41.57749233949934,1.5825715519644574
sh600686,2014-06-17,8.49,8.49,8.28,8.31,-0.021200999999999998,1878166.0,15695133.0,3677981880.0,3677981880.0,0.004243511786958559,104.69,2014-03-31 00:00:00,2014-04-30 00:00:00,15.937735509187078,0.18267403304220117,42.23826780097784,1.6077227669303151
sh600686,2014-06-16,8.57,8.61,8.42,8.49,-0.011641,3585173.0,30500925.0,3757649350.0,3757649350.0,0.008100308446821948,106.96,2014-03-31 00:00:00,2014-04-30 00:00:00,16.28295033933124,0.18663079247343037,43.15315790165073,1.642546393008488
sh600686,2014-06-13,8.35,8.63,8.34,8.59,0.02506,5575947.0,47645759.0,3801909060.0,3801909060.0,0.012598245769192596,108.22,2014-03-31 00:00:00,2014-04-30 00:00:00,16.474732702723646,0.1888289502836827,43.66142049766404,1.6618924834078388
sh600686,2014-06-12,8.25,8.47,8.16,8.38,0.020706,3566378.0,29794325.0,3708963670.0,3708963670.0,0.008057843187231867,105.57,2014-03-31 00:00:00,2014-04-30 00:00:00,16.071969155682247,0.18421258295483453,42.59401449443353,1.6212636171617647
sh600686,2014-06-11,8.07,8.48,8.06,8.21,0.017348,6620159.0,54562148.0,3633722170.0,3633722170.0,0.014957529180058366,103.43,2014-03-31 00:00:00,2014-04-30 00:00:00,15.745933849396641,0.1804756540618303,41.72995406555221,1.5883747300023365
sh600686,2014-06-10,8.08,8.11,8.0,8.07,0.002484,1715494.0,13814125.0,3571758570.0,3571758570.0,0.0038759721041279676,101.67,2014-03-31 00:00:00,2014-04-30 00:00:00,15.477431369990056,0.17739815093933473,41.0183674274213,1.5612894801015351
sh600686,2014-06-09,8.09,8.13,8.03,8.05,-0.004944,1785755.0,14429041.0,3562906630.0,3562906630.0,0.004034719189371517,101.42,2014-03-31 00:00:00,2014-04-30 00:00:00,15.439080693547284,0.1769585858121773,40.91673026943204,1.557420846718287
sh600686,2014-06-06,8.16,8.16,8.02,8.09,-0.0073620000000000005,1077244.0,8702904.0,3580610510.0,3580610510.0,0.0024339156508815588,101.92,2014-03-31 00:00:00,2014-04-30 00:00:00,15.51579076307995,0.1778378159743545,41.12002768631317,1.5651589927785843
sh600686,2014-06-05,8.1,8.18,8.0,8.15,0.008662999999999999,2271150.0,18390326.0,3607166340.0,3607166340.0,0.0051314163959514,102.68,2014-03-31 00:00:00,2014-04-30 00:00:00,15.63086519262808,0.17915676810111492,41.42499852545759,1.5767671525556994
sh600686,2014-06-04,8.3,8.3,8.0,8.08,-0.027676999999999997,3245022.0,26307553.0,3576184540.0,3576184540.0,0.007331774260172826,101.79,2014-03-31 00:00:00,2014-04-30 00:00:00,15.496617990972286,0.17761806282288028,41.06921590804618,1.563224934944277
sh600686,2014-06-03,8.4,8.5,8.28,8.31,-0.009535,2033156.0,17074008.0,3677981880.0,3677981880.0,0.004593694833537353,104.69,2014-03-31 00:00:00,2014-04-30 00:00:00,15.937726445813052,0.18267392916024847,42.23824378117784,1.6077218526603576
sh600686,2014-05-30,8.42,8.46,8.35,8.39,-0.002378,1507020.0,12647116.0,3713389640.0,3713389640.0,0.0034049477770396325,105.7,2014-03-31 00:00:00,2014-04-30 00:00:00,16.091155614598247,0.1844324929808206,42.64486254554966,1.6231990556560378
sh600686,2014-05-29,8.42,8.65,8.4,8.41,-0.009423,2861405.0,24351665.0,3722241590.0,3722241590.0,0.006465033359105528,105.95,2014-03-31 00:00:00,2014-04-30 00:00:00,16.129511593166797,0.18487211887951607,42.74651375525966,1.627068223892454
sh600686,2014-05-28,8.28,8.76,8.19,8.49,0.025362,6807833.0,57749689.0,3757649350.0,3757649350.0,0.015381558199409959,106.96,2014-03-31 00:00:00,2014-04-30 00:00:00,16.28294579135877,0.1866307403457945,43.15314584859093,1.64254593423071
sh600686,2014-05-27,8.13,8.35,8.13,8.28,0.008526,4412301.0,36492713.0,3664703960.0,3664703960.0,0.009969114198244814,104.31,2014-03-31 00:00:00,2014-04-30 00:00:00,15.880192352904405,0.1820144888788491,42.08576663518926,1.6019180876906984
sh600686,2014-05-26,8.16,8.37,8.13,8.21,0.023691,5496931.0,45337671.0,3633722170.0,3633722170.0,0.012419717688543042,103.43,2014-03-31 00:00:00,2014-04-30 00:00:00,15.745942447596201,0.18047575261207852,41.72997685254446,1.5883755973477118
sh600686,2014-05-23,7.95,8.08,7.93,8.02,0.005013,1981911.0,15873853.0,3549628720.0,3549628720.0,0.004477912332194562,101.04,2014-03-31 00:00:00,2014-04-30 00:00:00,15.38153842086743,0.1762990517764428,40.764231445372154,1.5516162566123095
sh600686,2014-05-22,7.94,8.06,7.91,7.98,0.005038,3151965.0,25230690.0,3531924830.0,3531924830.0,0.007121522090831135,100.53,2014-03-31 00:00:00,2014-04-30 00:00:00,15.30481538136067,0.17541967295591482,40.56089965539964,1.5438768022028668
sh600686,2014-05-21,7.82,7.96,7.77,7.94,0.007614,2579390.0,20386527.0,3514220950.0,3514220950.0,0.005827851148630822,100.03,2014-03-31 00:00:00,2014-04-30 00:00:00,15.228096232541128,0.17454033872939612,40.3575781765462,1.5361377402673995
sh600686,2014-05-20,8.04,8.12,7.77,7.88,-0.01623,5156064.0,40687190.0,3487665120.0,3487665120.0,0.011649565804643538,99.27,2014-03-31 00:00:00,2014-04-30 00:00:00,15.113025655202415,0.1732214307556228,40.052617546546784,1.5245299690828027
sh600686,2014-05-19,8.19,8.22,7.91,8.01,-0.021978,3265690.0,26191413.0,3545202750.0,3545202750.0,0.007378471344128343,100.91,2014-03-31 00:00:00,2014-04-30 00:00:00,15.362356704516722,0.17607919610846315,40.71339596302671,1.5496812965254103
sh600686,2014-05-16,8.24,8.24,8.07,8.19,-0.00122,2235456.0,18177753.0,3624870220.0,3624870220.0,0.005050769690728403,103.18,2014-03-31 00:00:00,2014-04-30 00:00:00,15.70757785051535,0.18003602793031565,41.62830280200927,1.5845055597168678
sh600686,2014-05-15,8.42,8.46,8.18,8.2,-0.026128,2110341.0,17566213.0,3629296200.0,3629296200.0,0.004768085944597191,103.31,2014-03-31 00:00:00,2014-04-30 00:00:00,15.726764503209266,0.18025594017733199,41.67915136667662,1.5864410177585333
sh600686,2014-05-14,8.41,8.57,8.35,8.42,0.0,2623876.0,22217244.0,3726667560.0,3726667560.0,0.0059283624214658956,106.08,2014-03-31 00:00:00,2014-04-30 00:00:00,16.148697676090148,0.18509202459597565,42.79736080991816,1.6290036244583819
sh600686,2014-05-13,8.42,8.44,8.34,8.42,0.002381,1804793.0,15123352.0,3726667560.0,3726667560.0,0.004077733475105034,106.08,2014-03-31 00:00:00,2014-04-30 00:00:00,16.148697676090148,0.18509202459597565,42.79736080991816,1.6290036244583819
sh600686,2014-05-12,8.29,8.44,8.08,8.4,0.020656,5198129.0,43057086.0,3717815610.0,3717815610.0,0.011744607097391795,105.82,2014-03-31 00:00:00,2014-04-30 00:00:00,16.110338959028702,0.18465236730941192,42.69570234264033,1.6251341799758592
sh600686,2014-05-09,8.52,8.56,8.16,8.23,-0.037426999999999995,6280084.0,51949414.0,3642574110.0,3642574110.0,0.014189166715402806,103.68,2014-03-31 00:00:00,2014-04-30 00:00:00,15.784298489431016,0.1809153792359149,41.83162822992305,1.5922447719661272
sh600686,2014-05-08,8.66,8.84,8.49,8.55,-0.014977,5075373.0,44117558.0,3784205180.0,3784205180.0,0.011467253250258488,107.71,2014-03-31 00:00:00,2014-04-30 00:00:00,16.398027463299943,0.18794977548291392,43.45813588156228,1.6541548245859037
sh600686,2014-05-07,8.96,8.96,8.64,8.68,-0.03125,3226886.0,28167386.0,3841742800.0,3841742800.0,0.007290797936811386,109.35,2014-03-31 00:00:00,2014-04-30 00:00:00,16.647354897601318,0.19080749940144945,44.11890471751653,1.679305787363243
sh600686,2014-05-06,8.96,9.07,8.9,8.96,0.001117,2741303.0,24593749.0,3965669990.0,3965669990.0,0.00619367595940579,112.88,2014-03-31 00:00:00,2014-04-30 00:00:00,17.184366345911037,0.19696258002730263,45.54209519227512,1.7334769417943154
sh600686,2014-05-05,8.9,8.99,8.8,8.95,0.005618,1599596.0,14286591.0,3961244020.0,3961244020.0,0.0036141131744769407,112.75,2014-03-31 00:00:00,2014-04-30 00:00:00,17.165192825524926,0.19674281829926235,45.491281430916786,1.7315428084772464
sh600686,2014-04-30,9.05,9.08,8.84,8.9,-0.011111,3688898.0,32852831.0,3939114160.0,3939114160.0,0.008334663801670578,112.12,2014-03-31 00:00:00,2014-04-30 00:00:00,17.06929751210194,0.1956436920373963,45.23713918298677,1.7218693464886732
sh600686,2014-04-29,8.6,9.06,8.6,9.0,0.046512,4789280.0,42338135.0,3983373870.0,3983373870.0,0.010820857244815938,113.38,2013-12-31 00:00:00,2014-03-25 00:00:00,17.34784323169322,0.19139530578969258,5.6721196848023565,1.7513193307851176
sh600686,2014-04-28,8.93,8.93,8.54,8.6,-0.039106,4717822.0,41028860.0,3806335030.0,3806335030.0,0.01065940566981567,108.34,2013-12-31 00:00:00,2014-03-25 00:00:00,16.576822082970114,0.1828887827274724,5.420023549469434,1.6734823210676202
sh600686,2014-04-25,9.11,9.27,8.82,8.95,-0.027174,5770187.0,52273170.0,3961244020.0,3961244020.0,0.013037109905185794,112.75,2013-12-31 00:00:00,2014-03-25 00:00:00,17.251457583219494,0.19033190209062847,5.64060505057731,1.7415888964522832
sh600686,2014-04-24,9.32,9.4,9.19,9.2,-0.012875999999999999,2446924.0,22730015.0,4071893290.0,4071893290.0,0.005528558632733717,115.9,2013-12-31 00:00:00,2014-03-25 00:00:00,17.733343458356885,0.1956484531567089,5.798164369144441,1.7902367910112222
sh600686,2014-04-23,9.34,9.42,9.22,9.32,-0.011665,4882181.0,45498924.0,4125004940.0,4125004940.0,0.011030756952257128,117.42,2013-12-31 00:00:00,2014-03-25 00:00:00,17.96465637382627,0.19820048257028386,5.873795358176319,1.813588557274691
sh600686,2014-04-22,9.31,9.49,9.18,9.43,0.007479,5360262.0,50111545.0,4173690620.0,4173690620.0,0.012110928974414495,118.8,2013-12-31 00:00:00,2014-03-25 00:00:00,18.176687432729057,0.2005397790934085,5.943121874846403,1.8349937594790138
sh600686,2014-04-21,9.6,9.78,9.35,9.36,-0.033058,8425590.0,80127961.0,4142708830.0,4142708830.0,0.019036704155720254,117.92,2013-12-31 00:00:00,2014-03-25 00:00:00,18.041753160839143,0.19905107609529182,5.89900322969154,1.821371720382275
sh600686,2014-04-18,9.63,9.86,9.52,9.68,0.003109,7934990.0,77208543.0,4284339900.0000005,4284339900.0000005,0.017928246822806936,121.95,2013-12-31 00:00:00,2014-03-25 00:00:00,18.658568105262926,0.2058562727601985,6.100679492349635,1.883641128818766
sh600686,2014-04-17,9.75,10.0,9.43,9.65,0.030983,17886724.0,172955670.0,4271061990.0,4271061990.0,0.04041310732649891,121.57,2013-12-31 00:00:00,2014-03-25 00:00:00,18.600738409547642,0.20521824922336304,6.081771265485242,1.8778030391699865
sh600686,2014-04-16,9.06,9.38,9.02,9.36,0.028571,7370795.0,68106936.0,4142708830.0,4142708830.0,0.01665350958300393,117.92,2013-12-31 00:00:00,2014-03-25 00:00:00,18.041750843173595,0.19905105052494856,5.899002471898413,1.821371486406649
sh600686,2014-04-15,8.86,9.17,8.85,9.1,0.023622,8350132.0,75925937.0,4027633580.0,4027633580.0,0.018866215034387512,114.64,2013-12-31 00:00:00,2014-03-25 00:00:00,17.540598406112554,0.19352193531117307,5.735143681766658,1.7707785718308695
sh600686,2014-04-14,8.82,9.01,8.82,8.89,0.003386,6459705.0,57539858.0,3934688190.0,3934688190.0,0.014595000843001998,112.0,2013-12-31 00:00:00,2014-03-25 00:00:00,17.135816156855316,0.1890560532219638,5.602794470777941,1.729914530784674
sh600686,2014-04-11,9.14,9.2,8.78,8.86,-0.040087,10822479.0,96512594.0,3921410280.0,3921410280.0,0.024452214150874313,111.62,2013-12-31 00:00:00,2014-03-25 00:00:00,17.07799008243619,0.18841806963816904,5.583887427946915,1.7240768067171302
sh600686,2014-04-10,9.17,9.37,9.15,9.23,0.006543000000000001,6748168.0,62622319.0,4085171210.0,4085171210.0,0.015246751589635335,116.28,2013-12-31 00:00:00,2014-03-25 00:00:00,17.791185328708114,0.19628661101388253,5.817076576676131,1.796076109727788
sh600686,2014-04-09,8.97,9.29,8.87,9.17,0.022297,8102682.0,73373949.0,4058615380.0,4058615380.0,0.01830712865923255,115.53,2013-12-31 00:00:00,2014-03-25 00:00:00,17.67553430773262,0.1950106562897785,5.77926285978456,1.7844007754539926
sh600686,2014-04-08,8.9,9.05,8.73,8.97,0.002235,7161871.0,63758101.0,3970095960.0,3970095960.0,0.016181468538105565,113.01,2013-12-31 00:00:00,2014-03-25 00:00:00,17.290018759453094,0.1907573398824202,5.653213165826135,1.7454817684625823
sh600686,2014-04-04,8.84,9.08,8.7,8.95,0.018203,6101449.0,54674431.0,3961244020.0,3961244020.0,0.013785560362928611,112.75,2013-12-31 00:00:00,2014-03-25 00:00:00,17.251461742458698,0.19033194797868783,5.640606410498671,1.7415893163405611
sh600686,2014-04-03,8.63,8.96,8.56,8.79,0.019722,8880982.0,78100433.0,3890428480.0,3890428480.0,0.020065612870487724,110.74,2013-12-31 00:00:00,2014-03-25 00:00:00,16.943047449731242,0.18692927439684212,5.53976604910678,1.7104539235698197
sh600686,2014-04-02,8.56,8.65,8.51,8.62,0.0070090000000000005,8387838.0,72156078.0,3815186980.0,3815186980.0,0.01895140760833693,108.6,2013-12-31 00:00:00,2014-03-25 00:00:00,16.615359332966477,0.18331395654584495,5.4326238417007575,1.6773727776490257
sh600686,2014-04-01,8.5,8.63,8.43,8.56,-0.004651,8395224.0,71728113.0,3788631150.0,3788631150.0,0.018968095492748086,107.84,2013-12-31 00:00:00,2014-03-25 00:00:00,16.499712845631446,0.1820380518404949,5.394811607146269,1.6656979010604926
sh600686,2014-03-31,8.9,9.0,8.4,8.6,-0.040179,12601384.0,108039349.0,3806335030.0,3806335030.0,0.02847145654438096,108.34,2013-12-31 00:00:00,2014-03-25 00:00:00,16.576811596366145,0.18288866703085543,5.420020120727774,1.6734812624119706
sh600686,2014-03-28,9.57,9.68,8.94,8.96,-0.06374099999999999,13714064.0,126800014.0,3965669990.0,3965669990.0,0.03098543594143092,112.88,2013-12-31 00:00:00,2014-03-25 00:00:00,17.270732351517776,0.19054455677762355,5.646907205330758,1.7435347449284508
sh600686,2014-03-27,9.88,10.08,9.53,9.57,-0.051536,13186183.0,129149049.0,4235654219.9999995,4235654219.9999995,0.02979274623366211,120.56,2013-12-31 00:00:00,2014-03-25 00:00:00,18.44653279863561,0.20351692937277352,6.031351586826678,1.8622354977932933
sh600686,2014-03-26,9.67,10.43,9.62,10.09,0.048857,25153538.0,253303060.0,4465804710.0,4465804710.0,0.056831683179446514,127.12,2013-12-31 00:00:00,2014-03-25 00:00:00,19.448848663350017,0.21457528105734483,6.359072760617881,1.9634224364797115
sh600686,2014-03-25,9.77,9.97,9.52,9.62,-0.022358000000000003,15719869.0,153570727.0,4257784070.0000005,4257784070.0000005,0.03551733420337588,121.19,2013-12-31 00:00:00,2014-03-25 00:00:00,18.54289828198698,0.2045801105940513,6.062859627783274,1.8719638963936092
sh600686,2014-03-24,9.87,10.18,9.53,9.84,-0.01992,25446014.0,247930108.0,4355155430.0,4355155430.0,0.057492500964540776,123.97,2013-09-30 00:00:00,2013-10-25 00:00:00,24.92624555251257,0.21421705554254467,-32.41058879096478,2.034215475709914
sh600686,2014-03-21,10.56,10.56,9.74,10.04,0.045833,46722373.0,465582308.0,4443674850.0,4443674850.0,0.10556411995805678,126.49,2013-09-30 00:00:00,2013-10-25 00:00:00,25.43286828882598,0.21857098965650218,-33.06932984140558,2.0755606437330765
sh600686,2014-03-20,9.6,9.6,9.6,9.6,0.099656,625203.0,6001949.0,4248932130.0,4248932130.0,0.001412578176437005,120.94,2013-09-30 00:00:00,2013-10-25 00:00:00,24.318288186379643,0.20899224795593768,-31.62008642049503,1.9846004512508941
sh600686,2013-11-15,8.78,8.93,8.7,8.73,0.0034479999999999997,1387712.0,12235201.0,3863872660.0,3863872660.0,0.003135384321904646,109.98,2013-09-30 00:00:00,2013-10-25 00:00:00,22.114450506685404,0.19005238725195672,-28.75452543385844,1.8047466218989343
sh600686,2013-11-14,8.76,8.8,8.66,8.7,-0.006848999999999999,1434514.0,12472528.0,3850594740.0,3850594740.0,0.0032411283561873867,109.6,2013-09-30 00:00:00,2013-10-25 00:00:00,22.03846189008838,0.1893993383333832,-28.655720509541542,1.798545237918591
sh600686,2013-11-13,9.0,9.0,8.68,8.76,-0.0299,1813237.0,15865936.0,3877150570.0,3877150570.0,0.004096811777934123,110.36,2013-09-30 00:00:00,2013-10-25 00:00:00,22.19044424270668,0.19070548016704733,-28.853337014755606,1.810948423672323
sh600686,2013-11-12,9.18,9.38,8.95,9.03,-0.008782,1846789.0,16820846.0,3996651790.0,3996651790.0,0.004172618868555471,113.76,2013-09-30 00:00:00,2013-10-25 00:00:00,22.874388457588577,0.1965833214792777,-29.742642010880942,1.8667646878386999
sh600686,2013-11-11,8.84,9.16,8.8,9.11,0.028217000000000002,1489466.0,13473279.0,4032059550.0,4032059550.0,0.003365286422915058,114.77,2013-09-30 00:00:00,2013-10-25 00:00:00,23.077051120529067,0.1983250117323109,-30.006156073518586,1.8833038623579275
sh600686,2013-11-08,9.2,9.3,8.82,8.86,-0.039046,2921082.0,26439714.0,3921410280.0,3921410280.0,0.006599867055991907,111.62,2013-09-30 00:00:00,2013-10-25 00:00:00,22.4437556668768,0.1928824477054074,-29.18270761280798,1.8316210122551244
sh600686,2013-11-07,9.06,9.31,9.04,9.22,0.014301,3273396.0,30014915.0,4080745230.0,4080745230.0,0.0073958822271293825,116.16,2013-09-30 00:00:00,2013-10-25 00:00:00,23.355702423713105,0.2007197511071367,-30.36847509121975,1.9060444227872766
sh600686,2013-11-06,8.98,9.15,8.98,9.09,0.005531,2048112.0,18573658.0,4023207610.0,4023207610.0,0.004627486295692307,114.52,2013-09-30 00:00:00,2013-10-25 00:00:00,23.026401850844184,0.1978897300773012,-29.940298876980062,1.879170406799635
sh600686,2013-11-05,9.03,9.1,8.93,9.04,0.0022170000000000002,1325247.0,11936798.0,4001077760.0,4001077760.0,0.002994251448889611,113.89,2013-09-30 00:00:00,2013-10-25 00:00:00,22.89974337026326,0.19680122251556761,-29.775609978190687,1.8688338865729999
sh600686,2013-11-04,8.7,9.05,8.7,9.02,0.039171,2726398.0,24286197.0,3992225810.0,3992225810.0,0.006159999742098756,113.64,2013-09-30 00:00:00,2013-10-25 00:00:00,22.849086944507288,0.19636587936102423,-29.709743476902396,1.864699847012174
sh600686,2013-11-01,8.63,8.77,8.59,8.68,0.016393,1087230.0,9433506.0,3841742800.0,3841742800.0,0.0024564779297562554,109.35,2013-09-30 00:00:00,2013-10-25 00:00:00,21.987802724005274,0.18896397162836934,-28.589850445116728,1.7944109747213632
sh600686,2013-10-31,8.48,8.67,8.48,8.54,0.0023469999999999997,885141.0,7593254.0,3779779210.0,3779779210.0,0.001999879813085696,107.59,2013-09-30 00:00:00,2013-10-25 00:00:00,21.633170165482515,0.1859162465978901,-28.128736074645065,1.7654696310594062
sh600686,2013-10-30,8.44,8.7,8.4,8.52,0.009479000000000001,1037054.0,8859821.0,3770927270.0,3770927270.0,0.0023431107118647766,107.34,2013-09-30 00:00:00,2013-10-25 00:00:00,21.582516000429504,0.1854809228719097,-28.062872512857385,1.76133577599315
sh600686,2013-10-29,8.79,8.81,8.24,8.44,-0.029885000000000002,1247492.0,10711192.0,3735519500.0,3735519500.0,0.0028185724850318676,106.33,2013-09-30 00:00:00,2013-10-25 00:00:00,21.37985634216215,0.1837392584411461,-27.799362357074674,1.7447968466834378
sh600686,2013-10-28,8.8,8.8,8.65,8.7,-0.004577,1036022.0,9019734.0,3850594740.0,3850594740.0,0.0023407790246968443,109.6,2013-09-30 00:00:00,2013-10-25 00:00:00,22.038476203503865,0.18939946134339342,-28.655739120696698,1.7985464060275718
sh600686,2013-10-25,9.0,9.01,8.57,8.74,-0.033186,2702444.0,23594127.0,3868298630.0,3868298630.0,0.006105878273415515,110.11,2013-09-30 00:00:00,2013-10-25 00:00:00,22.139810114397463,0.19027032863756757,-28.787499505935365,1.8068162037923294
sh600686,2013-10-24,9.08,9.11,8.9,9.04,0.004444,2189395.0,19699976.0,4001077760.0,4001077760.0,0.004946699861189401,113.89,2013-06-30 00:00:00,2013-08-20 00:00:00,18.622991197854876,0.19445027018148855,5.258404553994632,1.906977799016202
sh600686,2013-10-23,9.46,9.55,8.98,9.0,-0.050633,3051542.0,28055839.0,3983373870.0,3983373870.0,0.006894627242207621,113.38,2013-06-30 00:00:00,2013-08-20 00:00:00,18.54059678573905,0.1935899564151795,5.235139593640493,1.8985406842155481
sh600686,2013-10-22,9.8,9.84,9.44,9.48,-0.026694,2303867.0,22092176.0,4195820480.0000005,4195820480.0000005,0.005205336897540477,119.43,2013-06-30 00:00:00,2013-08-20 00:00:00,19.529430437058643,0.20391477312270126,5.5143475533070925,1.9997963740213727
sh600686,2013-10-21,9.54,9.75,9.35,9.74,0.026344,3007827.0,28735046.0,4310895720.0,4310895720.0,0.006795857956870273,122.71,2013-06-30 00:00:00,2013-08-20 00:00:00,20.065046796237407,0.20950736266158976,5.665584670501459,2.0546430146545616
sh600686,2013-10-18,9.62,9.64,9.45,9.49,-0.011458,3510406.0,33573687.0,4200246450.0,4200246450.0,0.00793138053601593,119.56,2013-06-30 00:00:00,2013-08-20 00:00:00,19.550021041909346,0.20412976805202715,5.520161535022818,2.001904833715169
sh600686,2013-10-17,9.55,9.69,9.48,9.6,0.011590999999999999,4418802.0,42433318.0,4248932130.0,4248932130.0,0.009983802494863574,120.94,2013-06-30 00:00:00,2013-08-20 00:00:00,19.776621571879947,0.20649579689282516,5.584144664589687,2.0251085272200564
sh600686,2013-10-16,9.29,9.59,9.25,9.49,0.025945999999999997,6475742.0,61173839.0,4200246450.0,4200246450.0,0.01463123469338329,119.56,2013-06-30 00:00:00,2013-08-20 00:00:00,19.550017321110953,0.20412972920164887,5.520160484414835,2.00190445270871
sh600686,2013-10-15,9.27,9.36,9.18,9.25,0.001082,5313329.0,49247620.0,4094023150.0,4094023150.0,0.012004888944020749,116.53,2013-06-30 00:00:00,2013-08-20 00:00:00,19.055600705213482,0.19896732303810225,5.380556563810215,1.9512766292852743
sh600686,2013-10-14,9.2,9.28,9.16,9.24,0.005441,2173797.0,20040770.0,4089597180.0,4089597180.0,0.004911457876151998,116.41,2013-06-30 00:00:00,2013-08-20 00:00:00,19.035004829987436,0.19875227307863116,5.3747410939465645,1.949167629909712
sh600686,2013-10-11,9.04,9.22,8.97,9.19,0.021111,2284801.0,20834713.0,4067467320.0,4067467320.0,0.005162259346683577,115.78,2013-06-30 00:00:00,2013-08-20 00:00:00,18.93199584061863,0.19767671407733636,5.345655383007619,1.9386196006625072
sh600686,2013-10-10,9.18,9.2,8.99,9.0,-0.015316999999999999,3072356.0,27890173.0,3983373870.0,3983373870.0,0.006941654211333168,113.38,2013-06-30 00:00:00,2013-08-20 00:00:00,18.540585539298494,0.19358983898649249,5.235136418085418,1.8985395325899992
sh600686,2013-10-09,9.3,9.3,9.08,9.14,-0.021412999999999998,4718495.0,43189413.0,4045337470.0,4045337470.0,0.010660926219339619,115.15,2013-06-30 00:00:00,2013-08-20 00:00:00,18.828989166359626,0.1966011792490502,5.316570325765164,1.9280718084804955
sh600686,2013-10-08,9.5,9.5,9.2,9.34,-0.02199,5155454.0,48021772.0,4133856890.0,4133856890.0,0.011648187550101668,117.67,2013-06-30 00:00:00,2013-08-20 00:00:00,19.2409966271365,0.20090311770854324,5.43290512316755,1.9702610074326508
sh600686,2013-09-30,9.47,9.75,9.4,9.55,0.007384,4021200.0,38564526.0,4226802280.0000005,4226802280.0000005,0.009085464011815569,120.31,2013-06-30 00:00:00,2013-08-20 00:00:00,19.673619520389874,0.20542031033276065,5.555060912636424,2.014561208405487
sh600686,2013-09-27,9.36,9.53,9.3,9.48,0.012821,2753401.0,26061409.0,4195820480.0000005,4195820480.0000005,0.006221010075245163,119.43,2013-06-30 00:00:00,2013-08-20 00:00:00,19.52941432501397,0.20391460489025104,5.514343003895659,1.999794724162273
sh600686,2013-09-26,9.32,9.65,9.2,9.36,-0.004255,4609634.0,43453408.0,4142708830.0,4142708830.0,0.010414966634283105,117.92,2013-06-30 00:00:00,2013-08-20 00:00:00,19.282197273767007,0.20133331051612383,5.444538574827793,1.9744799171445628
sh600686,2013-09-25,9.88,9.88,9.37,9.4,-0.021852,3015255.0,28933059.0,4160412710.0,4160412710.0,0.006812640710349143,118.42,2013-06-30 00:00:00,2013-08-20 00:00:00,19.364593619618486,0.202193644473358,5.467804081193271,1.9829172299580347
sh600686,2013-09-24,9.65,9.75,9.5,9.61,-0.011317,3049051.0,29414584.0,4253358099.9999995,4253358099.9999995,0.006888999096972343,121.07,2013-06-30 00:00:00,2013-08-20 00:00:00,19.79720207945882,0.20671068639240484,5.589955795230651,2.027215952962164
sh600686,2013-09-23,9.48,9.75,9.48,9.72,0.0125,4764037.0,45834390.0,4302043780.0,4302043780.0,0.010763823430918223,122.45,2013-06-30 00:00:00,2013-08-20 00:00:00,20.02381155482477,0.20907680863573544,5.653941450627402,2.0504205624676097
sh600686,2013-09-18,9.74,9.88,9.38,9.6,0.002088,3854094.0,36885128.0,4248932130.0,4248932130.0,0.008707906191008046,120.94,2013-06-30 00:00:00,2013-08-20 00:00:00,19.776604004765204,0.20649561346739304,5.584139704323359,2.0251067283630713
sh600686,2013-09-17,9.16,9.74,9.13,9.58,0.042437,7297680.0,69163466.0,4240080190.0000005,4240080190.0000005,0.016488314198604814,120.69,2013-06-30 00:00:00,2013-08-20 00:00:00,19.73539649687972,0.2060653490186421,5.572504315312986,2.020887116064728
sh600686,2013-09-16,9.1,9.28,9.09,9.19,0.01547,2879528.0,26450351.0,4067467320.0,4067467320.0,0.006505980316026239,115.78,2013-06-30 00:00:00,2013-08-20 00:00:00,18.93198005911121,0.19767654929616088,5.345650926926983,1.93861798465013
sh600686,2013-09-13,9.08,9.2,9.0,9.05,-0.003304,1625909.0,14732662.0,4005503730.0,4005503730.0,0.003673564535664532,114.01,2013-06-30 00:00:00,2013-08-20 00:00:00,18.64356412214168,0.19466508050081327,5.264213543410424,1.9090844482359202
sh600686,2013-09-12,9.3,9.3,9.07,9.08,-0.022605,2847267.0,26085269.0,4018781640.0,4018781640.0,0.006433090094439667,114.39,2013-06-30 00:00:00,2013-08-20 00:00:00,18.705366653565058,0.19531038601621084,5.2816641618010145,1.9154129726977134
sh600686,2013-09-11,9.16,9.5,9.01,9.29,0.013086000000000002,4628559.0,42908300.0,4111727030.0,4111727030.0,0.01045772562144039,117.04,2013-06-30 00:00:00,2013-08-20 00:00:00,19.137980707457128,0.19982748634504047,5.403817455379877,1.9597122685277841
sh600686,2013-09-10,9.15,9.18,8.94,9.17,0.001092,3253859.0,29595177.0,4058615380.0,4058615380.0,0.007351740491852174,115.53,2013-06-30 00:00:00,2013-08-20 00:00:00,18.89077601255681,0.19724632098858388,5.33401651526117,1.934398726789023
sh600686,2013-09-09,9.1,9.26,9.0,9.16,0.01891,6478268.0,58942763.0,4054189410.0,4054189410.0,0.014636941908444284,115.4,2013-06-30 00:00:00,2013-08-20 00:00:00,18.87016978714924,0.19703116295863304,5.32819812291095,1.932288667564043
sh600686,2013-09-06,8.63,9.01,8.41,8.99,0.047786,5685280.0,49842932.0,3978947900.0,3978947900.0,0.012845271786544378,113.26,2013-06-30 00:00:00,2013-08-20 00:00:00,18.519957392850444,0.19337445206998954,5.22931183609048,1.8964272286698953
sh600686,2013-09-05,8.68,8.69,8.53,8.58,-0.009238,1456923.0,12517733.0,3797483090.0,3797483090.0,0.0032917590529678966,108.09,2013-06-30 00:00:00,2013-08-20 00:00:00,17.675324343759545,0.18455529284604827,4.990820488239468,1.8099375527730808
sh600686,2013-09-04,8.57,8.77,8.57,8.66,0.006977,2840008.0,24574498.0,3832890860.0,3832890860.0,0.006416689172307923,109.1,2013-06-30 00:00:00,2013-08-20 00:00:00,17.840131478356604,0.1862761115646828,5.037355579079,1.8268136573395837
sh600686,2013-09-03,8.36,8.67,8.33,8.6,0.029939999999999998,3588842.0,30718366.0,3806335030.0,3806335030.0,0.008108598154587563,108.34,2013-06-30 00:00:00,2013-08-20 00:00:00,17.716523295325118,0.18498546795476242,5.002453461279651,1.8141562889118457
sh600686,2013-09-02,8.3,8.39,8.1,8.35,0.01335,2570087.0,21207271.0,3695685760.0,3695685760.0,0.005806832031628143,105.19,2013-06-30 00:00:00,2013-08-20 00:00:00,17.2015100834273,0.17960800430584536,4.857033867292901,1.7614193923061978
sh600686,2013-08-30,8.33,8.43,8.18,8.24,-0.002421,2741215.0,22802754.0,3647000080.0,3647000080.0,0.006193477133129101,103.81,2013-06-30 00:00:00,2013-08-20 00:00:00,16.97489523207905,0.17724182592968413,4.79304669392895,1.7382142323049272
sh600686,2013-08-29,8.42,8.54,8.23,8.26,-0.025943,3665405.0,30549676.0,3655852020.0,3655852020.0,0.008281583919252837,104.06,2013-06-30 00:00:00,2013-08-20 00:00:00,17.01609118884725,0.17767196976849364,4.804678821355452,1.7424326617790946
sh600686,2013-08-28,8.66,8.69,8.47,8.48,-0.027523000000000002,5074138.0,43310721.0,3753223380.0,3753223380.0,0.011464462911877096,106.83,2013-06-30 00:00:00,2013-08-20 00:00:00,17.46929716520414,0.18240407878439727,4.932646468692748,1.78884055222548
sh600686,2013-08-27,8.7,8.77,8.6,8.72,0.005767,3484022.0,30237963.0,3859446690.0,3859446690.0,0.007871768748281377,109.86,2013-06-30 00:00:00,2013-08-20 00:00:00,17.96371242220036,0.18756647075909993,5.072250005596787,1.8394682364986317
sh600686,2013-08-26,8.48,8.69,8.4,8.67,0.021200999999999998,3242524.0,27773376.0,3837316830.0,3837316830.0,0.007326130295058278,109.23,2013-06-30 00:00:00,2013-08-20 00:00:00,17.860709709306786,0.18649097729305092,5.043166066889038,1.82892084995693
sh600686,2013-08-23,8.78,8.85,8.31,8.49,-0.025258000000000003,2370516.0,20341381.0,3757649350.0,3757649350.0,0.00535592306929863,106.96,2013-06-30 00:00:00,2013-08-20 00:00:00,17.48990620779532,0.18261926622971472,4.938465656505466,1.7909508999275656
sh600686,2013-08-22,8.64,8.8,8.58,8.71,0.008102,2270504.0,19727271.0,3855020710.0,3855020710.0,0.0051299568349141254,109.73,2013-06-30 00:00:00,2013-08-20 00:00:00,17.943113365172852,0.1873513875771381,5.0664336373168135,1.837358911309419
sh600686,2013-08-21,8.75,8.85,8.6,8.64,-0.017065,2133848.0,18486306.0,3824038920.0,3824038920.0,0.0048211974578961665,108.85,2013-06-30 00:00:00,2013-08-20 00:00:00,17.79890662370757,0.18584566599127672,5.02571529202086,1.8225922687480223
sh600686,2013-08-20,8.75,8.96,8.74,8.79,0.003425,1845470.0,16336588.0,3890428480.0,3890428480.0,0.004169638738610097,110.74,2013-06-30 00:00:00,2013-08-20 00:00:00,18.107918248620276,0.1890721827905983,5.112968092519709,1.854234785360194
sh600686,2013-08-19,8.53,8.83,8.51,8.76,0.011547,1581533.0,13819464.0,3877150570.0,3877150570.0,0.003573301792094187,110.36,2013-03-31 00:00:00,2013-04-26 00:00:00,18.850213136129977,0.1999730675767591,9.274924717820163,1.8642510120101878
sh600686,2013-08-16,8.78,8.99,8.66,8.66,-0.017026,2870771.0,25336571.0,3832890860.0,3832890860.0,0.0064861948247595036,109.1,2013-03-31 00:00:00,2013-04-26 00:00:00,18.63503439398266,0.19769033725250443,9.1690497009236,1.8429702347099917
sh600686,2013-08-15,9.03,9.2,8.76,8.81,-0.027594,3041613.0,27171115.0,3899280420.0,3899280420.0,0.0068721937495328945,110.99,2013-03-31 00:00:00,2013-04-26 00:00:00,18.9578100682039,0.20111451294999097,9.327865946529206,1.8748921484291463
sh600686,2013-08-14,8.74,9.19,8.74,9.06,0.036613,6398234.0,57811347.0,4009929700.0,4009929700.0,0.014456113791720588,114.14,2013-03-31 00:00:00,2013-04-26 00:00:00,19.495776525652765,0.20682154670990407,9.592563133638835,1.9280960302889394
sh600686,2013-08-13,8.66,8.78,8.65,8.74,0.0034439999999999996,1681797.0,14657936.0,3868298630.0,3868298630.0,0.0037998373925955146,110.11,2013-03-31 00:00:00,2013-04-26 00:00:00,18.807188917805167,0.19951664382937903,9.253755387631486,1.859995996856049
sh600686,2013-08-12,8.68,8.78,8.64,8.71,0.0057740000000000005,2738250.0,23829191.0,3855020710.0,3855020710.0,0.006186778047166446,109.73,2013-03-31 00:00:00,2013-04-26 00:00:00,18.742639268165604,0.19883186687984486,9.22199483741144,1.8536121565887573
sh600686,2013-08-09,8.65,8.82,8.5,8.66,-0.009153,1786514.0,15499509.0,3832890860.0,3832890860.0,0.004036434066374643,109.1,2013-03-31 00:00:00,2013-04-26 00:00:00,18.63504054406418,0.19769040249583392,9.169052726965939,1.8429708429416127
sh600686,2013-08-08,8.6,8.86,8.54,8.74,0.015099000000000001,3546754.0,31018912.0,3868298630.0,3868298630.0,0.008013504882894732,110.11,2013-03-31 00:00:00,2013-04-26 00:00:00,18.80718268720012,0.1995165777318132,9.253752321968921,1.859995380660801
sh600686,2013-08-07,8.79,8.83,8.55,8.61,-0.040133999999999996,5064757.0,44035265.0,3810761010.0,3810761010.0,0.01144326754041183,108.47,2013-03-31 00:00:00,2013-04-26 00:00:00,18.527436917187504,0.19654888610058052,9.116108204193798,1.8323290444191167
sh600686,2013-08-06,8.23,9.14,8.04,8.97,0.078125,8713466.0,74109280.0,3970095960.0,3970095960.0,0.01968712867585196,113.01,2013-03-31 00:00:00,2013-04-26 00:00:00,19.30210770793788,0.20476700508256412,9.497271706877623,1.9089425445000825
sh600686,2013-08-05,8.28,8.35,8.0,8.32,0.004831,7092173.0,57988365.0,3682407850.0,3682407850.0,0.016023993474812953,104.82,2013-03-31 00:00:00,2013-04-26 00:00:00,17.903404250840936,0.18992881630846528,8.809063612176347,1.7706133746087724
sh600686,2013-08-02,8.46,8.56,8.27,8.28,-0.016627,2170310.0,18381720.0,3664703960.0,3664703960.0,0.004903579387623987,104.31,2013-03-31 00:00:00,2013-04-26 00:00:00,17.81732873571868,0.18901568155089296,8.76671162830003,1.7621006662899261
sh600686,2013-08-01,8.2,8.47,8.2,8.42,0.028082999999999997,2959143.0,24814929.0,3726667560.0,3726667560.0,0.006685861740777329,106.08,2013-03-31 00:00:00,2013-04-26 00:00:00,18.118586473005337,0.19221158355058857,8.91494034135575,1.7918944960761845
sh600686,2013-07-31,7.93,8.24,7.93,8.19,0.032787000000000004,3556134.0,28968819.0,3624870220.0,3624870220.0,0.008034697987063381,103.18,2013-03-31 00:00:00,2013-04-26 00:00:00,17.623661195647955,0.18696115347748046,8.671420830181756,1.7429473068576995
sh600686,2013-07-30,8.18,8.2,7.83,7.93,-0.0246,3618121.0,28687728.0,3509794980.0,3509794980.0,0.008174750859664173,99.9,2013-03-31 00:00:00,2013-04-26 00:00:00,17.06417799182983,0.18102585864992538,8.396136696319529,1.6876154588097059
sh600686,2013-07-29,8.53,8.53,8.09,8.13,-0.048008999999999996,2072359.0,17102885.0,3598314400.0,3598314400.0,0.004682269751081229,102.42,2013-03-31 00:00:00,2013-04-26 00:00:00,17.494543768535813,0.1855914072687363,8.607890810251721,1.7301778335141542
sh600686,2013-07-26,8.52,8.69,8.4,8.54,-0.011574,1391612.0,11837224.0,3779779210.0,3779779210.0,0.0031441959489480337,107.59,2013-03-31 00:00:00,2013-04-26 00:00:00,18.37679533581285,0.19495080023733027,9.041987592584091,1.8174308722605088
sh600686,2013-07-25,9.0,9.07,8.63,8.64,-0.036788999999999995,1818342.0,16011355.0,3824038920.0,3824038920.0,0.004108345968403481,108.85,2013-03-31 00:00:00,2013-04-26 00:00:00,18.591978899596782,0.1972335817120657,9.14786498188442,1.8387121264115964
sh600686,2013-07-24,8.72,8.99,8.7,8.97,0.026316000000000003,3450924.0,30563056.0,3970095960.0,3970095960.0,0.0077969874259664,113.01,2013-03-31 00:00:00,2013-04-26 00:00:00,19.302083239909823,0.20476674551273366,9.497259667803233,1.9089401246576256
sh600686,2013-07-23,8.59,8.81,8.58,8.74,0.019837,2061905.0,17963009.0,3868298630.0,3868298630.0,0.004658650074283433,110.11,2013-03-31 00:00:00,2013-04-26 00:00:00,18.807154170752305,0.19951627521419685,9.253738290938886,1.8599925604371614
sh600686,2013-07-22,8.5,8.65,8.41,8.57,0.002339,2717715.0,23280528.0,3793057120.0,3793057120.0,0.0061403814425025054,107.97,2013-03-31 00:00:00,2013-04-26 00:00:00,18.44133343931658,0.19563545469932628,9.073742461725631,1.8238135706364458
sh600686,2013-07-19,8.95,8.95,8.38,8.55,-0.038245,2077066.0,18086876.0,3784205180.0,3784205180.0,0.004692904706610016,107.71,2013-03-31 00:00:00,2013-04-26 00:00:00,18.398299816046848,0.1951789311792979,9.052568503994788,1.8195576253507504
sh600686,2013-07-18,9.01,9.04,8.8,8.89,-0.013319,1406846.0,12537537.0,3934688190.0,3934688190.0,0.0031786155181968818,112.0,2013-03-31 00:00:00,2013-04-26 00:00:00,19.12992374986025,0.20294038625148597,9.412551537548323,1.8919138713609498
sh600686,2013-07-17,9.15,9.22,8.98,9.01,-0.018519,2256630.0,20465714.0,3987799840.0,3987799840.0,0.005098610039565074,113.51,2013-03-31 00:00:00,2013-04-26 00:00:00,19.388154580720872,0.2056798359869968,9.53960959778117,1.9174524201448595
sh600686,2013-07-16,9.03,9.22,8.81,9.18,0.018868,3640843.0,32983754.0,4063041350.0,4063041350.0,0.008226088749995123,115.65,2013-03-31 00:00:00,2013-04-26 00:00:00,19.75397850872393,0.2095606904127505,9.719606999810663,1.9536317260801375
sh600686,2013-07-15,9.24,9.29,8.9,9.01,0.011223,3352950.0,30416016.0,3987799840.0,3987799840.0,0.0075756258368273564,113.51,2013-03-31 00:00:00,2013-04-26 00:00:00,19.38816265573551,0.20567992165103868,9.539613570953904,1.917453218748785
sh600686,2013-07-12,9.21,9.23,8.9,8.91,-0.036757,2714776.0,24548392.0,3943540130.0,3943540130.0,0.006133741096226654,112.25,2013-03-31 00:00:00,2013-04-26 00:00:00,19.172984253458942,0.20339719493231337,9.433738721284925,1.8961724750611737
sh600686,2013-07-11,9.02,9.37,8.91,9.25,0.017602,4113717.0,37692577.0,4094023150.0,4094023150.0,0.009294496111972401,116.53,2013-03-31 00:00:00,2013-04-26 00:00:00,19.904618308629228,0.21115875737722814,9.793726734878868,1.9685297220547398
sh600686,2013-07-10,9.31,9.39,8.66,9.09,-0.023631,6701528.0,59778755.0,4023207610.0,4023207610.0,0.015141373606618326,114.52,2013-03-31 00:00:00,2013-04-26 00:00:00,19.560317598264575,0.20750623266977478,9.624319463679187,1.9344790223041424
sh600686,2013-07-09,9.81,9.89,9.22,9.31,-0.064322,2477621.0,23548748.0,4120578970.0,4120578970.0,0.005597915166275773,117.29,2013-03-31 00:00:00,2013-04-26 00:00:00,20.03373478496816,0.21252849349966538,9.857256286997218,1.9812991013685837
sh600686,2013-07-08,9.75,10.08,9.5,9.95,0.012208,3871674.0,38487547.0,4403841120.0,4403841120.0,0.008747626276762682,125.35,2013-03-31 00:00:00,2013-04-26 00:00:00,21.41092852986621,0.22713849582833556,10.534880895989025,2.1175010007380566
sh600686,2013-07-05,9.57,10.08,9.57,9.83,0.026095999999999998,2312592.0,22648217.0,4350729460.0,4350729460.0,0.005225050090795579,123.84,2013-03-31 00:00:00,2013-04-26 00:00:00,21.152696412067694,0.22439903244030435,10.407822202540412,2.0919623246783834
sh600686,2013-07-04,9.5,9.76,9.48,9.58,-0.0051920000000000004,2227190.0,21502563.0,4240080190.0000005,4240080190.0000005,0.005032093555758906,120.69,2013-03-31 00:00:00,2013-04-26 00:00:00,20.614734305628023,0.2186920448382065,10.14312715627038,2.038758873125305
sh600686,2013-07-03,9.63,9.75,9.5,9.63,-0.0061920000000000005,2158879.0,20719101.0,4262210040.0,4262210040.0,0.0048777522869332835,121.32,2013-03-31 00:00:00,2013-04-26 00:00:00,20.722324615029255,0.21983341995461084,10.196065126406683,2.0493993545742546
sh600686,2013-07-02,9.36,9.78,9.2,9.69,0.033049,3921767.0,37511749.0,4288765870.0,4288765870.0,0.008860805971205884,122.08,2013-03-31 00:00:00,2013-04-26 00:00:00,20.851436711144665,0.22120310960931172,10.259592523311026,2.0621683006921407
sh600686,2013-07-01,9.38,9.65,9.2,9.38,0.0032090000000000005,4106423.0,38991948.0,4151560770.0,4151560770.0,0.009278016118260988,118.17,2013-03-31 00:00:00,2013-04-26 00:00:00,20.18436367601601,0.2141264447371922,9.93137065454884,1.996196018477478
sh600686,2013-06-28,8.9,9.36,8.9,9.35,0.050562,8610970.0,79694516.0,4138282860.0,4138282860.0,0.019455550097414075,117.79,2013-03-31 00:00:00,2013-04-26 00:00:00,20.119799240254032,0.21344151092862226,9.899602829070353,1.9898107158901865
sh600686,2013-06-27,8.81,9.35,8.81,8.9,0.007928,2678984.0,24379554.0,3939114160.0,3939114160.0,0.006052872963702073,112.12,2013-03-31 00:00:00,2013-04-26 00:00:00,19.151462969585836,0.20316888572842182,9.423149541931227,1.8940440601222839
sh600686,2013-06-26,8.96,9.05,8.65,8.83,-0.014509000000000001,3375056.0,29783776.0,3908132370.0,3908132370.0,0.007625571925036921,111.24,2013-03-31 00:00:00,2013-04-26 00:00:00,19.00082443347723,0.2015708321709704,9.349030428692554,1.8791461891348231
sh600686,2013-06-25,9.2,9.28,8.28,8.96,-0.026087,6325354.0,54278375.0,3965669990.0,3965669990.0,0.014291449359859619,112.88,2013-03-31 00:00:00,2013-04-26 00:00:00,19.280566168008875,0.20453848099167868,9.48667256087834,1.9068121262749467
sh600686,2013-06-24,9.7,9.83,9.0,9.2,-0.051725,1855380.0,17501903.0,4071893290.0,4071893290.0,0.004192029305365219,115.9,2013-03-31 00:00:00,2013-04-26 00:00:00,19.797010788447093,0.21001719967972363,9.740780296472414,1.9578875384915762
sh600686,2013-06-21,9.45,10.08,9.12,9.86,0.020704,4697871.0,44346104.0,4364007380.0,4364007380.0,0.010614328534888957,122.23,2013-03-31 00:00:00,2013-04-26 00:00:00,20.876866719513956,0.22147288463760373,10.272104923648115,2.064683281212282
sh600686,2013-06-20,10.07,10.07,9.65,9.66,-0.041667,3465762.0,34304677.0,4275487960.0,4275487960.0,0.007830512267423156,119.75,2013-03-31 00:00:00,2013-04-26 00:00:00,20.453399535530334,0.216980519952507,10.06374514418295,2.0228031644945856
sh600686,2013-06-19,10.25,10.25,10.0,10.08,-0.022308,1783001.0,17945323.0,4461378740.0,4461378740.0,0.0040284968229350555,124.95,2013-03-31 00:00:00,2013-04-26 00:00:00,21.34268519974824,0.22641453435549747,10.501302933513662,2.110751862342824
sh600686,2013-06-18,10.34,10.64,10.26,10.31,-0.0029010000000000004,2403808.0,25015133.0,4563176070.0,4563176070.0,0.0054311427172259,127.8,2013-03-31 00:00:00,2013-04-26 00:00:00,21.829661283664223,0.23158063516475277,10.740911180119774,2.1589128911178816
sh600686,2013-06-17,9.94,10.37,9.88,10.34,0.036072,6171786.0,62782562.0,4576453980.0,4576453980.0,0.013944479179489095,128.18,2013-03-31 00:00:00,2013-04-26 00:00:00,21.89317337963855,0.2322544051942212,10.772161219818468,2.1651941192578485
sh600686,2013-06-14,9.66,10.04,9.65,9.98,0.021494,4511973.0,44444524.0,4417119030.0,4417119030.0,0.010194312227986304,123.71,2013-03-31 00:00:00,2013-04-26 00:00:00,21.130938177692816,0.22416820953970495,10.39711643574816,2.0898104757756686
sh600686,2013-06-13,10.02,10.09,9.58,9.77,-0.065966,5233658.0,51405509.0,4324173640.0,4324173640.0,0.011824880986971651,121.11,2013-03-31 00:00:00,2013-04-26 00:00:00,20.686306701451812,0.2194513228072852,10.17834312854325,2.045837249925764
sh600686,2013-06-07,11.08,11.14,10.21,10.46,-0.051677,6085393.0,64781906.0,4629565630.0,4629565630.0,0.01374928359747651,129.66,2013-03-31 00:00:00,2013-04-26 00:00:00,22.14727376246669,0.2349500369443566,10.89718696379709,2.19032417441524
sh600686,2013-06-06,10.6,11.1,10.55,11.03,0.032772,6217825.0,68162448.0,4881845980.0,4881845980.0,0.01404849928305194,136.73,2013-03-31 00:00:00,2013-04-26 00:00:00,23.354145963418254,0.24775317791971366,11.491007772454205,2.3096815899384913
sh600686,2013-06-05,10.53,10.76,10.21,10.68,0.015209,2426085.0,25335131.0,4726937000.0,4726937000.0,0.005481475170919349,132.39,2013-03-31 00:00:00,2013-04-26 00:00:00,22.61307041962626,0.23989145515148905,11.126374235992268,2.2363905972842906
sh600686,2013-06-04,10.83,10.98,10.2,10.52,-0.041894,4274690.0,45082946.0,4656121460.0,4656121460.0,0.009658197103818678,130.41,2013-03-31 00:00:00,2013-04-26 00:00:00,22.274300582073504,0.23629760487888604,10.959688336088693,2.202886890565677
sh600686,2013-06-03,10.88,11.14,10.78,10.98,0.007339,3379919.0,36933480.0,4859716130.0,4859716130.0,0.007636559343642157,136.11,2013-03-31 00:00:00,2013-04-26 00:00:00,23.24826332584652,0.24662991869259357,11.438910033011686,2.299209994056688
sh600686,2013-05-31,11.03,11.19,10.89,10.9,-0.010889,4887562.0,53589474.0,4824308360.0,4824308360.0,0.011042914719489448,135.12,2013-03-31 00:00:00,2013-04-26 00:00:00,23.078887371427612,0.24483308865495487,11.355571493818552,2.282459027255659
sh600686,2013-05-30,10.93,11.41,10.88,11.02,0.0,7950996.0,88326337.0,4877420010.0,4877420010.0,0.017964410639304363,136.6,2013-03-31 00:00:00,2013-04-26 00:00:00,23.33295997256892,0.24752842568220845,11.480583568293703,2.307586334855905
sh600686,2013-05-29,10.28,11.14,10.26,11.02,0.064734,11942921.0,129905562.0,4877420010.0,4877420010.0,0.026983730978706506,136.6,2013-03-31 00:00:00,2013-04-26 00:00:00,23.33295997256892,0.24752842568220845,11.480583568293703,2.307586334855905
sh600686,2013-05-28,10.15,10.37,10.05,10.35,0.0444,8258360.0,84504772.0,4580879950.0,4580879950.0,0.018658866185742327,128.3,2013-03-31 00:00:00,2013-04-26 00:00:00,21.914356048148097,0.2324791221865822,10.782583789278544,2.1672890457672103
sh600686,2013-05-27,9.86,10.18,9.85,9.91,0.005071,6923559.0,69289722.0,4386137230.0,4386137230.0,0.015643028499133394,122.84,2013-03-31 00:00:00,2013-04-26 00:00:00,20.98272314070097,0.22259586574739773,10.324189763767276,2.075152284342407
sh600686,2013-05-24,9.89,10.15,9.53,9.86,-0.0060479999999999996,5261779.0,51460982.0,4364007380.0,4364007380.0,0.011888417324353837,122.22,2013-03-31 00:00:00,2013-04-26 00:00:00,20.876856600877918,0.22147277729374115,10.272099944946453,2.0646822804980016
sh600686,2013-05-23,9.88,10.2,9.85,9.92,0.001009,5200445.0,52039774.0,4390563200.0,4390563200.0,0.011749839838315049,122.97,2013-03-31 00:00:00,2013-04-26 00:00:00,21.003888116204728,0.22282039504296103,10.334603627686704,2.077245461046411
sh600686,2013-05-22,10.39,10.44,9.9,9.91,-0.044358999999999996,9986424.0,100966403.0,4386137230.0,4386137230.0,0.022563238825065217,122.84,2013-03-31 00:00:00,2013-04-26 00:00:00,20.982716555200533,0.22259579588491316,10.324186523484508,2.0751516330486646
sh600686,2013-05-21,10.48,10.49,10.14,10.37,-0.009551,5976730.0,61602757.0,4589731900.0,4589731900.0,0.013503771342286898,128.55,2013-03-31 00:00:00,2013-04-26 00:00:00,21.95669352319598,0.2329282605967232,10.803415219192674,2.171476143288813
sh600686,2013-05-20,10.42,10.55,10.0,10.47,0.0077,9280704.0,95291381.0,4633991610.0,4633991610.0,0.020968741218761074,129.79,2013-03-31 00:00:00,2013-04-26 00:00:00,22.16842414217792,0.23517441140000458,10.907593646106637,2.1924159076225154
sh600686,2013-05-17,10.0,10.6,9.96,10.39,0.030754000000000004,10823960.0,112163982.0,4598583840.0,4598583840.0,0.024455560301364435,128.79,2013-03-31 00:00:00,2013-04-26 00:00:00,21.999031598866644,0.23337740537858945,10.824246944632964,2.1756633002108914
sh600686,2013-05-16,9.3,10.12,9.3,10.08,0.057712,12863903.0,126429796.0,4461378740.0,4461378740.0,0.029064589625044927,124.95,2013-03-31 00:00:00,2013-04-26 00:00:00,21.34265945013713,0.22641426118995364,10.501290263858268,2.1107493157541874
sh600686,2013-05-15,9.2,9.64,9.2,9.53,0.047252999999999996,13726589.0,129524810.0,4217950330.0,4217950330.0,0.03101373485590571,118.13,2013-03-31 00:00:00,2013-04-26 00:00:00,20.17813870896532,0.21406040698219705,9.928307766063226,1.995580380816505
sh600686,2013-05-14,9.18,9.35,8.71,9.1,0.009989,8386060.0,76299306.0,4027633580.0,4027633580.0,0.01894739044260327,112.8,2013-03-31 00:00:00,2013-04-26 00:00:00,19.26768288939284,0.20440180833303612,9.480333564156155,1.9055379939866535
sh600686,2013-05-13,9.1,9.22,8.8,9.01,-0.012061,10311599.0,92925069.0,3987799840.0,3987799840.0,0.023297936385392903,111.69,2013-03-31 00:00:00,2013-04-26 00:00:00,19.077121522504548,0.20238023219365373,9.386571105384471,1.886691829303739
sh600686,2013-05-10,9.15,9.55,9.1,9.12,0.022422,11632138.0,107750982.0,4036485520.0,4036485520.0,0.02628155062971711,113.05,2013-03-31 00:00:00,2013-04-26 00:00:00,19.310019669741294,0.2048509393734367,9.501164652255321,1.9097250228037748
sh600686,2013-05-09,8.56,9.3,8.55,8.92,0.039626999999999996,15075062.0,133685930.0,3947966110.0,3947966110.0,0.03406046285437846,110.57,2013-03-31 00:00:00,2013-04-26 00:00:00,18.886545545519652,0.20035850106261088,9.292801457964833,1.8678442197094498
sh600686,2013-05-08,8.45,8.69,8.39,8.58,0.016588,5091105.0,43705866.0,3797483090.0,3797483090.0,0.011502798001926062,106.36,2013-03-31 00:00:00,2013-04-26 00:00:00,18.166655488477748,0.19272152518413901,8.93859187762999,1.7966484322833574
sh600686,2013-05-07,8.4,8.54,8.28,8.44,0.002375,4846778.0,40674564.0,3735519500.0,3735519500.0,0.010950767709819209,104.62,2013-03-31 00:00:00,2013-04-26 00:00:00,17.870224209293976,0.18957682481412233,8.792737940670152,1.7673319302247883
sh600686,2013-05-06,8.19,8.53,8.12,8.42,0.034398000000000005,6465345.0,54399612.0,3726667560.0,3726667560.0,0.014607743788125818,104.37,2013-03-31 00:00:00,2013-04-26 00:00:00,17.827882987199374,0.18912764665332069,8.771904667085824,1.7631444621272359
sh600686,2013-05-03,7.89,8.19,7.89,8.14,0.02005,2674446.0,21649080.0,3602740370.0,3602740370.0,0.006042619840518789,100.9,2013-03-31 00:00:00,2013-04-26 00:00:00,17.2350323446095,0.18283837232218228,8.48020265612059,1.7045126364583423
sh600686,2013-05-02,7.8,8.02,7.7,7.98,0.010126999999999999,2876347.0,22714617.0,3531924830.0,3531924830.0,0.0064987931977023424,98.92,2013-03-31 00:00:00,2013-04-26 00:00:00,16.89626228577962,0.17924451970215413,8.313516647341395,1.671008907855833
sh600686,2013-04-26,7.8,8.22,7.6,7.9,-0.02829,8460048.0,67683714.0,3496517070.0,3496517070.0,0.01911455824810259,97.93,2013-03-31 00:00:00,2013-04-26 00:00:00,16.726869280575237,0.17744750878073165,8.230169718601122,1.6542562547638395
sh600686,2013-04-25,8.05,8.25,8.03,8.13,0.0,4233016.0,34609981.0,3598314400.0,3598314400.0,0.009564039229034572,100.78,2012-12-31 00:00:00,2013-04-12 00:00:00,17.060347848954713,0.18775118699606916,3.862773490719741,1.7124761912984525
sh600686,2013-04-24,8.07,8.15,7.86,8.13,0.009937999999999999,3804774.0,30431721.0,3598314400.0,3598314400.0,0.008596473009695873,100.78,2012-12-31 00:00:00,2013-04-12 00:00:00,17.060347848954713,0.18775118699606916,3.862773490719741,1.7124761912984525
sh600686,2013-04-23,8.26,8.35,8.0,8.05,-0.025424000000000002,4969536.0,40431735.0,3562906630.0,3562906630.0,0.011228126065150354,99.79,2012-12-31 00:00:00,2013-04-12 00:00:00,16.8924704773508,0.1859036762613835,3.8247629960648477,1.695625069359161
sh600686,2013-04-22,7.91,8.32,7.9,8.26,0.0325,5384613.0,43742540.0,3655852020.0,3655852020.0,0.01216594740068281,102.39,2012-12-31 00:00:00,2013-04-12 00:00:00,17.33314844337517,0.19075339046044998,3.9245405140952045,1.7398592509554525
sh600686,2013-04-19,7.91,8.08,7.8,8.0,0.012657999999999999,4201417.0,33542714.0,3540776780.0,3540776780.0,0.009492644718484626,99.17,2012-12-31 00:00:00,2013-04-12 00:00:00,16.787552971791932,0.18474904645079904,3.8010077618355496,1.6850937055258621
sh600686,2013-04-18,7.88,7.95,7.75,7.9,-0.006289,2111201.0,16637577.0,3496517070.0,3496517070.0,0.004770029022051936,97.93,2012-12-31 00:00:00,2013-04-12 00:00:00,16.577712289629794,0.182439724419102,3.7534960093492065,1.6640304086136304
sh600686,2013-04-17,7.92,8.23,7.81,7.95,0.007605,5308416.0,42482943.0,3518646920.0,3518646920.0,0.011993788566884682,98.55,2012-12-31 00:00:00,2013-04-12 00:00:00,16.682629345584175,0.18359434928173485,3.7772511417798604,1.6745617273167255
sh600686,2013-04-16,7.66,7.92,7.58,7.89,0.016753,2849603.0,22248237.0,3492091100.0,3492091100.0,0.006438368022529538,97.8,2012-12-31 00:00:00,2013-04-12 00:00:00,16.556715524023975,0.18220865247962728,3.748741959180294,1.6619228043893446
sh600686,2013-04-15,7.85,8.04,7.7,7.76,-0.020202,2612051.0,20509774.0,3434553470.0,3434553470.0,0.005901645130014528,96.19,2012-12-31 00:00:00,2013-04-12 00:00:00,16.283911160354553,0.17920640753420672,3.6869740823782124,1.6345393663843082
sh600686,2013-04-12,7.68,7.95,7.68,7.92,0.008917,5496190.0,43171112.0,3505369010.0,3505369010.0,0.01241804348581264,98.18,2012-12-31 00:00:00,2013-04-12 00:00:00,16.61966156325544,0.18290138123797633,3.762994088963452,1.6682411745934451
sh600686,2013-04-11,7.48,7.95,7.48,7.85,0.05087,4542407.0,35278401.0,3474387210.0,3474387210.0,0.010263074549482928,97.31,2012-09-30 00:00:00,2012-10-27 00:00:00,12.77007682827407,0.16770936356494143,3.446367701046382,1.553255346518508
sh600686,2013-04-10,7.35,7.6,7.35,7.47,0.008097,3309747.0,24885764.0,3306200310.0,3306200310.0,0.00747801336029758,92.6,2012-09-30 00:00:00,2012-10-27 00:00:00,12.151909206918143,0.1595909708764561,3.2795376222048227,1.4780661228491705
sh600686,2013-04-09,7.17,7.52,7.17,7.41,0.030598,4311498.0,31606715.0,3279644490.0,3279644490.0,0.009741360771697545,91.85,2012-09-30 00:00:00,2012-10-27 00:00:00,12.054305495322517,0.15830914175566052,3.253196490223483,1.4661943472197323
sh600686,2013-04-08,7.15,7.3,6.88,7.19,-0.015068000000000002,5499280.0,38767925.0,3182273130.0,3182273130.0,0.012425025000918133,89.13,2012-09-30 00:00:00,2012-10-27 00:00:00,11.696418482592163,0.15360901317066455,3.1566105214870235,1.4226636838221425
sh600686,2013-04-03,7.45,7.5,7.18,7.3,-0.022758,1785537.0,13124418.0,3230958810.0,3230958810.0,0.004034226638748143,90.49,2012-09-30 00:00:00,2012-10-27 00:00:00,11.875356352105694,0.15595900343441432,3.2049019845908386,1.4444283298970313
sh600686,2013-04-02,7.6,7.63,7.4,7.47,-0.018397,3661233.0,27472577.0,3306200310.0,3306200310.0,0.008272157747756064,92.6,2012-09-30 00:00:00,2012-10-27 00:00:00,12.151909508704797,0.15959097483981893,3.279537703650517,1.4780661595562115
sh600686,2013-04-01,7.45,7.67,7.42,7.61,0.016021,1685882.0,12750152.0,3368163910.0,3368163910.0,0.003809067005886896,94.33,2012-09-30 00:00:00,2012-10-27 00:00:00,12.379658078372616,0.1625819958168617,3.3410021196456374,1.5057677692062996
sh600686,2013-03-29,7.47,7.62,7.45,7.49,0.010796,1399645.0,10535805.0,3315052260.0,3315052260.0,0.003162345636747217,92.85,2012-09-30 00:00:00,2012-10-27 00:00:00,12.184450989076621,0.1600183419603155,3.2883199457940706,1.4820242585599113
sh600686,2013-03-28,7.8,7.8,7.4,7.41,-0.05845,3321800.0,25114628.0,3279644490.0,3279644490.0,0.007505245789613008,91.85,2012-09-30 00:00:00,2012-10-27 00:00:00,12.05431262992396,0.1583092354543503,3.253198415698192,1.4661952150185704
sh600686,2013-03-27,7.78,7.96,7.7,7.87,0.01027,2543421.0,20095895.0,3483239150.0,3483239150.0,0.005746583110723248,97.56,2012-09-30 00:00:00,2012-10-27 00:00:00,12.802626127050035,0.16813683336450566,3.4551520532082125,1.5572143964936227
sh600686,2013-03-26,7.81,7.94,7.63,7.79,-0.005109000000000001,2364003.0,18355241.0,3447831390.0,3447831390.0,0.005341207642407362,96.57,2012-09-30 00:00:00,2012-10-27 00:00:00,12.6724797599157,0.1664276216897519,3.420028361931179,1.541384378922093
sh600686,2013-03-25,7.75,7.95,7.7,7.83,0.012937,2250654.0,17586692.0,3465535270.0,3465535270.0,0.005085107911771448,97.06,2012-09-30 00:00:00,2012-10-27 00:00:00,12.737555933178307,0.16728226679078603,3.4375910144238704,1.5492997513517488
sh600686,2013-03-22,7.74,7.8,7.68,7.73,-0.002581,1589651.0,12279873.0,3421275560.0,3421275560.0,0.0035916435301691983,95.82,2012-09-30 00:00:00,2012-10-27 00:00:00,12.574874778173083,0.1651457758881214,3.393686887164622,1.5295124488016025
sh600686,2013-03-21,7.64,7.84,7.59,7.75,0.013072,3507120.0,27075014.0,3430127500.0,3430127500.0,0.007923956179471463,96.07,2012-09-30 00:00:00,2012-10-27 00:00:00,12.607414515036389,0.1655731201111282,3.4024686587729143,1.5334703357381425
sh600686,2013-03-20,7.32,7.68,7.29,7.65,0.045082,5111370.0,38739510.0,3385867790.0,3385867790.0,0.011548584565376666,94.83,2012-09-30 00:00:00,2012-10-27 00:00:00,12.444736914095335,0.1634366758839729,3.3585654906787616,1.5136834654774216
sh600686,2013-03-19,7.34,7.39,7.17,7.32,0.006878,2705196.0,19631638.0,3239810750.0,3239810750.0,0.006112096121663897,90.74,2012-09-30 00:00:00,2012-10-27 00:00:00,11.907904752062837,0.15638646142979487,3.2136860941808982,1.448387270546638
sh600686,2013-03-18,7.5,7.5,7.22,7.27,-0.048429,5292951.0,38781114.0,3217680900.0,3217680900.0,0.011958847059694452,90.12,2012-09-30 00:00:00,2012-10-27 00:00:00,11.826561660958763,0.15531818296734548,3.1917333521845728,1.4384933135361366
sh600686,2013-03-15,7.65,7.8,7.55,7.64,0.005263,4319624.0,33092589.0,3381441820.0,3381441820.0,0.009759720591614379,94.71,2012-09-30 00:00:00,2012-10-27 00:00:00,12.42845952741179,0.16322290503530004,3.3541725758609426,1.511703607545981
sh600686,2013-03-14,7.54,7.75,7.54,7.6,0.006623,5569711.0,42607372.0,3363737940.0,3363737940.0,0.012584156184295378,94.21,2012-09-30 00:00:00,2012-10-27 00:00:00,12.36339100057576,0.162368360354753,3.336611986973501,1.503789165169693
sh600686,2013-03-13,8.0,8.01,7.48,7.55,-0.051508000000000005,8430583.0,64286444.0,3341608080.0,3341608080.0,0.019047985319092235,93.59,2012-09-30 00:00:00,2012-10-27 00:00:00,12.282047003273082,0.16130006999120125,3.3146590004137604,1.4938950979360623
sh600686,2013-03-12,8.33,8.38,7.94,7.96,-0.048984,2918212.0,23637498.0,3523072890.0,3523072890.0,0.006593382608101532,98.67,2012-09-30 00:00:00,2012-10-27 00:00:00,12.949025403770493,0.1700594944303181,3.494662053463562,1.575021294788003
sh600686,2013-03-11,8.5,8.53,8.18,8.37,-0.010638,3126138.0,26076954.0,3704537700.0,3704537700.0,0.00706316878891528,103.75,2012-09-30 00:00:00,2012-10-27 00:00:00,13.615991112421339,0.17881875218746904,3.674661681258319,1.656145947899933
sh600686,2013-03-08,8.56,8.78,8.34,8.46,-0.019699,3550605.0,30018073.0,3744371440.0,3744371440.0,0.00802220580445406,104.87,2012-09-30 00:00:00,2012-10-27 00:00:00,13.7623954754896,0.18074148005226506,3.714173054208995,1.6739534648591043
sh600686,2013-03-07,8.48,8.74,8.43,8.63,0.017689,5988136.0,51387365.0,3819612950.0,3819612950.0,0.013529541960527703,106.98,2012-09-30 00:00:00,2012-10-27 00:00:00,14.038948726451975,0.18437345269694214,3.788808798735281,1.7075913059959178
sh600686,2013-03-06,8.08,8.55,8.08,8.48,0.052109,8968666.0,75337671.0,3753223380.0,3753223380.0,0.020263725331477606,105.12,2012-09-30 00:00:00,2012-10-27 00:00:00,13.794930206037382,0.18116875852735181,3.7229534747209425,1.6779107428653723
sh600686,2013-03-05,7.9,8.07,7.81,8.06,0.017677000000000002,2472643.0,19767967.0,3567332600.0,3567332600.0,0.005586667915405477,99.91,2012-09-30 00:00:00,2012-10-27 00:00:00,13.11169299572324,0.1721958072094734,3.5385625203481226,1.5948069476312556
sh600686,2013-03-04,8.3,8.3,7.78,7.92,-0.05036,6137654.0,48806403.0,3505369010.0,3505369010.0,0.01386736162193663,98.18,2012-09-30 00:00:00,2012-10-27 00:00:00,12.88394352601389,0.1692047744121891,3.4770978614512487,1.5671052285069382
sh600686,2013-03-01,8.45,8.53,8.23,8.34,-0.013018,3856904.0,32200993.0,3691259790.0,3691259790.0,0.00871425507550093,103.38,2012-09-30 00:00:00,2012-10-27 00:00:00,13.567187066692528,0.17817780886671697,3.66149052425261,1.6502097937186073
sh600686,2013-02-28,8.39,8.53,8.26,8.45,0.009558,3469539.0,29180386.0,3739945470.0,3739945470.0,0.007839045992828338,104.75,2012-09-30 00:00:00,2012-10-27 00:00:00,13.746134242258243,0.1805279213468097,3.709784498858753,1.6719755717111426
sh600686,2013-02-27,8.3,8.45,8.18,8.37,0.00965,2319952.0,19222077.0,3704537700.0,3704537700.0,0.00524167920871746,103.75,2012-09-30 00:00:00,2012-10-27 00:00:00,13.615992585129577,0.17881877152853995,3.6746620787104387,1.6561461270289999
sh600686,2013-02-26,8.12,8.54,8.04,8.29,0.013447,5466756.0,45565798.0,3669129930.0,3669129930.0,0.01235154058444586,102.76,2012-09-30 00:00:00,2012-10-27 00:00:00,13.485854093130865,0.17710966327790814,3.639540512762283,1.6403170673292724
sh600686,2013-02-25,7.9,8.35,7.85,8.18,0.026349,9101662.0,73385646.0,3620444250.0,3620444250.0,0.020564215333518807,101.4,2012-09-30 00:00:00,2012-10-27 00:00:00,13.306915993762736,0.17475966999547893,3.5912489876256806,1.6185523932966128
sh600686,2013-02-22,8.21,8.32,7.9,7.97,-0.036275999999999996,7327980.0,59342282.0,3527498860.0,3527498860.0,0.01655677377029684,98.8,2012-09-30 00:00:00,2012-10-27 00:00:00,12.965293475964547,0.17027314295184087,3.499052454502007,1.577000019775547
sh600686,2013-02-21,8.8,8.8,8.15,8.27,-0.06448,9674699.0,81231281.0,3660277990.0,3660277990.0,0.02185893010000587,102.52,2012-09-30 00:00:00,2012-10-27 00:00:00,13.453326342359999,0.17668247646820134,3.630761975941252,1.6363606382901608
sh600686,2013-02-20,8.59,8.93,8.53,8.84,0.029104,3367789.0,29480042.0,3912558340.0,3912558340.0,0.007609152930867224,109.58,2012-09-30 00:00:00,2012-10-27 00:00:00,14.38058656400718,0.18886018093488255,3.8810094663302244,1.7491455428961011
sh600686,2013-02-19,8.99,8.99,8.51,8.59,-0.045556,7786896.0,67460499.0,3801909060.0,3801909060.0,0.0175936445570847,106.48,2012-09-30 00:00:00,2012-10-27 00:00:00,13.973890456170786,0.18351904271568525,3.7712509778702876,1.6996781111492145
sh600686,2013-02-18,9.14,9.3,8.95,9.0,-0.010989,5088896.0,46404406.0,3983373870.0,3983373870.0,0.011497807008509598,111.56,2012-09-30 00:00:00,2012-10-27 00:00:00,14.640869926544445,0.19227848120548222,3.951254319656562,1.780804438132792
sh600686,2013-02-08,8.6,9.17,8.6,9.1,0.049596,6287951.0,56496888.0,4027633580.0,4027633580.0,0.014206941362327205,112.8,2012-09-30 00:00:00,2012-10-27 00:00:00,14.803546094577761,0.19441490661426641,3.99515710103989,1.8005911341054774
sh600686,2013-02-07,8.6,9.0,8.56,8.67,-0.002301,7080378.0,61994129.0,3837316830.0,3837316830.0,0.015997343972246357,107.47,2012-09-30 00:00:00,2012-10-27 00:00:00,14.104042026244157,0.1852283227206148,3.806376073308101,1.7155087615668099
sh600686,2013-02-06,8.19,8.7,8.16,8.69,0.05205800000000001,5909986.0,50156432.0,3846168770.0,3846168770.0,0.013352970556203646,107.72,2012-09-30 00:00:00,2012-10-27 00:00:00,14.136570274445656,0.18565551606307593,3.8151547443749076,1.7194652511096131
sh600686,2013-02-05,8.22,8.39,8.09,8.26,-0.011962,6000195.0,49455504.0,3655852020.0,3655852020.0,0.013556787974147817,102.39,2012-09-30 00:00:00,2012-10-27 00:00:00,13.437063616688107,0.17646889816253092,3.6263730178135694,1.6343825636130453
sh600686,2013-02-04,7.91,8.4,7.87,8.36,0.047619,9900504.0,81271854.0,3700111730.0,3700111730.0,0.022369111929493004,103.63,2012-09-30 00:00:00,2012-10-27 00:00:00,13.599743751442865,0.1786053756662506,3.6702768697292707,1.6541697420676584
sh600686,2013-02-01,7.9,8.08,7.77,7.98,0.011406999999999999,6362798.0,50748578.0,3531924830.0,3531924830.0,0.014376050024824567,98.92,2012-09-30 00:00:00,2012-10-27 00:00:00,12.981574170994287,0.17048695724900997,3.503446262170952,1.5789802801091413
sh600686,2013-01-31,7.85,7.91,7.7,7.89,0.001269,3179765.0,24819846.0,3492091100.0,3492091100.0,0.007184333149269789,97.8,2012-09-30 00:00:00,2012-10-27 00:00:00,12.835163461390211,0.16856414603518663,3.463933176427444,1.5611719912054607
sh600686,2013-01-30,7.96,7.97,7.73,7.88,-0.003793,5006965.0,39233086.0,3487665120.0,3487665120.0,0.011312692831013547,97.68,2012-09-30 00:00:00,2012-10-27 00:00:00,12.818896282008343,0.16835050923896236,3.459543016339709,1.559193374812823
sh600686,2013-01-29,7.75,8.01,7.72,7.91,0.018018,7888946.0,62454008.0,3500943040.0,3500943040.0,0.01782421540340171,98.05,2012-09-30 00:00:00,2012-10-27 00:00:00,12.867703481312963,0.16899149397561186,3.4727150244273624,1.5651299125712057
sh600686,2013-01-28,7.49,7.88,7.4,7.77,0.025065999999999998,10860598.0,83733115.0,3438979440.0,3438979440.0,0.024538339915169717,96.32,2012-09-30 00:00:00,2012-10-27 00:00:00,12.639956740757984,0.1660004970203001,3.41125110207026,1.5374285254005386
sh600686,2013-01-25,7.65,8.12,7.32,7.58,0.0271,13975690.0,106878973.0,3354886000.0,3354886000.0,0.0315765513939967,93.96,2012-09-30 00:00:00,2012-10-27 00:00:00,12.330871125135342,0.1619412769717268,3.3278355755339266,1.499833694026081
sh600686,2013-01-24,7.54,7.79,7.3,7.38,-0.027668,7963251.0,59857080.0,3266366580.0,3266366580.0,0.01799209945994488,91.48,2012-09-30 00:00:00,2012-10-27 00:00:00,12.005521492683618,0.15766846166072127,3.2400307424144943,1.4602606309279342
sh600686,2013-01-23,7.61,7.77,7.5,7.59,0.0013189999999999999,6723346.0,51542647.0,3359311970.0,3359311970.0,0.015190668980946119,94.09,2012-09-30 00:00:00,2012-10-27 00:00:00,12.347142223729774,0.16215496523895262,3.332226793332416,1.5018127871220266
sh600686,2013-01-22,7.5,7.66,7.41,7.58,0.009321,7267431.0,54728193.0,3354886000.0,3354886000.0,0.01641996985292496,93.96,2012-09-30 00:00:00,2012-10-27 00:00:00,12.33087779591696,0.16194136457907282,3.3278373758336914,1.4998345054093916
sh600686,2013-01-21,7.01,7.52,6.98,7.51,0.069801,11332426.0,83153029.0,3323904200.0,3323904200.0,0.025604383922978285,93.09,2012-09-30 00:00:00,2012-10-27 00:00:00,12.21700310992931,0.16044584882220111,3.297105059573408,1.4859836517910474
sh600686,2013-01-18,6.82,7.04,6.77,7.02,0.038462,4756560.0,33088722.0,3107031620.0,3107031620.0,0.010746929958826746,87.02,2012-09-30 00:00:00,2012-10-27 00:00:00,11.419883800752954,0.14997728439420147,3.081979788365694,1.3890281012927146
sh600686,2013-01-17,6.8,6.84,6.69,6.76,-0.010249,2537295.0,17145519.0,2991956380.0,2991956380.0,0.0057327420662463,83.8,2012-09-30 00:00:00,2012-10-27 00:00:00,10.996920253945694,0.14442250596959874,2.9678310697605634,1.3375820215787526
sh600686,2013-01-16,6.96,7.0,6.7,6.83,-0.021490000000000002,3474608.0,23814340.0,3022938170.0,3022938170.0,0.007850498854232273,84.66,2012-09-30 00:00:00,2012-10-27 00:00:00,11.110794789745796,0.14591801975405805,2.998563345488474,1.351432856929422
sh600686,2013-01-15,6.93,7.03,6.88,6.98,0.007215000000000001,3838229.0,26748401.0,3089327740.0,3089327740.0,0.008672060938409856,86.52,2012-09-30 00:00:00,2012-10-27 00:00:00,11.354809649105064,0.14912266584302464,3.0644176814631163,1.3811129747569488
sh600686,2013-01-14,6.7,6.98,6.61,6.93,0.03125,5099181.0,34986864.0,3067197880.0,3067197880.0,0.011521044846966314,85.9,2012-09-30 00:00:00,2012-10-27 00:00:00,11.273471551858407,0.14805445296488304,3.042466287200962,1.3712196251614095
sh600686,2013-01-11,6.88,6.9,6.63,6.72,-0.026087,3572329.0,24105342.0,2974252490.0,2974252490.0,0.008071288823229664,83.3,2012-09-30 00:00:00,2012-10-27 00:00:00,10.93185120180209,0.1435679543901896,2.950270339103963,1.3296675153080333
sh600686,2013-01-10,6.86,6.91,6.76,6.9,0.002907,4692725.0,32112636.0,3053919970.0,3053919970.0,0.010602701713889379,85.53,2012-09-30 00:00:00,2012-10-27 00:00:00,11.224669145808805,0.1474135311780309,3.0292955727092283,1.3652836704182338
sh600686,2013-01-09,6.75,7.02,6.67,6.88,0.020772,6520386.0,44692189.0,3045068030.0,3045068030.0,0.014732102940898828,85.28,2012-09-30 00:00:00,2012-10-27 00:00:00,11.192133613394669,0.1469862421720368,3.0205149357908847,1.3613262948790206
sh600686,2013-01-08,6.55,6.82,6.55,6.74,0.021212,5071656.0,34202393.0,2983104430.0,2983104430.0,0.011458855109541036,83.55,2012-09-30 00:00:00,2012-10-27 00:00:00,10.964381481265814,0.14399517440920873,2.9590495583645366,1.3336242519181762
sh600686,2013-01-07,6.59,6.7,6.52,6.6,0.001517,3698880.0,24326240.0,2921140840.0,2921140840.0,0.00835721703853211,81.81,2012-09-30 00:00:00,2012-10-27 00:00:00,10.736635959297201,0.14100419345758639,2.8975859648775537,1.3059230129671178
sh600686,2013-01-04,6.81,6.84,6.52,6.59,-0.026588,4596462.0,30498006.0,2916714870.0,2916714870.0,0.01038520593547082,81.69,2012-09-30 00:00:00,2012-10-27 00:00:00,10.720373153223761,0.14079061409600274,2.893196985051231,1.303944928510567
