code,date,open,high,low,close,change,volume,money,traded_market_value,market_value,turnover,adjust_price,report_type,report_date,PE_TTM,PS_TTM,PC_TTM,PB
sz000815,2014-12-31,7.84,7.95,7.4,7.94,0.012754999999999999,6555091.0,50015344.39,2515293890.0,2515392000.0,0.02069238220906266,28.32,2014-09-30 00:00:00,2014-10-31 00:00:00,-4.710438725743085,4.070641619787272,-44.792282852743,58.55597421274647
sz000815,2014-12-30,8.19,8.19,7.84,7.84,-0.033292,3660469.0,29093592.58,2483615130.0,2483712000.0,0.011554961400158647,27.97,2014-09-30 00:00:00,2014-10-31 00:00:00,-4.651113769611687,4.01937449806446,-44.228152764235176,57.8184992547521
sz000815,2014-12-29,8.27,8.3,8.06,8.11,-0.019347,3709821.0,30123253.25,2569147790.0,2569248000.0,0.011710750322386084,28.93,2014-09-30 00:00:00,2014-10-31 00:00:00,-4.811291278867753,4.157795837072269,-45.751305217537436,59.8096832288055
sz000815,2014-12-26,8.3,8.35,8.16,8.27,-0.003614,2880888.0,23695522.39,2619833820.0,2619936000.0,0.009094066798481133,29.5,2014-09-30 00:00:00,2014-10-31 00:00:00,-4.906211757744843,4.239823706318413,-46.65391858031071,60.98964998710604
sz000815,2014-12-25,8.3,8.38,8.2,8.3,0.0,3207762.0,26550462.39,2629337450.0,2629440000.0,0.01012590628106712,29.61,2014-09-30 00:00:00,2014-10-31 00:00:00,-4.924007119474623,4.255202006369431,-46.823137398870216,61.21086605703616
sz000815,2014-12-24,8.11,8.33,8.1,8.3,0.025958,2544839.0,21013132.54,2629337450.0,2629440000.0,0.008033264691833299,29.61,2014-09-30 00:00:00,2014-10-31 00:00:00,-4.924007119474623,4.255202006369431,-46.823137398870216,61.21086605703616
sz000815,2014-12-23,8.0,8.23,7.88,8.09,0.012516,2806191.0,22743179.76,2562812040.0,2562912000.0,0.008858271631188372,28.86,2014-09-30 00:00:00,2014-10-31 00:00:00,-4.799423679599578,4.14754015892408,-45.638454399566285,59.662155816355224
sz000815,2014-12-22,8.42,8.46,7.99,7.99,-0.055555999999999994,6300346.0,51090989.42,2531133280.0,2531232000.0,0.01988823146444505,28.5,2014-09-30 00:00:00,2014-10-31 00:00:00,-4.740096630176292,4.096271228231535,-45.074304405625476,58.92465483642256
sz000815,2014-12-19,8.83,8.88,8.28,8.46,-0.040816000000000005,9766572.0,83069409.04,2680023470.0,2680128000.0,0.030830028186283012,30.18,2014-09-30 00:00:00,2014-10-31 00:00:00,-5.018928205564641,4.337230400353578,-47.725756535724166,62.390840363666406
sz000815,2014-12-18,8.9,9.09,8.65,8.82,-0.025414,7014011.0,62144216.9,2794067020.0,2794176000.0,0.0221410497948614,31.46,2014-09-30 00:00:00,2014-10-31 00:00:00,-5.232497837291532,4.521791856779906,-49.75662285413869,65.04574759761047
sz000815,2014-12-17,9.2,9.6,9.0,9.05,0.012304,10532076.0,97615580.99,2866928180.0,2867040000.0,0.03324648606997892,32.28,2014-09-30 00:00:00,2014-10-31 00:00:00,-5.368944184804144,4.639705327985326,-51.054112057980205,66.74192692857324
sz000815,2014-12-16,9.15,9.19,8.82,8.94,-0.019737,4933725.0,44207784.64,2832081540.0,2832192000.0,0.01557423431388914,31.89,2014-09-30 00:00:00,2014-10-31 00:00:00,-5.303687612420917,4.583312254011962,-50.43357732260289,65.93071540621516
sz000815,2014-12-15,9.05,9.38,9.01,9.12,0.013333000000000001,6524384.0,59567421.62,2889103310.0,2889216000.0,0.020595449762577028,32.53,2014-09-30 00:00:00,2014-10-31 00:00:00,-5.4104741405326084,4.675594461906613,-51.44902676384081,67.25819030833068
sz000815,2014-12-12,9.03,9.21,8.95,9.0,0.0,6485886.0,58754964.95,2851088800.0,2851200000.0,0.020473923505995327,32.1,2014-09-30 00:00:00,2014-10-31 00:00:00,-5.3392854476589715,4.614074999932512,-50.77208258671218,66.37323595336447
sz000815,2014-12-11,8.61,9.21,8.49,9.0,0.048951,8374554.0,75504837.19,2851088800.0,2851200000.0,0.026435860573686798,32.1,2014-09-30 00:00:00,2014-10-31 00:00:00,-5.3392854476589715,4.614074999932512,-50.77208258671218,66.37323595336447
sz000815,2014-12-10,8.3,8.6,8.2,8.58,0.043795999999999995,5021977.0,42126615.44,2718037990.0,2718144000.0,0.015852818400084248,30.61,2014-09-30 00:00:00,2014-10-31 00:00:00,-5.090119030973774,4.398751705210741,-48.402720991459255,63.27582122841245
sz000815,2014-12-09,8.85,8.85,8.2,8.22,-0.077441,9437043.0,80976167.22,2603994430.0,2604096000.0,0.02978980775316021,29.32,2014-09-30 00:00:00,2014-10-31 00:00:00,-4.876545829811356,4.214187164168805,-46.37182073073595,60.620869622428565
sz000815,2014-12-08,9.03,9.03,8.79,8.91,-0.017641,7383323.0,65756467.19,2822577910.0,2822688000.0,0.02330685282306344,31.78,2014-09-30 00:00:00,2014-10-31 00:00:00,-5.285890474009094,4.5679324185974055,-50.26434160930189,65.70947725015806
sz000815,2014-12-05,9.37,9.38,8.51,9.07,-0.036132,13906043.0,125074981.12,2873263930.0,2873376000.0,0.04389704986482046,32.35,2014-09-30 00:00:00,2014-10-31 00:00:00,-5.3808134032559325,4.649962405390907,-51.16697827301617,66.88947446927045
sz000815,2014-12-04,9.44,9.58,9.3,9.41,-0.0031780000000000003,9527867.0,89921358.92,2980971730.0,2981088000.0,0.030076510812801303,33.57,2014-09-30 00:00:00,2014-10-31 00:00:00,-5.582521053978276,4.82427303882991,-53.085047198388345,69.39692413200818
sz000815,2014-12-03,9.41,9.59,9.14,9.44,0.007470999999999999,12245301.0,114463357.48,2990475360.0,2990592000.0,0.03865460420981365,33.67,2014-09-30 00:00:00,2014-10-31 00:00:00,-5.600318867338678,4.839653457517902,-53.2542893298787,69.61817067842422
sz000815,2014-12-02,9.49,9.72,9.31,9.37,-0.003191,12613501.0,119320314.9,2968300220.0,2968416000.0,0.039816897082600354,33.42,2014-09-30 00:00:00,2014-10-31 00:00:00,-5.55878915357234,4.803764532694144,-52.859376924872976,69.10191030652418
sz000815,2014-12-01,9.9,10.57,9.4,9.4,-0.027920999999999998,15962903.0,158846433.23,2977803850.0,2977920000.0,0.05038991678380697,33.53,2014-09-30 00:00:00,2014-10-31 00:00:00,-5.576584033222352,4.81914241614406,-53.028591159262184,69.32312038366847
sz000815,2014-11-28,9.93,10.04,9.5,9.67,-0.028141000000000003,13040872.0,127338773.86,3063336520.0,3063456000.0,0.041165974229954994,34.49,2014-09-30 00:00:00,2014-10-31 00:00:00,-5.736760112318395,4.957562519243869,-54.551730012953875,71.31428657924765
sz000815,2014-11-27,9.16,10.07,9.12,9.95,0.08743200000000001,20263544.0,196241545.6,3152037060.0,3152160000.0,0.06396570184996492,35.49,2014-09-30 00:00:00,2014-10-31 00:00:00,-5.902872857398444,5.101112938444639,-56.131321532191265,73.37925211295841
sz000815,2014-11-26,9.1,9.34,9.1,9.15,0.0,8067145.0,74465955.36,2898606940.0,2898720000.0,0.02546546609386094,32.64,2014-09-30 00:00:00,2014-10-31 00:00:00,-5.428268487039598,4.6909718846278565,-51.61823592849141,67.47939375791627
sz000815,2014-11-25,8.91,9.24,8.86,9.15,0.026936,8304241.0,75834113.27,2898606940.0,2898720000.0,0.026213904376424357,32.64,2014-09-30 00:00:00,2014-10-31 00:00:00,-5.428268487039598,4.6909718846278565,-51.61823592849141,67.47939375791627
sz000815,2014-11-24,9.1,9.1,8.82,8.91,-0.00558,5961033.0,53079513.92,2822577910.0,2822688000.0,0.01881712594781839,31.78,2014-09-30 00:00:00,2014-10-31 00:00:00,-5.285887812911025,4.5679301189439805,-50.26431630451303,65.70944416975962
sz000815,2014-11-21,9.14,9.19,8.91,8.96,-0.019694,6473847.0,58232681.89,2838417290.0,2838528000.0,0.02043592016028059,31.96,2014-09-30 00:00:00,2014-10-31 00:00:00,-5.315548573953688,4.593562195997648,-50.54636502133207,66.07816030425738
sz000815,2014-11-20,8.66,9.14,8.63,9.14,0.059096,9794694.0,87542362.37,2895439070.0,2895552000.0,0.030918800567265953,32.6,2014-09-30 00:00:00,2014-10-31 00:00:00,-5.422336060325742,4.685845231996588,-51.561823574814454,67.4056471186113
sz000815,2014-11-19,8.49,8.64,8.47,8.63,0.010539,4518992.0,38679828.23,2733877370.0,2733984000.0,0.014265051310622612,30.79,2014-09-30 00:00:00,2014-10-31 00:00:00,-5.119777678629457,4.424381955929007,-48.684749611758015,63.644511091167665
sz000815,2014-11-18,8.56,8.67,8.48,8.54,-0.002336,3234987.0,27734375.19,2705366480.0,2705472000.0,0.010211847150556844,30.46,2014-09-30 00:00:00,2014-10-31 00:00:00,-5.06638306748127,4.378239687858664,-48.1770120814318,62.98075689425905
sz000815,2014-11-17,8.44,8.72,8.36,8.56,0.005875,5272590.0,45170006.17,2711702230.0,2711808000.0,0.016643925686486604,30.54,2014-09-30 00:00:00,2014-10-31 00:00:00,-5.078245849786371,4.388491203309595,-48.28981709416376,63.1282244265194
sz000815,2014-11-14,8.5,8.65,8.26,8.51,-0.005841,7266767.0,61631578.51,2695862850.0,2695968000.0,0.022938921826086218,30.36,2014-09-30 00:00:00,2014-10-31 00:00:00,-5.048585410499686,4.362859404309279,-48.00777143697156,62.75951229180505
sz000815,2014-11-13,9.01,9.05,8.55,8.56,-0.045708,8602258.0,75223064.44,2711702230.0,2711808000.0,0.027154651298125755,30.54,2014-09-30 00:00:00,2014-10-31 00:00:00,-5.078247453877785,4.388492589524692,-48.28983234771455,63.128244367153584
sz000815,2014-11-12,9.25,9.25,8.83,8.97,-0.025,9729637.0,87393058.89,2841585170.0,2841696000.0,0.030713435870725635,32.0,2014-09-30 00:00:00,2014-10-31 00:00:00,-5.3214817413095625,4.598689488672955,-50.60278441788734,66.15191615056354
sz000815,2014-11-11,9.0,9.67,8.95,9.2,0.017699,15250738.0,142577276.61,2914446320.0,2914560000.0,0.04814183354044414,32.82,2014-09-30 00:00:00,2014-10-31 00:00:00,-5.457929991086732,4.716604603767134,-51.90029171065369,67.84811912878313
sz000815,2014-11-10,8.86,9.19,8.72,9.04,0.024943,9170657.0,82751815.47,2852912300.0,2863872000.0,0.029058986243636016,32.25,2014-09-30 00:00:00,2014-10-31 00:00:00,-5.363010075755927,4.634577221523391,-50.9976837067283,66.66815937598753
sz000815,2014-11-07,9.1,9.16,8.72,8.82,-0.032895,11389904.0,102114806.79,2783483020.0,2794176000.0,0.036091096140403255,31.46,2014-09-30 00:00:00,2014-10-31 00:00:00,-5.232495929779439,4.521790208356359,-49.75660471531423,65.04572388512096
sz000815,2014-11-06,8.68,9.29,8.64,9.12,0.044674,21461237.0,193556142.98,2878065410.0,2889216000.0,0.06800626586176163,32.53,2014-09-30 00:00:00,2014-10-31 00:00:00,-5.410473454050428,4.675593868666131,-51.44902023597668,67.25818177459631
sz000815,2014-11-05,8.31,8.85,8.21,8.73,0.044258,15986275.0,136662113.2,2754990250.0,2765664000.0,0.050657232180767245,31.14,2014-09-30 00:00:00,2014-10-31 00:00:00,-5.179102240555837,4.475648736989847,-49.24887595170999,64.38198114875675
sz000815,2014-11-04,8.41,8.47,8.25,8.36,-0.005945000000000001,6475949.0,54022685.59,2638226630.0,2648448000.0,0.020520956397138634,29.82,2014-09-30 00:00:00,2014-10-31 00:00:00,-4.959600252577273,4.285960688823881,-47.1615979496542,61.653328151430735
sz000815,2014-11-03,8.2,8.45,8.17,8.41,0.024361,9296639.0,77438157.61,2654005500.0,2664288000.0,0.02945914542754339,30.0,2014-09-30 00:00:00,2014-10-31 00:00:00,-4.989261411669648,4.3115931098620095,-47.44365045158889,62.02204923412761
sz000815,2014-10-31,8.26,8.35,8.12,8.21,-0.004848,6611939.0,54414227.51,2590890030.0,2600928000.0,0.020951880844591465,29.29,2014-09-30 00:00:00,2014-10-31 00:00:00,-4.87060851757305,4.209056289591276,-46.31536191985919,60.54706225063977
sz000815,2014-10-30,8.5,8.5,8.22,8.25,-0.02019,8306660.0,69108288.57,2603513120.0,2613600000.0,0.026322104725940463,29.43,2014-06-30 00:00:00,2014-08-30 00:00:00,-8.944843321929156,4.3269514231627,-16.54558231907012,8.025377574374946
sz000815,2014-10-29,8.26,8.5,8.26,8.42,0.015681999999999998,12169141.0,102006347.45,2657161270.0,2667456000.0,0.03856151614764429,30.04,2014-06-30 00:00:00,2014-08-30 00:00:00,-9.12916108421955,4.416112739370592,-16.886521181729236,8.19074879249543
sz000815,2014-10-28,8.02,8.36,8.02,8.29,0.037547000000000004,10962330.0,90178190.11,2616136210.0,2626272000.0,0.034737379251365504,29.57,2014-06-30 00:00:00,2014-08-30 00:00:00,-8.988208006265298,4.347928524253253,-16.62579545736681,8.064284680141451
sz000815,2014-10-27,7.98,8.12,7.82,7.99,-0.009913,5995095.0,47960273.78,2521463010.0,2531232000.0,0.018997228537570337,28.5,2014-06-30 00:00:00,2014-08-30 00:00:00,-8.662940576441644,4.190584642674744,-16.024137178717503,7.7724524095211605
sz000815,2014-10-24,8.16,8.37,8.04,8.07,-0.011029,6657178.0,54580469.03,2546709200.0,2556576000.0,0.021095233982741338,28.79,2014-06-30 00:00:00,2014-08-30 00:00:00,-8.749676115777342,4.232541829833886,-16.184574869397842,7.850272157417641
sz000815,2014-10-23,8.0,8.42,7.92,8.16,0.013665,10439204.0,85813169.06,2575111160.0,2585088000.0,0.033079700000212806,29.11,2014-06-30 00:00:00,2014-08-30 00:00:00,-8.847252463193907,4.279743116667613,-16.365065173192985,7.9378183560667
sz000815,2014-10-22,8.12,8.25,8.04,8.05,-0.008621,5584379.0,45354499.15,2540397650.0,2550240000.0,0.017695753635262573,28.72,2014-06-30 00:00:00,2014-08-30 00:00:00,-8.727984554259946,4.222048819548483,-16.14445124690404,7.830810332868057
sz000815,2014-10-21,8.09,8.38,8.08,8.12,-0.0036810000000000002,8873835.0,73158501.71,2562488070.0,2572416000.0,0.028119366112795207,28.97,2014-06-30 00:00:00,2014-08-30 00:00:00,-8.803882828121179,4.258763620722734,-16.28484287734967,7.898906808463824
sz000815,2014-10-20,8.03,8.21,7.81,8.15,0.009913,9567854.0,76885555.4,2571955390.0,2581920000.0,0.030318570222168592,29.07,2014-06-30 00:00:00,2014-08-30 00:00:00,-8.836409652050376,4.27449804803756,-16.345008854944723,7.928090108151931
sz000815,2014-10-17,8.56,8.58,7.9,8.07,-0.057242999999999995,18336484.0,150269082.52,2546709200.0,2556576000.0,0.05810456328504252,28.79,2014-06-30 00:00:00,2014-08-30 00:00:00,-8.74967413237613,4.23254087038939,-16.18457120063285,7.850270377895849
sz000815,2014-10-16,8.55,8.78,8.33,8.56,0.0,20150243.0,172976741.17,2701342100.0,2711808000.0,0.06385199419207216,30.54,2014-06-30 00:00:00,2014-08-30 00:00:00,-9.280943161786261,4.4895353419697654,-17.167277676678985,8.326928760959452
sz000815,2014-10-15,8.41,8.73,8.18,8.56,0.00117,25127239.0,213946674.16,2701342100.0,2711808000.0,0.07962307544831143,30.54,2014-06-30 00:00:00,2014-08-30 00:00:00,-9.280943161786261,4.4895353419697654,-17.167277676678985,8.326928760959452
sz000815,2014-10-14,8.79,8.93,8.42,8.55,-0.066594,46156379.0,403115702.29,2698186330.0,2708640000.0,0.14626011408559766,30.5,2014-06-30 00:00:00,2014-08-30 00:00:00,-9.270097148122959,4.484288724162496,-17.14721543462048,8.317197639720979
sz000815,2014-10-13,9.16,9.16,8.5,9.16,0.09963999999999999,88783637.0,796896464.22,2890688510.0,2901888000.0,0.2813371665977252,32.68,2014-06-30 00:00:00,2014-08-30 00:00:00,-9.931473708250172,4.804221018680506,-18.370586255734892,8.910589432380958
sz000815,2014-10-10,8.33,8.33,8.33,8.33,0.100396,1146487.0,9550236.71,2628759310.0,2638944000.0,0.003632982553279098,29.71,2014-06-30 00:00:00,2014-08-30 00:00:00,-9.03156824801769,4.368903476301795,-16.70600037806454,8.103187799989959
sz000815,2014-10-09,7.57,7.57,7.57,7.57,0.10029099999999999,2171169.0,16435749.33,2388920520.0,2398176000.0,0.006879990017415899,27.0,2014-06-30 00:00:00,2014-08-30 00:00:00,-8.207561866834931,3.9703011245967774,-15.181807620224486,7.363883365615614
sz000815,2014-10-08,6.88,6.88,6.88,6.88,0.1008,2318799.0,15953337.12,2171172150.0,2179584000.0,0.007347799261334482,24.54,2014-06-30 00:00:00,2014-08-30 00:00:00,-7.459446516271542,3.608410070242125,-13.797993094758102,6.692668908148494
sz000815,2014-09-30,6.25,6.25,6.25,6.25,0.100352,267403.0,1671268.75,1972358430.0,1980000000.0,0.0008473453529437851,22.3,2014-06-30 00:00:00,2014-08-30 00:00:00,-6.776386733531561,3.2779887992751866,-12.534514075906708,6.079822772663967
sz000815,2014-09-29,5.68,5.68,5.68,5.68,0.100775,150098.0,852556.64,1792479340.0,1799424000.0,0.00047562982790083365,20.26,2014-06-30 00:00:00,2014-08-30 00:00:00,-6.158380894051686,2.9790365258346294,-11.391367558660052,5.525343501592187
sz000815,2014-09-26,5.16,5.16,5.16,5.16,0.100213,262074.0,1352301.84,1628379120.0,1634688000.0,0.0008304588430242216,18.41,2014-06-30 00:00:00,2014-08-30 00:00:00,-5.594586445051609,2.706308306270245,-10.348497702673164,5.019503078823726
sz000815,2014-06-26,4.5,4.72,4.5,4.69,0.03532,7353947.0,34281654.01,1480069830.0,1485792000.0,0.023302962286583465,16.73,2014-03-31 00:00:00,2014-04-26 00:00:00,-5.671675348991447,2.6334907524344175,-12.28284206593414,3.73517265577544
sz000815,2014-06-25,4.48,4.57,4.45,4.53,0.006667,1629177.0,7364579.73,1429577050.0,1435104000.0,0.0051624862122681674,16.16,2014-03-31 00:00:00,2014-04-26 00:00:00,-5.478185825630188,2.5436490673747416,-11.863812218380925,3.6077470306527837
sz000815,2014-06-24,4.38,4.55,4.34,4.5,0.025057,5794305.0,26034369.32,1420109650.0,1425600000.0,0.01836081636372234,16.05,2014-03-31 00:00:00,2014-04-26 00:00:00,-5.44190464734633,2.526802872622964,-11.785240023146608,3.583853479504924
sz000815,2014-06-23,4.39,4.46,4.37,4.39,-0.004535,1156250.0,5089229.14,1385395860.0,1390752000.0,0.003663889612027569,15.66,2014-03-31 00:00:00,2014-04-26 00:00:00,-5.3088800401795515,2.4650364541903174,-11.49715579050395,3.496247993531018
sz000815,2014-06-20,4.38,4.5,4.34,4.41,0.011468,2049397.0,9110226.29,1391707460.0,1397088000.0,0.006494066482908701,15.73,2014-03-31 00:00:00,2014-04-26 00:00:00,-5.333065492186617,2.476266321960408,-11.54953292230661,3.51217571037758
sz000815,2014-06-19,4.59,4.59,4.25,4.36,-0.050109,2453263.0,10883026.99,1375928460.0,1381248000.0,0.007773824723416217,15.55,2014-03-31 00:00:00,2014-04-26 00:00:00,-5.272599323148747,2.448190473609059,-11.418584594180547,3.472354746148746
sz000815,2014-06-18,4.58,4.64,4.55,4.59,-0.006494,1194999.0,5469420.42,1448511840.0,1454112000.0,0.003786676269073506,16.37,2014-03-31 00:00:00,2014-04-26 00:00:00,-5.5507414252253655,2.5773383194588213,-12.020941975637783,3.655529683035997
sz000815,2014-06-17,4.58,4.65,4.55,4.62,0.008734,1767292.0,8139714.61,1457979240.0,1463616000.0,0.005600140808589292,16.48,2014-03-31 00:00:00,2014-04-26 00:00:00,-5.587023556199323,2.5941849565667656,-12.099516234061777,3.6794238615931825
sz000815,2014-06-16,4.56,4.64,4.55,4.58,-0.002179,1794999.0,8219709.27,1445356040.0,1450944000.0,0.005687937914591618,16.34,2014-03-31 00:00:00,2014-04-26 00:00:00,-5.5386489958694,2.57172352331414,-11.994754052170125,3.6475660199747235
sz000815,2014-06-13,4.54,4.62,4.52,4.59,0.013244999999999998,1582049.0,7236279.37,1448511840.0,1454112000.0,0.005013148466912082,16.37,2014-03-31 00:00:00,2014-04-26 00:00:00,-5.550744067191811,2.5773395461852777,-12.020947697202327,3.6555314229453213
sz000815,2014-06-12,4.53,4.59,4.52,4.53,-0.002203,2412989.0,10970896.63,1429577050.0,1435104000.0,0.007646205687199582,16.16,2014-03-31 00:00:00,2014-04-26 00:00:00,-5.478185500241117,2.5436489162890292,-11.863811513703327,3.607746816362598
sz000815,2014-06-11,4.54,4.66,4.53,4.54,-0.004386,2032189.0,9301604.02,1432732850.0,1438272000.0,0.006439538299132319,16.2,2014-03-31 00:00:00,2014-04-26 00:00:00,-5.4902805883773125,2.549264946967198,-11.89000519514824,3.6157122304061833
sz000815,2014-06-10,4.6,4.68,4.55,4.56,-0.008695999999999999,3364867.0,15423301.47,1439044440.0,1444608000.0,0.010662487615740344,16.27,2014-03-31 00:00:00,2014-04-26 00:00:00,-5.514467040818341,2.5604952792620415,-11.942384493536892,3.631640606104558
sz000815,2014-06-09,4.57,4.7,4.55,4.6,0.0065650000000000005,7177807.0,33414556.68,1451667640.0,1457280000.0,0.022744815197506228,16.41,2014-03-31 00:00:00,2014-04-26 00:00:00,-5.562841510594471,2.582956670468435,-12.047146479321068,3.6634983880873655
sz000815,2014-06-06,4.51,4.7,4.48,4.57,0.011062,9237679.0,42666311.87,1442200240.0,1447776000.0,0.029272074611497778,16.3,2014-03-31 00:00:00,2014-04-26 00:00:00,-5.526559646515099,2.566110157285853,-11.96857279889631,3.6396043852978845
sz000815,2014-06-05,4.44,4.56,4.37,4.52,0.018018,5985422.0,26804839.58,1426421250.0,1431936000.0,0.01896642204397894,16.12,2014-03-31 00:00:00,2014-04-26 00:00:00,-5.4660937178087,2.538034420525995,-11.837624991243183,3.599783579343191
sz000815,2014-06-04,4.41,4.47,4.3,4.44,0.009091,3865852.0,16964092.63,1401174850.0,1406592000.0,0.012249993553623948,15.84,2014-03-31 00:00:00,2014-04-26 00:00:00,-5.369348791287285,2.493113501456747,-11.628109710479755,3.5360706582233226
sz000815,2014-06-03,4.38,4.42,4.35,4.4,0.011493999999999999,1300008.0,5700372.22,1388551660.0,1393920000.0,0.004119425560299284,15.7,2014-03-31 00:00:00,2014-04-26 00:00:00,-5.320975800286877,2.4706527968803083,-11.523350927200577,3.5042138501119555
sz000815,2014-05-30,4.35,4.36,4.29,4.35,-0.002294,1756201.0,7600290.74,1372772660.0,1378080000.0,0.005564995991397439,15.52,2014-03-31 00:00:00,2014-04-26 00:00:00,-5.26051148132058,2.442577807560212,-11.392406605674951,3.464394104277392
sz000815,2014-05-29,4.37,4.39,4.34,4.36,-0.002288,1453628.0,6335170.78,1375928460.0,1381248000.0,0.004606211924710098,15.55,2014-03-31 00:00:00,2014-04-26 00:00:00,-5.2726068414147855,2.4481939645148088,-11.418600876084689,3.4723596974232804
sz000815,2014-05-28,4.42,4.44,4.35,4.37,-0.011312000000000001,1250802.0,5476440.6,1379084260.0,1384416000.0,0.003963503100238414,15.59,2014-03-31 00:00:00,2014-04-26 00:00:00,-5.284698230967238,2.4538082778545394,-11.444786547705839,3.480322675705294
sz000815,2014-05-27,4.41,4.48,4.39,4.42,0.002268,1487241.0,6572459.69,1394863260.0,1400256000.0,0.004712723754728474,15.77,2014-03-31 00:00:00,2014-04-26 00:00:00,-5.345162711560409,2.481883342221752,-11.575731219258087,3.5201425279818244
sz000815,2014-05-26,4.35,4.41,4.32,4.41,0.013793000000000001,1802545.0,7891678.52,1391707460.0,1397088000.0,0.005711849421285707,15.73,2014-03-31 00:00:00,2014-04-26 00:00:00,-5.333067314890238,2.4762671682840836,-11.549536869637747,3.5121769107482472
sz000815,2014-05-23,4.31,4.37,4.27,4.35,0.0,1971291.0,8528033.66,1372772660.0,1378080000.0,0.006246566601931013,15.52,2014-03-31 00:00:00,2014-04-26 00:00:00,-5.2605091126987835,2.4425767077540326,-11.392401476078202,3.4643925443835646
sz000815,2014-05-22,4.46,4.48,4.3,4.35,-0.024664,5034817.0,22001335.1,1372772660.0,1378080000.0,0.015954174050931344,15.52,2014-03-31 00:00:00,2014-04-26 00:00:00,-5.2605091126987835,2.4425767077540326,-11.392401476078202,3.4643925443835646
sz000815,2014-05-21,4.42,4.48,4.38,4.46,0.00905,2267374.0,10064696.08,1407486450.0,1412928000.0,0.007184785359745381,15.91,2014-03-31 00:00:00,2014-04-26 00:00:00,-5.393535266512036,2.5043438443306023,-11.68048905820989,3.5519990489262825
sz000815,2014-05-20,4.38,4.46,4.34,4.42,0.013761,3920394.0,17248404.9,1394863260.0,1400256000.0,0.012422824499657408,15.77,2014-03-31 00:00:00,2014-04-26 00:00:00,-5.345161554444315,2.4818828049458426,-11.575728713354035,3.520141765944485
sz000815,2014-05-19,4.34,4.38,4.3,4.36,0.002299,2076107.0,8994454.22,1375928460.0,1381248000.0,0.006578704331764459,15.55,2014-03-31 00:00:00,2014-04-26 00:00:00,-5.272605233821697,2.448193218071955,-11.418597394606854,3.4723586387171
sz000815,2014-05-16,4.27,4.37,4.27,4.35,0.013986000000000002,1893993.0,8182431.36,1372772660.0,1378080000.0,0.006001627064746466,15.52,2014-03-31 00:00:00,2014-04-26 00:00:00,-5.260511318300922,2.4425777318663937,-11.392406252632052,3.4643939969181843
sz000815,2014-05-15,4.29,4.33,4.27,4.29,-0.00464,1914243.0,8207633.04,1353837870.0,1359072000.0,0.006065794621330839,15.3,2014-03-31 00:00:00,2014-04-26 00:00:00,-5.187952613054739,2.4088870377563336,-11.235269769633952,3.416609299258752
sz000815,2014-05-14,4.35,4.35,4.3,4.31,-0.009195,2553485.0,11024317.21,1360149460.0,1365408000.0,0.008091405153371894,15.37,2014-03-31 00:00:00,2014-04-26 00:00:00,-5.212136928402526,2.420116377749089,-11.287644439834782,3.4325362675401374
sz000815,2014-05-13,4.38,4.43,4.32,4.35,-0.006848999999999999,4240030.0,18417260.27,1372772660.0,1378080000.0,0.013435677324750915,15.52,2014-03-31 00:00:00,2014-04-26 00:00:00,-5.2605072929613055,2.4425758628076055,-11.392397535170678,3.464391345966298
sz000815,2014-05-12,4.25,4.39,4.25,4.38,0.023364,7282017.0,31532538.12,1382240060.0,1387584000.0,0.02307503261047144,15.62,2014-03-31 00:00:00,2014-04-26 00:00:00,-5.296784973243047,2.459420433355658,-11.470962154970067,3.4882825934488286
sz000815,2014-05-09,4.22,4.28,4.15,4.28,0.009434,3094908.0,13055013.92,1350682070.0,1355904000.0,0.00980704973747079,15.27,2014-03-31 00:00:00,2014-04-26 00:00:00,-5.175856267411251,2.403270423188287,-11.209073364873172,3.4086430570635953
sz000815,2014-05-08,4.26,4.32,4.19,4.24,-0.009346,3943680.0,16783147.04,1338058870.0,1343232000.0,0.012496612499568125,15.12,2014-03-31 00:00:00,2014-04-26 00:00:00,-5.127483587249142,2.380809862941299,-11.104315254759769,3.376786453659769
sz000815,2014-05-07,4.22,4.32,4.18,4.28,0.014218000000000001,5244222.0,22262205.17,1350682070.0,1355904000.0,0.01661773015170032,15.27,2014-03-31 00:00:00,2014-04-26 00:00:00,-5.175857148155807,2.4032708321384653,-11.209075272254259,3.4086436370920317
sz000815,2014-05-06,4.25,4.35,4.21,4.22,-0.004717,10620605.0,45574491.73,1331747270.0,1336896000.0,0.033654248151753295,15.05,2014-03-31 00:00:00,2014-04-26 00:00:00,-5.103298450782581,2.3695801416840023,-11.051938806306197,3.3608589446174606
sz000815,2014-05-05,4.14,4.3,4.1,4.24,0.014353999999999999,6247776.0,26296309.54,1338058870.0,1343232000.0,0.019797761394459424,15.12,2014-03-31 00:00:00,2014-04-26 00:00:00,-5.127484796567992,2.380810424456162,-11.104317873716518,3.3767872500760694
sz000815,2014-04-30,4.08,4.21,4.04,4.18,0.02451,4389173.0,18163433.77,1319124070.0,1324224000.0,0.013908277134234991,14.91,2014-03-31 00:00:00,2014-04-26 00:00:00,-5.05492638326264,2.347119865901019,-10.947182022958966,3.329002744678948
sz000815,2014-04-29,3.99,4.1,3.95,4.08,0.02,3197900.0,12935092.57,1287566080.0,1292544000.0,0.010133407677219954,14.55,2014-03-31 00:00:00,2014-04-26 00:00:00,-4.933994185769431,2.2909682344740596,-10.685285671158862,3.249360908804158
sz000815,2014-04-28,4.0,4.05,3.93,4.0,-0.014778,3579210.0,14284126.93,1262319690.0,1267200000.0,0.011341691105206478,14.27,2014-03-31 00:00:00,2014-04-26 00:00:00,-4.837249201734736,2.2460472887000584,-10.475770265842021,3.185647949807998
sz000815,2014-04-25,4.1,4.14,4.04,4.06,-0.019324,5044901.0,20619101.04,1281254480.0,1286208000.0,0.01598612795484625,14.48,2013-09-30 00:00:00,2013-10-31 00:00:00,-60.538570228989464,1.215451249830385,-5.697856735237818,2.3088532801240964
sz000815,2014-04-24,3.96,4.23,3.95,4.14,0.045455,12294610.0,50606375.46,1306500880.0,1311552000.0,0.038958783862434135,14.77,2013-09-30 00:00:00,2013-10-31 00:00:00,-61.731469138624234,1.2394014433211225,-5.810131720606824,2.354348714686702
sz000815,2014-04-23,3.91,3.98,3.9,3.96,0.010204000000000001,1679758.0,6623691.39,1249696490.0,1254528000.0,0.005322765754107223,14.13,2013-09-30 00:00:00,2013-10-31 00:00:00,-59.04746654674207,1.1855139086054611,-5.557514881660927,2.2519847479678248
sz000815,2014-04-22,3.95,3.97,3.87,3.92,-0.007595,1960104.0,7674468.13,1237073290.0,1241856000.0,0.0062111175967593645,13.98,2013-09-30 00:00:00,2013-10-31 00:00:00,-58.4510322140301,1.1735391154711927,-5.501378812260618,2.229237607421693
sz000815,2014-04-21,4.04,4.04,3.95,3.95,-0.024691,2766051.0,11081512.0,1246540690.0,1251360000.0,0.008764977780227938,14.09,2013-09-30 00:00:00,2013-10-31 00:00:00,-58.898365298472,1.1825203575870666,-5.5434815546683245,2.246298242574043
sz000815,2014-04-18,4.04,4.05,4.0,4.05,0.0,1773353.0,7133156.78,1278098680.0,1283040000.0,0.005619346739330018,14.45,2013-09-30 00:00:00,2013-10-31 00:00:00,-60.38944098585371,1.212457136750575,-5.683820773383947,2.303165707046734
sz000815,2014-04-17,4.04,4.07,4.03,4.05,0.002475,2103029.0,8517836.18,1278098680.0,1283040000.0,0.006664013963303678,14.45,2013-09-30 00:00:00,2013-10-31 00:00:00,-60.38944098585371,1.212457136750575,-5.683820773383947,2.303165707046734
sz000815,2014-04-16,4.03,4.06,4.02,4.04,-0.004926,1959800.0,7912307.35,1274942880.0,1279872000.0,0.006210154293343715,14.41,2013-09-30 00:00:00,2013-10-31 00:00:00,-60.24034612918398,1.209463714058281,-5.669788047965234,2.2974794454193215
sz000815,2014-04-15,4.02,4.07,3.99,4.06,0.0,4089514.0,16499364.32,1281254480.0,1286208000.0,0.01295872685651019,14.48,2013-09-30 00:00:00,2013-10-31 00:00:00,-60.538559071168564,1.2154510258114282,-5.6978556850698885,2.308852854580987
sz000815,2014-04-14,4.03,4.09,4.02,4.06,0.0,2653499.0,10741989.98,1281254480.0,1286208000.0,0.00840832645517852,14.48,2013-09-30 00:00:00,2013-10-31 00:00:00,-60.538559071168564,1.2154510258114282,-5.6978556850698885,2.308852854580987
sz000815,2014-04-11,4.06,4.07,4.0,4.06,-0.002457,2209823.0,8901868.16,1281254480.0,1286208000.0,0.007002419519344821,14.48,2013-09-30 00:00:00,2013-10-31 00:00:00,-60.538559071168564,1.2154510258114282,-5.6978556850698885,2.308852854580987
sz000815,2014-04-10,4.09,4.12,4.05,4.07,-0.007317000000000001,3570374.0,14535161.59,1284410280.0,1289376000.0,0.011313691899133664,14.52,2013-09-30 00:00:00,2013-10-31 00:00:00,-60.687668673098365,1.2184447445487845,-5.7118897983043215,2.314539678571237
sz000815,2014-04-09,4.02,4.13,4.0,4.1,0.022444,4171257.0,16926629.83,1293877680.0,1298880000.0,0.013217751542015932,14.63,2013-09-30 00:00:00,2013-10-31 00:00:00,-61.13499341995215,1.2274258192683711,-5.753991755982849,2.331599995740067
sz000815,2014-04-08,3.97,4.03,3.96,4.01,0.005013,1900625.0,7609497.4,1265475490.0,1270368000.0,0.006022642327114529,14.3,2013-09-30 00:00:00,2013-10-31 00:00:00,-59.792999342704505,1.2004821968424397,-5.627684015929332,2.280418287691128
sz000815,2014-04-04,3.95,3.99,3.93,3.99,0.002513,1942799.0,7699199.01,1259163890.0,1264032000.0,0.0061562820150441264,14.23,2013-09-30 00:00:00,2013-10-31 00:00:00,-59.49475215017568,1.1944941974307195,-5.599613155182403,2.2690435722633713
sz000815,2014-04-03,3.93,4.07,3.93,3.98,0.010152,3796997.0,15109070.75,1256008090.0,1260864000.0,0.012031807900218221,14.2,2013-09-30 00:00:00,2013-10-31 00:00:00,-59.34561661562062,1.1914999580361745,-5.585576601183628,2.2633557592404
sz000815,2014-04-02,3.94,3.95,3.9,3.94,0.005102000000000001,1820307.0,7148092.34,1243384890.0,1248192000.0,0.005768133132130952,14.05,2013-09-30 00:00:00,2013-10-31 00:00:00,-58.74919479011141,1.1795254160128126,-5.529441708954324,2.2406090957008455
sz000815,2014-04-01,3.87,3.93,3.86,3.92,0.018182,3020872.0,11797116.47,1237073290.0,1241856000.0,0.009572446786883581,13.98,2013-09-30 00:00:00,2013-10-31 00:00:00,-58.45097790086122,1.1735380250092153,-5.501373700335213,2.229235535996193
sz000815,2014-03-31,3.97,3.97,3.84,3.85,-0.035088,4609267.0,18005638.27,1214982700.0,1219680000.0,0.014605704221138294,13.73,2013-09-30 00:00:00,2013-10-31 00:00:00,-57.4072001870601,1.1525817830301612,-5.403133919412457,2.1894273675985167
sz000815,2014-03-28,4.08,4.14,3.97,3.99,-0.012376,4026352.0,16343827.46,1259163890.0,1264032000.0,0.012758580997744465,14.23,2013-09-30 00:00:00,2013-10-31 00:00:00,-59.49475204688106,1.194494195356842,-5.59961314546037,2.2690435683238643
sz000815,2014-03-27,4.06,4.08,4.03,4.04,-0.007370999999999999,2314903.0,9383899.53,1274942880.0,1279872000.0,0.0073353938177999,14.41,2013-09-30 00:00:00,2013-10-31 00:00:00,-60.24028582424188,1.209462503297654,-5.6697823720974485,2.2974771454762792
sz000815,2014-03-26,4.05,4.08,4.03,4.07,0.0049380000000000005,2502230.0,10138303.5,1284410280.0,1289376000.0,0.007928989870744417,14.52,2013-09-30 00:00:00,2013-10-31 00:00:00,-60.687614228721785,1.2184436514525103,-5.711884674029721,2.3145376021416655
sz000815,2014-03-25,4.05,4.07,4.02,4.05,0.002475,3593300.0,14541438.06,1278098680.0,1283040000.0,0.011386339120544276,14.45,2013-09-30 00:00:00,2013-10-31 00:00:00,-60.38941131564513,1.2124565410527917,-5.683817980840331,2.303164575468004
sz000815,2014-03-24,4.04,4.06,3.99,4.04,0.0024809999999999997,3666204.0,14755163.15,1274942880.0,1279872000.0,0.011617355092802276,14.41,2013-09-30 00:00:00,2013-10-31 00:00:00,-60.24031653222786,1.2094631198312091,-5.669785262316099,2.2974783166343338
sz000815,2014-03-21,3.95,4.04,3.88,4.03,0.017677000000000002,4565881.0,18111099.72,1271787090.0,1276704000.0,0.01446822394619527,14.38,2013-09-30 00:00:00,2013-10-31 00:00:00,-60.09123019012616,1.2064698680884818,-5.655753338283818,2.291792379740199
sz000815,2014-03-20,3.95,4.11,3.93,3.96,0.0,6514748.0,26198813.9,1249696490.0,1254528000.0,0.0206437341277961,14.13,2013-09-30 00:00:00,2013-10-31 00:00:00,-59.04744844398189,1.18551354515085,-5.557513177839154,2.2519840575548025
sz000815,2014-03-19,3.96,3.97,3.91,3.96,-0.005025,2984762.0,11761291.94,1249696490.0,1254528000.0,0.009458022499527066,14.13,2013-09-30 00:00:00,2013-10-31 00:00:00,-59.04744844398189,1.18551354515085,-5.557513177839154,2.2519840575548025
sz000815,2014-03-18,3.96,4.01,3.9,3.98,0.005051,4272027.0,16896290.99,1256008090.0,1260864000.0,0.01353706842764046,14.2,2013-09-30 00:00:00,2013-10-31 00:00:00,-59.34566038742872,1.191500836856052,-5.585580720961988,2.263357428633687
sz000815,2014-03-17,3.91,3.96,3.9,3.96,0.012787999999999999,2142572.0,8429545.74,1249696490.0,1254528000.0,0.006789316596384135,14.13,2013-09-30 00:00:00,2013-10-31 00:00:00,-59.04741190987196,1.185512811644436,-5.557509739268941,2.2519826641968286
sz000815,2014-03-14,3.88,3.94,3.84,3.91,0.005141,3702821.0,14422058.21,1233917500.0,1238688000.0,0.011733385830089938,13.95,2013-09-30 00:00:00,2013-10-31 00:00:00,-58.30184787919284,1.1705438962985697,-5.487337665206283,2.223547933226725
sz000815,2014-03-13,3.9,3.93,3.86,3.89,-0.005115,3165694.0,12317795.12,1227605900.0,1232352000.0,0.01003135424813452,13.88,2013-09-30 00:00:00,2013-10-31 00:00:00,-58.00365110884228,1.1645569092282273,-5.459271550166875,2.2121751408277297
sz000815,2014-03-12,3.86,3.94,3.82,3.91,0.012953000000000001,3691295.0,14284571.74,1233917500.0,1238688000.0,0.011696862594136158,13.95,2013-09-30 00:00:00,2013-10-31 00:00:00,-58.30186514907982,1.1705442430313326,-5.487339290638491,2.223548591875171
sz000815,2014-03-11,3.83,3.88,3.8,3.86,0.005208,1946781.0,7484999.05,1218138500.0,1222848000.0,0.006168900055289279,13.77,2013-09-30 00:00:00,2013-10-31 00:00:00,-57.556337904206636,1.1555760662452579,-5.417170678835534,2.195115263862362
sz000815,2014-03-10,4.02,4.02,3.82,3.84,-0.051851999999999995,4901754.0,19177206.14,1211826900.0,1216512000.0,0.015532528086313318,13.7,2013-09-30 00:00:00,2013-10-31 00:00:00,-57.25813752398174,1.1495890066983727,-5.389104224036751,2.183742333787994
sz000815,2014-03-07,4.06,4.07,4.03,4.05,-0.002463,1942810.0,7870052.92,1278098680.0,1283040000.0,0.006156316897221113,14.45,2013-09-30 00:00:00,2013-10-31 00:00:00,-60.38945135567626,1.21245734494865,-5.683821749385908,2.3031661025367285
sz000815,2014-03-06,4.07,4.08,4.0,4.06,-0.002457,2687168.0,10857087.58,1281254480.0,1286208000.0,0.008515015752374188,14.48,2013-09-30 00:00:00,2013-10-31 00:00:00,-60.538557823595774,1.2154510007635304,-5.697855567649027,2.30885280700037
sz000815,2014-03-05,4.07,4.09,4.05,4.07,0.0,2552300.0,10388860.46,1284410280.0,1289376000.0,0.008087650154902218,14.52,2013-09-30 00:00:00,2013-10-31 00:00:00,-60.68766742245274,1.2184447194391927,-5.711889680594248,2.3145396308734263
sz000815,2014-03-04,4.08,4.1,4.04,4.07,-0.009732,3050057.0,12410663.29,1284410280.0,1289376000.0,0.009664927308118399,14.52,2013-09-30 00:00:00,2013-10-31 00:00:00,-60.68766742245274,1.2184447194391927,-5.711889680594248,2.3145396308734263
sz000815,2014-03-03,4.11,4.13,4.08,4.11,-0.004843,3139408.0,12891690.65,1297033480.0,1302048000.0,0.009948059999191386,14.66,2013-09-30 00:00:00,2013-10-31 00:00:00,-61.2840841291981,1.2304191586915791,-5.76802409104833,2.337286099190751
sz000815,2014-02-28,4.12,4.16,4.07,4.13,-0.0048189999999999995,3743808.0,15435495.63,1303345080.0,1308384000.0,0.011863264209352752,14.73,2013-09-30 00:00:00,2013-10-31 00:00:00,-61.58232734050818,1.236407078171162,-5.796094577085153,2.3486606627805973
sz000815,2014-02-27,4.03,4.23,4.0,4.15,0.029776999999999998,3529576.0,14287865.87,1309656680.0,1314720000.0,0.011184412391192479,14.8,2013-09-30 00:00:00,2013-10-31 00:00:00,-61.88052961271184,1.242394175703879,-5.824161209955931,2.3600336650122915
sz000815,2014-02-26,3.99,4.03,3.96,4.03,0.0075,2065988.0,8256707.13,1271787090.0,1276704000.0,0.0065466395322506385,14.38,2013-09-30 00:00:00,2013-10-31 00:00:00,-60.09119412524443,1.2064691440029045,-5.655749943877103,2.291791004277908
sz000815,2014-02-25,4.09,4.11,3.97,4.0,-0.019608,4207239.0,16994797.62,1262319690.0,1267200000.0,0.013331770179390927,14.27,2013-09-30 00:00:00,2013-10-31 00:00:00,-59.643865136719036,1.1974879841219896,-5.613647586974792,2.274730525337874
sz000815,2014-02-24,4.18,4.21,4.06,4.08,-0.023923,3379009.0,13886583.35,1287566080.0,1292544000.0,0.010707300335218524,14.55,2013-09-30 00:00:00,2013-10-31 00:00:00,-60.836752173333764,1.2214379392344996,-5.725921454861719,2.3202255070807123
sz000815,2014-02-21,4.25,4.25,4.15,4.18,-0.016471,2878477.0,12076569.24,1319124070.0,1324224000.0,0.00912122986278311,14.91,2013-09-30 00:00:00,2013-10-31 00:00:00,-62.32782062617371,1.2513745731479171,-5.866259992666275,2.3770926956384715
sz000815,2014-02-20,4.35,4.35,4.24,4.25,-0.013921000000000001,3497673.0,14949799.29,1341214670.0,1346400000.0,0.01108331916023555,15.16,2013-09-30 00:00:00,2013-10-31 00:00:00,-63.371614488412355,1.272331139344053,-5.964501293471036,2.416901479914137
sz000815,2014-02-19,4.32,4.35,4.27,4.31,0.0,4137381.0,17831456.68,1360149460.0,1365408000.0,0.013110406344608628,15.37,2013-09-30 00:00:00,2013-10-31 00:00:00,-64.26626516578526,1.2902933125480343,-6.048705320234014,2.4510221593950763
sz000815,2014-02-18,4.22,4.45,4.16,4.31,0.018913,9417316.0,40781665.82,1360149460.0,1365408000.0,0.0298413028521145,15.37,2013-09-30 00:00:00,2013-10-31 00:00:00,-64.26626516578526,1.2902933125480343,-6.048705320234014,2.4510221593950763
sz000815,2014-02-17,4.2,4.26,4.17,4.23,0.011962,4138081.0,17442051.46,1334903070.0,1340064000.0,0.013112624446957037,15.09,2013-09-30 00:00:00,2013-10-31 00:00:00,-63.073358732085325,1.266342967994357,-5.936429626704158,2.4055264378755363
sz000815,2014-02-14,4.16,4.19,4.14,4.18,0.012107,2849278.0,11871985.41,1319124070.0,1324224000.0,0.009028704964802892,14.91,2013-09-30 00:00:00,2013-10-31 00:00:00,-62.32779366427328,1.2513740318256583,-5.866257455027124,2.377091667350687
sz000815,2014-02-13,4.25,4.25,4.1,4.13,-0.023641,4073447.0,17037814.28,1303345080.0,1308384000.0,0.012907814183792369,14.73,2013-09-30 00:00:00,2013-10-31 00:00:00,-61.582217753926486,1.2364048779680985,-5.796084262856716,2.3486564833072854
sz000815,2014-02-12,4.2,4.26,4.19,4.23,0.004751,2282135.0,9636672.87,1334903070.0,1340064000.0,0.007231559554357756,15.09,2013-09-30 00:00:00,2013-10-31 00:00:00,-63.073334453747535,1.2663424805508,-5.936427341640439,2.4055255119349392
sz000815,2014-02-11,4.23,4.39,4.17,4.21,-0.00237,2589122.0,10935126.66,1328591470.0,1333728000.0,0.008204330575748767,15.02,2013-09-30 00:00:00,2013-10-31 00:00:00,-62.77509000115206,1.2603545361495534,-5.908356738774521,2.3941509010042683
sz000815,2014-02-10,4.13,4.26,4.12,4.22,0.024272,3392654.0,14139329.97,1331747270.0,1336896000.0,0.010750538185822599,15.05,2013-09-30 00:00:00,2013-10-31 00:00:00,-62.92422040350837,1.2633486725033864,-5.922392809733589,2.3998385182926216
sz000815,2014-02-07,4.06,4.13,4.01,4.12,0.014778,2058428.0,8428813.15,1300189280.0,1305216000.0,0.006522683651106553,14.7,2013-09-30 00:00:00,2013-10-31 00:00:00,-61.4331158164124,1.233411313111543,-5.78205087099285,2.342969951626737
sz000815,2014-01-30,4.03,4.11,4.03,4.06,-0.012165,1781692.0,7243087.4,1281254480.0,1286208000.0,0.005645771103957427,14.48,2013-09-30 00:00:00,2013-10-31 00:00:00,-60.53847818578291,1.2154494018509892,-5.6978480721821425,2.3088497697296724
sz000815,2014-01-29,4.06,4.12,4.05,4.11,0.007353,1597041.0,6539642.74,1297033480.0,1302048000.0,0.005060654648637136,14.66,2013-09-30 00:00:00,2013-10-31 00:00:00,-61.283998021717096,1.2304174298855468,-5.76801598665986,2.337282815176292
sz000815,2014-01-28,4.1,4.11,4.04,4.08,-0.002445,1426290.0,5798441.28,1287566080.0,1292544000.0,0.004519584113306247,14.55,2013-09-30 00:00:00,2013-10-31 00:00:00,-60.836666016497794,1.2214362094375526,-5.725913345827988,2.320222221183927
sz000815,2014-01-27,4.12,4.12,4.07,4.09,-0.012077,2152597.0,8814007.15,1290721880.0,1295712000.0,0.006821083508710644,14.59,2013-09-30 00:00:00,2013-10-31 00:00:00,-60.98577623940314,1.2244299406424233,-5.739947517508296,2.3259090688572828
sz000815,2014-01-24,4.13,4.15,4.08,4.14,0.007298999999999999,2129257.0,8778606.27,1306500880.0,1311552000.0,0.00674712441066247,14.77,2013-09-30 00:00:00,2013-10-31 00:00:00,-61.73130521245395,1.2393981521256447,-5.810116291966374,2.3543424627802807
sz000815,2014-01-23,4.11,4.14,4.09,4.11,0.002439,1574372.0,6470221.48,1297033480.0,1302048000.0,0.004988821815146978,14.66,2013-09-30 00:00:00,2013-10-31 00:00:00,-61.28399334502859,1.2304173359902522,-5.768015546492525,2.337282636814174
sz000815,2014-01-22,4.05,4.12,4.01,4.1,0.01737,2368000.0,9664053.72,1293877680.0,1298880000.0,0.007503645939699647,14.63,2013-09-30 00:00:00,2013-10-31 00:00:00,-61.134885359636435,1.2274236497086126,-5.75398158540572,2.331595874476326
sz000815,2014-01-21,4.01,4.06,3.99,4.03,0.010025,1382463.0,5563770.45,1271787090.0,1276704000.0,0.004380706435697503,14.38,2013-09-30 00:00:00,2013-10-31 00:00:00,-60.09110290222478,1.20646731249065,-5.655741358016964,2.2917875251642235
sz000815,2014-01-20,4.02,4.03,3.96,3.99,-0.009926,1592809.0,6374308.59,1259163890.0,1264032000.0,0.00504724441391025,14.23,2013-09-30 00:00:00,2013-10-31 00:00:00,-59.49466884703328,1.1944925249282445,-5.5996053147367295,2.26904039520232
sz000815,2014-01-17,4.13,4.16,3.99,4.03,-0.03125,2404401.0,9790320.59,1271787090.0,1276704000.0,0.007618992287459059,14.38,2013-09-30 00:00:00,2013-10-31 00:00:00,-60.091133437534246,1.2064679255573265,-5.655744231983397,2.291788689736646
sz000815,2014-01-16,4.12,4.24,4.1,4.16,0.012165,2148214.0,8957883.27,1312812480.0,1317888000.0,0.006807194764022963,14.84,2013-09-30 00:00:00,2013-10-31 00:00:00,-62.02955709680955,1.2453862457365952,-5.838187594305443,2.365717357147506
sz000815,2014-01-15,4.13,4.18,4.09,4.11,-0.016746,1961199.0,8083679.08,1297033480.0,1302048000.0,0.006214587375184795,14.66,2013-09-30 00:00:00,2013-10-31 00:00:00,-61.2840367892681,1.2304182082334354,-5.768019635440311,2.337284293714469
sz000815,2014-01-14,4.01,4.22,4.01,4.18,0.037221,3367035.0,13847629.19,1319124070.0,1324224000.0,0.010669357507819563,14.91,2013-09-30 00:00:00,2013-10-31 00:00:00,-62.32777775556276,1.2513737124216484,-5.866255957708091,2.377091060615537
sz000815,2014-01-13,4.08,4.11,4.0,4.03,-0.012255,3107660.0,12570300.34,1271787090.0,1276704000.0,0.009847457879132899,14.38,2013-09-30 00:00:00,2013-10-31 00:00:00,-60.09112595634176,1.2064677753551543,-5.6557435278577,2.2917884044148136
sz000815,2014-01-10,4.13,4.13,4.02,4.08,-0.009709,3062670.0,12425916.19,1287566080.0,1292544000.0,0.009704894990709916,14.55,2013-09-30 00:00:00,2013-10-31 00:00:00,-60.83667946316283,1.2214364794103278,-5.72591461142066,2.320222734020232
sz000815,2014-01-09,4.25,4.28,4.09,4.12,-0.032864,4045687.0,16962686.78,1300189280.0,1305216000.0,0.012819849153040241,14.7,2013-09-30 00:00:00,2013-10-31 00:00:00,-61.43313375882728,1.2334116733468525,-5.782052559723011,2.342970635924422
sz000815,2014-01-08,4.42,4.43,4.24,4.26,-0.027397,3952481.0,17092878.46,1344370470.0,1349568000.0,0.012524500824538343,15.2,2013-09-30 00:00:00,2013-10-31 00:00:00,-63.52067729753341,1.2753239186079852,-5.9785310025922005,2.4225865192945166
sz000815,2014-01-07,4.41,4.49,4.36,4.38,-0.017937,3451889.0,15212157.87,1382240060.0,1387584000.0,0.010938240221456178,15.62,2013-09-30 00:00:00,2013-10-31 00:00:00,-65.3099746736679,1.3112481851361606,-6.14693868165346,2.4908277265179284
sz000815,2014-01-06,4.53,4.57,4.42,4.46,-0.011086,4536151.0,20336571.44,1407486450.0,1412928000.0,0.014374016502965268,15.91,2013-09-30 00:00:00,2013-10-31 00:00:00,-66.50283604378527,1.3351976249346127,-6.259210133823859,2.536321729377778
sz000815,2014-01-03,4.72,4.72,4.51,4.51,-0.050526,7130621.0,32927946.02,1423265450.0,1428768000.0,0.022595293597550616,16.09,2013-09-30 00:00:00,2013-10-31 00:00:00,-67.24835126591925,1.3501655603365033,-6.329377614053254,2.564754598860748
sz000815,2014-01-02,4.88,4.88,4.67,4.75,-0.046185000000000004,15457645.0,73400372.55,1499004630.0,1504800000.0,0.04898171245141517,16.94,2013-09-30 00:00:00,2013-10-31 00:00:00,-70.82695394072849,1.4220142524561,-6.666193717840882,2.701237315461769
sz000815,2013-12-31,4.98,4.98,4.98,4.98,0.099338,6802670.0,33877296.6,1571588010.0,1577664000.0,0.0215560925537985,17.76,2013-09-30 00:00:00,2013-10-31 00:00:00,-74.25648992805574,1.490870087444735,-6.98897974747816,2.8320348447673487
sz000815,2013-12-27,4.5,4.56,4.46,4.53,0.011161,2572689.0,11618454.79,1429577050.0,1435104000.0,0.008152258159152737,16.16,2013-09-30 00:00:00,2013-10-31 00:00:00,-67.5465506769126,1.3561526004238325,-6.357443977628501,2.57612749197003
sz000815,2013-12-26,4.41,4.57,4.41,4.48,0.009009,2619095.0,11755209.72,1413798050.0,1419264000.0,0.008299308094250096,15.98,2013-09-30 00:00:00,2013-10-31 00:00:00,-66.80098488461542,1.3411836497094258,-6.287271737763325,2.5476926938143682
sz000815,2013-12-25,4.39,4.44,4.37,4.44,0.016018,1182061.0,5203321.41,1401174850.0,1406592000.0,0.003745678735241359,15.84,2013-09-30 00:00:00,2013-10-31 00:00:00,-66.20454811068625,1.3292088075620987,-6.231135438597003,2.5249454601637527
sz000815,2013-12-24,4.35,4.42,4.35,4.37,0.004598,1100013.0,4816600.5,1379084260.0,1384416000.0,0.003485687531521823,15.59,2013-09-30 00:00:00,2013-10-31 00:00:00,-65.16080237819236,1.308253207681457,-6.132898667737189,2.485138511486758
sz000815,2013-12-23,4.44,4.45,4.35,4.35,-0.02027,1955899.0,8569306.43,1372772660.0,1378080000.0,0.006197792903305635,15.52,2013-09-30 00:00:00,2013-10-31 00:00:00,-64.86256430750643,1.3022653914117457,-6.104828665533067,2.4737641439528626
sz000815,2013-12-20,4.6,4.6,4.38,4.44,-0.034783,3684745.0,16442805.82,1401174850.0,1406592000.0,0.011676107232441406,15.84,2013-09-30 00:00:00,2013-10-31 00:00:00,-66.2045301333086,1.329208446624831,-6.231133746576167,2.524944774532639
sz000815,2013-12-19,4.64,4.64,4.56,4.6,-0.002169,1392165.0,6382799.58,1451667640.0,1457280000.0,0.0044114498550095116,16.41,2013-09-30 00:00:00,2013-10-31 00:00:00,-68.59030677382248,1.3771084083939997,-6.455681723981412,2.6159348359308208
sz000815,2013-12-18,4.6,4.66,4.59,4.61,0.010965,2485749.0,11484796.95,1454823440.0,1460448000.0,0.00787676536886153,16.44,2013-09-30 00:00:00,2013-10-31 00:00:00,-68.73940253792723,1.3801018493051425,-6.46971453480741,2.62162113216649
sz000815,2013-12-17,4.67,4.7,4.56,4.56,-0.025641000000000004,1757106.0,8122651.03,1439044440.0,1444608000.0,0.005567863741581184,16.27,2013-09-30 00:00:00,2013-10-31 00:00:00,-67.99384997297358,1.3651331641601268,-6.3995435398924885,2.593186838482529
sz000815,2013-12-16,4.73,4.73,4.67,4.68,-0.012657999999999999,1429554.0,6709734.5,1476914030.0,1482624000.0,0.004529926985662124,16.69,2013-09-30 00:00:00,2013-10-31 00:00:00,-69.78315997796868,1.40105768424177,-6.567952407575122,2.661428527352371
sz000815,2013-12-13,4.72,4.75,4.7,4.74,0.0,1452864.0,6864064.15,1495848830.0,1501632000.0,0.004603790986018286,16.91,2013-09-30 00:00:00,2013-10-31 00:00:00,-70.67779956486069,1.4190196347788002,-6.652155390508176,2.695548783858452
sz000815,2013-12-12,4.78,4.78,4.72,4.74,-0.004202,2503557.0,11861012.0,1495848830.0,1501632000.0,0.007933194813542757,16.91,2013-09-30 00:00:00,2013-10-31 00:00:00,-70.67779956486069,1.4190196347788002,-6.652155390508176,2.695548783858452
sz000815,2013-12-11,4.77,4.78,4.71,4.76,-0.002096,1273634.0,6040291.38,1502160430.0,1507968000.0,0.004035852442205523,16.98,2013-09-30 00:00:00,2013-10-31 00:00:00,-70.97604088867489,1.4250075163625555,-6.680225698894931,2.706923275461943
sz000815,2013-12-10,4.84,4.84,4.73,4.77,-0.010373,2399498.0,11475430.28,1505316230.0,1511136000.0,0.0076034558266869934,17.02,2013-09-30 00:00:00,2013-10-31 00:00:00,-71.12511913838897,1.4280006056319603,-6.694256861276167,2.7126089037241488
sz000815,2013-12-09,4.8,4.84,4.76,4.82,0.006263,1867016.0,8972988.37,1521095220.0,1526976000.0,0.005916143185303022,17.19,2013-09-30 00:00:00,2013-10-31 00:00:00,-71.87063321674627,1.4429685180698992,-6.7644242338539335,2.7410417295851355
sz000815,2013-12-06,4.76,4.79,4.73,4.79,0.008421,1853855.0,8830538.25,1511627830.0,1517472000.0,0.005874438981452201,17.09,2013-09-30 00:00:00,2013-10-31 00:00:00,-71.42330903227713,1.43398745464148,-6.722322329106739,2.7239814338648403
sz000815,2013-12-05,4.75,4.77,4.72,4.75,-0.002101,1755331.0,8317114.89,1499004630.0,1504800000.0,0.005562239157326686,16.94,2013-09-30 00:00:00,2013-10-31 00:00:00,-70.82687591023702,1.422012685814238,-6.666186373654196,2.701234339491978
sz000815,2013-12-04,4.77,4.81,4.72,4.76,0.010616,2174551.0,10364051.2,1502160430.0,1507968000.0,0.006890650661061547,16.98,2013-09-30 00:00:00,2013-10-31 00:00:00,-70.97599647883906,1.4250066247328017,-6.6802215190657535,2.706921581735204
sz000815,2013-12-03,4.59,4.75,4.59,4.71,-0.0021190000000000002,3638869.0,17027324.93,1486381430.0,1492128000.0,0.011530736757118932,16.8,2013-09-30 00:00:00,2013-10-31 00:00:00,-70.23043023150146,1.4100376648824104,-6.610049236372426,2.6784867662249603
sz000815,2013-12-02,4.76,4.89,4.72,4.72,-0.050302,5934501.0,28206597.87,1489537230.0,1495296000.0,0.018805065194644376,16.84,2013-09-30 00:00:00,2013-10-31 00:00:00,-70.37956452873784,1.4130318794349328,-6.624085673915452,2.6841745320583916
sz000815,2013-11-29,4.87,4.98,4.85,4.97,0.018443,4730614.0,23387240.41,1568432210.0,1574496000.0,0.01499022490745711,17.73,2013-09-30 00:00:00,2013-10-31 00:00:00,-74.10731045947011,1.4878749659733228,-6.974939058432735,2.826345356164161
sz000815,2013-11-28,4.85,4.95,4.84,4.88,0.004115,3709175.0,18152416.59,1540030020.0,1545984000.0,0.01175352023332636,17.41,2013-09-30 00:00:00,2013-10-31 00:00:00,-72.76530003099842,1.4609310152589032,-6.848629779411058,2.7751630245032484
sz000815,2013-11-27,4.85,4.87,4.82,4.86,0.0,2182405.0,10579162.2,1533718420.0,1539648000.0,0.006915538185946805,17.34,2013-09-30 00:00:00,2013-10-31 00:00:00,-72.46709792304509,1.45494392102389,-6.820563161999431,2.7637900285358237
sz000815,2013-11-26,4.87,4.89,4.82,4.86,0.0,2628133.0,12755913.89,1533718420.0,1539648000.0,0.008327947433792964,17.34,2013-09-30 00:00:00,2013-10-31 00:00:00,-72.46709792304509,1.45494392102389,-6.820563161999431,2.7637900285358237
sz000815,2013-11-25,4.8,4.94,4.77,4.86,0.023158,5905090.0,28821521.61,1533718420.0,1539648000.0,0.018711868505823907,17.34,2013-09-30 00:00:00,2013-10-31 00:00:00,-72.46709792304509,1.45494392102389,-6.820563161999431,2.7637900285358237
sz000815,2013-11-22,4.71,4.82,4.7,4.75,0.0063560000000000005,3876950.0,18475600.0,1499004630.0,1504800000.0,0.012285160520151295,16.94,2013-09-30 00:00:00,2013-10-31 00:00:00,-70.82688883148555,1.4220129452380668,-6.666187589794959,2.7012348322896598
sz000815,2013-11-21,4.74,4.76,4.69,4.72,-0.008403,2077428.0,9806233.35,1489537230.0,1495296000.0,0.0065828902846557244,16.84,2013-09-30 00:00:00,2013-10-31 00:00:00,-70.37955637119028,1.413031715653374,-6.624084906131587,2.6841742209413564
sz000815,2013-11-20,4.74,4.78,4.71,4.76,0.004219,2588144.0,12279099.9,1502160430.0,1507968000.0,0.00820123150228368,16.98,2013-09-30 00:00:00,2013-10-31 00:00:00,-70.97596742546646,1.4250060414194214,-6.6802187845784,2.706920473681704
sz000815,2013-11-19,4.77,4.84,4.72,4.74,-0.010438,3483351.0,16536294.36,1495848830.0,1501632000.0,0.011037936059354339,16.91,2013-09-30 00:00:00,2013-10-31 00:00:00,-70.67777788058827,1.4190191994170807,-6.6521533495964515,2.695547956851746
sz000815,2013-11-18,4.74,4.83,4.71,4.79,-0.004158,3958694.0,18832620.1,1511627830.0,1517472000.0,0.012544188380019439,17.09,2013-09-30 00:00:00,2013-10-31 00:00:00,-71.42329422571628,1.4339871573656633,-6.722320935521424,2.7239808691640803
sz000815,2013-11-15,4.77,4.84,4.77,4.81,0.008386,2508149.0,12045018.8,1517939420.0,1523808000.0,0.007947745826378234,17.16,2013-09-30 00:00:00,2013-10-31 00:00:00,-71.72151227375053,1.4399745716345196,-6.750389053204649,2.7353544730630768
sz000815,2013-11-14,4.7,4.83,4.64,4.77,0.017058,1818239.0,8581735.94,1505316230.0,1511136000.0,0.00576158009669503,17.02,2013-09-30 00:00:00,2013-10-31 00:00:00,-71.12505754120994,1.4279993689267,-6.694251063783757,2.7126065544970643
sz000815,2013-11-13,4.72,4.73,4.68,4.69,-0.0063560000000000005,1481804.0,6962179.97,1480069830.0,1485792000.0,0.004695495184845434,16.73,2013-09-30 00:00:00,2013-10-31 00:00:00,-69.93215484388298,1.404049099389317,-6.5819757219192585,2.667110975477371
sz000815,2013-11-12,4.7,4.75,4.67,4.72,0.002123,1664699.0,7846170.47,1489537230.0,1495296000.0,0.005275047257462641,16.84,2013-09-30 00:00:00,2013-10-31 00:00:00,-70.37948686238028,1.4130303201038976,-6.624078364000848,2.6841715699761397
sz000815,2013-11-11,4.64,4.73,4.5,4.71,0.01073,1830572.0,8511657.68,1486381430.0,1492128000.0,0.005800660547811069,16.8,2013-09-30 00:00:00,2013-10-31 00:00:00,-70.23038774918874,1.4100368119521232,-6.610045237960657,2.6784851460111576
sz000815,2013-11-08,4.74,4.77,4.6,4.66,-0.023061,2274765.0,10680679.39,1470602440.0,1476288000.0,0.00720820570649944,16.62,2013-09-30 00:00:00,2013-10-31 00:00:00,-69.4848156769748,1.3950677351539218,-6.539872407033192,2.650050108348578
sz000815,2013-11-07,4.8,4.84,4.74,4.77,-0.012422,2201363.0,10514128.63,1505316230.0,1511136000.0,0.006975611702532429,17.02,2013-09-30 00:00:00,2013-10-31 00:00:00,-71.12502999365857,1.4279988158461498,-6.694248471023465,2.7126055038734025
sz000815,2013-11-06,4.87,4.91,4.82,4.83,-0.006173,2125701.0,10341571.83,1524251020.0,1530144000.0,0.006735856296163081,17.23,2013-09-30 00:00:00,2013-10-31 00:00:00,-72.01965818766577,1.4459605376447735,-6.778450381664501,2.746725325871377
sz000815,2013-11-05,4.84,4.9,4.8,4.86,0.004132,3348680.0,16218843.55,1533718420.0,1539648000.0,0.010611194719823474,17.34,2013-09-30 00:00:00,2013-10-31 00:00:00,-72.46699695989922,1.4549418939561647,-6.820553659404002,2.763786177947849
sz000815,2013-11-04,4.8,4.86,4.76,4.84,0.0,3523041.0,16962850.06,1527406820.0,1533312000.0,0.01116370453288928,17.27,2013-09-30 00:00:00,2013-10-31 00:00:00,-72.168795496906,1.4489548126702114,-6.792487102695663,2.7524132065782676
sz000815,2013-11-01,4.72,4.92,4.69,4.84,0.031983,5195617.0,25189433.72,1527406820.0,1533312000.0,0.016463712189002798,17.27,2013-09-30 00:00:00,2013-10-31 00:00:00,-72.168795496906,1.4489548126702114,-6.792487102695663,2.7524132065782676
sz000815,2013-10-31,4.66,4.7,4.61,4.69,0.0042829999999999995,1887269.0,8794997.09,1480069830.0,1485792000.0,0.005980320273131978,16.73,2013-09-30 00:00:00,2013-10-31 00:00:00,-69.93215537165437,1.4040491099855437,-6.58197577159281,2.667110995605807
sz000815,2013-10-30,4.62,4.67,4.56,4.67,0.008639,2115489.0,9794583.36,1473758240.0,1479456000.0,0.00670349678926986,16.66,2013-06-30 00:00:00,2013-08-16 00:00:00,64.88539138076916,1.2896480870245555,-11.203679881217143,2.441198830235186
sz000815,2013-10-29,4.75,4.83,4.49,4.63,-0.012793,4006078.0,18612782.38,1461135040.0,1466784000.0,0.01269433736939195,16.52,2013-06-30 00:00:00,2013-08-16 00:00:00,64.32964755553688,1.2786022422537253,-11.107720285669247,2.420289945396902
sz000815,2013-10-28,4.73,4.74,4.6,4.69,-0.012631999999999999,3086543.0,14427793.64,1480069830.0,1485792000.0,0.009780543036945763,16.73,2013-06-30 00:00:00,2013-08-16 00:00:00,65.16328141467481,1.2951713695848242,-11.251662807971627,2.4516539544360016
sz000815,2013-10-25,4.84,4.86,4.74,4.75,-0.022634,2759760.0,13236406.82,1499004630.0,1504800000.0,0.008745043035657601,16.94,2013-06-30 00:00:00,2013-08-16 00:00:00,65.99695494959813,1.3117412855033017,-11.395612181042555,2.4830194562068058
sz000815,2013-10-24,4.7,4.87,4.67,4.86,0.025315999999999998,4677689.0,22305090.68,1533718420.0,1539648000.0,0.014822517773503692,17.34,2013-06-30 00:00:00,2013-08-16 00:00:00,67.52532311293633,1.3421188024786026,-11.659513612139728,2.5405216226130296
sz000815,2013-10-23,4.79,4.82,4.62,4.74,-0.008368,6038841.0,28510359.8,1495848830.0,1501632000.0,0.01913569457416362,16.91,2013-06-30 00:00:00,2013-08-16 00:00:00,65.85806045447097,1.3089806483841107,-11.371629441206155,2.4777937949013085
sz000815,2013-10-22,4.82,4.83,4.77,4.78,-0.008298999999999999,3738352.0,17925681.56,1508472030.0,1514304000.0,0.011845975400684095,17.05,2013-06-30 00:00:00,2013-08-16 00:00:00,66.41381122681696,1.320026631234279,-11.467590236303543,2.498702941112538
sz000815,2013-10-21,4.78,4.84,4.75,4.82,0.002079,3786549.0,18185910.88,1521095220.0,1526976000.0,0.011998700633613194,17.19,2013-06-30 00:00:00,2013-08-16 00:00:00,66.96959186974397,1.3310732077856924,-11.563556189117024,2.519613211151887
sz000815,2013-10-18,4.78,4.82,4.75,4.81,0.008386,3312027.0,15828779.62,1517939420.0,1523808000.0,0.010495049841975905,17.16,2013-06-30 00:00:00,2013-08-16 00:00:00,66.83065094642636,1.3283116478697714,-11.539565432582686,2.5143858030673107
sz000815,2013-10-17,4.74,4.88,4.74,4.77,0.0063289999999999996,3064007.0,14676480.38,1505316230.0,1511136000.0,0.00970913160884474,17.02,2013-06-30 00:00:00,2013-08-16 00:00:00,66.27486988754936,1.3172650630510252,-11.443599407947636,2.493475517378574
sz000815,2013-10-16,4.88,4.88,4.71,4.74,-0.028689,4368005.0,20888154.93,1495848830.0,1501632000.0,0.013841200584420017,16.91,2013-06-30 00:00:00,2013-08-16 00:00:00,65.85805426212437,1.3089805253063613,-11.371628371981366,2.4777935619251497
sz000815,2013-10-15,4.89,4.91,4.86,4.88,-0.002045,3366143.0,16429035.51,1540030020.0,1545984000.0,0.010666530929052927,17.41,2013-06-30 00:00:00,2013-08-16 00:00:00,67.80326204699048,1.3476430569677078,-11.707504982422073,2.550978586596002
sz000815,2013-10-14,4.9,4.94,4.85,4.89,-0.010121,4711137.0,23062592.54,1543185820.0,1549152000.0,0.014928506749757459,17.44,2013-06-30 00:00:00,2013-08-16 00:00:00,67.94220385387165,1.3504046344451481,-11.73149589152023,2.5562060279231047
sz000815,2013-10-11,4.89,4.99,4.89,4.94,0.012295,4270906.0,21119598.58,1558964810.0,1564992000.0,0.013533516282513139,17.62,2013-06-30 00:00:00,2013-08-16 00:00:00,68.63687769300253,1.3642118222986326,-11.851444359886644,2.5823419103982452
sz000815,2013-10-10,4.95,4.95,4.86,4.88,-0.014140999999999999,3247544.0,15916288.55,1540030020.0,1545984000.0,0.010290718047171573,17.41,2013-06-30 00:00:00,2013-08-16 00:00:00,67.80323689537391,1.3476425570595854,-11.707500639523703,2.550977640310627
sz000815,2013-10-09,4.92,4.97,4.89,4.95,0.004057,3095804.0,15262759.42,1562120610.0,1568160000.0,0.00980988900722589,17.66,2013-06-30 00:00:00,2013-08-16 00:00:00,68.7757954183853,1.3669729211373889,-11.875431110862406,2.5875684457012884
sz000815,2013-10-08,4.94,4.96,4.86,4.93,-0.012024,3843774.0,18855307.3,1555809020.0,1561824000.0,0.01218003339510141,17.59,2013-06-30 00:00:00,2013-08-16 00:00:00,68.49789944035578,1.3614495204329924,-11.827447157743443,2.5771130978632573
sz000815,2013-09-30,4.9,4.99,4.88,4.99,0.002008,4205947.0,20782057.37,1574743810.0,1580832000.0,0.013327676157050588,17.8,2013-06-30 00:00:00,2013-08-16 00:00:00,69.33154190016334,1.378018818709151,-11.971391165112758,2.6084774304874383
sz000815,2013-09-27,4.78,5.0,4.7,4.98,0.044025,6394272.0,31225590.87,1571588010.0,1577664000.0,0.02026197346720659,17.76,2013-06-30 00:00:00,2013-08-16 00:00:00,69.19260315303205,1.3752573020466414,-11.947400784337807,2.603250104278048
sz000815,2013-09-26,4.95,4.96,4.77,4.77,-0.034413,4127495.0,20068005.1,1505316230.0,1511136000.0,0.01307907983560371,17.02,2013-06-30 00:00:00,2013-08-16 00:00:00,66.27485276026152,1.3172647226327352,-11.443596450600134,2.4934748729944665
sz000815,2013-09-25,5.01,5.07,4.92,4.94,-0.013972,2610198.0,13020342.43,1558964810.0,1564992000.0,0.008271115574443275,17.62,2013-06-30 00:00:00,2013-08-16 00:00:00,68.63685277480074,1.364211327029812,-11.851440057291715,2.5823409728946913
sz000815,2013-09-24,5.06,5.08,4.97,5.01,-0.009881000000000001,3312925.0,16566662.84,1581055410.0,1587168000.0,0.010497895358392278,17.87,2013-06-30 00:00:00,2013-08-16 00:00:00,69.60943581196553,1.3835421783456576,-12.019374761458817,2.618932700587297
sz000815,2013-09-23,4.99,5.08,4.96,5.06,0.018109,3602313.0,18092106.3,1596834410.0,1603008000.0,0.01141489916916307,18.05,2013-06-30 00:00:00,2013-08-16 00:00:00,70.30411073008955,1.3973493876449776,-12.139323416133633,2.645068623657658
sz000815,2013-09-18,4.92,4.98,4.92,4.97,0.010163,2581609.0,12783121.63,1568432210.0,1574496000.0,0.008180523613449637,17.73,2013-06-30 00:00:00,2013-08-16 00:00:00,69.05361874817878,1.3724948779010673,-11.923402519900751,2.5980210602771003
sz000815,2013-09-17,5.05,5.05,4.92,4.92,-0.021869,3176850.0,15818297.5,1552653220.0,1558656000.0,0.010066705043126114,17.55,2013-06-30 00:00:00,2013-08-16 00:00:00,68.35888737577875,1.3586865465286964,-11.803444117336264,2.571883013213809
sz000815,2013-09-16,5.0,5.07,5.0,5.03,0.008015999999999999,3336188.0,16773595.76,1587367010.0,1593504000.0,0.010571610430533014,17.94,2013-06-30 00:00:00,2013-08-16 00:00:00,69.88725168283057,1.389063986857278,-12.06734488257326,2.6293850345340335
sz000815,2013-09-13,4.97,5.01,4.92,4.99,-0.002,3837108.0,19084353.0,1574743810.0,1580832000.0,0.012158910419847912,17.8,2013-06-30 00:00:00,2013-08-16 00:00:00,69.33149045534056,1.3780177962029154,-11.97138228219915,2.608475494966383
sz000815,2013-09-12,4.99,5.09,4.94,5.0,-0.038462,9560324.0,47700988.01,1577899610.0,1584000000.0,0.030294462142620087,17.84,2013-06-30 00:00:00,2013-08-16 00:00:00,69.4704313179765,1.3807793549127407,-11.99537302825566,2.6137029007679184
sz000815,2013-09-11,5.24,5.28,5.17,5.2,-0.009524,3418246.0,17829665.75,1641015590.0,1647360000.0,0.010831633354561854,18.55,2013-06-30 00:00:00,2013-08-16 00:00:00,72.24928325035151,1.4360112183946352,-12.475193937478975,2.718252321559749
sz000815,2013-09-10,5.38,5.38,5.16,5.25,-0.020522,5065509.0,26512248.67,1656794590.0,1663200000.0,0.016051429918056408,18.73,2013-06-30 00:00:00,2013-08-16 00:00:00,72.94400192468218,1.4498192973829098,-12.595150147483608,2.7443898908804947
sz000815,2013-09-09,5.43,5.48,5.31,5.36,-0.0018620000000000002,4323792.0,23210212.54,1691508380.0,1698048000.0,0.01370109979591115,19.12,2013-06-30 00:00:00,2013-08-16 00:00:00,74.47232293597423,1.4801958771742803,-12.859043436895577,2.80189028327384
sz000815,2013-09-06,5.22,5.41,5.19,5.37,0.032692,5203653.0,27767312.45,1694664180.0,1701216000.0,0.016489176404259634,19.16,2013-06-30 00:00:00,2013-08-16 00:00:00,74.61124908176448,1.482957143375245,-12.883031641812634,2.807117135379918
sz000815,2013-09-05,5.15,5.22,5.09,5.2,0.013645,4063285.0,20977619.52,1641015590.0,1647360000.0,0.012875613204869065,18.55,2013-06-30 00:00:00,2013-08-16 00:00:00,72.24927575866231,1.4360110694914314,-12.475192643898312,2.7182520396981076
sz000815,2013-09-04,5.16,5.17,5.09,5.13,-0.0038829999999999997,2373890.0,12154442.46,1618925000.0,1625184000.0,0.007522309989653628,18.3,2013-06-30 00:00:00,2013-08-16 00:00:00,71.27670511733626,1.416680464552611,-12.307260080105277,2.6816607783771516
sz000815,2013-09-03,5.13,5.18,5.08,5.15,0.0058590000000000005,3557173.0,18208551.07,1625236600.0,1631520000.0,0.011271860940124041,18.37,2013-06-30 00:00:00,2013-08-16 00:00:00,71.55455144058001,1.422202878329163,-12.3552354593941,2.6921142580411246
sz000815,2013-09-02,5.01,5.16,4.99,5.12,0.026052,3781653.0,19154766.34,1615769200.0,1622016000.0,0.011983186311510331,18.26,2013-06-30 00:00:00,2013-08-16 00:00:00,71.13775533208931,1.413918728498888,-12.283267793392614,2.6764330368780564
sz000815,2013-08-30,4.99,5.05,4.97,4.99,-0.002,2623422.0,13126095.6,1574743810.0,1580832000.0,0.008313019360272959,17.8,2013-06-30 00:00:00,2013-08-16 00:00:00,69.33153030459401,1.3780185882381086,-11.971389162920214,2.6084769942245187
sz000815,2013-08-29,5.01,5.06,4.94,5.0,-0.001996,2578954.0,12886357.05,1577899610.0,1584000000.0,0.008172110518488563,17.84,2013-06-30 00:00:00,2013-08-16 00:00:00,69.4704712470882,1.3807801485351792,-11.995379922765748,2.6137044030305803
sz000815,2013-08-28,5.07,5.12,4.99,5.01,-0.023392,4448664.0,22427357.36,1581055410.0,1587168000.0,0.014096790345886737,17.87,2013-06-30 00:00:00,2013-08-16 00:00:00,69.6094116327071,1.3835416977639161,-12.019370586456317,2.6189317908851875
sz000815,2013-08-27,5.13,5.17,5.07,5.13,0.005882,3414430.0,17454161.1,1618925000.0,1625184000.0,0.01081954130055438,18.3,2013-06-30 00:00:00,2013-08-16 00:00:00,71.27671658711284,1.416680692523424,-12.307262060577342,2.68166120990734
sz000815,2013-08-26,5.01,5.14,4.98,5.1,0.02,4032804.0,20423870.06,1609457600.0,1615680000.0,0.012779025927741121,18.19,2013-06-30 00:00:00,2013-08-16 00:00:00,70.85991854622395,1.4083965042852185,-12.235294060911063,2.6659799160411857
sz000815,2013-08-23,5.03,5.08,4.93,5.0,-0.013807,5493188.0,27448709.91,1577899610.0,1584000000.0,0.017406646041315643,17.84,2013-06-30 00:00:00,2013-08-16 00:00:00,69.47050837865095,1.380780886554136,-11.995386334226534,2.613705800040379
sz000815,2013-08-22,5.08,5.18,4.99,5.07,0.018072,8865678.0,44881152.08,1599990200.0,1606176000.0,0.02809328923389656,18.09,2013-06-30 00:00:00,2013-08-16 00:00:00,70.44311648800075,1.40011223619934,-12.163325367576663,2.650298471029888
sz000815,2013-08-21,4.74,4.98,4.7,4.98,0.050633,3993484.0,19558261.27,1571588010.0,1577664000.0,0.012654429910037302,17.76,2013-06-30 00:00:00,2013-08-16 00:00:00,69.19266661690013,1.375258563440837,-11.947411742565025,2.6032524919945614
sz000815,2013-08-20,4.69,4.76,4.68,4.74,0.012821,2950278.0,13924564.32,1495848830.0,1501632000.0,0.009348750648820577,16.91,2013-06-30 00:00:00,2013-08-16 00:00:00,65.85807471962153,1.3089809319151757,-11.371631904351972,2.4777943316025306
sz000815,2013-08-19,4.66,4.74,4.64,4.68,-0.002132,2895423.0,13581631.47,1476914030.0,1482624000.0,0.009174927832461582,16.69,2013-06-30 00:00:00,2013-08-16 00:00:00,65.02439692662527,1.292410931364156,-11.227681796044882,2.446428669629215
sz000815,2013-08-16,4.77,4.83,4.68,4.69,-0.026971,4476100.0,21282670.54,1480069830.0,1485792000.0,0.01418372875014958,16.73,2013-06-30 00:00:00,2013-08-16 00:00:00,65.16332513581483,1.2951722385768019,-11.251670357246532,2.4516555993670655
sz000815,2013-08-15,4.89,4.9,4.79,4.82,-0.016327,3147200.0,15262293.5,1521095220.0,1526976000.0,0.009972751081289968,17.19,2013-03-31 00:00:00,2013-04-27 00:00:00,49.96591685813553,1.213944849335952,-5.710313976812995,2.3288184441609823
sz000815,2013-08-14,4.88,4.92,4.86,4.9,-0.002037,2793539.0,13663622.28,1546341620.0,1552320000.0,0.008852080887533765,17.48,2013-03-31 00:00:00,2013-04-27 00:00:00,50.79525091990481,1.2340939004485758,-5.8050937423442495,2.367472162152445
sz000815,2013-08-13,4.95,4.96,4.85,4.91,-0.010081,5464145.0,26686697.64,1549497420.0,1555488000.0,0.01731461543834,17.51,2013-03-31 00:00:00,2013-04-27 00:00:00,50.8989320444794,1.2366128808869423,-5.816942854939761,2.372304546513693
sz000815,2013-08-12,4.93,4.96,4.83,4.96,0.026914999999999998,4250994.0,20860444.32,1565276410.0,1571328000.0,0.013470419732448405,17.69,2013-03-31 00:00:00,2013-04-27 00:00:00,51.41726953869903,1.2492061278619184,-5.876180631889843,2.3964632929701253
sz000815,2013-08-09,4.85,4.87,4.78,4.83,-0.004124,2316623.0,11173989.16,1524251020.0,1530144000.0,0.007340844088790571,17.23,2013-03-31 00:00:00,2013-04-27 00:00:00,50.069645042383286,1.2164649731106454,-5.7221684675847975,2.333653021886062
sz000815,2013-08-08,4.84,4.89,4.8,4.85,-0.006148,2563852.0,12424308.65,1530562620.0,1536480000.0,0.008124255772037604,17.3,2013-03-31 00:00:00,2013-04-27 00:00:00,50.27698733816588,1.2215024492111923,-5.745864412421624,2.3433168606192556
sz000815,2013-08-07,4.86,4.94,4.81,4.88,0.002053,2805467.0,13663487.75,1540030020.0,1545984000.0,0.008889877977833185,17.41,2013-03-31 00:00:00,2013-04-27 00:00:00,50.58800237677832,1.2290587021117756,-5.781408511953113,2.3578126930561654
sz000815,2013-08-06,4.8,4.93,4.78,4.87,0.008282,2718224.0,13221391.79,1536874220.0,1542816000.0,0.008613425033572363,17.37,2013-03-31 00:00:00,2013-04-27 00:00:00,50.484357989825206,1.2265406142307598,-5.769563597886651,2.3529820209671195
sz000815,2013-08-05,4.77,4.85,4.72,4.83,0.018987,2321893.0,11117420.74,1524251020.0,1530144000.0,0.007357543503562818,17.23,2013-03-31 00:00:00,2013-04-27 00:00:00,50.0696808926721,1.2164658441098422,-5.722172564705759,2.333654692801339
sz000815,2013-08-02,4.78,4.8,4.72,4.74,-0.002105,2012492.0,9565399.2,1495848830.0,1501632000.0,0.006377123067977397,16.91,2013-03-31 00:00:00,2013-04-27 00:00:00,49.13672195295141,1.19379917909634,-5.615550114678361,2.290171211999112
sz000815,2013-08-01,4.66,4.77,4.62,4.75,0.025918,3391926.0,15954481.69,1499004630.0,1504800000.0,0.010748231311333574,16.94,2013-03-31 00:00:00,2013-04-27 00:00:00,49.240372937985875,1.1963174272807662,-5.627395782801158,2.2950021916124563
sz000815,2013-07-31,4.67,4.79,4.62,4.63,-0.014894,2470670.0,11651588.51,1461135040.0,1466784000.0,0.00782898348670086,16.52,2013-03-31 00:00:00,2013-04-27 00:00:00,47.996402186125856,1.1660945877553235,-5.485229601977114,2.23702302875323
sz000815,2013-07-30,4.58,4.73,4.5,4.7,0.026201,3037989.0,14025914.15,1483225630.0,1488960000.0,0.009626686601956846,16.77,2013-03-31 00:00:00,2013-04-27 00:00:00,48.72206867700111,1.1837249877224618,-5.5681618038841645,2.2708449940952846
sz000815,2013-07-29,4.59,4.59,4.49,4.58,-0.006508,2125378.0,9662866.33,1445356040.0,1450944000.0,0.006734832782101218,16.34,2013-03-31 00:00:00,2013-04-27 00:00:00,47.47809510709999,1.1535020797314188,-5.425995301002596,2.212865699892404
sz000815,2013-07-26,4.59,4.65,4.55,4.61,0.0021739999999999997,2103521.0,9681014.19,1454823440.0,1460448000.0,0.0066655729783952344,16.44,2013-03-31 00:00:00,2013-04-27 00:00:00,47.789106612936976,1.1610582468016037,-5.4615389967937285,2.2273613676732213
sz000815,2013-07-25,4.62,4.63,4.54,4.6,-0.0043289999999999995,2429923.0,11133934.61,1451667640.0,1457280000.0,0.007699865652443696,16.41,2013-03-31 00:00:00,2013-04-27 00:00:00,47.68543846970385,1.1585395817508775,-5.449691367760219,2.2225295883481526
sz000815,2013-07-24,4.58,4.65,4.5,4.62,0.0043479999999999994,2820714.0,12903852.77,1457979240.0,1463616000.0,0.008938192206358166,16.48,2013-03-31 00:00:00,2013-04-27 00:00:00,47.89276625482097,1.1635767053081565,-5.4733856542575,2.23219275076622
sz000815,2013-07-23,4.48,4.66,4.48,4.6,0.015453,2871457.0,13198219.33,1451667640.0,1457280000.0,0.009098985081736753,16.41,2013-03-31 00:00:00,2013-04-27 00:00:00,47.685430005158544,1.15853937610087,-5.449690400396576,2.222529193831441
sz000815,2013-07-22,4.5,4.54,4.32,4.53,0.002212,2414879.0,10735006.69,1429577050.0,1435104000.0,0.007652194661351062,16.16,2013-03-31 00:00:00,2013-04-27 00:00:00,46.959760821188716,1.1409089107037647,-5.366757890711413,2.188707102969257
sz000815,2013-07-19,4.68,4.7,4.49,4.52,-0.038298,3667230.0,16898017.54,1426421250.0,1431936000.0,0.011620606184884022,16.12,2013-03-31 00:00:00,2013-04-27 00:00:00,46.85611509459946,1.138390790275675,-5.35491282354573,2.1838763684422626
sz000815,2013-07-18,4.84,4.84,4.62,4.7,-0.028926,3234668.0,15171867.71,1483225630.0,1488960000.0,0.010249917000153241,16.77,2013-03-31 00:00:00,2013-04-27 00:00:00,48.7220730481994,1.1837250939227273,-5.568162303442988,2.2708451978287063
sz000815,2013-07-17,4.88,4.91,4.81,4.84,-0.008197,2439268.0,11834424.71,1527406820.0,1533312000.0,0.007729477808669206,17.27,2013-03-31 00:00:00,2013-04-27 00:00:00,50.173388483472316,1.2189854675572895,-5.7340247019722375,2.338488310704134
sz000815,2013-07-16,4.83,4.9,4.77,4.88,0.004115,2589388.0,12521228.47,1540030020.0,1545984000.0,0.008205173454995376,17.41,2013-03-31 00:00:00,2013-04-27 00:00:00,50.588058801467945,1.2290600729754695,-5.781414960402658,2.3578153229059944
sz000815,2013-07-15,4.75,4.94,4.74,4.86,0.025315999999999998,3465556.0,16733512.61,1533718420.0,1539648000.0,0.010981547812407443,17.34,2013-03-31 00:00:00,2013-04-27 00:00:00,50.380742047940664,1.2240232174357213,-5.757721934641607,2.34815267464981
sz000815,2013-07-12,4.87,4.91,4.73,4.74,-0.026694,3318772.0,16079665.83,1495848830.0,1501632000.0,0.010516423160220006,16.91,2013-03-31 00:00:00,2013-04-27 00:00:00,49.13679494706088,1.1938009525216824,-5.615558456750511,2.2901746141187793
sz000815,2013-07-11,4.74,4.92,4.74,4.87,0.023109,4477572.0,21766221.45,1536874220.0,1542816000.0,0.014188393139940886,17.37,2013-03-31 00:00:00,2013-04-27 00:00:00,50.4844262205934,1.226542271928543,-5.769571395584237,2.35298520107631
sz000815,2013-07-10,4.58,4.79,4.58,4.76,0.039300999999999996,3546897.0,16556117.2,1502160430.0,1507968000.0,0.011239298667985814,16.98,2013-03-31 00:00:00,2013-04-27 00:00:00,49.3441326589771,1.1988383172550952,-5.639253877723916,2.2998382392064878
sz000815,2013-07-09,4.76,4.77,4.55,4.58,-0.043841000000000005,4461009.0,20603746.37,1445356040.0,1450944000.0,0.01413590883807425,16.34,2013-03-31 00:00:00,2013-04-27 00:00:00,47.478192226291604,1.1535044392866889,-5.426006400190046,2.212870226437276
sz000815,2013-07-08,5.01,5.01,4.79,4.79,-0.049602999999999994,3701331.0,17798257.18,1511627830.0,1517472000.0,0.011728664382951986,17.09,2013-03-31 00:00:00,2013-04-27 00:00:00,49.65512244960473,1.2063939567443165,-5.6747950918100925,2.3143328948817885
sz000815,2013-07-05,5.02,5.13,5.01,5.04,0.0,2706634.0,13694473.58,1590522810.0,1596672000.0,0.008576698978620746,17.98,2013-03-31 00:00:00,2013-04-27 00:00:00,52.24671631918528,1.2693579175274297,-5.970973279387553,2.4351222645713198
sz000815,2013-07-04,5.11,5.15,4.99,5.04,-0.015625,4617677.0,23344618.23,1590522810.0,1596672000.0,0.01463235354669324,17.98,2013-03-31 00:00:00,2013-04-27 00:00:00,52.24671631918528,1.2693579175274297,-5.970973279387553,2.4351222645713198
sz000815,2013-07-03,5.1,5.24,5.07,5.12,0.0,4009703.0,20620848.49,1615769200.0,1622016000.0,0.012705824173402984,18.26,2013-03-31 00:00:00,2013-04-27 00:00:00,53.07602927663267,1.2895064559008809,-6.0657506330286255,2.4737749989295947
sz000815,2013-07-02,5.0,5.17,4.98,5.12,0.028112,4263326.0,21782831.07,1615769200.0,1622016000.0,0.013509496975186802,18.26,2013-03-31 00:00:00,2013-04-27 00:00:00,53.07602927663267,1.2895064559008809,-6.0657506330286255,2.4737749989295947
sz000815,2013-07-01,4.72,4.98,4.68,4.98,0.050633,3973333.0,19522948.6,1571588010.0,1577664000.0,0.012590576037800137,17.76,2013-03-31 00:00:00,2013-04-27 00:00:00,51.6247541869297,1.254247062480431,-5.899892845359869,2.4061337664861364
sz000815,2013-06-28,4.82,4.9,4.62,4.74,-0.024691,4138609.0,19677236.78,1495848830.0,1501632000.0,0.01311429755906551,16.91,2013-03-31 00:00:00,2013-04-27 00:00:00,49.13681008204549,1.1938013202330702,-5.61556018643986,2.29017531953226
sz000815,2013-06-27,5.17,5.24,4.86,4.86,-0.050781,6619408.0,33380039.55,1533718420.0,1539648000.0,0.02097537752725171,17.34,2013-03-31 00:00:00,2013-04-27 00:00:00,50.380761463336746,1.2240236891416671,-5.757724153514282,2.3481535795653072
sz000815,2013-06-26,5.12,5.16,4.98,5.12,0.007873999999999999,4811496.0,24517652.47,1615769200.0,1622016000.0,0.015246521297719997,18.26,2013-03-31 00:00:00,2013-04-27 00:00:00,53.07601455863899,1.2895060983204791,-6.065748950994745,2.4737743129512864
sz000815,2013-06-25,5.14,5.25,5.08,5.08,-0.050467000000000005,6821410.0,34733249.96,1603146000.0,1609344000.0,0.021615475321648807,18.12,2013-03-31 00:00:00,2013-04-27 00:00:00,52.66135901773335,1.279431851918473,-6.01836038135198,2.4544479894821043
sz000815,2013-06-24,5.45,5.54,5.35,5.35,-0.049734,9156828.0,49308636.69,1688352580.0,1694880000.0,0.029015876411312144,19.08,2013-03-31 00:00:00,2013-04-27 00:00:00,55.46027259477381,1.3474327400084813,-6.338231932278268,2.5849001451051246
sz000815,2013-06-21,5.63,5.63,5.63,5.63,-0.050589999999999996,1056200.0,5946406.0,1776714960.0,1783584000.0,0.0033468542416055305,20.08,2013-03-31 00:00:00,2013-04-27 00:00:00,58.36289270033213,1.4179532257373002,-6.669955499068964,2.7201858691199354
sz000815,2013-06-20,5.93,5.93,5.93,5.93,-0.049679,574400.0,3406192.0,1871388940.0,1878624000.0,0.0018201411407294092,21.15,2013-03-31 00:00:00,2013-04-27 00:00:00,61.47280174037785,1.493509891129544,-7.0253689123444705,2.865132944797227
sz000815,2013-05-31,6.2,6.29,6.12,6.24,-0.004785,8586611.0,53204674.54,1969218710.0,1976832000.0,0.02720899022942962,22.26,2013-03-31 00:00:00,2013-04-27 00:00:00,64.68635517933187,1.5715846446932604,-7.392627241052729,3.014910693120774
sz000815,2013-05-30,6.25,6.31,6.09,6.27,-0.001592,11573444.0,71871939.75,1978686110.0,1986336000.0,0.03667357521400905,22.37,2013-03-31 00:00:00,2013-04-27 00:00:00,64.99736758321757,1.5791408335819501,-7.428171039476625,3.0294064027579712
sz000815,2013-05-29,6.02,6.28,5.99,6.28,0.050167,19929944.0,124079189.09,1981841910.0,1989504000.0,0.0631533966904555,22.4,2013-03-31 00:00:00,2013-04-27 00:00:00,65.10100838857217,1.5816588344463887,-7.440015544223028,3.0342369079153726
sz000815,2013-05-28,5.81,6.06,5.81,5.98,0.034602,11786036.0,70317831.91,1887167930.0,1894464000.0,0.03734723029126507,21.33,2013-03-31 00:00:00,2013-04-27 00:00:00,61.99110083307908,1.5061022051220314,-7.084602300608404,2.889289901430317
sz000815,2013-05-27,5.76,5.87,5.71,5.78,0.0,7477148.0,43216528.27,1824051950.0,1831104000.0,0.023693357768675396,20.62,2013-03-31 00:00:00,2013-04-27 00:00:00,59.9178242774314,1.4557310010245788,-6.847659583693444,2.7926583376315888
sz000815,2013-05-24,5.5,5.78,5.5,5.78,0.050908999999999996,11772967.0,66991371.86,1824051950.0,1831104000.0,0.03730581755634756,20.62,2013-03-31 00:00:00,2013-04-27 00:00:00,59.9178242774314,1.4557310010245788,-6.847659583693444,2.7926583376315888
sz000815,2013-05-23,5.44,5.61,5.42,5.5,0.005484,7913187.0,43820217.91,1735689570.0,1742400000.0,0.025075064834318272,19.62,2013-03-31 00:00:00,2013-04-27 00:00:00,57.01523564593262,1.385211279972461,-6.515939613889922,2.6573740805641486
sz000815,2013-05-22,5.42,5.48,5.38,5.47,0.005515,4903437.0,26595862.61,1726222170.0,1732896000.0,0.015537861149124274,19.51,2013-03-31 00:00:00,2013-04-27 00:00:00,56.70426943236552,1.3776562132987304,-6.480401094288841,2.642880523771784
sz000815,2013-05-21,5.48,5.48,5.4,5.44,-0.001835,4048521.0,21987468.13,1716754780.0,1723392000.0,0.012828829426646478,19.41,2013-03-31 00:00:00,2013-04-27 00:00:00,56.39326060015567,1.3701001111855424,-6.4448577040510004,2.6283849806037543
sz000815,2013-05-20,5.53,5.57,5.45,5.45,-0.001832,3986259.0,21916051.18,1719910570.0,1726560000.0,0.012631535574550252,19.44,2013-03-31 00:00:00,2013-04-27 00:00:00,56.4969324712404,1.3726188668061317,-6.456705759118985,2.633216933677052
sz000815,2013-05-17,5.38,5.48,5.35,5.46,0.01487,3641642.0,19704612.91,1723066370.0,1729728000.0,0.011539523761931469,19.48,2013-03-31 00:00:00,2013-04-27 00:00:00,56.60062481590313,1.3751381198416817,-6.4685561539931,2.6380498409857376
sz000815,2013-05-16,5.32,5.4,5.27,5.38,0.007490999999999999,4040416.0,21593542.78,1697819980.0,1704384000.0,0.012803146585658627,19.19,2013-03-31 00:00:00,2013-04-27 00:00:00,55.77130550307244,1.3549894270612803,-6.3737780740322405,2.5993968104148686
sz000815,2013-05-15,5.38,5.41,5.25,5.34,-0.007435,3668252.0,19520463.69,1685196780.0,1691712000.0,0.011623844712069767,19.05,2013-03-31 00:00:00,2013-04-27 00:00:00,55.35662899526889,1.3449146712588802,-6.326387108204679,2.5800695097175748
sz000815,2013-05-14,5.39,5.41,5.3,5.38,-0.001855,3077778.0,16486032.57,1697819980.0,1704384000.0,0.00975276874760303,19.19,2013-03-31 00:00:00,2013-04-27 00:00:00,55.77128852545565,1.3549890145822996,-6.373776133759179,2.59939601911973
sz000815,2013-05-13,5.31,5.44,5.28,5.39,0.028626,5015978.0,26860889.05,1700975780.0,1707552000.0,0.015894477592150076,19.23,2013-03-31 00:00:00,2013-04-27 00:00:00,55.87493653272386,1.3575071904205298,-6.385621461570392,2.604226859944928
sz000815,2013-05-10,5.17,5.24,5.1,5.24,0.01354,3386423.0,17548076.99,1653638790.0,1660032000.0,0.010730793585218208,18.69,2013-03-31 00:00:00,2013-04-27 00:00:00,54.319972986025874,1.319728638417199,-6.207913723326449,2.5317529013897446
sz000815,2013-05-09,5.32,5.32,5.06,5.17,-0.024528,6472168.0,33539756.67,1631548200.0,1637856000.0,0.020508807867276,18.44,2013-03-31 00:00:00,2013-04-27 00:00:00,53.594306081679925,1.3020982284046005,-6.124981474166238,2.4979309167765895
sz000815,2013-05-08,5.28,5.36,5.24,5.3,-0.001883,5020747.0,26618763.08,1672573590.0,1679040000.0,0.015909589425001022,18.91,2013-03-31 00:00:00,2013-04-27 00:00:00,54.94192153304239,1.3348391634045884,-6.278992604776188,2.560740766292205
sz000815,2013-05-07,5.5,5.5,5.26,5.31,-0.041516000000000004,9755117.0,51909344.74,1675729390.0,1682208000.0,0.03091171616319267,18.94,2013-03-31 00:00:00,2013-04-27 00:00:00,55.04557234576947,1.3373574074027277,-6.290838253206976,2.5655717378746226
sz000815,2013-05-06,5.47,5.56,5.45,5.54,0.009106999999999999,4259760.0,23453110.69,1748312770.0,1755072000.0,0.013498197121788454,19.76,2013-03-31 00:00:00,2013-04-27 00:00:00,57.42982913201417,1.3952840187240763,-6.563321091647828,2.676697511773407
sz000815,2013-05-03,5.57,5.65,5.47,5.49,-0.01259,4718004.0,26252539.56,1732533770.0,1739232000.0,0.014950266718322034,19.58,2013-03-31 00:00:00,2013-04-27 00:00:00,56.911535775704834,1.382691844099859,-6.504088358962754,2.652540822502874
sz000815,2013-05-02,5.53,5.65,5.44,5.56,0.005425,2501277.0,13952755.08,1754624370.0,1761408000.0,0.007925970001203162,19.83,2013-03-31 00:00:00,2013-04-27 00:00:00,57.63718797227578,1.4003218967803233,-6.587018927256919,2.686362121613994
sz000815,2013-04-26,5.75,5.79,5.53,5.53,-0.049828,6418300.0,35795391.79,1745156970.0,1751904000.0,0.020338112622614115,19.73,2012-12-31 00:00:00,2013-04-26 00:00:00,70.68809039894671,1.2855639766841005,-33.980582524271846,2.6321426021561676
sz000815,2013-04-25,5.9,6.03,5.8,5.82,0.010417000000000001,6103054.0,36010781.45,1836675150.0,1843776000.0,0.019339170718349407,20.76,2012-09-30 00:00:00,2012-10-31 00:00:00,-10.685052333153735,1.9336481155270555,-53.688733570480906,3.3109869695702225
sz000815,2013-04-24,5.7,5.8,5.67,5.76,0.005236,2805881.0,16100992.94,1817740350.0,1824768000.0,0.008891189855580859,20.55,2012-09-30 00:00:00,2012-10-31 00:00:00,-10.574893665836713,1.9137129675441484,-53.13522394267011,3.2768520022626526
sz000815,2013-04-23,5.83,5.83,5.63,5.73,-0.017153,2932985.0,16748979.73,1808272950.0,1815264000.0,0.009293953133568691,20.44,2012-09-30 00:00:00,2012-10-31 00:00:00,-10.519811930568258,1.9037449589391429,-52.85845706149612,3.25978377441979
sz000815,2013-04-22,5.63,5.85,5.63,5.83,0.019231,3395291.0,19436965.92,1839830950.0,1846944000.0,0.010758894196230365,20.8,2012-09-30 00:00:00,2012-10-31 00:00:00,-10.703407479056514,1.936969801952026,-53.78096190098369,3.316674695471208
sz000815,2013-04-19,5.63,5.76,5.6,5.72,0.015986,3305628.0,18887887.86,1805117150.0,1812096000.0,0.010474772875544392,20.4,2012-09-30 00:00:00,2012-10-31 00:00:00,-10.501454016858313,1.9004227716307942,-52.76621482370894,3.254095190855859
sz000815,2013-04-18,5.51,5.68,5.46,5.63,0.010772,2821508.0,15785676.81,1776714960.0,1783584000.0,0.00894070821579619,20.08,2012-09-30 00:00:00,2012-10-31 00:00:00,-10.336219216463919,1.870520628857872,-51.93596646381833,3.2028937316615176
sz000815,2013-04-17,5.55,5.57,5.49,5.57,0.003604,1906021.0,10535326.77,1757780170.0,1764576000.0,0.006039741004701401,19.87,2012-09-30 00:00:00,2012-10-31 00:00:00,-10.226064054469177,1.8505861152246719,-51.382474449053134,3.168759850551378
sz000815,2013-04-16,5.45,5.6,5.34,5.55,0.010929000000000001,3041358.0,16538344.36,1751468570.0,1758240000.0,0.009637362148040144,19.8,2012-09-30 00:00:00,2012-10-31 00:00:00,-10.189341667100944,1.843940553469966,-51.19795701198195,3.1573806506863047
sz000815,2013-04-15,5.68,5.69,5.44,5.49,-0.041885000000000006,4151383.0,22849556.08,1732533770.0,1739232000.0,0.013154775430437932,19.58,2012-09-30 00:00:00,2012-10-31 00:00:00,-10.07918624067659,1.8240059919835776,-50.64446366854838,3.1232466876371183
sz000815,2013-04-12,5.78,5.87,5.72,5.73,-0.012069,2304945.0,13373812.05,1808272950.0,1815264000.0,0.00730383919640008,20.44,2012-09-30 00:00:00,2012-10-31 00:00:00,-10.519808416188651,1.903744322950353,-52.85843940294055,3.2597826854157574
sz000815,2013-04-11,5.84,5.92,5.78,5.8,-0.008546999999999999,2598406.0,15116669.47,1830363550.0,1837440000.0,0.008233749410055724,20.69,2012-09-30 00:00:00,2012-10-31 00:00:00,-10.64832302679909,1.9270013016600887,-53.504181367869364,3.2996056257124815
sz000815,2013-04-10,5.91,5.96,5.72,5.85,-0.018456,4449683.0,25984177.61,1846142540.0,1853280000.0,0.014100019357118545,20.87,2012-09-30 00:00:00,2012-10-31 00:00:00,-10.74011882237392,1.943613365091526,-53.96542384547666,3.3280504731061193
sz000815,2013-04-09,5.91,5.99,5.87,5.96,0.008459999999999999,2865495.0,17044274.96,1880856340.0,1888128000.0,0.0090800928474952,21.26,2012-09-30 00:00:00,2012-10-31 00:00:00,-10.942065584807121,1.9801591829724658,-54.98013725872366,3.3906279016591405
sz000815,2013-04-08,6.01,6.01,5.8,5.91,-0.031148000000000002,6670682.0,38968011.96,1865077340.0,1872288000.0,0.02113785298576412,21.08,2012-09-30 00:00:00,2012-10-31 00:00:00,-10.850272281307262,1.9635475705258176,-54.51890730294079,3.3621838264870605
sz000815,2013-04-03,6.2,6.2,6.03,6.1,-0.017713,5357105.0,32688775.97,1925037520.0,1932480000.0,0.016975430432129963,21.76,2012-09-30 00:00:00,2012-10-31 00:00:00,-11.199101907522781,2.0266744255322973,-56.27165687116379,3.4702759827992926
sz000815,2013-04-02,6.19,6.31,6.13,6.21,0.004854,6816764.0,42413632.35,1959751320.0,1967328000.0,0.02160075312004382,22.15,2012-09-30 00:00:00,2012-10-31 00:00:00,-11.40104868284196,2.063220245745182,-57.28637034915844,3.5328534153453037
sz000815,2013-04-01,6.07,6.23,6.05,6.18,0.004878,5058508.0,31109719.6,1950283920.0,1957824000.0,0.016029245341878225,22.05,2012-09-30 00:00:00,2012-10-31 00:00:00,-11.345975318645257,2.053253752032815,-57.009645529757,3.515787781454126
sz000815,2013-03-29,5.93,6.15,5.93,6.15,0.028428,5356888.0,32511191.61,1940816520.0,1948320000.0,0.016974742774757502,21.94,2012-09-30 00:00:00,2012-10-31 00:00:00,-11.290898316656609,2.0432865999980248,-56.7329024316952,3.49872102031702
sz000815,2013-03-28,6.18,6.18,5.96,5.98,-0.035483999999999995,8222936.0,49813349.58,1887167930.0,1894464000.0,0.02605658802181955,21.33,2012-09-30 00:00:00,2012-10-31 00:00:00,-10.978793184021253,1.9868056879023372,-55.16468088353798,3.4020087165236848
sz000815,2013-03-27,6.21,6.27,6.13,6.2,0.0,6931549.0,42870786.0,1956595520.0,1964160000.0,0.021964480323454896,22.12,2012-09-30 00:00:00,2012-10-31 00:00:00,-11.382696797172107,2.0598991493166907,-57.19415840021107,3.5271666996956865
sz000815,2013-03-26,6.0,6.35,6.0,6.2,0.024793,12799054.0,79425517.25,1956595520.0,1964160000.0,0.04055725058595657,22.12,2012-09-30 00:00:00,2012-10-31 00:00:00,-11.382696797172107,2.0598991493166907,-57.19415840021107,3.5271666996956865
sz000815,2013-03-25,6.08,6.19,5.99,6.05,0.016807,8141341.0,49531254.72,1909258530.0,1916640000.0,0.02579803220782258,21.58,2012-09-30 00:00:00,2012-10-31 00:00:00,-11.10731318146407,2.010063641454119,-55.81044991545715,3.4418333260431
sz000815,2013-03-22,5.95,6.09,5.91,5.95,0.0,6233928.0,37297107.04,1877700540.0,1884960000.0,0.019753880243332092,21.22,2012-09-30 00:00:00,2012-10-31 00:00:00,-10.923718248855554,1.9768389098955048,-54.88794817055463,3.384942595834903
sz000815,2013-03-21,5.85,6.02,5.85,5.95,0.013628999999999999,7143211.0,42538719.38,1877700540.0,1884960000.0,0.022635188383127374,21.22,2012-09-30 00:00:00,2012-10-31 00:00:00,-10.923718248855554,1.9768389098955048,-54.88794817055463,3.384942595834903
sz000815,2013-03-20,5.74,5.94,5.7,5.87,0.022647999999999998,6469380.0,37724141.75,1852454140.0,1859616000.0,0.02049997340285034,20.94,2012-09-30 00:00:00,2012-10-31 00:00:00,-10.776840687130651,1.9502588322704906,-54.14993865660379,3.3394295110290875
sz000815,2013-03-19,5.83,5.85,5.68,5.74,-0.015437000000000001,5882564.0,33813712.66,1811428750.0,1818432000.0,0.0186404888185638,20.48,2012-09-30 00:00:00,2012-10-31 00:00:00,-10.538172163961256,1.9070675660349314,-52.95071095489727,3.265473076786037
sz000815,2013-03-18,5.91,6.07,5.78,5.83,-0.011864,6869050.0,40678362.72,1839830950.0,1846944000.0,0.02176643538907746,20.8,2012-09-30 00:00:00,2012-10-31 00:00:00,-10.703400558380983,1.9369685495340891,-53.780927126956094,3.316672550955132
sz000815,2013-03-15,6.02,6.19,5.9,5.9,-0.045307,14017599.0,84820487.67,1861921540.0,1869120000.0,0.0444185387639911,21.05,2012-09-30 00:00:00,2012-10-31 00:00:00,-10.831910342686617,1.9602246548391002,-54.42664484135391,3.356493995720358
sz000815,2013-03-14,5.91,6.18,5.87,6.18,0.049236,7560566.0,46163823.83,1950283920.0,1957824000.0,0.02395769016031266,22.05,2012-09-30 00:00:00,2012-10-31 00:00:00,-11.345961835570826,2.0532513120333973,-57.00957778191933,3.5157836034414816
sz000815,2013-03-13,6.15,6.22,5.86,5.89,-0.037582,11991172.0,71622882.55,1858765740.0,1865952000.0,0.03799725891225001,21.01,2012-09-30 00:00:00,2012-10-31 00:00:00,-10.813546080739533,1.9569013187056081,-54.33437070584629,3.3508034450223603
sz000815,2013-03-12,5.95,6.12,5.87,6.12,0.049743,20055689.0,122107795.04,1931349120.0,1938816000.0,0.06355185368039519,21.83,2012-09-30 00:00:00,2012-10-31 00:00:00,-11.235810303568234,2.03331745531111,-56.4561040066232,3.4816508471603402
sz000815,2013-03-11,5.66,5.9,5.6,5.83,0.035524,8343703.0,48176597.05,1839830950.0,1846944000.0,0.026439270678645776,20.8,2012-09-30 00:00:00,2012-10-31 00:00:00,-10.703391500175027,1.9369669102924334,-53.78088161256917,3.3166697440805417
sz000815,2013-03-08,5.57,5.7,5.53,5.63,0.010772,4935455.0,27863213.34,1776714960.0,1783584000.0,0.015639318785270993,20.08,2012-09-30 00:00:00,2012-10-31 00:00:00,-10.336208045564398,1.8705186072871642,-51.93591033386881,3.202890270124634
sz000815,2013-03-07,5.59,5.6,5.52,5.57,-0.017637,6218064.0,34615518.52,1757780170.0,1764576000.0,0.019703610878714146,19.87,2012-09-30 00:00:00,2012-10-31 00:00:00,-10.226053002620173,1.8505841151982487,-51.382418917291744,3.1687564259047876
sz000815,2013-03-06,5.66,5.67,5.43,5.67,-0.008741,11332171.0,62704043.18,1789338160.0,1796256000.0,0.035909036651853445,20.23,2012-09-30 00:00:00,2012-10-31 00:00:00,-10.409647963756953,1.8838088519195537,-52.304920805539034,3.2256471649530645
sz000815,2013-03-05,5.94,5.94,5.66,5.72,0.010601000000000001,11787449.0,68438410.27,1805117150.0,1812096000.0,0.037351707771431895,20.4,2012-09-30 00:00:00,2012-10-31 00:00:00,-10.501441060062964,1.9004204268708316,-52.76614972024368,3.254091175921797
sz000815,2013-03-04,5.66,5.66,5.66,5.66,0.050093,636628.0,3603314.48,1786182360.0,1793088000.0,0.002017327323734179,20.19,2012-09-30 00:00:00,2012-10-31 00:00:00,-10.391283068256378,1.8804854011334162,-52.21264348664179,3.2199564179352653
sz000815,2013-02-26,5.58,5.58,5.39,5.39,-0.030576,3901352.0,21349677.22,1700975780.0,1707552000.0,0.012362484832088554,19.23,2012-09-30 00:00:00,2012-10-31 00:00:00,-9.895583599030159,1.7907798653389901,-49.72192318836692,3.06635356862227
sz000815,2013-02-25,5.58,5.61,5.5,5.56,-0.008912999999999999,3050370.0,16934826.43,1754624370.0,1761408000.0,0.00966591909355505,19.83,2012-09-30 00:00:00,2012-10-31 00:00:00,-10.207694052375597,1.8472617403107312,-51.29017147127256,3.1630675211489194
sz000815,2013-02-22,5.57,5.73,5.55,5.61,0.008993000000000001,3870583.0,21822188.55,1770403360.0,1777248000.0,0.0122649849862463,20.01,2012-09-30 00:00:00,2012-10-31 00:00:00,-10.29949343738299,1.8638744533131109,-51.751431984550855,3.1915134808033194
sz000815,2013-02-21,5.62,5.63,5.5,5.56,-0.017668,4319264.0,24002230.77,1754624370.0,1761408000.0,0.013686751563811916,19.83,2012-09-30 00:00:00,2012-10-31 00:00:00,-10.20769563057721,1.8472620259140657,-51.2901794011959,3.1630680101877013
sz000815,2013-02-20,5.55,5.69,5.53,5.66,0.019819999999999997,3553041.0,20011462.77,1786182360.0,1793088000.0,0.011258767587425956,20.19,2012-09-30 00:00:00,2012-10-31 00:00:00,-10.391288923273608,1.8804864607017442,-52.2126729061009,3.219958232234826
sz000815,2013-02-19,5.79,5.8,5.55,5.55,-0.038127999999999995,4745652.0,26812383.97,1751468570.0,1758240000.0,0.01503787681442665,19.8,2012-09-30 00:00:00,2012-10-31 00:00:00,-10.189336278238914,1.843939578260619,-51.197929934793294,3.1573789808346833
sz000815,2013-02-18,5.76,5.87,5.7,5.77,0.005226,4104701.0,23771676.94,1820896150.0,1827936000.0,0.013006850923376383,20.58,2012-09-30 00:00:00,2012-10-31 00:00:00,-10.593235147960346,1.9170321812680053,-53.22738361735584,3.2825354941558578
sz000815,2013-02-08,5.9,5.9,5.69,5.74,-0.018803,5437443.0,31316131.55,1811428750.0,1818432000.0,0.017230003012815163,20.48,2012-09-30 00:00:00,2012-10-31 00:00:00,-10.538162709639769,1.9070658551092048,-52.95066345016528,3.265470147166764
sz000815,2013-02-07,5.78,5.92,5.76,5.85,0.012111,4973649.0,29070393.09,1846142540.0,1853280000.0,0.01576034678774045,20.87,2012-09-30 00:00:00,2012-10-31 00:00:00,-10.740108978767536,1.9436115837178516,-53.965374384721194,3.328047422858778
sz000815,2013-02-06,5.74,5.85,5.7,5.78,0.0017329999999999997,3380974.0,19495615.9,1824051950.0,1831104000.0,0.01071352694751923,20.62,2012-09-30 00:00:00,2012-10-31 00:00:00,-10.611591988198464,1.92035417431275,-53.31962046131422,3.288223745082089
sz000815,2013-02-05,5.63,5.83,5.6,5.77,0.02669,5451721.0,31297273.04,1820896150.0,1827936000.0,0.01727524668004817,20.58,2012-09-30 00:00:00,2012-10-31 00:00:00,-10.593233913825804,1.9170319579296577,-53.227377416251855,3.2825351117334547
sz000815,2013-02-04,5.65,5.76,5.6,5.62,-0.003546,5525421.0,31313456.75,1773559160.0,1780416000.0,0.01750878500156713,20.05,2012-09-30 00:00:00,2012-10-31 00:00:00,-10.31785048439724,1.8671964837776325,-51.84366986748858,3.19720179580346
sz000815,2013-02-01,5.66,5.74,5.54,5.64,-0.030927999999999997,8855422.0,49991317.54,1779870760.0,1786752000.0,0.02806079025647907,20.12,2012-09-30 00:00:00,2012-10-31 00:00:00,-10.354567781751332,1.8738411244047721,-52.02816172897954,3.208579418421182
sz000815,2013-01-31,6.0,6.0,5.8,5.82,-0.034825999999999996,8214231.0,48392626.94,1836675150.0,1843776000.0,0.02602900377892084,20.76,2012-09-30 00:00:00,2012-10-31 00:00:00,-10.685034529685442,1.9336448936763957,-53.68864411414172,3.3109814527931687
sz000815,2013-01-30,5.73,6.03,5.58,6.03,0.050523,14680247.0,86385241.73,1902946930.0,1910304000.0,0.046518317465637365,21.51,2012-09-30 00:00:00,2012-10-31 00:00:00,-11.070578496401108,2.0034158542152976,-55.625870686675896,3.4304503154800785
sz000815,2013-01-29,5.94,6.02,5.73,5.74,-0.048093000000000004,12732679.0,73797306.47,1811428750.0,1818432000.0,0.04034692364245627,20.48,2012-09-30 00:00:00,2012-10-31 00:00:00,-10.538159084952074,1.9070651991582264,-52.95064523734929,3.2654690239814625
sz000815,2013-01-28,6.06,6.2,5.92,6.03,-0.016313,8520322.0,51207402.48,1902946930.0,1910304000.0,0.026998935624547343,21.51,2012-09-30 00:00:00,2012-10-31 00:00:00,-11.070576311501096,2.003415458819219,-55.625859708300595,3.430449638443107
sz000815,2013-01-25,5.98,6.27,5.89,6.13,0.019967,8848062.0,53606089.71,1934504920.0,1941984000.0,0.028037468139393517,21.87,2012-09-30 00:00:00,2012-10-31 00:00:00,-11.2541655135232,2.03663915332745,-56.54833265896631,3.4873385929092353
sz000815,2013-01-24,5.87,6.08,5.78,6.01,0.037997,13129897.0,78637468.09,1896635330.0,1903968000.0,0.041605615861853636,21.44,2012-09-30 00:00:00,2012-10-31 00:00:00,-11.033852579076774,1.996769653652961,-55.44133551278258,3.4190700217842687
sz000815,2013-01-23,5.85,5.89,5.67,5.79,-0.021959,7126106.0,41188856.72,1827207750.0,1834272000.0,0.0225809866119493,20.65,2012-09-30 00:00:00,2012-10-31 00:00:00,-10.629946501846124,1.9236757463200382,-53.41184561495127,3.2939112750656006
sz000815,2013-01-22,5.81,6.05,5.8,5.92,0.027777999999999997,15521364.0,92376861.55,1868233140.0,1875456000.0,0.049183623238799844,21.12,2012-09-30 00:00:00,2012-10-31 00:00:00,-10.868610315770121,1.9668661603348307,-54.611049654310264,3.3678662500504584
sz000815,2013-01-21,5.52,5.76,5.46,5.76,0.04918,7900198.0,44916411.5,1817740350.0,1824768000.0,0.02503390568405438,20.55,2012-09-30 00:00:00,2012-10-31 00:00:00,-10.57486180456297,1.9137072016863863,-53.13506385066645,3.276842129380526
sz000815,2013-01-18,5.47,5.55,5.43,5.49,0.007339,4955753.0,27142067.73,1732533770.0,1739232000.0,0.01570363847511036,19.58,2012-09-30 00:00:00,2012-10-31 00:00:00,-10.079168307214177,1.8240027466081952,-50.6443735590332,3.123241130578667
sz000815,2013-01-17,5.58,5.59,5.42,5.45,-0.026786,6278746.0,34470782.76,1719910570.0,1726560000.0,0.01989589825010495,19.44,2012-09-30 00:00:00,2012-10-31 00:00:00,-10.00573620917504,1.810713917170084,-50.275402380959335,3.1004866589883515
sz000815,2013-01-16,5.55,5.73,5.51,5.6,0.007194,9026018.0,50677580.04,1767247560.0,1774080000.0,0.02860136969152188,19.98,2012-09-30 00:00:00,2012-10-31 00:00:00,-10.281126462602305,1.8605506262446738,-51.6591442179822,3.185822089477085
sz000815,2013-01-15,5.56,5.65,5.52,5.56,0.001802,8683394.0,48432170.55,1754624370.0,1761408000.0,0.027515673135213546,19.83,2012-09-30 00:00:00,2012-10-31 00:00:00,-10.207692324023284,1.8472614275349872,-51.290162786893305,3.1630669855828026
sz000815,2013-01-14,5.45,5.64,5.42,5.55,-0.0035909999999999996,11154599.0,61893170.93,1751468570.0,1758240000.0,0.03534635191883575,19.8,2012-09-30 00:00:00,2012-10-31 00:00:00,-10.189331149292258,1.8439386500875294,-51.19790416359051,3.1573773915232772
sz000815,2013-01-11,5.61,5.83,5.32,5.57,-0.005357,19492392.0,106860566.28,1757780170.0,1764576000.0,0.061766895140249536,19.87,2012-09-30 00:00:00,2012-10-31 00:00:00,-10.2260529052751,1.850584097581946,-51.38241842816605,3.168756395740381
sz000815,2013-01-10,5.6,5.6,5.6,5.6,0.050657,967226.0,5416465.6,1767247560.0,1774080000.0,0.003064916156964449,19.98,2012-09-30 00:00:00,2012-10-31 00:00:00,-10.281128912861298,1.860551069662126,-51.65915652969563,3.1858228487410867
sz000815,2013-01-09,5.33,5.33,5.33,5.33,0.049213,1001290.0,5336875.7,1682040980.0,1688544000.0,0.0031728571202825273,19.01,2012-09-30 00:00:00,2012-10-31 00:00:00,-9.78542846320093,1.7708453564408995,-49.16843130507447,3.0322196956200616
