code,date,open,high,low,close,change,volume,money,traded_market_value,market_value,turnover,adjust_price,report_type,report_date,PE_TTM,PS_TTM,PC_TTM,PB
sz002600,2014-12-31,10.78,10.95,10.38,10.67,-0.073785,22877871.0,243441086.42,2072309260.0,3390926000.0,0.11779462085210196,10.97,2014-09-30 00:00:00,2014-10-30 00:00:00,-298.4616900478045,1.939056840907102,-222.15293398311493,2.7641541509204113
sz002600,2014-12-30,13.0,13.0,11.52,11.52,-0.1,25271449.0,300574818.94,2237394820.0,3661056000.0,0.13011878363068705,11.84,2014-09-30 00:00:00,2014-10-30 00:00:00,-322.23802254099155,2.0935277888040056,-239.85028744202472,2.9843547674356508
sz002600,2014-11-14,12.56,12.83,12.45,12.8,0.011858,6970177.0,88284951.69,2485994240.0,4067840000.0,0.035888363763867774,13.16,2014-09-30 00:00:00,2014-10-30 00:00:00,-358.04224726776835,2.326141987560006,-266.50031938002746,3.3159497415951673
sz002600,2014-11-13,12.79,12.79,12.45,12.65,-0.01403,7356998.0,92872160.58,2456861500.0,4020170000.0,0.0378800452121538,13.0,2014-09-30 00:00:00,2014-10-30 00:00:00,-353.84633739889233,2.298881846622754,-263.377192629823,3.277090008277019
sz002600,2014-11-12,12.65,12.83,12.56,12.83,0.018254,7148465.0,90894822.26,2491820790.0,4077374000.0,0.03680634109726647,13.19,2014-09-30 00:00:00,2014-10-30 00:00:00,-358.88144405904063,2.331594112014314,-267.1249557591235,3.323721825488624
sz002600,2014-11-11,13.14,13.16,12.47,12.6,-0.038168,11470191.0,146341825.62,2447150580.0,4004280000.0,0.05905824013494094,12.95,2014-09-30 00:00:00,2014-10-30 00:00:00,-352.44786080785406,2.2897961726782454,-262.3362694957481,3.2641382459471053
sz002600,2014-11-10,12.97,13.26,12.93,13.1,0.009245,8967197.0,117646740.31,2544259730.0,4163180000.0,0.04617071099891205,13.47,2014-09-30 00:00:00,2014-10-30 00:00:00,-366.43391029603305,2.380661251318573,-272.7464562374179,3.3936677568921656
sz002600,2014-11-07,13.34,13.34,12.97,12.98,-0.028443,12985554.0,170906197.71,2520953530.0,4125044000.0,0.06686061004861125,13.34,2014-09-30 00:00:00,2014-10-30 00:00:00,-363.07726101792235,2.3588536493305123,-270.2480133539605,3.3625806983360493
sz002600,2014-11-06,13.15,13.39,12.9,13.36,0.012121,11243938.0,148234012.92,2594756490.0,4245808000.0,0.05789329837267311,13.73,2014-09-30 00:00:00,2014-10-30 00:00:00,-373.70659777853734,2.4279107137620466,-278.1597099850658,3.4610225630982527
sz002600,2014-11-05,13.08,13.2,12.9,13.2,0.006097999999999999,7991492.0,104324178.97,2563681560.0,4194960000.0,0.041146956800672235,13.57,2014-09-30 00:00:00,2014-10-30 00:00:00,-369.23114704520236,2.398834441496665,-274.8285135720588,3.419573907762266
sz002600,2014-11-04,13.5,13.62,13.09,13.12,-0.028148000000000003,17976300.0,238729619.34,2548144100.0,4169536000.0,0.09255718936774415,13.49,2014-09-30 00:00:00,2014-10-30 00:00:00,-366.9932223751587,2.384295010522499,-273.1627670187783,3.398847734278635
sz002600,2014-11-03,13.0,13.67,12.91,13.5,0.038462,23973400.0,318892569.67,2621947050.0,4290300000.0,0.12343533024436935,13.88,2014-09-30 00:00:00,2014-10-30 00:00:00,-377.62254167832,2.453351961535809,-281.07445065583886,3.497289437361486
sz002600,2014-10-31,13.13,13.17,12.75,13.0,-0.009901,10845857.0,140655280.16,2524837900.0,4131400000.0,0.05584364089274801,13.36,2014-09-30 00:00:00,2014-10-30 00:00:00,-363.63636,2.362486024077731,-270.664165521549,3.367758702159045
sz002600,2014-10-30,12.89,13.32,12.78,13.13,0.01,17474151.0,228837855.0,2550086280.0,4172714000.0,0.08997170191041537,13.5,2014-09-30 00:00:00,2014-10-30 00:00:00,-367.2727272727273,2.3861109081796177,-273.37080991047264,3.4014363231949987
sz002600,2014-10-29,13.05,13.4,12.91,13.0,0.007751999999999999,27769863.0,365033328.56,2524837900.0,4131400000.0,0.14298273128742245,13.36,2014-06-30 00:00:00,2014-08-18 00:00:00,3359.174974932577,2.560433515226904,-185.16154841956262,3.3446477953995357
sz002600,2014-10-28,12.82,13.09,12.69,12.9,0.0086,13407968.0,173057443.09,2505416070.0,4099620000.0,0.06903555432212104,13.26,2014-06-30 00:00:00,2014-08-18 00:00:00,3333.3349623047907,2.5407377164489917,-183.73721750942954,3.3189195311937225
sz002600,2014-10-27,12.66,12.96,12.41,12.79,0.027308999999999996,14944866.0,190332119.54,2484052060.0,4064662000.0,0.07694880442240007,13.15,2014-06-30 00:00:00,2014-08-18 00:00:00,3304.912712973221,2.5190736827771087,-182.1705507727836,3.2906201974952634
sz002600,2014-10-24,12.14,12.66,12.13,12.45,0.025535,13545727.0,167914038.98,2418017840.0,3956610000.0,0.06974485397096987,12.8,2014-06-30 00:00:00,2014-08-18 00:00:00,3217.0580740295477,2.4521090370833982,-177.32790306790224,3.2031454971145616
sz002600,2014-10-23,12.41,12.49,12.09,12.14,-0.022543999999999998,7470987.0,91649745.16,2357810160.0,3858092000.0,0.03846695705985082,12.48,2014-06-30 00:00:00,2014-08-18 00:00:00,3136.955904995487,2.3910534863104598,-172.91258032919617,3.1233897401010795
sz002600,2014-10-22,12.52,12.76,12.36,12.42,-0.012719,7489540.0,94082871.56,2412191290.0,3947076000.0,0.038562483491929034,12.77,2014-06-30 00:00:00,2014-08-18 00:00:00,3209.3065109789977,2.4462006333895947,-176.90062808883079,3.195427456684577
sz002600,2014-10-21,12.9,12.96,12.51,12.58,-0.024806,8231404.0,104755914.15,2443266210.0,3997924000.0,0.042382226666982804,12.93,2014-06-30 00:00:00,2014-08-18 00:00:00,3250.6515480182416,2.4777146864870234,-179.17961359413457,3.2365936918512324
sz002600,2014-10-20,12.8,12.9,12.65,12.9,0.00939,7613835.0,97510029.09,2505416070.0,4099620000.0,0.039202459294515504,13.26,2014-06-30 00:00:00,2014-08-18 00:00:00,3333.3383388517987,2.5407402901238347,-183.73740362854423,3.318922893138424
sz002600,2014-10-17,12.81,12.93,12.28,12.78,-0.012365000000000001,15059406.0,190799409.39,2482109870.0,4061484000.0,0.07753855339207848,13.14,2014-06-30 00:00:00,2014-08-18 00:00:00,3302.329465173817,2.517104677204881,-182.0281592135292,3.2880481212796084
sz002600,2014-10-16,13.15,13.44,12.91,12.94,-0.029985,12480062.0,164703289.44,2513184800.0,4112332000.0,0.0642579098361569,13.3,2014-06-30 00:00:00,2014-08-18 00:00:00,3343.6739941109995,2.5486183430162774,-184.30711671166898,3.3292138505415547
sz002600,2014-10-15,12.88,13.43,12.62,13.34,0.034109,17897387.0,234465401.8,2590872120.0,4239452000.0,0.09215087874734627,13.71,2014-06-30 00:00:00,2014-08-18 00:00:00,3447.033287228547,2.6274009608266646,-190.00439860380405,3.4321261532466556
sz002600,2014-10-14,13.0,13.09,12.75,12.9,-0.012251,13545517.0,175154212.48,2505416070.0,4099620000.0,0.06974377285765554,13.26,2014-06-30 00:00:00,2014-08-18 00:00:00,3333.3365121360976,2.5407388977628713,-183.73730293789538,3.3189210743225868
sz002600,2014-10-13,12.52,13.14,12.45,13.06,0.034046,21390173.0,275152152.28,2536491000.0,4150468000.0,0.1101346937087496,13.42,2014-06-30 00:00:00,2014-08-18 00:00:00,3374.6797133037826,2.5722515515205497,-186.01618724786906,3.3600854815571437
sz002600,2014-10-10,12.68,12.83,12.51,12.63,-0.009412,12629474.0,159930265.08,2452977130.0,4013814000.0,0.06502720904699182,12.98,2014-06-30 00:00:00,2014-08-18 00:00:00,3263.56826804976,2.4875600810027305,-179.8915979055758,3.2494545518837104
sz002600,2014-10-09,12.5,12.88,12.2,12.75,0.016746,25433423.0,319564216.0,2476283330.0,4051950000.0,0.13095276268325887,13.11,2014-06-30 00:00:00,2014-08-18 00:00:00,3294.5768251278632,2.5111954526026263,-181.60082486924512,3.2803290085118237
sz002600,2014-10-08,12.49,12.59,12.31,12.54,0.004808,12024736.0,149779419.39,2435497480.0,3985212000.0,0.0619135066565538,12.89,2014-06-30 00:00:00,2014-08-18 00:00:00,3240.3145182059857,2.4698355858814556,-178.60982474408073,3.226301365839476
sz002600,2014-09-30,12.22,12.63,12.16,12.48,0.022113,17898299.0,222021134.88,2423844380.0,3966144000.0,0.09215557457529513,12.83,2014-06-30 00:00:00,2014-08-18 00:00:00,3224.8096334881748,2.4580174380393625,-177.75517784898284,3.210863533968157
sz002600,2014-09-29,12.15,12.32,12.1,12.21,0.012438,11557283.0,140940572.83,2371405440.0,3880338000.0,0.059506663453551,12.55,2014-06-30 00:00:00,2014-08-18 00:00:00,3155.0421856371804,2.404839228186475,-173.9095167060617,3.1413978043212025
sz002600,2014-09-26,11.93,12.09,11.86,12.06,0.009205,7563435.0,90707693.64,2342272700.0,3832668000.0,0.038942957453246156,12.4,2014-06-30 00:00:00,2014-08-18 00:00:00,3116.281871716767,2.3752953051806385,-171.77300408129852,3.102805114309422
sz002600,2014-09-25,12.01,12.19,11.85,11.95,-0.0041670000000000006,12398072.0,149205636.94,2320908690.0,3797710000.0,0.06383575581338359,12.28,2014-06-30 00:00:00,2014-08-18 00:00:00,3087.858137560523,2.3536301397442925,-170.20625549942633,3.0745043022076017
sz002600,2014-09-24,11.79,12.07,11.76,12.0,0.010952,10100608.0,120622605.32,2330619600.0,3813600000.0,0.052006469009356994,12.33,2014-06-30 00:00:00,2014-08-18 00:00:00,3100.779084003566,2.3634787557193753,-170.91847277548177,3.08736937037395
sz002600,2014-09-23,11.6,11.95,11.59,11.87,0.024159,8909238.0,104518161.23,2305371220.0,3772286000.0,0.045872289088435825,12.2,2014-06-30 00:00:00,2014-08-18 00:00:00,3067.187249249782,2.3378743557749275,-169.06685260574363,3.053922807783109
sz002600,2014-09-22,11.96,11.97,11.5,11.59,-0.030936,12231288.0,142823843.1,2250990100.0,3683302000.0,0.06297701083625379,11.91,2014-06-30 00:00:00,2014-08-18 00:00:00,2994.8350297656725,2.282725978851846,-165.07871590811936,2.9818834846768016
sz002600,2014-09-19,11.9,12.01,11.86,11.96,0.001675,6974223.0,83282553.38,2322850870.0,3800888000.0,0.035909195961426485,12.29,2014-06-30 00:00:00,2014-08-18 00:00:00,3090.4409097496896,2.3555987827964366,-170.34862084250307,3.077075904869856
sz002600,2014-09-18,11.78,11.97,11.7,11.94,0.010152,7900536.0,93805360.83,2318966500.0,3794532000.0,0.040678638453811214,12.27,2014-06-30 00:00:00,2014-08-18 00:00:00,3085.273077345136,2.351659752710646,-170.06376403773982,3.071930421413987
sz002600,2014-09-17,11.81,11.89,11.58,11.82,0.0008470000000000001,10153623.0,119236017.72,2295660310.0,3756396000.0,0.05227943495699501,12.15,2014-06-30 00:00:00,2014-08-18 00:00:00,3054.266167215564,2.328025636449412,-168.3546278557483,3.041057604611967
sz002600,2014-09-16,12.43,12.46,11.81,11.81,-0.056709,26319025.0,319940824.48,2293718120.0,3753218000.0,0.1355125909063316,12.14,2014-06-30 00:00:00,2014-08-18 00:00:00,3051.6813930756284,2.326055467468466,-168.21215216286632,3.0384840086566345
sz002600,2014-09-15,12.15,12.77,12.08,12.52,0.027070999999999998,20152992.0,250462596.7,2431613120.0,3978856000.0,0.10376463992758848,12.87,2014-06-30 00:00:00,2014-08-18 00:00:00,3235.1431245242757,2.4658938413156344,-178.32477163766677,3.2211523365076467
sz002600,2014-09-12,12.08,12.23,11.95,12.19,0.007437999999999999,10577341.0,128027781.08,2367521080.0,3873982000.0,0.05446109345307286,12.53,2014-06-30 00:00:00,2014-08-18 00:00:00,3149.8729148464663,2.4008991017326298,-173.624580615816,3.1362508886996574
sz002600,2014-09-11,12.4,12.48,12.0,12.1,-0.028112,20165190.0,246966111.55,2350041430.0,3845380000.0,0.10382744571443576,12.44,2014-06-30 00:00:00,2014-08-18 00:00:00,3126.6171365845507,2.3831730605085673,-172.34269564560398,3.1130956830094334
sz002600,2014-09-10,12.38,12.48,12.21,12.45,0.005654,15788637.0,194788120.75,2418017840.0,3956610000.0,0.08129325077684289,12.8,2014-06-30 00:00:00,2014-08-18 00:00:00,3217.0549863611354,2.452106683597871,-177.32773287210463,3.203142422799164
sz002600,2014-09-09,12.05,12.43,11.89,12.38,0.030808,22643876.0,276988622.56,2404422550.0,3934364000.0,0.11658981691050935,12.73,2014-06-30 00:00:00,2014-08-18 00:00:00,3198.9680211694426,2.4383204199435093,-176.33075876206388,3.1851336769894645
sz002600,2014-09-05,12.11,12.16,11.75,12.01,-0.0033200000000000005,15854245.0,190044536.9,2332561780.0,3816778000.0,0.08163105649874791,12.35,2014-06-30 00:00:00,2014-08-18 00:00:00,3103.359715067639,2.365445766761133,-171.06072009730607,3.089938841170679
sz002600,2014-09-04,12.04,12.07,11.91,12.05,-0.002483,14519437.0,174150858.29,2340330520.0,3829490000.0,0.07475833620714395,12.39,2014-06-30 00:00:00,2014-08-18 00:00:00,3113.697189737568,2.3733252064465353,-171.63053346842125,3.100231610116265
sz002600,2014-09-03,12.0,12.2,11.87,12.08,-0.006579000000000001,25430178.0,305582424.46,2346157060.0,3839024000.0,0.13093605516759393,12.42,2014-06-30 00:00:00,2014-08-18 00:00:00,3121.4477444871295,2.379232841592209,-172.05775286879447,3.107948646605787
sz002600,2014-09-02,11.97,12.2,11.77,12.16,0.016722,35285275.0,421458873.92,2361694530.0,3864448000.0,0.1816784256175586,12.5,2014-06-30 00:00:00,2014-08-18 00:00:00,3142.1197503245144,2.394989477363785,-173.19721736181788,3.1285312537240375
sz002600,2014-09-01,12.1,12.26,11.92,11.96,-0.018062,20166131.0,243031889.96,2322850870.0,3800888000.0,0.10383229068855376,12.29,2014-06-30 00:00:00,2014-08-18 00:00:00,3090.4413894107875,2.355599148404171,-170.3486472819688,3.0770763824565983
sz002600,2014-08-29,11.94,12.36,11.82,12.18,0.007444,15132579.0,182286331.32,2365578890.0,3870804000.0,0.07791530986311769,12.52,2014-06-30 00:00:00,2014-08-18 00:00:00,3147.287699845395,2.398928596718093,-173.48208062216636,3.1336768537897486
sz002600,2014-08-28,11.8,12.47,11.76,12.09,0.018534000000000002,26417958.0,319153054.77,2348099250.0,3842202000.0,0.13602198127698392,12.43,2014-06-30 00:00:00,2014-08-18 00:00:00,3124.0324026401413,2.381202922165493,-172.2002221683452,3.110522127075796
sz002600,2014-08-27,11.4,12.12,11.35,11.87,0.044893999999999996,20779593.0,244691661.76,2305371220.0,3772286000.0,0.10699091181939886,12.2,2014-06-30 00:00:00,2014-08-18 00:00:00,3067.1851922863066,2.3378727879142893,-169.0667392235754,3.053920759715234
sz002600,2014-08-26,11.68,11.7,11.2,11.36,-0.034834,12428481.0,142564834.93,2206319890.0,3610208000.0,0.06399232713258093,11.68,2014-06-30 00:00:00,2014-08-18 00:00:00,2935.4032009814464,2.2374257943047713,-161.80276585335494,2.9227086763970647
sz002600,2014-08-25,11.57,11.89,11.43,11.77,0.012038,17107421.0,199701037.38,2285949390.0,3740506000.0,0.08808346591172782,12.1,2014-06-30 00:00:00,2014-08-18 00:00:00,3041.3454276066977,2.3181771781276703,-167.64242198062814,3.0281927423853148
sz002600,2014-08-22,11.44,11.68,11.35,11.63,0.014834,11192848.0,128719574.64,2258758830.0,3696014000.0,0.0576302438804412,11.95,2014-06-30 00:00:00,2014-08-18 00:00:00,3005.1692007678544,2.290602900412505,-165.6483471773077,2.9921729642417723
sz002600,2014-08-21,11.5,11.55,11.24,11.46,-0.007792,11557016.0,131395332.97,2225741720.0,3641988000.0,0.05950528858307963,11.78,2014-06-30 00:00:00,2014-08-18 00:00:00,2961.2421349381807,2.257120770897018,-163.22703730591178,2.9484358665966766
sz002600,2014-08-20,11.21,11.73,11.15,11.55,0.029412,22005589.0,251795133.55,2243221370.0,3670590000.0,0.1133033753819847,11.87,2014-06-30 00:00:00,2014-08-18 00:00:00,2984.4973381974155,2.274846373841995,-164.50889058132145,2.9715904997708917
sz002600,2014-08-19,11.23,11.3,11.13,11.22,-0.0062,9678481.0,108409972.47,2179129330.0,3565716000.0,0.04983300225691515,11.53,2014-06-30 00:00:00,2014-08-18 00:00:00,2899.2253229974153,2.209850258052165,-159.80860003703225,2.886687254248922
sz002600,2014-08-18,11.0,11.35,10.96,11.29,0.021719,16290782.0,182686739.42,2192724610.0,3587962000.0,0.08387871780214114,11.61,2014-06-30 00:00:00,2014-08-18 00:00:00,2917.3126614987077,2.2236368062509206,-160.80559472432307,2.904696371753796
sz002600,2014-08-15,11.01,11.09,10.82,11.05,-0.012511,18646494.0,204385157.46,2146112220.0000002,3511690000.0,0.09600791458146583,11.36,2014-03-31 00:00:00,2014-04-25 00:00:00,268.42419785346374,2.5095344981892866,-41.59244252655978,2.7783649653575377
sz002600,2014-08-14,10.91,11.46,10.91,11.19,-0.056491999999999994,34466416.0,384175897.22,2173302780.0,3556182000.0,0.17746224713336994,11.5,2014-03-31 00:00:00,2014-04-25 00:00:00,271.82500043389217,2.541329066135711,-42.11939831892789,2.8135654831168124
sz002600,2014-08-08,11.49,11.9,11.4,11.86,0.030407999999999998,16590725.0,194426337.56,2303429040.0,3769108000.0,0.08542307797769189,12.19,2014-03-31 00:00:00,2014-04-25 00:00:00,288.1003663285231,2.6934896854459214,-44.6412731200243,2.9820261016512974
sz002600,2014-08-07,11.62,11.72,11.45,11.51,-0.017918,10490202.0,121128683.12,2235452630.0,3657878000.0,0.0540124283555049,11.83,2014-03-31 00:00:00,2014-04-25 00:00:00,279.59834000563177,2.6140030797955,-43.323880559957125,2.8940246015668523
sz002600,2014-08-06,11.46,11.9,11.44,11.72,0.028069999999999998,19437252.0,227096731.27,2276238480.0,3724616000.0,0.10007940531784702,12.05,2014-03-31 00:00:00,2014-04-25 00:00:00,284.6995872092471,2.6616953368410172,-44.114320962971654,2.9468258267302043
sz002600,2014-08-05,11.4,11.47,11.24,11.4,0.001757,7664857.0,86896972.9,2214088620.0,3622920000.0,0.0394651636843696,11.72,2014-03-31 00:00:00,2014-04-25 00:00:00,276.92626689743605,2.5890215032449317,-42.90984170627647,2.866366907632947
sz002600,2014-08-04,11.17,11.42,11.13,11.38,0.019712999999999998,6630261.0,74963963.67,2210204250.0,3616564000.0,0.034138188893628275,11.7,2014-03-31 00:00:00,2014-04-25 00:00:00,276.44056083205413,2.5844805708818925,-42.83458134685006,2.8613395340715835
sz002600,2014-08-01,11.47,11.48,11.15,11.16,-0.03125,7563400.0,85591085.48,2167476230.0,3546648000.0,0.038942777240975786,11.47,2014-03-31 00:00:00,2014-04-25 00:00:00,271.09643677392967,2.5345176249414223,-42.00650707292155,2.8060243755562433
sz002600,2014-07-31,11.54,11.79,11.45,11.52,-0.0017329999999999997,5961745.0,68945177.07,2237394820.0,3661056000.0,0.030696103247436674,11.84,2014-03-31 00:00:00,2014-04-25 00:00:00,279.8414831214758,2.616276258004049,-43.36155568817709,2.8965412908967676
sz002600,2014-07-30,11.5,11.61,11.42,11.54,-0.004314,5656412.0,65064881.5,2241279180.0,3667412000.0,0.029123990916651445,11.86,2014-03-31 00:00:00,2014-04-25 00:00:00,280.32729031559273,2.6208181358334484,-43.43683171754359,2.901569711206288
sz002600,2014-07-29,11.41,11.63,11.37,11.59,0.016666999999999998,8156173.0,94115040.84,2250990100.0,3683302000.0,0.04199487375355405,11.91,2014-03-31 00:00:00,2014-04-25 00:00:00,281.5418619078633,2.63217333158591,-43.62503009738371,2.914141316847167
sz002600,2014-07-28,11.31,11.58,11.24,11.4,0.00885,7553117.0,86291035.99,2214088620.0,3622920000.0,0.0388898316996905,11.72,2014-03-31 00:00:00,2014-04-25 00:00:00,276.9263307531997,2.58902210024119,-42.90985160075394,2.866367568581617
sz002600,2014-07-25,11.1,11.43,11.04,11.3,0.017102000000000003,4976991.0,56117674.25,2194666790.0,3591140000.0,0.02562575720207622,11.62,2014-03-31 00:00:00,2014-04-25 00:00:00,274.49703201982425,2.566310254488963,-42.533430738716305,2.8412227472682927
sz002600,2014-07-24,11.0,11.13,10.79,11.11,0.004521,4436111.0,48706798.7,2157765310.0,3530758000.0,0.02284084973541446,11.42,2014-03-31 00:00:00,2014-04-25 00:00:00,269.88151829396094,2.523159186088478,-41.81825494268648,2.793449179402157
sz002600,2014-07-23,11.4,11.45,11.02,11.06,-0.032371,6181972.0,69173832.57,2148054400.0,3514868000.0,0.031830018047960054,11.37,2014-03-31 00:00:00,2014-04-25 00:00:00,268.66687535050136,2.5118033232640014,-41.630045506949564,2.780876835230082
sz002600,2014-07-22,11.18,11.5,11.1,11.43,0.022361000000000002,5767795.0,65627615.07,2219915170.0,3632454000.0,0.029697484724157275,11.75,2014-03-31 00:00:00,2014-04-25 00:00:00,277.654840182034,2.595833034421252,-43.022734443624124,2.8739081148147503
sz002600,2014-07-21,11.14,11.33,11.14,11.18,0.0035909999999999996,2721634.0,30493326.58,2171360590.0,3553004000.0,0.01401327271947954,11.49,2014-03-31 00:00:00,2014-04-25 00:00:00,271.5819951876431,2.5390571768888406,-42.08174455365974,2.8110502208268415
sz002600,2014-07-18,11.21,11.45,11.14,11.14,-0.009778,4058209.0,45806995.55,2163591860.0,3540292000.0,0.020895090749694353,11.45,2014-03-31 00:00:00,2014-04-25 00:00:00,270.6102338379311,2.529972047267105,-41.931169723183785,2.800991859060954
sz002600,2014-07-17,11.4,11.52,11.23,11.25,-0.021738999999999998,4453420.0,50661846.93,2184955880.0,3575250000.0,0.022929971016165323,11.56,2014-03-31 00:00:00,2014-04-25 00:00:00,273.28238903794414,2.554954391305288,-42.345221297026114,2.8286504026985404
sz002600,2014-07-16,11.4,11.57,11.27,11.5,-0.008621,7358297.0,83966368.85,2233510450.0,3654700000.0,0.03788673363941503,11.82,2014-03-31 00:00:00,2014-04-25 00:00:00,279.3552937691926,2.611730807325742,-43.28622044324174,2.8915089150017637
sz002600,2014-07-15,11.32,11.9,11.32,11.6,0.033868,13705405.0,158997459.28,2252932280.0,3686480000.0,0.07056701145051728,11.92,2014-03-31 00:00:00,2014-04-25 00:00:00,281.78455844756905,2.6344423346931314,-43.66263602844295,2.9166533838237076
sz002600,2014-07-14,11.03,11.27,10.95,11.22,0.015385,6866447.0,76253238.11,1456356000.0,3565716000.0,0.05290020801232666,11.53,2014-03-31 00:00:00,2014-04-25 00:00:00,272.553709417033,2.548141865976248,-42.232312082821934,2.82110809486676
sz002600,2014-07-11,11.05,11.2,11.01,11.05,-0.011628,5937535.0,65954659.39,1434290000.0,3511690000.0,0.04574372110939908,11.36,2014-03-31 00:00:00,2014-04-25 00:00:00,268.4240060834393,2.509532705305128,-41.592412811713714,2.7783629804131045
sz002600,2014-07-10,10.88,11.4,10.85,11.18,0.014518999999999999,9134004.0,102204794.51,1451164000.0,3553004000.0,0.07036983050847458,11.49,2014-03-31 00:00:00,2014-04-25 00:00:00,271.58196112742905,2.539056858455246,-42.08173927601522,2.8110498682814815
sz002600,2014-07-09,10.7,11.02,10.64,11.02,0.02037,7258262.0,78687716.91,1430396000.0,3502156000.0,0.05591881355932203,11.33,2014-03-31 00:00:00,2014-04-25 00:00:00,267.6952931659526,2.5027198686818544,-41.47949843819112,2.770820327940119
sz002600,2014-07-08,10.84,10.93,10.52,10.8,-0.028776999999999997,11198394.0,119993896.58,1401840000.0,3432240000.0,0.08627422187981511,11.1,2014-03-31 00:00:00,2014-04-25 00:00:00,262.351199237485,2.452757204427663,-40.651428832865655,2.715505481286317
sz002600,2014-07-07,11.3,11.47,11.07,11.12,-0.015929,6137114.0,68966624.94,1443376000.0,3533936000.0,0.047281309707241904,11.43,2014-03-31 00:00:00,2014-04-25 00:00:00,270.1245741065492,2.5254315480869614,-41.85591654323019,2.7959649650866143
sz002600,2014-07-04,11.28,11.5,11.24,11.3,0.000886,5557029.0,63098372.31,1466740000.0,3591140000.0,0.042812241910631745,11.62,2014-03-31 00:00:00,2014-04-25 00:00:00,274.49703741554134,2.566310304934259,-42.533431574784935,2.8412228031174727
sz002600,2014-07-03,11.4,11.59,11.27,11.29,-0.012248,7480760.0,85420509.28,1465442000.0,3587962000.0,0.05763297380585516,11.61,2014-03-31 00:00:00,2014-04-25 00:00:00,274.2540483287221,2.5640385667641064,-42.49578031342724,2.8387077080881067
sz002600,2014-07-02,11.43,11.59,11.22,11.43,0.0026320000000000002,7114623.0,81091488.0,1483614000.0,3632454000.0,0.054812195685670265,11.75,2014-03-31 00:00:00,2014-04-25 00:00:00,277.6547638766837,2.5958323210321073,-43.02272262007796,2.873907325004765
sz002600,2014-07-01,11.58,11.65,11.35,11.4,-0.023136,8966960.0,102897786.12,1479720000.0,3622920000.0,0.0690828967642527,11.72,2014-03-31 00:00:00,2014-04-25 00:00:00,276.925894921251,2.5890180255887576,-42.9097840684099,2.866363057437589
sz002600,2014-06-30,11.15,11.91,11.03,11.67,0.041964,14553784.0,166590067.21,1514766000.0,3708726000.0,0.11212468412942989,12.0,2014-03-31 00:00:00,2014-04-25 00:00:00,283.4845944995936,2.6503362040046086,-43.92605733081565,2.9342498622506197
sz002600,2014-06-27,11.05,11.38,10.92,11.2,0.015413,9975256.0,111897579.64,1453760000.0,3559360000.0,0.07685097072419106,11.51,2014-03-31 00:00:00,2014-04-25 00:00:00,272.0675517576361,2.5435967115990654,-42.156981748712674,2.8160760470137354
sz002600,2014-06-26,10.9,11.19,10.88,11.03,0.002727,9285933.0,102572213.71,1431694000.0,3505334000.0,0.0715403158705701,11.34,2014-03-31 00:00:00,2014-04-25 00:00:00,267.93782604480754,2.5049873417014217,-41.51707900993259,2.7733307009204484
sz002600,2014-06-25,11.06,11.08,10.8,11.0,-0.004525,9002533.0,98671157.95,1427800000.0,3495800000.0,0.06935695685670262,11.31,2014-03-31 00:00:00,2014-04-25 00:00:00,267.2091467017519,2.49817481897009,-41.40416983878223,2.765788395964653
sz002600,2014-06-24,10.35,11.39,10.3,11.05,0.067633,15014624.0,165213176.49,1434290000.0,3511690000.0,0.11567506933744223,11.36,2014-03-31 00:00:00,2014-04-25 00:00:00,268.42376423491487,2.509530444230232,-41.59237533718298,2.7783604771236377
sz002600,2014-06-23,10.3,10.48,10.26,10.35,0.0038799999999999998,3404754.0,35303432.05,1343430000.0,3289230000.0,0.026230770416024653,10.64,2014-03-31 00:00:00,2014-04-25 00:00:00,251.41950860915207,2.350555335241822,-38.95755876521518,2.6023553759799833
sz002600,2014-06-20,10.35,10.42,10.16,10.31,-0.003865,3353015.0,34492794.41,1338238000.0,3276518000.0,0.025832164869029277,10.6,2014-03-31 00:00:00,2014-04-25 00:00:00,250.44777125667616,2.3414704299735245,-38.80698765312107,2.592297262601091
sz002600,2014-06-19,10.78,10.87,10.23,10.35,-0.047838,6021588.0,63585050.7,1343430000.0,3289230000.0,0.04639127889060093,10.64,2014-03-31 00:00:00,2014-04-25 00:00:00,251.41950765375796,2.3505553263097116,-38.95755861717646,2.602355366091033
sz002600,2014-06-18,10.57,10.95,10.5,10.87,0.028382,9372638.0,100997112.48,1410926000.0,3454486000.0,0.07220830508474575,11.17,2014-03-31 00:00:00,2014-04-25 00:00:00,264.05118840466014,2.4686506354062776,-40.9148428704112,2.733101474424555
sz002600,2014-06-17,10.64,10.84,10.54,10.57,-0.001889,5406869.0,57815664.45,1371986000.0,3359146000.0,0.041655385208012326,10.87,2014-03-31 00:00:00,2014-04-25 00:00:00,256.7637204897209,2.4005191022463226,-39.78564664726843,2.6576714435147206
sz002600,2014-06-16,10.55,10.7,10.5,10.59,-0.0009429999999999999,3843094.0,40736380.49,1374582000.0,3365502000.0,0.029607812018489985,10.89,2014-03-31 00:00:00,2014-04-25 00:00:00,257.2496651071082,2.405062264864652,-39.86094397042857,2.662701286244437
sz002600,2014-06-13,10.38,10.88,10.33,10.6,0.012416,8462489.0,89935931.66,1375880000.0,3368680000.0,0.06519637134052389,10.9,2014-03-31 00:00:00,2014-04-25 00:00:00,257.4924805162351,2.4073323792983308,-39.89856832035467,2.6652145835967684
sz002600,2014-06-12,10.27,10.47,10.09,10.47,0.019474,5566457.0,57611624.03,1359006000.0,3327366000.0,0.04288487673343606,10.76,2014-03-31 00:00:00,2014-04-25 00:00:00,254.33466136077965,2.377809496588686,-39.4092629120388,2.6325291022630704
sz002600,2014-06-11,10.27,10.32,10.2,10.27,0.0019320000000000001,2946607.0,30246122.77,1333046000.0,3263806000.0,0.02270113251155624,10.56,2014-03-31 00:00:00,2014-04-25 00:00:00,249.47635875047294,2.332388561737411,-38.656466876093745,2.5822425115923213
sz002600,2014-06-10,10.45,10.45,10.2,10.35,-0.001929,3928557.0,40454203.81,1343430000.0,3289230000.0,0.030266232665639447,10.54,2014-03-31 00:00:00,2014-04-25 00:00:00,248.99529983119905,2.3278910761782345,-38.581926593914304,2.5772632390145453
sz002600,2014-06-09,10.2,10.56,10.06,10.37,0.019666,5329554.0,55401629.91,1346026000.0,3295586000.0,0.04105973805855161,10.56,2014-03-31 00:00:00,2014-04-25 00:00:00,249.47654007700754,2.3323902569839565,-38.65649497271667,2.5822443884398454
sz002600,2014-06-06,10.23,10.32,10.02,10.17,-0.002941,2810497.0,28563774.74,1320066000.0,3232026000.0,0.021652519260400616,10.35,2014-03-31 00:00:00,2014-04-25 00:00:00,244.66495899344255,2.287406128069345,-37.9109384570209,2.5324413959471492
sz002600,2014-06-05,10.16,10.35,10.07,10.2,0.011904999999999999,3489512.0,35674289.78,1323960000.0,3241560000.0,0.026883759630200305,10.38,2014-03-31 00:00:00,2014-04-25 00:00:00,245.38664110493212,2.2941532327267944,-38.022763404192624,2.539911275006944
sz002600,2014-06-04,10.68,10.68,9.98,10.08,-0.057063,8037837.0,82172755.75,1308384000.0,3203424000.0,0.0619247842835131,10.26,2014-03-31 00:00:00,2014-04-25 00:00:00,242.4996823861253,2.2671626612446762,-37.575427934630845,2.5100293752940686
sz002600,2014-06-03,10.73,10.82,10.56,10.69,-0.008348999999999999,5605794.0,59933806.8,1387562000.0,3397282000.0,0.04318793528505393,10.88,2014-03-31 00:00:00,2014-04-25 00:00:00,257.1748509032155,2.4043628166512465,-39.84935147802117,2.661926910593251
sz002600,2014-05-30,10.8,10.99,10.63,10.78,-0.009191,6280734.0,67837449.55,1399244000.0,3425884000.0,0.048387781201848994,10.97,2014-03-31 00:00:00,2014-04-25 00:00:00,259.3400812415008,2.4246058509004143,-40.18485483100524,2.6843384523317693
sz002600,2014-05-29,10.7,10.92,10.52,10.88,0.023518,8310659.0,89311095.54,1412224000.0,3457664000.0,0.06402664869029276,11.08,2014-03-31 00:00:00,2014-04-25 00:00:00,261.74578676768255,2.4470971205352536,-40.55761991564997,2.7092390686113763
sz002600,2014-05-28,10.6,10.73,10.42,10.63,-0.0009400000000000001,5745872.0,60717278.58,1379774000.0,3378214000.0,0.0442671186440678,10.82,2014-03-31 00:00:00,2014-04-25 00:00:00,255.73149350346802,2.390868671127673,-39.62570264094034,2.6469872230985447
sz002600,2014-05-27,10.88,11.0,10.6,10.64,-0.027422000000000002,7121286.0,76529552.04,1381072000.0,3381392000.0,0.05486352850539291,10.83,2014-03-31 00:00:00,2014-04-25 00:00:00,255.97210728431529,2.393118202237777,-39.662985847637124,2.649477732166782
sz002600,2014-05-26,10.79,11.1,10.61,10.94,0.028194999999999998,9796766.0,106482262.64,1420012000.0,3476732000.0,0.07547585516178737,11.14,2014-03-31 00:00:00,2014-04-25 00:00:00,263.18928382537473,2.4605925717400323,-40.781290392788165,2.7241802016566097
sz002600,2014-05-23,10.7,10.84,10.5,10.64,-0.022059,8943524.0,95355359.42,1381072000.0,3381392000.0,0.06890234206471495,10.83,2014-03-31 00:00:00,2014-04-25 00:00:00,255.97214908200755,2.3931185930101124,-39.662992324207146,2.6494781648000716
sz002600,2014-05-22,10.85,11.08,10.57,10.88,0.0009199999999999999,15519195.0,168381902.5,1412224000.0,3457664000.0,0.1195623651771957,11.08,2014-03-31 00:00:00,2014-04-25 00:00:00,261.74600418839947,2.4470991532312403,-40.55765360508164,2.7092413190571536
sz002600,2014-05-21,10.87,10.87,10.39,10.87,0.100202,18944932.0,202263183.18,1410926000.0,3454486000.0,0.14595479198767333,11.07,2014-03-31 00:00:00,2014-04-25 00:00:00,261.5054192027329,2.4448498913312156,-40.52037486021025,2.7067511080377584
sz002600,2014-02-28,9.66,9.94,9.55,9.88,0.010225,4878448.0,47617215.45,1282424000.0,3139864000.0,0.037584345146379046,10.06,2013-09-30 00:00:00,2013-10-29 00:00:00,404.62075503582906,2.443856303773613,-25.78699586695431,2.4732102063334205
sz002600,2014-02-27,9.93,10.3,9.7,9.78,-0.027833,8087412.0,80957306.84,1269444000.0,3108084000.0,0.06230671802773497,9.96,2013-09-30 00:00:00,2013-10-29 00:00:00,400.52538299470814,2.4191207936584553,-25.525992592694013,2.448177590470856
sz002600,2014-02-26,9.7,10.13,9.41,10.06,0.018219,9501021.0,93893867.0,1305788000.0,3197068000.0,0.07319738828967642,10.24,2013-09-30 00:00:00,2013-10-29 00:00:00,411.99236653240456,2.4883798705967752,-26.256798052900386,2.518268559281333
sz002600,2014-02-25,10.89,10.94,9.79,9.88,-0.091912,15806475.0,163538883.36,1282424000.0,3139864000.0,0.12177561633281973,10.06,2013-09-30 00:00:00,2013-10-29 00:00:00,404.62058411049543,2.443855271407011,-25.786984973665184,2.4732091615667486
sz002600,2014-02-24,10.9,11.0,10.72,10.88,-0.006393,6356980.0,69013109.76,1412224000.0,3457664000.0,0.04897519260400617,11.08,2013-09-30 00:00:00,2013-10-29 00:00:00,445.57419997896176,2.691209741134131,-28.39701105362606,2.7235346811837053
sz002600,2014-02-21,10.78,11.12,10.66,10.95,0.01577,9538325.0,104249961.67,1421310000.0,3479910000.0,0.07348478428351309,11.15,2013-09-30 00:00:00,2013-10-29 00:00:00,448.4410838278734,2.708525343656125,-28.579721211330096,2.7410582666826073
sz002600,2014-02-20,10.81,11.06,10.6,10.78,-0.011009,10656138.0,115229863.79,1399244000.0,3425884000.0,0.08209659476117102,10.97,2013-09-30 00:00:00,2013-10-29 00:00:00,441.4789606189131,2.666475032395252,-28.136016235299422,2.6985028763229937
sz002600,2014-02-19,11.1,11.11,10.76,10.9,-0.018018,12571669.0,136912299.14,1414820000.0,3464020000.0,0.09685415254237288,11.1,2013-09-30 00:00:00,2013-10-29 00:00:00,446.39330450824446,2.6961570250844065,-28.449213628131528,2.7285413884686456
sz002600,2014-02-18,11.3,11.3,10.89,11.1,-0.018568,23288288.0,257389793.72,1440780000.0,3527580000.0,0.17941670261941448,11.3,2013-09-30 00:00:00,2013-10-29 00:00:00,454.5839990022673,2.745627745808382,-28.971217016331792,2.7786063170899724
sz002600,2014-02-17,10.25,11.31,10.25,11.31,0.100195,27442872.0,301758142.36,1468038000.0,3594318000.0,0.21142428351309708,11.51,2013-09-30 00:00:00,2013-10-29 00:00:00,463.18440707279495,2.797573082809998,-29.519331972395225,2.831175585358917
sz002600,2014-02-14,10.2,10.32,10.08,10.28,0.008832,6794253.0,69471059.85,1334344000.0,3266984000.0,0.05234401386748844,10.47,2013-09-30 00:00:00,2013-10-29 00:00:00,421.00210151181824,2.542797488454317,-26.830999934007355,2.573339803724718
sz002600,2014-02-13,10.4,10.55,10.19,10.19,-0.035951,9393355.0,97603945.64,1322662000.0,3238382000.0,0.07236791217257318,10.37,2013-09-30 00:00:00,2013-10-29 00:00:00,417.31636339035464,2.5205361134998863,-26.59610315097792,2.5508110406140156
sz002600,2014-02-12,10.36,10.75,10.36,10.57,0.029211,15221753.0,160729069.94,1371986000.0,3359146000.0,0.11727082434514638,10.76,2013-09-30 00:00:00,2013-10-29 00:00:00,432.8787887237626,2.614531121861945,-27.587916330993465,2.645935051656104
sz002600,2014-02-11,10.29,10.37,10.11,10.27,-0.010597,11542403.0,118342883.56,1333046000.0,3263806000.0,0.08892452234206472,10.45,2013-09-30 00:00:00,2013-10-29 00:00:00,420.59285095452975,2.540325668752029,-26.804917874948345,2.570838294242972
sz002600,2014-02-10,10.0,10.95,9.87,10.38,0.029762,20210471.0,210286573.99,1347324000.0,3298764000.0,0.15570470724191066,10.57,2013-09-30 00:00:00,2013-10-29 00:00:00,425.0976103312095,2.5675338246922927,-27.092011925320964,2.5983732556329135
sz002600,2014-02-07,9.85,10.1,9.74,10.08,0.016128999999999998,3161541.0,31633468.96,1308384000.0,3203424000.0,0.024357018489984592,10.26,2013-09-30 00:00:00,2013-10-29 00:00:00,412.8115140500519,2.4933274141911363,-26.309003367109067,2.5232755293290237
sz002600,2014-01-30,10.0,10.07,9.75,9.92,-0.00998,3588487.0,35471438.8,1287616000.0,3152576000.0,0.027646278890600926,10.1,2013-09-30 00:00:00,2013-10-29 00:00:00,406.25896323208167,2.453750866465908,-25.89140096100895,2.483223615632487
sz002600,2014-01-29,10.16,10.28,9.97,10.02,-0.012808000000000002,4268744.0,43107718.63,1300596000.0,3184356000.0,0.03288708782742681,10.2,2013-09-30 00:00:00,2013-10-29 00:00:00,410.3542991374736,2.478486158326001,-26.152401932293238,2.508256010618459
sz002600,2014-01-28,10.39,10.44,10.13,10.15,-0.02027,4515731.0,46287593.39,1317470000.0,3225670000.0,0.03478991525423729,10.33,2013-09-30 00:00:00,2013-10-29 00:00:00,415.67830689214827,2.5106424670438994,-26.4917077248329,2.54079855855645
sz002600,2014-01-27,10.0,10.38,9.95,10.36,0.022705,6536631.0,66594383.74,1344728000.0,3292408000.0,0.05035925269645609,10.55,2013-09-30 00:00:00,2013-10-29 00:00:00,424.27843068207386,2.562586087027956,-27.03980456333163,2.593366089184214
sz002600,2014-01-24,10.02,10.23,10.02,10.13,0.0009880000000000002,5536477.0,56177433.47,1314874000.0,3219314000.0,0.042653906009245,10.31,2013-09-30 00:00:00,2013-10-29 00:00:00,414.8590558196878,2.5056942979920462,-26.439495810944138,2.5357909555387073
sz002600,2014-01-23,10.17,10.4,10.1,10.12,-0.001972,7307069.0,74772334.82,1313576000.0,3216136000.0,0.05629483050847457,10.3,2013-09-30 00:00:00,2013-10-29 00:00:00,414.4495796350085,2.503221115529903,-26.413399372364246,2.533288066928582
sz002600,2014-01-22,10.04,10.16,9.95,10.14,0.007951999999999999,5372817.0,54171316.62,1316172000.0,3222492000.0,0.04139304314329738,10.32,2013-09-30 00:00:00,2013-10-29 00:00:00,415.2684890955048,2.5081672212902872,-26.465589514887604,2.5382935818720336
sz002600,2014-01-21,9.73,10.09,9.72,10.06,0.034979,5858201.0,58511683.26,1305788000.0,3197068000.0,0.045132519260400614,10.24,2013-09-30 00:00:00,2013-10-29 00:00:00,411.99232611821276,2.488379626500356,-26.256795477252492,2.5182683122529976
sz002600,2014-01-20,9.92,10.0,9.67,9.72,-0.029939999999999998,5481813.0,53648566.57,1261656000.0,3089016000.0,0.04223276579352851,9.89,2013-09-30 00:00:00,2013-10-29 00:00:00,398.0682952197221,2.404280305687706,-25.3693992605188,2.4331588488780906
sz002600,2014-01-17,10.11,10.21,9.99,10.02,-0.019569,5946033.0,59923187.33,1300596000.0,3184356000.0,0.04580919106317411,10.2,2013-09-30 00:00:00,2013-10-29 00:00:00,410.35430305313287,2.4784861819760695,-26.152402181843186,2.5082560345525957
sz002600,2014-01-16,10.45,10.45,10.11,10.22,-0.017308,7992431.0,82080729.42,1326556000.0,3247916000.0,0.06157496918335902,10.4,2013-09-30 00:00:00,2013-10-29 00:00:00,418.54480636896716,2.527955748008855,-26.674393386014096,2.558319794613385
sz002600,2014-01-15,10.25,10.48,10.18,10.4,0.014634000000000001,10020032.0,103570873.24,1349920000.0,3305120000.0,0.07719593220338983,10.59,2013-09-30 00:00:00,2013-10-29 00:00:00,425.91657036891235,2.5724802359323724,-27.144205291194083,2.60337907972527
sz002600,2014-01-14,10.15,10.29,10.03,10.25,0.014851,9922559.0,100588054.91,1330450000.0,3257450000.0,0.0764449845916795,10.43,2013-09-30 00:00:00,2013-10-29 00:00:00,419.7736034559381,2.5353775212858745,-26.752706188826792,2.5658307130702003
sz002600,2014-01-13,10.0,10.38,9.86,10.1,0.021234,18508338.0,186710240.85,1310980000.0,3209780000.0,0.14259120184899846,10.28,2013-09-30 00:00:00,2013-10-29 00:00:00,413.63077284836703,2.498275629906139,-26.36121577337638,2.5282831795704004
sz002600,2014-01-10,9.99,10.25,9.83,9.89,-0.024655,11959850.0,119802940.44,1283722000.0,3143042000.0,0.09214060092449924,10.07,2013-09-30 00:00:00,2013-10-29 00:00:00,405.0303582218835,2.446330253307409,-25.813100399493532,2.4757138712287294
sz002600,2014-01-09,10.02,10.2,9.95,10.14,0.015015,14012551.0,141179544.27,1316172000.0,3222492000.0,0.10795493836671803,10.32,2013-09-30 00:00:00,2013-10-29 00:00:00,415.2688107509482,2.5081691640469876,-26.465610014398532,2.5382955479637768
sz002600,2014-01-08,10.08,10.28,9.86,9.99,-0.008929000000000001,17872266.0,179357785.97,1296702000.0,3174822000.0,0.13769080123266564,10.17,2013-09-30 00:00:00,2013-10-29 00:00:00,409.1257870582682,2.4710661064585127,-26.074107293388302,2.500746834247549
sz002600,2014-01-07,9.53,10.55,9.5,10.08,0.039175,36086435.0,362166992.76,1308384000.0,3203424000.0,0.2780156779661017,10.26,2013-09-30 00:00:00,2013-10-29 00:00:00,412.81178347289773,2.4933290414697966,-26.30902053777005,2.523277176153423
sz002600,2014-01-06,8.8,9.7,8.8,9.7,0.099773,32379929.0,308640207.59,1259060000.0,3082660000.0,0.24946016178736516,9.87,2013-09-30 00:00:00,2013-10-29 00:00:00,397.24953301695837,2.399335089344717,-25.31721850291823,2.428154234035098
sz002600,2014-01-03,8.8,8.96,8.8,8.82,0.002273,2984989.0,26447642.86,1144836000.0,2802996000.0,0.022996833590138675,8.98,2013-09-30 00:00:00,2013-10-29 00:00:00,361.2104798144331,2.1816639336887866,-23.02040375870133,2.2078685638173505
sz002600,2014-01-02,8.73,8.83,8.65,8.8,0.005714,2171750.0,19005547.37,1142240000.0,2796640000.0,0.016731510015408322,8.96,2013-09-30 00:00:00,2013-10-29 00:00:00,360.39131036597126,2.176716257635182,-22.968197046813923,2.2028614597194083
sz002600,2013-12-31,8.6,8.76,8.55,8.75,0.011561,2380416.0,20682788.3,1135750000.0,2780750000.0,0.018339106317411404,8.91,2013-09-30 00:00:00,2013-10-29 00:00:00,358.3437342683618,2.1643491664978134,-22.83770241521339,2.1903458236828843
sz002600,2013-12-30,8.67,8.68,8.58,8.65,0.004646,1643748.0,14203209.58,1122770000.0,2748970000.0,0.012663697996918336,8.81,2013-09-30 00:00:00,2013-10-29 00:00:00,354.24827001867595,2.139613099455014,-22.576693264383852,2.165312644203251
sz002600,2013-12-27,8.44,8.65,8.44,8.61,0.018935,2071505.0,17737076.4,1117578000.0,2736258000.0,0.015959206471494604,8.76,2013-09-30 00:00:00,2013-10-29 00:00:00,352.6100437553884,2.129718427640198,-22.47228701889407,2.1552991244709587
sz002600,2013-12-26,8.72,8.75,8.45,8.45,-0.030963,2883270.0,24670386.31,1096810000.0,2685410000.0,0.02221317411402157,8.6,2013-09-30 00:00:00,2013-10-29 00:00:00,346.05744601509264,2.090141596510276,-22.054681622374414,2.115246923965669
sz002600,2013-12-25,8.63,8.73,8.62,8.72,0.010429,1789666.0,15517714.7,1131856000.0,2771216000.0,0.013787873651771958,8.88,2013-09-30 00:00:00,2013-10-29 00:00:00,357.1147912980543,2.1569265121045693,-22.75938031506992,2.1828340135264894
sz002600,2013-12-24,8.61,8.73,8.53,8.63,0.008178,1721871.0,14855281.87,1120174000.0,2742614000.0,0.013265570107858246,8.79,2013-09-30 00:00:00,2013-10-29 00:00:00,353.4288814929641,2.1346641002035467,-22.52447259042438,2.160304201014113
sz002600,2013-12-23,8.83,8.85,8.41,8.56,-0.023944999999999998,2600950.0,22256112.92,1111088000.0,2720368000.0,0.020038135593220343,8.71,2013-09-30 00:00:00,2013-10-29 00:00:00,350.5619855749323,2.1173484247856496,-22.341761663539952,2.1427805417437327
sz002600,2013-12-20,9.03,9.06,8.75,8.77,-0.028793,3497046.0,30971556.74,1138346000.0,2787106000.0,0.02694180277349769,8.93,2013-09-30 00:00:00,2013-10-29 00:00:00,359.16212260060377,2.1692921247118755,-22.88985934556962,2.195348153273876
sz002600,2013-12-19,9.15,9.19,9.0,9.03,-0.013115,4018035.0,36432923.9,1172094000.0,2869734000.0,0.030955585516178732,9.19,2013-09-30 00:00:00,2013-10-29 00:00:00,369.8100637666365,2.2336042931237885,-23.568466192654725,2.2604327947326115
sz002600,2013-12-18,8.92,9.15,8.88,9.15,0.024636,7386444.0,67024574.65,1187670000.0,2907870000.0,0.05690634822804314,9.31,2013-09-30 00:00:00,2013-10-29 00:00:00,374.72457658859594,2.263287306143865,-23.881674351778294,2.290472339464691
sz002600,2013-12-17,8.85,8.99,8.83,8.93,0.001121,3701255.0,32992469.45,1159114000.0,2837954000.0,0.028515061633281973,9.09,2013-09-30 00:00:00,2013-10-29 00:00:00,365.7148261320078,2.208869594806219,-23.307471484291295,2.2354010004183835
sz002600,2013-12-16,8.83,9.12,8.76,8.92,0.012486,6153150.0,55073313.87,1157816000.0,2834776000.0,0.04740485362095532,9.08,2013-09-30 00:00:00,2013-10-29 00:00:00,365.30531886955504,2.2063962246383997,-23.281373065085337,2.232897921847992
sz002600,2013-12-13,8.73,8.87,8.71,8.81,0.002275,2078892.0,18316054.59,1143538000.0,2799818000.0,0.016016117103235746,8.97,2013-09-30 00:00:00,2013-10-29 00:00:00,360.80036550584896,2.1791868970419337,-22.99426665167255,2.205361774728729
sz002600,2013-12-12,8.7,8.86,8.7,8.79,0.008028,2411846.0,21213042.03,1140942000.0,2793462000.0,0.018581248073959937,8.95,2013-09-30 00:00:00,2013-10-29 00:00:00,359.98140780309694,2.1742404999046507,-22.942073434608815,2.200355964908562
sz002600,2013-12-11,8.88,8.88,8.69,8.72,-0.021324,3277712.0,28689768.27,1131856000.0,2771216000.0,0.025252018489984596,8.88,2013-09-30 00:00:00,2013-10-29 00:00:00,357.11449265605415,2.156924708346049,-22.759361282235034,2.1828321881024757
sz002600,2013-12-10,8.87,8.95,8.83,8.91,0.003378,2745390.0,24380548.18,1156518000.0,2831598000.0,0.021150924499229583,9.07,2013-09-30 00:00:00,2013-10-29 00:00:00,364.89552482747524,2.203921122359237,-23.255256369048624,2.2303930903613405
sz002600,2013-12-09,8.76,8.97,8.76,8.88,0.012543,3207357.0,28415361.02,1152624000.0,2822064000.0,0.024709992295839756,9.04,2013-09-30 00:00:00,2013-10-29 00:00:00,363.6670575072158,2.196501340829913,-23.1769645826883,2.2228841875757097
sz002600,2013-12-06,8.8,8.84,8.72,8.77,-0.001139,2468632.0,21671212.19,1138346000.0,2787106000.0,0.01901873651771957,8.93,2013-09-30 00:00:00,2013-10-29 00:00:00,359.1620874444007,2.1692919123730188,-22.889857105020038,2.1953479383845527
sz002600,2013-12-05,8.77,8.86,8.73,8.78,0.00114,3174108.0,27902374.98,1139644000.0,2790284000.0,0.02445383667180277,8.94,2013-09-30 00:00:00,2013-10-29 00:00:00,359.57163954183886,2.171765553338271,-22.915958381616697,2.197851291005007
sz002600,2013-12-04,8.63,8.82,8.56,8.77,0.017401,4060535.0,35507710.24,1138346000.0,2787106000.0,0.031283012326656395,8.93,2013-09-30 00:00:00,2013-10-29 00:00:00,359.16219463994935,2.1692925598200765,-22.88986393672883,2.1953485936082937
sz002600,2013-12-03,8.35,8.66,8.32,8.62,0.022539,3677311.0,31410482.03,1118876000.0,2739436000.0,0.02833059322033898,8.78,2013-09-30 00:00:00,2013-10-29 00:00:00,353.01930570143867,2.132190316129114,-22.49836980377337,2.1578007035655498
sz002600,2013-12-02,8.86,8.86,8.4,8.43,-0.066445,6917819.0,59496021.54,1094214000.0,2679054000.0,0.053295986132511554,8.58,2013-09-30 00:00:00,2013-10-29 00:00:00,345.23798671878393,2.0851921698136833,-22.002456438114702,2.1102380481972323
sz002600,2013-11-29,9.09,9.18,9.0,9.03,-0.009868,5573698.0,50630500.84,1172094000.0,2869734000.0,0.042940662557781194,9.19,2013-09-30 00:00:00,2013-10-29 00:00:00,369.81001303488694,2.233603986710673,-23.568462959455733,2.2604324846390753
sz002600,2013-11-28,8.99,9.28,8.92,9.12,0.017856999999999998,9141083.0,83554125.63,1183776000.0,2898336000.0,0.07042436825885978,9.28,2013-09-30 00:00:00,2013-10-29 00:00:00,373.49566828956847,2.2558648611606067,-23.803354461279643,2.2829607412335684
sz002600,2013-11-27,8.86,9.02,8.82,8.96,0.013575,4778981.0,42713762.8,1163008000.0,2847488000.0,0.036818035439137135,9.12,2013-09-30 00:00:00,2013-10-29 00:00:00,366.9431642063359,2.2162885957070655,-23.385755033643864,2.242909113199171
sz002600,2013-11-26,8.8,8.87,8.78,8.84,0.0,2770897.0,24478997.57,1147432000.0,2809352000.0,0.021347434514637904,9.0,2013-09-30 00:00:00,2013-10-29 00:00:00,362.02862561363094,2.1866054270350648,-23.072545232117868,2.2128694109455846
sz002600,2013-11-25,8.71,8.89,8.7,8.84,0.010286,3915978.0,34572334.55,1147432000.0,2809352000.0,0.030169322033898306,9.0,2013-09-30 00:00:00,2013-10-29 00:00:00,362.02862561363094,2.1866054270350648,-23.072545232117868,2.2128694109455846
sz002600,2013-11-22,8.75,8.84,8.73,8.75,0.0,2606156.0,22875488.19,1135750000.0,2780750000.0,0.02007824345146379,8.91,2013-09-30 00:00:00,2013-10-29 00:00:00,358.3427124731323,2.164342994988612,-22.8376372949025,2.1903395780458053
sz002600,2013-11-21,8.84,8.86,8.67,8.75,-0.012415,3469370.0,30376802.81,1135750000.0,2780750000.0,0.026728582434514637,8.91,2013-09-30 00:00:00,2013-10-29 00:00:00,358.3427124731323,2.164342994988612,-22.8376372949025,2.1903395780458053
sz002600,2013-11-20,8.82,8.87,8.75,8.86,0.007964,4156236.0,36673978.4,1150028000.0,2815708000.0,0.032020308166409855,9.02,2013-09-30 00:00:00,2013-10-29 00:00:00,362.8474637354073,2.191551101918935,-23.124730828133778,2.217874489837133
sz002600,2013-11-19,8.83,8.9,8.73,8.79,-0.004529999999999999,4101161.0,36029352.53,1140942000.0,2793462000.0,0.031596001540832044,8.95,2013-09-30 00:00:00,2013-10-29 00:00:00,359.98057840895837,2.1742354904728094,-22.942020576264408,2.200350895306909
sz002600,2013-11-18,8.66,8.92,8.63,8.83,0.021991,6425501.0,56470308.06,1146134000.0,2806174000.0,0.04950308936825886,8.99,2013-09-30 00:00:00,2013-10-29 00:00:00,361.618711170561,2.1841295975497097,-23.04642086277277,2.2103638435180457
sz002600,2013-11-15,8.46,8.78,8.46,8.64,0.015276,5319765.0,45972554.75,1121472000.0,2745792000.0,0.04098432203389831,8.8,2013-09-30 00:00:00,2013-10-29 00:00:00,353.83747133835914,2.1371319292926354,-22.550512541473232,2.1628016719501892
sz002600,2013-11-14,8.36,8.54,8.32,8.51,0.022837,4020921.0,34027874.63,1104598000.0,2704478000.0,0.03097781972265023,8.66,2013-09-30 00:00:00,2013-10-29 00:00:00,348.51357792202225,2.1049763111633046,-22.21121403586141,2.1302598228956353
sz002600,2013-11-13,8.46,8.53,8.31,8.32,-0.01771,3394497.0,28514165.01,1079936000.0,2644096000.0,0.026151748844375964,8.47,2013-09-30 00:00:00,2013-10-29 00:00:00,340.7322749587884,2.057978261603075,-21.715301691140827,2.082697265444675
sz002600,2013-11-12,8.47,8.49,8.34,8.47,0.0035549999999999996,2634923.0,22210944.69,1099406000.0,2691766000.0,0.020299869029275813,8.62,2013-09-30 00:00:00,2013-10-29 00:00:00,346.8754389831805,2.0950821667766903,-22.106813355669736,2.120246836926646
sz002600,2013-11-11,8.29,8.5,8.29,8.44,0.020556,2846136.0,23924729.38,1095512000.0,2682232000.0,0.02192708782742681,8.59,2013-09-30 00:00:00,2013-10-29 00:00:00,345.64666508878986,2.0876605335798137,-22.02850203094971,2.112736060232519
sz002600,2013-11-08,8.52,8.55,8.23,8.27,-0.031616000000000005,4447045.0,37318633.86,1073446000.0,2628206000.0,0.03426074730354391,8.42,2013-09-30 00:00:00,2013-10-29 00:00:00,338.68466315301646,2.045610954793087,-21.584804783813635,2.0701814111450223
sz002600,2013-11-07,8.8,8.85,8.54,8.54,-0.030647000000000004,4977992.0,43247319.85,1108492000.0,2714012000.0,0.03835124807395993,8.69,2013-09-30 00:00:00,2013-10-29 00:00:00,349.7421096930726,2.1123964819669543,-22.289509929752697,2.137769119631285
sz002600,2013-11-06,8.96,9.07,8.8,8.81,-0.017837000000000002,5589334.0,50046631.78,1143538000.0,2799818000.0,0.043061124807395997,8.97,2013-09-30 00:00:00,2013-10-29 00:00:00,360.7995329803205,2.1791818686969084,-22.99421359376068,2.2053566859867195
sz002600,2013-11-05,8.9,9.05,8.75,8.97,0.003356,4930883.0,44002599.77,1164306000.0,2850666000.0,0.03798831278890601,9.13,2013-09-30 00:00:00,2013-10-29 00:00:00,367.3519904336861,2.2187578525121676,-23.41181004961567,2.245408028999992
sz002600,2013-11-04,9.0,9.21,8.87,8.94,0.0,5269451.0,47489840.43,1160412000.0,2841132000.0,0.040596694915254236,9.1,2013-09-30 00:00:00,2013-10-29 00:00:00,366.12328070364475,2.2113366068595472,-23.333502814171318,2.2378976445050336
sz002600,2013-11-01,8.81,9.13,8.73,8.94,0.014756,6686924.0,59799098.23,1160412000.0,2841132000.0,0.05151713405238829,9.1,2013-09-30 00:00:00,2013-10-29 00:00:00,366.12328070364475,2.2113366068595472,-23.333502814171318,2.2378976445050336
sz002600,2013-10-31,8.96,8.96,8.7,8.81,-0.008999,4324210.0,38029858.39,1143538000.0,2799818000.0,0.033314406779661014,8.97,2013-09-30 00:00:00,2013-10-29 00:00:00,360.79932585138175,2.1791806176652786,-22.994200393169702,2.205355419928568
sz002600,2013-10-30,8.84,8.93,8.72,8.89,0.0056560000000000004,6249323.0,55302496.22,1153922000.0,2825242000.0,0.04814578582434515,9.05,2013-09-30 00:00:00,2013-10-29 00:00:00,364.0756425587681,2.1989691409648207,-23.20300422821945,2.225381629209827
sz002600,2013-10-29,9.32,9.38,8.51,8.84,-0.057569,10041828.0,89858069.75,1147432000.0,2809352000.0,0.07736385208012327,9.0,2013-09-30 00:00:00,2013-10-29 00:00:00,362.02801212220487,2.1866017216272966,-23.07250613352821,2.212865661031035
sz002600,2013-10-28,9.95,9.95,9.32,9.38,-0.053480999999999994,11200208.0,106324410.02,1217524000.0,2980964000.0,0.08628819722650233,9.55,2013-06-30 00:00:00,2013-08-28 00:00:00,199.38334962401478,2.4575031434229166,-42.00659962499339,2.3542425311854087
sz002600,2013-10-25,10.39,10.39,9.87,9.91,-0.035054,12893405.0,129569818.16,1286318000.0,3149398000.0,0.09933285824345146,10.09,2013-06-30 00:00:00,2013-08-28 00:00:00,210.64907268001463,2.5963590201812288,-44.380091287119846,2.4872638913591896
sz002600,2013-10-24,10.58,10.91,10.26,10.27,-0.09115,25247276.0,266582656.36,1333046000.0,3263806000.0,0.19450906009244992,10.45,2013-06-30 00:00:00,2013-08-28 00:00:00,218.30141031727644,2.690678048493106,-45.99230556644605,2.577619774950297
sz002600,2013-10-23,10.36,11.3,10.08,11.3,0.10029199999999999,36161207.0,382919722.24,1466740000.0,3591140000.0,0.2785917334360555,11.5,2013-06-30 00:00:00,2013-08-28 00:00:00,240.1952030778197,2.9605303938967995,-50.60494643389564,2.8361333277771883
sz002600,2013-10-22,10.25,10.43,10.12,10.27,-0.000973,8461795.0,86992367.1,1333046000.0,3263806000.0,0.06519102465331279,10.45,2013-06-30 00:00:00,2013-08-28 00:00:00,218.30132644590682,2.690677014734997,-45.99228789620904,2.5776187846291605
sz002600,2013-10-21,9.88,10.36,9.77,10.28,0.04154,12780531.0,129631679.37,1334344000.0,3266984000.0,0.09846325885978427,10.47,2013-06-30 00:00:00,2013-08-28 00:00:00,218.5139405100231,2.6932975932932717,-46.03708197697264,2.5801292503897897
sz002600,2013-10-18,9.55,9.88,9.47,9.87,0.034591000000000004,6029046.0,58882551.14,1281126000.0,3136686000.0,0.046448736517719566,10.05,2013-06-30 00:00:00,2013-08-28 00:00:00,209.7988944351855,2.5858801325856633,-44.20097353627575,2.4772253109720124
sz002600,2013-10-17,9.46,9.58,9.46,9.54,0.008457,1531952.0,14595770.09,1238292000.0,3031812000.0,0.011802403697996917,9.71,2013-06-30 00:00:00,2013-08-28 00:00:00,202.78437994839067,2.499422605247545,-42.72313748744744,2.3944005998235167
sz002600,2013-10-16,9.67,9.7,9.37,9.46,-0.029744,2714670.0,25742480.11,1227908000.0,3006388000.0,0.02091425269645609,9.63,2013-06-30 00:00:00,2013-08-28 00:00:00,201.08381413227406,2.478462249999301,-42.364857884319754,2.3743209674021966
sz002600,2013-10-15,9.79,9.84,9.68,9.75,0.0,2086168.0,20306629.99,1265550000.0,3098550000.0,0.016072172573189523,9.93,2013-06-30 00:00:00,2013-08-28 00:00:00,207.24820473387854,2.554441559752582,-43.66358763493321,2.4471077400213925
sz002600,2013-10-14,9.69,9.77,9.65,9.75,0.008273,2458590.0,23893493.97,1265550000.0,3098550000.0,0.018941371340523882,9.93,2013-06-30 00:00:00,2013-08-28 00:00:00,207.24820473387854,2.554441559752582,-43.66358763493321,2.4471077400213925
sz002600,2013-10-11,9.59,9.72,9.59,9.67,0.009395,1595193.0,15410643.78,1255166000.0,3073126000.0,0.01228962249614792,9.84,2013-06-30 00:00:00,2013-08-28 00:00:00,205.54770854111788,2.5334820626482926,-43.30532270023417,2.4270289296860996
sz002600,2013-10-10,9.79,9.79,9.55,9.58,-0.017436,2091970.0,20137801.09,1243484000.0,3044524000.0,0.016116872110939907,9.75,2013-06-30 00:00:00,2013-08-28 00:00:00,203.63456183269966,2.509901537701586,-42.90225600506657,2.4044392231842835
sz002600,2013-10-09,9.65,9.75,9.61,9.75,0.0072310000000000004,1532667.0,14861121.01,1265550000.0,3098550000.0,0.01180791217257319,9.93,2013-06-30 00:00:00,2013-08-28 00:00:00,207.2481404088687,2.5544407669134896,-43.66357408277381,2.4471069804962156
sz002600,2013-10-08,9.6,9.73,9.52,9.68,0.0062369999999999995,1269397.0,12250018.57,1256464000.0,3076304000.0,0.009779637904468412,9.85,2013-06-30 00:00:00,2013-08-28 00:00:00,205.76028776801815,2.5361022118198204,-43.35010944140303,2.4295389841021726
sz002600,2013-09-30,9.55,9.63,9.52,9.62,0.010504000000000001,963461.0,9219434.62,1248676000.0,3057236000.0,0.0074226579352850534,9.79,2013-06-30 00:00:00,2013-08-28 00:00:00,204.48491535097412,2.520382585633226,-43.08141068297332,2.4144798731334394
sz002600,2013-09-27,9.47,9.6,9.47,9.52,0.006342,1319819.0,12594485.78,1235696000.0,3025456000.0,0.010168097072419106,9.69,2013-06-30 00:00:00,2013-08-28 00:00:00,202.35933291800342,2.494183680255819,-42.63358748008253,2.3893818066365293
sz002600,2013-09-26,9.73,9.76,9.46,9.46,-0.022727,2369897.0,22780542.58,1227908000.0,3006388000.0,0.01825806625577812,9.63,2013-06-30 00:00:00,2013-08-28 00:00:00,201.0840578232881,2.4784652536173772,-42.364909225772685,2.374323844812727
sz002600,2013-09-25,9.7,9.78,9.65,9.68,-0.0071790000000000005,2049013.0,19902066.17,1256464000.0,3076304000.0,0.015785924499229585,9.85,2013-06-30 00:00:00,2013-08-28 00:00:00,205.76037383953934,2.536103272695938,-43.35012757517366,2.42954000040186
sz002600,2013-09-24,9.91,9.92,9.65,9.75,-0.020101,4750781.0,46271819.75,1265550000.0,3098550000.0,0.0366007781201849,9.93,2013-06-30 00:00:00,2013-08-28 00:00:00,207.2482087300121,2.5544416090069992,-43.66358847684896,2.4471077872062135
sz002600,2013-09-23,9.74,9.99,9.74,9.95,0.020513,2029808.0,20077376.18,1291510000.0,3162110000.0,0.015637966101694913,10.13,2013-06-30 00:00:00,2013-08-28 00:00:00,211.4995614139948,2.6068417347165367,-44.559274452621096,2.497306137883816
sz002600,2013-09-18,9.84,9.95,9.69,9.75,-0.013158000000000001,2683868.0,26260712.82,1265550000.0,3098550000.0,0.020676949152542375,9.93,2013-06-30 00:00:00,2013-08-28 00:00:00,207.24827749768477,2.554442456604214,-43.663602965000045,2.4471085991886588
sz002600,2013-09-17,10.26,10.37,9.87,9.88,-0.040777,4812922.0,48652863.23,1282424000.0,3139864000.0,0.03707952234206472,10.06,2013-06-30 00:00:00,2013-08-28 00:00:00,210.011610265559,2.5885019654658135,-44.24578905741755,2.4797369783497856
sz002600,2013-09-16,10.11,10.43,10.06,10.3,0.014778,5613187.0,57588940.38,1336940000.0,3273340000.0,0.04324489214175655,10.49,2013-06-30 00:00:00,2013-08-28 00:00:00,218.93929802095968,2.6985403451187193,-46.126697397182454,2.585151709612661
sz002600,2013-09-13,10.21,10.29,10.12,10.15,-0.000984,4396488.0,44858985.81,1317470000.0,3225670000.0,0.033871248073959935,10.33,2013-06-30 00:00:00,2013-08-28 00:00:00,215.75093076609824,2.6592420658693023,-45.454963940076006,2.5475046853722296
sz002600,2013-09-12,10.04,10.28,9.94,10.16,0.008937,3788990.0,38257982.76,1318768000.0,3228848000.0,0.029190986132511556,10.34,2013-06-30 00:00:00,2013-08-28 00:00:00,215.96343878986747,2.6618613374253286,-45.49973567998511,2.5500138990488934
sz002600,2013-09-11,10.2,10.33,10.03,10.07,-0.011776,4286044.0,43640034.72,1307086000.0,3200246000.0,0.033020369799691834,10.25,2013-06-30 00:00:00,2013-08-28 00:00:00,214.05046974178515,2.6382830022343606,-45.09670641475643,2.5274262902925493
sz002600,2013-09-10,9.99,10.2,9.97,10.19,0.017981999999999998,4122777.0,41489313.07,1322662000.0,3238382000.0,0.03176253466872111,10.37,2013-06-30 00:00:00,2013-08-28 00:00:00,216.60116506154995,2.669721644317847,-45.63409349981019,2.5575439275837755
sz002600,2013-09-09,9.86,10.06,9.86,10.01,0.014184,2672608.0,26603351.75,1299298000.0,3181178000.0,0.02059020030816641,10.19,2013-06-30 00:00:00,2013-08-28 00:00:00,212.77504421644974,2.622562721460544,-44.827996467334586,2.5123665522413714
sz002600,2013-09-06,9.82,9.94,9.81,9.87,-0.0010119999999999999,1916837.0,18927128.65,1281126000.0,3136686000.0,0.01476761941448382,10.05,2013-06-30 00:00:00,2013-08-28 00:00:00,209.79925163131122,2.5858845352130815,-44.20104879127908,2.477229528607601
sz002600,2013-09-05,9.99,9.99,9.81,9.88,-0.012,2082213.0,20567465.98,1282424000.0,3139864000.0,0.016041702619414486,10.06,2013-06-30 00:00:00,2013-08-28 00:00:00,210.0117835562702,2.5885041013636614,-44.245825566752636,2.4797390245003954
sz002600,2013-09-04,9.86,10.17,9.86,10.0,0.015228,3966017.0,39754798.72,1298000000.0,3178000000.0,0.030554830508474577,10.18,2013-06-30 00:00:00,2013-08-28 00:00:00,212.56253396383624,2.619943422432856,-44.783224257846804,2.509857312247364
sz002600,2013-09-03,9.79,9.9,9.74,9.85,-0.0010140000000000001,1866605.0,18372399.41,1278530000.0,3130330000.0,0.01438062403697997,10.03,2013-06-30 00:00:00,2013-08-28 00:00:00,209.37418389153592,2.580645354967412,-44.11149442080676,2.47221049089206
sz002600,2013-09-02,9.61,9.94,9.58,9.86,0.026014999999999996,1970347.0,19290040.9,1279828000.0,3133508000.0,0.015179869029275808,10.04,2013-06-30 00:00:00,2013-08-28 00:00:00,209.58670481021346,2.5832647854598685,-44.15626887744849,2.4747198568268822
sz002600,2013-08-30,9.9,10.05,9.6,9.61,-0.030272000000000004,2914187.0,28668551.18,1247378000.0,3054058000.0,0.022451363636363634,9.78,2013-06-30 00:00:00,2013-08-28 00:00:00,204.27255430984292,2.5177651257144085,-43.036669909746436,2.411972394971694
sz002600,2013-08-29,10.07,10.1,9.81,9.91,-0.015889,2844645.0,28276078.61,1286318000.0,3149398000.0,0.02191560092449923,10.09,2013-06-30 00:00:00,2013-08-28 00:00:00,210.64933085343822,2.59636220230251,-44.38014567976426,2.4872669397724865
sz002600,2013-08-28,10.15,10.16,10.01,10.07,-0.022330000000000003,3386102.0,34159996.78,1307086000.0,3200246000.0,0.02608707241910632,10.25,2013-06-30 00:00:00,2013-08-28 00:00:00,214.0503772983314,2.638281862820871,-45.096686938530574,2.527425198755513
sz002600,2013-08-27,10.14,10.38,10.08,10.3,0.015778999999999998,3622739.0,37217989.24,1336940000.0,3273340000.0,0.02791016178736518,10.49,2013-03-31 00:00:00,2013-04-23 00:00:00,62.72612822374132,2.833695992892491,-105.79103878897381,2.5549366017532624
sz002600,2013-08-26,9.92,10.14,9.92,10.14,0.020121,2099427.0,21112476.46,1316172000.0,3222492000.0,0.016174322033898306,10.32,2013-03-31 00:00:00,2013-04-23 00:00:00,61.75174740149316,2.789677668954065,-104.14769235136167,2.515248495738997
sz002600,2013-08-23,10.08,10.22,9.71,9.94,-0.00996,3172330.0,31736634.91,1290212000.0,3158932000.0,0.024440138674884437,10.12,2013-03-31 00:00:00,2013-04-23 00:00:00,60.53374786078628,2.7346537018197496,-102.09346964856294,2.4656374055028736
sz002600,2013-08-22,10.1,10.18,10.0,10.04,-0.011811,2103300.0,21196373.37,1303192000.0,3190712000.0,0.016204160246533126,10.22,2013-03-31 00:00:00,2013-04-23 00:00:00,61.14272944606912,2.762164863863833,-103.12055032984821,2.490442209913613
sz002600,2013-08-21,10.03,10.21,9.98,10.16,0.012961000000000002,2043886.0,20727782.72,1318768000.0,3228848000.0,0.01574642526964561,10.34,2013-03-31 00:00:00,2013-04-23 00:00:00,61.873517561993836,2.795178719722476,-104.35306437315961,2.52020839122234
sz002600,2013-08-20,10.14,10.25,9.97,10.03,-0.012795,2658974.0,26857565.4,1301894000.0,3187534000.0,0.020485161787365175,10.21,2013-03-31 00:00:00,2013-04-23 00:00:00,61.08183588706163,2.759413955445941,-103.01785001906255,2.487961916818456
sz002600,2013-08-19,9.98,10.26,9.91,10.16,0.014985,2808860.0,28355582.83,1318768000.0,3228848000.0,0.021639907550077043,10.34,2013-03-31 00:00:00,2013-04-23 00:00:00,61.87350741442925,2.795178261299265,-104.35304725873809,2.520207977895631
sz002600,2013-08-16,10.3,10.57,10.01,10.01,-0.0375,3553740.0,36718558.16,1299298000.0,3181178000.0,0.027378582434514638,10.19,2013-03-31 00:00:00,2013-04-23 00:00:00,60.96002149236614,2.75391090636735,-102.81240339388079,2.4830002196048517
sz002600,2013-08-15,10.56,10.6,10.37,10.4,-0.011406999999999999,2948102.0,30841425.34,1349920000.0,3305120000.0,0.022712650231124808,10.59,2013-03-31 00:00:00,2013-04-23 00:00:00,63.33508726479599,2.8612061364855585,-106.81808144818783,2.5797404879011445
sz002600,2013-08-14,10.61,10.81,10.45,10.52,-0.015903,4211353.0,44685031.46,1365496000.0,3343256000.0,0.03244493836671803,10.71,2013-03-31 00:00:00,2013-04-23 00:00:00,64.06588683593348,2.8942205098413187,-108.05061481134081,2.6095071357992063
sz002600,2013-08-13,10.73,10.8,10.57,10.69,-0.009268,4425051.0,47158709.19,1387562000.0,3397282000.0,0.034091302003081664,10.88,2013-03-31 00:00:00,2013-04-23 00:00:00,65.10119107764122,2.940991091164101,-109.79671192102079,2.6516767511731123
sz002600,2013-08-12,10.62,10.96,10.47,10.79,0.015052000000000001,8849683.0,94769131.22,1400542000.0,3429062000.0,0.06817937596302003,10.98,2013-03-31 00:00:00,2013-04-23 00:00:00,65.71019314773442,2.9685031786235845,-110.82382715105679,2.6764823899632924
sz002600,2013-08-09,10.17,10.8,10.16,10.63,0.038086,10692505.0,112831053.94,1379774000.0,3378214000.0,0.0823767719568567,10.82,2013-03-31 00:00:00,2013-04-23 00:00:00,64.73579003611087,2.9244838477472923,-109.18044312119653,2.636793376066736
sz002600,2013-08-08,10.3,10.67,10.2,10.24,0.013861000000000002,6652852.0,69494433.42,1329152000.0,3254272000.0,0.051254637904468416,10.42,2013-03-31 00:00:00,2013-04-23 00:00:00,62.36071966687814,2.8171884099653512,-105.17475731413055,2.5400529205352305
sz002600,2013-08-07,10.32,10.39,10.1,10.1,-0.026975,3535994.0,36166026.64,1310980000.0,3209780000.0,0.02724186440677966,10.28,2013-03-31 00:00:00,2013-04-23 00:00:00,61.50815512864007,2.7786732204566027,-103.73686068813235,2.5053265886894067
sz002600,2013-08-06,10.29,10.5,10.12,10.38,0.0077670000000000005,5395229.0,55753108.19,1347324000.0,3298764000.0,0.04156570878274268,10.57,2013-03-31 00:00:00,2013-04-23 00:00:00,63.21333483583676,2.8557058867517306,-106.61273933160231,2.5747813146521485
sz002600,2013-08-05,10.2,10.39,10.09,10.3,0.010795,3817023.0,39198179.56,1336940000.0,3273340000.0,0.029406956856702623,10.49,2013-03-31 00:00:00,2013-04-23 00:00:00,62.726140899470565,2.83369656552728,-105.79106016728302,2.5549371180562055
sz002600,2013-08-02,10.22,10.38,10.1,10.19,-0.00098,4508793.0,46147812.04,1322662000.0,3238382000.0,0.03473646379044684,10.37,2013-03-31 00:00:00,2013-04-23 00:00:00,62.05624374820865,2.8034335008852236,-104.66124205925337,2.5276511241707817
sz002600,2013-08-01,9.91,10.23,9.9,10.2,0.025126,3861302.0,39096583.17,1323960000.0,3241560000.0,0.029748089368258856,10.38,2013-03-31 00:00:00,2013-04-23 00:00:00,62.11711852436252,2.8061835607747825,-104.76391069173125,2.530130652209947
sz002600,2013-07-31,10.07,10.14,9.9,9.95,-0.00995,2087489.0,20884918.87,1291510000.0,3162110000.0,0.016082349768875192,10.13,2013-03-31 00:00:00,2013-04-23 00:00:00,60.59461814875686,2.737403558952541,-102.19613071147474,2.4681167507310784
sz002600,2013-07-30,9.86,10.19,9.82,10.05,0.02238,3294316.0,33117464.34,1304490000.0,3193890000.0,0.025379938366718032,10.23,2013-03-31 00:00:00,2013-04-23 00:00:00,61.20359390814288,2.764914457807728,-103.22320156706706,2.4929213178436225
sz002600,2013-07-29,9.97,9.97,9.75,9.83,-0.017,2021109.0,19936199.08,1275934000.0,3123974000.0,0.015570947611710323,10.01,2013-03-31 00:00:00,2013-04-23 00:00:00,59.86384114335459,2.7043902050193935,-100.96363540666586,2.438351021971891
sz002600,2013-07-26,9.9,10.11,9.75,10.0,0.010101,2105879.0,20902704.75,1298000000.0,3178000000.0,0.016224029275808936,10.18,2013-03-31 00:00:00,2013-04-23 00:00:00,60.899126290289516,2.751159923722679,-102.70970031196934,2.4805198595848332
sz002600,2013-07-25,10.19,10.21,9.9,9.9,-0.029412,2552540.0,25567413.45,1285020000.0,3146220000.0,0.01966517719568567,10.08,2013-03-31 00:00:00,2013-04-23 00:00:00,60.290135630287985,2.7236483517219363,-101.6826043256757,2.455714685546132
sz002600,2013-07-24,10.11,10.27,9.91,10.2,0.0,3868394.0,39114563.74,1323960000.0,3241560000.0,0.02980272727272727,10.38,2013-03-31 00:00:00,2013-04-23 00:00:00,62.11712449596325,2.8061838305459537,-104.76392076316182,2.5301308954428987
sz002600,2013-07-23,9.87,10.39,9.8,10.2,0.033435,5212727.0,53215864.05,1323960000.0,3241560000.0,0.040159684129429885,10.38,2013-03-31 00:00:00,2013-04-23 00:00:00,62.11712449596325,2.8061838305459537,-104.76392076316182,2.5301308954428987
sz002600,2013-07-22,9.76,9.92,9.55,9.87,0.028125,2464049.0,24032083.14,1281126000.0,3136686000.0,0.018983428351309704,10.05,2013-03-31 00:00:00,2013-04-23 00:00:00,60.107432490638736,2.715394611703642,-101.37446550887265,2.4482728913215617
sz002600,2013-07-19,10.0,10.15,9.59,9.6,-0.045725999999999996,3425030.0,33902243.21,1246080000.0,3050880000.0,0.02638697996918336,9.77,2013-03-31 00:00:00,2013-04-23 00:00:00,58.46315622189786,2.641113300137281,-98.60130383841717,2.3812988608598777
sz002600,2013-07-18,10.0,10.31,9.91,10.06,0.004995,3196959.0,32318570.74,1305788000.0,3197068000.0,0.0246298844375963,10.24,2013-03-31 00:00:00,2013-04-23 00:00:00,61.264538509796836,2.767667672112288,-103.32598796406187,2.495403689988282
sz002600,2013-07-17,10.35,10.4,10.0,10.01,-0.035644999999999996,3942192.0,40147443.56,1299298000.0,3181178000.0,0.030371278890600924,10.19,2013-03-31 00:00:00,2013-04-23 00:00:00,60.9600430945396,2.7539118822603967,-102.81243982712536,2.4830010994962977
sz002600,2013-07-16,10.5,10.55,10.24,10.38,-0.003839,6961003.0,72319724.0,1347324000.0,3298764000.0,0.05362868258859785,10.57,2013-03-31 00:00:00,2013-04-23 00:00:00,63.21328047714753,2.85570343106055,-106.61264765270607,2.574779100534863
sz002600,2013-07-15,9.9,10.45,9.9,10.42,0.046185000000000004,7395357.0,75388504.2,1352516000.0,3311476000.0,0.05697501540832049,10.61,2013-03-31 00:00:00,2013-04-23 00:00:00,63.456891483552894,2.8667087258591235,-107.02351091109377,2.5847017706323205
sz002600,2013-07-12,10.03,10.13,9.85,9.96,-0.014837000000000001,6333428.0,63233195.87,1292808000.0,3165288000.0,0.04879374422187982,10.14,2013-03-31 00:00:00,2013-04-23 00:00:00,60.6555164560311,2.7401546818766507,-102.29883903047146,2.4705972372308156
sz002600,2013-07-11,9.93,10.5,9.93,10.11,0.020182,11182146.0,114177365.1,1312278000.0,3212958000.0,0.08614904468412943,10.29,2013-03-31 00:00:00,2013-04-23 00:00:00,61.56901594561621,2.781422649730705,-103.83950577769511,2.507805548148698
sz002600,2013-07-10,9.01,9.91,9.01,9.91,0.099889,6438985.0,61811111.29,1286318000.0,3149398000.0,0.049606972265023114,10.09,2013-03-31 00:00:00,2013-04-23 00:00:00,60.35101182496477,2.726398475694244,-101.78527535056992,2.4581942713640292
sz002600,2013-07-09,8.88,9.18,8.88,9.01,0.008959,1337529.0,12076536.93,1169498000.0,2863378000.0,0.010304537750385208,9.17,2013-03-31 00:00:00,2013-04-23 00:00:00,54.870093095725814,2.4787942016823914,-92.54140676974669,2.234947591406068
sz002600,2013-07-08,9.3,9.3,8.88,8.93,-0.064921,2624259.0,23831436.01,1159114000.0,2837954000.0,0.020217711864406778,9.09,2013-03-31 00:00:00,2013-04-23 00:00:00,54.38287690156469,2.4567838749467437,-91.71969006644143,2.2151024882141575
sz002600,2013-07-05,9.6,9.87,9.46,9.55,-0.01241,4203150.0,40738194.94,1239590000.0,3034990000.0,0.03238174114021572,9.72,2013-03-31 00:00:00,2013-04-23 00:00:00,58.158590773148255,2.627354346474195,-98.08763758617341,2.368893417790537
sz002600,2013-07-04,9.21,9.86,9.18,9.67,0.036442,5108618.0,49008278.68,1255166000.0,3073126000.0,0.03935761171032357,9.84,2013-03-31 00:00:00,2013-04-23 00:00:00,58.88940833053014,2.6603695323709178,-99.3202012841092,2.398660798297408
sz002600,2013-07-03,9.35,9.46,9.11,9.33,-0.015823,2376143.0,22033119.85,1211034000.0,2965074000.0,0.018306186440677965,9.5,2013-03-31 00:00:00,2013-04-23 00:00:00,56.818817001366334,2.566829144680472,-95.8280359963309,2.3143222662699965
sz002600,2013-07-02,9.17,9.62,9.12,9.48,0.031556,3216387.0,30154820.8,1230504000.0,3012744000.0,0.024779560862865948,9.65,2013-03-31 00:00:00,2013-04-23 00:00:00,57.73231542838975,2.6080970645325707,-97.36870095148626,2.351530533908023
sz002600,2013-07-01,8.89,9.25,8.8,9.19,0.027964,1584106.0,14383104.09,1192862000.0,2920582000.0,0.012204206471494608,9.36,2013-03-31 00:00:00,2013-04-23 00:00:00,55.96624461337024,2.5283136005535045,-94.39012613128737,2.2795956146908396
sz002600,2013-06-28,8.82,9.28,8.6,8.94,-0.006667,1826900.0,16371817.22,1160412000.0,2841132000.0,0.014074730354391371,9.1,2013-03-31 00:00:00,2013-04-23 00:00:00,54.4437787834693,2.4595351593572383,-91.82240441424734,2.217583120314368
sz002600,2013-06-27,9.3,9.45,8.93,9.0,-0.032257999999999995,2271481.0,20965106.53,1168200000.0,2860200000.0,0.017499853620955314,9.16,2013-03-31 00:00:00,2013-04-23 00:00:00,54.809191664295156,2.4760429376223665,-92.43869318168967,2.23246697765439
sz002600,2013-06-26,9.15,9.4,8.9,9.3,0.017505,2677566.0,24560783.91,1207140000.0,2955540000.0,0.020628397534668722,9.47,2013-03-31 00:00:00,2013-04-23 00:00:00,56.636160944027594,2.5585775316379435,-95.51997658641422,2.3068823897840436
sz002600,2013-06-25,9.02,9.23,8.17,9.14,0.007718000000000001,3216909.0,27973819.45,1186372000.0,2904692000.0,0.02478358243451464,9.3,2013-03-31 00:00:00,2013-04-23 00:00:00,55.66180111550075,2.5145601561053197,-93.87666555585889,2.2671951388779843
sz002600,2013-06-24,9.78,9.95,8.9,9.07,-0.081163,2442493.0,22829851.97,1177286000.0,2882446000.0,0.01881735747303544,9.23,2013-03-31 00:00:00,2013-04-23 00:00:00,55.235493576080565,2.4953014197477072,-93.15767462311769,2.2498309436548563
sz002600,2013-06-21,9.75,10.03,9.56,9.98,0.0091,2147844.0,21046023.18,1295404000.0,3171644000.0,0.0165473343605547,10.05,2013-03-31 00:00:00,2013-04-23 00:00:00,60.11457263484227,2.715717172629865,-101.386507751775,2.4485637209372895
sz002600,2013-06-20,10.34,10.45,9.88,9.89,-0.056298,2114020.0,21650095.51,1283722000.0,3143042000.0,0.016286748844375965,9.96,2013-03-31 00:00:00,2013-04-23 00:00:00,59.5724632195444,2.691227006867371,-100.47221063499651,2.4264827281114747
sz002600,2013-06-19,10.2,10.55,10.14,10.48,0.017476,3412114.0,35463279.89,1360304000.0,3330544000.0,0.026287473035439136,10.55,2013-03-31 00:00:00,2013-04-23 00:00:00,63.126350499993,2.8517763095419646,-106.4660355016695,2.571238302039706
sz002600,2013-06-18,10.2,10.39,10.08,10.3,0.010795,1900330.0,19482756.27,1336940000.0,3273340000.0,0.014640446841294301,10.37,2013-03-31 00:00:00,2013-04-23 00:00:00,62.04210271298094,2.80279466989095,-104.63739243153596,2.5270751369464297
sz002600,2013-06-17,10.24,10.44,10.18,10.19,-0.004883,1933341.0,19969838.66,1322662000.0,3238382000.0,0.014894768875192603,10.26,2013-03-31 00:00:00,2013-04-23 00:00:00,61.379510892892164,2.7728616286101038,-103.51989516324868,2.500086701009037
sz002600,2013-06-14,10.1,10.36,10.09,10.24,0.015872999999999998,2014758.0,20650979.44,1329152000.0,3254272000.0,0.015522018489984591,10.31,2013-03-31 00:00:00,2013-04-23 00:00:00,61.68069773995637,2.7864679516178534,-104.02786321934876,2.5123545281700914
sz002600,2013-06-13,10.52,10.52,9.8,10.08,-0.051739999999999994,2400901.0,24189560.78,1308384000.0,3203424000.0,0.018496926040061635,10.15,2013-03-31 00:00:00,2013-04-23 00:00:00,60.71693778647171,2.7429294327320974,-102.4024294565844,2.473099027309606
sz002600,2013-06-07,11.0,11.07,10.41,10.63,-0.025664999999999997,2509271.0,26905143.79,1379774000.0,3378214000.0,0.01933182588597843,10.7,2013-03-31 00:00:00,2013-04-23 00:00:00,64.02984180126938,2.8925921506043673,-107.98982289307195,2.608038963269152
sz002600,2013-06-06,11.28,11.28,10.87,10.91,-0.036219,2542294.0,28230212.79,1416118000.0,3467198000.0,0.019586240369799692,10.99,2013-03-31 00:00:00,2013-04-23 00:00:00,65.71645460880436,2.968786044434786,-110.83438744689656,2.6767374293945636
sz002600,2013-06-05,11.2,11.44,11.16,11.32,0.006222,1742737.0,19734332.57,1469336000.0,3597496000.0,0.013426325115562405,11.4,2013-03-31 00:00:00,2013-04-23 00:00:00,68.18608647483646,3.0803533628851225,-114.99955637940212,2.777329527553006
sz002600,2013-06-04,11.64,11.64,11.15,11.25,-0.034335000000000004,3179857.0,36159951.07,1460250000.0,3575250000.0,0.02449812788906009,11.33,2013-03-31 00:00:00,2013-04-23 00:00:00,67.7644560294214,3.061305917466645,-114.28845362097242,2.760155837929409
sz002600,2013-06-03,11.65,11.76,11.48,11.65,-0.0034219999999999997,3509065.0,40761674.01,1512170000.0,3702370000.0,0.02703439907550077,11.73,2013-03-31 00:00:00,2013-04-23 00:00:00,70.17387606408164,3.1701531250140005,-118.35207201355793,2.858295410861333
sz002600,2013-05-31,11.81,11.93,11.66,11.69,-0.010161,4071488.0,48086767.82,1517362000.0,3715082000.0,0.03136739599383667,11.77,2013-03-31 00:00:00,2013-04-23 00:00:00,70.41483563161302,3.181038639237471,-118.75846347557133,2.8681100835673004
sz002600,2013-05-30,12.03,12.12,11.75,11.81,-0.024773,5694425.0,67542050.32,1532938000.0,3753218000.0,0.04387076271186441,11.89,2013-03-31 00:00:00,2013-04-23 00:00:00,71.13766545025304,3.2136929735416278,-119.9775554161549,2.8975521105627284
sz002600,2013-05-29,12.13,12.29,12.05,12.11,0.000826,5043414.0,61391949.88,1571878000.0,3848558000.0,0.03885526964560863,12.19,2013-03-31 00:00:00,2013-04-23 00:00:00,72.94472512579433,3.2953281374917096,-123.02526018676153,2.9711565723290354
sz002600,2013-05-28,12.3,12.35,11.93,12.1,-0.00982,4683165.0,56513411.26,1570580000.0,3845380000.0,0.03607985362095532,12.18,2013-03-31 00:00:00,2013-04-23 00:00:00,72.88452251020092,3.2926084429178597,-122.92372518975479,2.9687044224760704
sz002600,2013-05-27,12.24,12.36,12.13,12.22,-0.0032630000000000003,5657136.0,69219739.43,1586156000.0,3883516000.0,0.043583482280431435,12.3,2013-03-31 00:00:00,2013-04-23 00:00:00,73.6073466543466,3.3252625208728306,-124.14280755999393,2.99814621834017
sz002600,2013-05-24,11.83,12.3,11.73,12.26,0.040747000000000005,7235686.0,87107484.59,1591348000.0,3896228000.0,0.0557448844375963,12.34,2013-03-31 00:00:00,2013-04-23 00:00:00,73.84831370195607,3.336148373013975,-124.54921163756731,3.0079611957218106
sz002600,2013-05-23,11.9,12.02,11.68,11.78,-0.026445999999999997,6295533.0,74442898.42,1529044000.0,3743684000.0,0.04850179506933744,11.86,2013-03-31 00:00:00,2013-04-23 00:00:00,70.95702769448874,3.2055325386611493,-119.67289998200073,2.8901944427625645
sz002600,2013-05-22,12.32,12.79,11.91,12.1,-0.008197,11974332.0,148300748.6,1570580000.0,3845380000.0,0.09225217257318952,12.18,2013-03-31 00:00:00,2013-04-23 00:00:00,72.88453202851484,3.292608872914239,-122.92374124291074,2.968704810172383
sz002600,2013-05-21,11.84,12.44,11.78,12.2,0.020921000000000002,12456716.0,151201588.76,1583560000.0,3877160000.0,0.09596853620955315,12.28,2013-03-31 00:00:00,2013-04-23 00:00:00,73.48690418209549,3.3198214493344333,-123.93967475689298,2.9932404017454908
sz002600,2013-05-20,11.35,12.03,11.3,11.95,0.052863,11401607.0,134713636.09,1551110000.0,3797710000.0,0.08783980739599383,12.03,2013-03-31 00:00:00,2013-04-23 00:00:00,71.98098989255337,3.2517907353599673,-121.39986811603737,2.9319020783640366
sz002600,2013-05-17,11.27,11.38,11.2,11.35,-0.004386,6397755.0,72333603.89,1019230000.0,3607030000.0,0.07124448775055679,11.43,2013-03-31 00:00:00,2013-04-23 00:00:00,68.36690993277699,3.08852218698916,-115.30452501041196,2.7846947593030027
sz002600,2013-05-16,11.54,11.79,11.36,11.4,-0.017241,7091850.0,82260136.7,1023720000.0,3622920000.0,0.0789738307349666,11.48,2013-03-31 00:00:00,2013-04-23 00:00:00,68.66808816747955,3.102128120927548,-115.81247854129408,2.796962235668645
sz002600,2013-05-15,11.33,11.65,11.17,11.6,0.013986000000000002,5054607.0,57950820.82,1041680000.0,3686480000.0,0.05628738307349666,11.68,2013-03-31 00:00:00,2013-04-23 00:00:00,69.87276450022797,3.156550202977075,-117.84423092670131,2.8460306501071417
sz002600,2013-05-14,11.52,11.63,11.36,11.44,-0.012941999999999999,3716096.0,42699260.42,1027312000.0,3635632000.0,0.0413819153674833,11.52,2013-03-31 00:00:00,2013-04-23 00:00:00,68.90900318172831,3.1130116224258275,-116.21879486176468,2.8067750936473894
sz002600,2013-05-13,11.31,11.65,11.26,11.59,0.024756999999999998,4420024.0,50766503.72,1040782000.0,3683302000.0,0.04922075723830735,11.67,2013-03-31 00:00:00,2013-04-23 00:00:00,69.81251677381502,3.1538284704909203,-117.74261984783534,2.843576662817574
sz002600,2013-05-10,11.43,11.57,11.21,11.31,-0.016522,3608332.0,40939500.57,1015638000.0,3594318000.0,0.04018187082405345,11.39,2013-03-31 00:00:00,2013-04-23 00:00:00,68.12592329090216,3.077635449663599,-114.89808788604066,2.77487898381526
sz002600,2013-05-09,11.38,11.69,11.25,11.5,0.006124,4514948.0,51813958.1,1032700000.0,3654700000.0,0.050277817371937636,11.58,2013-03-31 00:00:00,2013-04-23 00:00:00,69.2704089882053,3.12933837835071,-116.82832547961488,2.8214957363715922
sz002600,2013-05-08,11.46,11.57,11.21,11.43,-0.000874,4366635.0,49597399.36,1026414000.0,3632454000.0,0.048626224944320715,11.51,2013-03-31 00:00:00,2013-04-23 00:00:00,68.84877906520995,3.110290956532902,-116.11722360227452,2.8043220680269942
sz002600,2013-05-07,11.54,11.95,11.33,11.44,-0.014643000000000002,7372485.0,85478503.03,1027312000.0,3635632000.0,0.0820989420935412,11.52,2013-03-31 00:00:00,2013-04-23 00:00:00,68.90900553604845,3.1130117287838597,-116.2187988324541,2.8067751895426545
sz002600,2013-05-06,11.3,11.64,11.23,11.61,0.034759,7697675.0,88464862.8,1042578000.0,3689658000.0,0.08572021158129176,11.69,2013-03-31 00:00:00,2013-04-23 00:00:00,69.93303496707128,3.159272962777815,-117.94588035854424,2.8484855636511988
sz002600,2013-05-03,11.08,11.37,11.02,11.22,0.026532,4903815.0,55077462.17,1007556000.0,3565716000.0,0.05460818485523385,11.3,2013-03-31 00:00:00,2013-04-23 00:00:00,67.5838866509702,3.0531485715783235,-113.98391350888876,2.7528009552477424
sz002600,2013-05-02,10.7,11.08,10.62,10.93,0.005520000000000001,2840929.0,30963290.59,981514000.0,3473554000.0,0.03163618040089087,11.01,2013-03-31 00:00:00,2013-04-23 00:00:00,65.83709679870691,2.974236138355476,-111.03785708471706,2.6816513808120375
sz002600,2013-04-26,11.08,11.38,10.73,10.87,-0.024237,3916362.0,43363357.76,976126000.0,3454486000.0,0.04361204899777283,10.94,2013-03-31 00:00:00,2013-04-23 00:00:00,65.47567109426656,2.9579084835264107,-110.42829290786565,2.6669299276116214
sz002600,2013-04-25,11.07,11.5,10.94,11.14,-0.0062439999999999996,8384806.0,94364947.6,1000372000.0,3540292000.0,0.09337200445434299,11.22,2013-03-31 00:00:00,2013-04-23 00:00:00,67.10202282138854,3.031380041594537,-113.17122386057437,2.733173862517457
sz002600,2013-04-24,10.6,11.32,10.56,11.21,0.054563,7926090.0,87043111.01,1006658000.0,3562538000.0,0.08826380846325167,11.29,2013-03-31 00:00:00,2013-04-23 00:00:00,67.5236404322475,3.0504269072031134,-113.8823049728247,2.750347029368836
sz002600,2013-04-23,10.94,10.95,10.6,10.63,-0.048344,5283358.0,56846501.3,954574000.0,3378214000.0,0.058834721603563477,10.7,2013-03-31 00:00:00,2013-04-23 00:00:00,64.0299730146492,2.892598078259064,-107.99004419159851,2.6080443078022233
sz002600,2013-04-22,10.89,11.26,10.66,11.17,0.028544999999999997,11138640.0,121739220.69,1003066000.0,3549826000.0,0.12403830734966592,11.25,2012-09-30 00:00:00,2012-10-25 00:00:00,72.93060829997084,3.4067662214729255,-353.40206399263565,2.7401604350056354
sz002600,2013-04-19,9.8,10.86,9.8,10.86,0.10030399999999999,8702507.0,92558267.32,975228000.0,3451308000.0,0.09690987750556793,10.93,2012-09-30 00:00:00,2012-10-25 00:00:00,70.906579974596,3.3122189320573487,-343.59416845411295,2.664113320278292
sz002600,2013-04-18,9.83,10.12,9.71,9.87,-0.011022,1462683.0,14530725.35,886326000.0,3136686000.0,0.016288229398663697,9.94,2012-09-30 00:00:00,2012-10-25 00:00:00,64.4427176258525,3.010276189178035,-312.27203432334426,2.4212520542307323
sz002600,2013-04-17,10.05,10.06,9.8,9.98,-0.007951999999999999,1738103.0,17245474.38,896204000.0,3171644000.0,0.019355267260579064,10.05,2012-09-30 00:00:00,2012-10-25 00:00:00,65.16092130042578,3.0438252308727143,-315.75225568550997,2.4482365171224565
sz002600,2013-04-16,9.5,10.06,9.43,10.06,0.012072,2209167.0,21660250.7,903388000.0,3197068000.0,0.024600968819599108,10.13,2012-09-30 00:00:00,2012-10-25 00:00:00,65.68323438021727,3.068223746101715,-318.283244042133,2.46786094737599
sz002600,2013-04-15,10.3,10.3,9.8,9.94,-0.044231,2420100.0,24101417.12,892612000.0,3158932000.0,0.02694988864142539,10.01,2012-09-30 00:00:00,2012-10-25 00:00:00,64.89976442408965,3.031625957542264,-314.48675987689904,2.4384242893548973
sz002600,2013-04-12,10.3,10.61,10.24,10.4,0.009709,2831009.0,29551862.38,933920000.0,3305120000.0,0.03152571269487751,10.47,2012-09-30 00:00:00,2012-10-25 00:00:00,67.90319044046173,3.1719232968868676,-329.0405525570499,2.5512694901748203
sz002600,2013-04-11,10.47,10.65,10.23,10.3,-0.032864,3893710.0,40688430.61,924940000.0,3273340000.0,0.0433597995545657,10.37,2012-09-30 00:00:00,2012-10-25 00:00:00,67.25025768856347,3.1414232188550044,-325.8766164875721,2.526737396789392
sz002600,2013-04-10,10.5,10.95,10.41,10.65,0.0066159999999999995,7938591.0,85075868.68,956370000.0,3384570000.0,0.08840301781737193,10.72,2012-09-30 00:00:00,2012-10-25 00:00:00,69.53547142135486,3.2481711143572407,-336.95014608862874,2.612597811258594
sz002600,2013-04-09,9.7,10.58,9.7,10.58,0.09979199999999999,4168367.0,43302900.84,950084000.0,3362324000.0,0.04641834075723831,10.65,2012-09-30 00:00:00,2012-10-25 00:00:00,69.07844840669615,3.2268224569818487,-334.7355357838826,2.5954264697348286
sz002600,2013-04-08,9.66,9.69,9.38,9.62,-0.014343999999999999,1502960.0,14316210.85,863876000.0,3057236000.0,0.01673674832962138,9.69,2012-09-30 00:00:00,2012-10-25 00:00:00,62.810466348815204,2.934029759247066,-304.362584728642,2.359924849184963
sz002600,2013-04-03,10.1,10.1,9.61,9.76,-0.024975,1993716.0,19537950.71,876448000.0,3101728000.0,0.02220173719376392,9.83,2012-09-30 00:00:00,2012-10-25 00:00:00,63.72453102179178,2.9767279448885473,-308.79189568027994,2.3942682327150275
sz002600,2013-04-02,10.24,10.35,10.0,10.01,-0.020548,1447781.0,14676676.19,898898000.0,3181178000.0,0.01612228285077951,10.08,2012-09-30 00:00:00,2012-10-25 00:00:00,65.35681753984953,3.052976021013356,-316.7015160434655,2.4555967618420325
sz002600,2013-04-01,10.18,10.32,10.15,10.22,0.007890000000000001,990664.0,10133054.71,917756000.0,3247916000.0,0.011031893095768373,10.29,2012-09-30 00:00:00,2012-10-25 00:00:00,66.72794331917187,3.117024643385644,-323.34562188189466,2.5071129180827976
sz002600,2013-03-29,10.13,10.26,10.13,10.14,0.00396,929256.0,9473661.27,910572000.0,3222492000.0,0.010348062360801782,10.21,2012-09-30 00:00:00,2012-10-25 00:00:00,66.20558128285019,3.0926238412779616,-320.8143962951262,2.487486648426711
sz002600,2013-03-28,10.58,10.58,10.1,10.1,-0.056075,2242180.0,23057034.77,906980000.0,3209780000.0,0.02496859688195991,10.17,2012-09-30 00:00:00,2012-10-25 00:00:00,65.94444129532073,3.0804253568647773,-319.54898232511874,2.4776750552080875
sz002600,2013-03-27,10.57,10.83,10.5,10.7,0.011342,2219998.0,23667544.22,960860000.0,3400460000.0,0.024721581291759467,10.77,2012-09-30 00:00:00,2012-10-25 00:00:00,69.8619501499809,3.263421730396776,-338.5321739811094,2.624864322068053
sz002600,2013-03-26,10.95,10.95,10.48,10.58,-0.038182,2526967.0,26872263.46,950084000.0,3362324000.0,0.028139944320712696,10.65,2012-09-30 00:00:00,2012-10-25 00:00:00,69.0784622313529,3.2268231027652132,-334.7356027744417,2.5954269891570343
sz002600,2013-03-25,10.79,11.08,10.73,11.0,0.019462,2902356.0,31725578.63,987800000.0,3495800000.0,0.03232022271714922,11.08,2012-09-30 00:00:00,2012-10-25 00:00:00,71.82072100059773,3.354920684334472,-348.02384939192416,2.698459572556382
sz002600,2013-03-22,10.76,10.84,10.68,10.79,-0.00185,1720852.0,18533677.82,968942000.0,3429062000.0,0.019163162583518932,10.86,2012-09-30 00:00:00,2012-10-25 00:00:00,70.44963029578123,3.2908737003777206,-341.3799135150934,2.646944734140539
sz002600,2013-03-21,10.7,10.94,10.7,10.81,0.011225,2611489.0,28227264.45,970738000.0,3435418000.0,0.02908116926503341,10.88,2012-09-30 00:00:00,2012-10-25 00:00:00,70.5802036725755,3.2969731006138563,-342.0126368933461,2.651850657857575
sz002600,2013-03-20,10.42,10.77,10.36,10.69,0.029865,2489738.0,26359781.33,959962000.0,3397282000.0,0.027725367483296213,10.76,2012-09-30 00:00:00,2012-10-25 00:00:00,69.79673531862393,3.2603753868959493,-338.21616049182535,2.622414060033697
sz002600,2013-03-19,10.3,10.42,10.15,10.38,0.0077670000000000005,1650219.0,17035188.38,932124000.0,3298764000.0,0.018376603563474387,10.45,2012-09-30 00:00:00,2012-10-25 00:00:00,67.77270352776716,3.165827935599277,-328.4082481605116,2.546366815100714
sz002600,2013-03-18,10.68,10.79,10.26,10.3,-0.045412,3092155.0,32203851.21,924940000.0,3273340000.0,0.03443379732739421,10.37,2012-09-30 00:00:00,2012-10-25 00:00:00,67.25036990471723,3.141428460744673,-325.8771602567971,2.5267416129926006
sz002600,2013-03-15,10.96,11.01,10.52,10.79,-0.010999,3092817.0,33336446.48,968942000.0,3429062000.0,0.034441169265033406,10.86,2012-09-30 00:00:00,2012-10-25 00:00:00,70.44962843102702,3.290873613270513,-341.3799044789973,2.646944664077697
sz002600,2013-03-14,11.2,11.44,10.9,10.91,-0.041301,3367952.0,37407095.03,979718000.0,3467198000.0,0.037505033407572386,10.99,2012-09-30 00:00:00,2012-10-25 00:00:00,71.23312153478815,3.327472483112265,-345.17650081142216,2.676382191805364
sz002600,2013-03-13,11.35,11.5,11.17,11.38,-0.000878,2288308.0,26018982.11,1021924000.0,3616564000.0,0.02548227171492205,11.46,2012-09-30 00:00:00,2012-10-25 00:00:00,74.30186276901108,3.4708208552551585,-360.04679342673995,2.791681426396986
sz002600,2013-03-12,11.9,12.1,11.11,11.39,-0.047659,5194361.0,59995992.54,1022822000.0,3619742000.0,0.057843663697104676,11.47,2012-09-30 00:00:00,2012-10-25 00:00:00,74.36715713297384,3.4738709139175783,-360.36319230958776,2.7941346766430786
sz002600,2013-03-11,12.16,12.3,11.92,11.96,-0.021277,4680861.0,56755062.68,1074008000.0,3800888000.0,0.052125400890868596,12.04,2012-09-30 00:00:00,2012-10-25 00:00:00,78.0887908143972,3.6477174813618003,-378.3972256886848,2.9339644902856
sz002600,2013-03-08,12.01,12.35,11.88,12.22,0.018333000000000002,6967555.0,84727469.15,1097356000.0,3883516000.0,0.07758969933184855,12.3,2012-09-30 00:00:00,2012-10-25 00:00:00,79.78640617866056,3.72701722689852,-386.62341202636986,2.99774756523102
sz002600,2013-03-07,12.19,12.2,11.76,12.0,-0.020408000000000003,6490238.0,78026526.77,1077600000.0,3813600000.0,0.07227436525612473,12.08,2012-09-30 00:00:00,2012-10-25 00:00:00,78.35001534729854,3.659919915095082,-379.6630493427689,2.9437792600564063
sz002600,2013-03-06,11.88,12.31,11.84,12.25,0.034628,9049694.0,109766313.3,1100050000.0,3893050000.0,0.10077610244988865,12.33,2012-09-30 00:00:00,2012-10-25 00:00:00,79.98229400331824,3.7361676239649584,-387.5726316086379,3.0051074937896654
sz002600,2013-03-05,11.39,11.88,11.33,11.84,0.019811000000000002,4998508.0,58538768.92,1063232000.0,3762752000.0,0.05566267260579064,11.92,2012-09-30 00:00:00,2012-10-25 00:00:00,77.30536386345455,3.611121701679211,-374.600949914982,2.9045294480621693
sz002600,2013-03-04,11.78,12.14,11.52,11.61,-0.00854,9618256.0,114306483.31,1042578000.0,3689658000.0,0.10710752783964365,11.69,2012-09-30 00:00:00,2012-10-25 00:00:00,75.80361837973363,3.5409715149956322,-367.3238962072207,2.848105627476237
sz002600,2013-03-01,11.61,11.76,11.53,11.71,0.002568,3509572.0,40946463.01,1051558000.0,3721438000.0,0.03908209354120267,11.79,2012-09-30 00:00:00,2012-10-25 00:00:00,76.45655737975676,3.5714718848926155,-370.48786255342696,2.872637955617208
sz002600,2013-02-28,11.46,11.7,11.32,11.68,0.021872,4255921.0,49291378.32,1048864000.0,3711904000.0,0.04739332962138085,11.76,2012-09-30 00:00:00,2012-10-25 00:00:00,76.26071985117895,3.5623238372784845,-369.5388866924009,2.8652799167908896
sz002600,2013-02-27,11.4,11.54,11.25,11.43,0.0043939999999999995,2576912.0,29378317.61,1026414000.0,3632454000.0,0.028696124721603565,11.51,2012-09-30 00:00:00,2012-10-25 00:00:00,74.6284464699874,3.48607637480867,-361.6293299869269,2.8039518812443145
sz002600,2013-02-26,11.64,11.76,11.2,11.38,-0.023176,5622264.0,64408889.38,1021924000.0,3616564000.0,0.06260873051224944,11.46,2012-09-30 00:00:00,2012-10-25 00:00:00,74.30196364174556,3.4708255672661026,-360.0472822288135,2.7916852164034376
sz002600,2013-02-25,11.63,11.76,11.53,11.65,0.000859,3077295.0,35815374.54,1046170000.0,3702370000.0,0.034268318485523384,11.73,2012-09-30 00:00:00,2012-10-25 00:00:00,76.06484242990093,3.553173926179232,-368.5897175221058,2.857920379109683
sz002600,2013-02-22,11.43,11.88,11.41,11.64,0.013937,3985410.0,46461492.54,1045272000.0,3699192000.0,0.044380957683741645,11.72,2012-09-30 00:00:00,2012-10-25 00:00:00,75.99955880888412,3.5501243693459643,-368.2733706966774,2.855467532499267
sz002600,2013-02-21,11.85,11.85,11.42,11.48,-0.039331,4722885.0,54717254.28,1030904000.0,3648344000.0,0.05259337416481069,11.56,2012-09-30 00:00:00,2012-10-25 00:00:00,74.95491219758635,3.5013263835385873,-363.21129487993574,2.8162179035771127
sz002600,2013-02-20,11.67,12.0,11.6,11.95,0.022241,3538886.0,41948365.76,1073110000.0,3797710000.0,0.03940853006681515,12.03,2012-09-30 00:00:00,2012-10-25 00:00:00,78.02366080053207,3.644675099892457,-378.0816232020974,2.931517415027561
sz002600,2013-02-19,12.15,12.33,11.61,11.69,-0.038651,6033705.0,72071751.71,1049762000.0,3715082000.0,0.06719047884187082,11.77,2012-09-30 00:00:00,2012-10-25 00:00:00,76.32609218426191,3.565377538068281,-369.855663392583,2.86773609650519
sz002600,2013-02-18,12.28,12.34,12.08,12.16,-0.018563,6156959.0,75276327.34,1091968000.0,3864448000.0,0.06856301781737194,12.24,2012-09-30 00:00:00,2012-10-25 00:00:00,79.39477981904794,3.708723406451019,-384.7256962794812,2.983033317250228
sz002600,2013-02-08,12.01,12.58,11.9,12.39,0.025662,9197377.0,112774999.16,1112622000.0,3937542000.0,0.10242067928730512,12.48,2012-09-30 00:00:00,2012-10-25 00:00:00,80.89646082127322,3.778870581046994,-392.00243752730046,3.039454715127133
sz002600,2013-02-07,11.65,12.19,11.6,12.08,0.033362,9959349.0,119122987.0,1084784000.0,3839024000.0,0.11090589086859688,12.16,2012-09-30 00:00:00,2012-10-25 00:00:00,78.87243635941782,3.684323472105814,-382.1945607103513,2.9634077455605574
sz002600,2013-02-06,11.48,12.21,11.47,11.69,0.026338999999999998,9832158.0,116470502.25,1049762000.0,3715082000.0,0.10948951002227171,11.77,2012-09-30 00:00:00,2012-10-25 00:00:00,76.32604678652577,3.565375417429531,-369.855443407394,2.8677343908142143
sz002600,2013-02-05,11.17,11.5,11.14,11.39,0.008856999999999999,3165091.0,35925131.47,1022822000.0,3619742000.0,0.035246002227171495,11.47,2012-09-30 00:00:00,2012-10-25 00:00:00,74.36728681900014,3.473876971867513,-360.3638207331048,2.7941395492271215
sz002600,2013-02-04,11.51,11.67,11.12,11.29,-0.020815,5530755.0,62837120.12,1013842000.0,3587962000.0,0.06158969933184855,11.37,2012-09-30 00:00:00,2012-10-25 00:00:00,73.71439839243831,3.4433789643799995,-357.20009945225615,2.7696091212402965
sz002600,2013-02-01,11.5,11.65,11.37,11.53,-0.0103,6231454.0,71713054.49,1035394000.0,3664234000.0,0.06939258351893096,11.61,2012-09-30 00:00:00,2012-10-25 00:00:00,75.28138032387987,3.5165765043173653,-364.7932713963716,2.828484016034045
sz002600,2013-01-31,11.35,11.76,11.35,11.65,0.026432,7830785.0,90467747.49,1046170000.0,3702370000.0,0.08720250556792873,11.73,2012-09-30 00:00:00,2012-10-25 00:00:00,76.06484826096785,3.55317419856256,-368.5897457778839,2.8579205981954585
sz002600,2013-01-30,11.32,11.47,11.2,11.35,-0.004386,3991561.0,45212560.41,1019230000.0,3607030000.0,0.04444945434298441,11.43,2012-09-30 00:00:00,2012-10-25 00:00:00,74.10607644828673,3.461675199684499,-359.0980657051649,2.7843253115602966
sz002600,2013-01-29,11.13,11.48,11.1,11.4,0.027027,5738602.0,65047591.18,1023720000.0,3622920000.0,0.06390425389755011,11.48,2012-09-30 00:00:00,2012-10-25 00:00:00,74.4325375580162,3.4769249927024926,-360.6800082212232,2.796591160389766
sz002600,2013-01-28,10.75,11.12,10.75,11.1,0.029685000000000003,2678814.0,29471850.83,996780000.0,3527580000.0,0.02983089086859688,11.18,2012-09-30 00:00:00,2012-10-25 00:00:00,72.47378847685232,3.385427055668929,-351.1884382993079,2.722996727826792
sz002600,2013-01-25,10.74,11.0,10.74,10.78,-0.002775,2139094.0,23215346.01,968044000.0,3425884000.0,0.02382064587973274,10.85,2012-09-30 00:00:00,2012-10-25 00:00:00,70.3844267682372,3.287827884905509,-341.0639548010391,2.644494896814843
sz002600,2013-01-24,11.06,11.47,10.75,10.81,-0.028751,5152494.0,57643111.0,970738000.0,3435418000.0,0.05737743875278396,10.88,2012-09-30 00:00:00,2012-10-25 00:00:00,70.58028706484212,3.296976996069602,-342.0130409897857,2.651853791085104
sz002600,2013-01-23,11.17,11.37,10.87,11.13,-0.007136,4064414.0,45033018.36,999474000.0,3537114000.0,0.04526073496659243,11.21,2012-09-30 00:00:00,2012-10-25 00:00:00,72.66961105220405,3.3945744047814737,-352.137341701032,2.7303542048281173
sz002600,2013-01-22,11.5,11.69,11.2,11.21,-0.019247999999999998,5947455.0,68246646.41,1006658000.0,3562538000.0,0.06623001113585746,11.29,2012-09-30 00:00:00,2012-10-25 00:00:00,73.19190851134097,3.4189721903316808,-354.6682543641748,2.7499780481799294
sz002600,2013-01-21,11.34,11.52,11.28,11.43,0.0070480000000000004,4051286.0,46195027.14,1026414000.0,3632454000.0,0.0451145434298441,11.51,2012-09-30 00:00:00,2012-10-25 00:00:00,74.62835509011552,3.486072106232443,-361.628887184706,2.803948447905209
sz002600,2013-01-18,11.25,11.44,11.15,11.35,0.014297999999999998,3689997.0,41747844.02,1019230000.0,3607030000.0,0.04109128062360802,11.43,2012-09-30 00:00:00,2012-10-25 00:00:00,74.10605561017502,3.461674226285582,-359.097964729294,2.784324528627443
sz002600,2013-01-17,11.35,11.48,11.13,11.19,-0.02014,4715445.0,53068142.87,1004862000.0,3556182000.0,0.05251052338530067,11.27,2012-09-30 00:00:00,2012-10-25 00:00:00,73.06142337870628,3.4128769121950184,-354.03595859332665,2.745075439986516
sz002600,2013-01-16,11.5,11.72,11.18,11.42,-0.011255,7328917.0,83897567.19,1025516000.0,3629276000.0,0.0816137750556793,11.5,2012-09-30 00:00:00,2012-10-25 00:00:00,74.5631247103732,3.4830250364286925,-361.31279835213877,2.801497601684441
sz002600,2013-01-15,11.11,11.77,11.07,11.55,0.03402,12027096.0,137595569.26,1037190000.0,3670590000.0,0.13393202672605792,11.63,2012-09-30 00:00:00,2012-10-25 00:00:00,75.41188548146711,3.5226727178683004,-365.42566420274056,2.8333873766081656
sz002600,2013-01-14,10.52,11.3,10.52,11.17,0.049812,6964369.0,76327739.3,1003066000.0,3549826000.0,0.07755422048997773,11.25,2012-09-30 00:00:00,2012-10-25 00:00:00,72.93078033448784,3.406774257623934,-353.4028976255204,2.7401668987139183
sz002600,2013-01-11,10.93,11.09,10.61,10.64,-0.030964999999999996,4558127.0,49411312.27,955472000.0,3381392000.0,0.05075865256124722,10.71,2012-09-30 00:00:00,2012-10-25 00:00:00,69.47032452904695,3.245127944454754,-336.63446181365845,2.610150101841014
sz002600,2013-01-10,10.91,11.08,10.84,10.98,0.0,4307024.0,47223850.46,986004000.0,3489444000.0,0.04796240534521158,11.06,2012-09-30 00:00:00,2012-10-25 00:00:00,71.69021194182558,3.3488242885496953,-347.39143768146505,2.693556065406321
sz002600,2013-01-09,11.15,11.22,10.76,10.98,-0.024,6066791.0,66979912.74,986004000.0,3489444000.0,0.06755891982182628,11.06,2012-09-30 00:00:00,2012-10-25 00:00:00,71.69021194182558,3.3488242885496953,-347.39143768146505,2.693556065406321
sz002600,2013-01-08,10.83,11.34,10.81,11.25,0.034959,8348329.0,92586616.78,1010250000.0,3575250000.0,0.09296580178173719,11.33,2012-09-30 00:00:00,2012-10-25 00:00:00,73.45308600596884,3.431172426792721,-355.93385008346826,2.75979105062123
sz002600,2013-01-07,10.82,10.9,10.7,10.87,-0.008212,3745891.0,40405020.42,976126000.0,3454486000.0,0.04171370824053452,10.95,2012-09-30 00:00:00,2012-10-25 00:00:00,70.97197667344199,3.3152737710312397,-343.911063224213,2.6665704154669223
sz002600,2013-01-04,10.95,11.08,10.86,10.96,0.006428,4848773.0,53228035.41,984208000.0,3483088000.0,0.05399524498886414,11.04,2012-09-30 00:00:00,2012-10-25 00:00:00,71.55962430826142,3.342724222345138,-346.75864521874934,2.688649606031654
