code,date,open,high,low,close,change,volume,money,traded_market_value,market_value,turnover,adjust_price,report_type,report_date,PE_TTM,PS_TTM,PC_TTM,PB
sz002504,2014-12-31,16.59,16.8,16.41,16.79,0.013277,2728519.0,45534808.79,1668252650.0,6929805290.0,0.027460968822678025,22.33,2014-09-30 00:00:00,2014-10-30 00:00:00,-53.26434805928137,8.969345966594197,-1314.4905500075688,3.701848984569667
sz002504,2014-12-30,16.6,16.75,16.51,16.57,-0.001807,1030275.0,17086027.66,1646393480.0,6839003790.0,0.010369123151532402,22.03,2014-09-30 00:00:00,2014-10-30 00:00:00,-52.566423652447824,8.851820347835979,-1297.2667395071326,3.653343542357783
sz002504,2014-12-29,16.78,16.8,16.42,16.6,-0.011904999999999999,1294606.0,21448683.58,1649374270.0,6851385810.0,0.013029462136571345,22.07,2014-09-30 00:00:00,2014-10-30 00:00:00,-52.661583133169465,8.867844542925045,-1299.6151440724716,3.659957084810035
sz002504,2014-12-26,16.99,16.99,16.6,16.8,0.001192,1597243.0,26812372.45,1669246250.0,6933932630.0,0.016075328849772766,22.34,2014-09-30 00:00:00,2014-10-30 00:00:00,-53.29607288081558,8.974688206017685,-1315.2734747898448,3.704053845844818
sz002504,2014-12-25,16.29,16.85,16.27,16.78,0.03198,1641857.0,27356414.85,1667259050.0,6925677950.0,0.01652434302875729,22.31,2014-09-30 00:00:00,2014-10-30 00:00:00,-53.232619598254445,8.964003114305433,-1313.7075354076387,3.699643870351358
sz002504,2014-12-24,16.06,16.26,16.06,16.26,0.010565999999999999,964814.0,15602857.77,1615591910.0,6711056220.0,0.009710295986812662,21.62,2014-09-30 00:00:00,2014-10-30 00:00:00,-51.582995405196264,8.68621786692129,-1272.997088516869,3.584995707621619
sz002504,2014-12-23,16.05,16.15,15.55,16.09,0.0006219999999999999,963510.0,15451782.45,1598700730.0,6640891430.0,0.009697171965387167,21.4,2014-09-30 00:00:00,2014-10-30 00:00:00,-51.04366800901305,8.595398882330585,-1259.6872332107644,3.547512688554354
sz002504,2014-12-22,16.4,16.42,15.0,16.08,-0.028399,3252256.0,52161442.47,1597707130.0,6636764090.0,0.03273207930166776,21.38,2014-09-30 00:00:00,2014-10-30 00:00:00,-51.01193858321428,8.590055867580949,-1258.9041948015977,3.5453075072848224
sz002504,2014-12-19,16.76,16.93,16.39,16.55,-0.024175,2012086.0,33290438.91,1644406280.0,6830749110.0,0.020250484144344185,22.01,2014-09-30 00:00:00,2014-10-30 00:00:00,-52.502970440761466,8.841135268058544,-1295.700801874018,3.6489335717900895
sz002504,2014-12-18,16.82,17.2,16.82,16.96,0.008323,1792562.0,30481110.82,1685143840.0,6999970080.0,0.01804110177324685,22.55,2014-09-30 00:00:00,2014-10-30 00:00:00,-53.80367426614553,9.060164750911836,-1327.8003759629214,3.739331920979775
sz002504,2014-12-17,16.56,16.86,16.46,16.82,0.014475,3203599.0,53535244.67,1671233450.0,6942187310.0,0.03224237474423457,22.37,2014-09-30 00:00:00,2014-10-30 00:00:00,-53.35956262640596,8.985379437850607,-1316.840314029256,3.708466355502925
sz002504,2014-12-16,16.62,16.67,16.32,16.58,-0.0018059999999999999,1437923.0,23682152.14,1647387080.0,6843131130.0,0.0144718649487041,22.05,2014-09-30 00:00:00,2014-10-30 00:00:00,-52.59820362887794,8.857171874960551,-1298.0510254360688,3.65555223687417
sz002504,2014-12-15,16.19,16.75,16.19,16.61,0.027211000000000003,3022630.0,49839677.36,1650367870.0,6855513150.0,0.030421026252771148,22.09,2014-09-30 00:00:00,2014-10-30 00:00:00,-52.693367851217246,8.873196868505072,-1300.3995470179834,3.662166108866784
sz002504,2014-12-12,16.0,16.21,15.92,16.17,0.0055969999999999995,1393175.0,22428485.43,1606649520.0,6673910150.0,0.014021502181757725,21.5,2014-09-30 00:00:00,2014-10-30 00:00:00,-51.29751127199498,8.638144323323125,-1265.951734373934,3.565154684740315
sz002504,2014-12-11,16.18,16.2,15.87,16.08,-0.00618,1999923.0,31989184.59,1597707130.0,6636764090.0,0.020128070555709417,21.38,2014-09-30 00:00:00,2014-10-30 00:00:00,-51.01199712409144,8.590065725457737,-1258.9056395095988,3.5453115758502807
sz002504,2014-12-10,15.68,16.24,15.68,16.18,0.031888,1704468.0,27352777.2,1607643120.0,6678037500.0,0.017154486525591574,21.52,2014-09-30 00:00:00,2014-10-30 00:00:00,-51.32921165210143,8.643482446980075,-1266.7340559755276,3.5673578473468845
sz002504,2014-12-09,16.45,16.45,15.67,15.68,-0.046808999999999996,3626441.0,58295750.74,1557963170.0,6471670450.0,0.036498035367549794,20.85,2014-09-30 00:00:00,2014-10-30 00:00:00,-49.74300665585938,8.376376551505663,-1227.5887072778514,3.4571172911661776
sz002504,2014-12-08,16.72,16.78,16.19,16.45,-0.014969999999999999,2873340.0,46901764.33,1634470290.0,6789475700.0,0.02891850851568553,21.87,2014-09-30 00:00:00,2014-10-30 00:00:00,-52.18577038165424,8.787720982998856,-1287.872742480627,3.626888305875924
sz002504,2014-12-05,16.92,16.98,16.1,16.7,-0.013002000000000001,4342268.0,71590820.25,1659310260.0,6892659220.0,0.043702421028843634,22.21,2014-09-30 00:00:00,2014-10-30 00:00:00,-52.97886397536546,8.921272431295348,-1307.4451970809287,3.6820079651136757
sz002504,2014-12-04,16.5,17.21,16.01,16.92,0.039951,3767903.0,63503250.92,1681169440.0,6983460720.0,0.037921768765913334,22.5,2014-09-30 00:00:00,2014-10-30 00:00:00,-53.67676933019666,9.038794841828805,-1324.6685374042586,3.7305120832196974
sz002504,2014-12-03,16.3,16.49,15.91,16.27,-0.0018399999999999998,3068344.0,49719264.66,1616585510.0,6715183560.0,0.03088111118848269,21.64,2014-09-30 00:00:00,2014-10-30 00:00:00,-51.614710049027956,8.691558392490421,-1273.7797621275029,3.587199861550878
sz002504,2014-12-02,16.19,16.34,16.11,16.3,0.006794,2433341.0,39566096.86,1619566300.0,6727565590.0,0.024490172646837616,21.68,2014-09-30 00:00:00,2014-10-30 00:00:00,-51.70985618440726,8.707580340316602,-1276.1278373482235,3.5938124765076522
sz002504,2014-12-01,15.94,16.46,15.94,16.19,0.016321000000000002,3860694.0,62595443.08,1608636720.0,6682164840.0,0.03885565652138041,21.53,2014-09-30 00:00:00,2014-10-30 00:00:00,-51.36091016077495,8.64882025550073,-1267.516331392741,3.5695608798896816
sz002504,2014-11-28,15.51,15.96,15.5,15.93,0.022465,3815300.0,60138387.65,1582803140.0,6574853970.0,0.03839879228442774,21.18,2014-09-30 00:00:00,2014-10-30 00:00:00,-50.53611030449529,8.509929692981578,-1247.1614100198078,3.5122376492168144
sz002504,2014-11-27,15.63,15.69,15.42,15.58,-0.001282,2797363.0,43474900.71,1548027180.0,6430397040.0,0.028153843875015166,20.72,2014-09-30 00:00:00,2014-10-30 00:00:00,-49.42576059277852,8.322954519696594,-1219.7595125699245,3.4350688279958868
sz002504,2014-11-26,15.19,15.68,15.19,15.6,0.026991,3294082.0,50690243.77,1550014380.0,6438651730.0,0.03315303384475697,20.74,2014-09-30 00:00:00,2014-10-30 00:00:00,-49.489205754555854,8.333638243925305,-1221.3252515424017,3.43947823909841
sz002504,2014-11-25,15.24,15.24,15.04,15.19,-0.0006580000000000001,2436277.0,36864495.39,1509276820.0,6269430750.0,0.024519721723414527,20.2,2014-09-30 00:00:00,2014-10-30 00:00:00,-48.188548638260556,8.114616626557881,-1189.226830169302,3.3490831361700444
sz002504,2014-11-24,15.08,15.2,15.08,15.2,0.010638,2774074.0,42108553.06,1510270420.0,6273558090.0,0.0279194535240914,20.21,2014-09-30 00:00:00,2014-10-30 00:00:00,-48.2202775809088,8.119959559948327,-1190.0098566549811,3.3512882838608253
sz002504,2014-11-21,15.0,15.1,14.92,15.04,-0.000664,1690900.0,25393621.73,1494372840.0,6207520640.0,0.017017932419060827,20.0,2014-09-30 00:00:00,2014-10-30 00:00:00,-47.71270977432948,8.034488669482375,-1177.4837841590966,3.316012542434408
sz002504,2014-11-20,15.11,15.11,14.95,15.05,-0.005288,1462405.0,21964000.65,1495366430.0,6211647980.0,0.014718262232220902,20.01,2014-09-30 00:00:00,2014-10-30 00:00:00,-47.74441206393995,8.039827114686528,-1178.2661528846122,3.3182158377506745
sz002504,2014-11-19,14.92,15.23,14.91,15.13,0.002651,1415473.0,21368101.6,1503315230.0,6244666710.0,0.014245918662049344,20.12,2014-09-30 00:00:00,2014-10-30 00:00:00,-47.998226686658995,8.08256773285788,-1184.5299472456472,3.3358558434508425
sz002504,2014-11-18,14.63,15.12,14.63,15.09,0.02444,1897231.0,28451144.5,1499340830.0,6228157340.0,0.019094534889708834,20.07,2014-09-30 00:00:00,2014-10-30 00:00:00,-47.87131981782195,8.061197498289912,-1181.3980609859732,3.327035871355878
sz002504,2014-11-17,14.52,14.75,14.51,14.73,0.008904,811211.0,11910996.41,1463571270.0,6079573070.0,0.008164370451190943,19.59,2014-09-30 00:00:00,2014-10-30 00:00:00,-46.7292567820682,7.868882021680052,-1153.213522496167,3.247662987930848
sz002504,2014-11-14,14.52,14.6,14.31,14.6,0.001372,961832.0,13877925.32,1450654480.0,6025917640.0,0.009680283895031986,19.41,2014-09-30 00:00:00,2014-10-30 00:00:00,-46.31685153599173,7.799435844916911,-1143.0359305703682,3.219001003000135
sz002504,2014-11-13,14.6,14.61,14.36,14.58,-0.003418,1185330.0,17158733.42,1448667280.0,6017662960.0,0.011929662275522643,19.39,2014-09-30 00:00:00,2014-10-30 00:00:00,-46.253391882329176,7.7887496803554646,-1141.4698339581778,3.214590584717902
sz002504,2014-11-12,14.47,14.63,14.24,14.63,0.011056999999999999,1046138.0,15191150.44,1453635280.0,6038299660.0,0.010528775099624715,19.45,2014-09-30 00:00:00,2014-10-30 00:00:00,-46.41202819469866,7.815462932659294,-1145.3847590646608,3.2256157393148803
sz002504,2014-11-11,14.83,14.9,14.18,14.47,-0.02951,2710777.0,39010545.76,1437737700.0,5972262210.0,0.027282405678031536,19.24,2014-09-30 00:00:00,2014-10-30 00:00:00,-45.90446255225834,7.729992406619304,-1132.858739976738,3.1903401482951805
sz002504,2014-11-10,14.78,15.1,14.56,14.91,0.008796,2277726.0,33692263.38,1481456050.0,6153865210.0,0.02292399741457062,19.83,2014-09-30 00:00:00,2014-10-30 00:00:00,-47.30029423513723,7.965040759430085,-1167.3059382134159,3.2873498421366323
sz002504,2014-11-07,15.19,15.19,14.72,14.78,-0.022487,2173445.0,32486084.5,1468539260.0,6100209780.0,0.02187446939620804,19.65,2014-09-30 00:00:00,2014-10-30 00:00:00,-46.88786854342923,7.895591139764715,-1157.1278417176673,3.258686436243435
sz002504,2014-11-06,15.08,15.15,15.04,15.12,0.000662,1134695.0,17129308.98,1502321630.0,6240539370.0,0.011420050179268204,20.11,2014-09-30 00:00:00,2014-10-30 00:00:00,-47.96649102715691,8.077223668395934,-1183.7467549972914,3.333650228941646
sz002504,2014-11-05,15.0,15.18,15.0,15.11,0.000662,1552973.0,23468553.66,1501328030.0,6236412020.0,0.0156297768116672,20.09,2014-09-30 00:00:00,2014-10-30 00:00:00,-47.934758217217116,8.071880083780473,-1182.9636330721976,3.3314448124757874
sz002504,2014-11-04,15.22,15.27,15.06,15.1,-0.006579000000000001,2465875.0,37315505.73,1500334430.0,6232284680.0,0.02481760849812665,20.08,2014-09-30 00:00:00,2014-10-30 00:00:00,-47.90304640049999,8.06654003427778,-1182.181029230847,3.3292408550297576
sz002504,2014-11-03,15.1,15.33,15.08,15.2,0.007958,2748584.0,41862989.26,1510270420.0,6273558090.0,0.027662911387750014,20.21,2014-09-30 00:00:00,2014-10-30 00:00:00,-48.22028767310132,8.119961259403395,-1190.0101057163547,3.351288985263808
sz002504,2014-10-31,15.04,15.2,15.0,15.08,-0.001325,2623073.0,39571388.34,1498347230.0,6224030000.0,0.026399715665373507,20.05,2014-09-30 00:00:00,2014-10-30 00:00:00,-47.839580293128606,8.055852782956627,-1180.6147733500352,3.324829988217573
sz002504,2014-10-30,15.3,15.4,14.94,15.1,0.014785,2476591.0,37362997.39,1500334430.0,6232284680.0,0.024925458852530634,20.08,2014-09-30 00:00:00,2014-10-30 00:00:00,-47.90305183681238,8.066540949715,-1182.181163391529,3.3292412328511007
sz002504,2014-10-29,14.7,15.11,14.65,14.88,0.016393,1785142.0,26506079.51,1478475250.0,6141483180.0,0.017966423827520957,19.79,2014-06-30 00:00:00,2014-07-31 00:00:00,-52.19054256145064,8.363836843927604,54.33986312466268,3.2550367010259778
sz002504,2014-10-28,14.2,14.64,14.2,14.64,0.034629,1395304.0,20165684.01,1454628880.0,6042427000.0,0.014042929327788405,19.47,2014-06-30 00:00:00,2014-07-31 00:00:00,-51.34878197847745,8.228939833241279,53.463437001890675,3.2025375037273744
sz002504,2014-10-27,13.95,14.16,13.63,14.15,0.017986000000000002,1371690.0,19211961.34,1405942530.0,5840187300.0,0.013805268057436175,18.82,2014-06-30 00:00:00,2014-07-31 00:00:00,-49.63013986508927,7.953517476545968,51.67401745156057,3.095348674478846
sz002504,2014-10-24,13.87,14.17,13.75,13.9,0.0,1068060.0,14884692.09,1381102550.0,5737003780.0,0.010749407420904408,18.48,2014-06-30 00:00:00,2014-07-31 00:00:00,-48.75326366481393,7.812992984722745,50.761029573648926,3.0406593749608013
sz002504,2014-10-23,14.34,14.66,13.68,13.9,-0.024561000000000003,2130877.0,30372387.12,1381102550.0,5737003780.0,0.021446047073043203,18.48,2014-06-30 00:00:00,2014-07-31 00:00:00,-48.75326366481393,7.812992984722745,50.761029573648926,3.0406593749608013
sz002504,2014-10-22,14.41,14.62,14.21,14.25,-0.013841,1235710.0,17812096.83,1415878520.0,5881460710.0,0.012436707846941559,18.95,2014-06-30 00:00:00,2014-07-31 00:00:00,-49.98084315350722,8.009719710533151,52.03916346757607,3.117221451019286
sz002504,2014-10-21,14.6,14.65,14.4,14.45,-0.010951,1828287.0,26550644.17,1435750500.0,5964007530.0,0.018400653282029153,19.22,2014-06-30 00:00:00,2014-07-31 00:00:00,-50.68233738525656,8.122138225715275,52.769546764341314,3.1609724709902625
sz002504,2014-10-20,14.49,14.77,14.44,14.61,0.008282,1092415.0,15979037.9,1451648080.0,6030044980.0,0.010994526407529848,19.43,2014-06-30 00:00:00,2014-07-31 00:00:00,-51.2435050086058,8.21206858883157,53.35382449640141,3.195971555494483
sz002504,2014-10-17,14.98,14.98,14.41,14.49,-0.037209,2931821.0,42722394.85,1439724890.0,5980516890.0,0.029507086100317406,19.27,2014-06-30 00:00:00,2014-07-31 00:00:00,-50.82259229918396,8.14461488832645,52.915577682038766,3.1697199349928717
sz002504,2014-10-16,15.58,15.6,15.01,15.05,-0.024627,2131250.0,32366393.26,1495366430.0,6211647980.0,0.021449801103265373,20.01,2014-06-30 00:00:00,2014-07-31 00:00:00,-52.78673388012971,8.459379957152125,54.96060690434245,3.2922201547302294
sz002504,2014-10-15,15.3,15.6,15.23,15.43,0.01114,1680421.0,25868308.99,1533123200.0,6368486930.0,0.016912467328131228,20.52,2014-06-30 00:00:00,2014-07-31 00:00:00,-54.11953568545542,8.672969168873983,56.34829639977982,3.375344770390639
sz002504,2014-10-14,15.55,15.55,15.2,15.26,-0.014847999999999998,1676985.0,25827115.6,1516232010.0,6298322140.0,0.01687788605650134,20.29,2014-06-30 00:00:00,2014-07-31 00:00:00,-53.52328627633702,8.57741674631998,55.727492137369524,3.3381576936830104
sz002504,2014-10-13,15.55,15.55,15.02,15.49,-0.0038590000000000005,2253408.0,34447168.65,1539084790.0,6393250980.0,0.022679250777340215,20.6,2014-06-30 00:00:00,2014-07-31 00:00:00,-54.32997778651114,8.70669373489571,56.56740496630928,3.38846969166485
sz002504,2014-10-10,15.43,15.79,15.4,15.55,0.0038729999999999997,2190693.0,34057444.84,1545046380.0,6418015020.0,0.02204806055725007,20.68,2014-06-30 00:00:00,2014-07-31 00:00:00,-54.54044938067115,8.740423027358286,56.7865442405335,3.401596452374563
sz002504,2014-10-09,16.0,16.11,15.42,15.49,-0.02086,4656799.0,72674259.39,1539084790.0,2154659000.0,0.04686799387446354,20.6,2014-06-30 00:00:00,2014-07-31 00:00:00,-54.33002917766604,8.70670197062605,56.567458473864214,3.388472896845082
sz002504,2014-10-08,15.25,15.84,15.18,15.82,0.040789,4351451.0,68029804.9,1571897280.0,2200562000.0,0.04379418152565288,21.04,2014-06-30 00:00:00,2014-07-31 00:00:00,-55.48749839416839,8.892193119090273,57.77259480142188,3.4606623126877487
sz002504,2014-09-30,15.25,15.82,15.19,15.2,0.003963,3524054.0,54321342.87,1510293220.0,2114320000.0,0.03546703387836171,20.21,2014-06-30 00:00:00,2014-07-31 00:00:00,-53.31291779041515,8.543703977549987,55.50846021760595,3.325037363661365
sz002504,2014-09-29,14.97,15.18,14.8,15.14,0.011356,3086794.0,46404612.05,1504331540.0,2105974000.0,0.031066330737172472,20.13,2014-06-30 00:00:00,2014-07-31 00:00:00,-53.102472691140164,8.50997893104625,55.28934852938401,3.311912255393242
sz002504,2014-09-26,14.73,15.19,14.68,14.97,0.016293000000000002,2609431.0,39225091.06,1487440100.0,2082327000.0,0.02626202027900149,19.91,2014-06-30 00:00:00,2014-07-31 00:00:00,-52.50621214601008,8.414424723881849,54.668532672356726,3.274724484151221
sz002504,2014-09-25,15.05,15.1,14.67,14.73,-0.020612000000000002,3558737.0,52881428.98,1463593360.0,2048943000.0,0.03581609307792979,19.59,2014-06-30 00:00:00,2014-07-31 00:00:00,-51.66444337017973,8.279526400242695,53.79209801932781,3.2222247758778426
sz002504,2014-09-24,15.15,15.25,14.9,15.04,-0.007916,2946718.0,44442139.17,1494395400.0,2092064000.0,0.029656567947144375,20.0,2014-06-30 00:00:00,2014-07-31 00:00:00,-52.75176270301426,8.453775623392051,54.92419553775195,3.2900390610032413
sz002504,2014-09-23,14.74,15.4,14.67,15.16,0.029891,4266638.0,64690199.25,1506318760.0,2108756000.0,0.04294060048750903,20.16,2014-06-30 00:00:00,2014-07-31 00:00:00,-53.17267761904664,8.521229677519294,55.362444649598174,3.3162908191274543
sz002504,2014-09-22,14.48,14.8,14.36,14.72,0.015172,3961476.0,58073225.19,1462599750.0,2047552000.0,0.039869367350842226,19.57,2014-06-30 00:00:00,2014-07-31 00:00:00,-51.62942254961606,8.273914110832402,53.75563496486343,3.22004058597216
sz002504,2014-09-19,14.22,14.55,14.15,14.5,0.021846,2866409.0,41290422.87,1440740240.0,2016950000.0,0.028848316543168114,19.28,2014-06-30 00:00:00,2014-07-31 00:00:00,-50.85780788833425,8.150258390531262,52.95224352608566,3.1719162722889918
sz002504,2014-09-18,13.99,14.26,13.8,14.19,0.014296000000000001,2186443.0,30651762.98,1409938210.0,1973829000.0,0.02200495450790003,18.87,2014-06-30 00:00:00,2014-07-31 00:00:00,-49.77052108471751,7.976014380377533,51.82017987650356,3.1041040159564077
sz002504,2014-09-17,13.8,14.02,13.68,13.99,0.008652,2345089.0,32587195.63,1390065930.0,1946009000.0,0.023601610831509266,18.6,2014-06-30 00:00:00,2014-07-31 00:00:00,-49.069030228569865,7.863596406155137,51.08980009435466,3.0603532065160537
sz002504,2014-09-16,14.55,14.55,13.84,13.87,-0.048697000000000004,4653018.0,65917426.65,1378142560.0,1929317000.0,0.046829233443019126,18.44,2014-06-30 00:00:00,2014-07-31 00:00:00,-48.648126636907335,7.796144166823778,50.65156277324058,3.0341021546738154
sz002504,2014-09-15,14.49,14.79,14.4,14.58,-0.007488,4652230.0,67711238.06,1448689150.0,2028078000.0,0.04682130283090751,19.39,2014-06-30 00:00:00,2014-07-31 00:00:00,-51.13841398261893,8.195227143006779,53.244405592372324,3.189417204270159
sz002504,2014-09-12,14.6,14.88,14.17,14.69,0.020138999999999997,7373738.0,107154884.51,1459618910.0,2043379000.0,0.07421129616633974,19.53,2014-06-30 00:00:00,2014-07-31 00:00:00,-51.52422739737044,8.257055978171325,53.64610764642879,3.213479740567529
sz002504,2014-09-11,15.84,15.84,14.29,14.4,-0.032908,13408433.0,203755113.79,1430804100.0,2003040000.0,0.13494610142646363,19.15,2014-06-30 00:00:00,2014-07-31 00:00:00,-50.50706560318785,8.094049907092392,52.58705690737124,3.150041063587932
sz002504,2014-09-10,13.78,14.89,13.65,14.89,0.099705,8200272.0,118782151.97,1479491190.0,2071199000.0,0.08252975813935061,19.8,2014-06-30 00:00:00,2014-07-31 00:00:00,-52.225709242955006,8.369472508398779,54.376478046939944,3.25722998803416
sz002504,2014-09-09,13.3,13.66,13.21,13.54,0.028875,5663378.0,76450593.17,1345353300.0,1883414000.0,0.05699777011733646,18.01,2014-06-30 00:00:00,2014-07-31 00:00:00,-47.49065362343084,7.610652409872448,49.44642249234108,2.9619125020202333
sz002504,2014-09-05,13.18,13.33,13.06,13.16,-0.001517,2535569.0,33402826.55,1307595970.0,1830556000.0,0.02551865316623758,17.5,2014-06-30 00:00:00,2014-07-31 00:00:00,-46.157845825227405,7.397062237757209,48.058726757226175,2.878787512594079
sz002504,2014-09-04,12.96,13.18,12.8,13.18,0.016191,3359314.0,43757046.85,1309583200.0,1833338000.0,0.033809045901016445,17.53,2014-06-30 00:00:00,2014-07-31 00:00:00,-46.227973661271555,7.4083006298126355,48.131742610766715,2.8831612682379966
sz002504,2014-09-03,12.94,13.22,12.81,12.97,0.006206000000000001,3504907.0,45565622.17,1288717310.0,1804127000.0,0.03527433319724712,17.25,2014-06-30 00:00:00,2014-07-31 00:00:00,-45.49142204691003,7.290263965940099,47.36485819178355,2.837223778047627
sz002504,2014-09-02,12.89,12.96,12.74,12.89,0.007031,2997695.0,38482003.99,1280768390.0,1792999000.0,0.03016961446870187,17.14,2014-06-30 00:00:00,2014-07-31 00:00:00,-45.210843551827395,7.245299636396622,47.072724861294354,2.819724567382452
sz002504,2014-09-01,12.39,12.8,12.31,12.8,0.029767000000000002,2548654.0,32043158.45,1271825870.0,1780480000.0,0.02565034409938524,17.02,2014-06-30 00:00:00,2014-07-31 00:00:00,-44.8951855025589,7.194713605039588,46.74406732393974,2.8000375036939795
sz002504,2014-08-29,12.28,12.44,12.23,12.43,0.013040000000000001,1717006.0,21224526.37,1235062150.0,1729013000.0,0.017280413443161544,16.53,2014-06-30 00:00:00,2014-07-31 00:00:00,-43.5974210695807,6.986739335247282,45.39285811638918,2.7190981102462786
sz002504,2014-08-28,12.56,12.74,12.16,12.27,-0.026189999999999998,2547685.0,31633297.75,1219164330.0,1706757000.0,0.025640591822432994,16.32,2014-06-30 00:00:00,2014-07-31 00:00:00,-43.036228648010635,6.896804998072418,44.80855456486336,2.6840974791185723
sz002504,2014-08-27,12.5,12.75,12.5,12.6,0.007194,3423607.0,43281717.95,1251953590.0,1752660000.0,0.03445610807346301,16.76,2014-06-30 00:00:00,2014-07-31 00:00:00,-44.19366061963898,7.0822901778297815,46.01365211372174,2.756284572060846
sz002504,2014-08-26,13.0,13.0,12.5,12.51,-0.045038,5242300.0,66678544.56,1243011060.0,1740141000.0,0.05275992717232943,16.64,2014-06-30 00:00:00,2014-07-31 00:00:00,-43.878002271299266,7.031704098544851,45.68499426497949,2.7365974897198027
sz002504,2014-08-25,13.48,13.5,13.0,13.1,-0.047273,6827613.0,90043813.86,1301634290.0,1822210000.0,0.06871494626958544,17.42,2014-06-30 00:00:00,2014-07-31 00:00:00,-45.94738038927127,7.363333932182485,47.83959389481412,2.865661135961224
sz002504,2014-08-22,13.33,14.05,13.1,13.75,0.031508,15125892.0,207407860.94,1366219200.0,1912625000.0,0.1522310731689322,18.28,2014-06-30 00:00:00,2014-07-31 00:00:00,-48.22722604615096,7.728692408405015,50.21332857661651,3.007851289993066
sz002504,2014-08-21,13.33,13.33,12.76,13.33,0.09983500000000001,12292256.0,163482128.68,1324487410.0,1854203000.0,0.12371259344775501,17.73,2014-06-30 00:00:00,2014-07-31 00:00:00,-46.75409792861612,7.492615092083644,48.67953382486274,2.915974757338834
sz002504,2014-08-13,12.23,12.24,11.88,12.12,-0.009804,2519199.0,30370115.9,1204260120.0,1685892000.0,0.025353901016003086,16.12,2014-06-30 00:00:00,2014-07-31 00:00:00,-42.51010190493676,6.812490139051444,44.26076077308209,2.6512838356106454
sz002504,2014-08-12,11.95,12.25,11.87,12.24,0.024268,3341570.0,40329480.43,1216183490.0,1702584000.0,0.03363046541603685,16.28,2014-06-30 00:00:00,2014-07-31 00:00:00,-42.93099740348048,6.879941081413622,44.69898966778505,2.6775343826986227
sz002504,2014-08-11,11.85,11.98,11.8,11.95,0.008439,2419712.0,28766649.81,1187368680.0,1662245000.0,0.024352636958556124,15.89,2014-06-30 00:00:00,2014-07-31 00:00:00,-41.91383251598262,6.716934514612994,43.639935708022755,2.6140955127941345
sz002504,2014-08-08,11.92,11.92,11.72,11.85,-0.006706,2510689.0,29718663.95,1177432540.0,1648335000.0,0.025268254137090523,15.76,2014-06-30 00:00:00,2014-07-31 00:00:00,-41.563081669771414,6.660724659213887,43.274740175680186,2.5922197701538066
sz002504,2014-08-07,11.9,12.03,11.71,11.93,-0.038678,7590673.0,90427234.41,1185381450.0,1659463000.0,0.07639458917633644,15.86,2014-06-30 00:00:00,2014-07-31 00:00:00,-41.84368542422627,6.705693036718119,43.56689980577774,2.6097205562037087
sz002504,2014-08-06,11.87,12.69,11.86,12.41,0.07539,17207982.0,216214679.86,1233074920.0,1726231000.0,0.17318579200361972,16.5,2014-06-30 00:00:00,2014-07-31 00:00:00,-43.52723169159374,6.975491080738941,45.31977818647418,2.7147205163344945
sz002504,2014-08-05,11.95,12.1,11.51,11.54,-0.030251999999999998,3534362.0,41171679.04,1146630510.0,1605214000.0,0.03557077639596385,15.35,2014-06-30 00:00:00,2014-07-31 00:00:00,-40.475763854595755,6.486475679278159,42.142644237415425,2.524405579682249
sz002504,2014-08-04,11.8,12.09,11.69,11.9,0.017093999999999998,2541603.0,30278253.47,1182400610.0,1655290000.0,0.02557938100184167,15.82,2014-06-30 00:00:00,2014-07-31 00:00:00,-41.73843498991052,6.688826044784993,43.457314928636535,2.603156262948981
sz002504,2014-08-01,11.61,11.93,11.57,11.7,0.008621,2316746.0,27210540.91,1162528330.0,1627470000.0,0.023316359266702773,15.56,2014-06-30 00:00:00,2014-07-31 00:00:00,-41.036949377255716,6.576408910862707,42.726940605918955,2.5594057805364905
sz002504,2014-07-31,11.56,11.63,11.44,11.6,-0.0008609999999999999,1289320.0,14874832.86,1152592190.0,1613560000.0,0.01297606571496897,15.43,2014-06-30 00:00:00,2014-07-31 00:00:00,-40.68619370135632,6.520198281478084,42.36174004499109,2.5375297366766016
sz002504,2014-07-30,11.5,11.72,11.4,11.61,0.007812999999999999,1633755.0,18900874.69,1153585810.0,1614951000.0,0.016442552765103795,15.44,2014-03-31 00:00:00,2014-04-23 00:00:00,-64.79916641241572,7.055573018755369,80.6687083763852,2.5000806113172254
sz002504,2014-07-29,11.11,11.55,11.11,11.52,0.033184,2733514.0,31180943.27,1144643280.0,1602432000.0,0.027510825276500114,15.32,2014-03-31 00:00:00,2014-04-23 00:00:00,-64.29681539374437,7.000875180966475,80.04332984034258,2.480698910727709
sz002504,2014-07-28,11.01,11.19,11.01,11.15,0.009964,1849888.0,20527957.48,1107879570.0,1550965000.0,0.018617773771205114,14.83,2014-03-31 00:00:00,2014-04-23 00:00:00,-62.23171806158861,6.7760197418528305,77.47248296561172,2.4010233518208848
sz002504,2014-07-25,10.8,11.28,10.76,11.04,0.019391,1261839.0,13949450.78,1096949810.0,1535664000.0,0.012699489468893748,14.68,2014-03-31 00:00:00,2014-04-23 00:00:00,-61.61775871376466,6.709169576195617,76.70816283116201,2.3773355801007607
sz002504,2014-07-24,11.0,11.0,10.75,10.83,-0.011861,1421466.0,15421088.87,1076083920.0,1506453000.0,0.014306018790802115,14.4,2014-03-31 00:00:00,2014-04-23 00:00:00,-60.445656979279455,6.581546802155029,75.24900929198121,2.3321135659435495
sz002504,2014-07-23,11.13,11.13,10.89,10.96,-0.014388,1466204.0,16101288.1,1089000900.0,1524536000.0,0.014756274159185729,14.57,2014-03-31 00:00:00,2014-04-23 00:00:00,-61.17120868549815,6.660547556725349,76.1522511427858,2.360106792610705
sz002504,2014-07-22,10.85,11.19,10.53,11.12,0.020183,2861462.0,31665541.58,1104898720.0,1546792000.0,0.028798528647041962,14.79,2014-03-31 00:00:00,2014-04-23 00:00:00,-62.064188225689364,6.757778473400637,77.2639244883238,2.3945597178308553
sz002504,2014-07-21,10.98,11.02,10.71,10.9,-0.011786,3079636.0,33403237.32,1083039220.0,1516190000.0,0.030994290677672783,14.49,2014-03-31 00:00:00,2014-04-23 00:00:00,-60.836328605445644,6.624084574434818,75.7353577626012,2.3471864536370974
sz002504,2014-07-18,11.55,11.55,10.91,11.03,-0.089934,9266503.0,103871695.98,1095956200.0,1534273000.0,0.0932605957154127,14.67,2014-03-31 00:00:00,2014-04-23 00:00:00,-61.56189712496044,6.703087159699032,76.63862054433676,2.3751803289946283
sz002504,2014-07-17,11.58,12.44,11.58,12.12,0.071618,13368915.0,164364075.58,1204260120.0,1685892000.0,0.13454838129157676,16.12,2014-03-31 00:00:00,2014-04-23 00:00:00,-67.64553024171921,7.365495645040064,84.21215663955884,2.6098989842435913
sz002504,2014-07-16,11.7,11.79,11.2,11.31,-0.038265,2160420.0,25036241.12,1123777390.0,1573221000.0,0.02174305197580101,15.04,2014-03-31 00:00:00,2014-04-23 00:00:00,-63.124667784340325,6.873247411894971,78.58411919131524,2.435475126624965
sz002504,2014-07-15,11.9,12.1,11.65,11.76,-0.010934000000000001,2279842.0,26872732.51,1168490020.0,1635816000.0,0.022944947291890432,15.64,2014-03-31 00:00:00,2014-04-23 00:00:00,-65.63623844857504,7.146716519514181,81.71078227507081,2.532376513930516
sz002504,2014-07-14,11.7,11.95,11.51,11.89,0.025,2440378.0,28813834.64,1181407000.0,1653899000.0,0.024560625102102832,15.81,2014-03-31 00:00:00,2014-04-23 00:00:00,-66.36183879394807,7.225722570095605,82.61408467692834,2.560371617192903
sz002504,2014-07-11,11.38,11.8,11.36,11.6,0.017544,2311131.0,26782699.16,1152592190.0,1613560000.0,0.02325984839442648,15.43,2014-03-31 00:00:00,2014-04-23 00:00:00,-64.74325735994935,7.0494854342396165,80.59910700188134,2.4979235289686863
sz002504,2014-07-10,11.39,11.66,11.36,11.4,-0.002625,1876421.0,21598370.38,1132719910.0,1585740000.0,0.018884809219959768,15.16,2014-03-31 00:00:00,2014-04-23 00:00:00,-63.62698552588325,6.927941626346985,79.20945630054457,2.454855543316737
sz002504,2014-07-09,11.7,11.81,11.33,11.43,-0.024744,3061218.0,35553196.98,1135700760.0,1589913000.0,0.030808926939522346,15.2,2014-03-31 00:00:00,2014-04-23 00:00:00,-63.7944459464928,6.946175336605575,79.41792836249613,2.4613164991269456
sz002504,2014-07-08,11.76,11.8,11.54,11.72,-0.002553,2272212.0,26495250.91,1164515560.0,1630252000.0,0.022868156987099427,15.59,2014-03-31 00:00:00,2014-04-23 00:00:00,-65.41302585833135,7.122412306723131,81.43290414260063,2.523764528623198
sz002504,2014-07-07,11.52,11.75,11.43,11.75,0.011188,3602680.0,41787317.54,1167496400.0,1634425000.0,0.03625834734907962,15.62,2014-03-31 00:00:00,2014-04-23 00:00:00,-65.58045275421286,7.140642366685279,81.64133446950127,2.530224190982777
sz002504,2014-07-04,11.25,11.78,11.2,11.62,0.033808,5139804.0,59441979.69,1154579420.0,1616342000.0,0.05172837956872642,15.45,2014-03-31 00:00:00,2014-04-23 00:00:00,-64.85485661836658,7.061636774452704,80.73803730809828,2.5022292501322974
sz002504,2014-07-03,11.18,11.28,11.14,11.24,-0.0053100000000000005,2749355.0,30822328.58,1116822090.0,1563484000.0,0.027670253370436108,14.95,2014-03-31 00:00:00,2014-04-23 00:00:00,-62.73394732713092,6.830704322710505,78.09770993075917,2.420400354932731
sz002504,2014-07-02,11.33,11.55,11.0,11.3,-0.020797,5235931.0,58806444.37,1122783770.0,1571830000.0,0.05269582788857022,15.03,2014-03-31 00:00:00,2014-04-23 00:00:00,-63.06884288283881,6.867168990047659,78.51462257664114,2.433321290987877
sz002504,2014-07-01,11.02,12.17,10.9,11.54,0.0434,10161350.0,119022314.36,1146630510.0,1605214000.0,0.10226657844644303,15.35,2014-03-31 00:00:00,2014-04-23 00:00:00,-64.4083431962921,7.013018740800078,80.18217119089825,2.485001874981875
sz002504,2014-06-30,10.91,11.15,10.88,11.06,0.006369,1856909.0,20486776.54,1089185790.0,1538446000.0,0.018855748696464357,14.71,2014-03-31 00:00:00,2014-04-23 00:00:00,-61.72929192667442,6.72131372512946,76.84701091709627,2.381638753097446
sz002504,2014-06-27,11.0,11.15,10.85,10.99,-0.004529,2530385.0,27776827.37,1082292210.0,1528709000.0,0.025694475940097546,14.61,2014-03-31 00:00:00,2014-04-23 00:00:00,-61.33862621630278,6.678776596983272,76.36066981106956,2.3665660936470077
sz002504,2014-06-26,11.01,11.18,11.01,11.04,-0.004509,2715207.0,30141869.03,1087216200.0,1535664000.0,0.027571227581045975,14.68,2014-03-31 00:00:00,2014-04-23 00:00:00,-61.61769274675282,6.709162393463267,76.7080807085988,2.3773330349623523
sz002504,2014-06-25,10.96,11.3,10.88,11.09,0.001807,2529145.0,27973352.05,1092140180.0,1542619000.0,0.025681884581885816,14.75,2014-03-31 00:00:00,2014-04-23 00:00:00,-61.89678535190456,6.739551029053269,77.05552406661516,2.3881009822915047
sz002504,2014-06-24,10.73,11.1,10.66,11.07,0.031687,2491462.0,27335110.61,1090170590.0,1539837000.0,0.02529923719552919,14.72,2014-03-31 00:00:00,2014-04-23 00:00:00,-61.78513960463899,6.727394626962349,76.91653588626869,2.3837934674957406
sz002504,2014-06-23,10.5,10.82,10.48,10.73,0.023855,1702338.0,18196604.23,1056687480.0,1492543000.0,0.017286176930950293,14.27,2014-03-31 00:00:00,2014-04-23 00:00:00,-59.887484871515284,6.520770957627991,74.55413888734537,2.310578176807249
sz002504,2014-06-20,10.2,10.51,10.09,10.48,0.02947,1211072.0,12487688.46,1032067550.0,1457768000.0,0.012297678151008623,13.94,2014-03-31 00:00:00,2014-04-23 00:00:00,-58.49215452531393,6.368842226319148,72.81708727050743,2.2567435592024743
sz002504,2014-06-19,10.57,10.82,10.08,10.18,-0.041431,2209068.0,23171900.33,1002523630.0,1416038000.0,0.022431702921556072,13.54,2014-03-31 00:00:00,2014-04-23 00:00:00,-56.817735849819734,6.186525324991643,70.73259761868478,2.1921411592396804
sz002504,2014-06-18,10.88,10.97,10.56,10.62,-0.025688,2163835.0,23189266.98,1045854710.0,1477242000.0,0.02197239012290722,14.12,2014-03-31 00:00:00,2014-04-23 00:00:00,-59.273496065301224,6.453917584432256,73.78978208004304,2.2868892685238937
sz002504,2014-06-17,11.21,11.21,10.9,10.9,-0.026786,2124514.0,23344480.34,1073429040.0,1516190000.0,0.021573109853633175,14.49,2014-03-31 00:00:00,2014-04-23 00:00:00,-60.83625785713532,6.624076871096996,75.73526968778282,2.3471837240266917
sz002504,2014-06-16,11.23,11.31,11.03,11.2,-0.0017829999999999999,2269963.0,25369180.4,1102972950.0,1557920000.0,0.023050053584722997,14.89,2014-03-31 00:00:00,2014-04-23 00:00:00,-62.51066862697754,6.80639291162786,77.81974949783174,2.411785818973722
sz002504,2014-06-13,10.91,11.33,10.91,11.22,0.02,5633186.0,63156244.35,1104942550.0,1560702000.0,0.05720147795919345,14.92,2014-03-31 00:00:00,2014-04-23 00:00:00,-62.622324231081556,6.818550386967823,77.95874994899079,2.416093714065901
sz002504,2014-06-12,10.66,11.0,10.6,11.0,0.026119,2857180.0,30878866.31,1083277010.0,1530100000.0,0.029012874555511887,14.63,2014-03-31 00:00:00,2014-04-23 00:00:00,-61.394435520668196,6.684853320556689,76.43014700881449,2.3687193275155893
sz002504,2014-06-11,10.93,10.93,10.66,10.72,-0.02011,2074919.0,22306758.72,1055702679.9999999,1491152000.0,0.021069503849322428,14.26,2014-03-31 00:00:00,2014-04-23 00:00:00,-59.831691568588234,6.514695976350393,74.4846816098469,2.308425560305958
sz002504,2014-06-10,10.85,10.96,10.56,10.94,0.010157,3132964.0,33702492.05,1077368220.0,1521754000.0,0.031813288645176484,14.55,2014-03-31 00:00:00,2014-04-23 00:00:00,-61.05960012714512,6.648395203900838,76.01330925904631,2.3558007126370897
sz002504,2014-06-09,10.83,11.17,10.71,10.83,0.022663,5001973.0,54751780.08,1066535450.0,1506453000.0,0.050791905313602094,14.4,2014-03-31 00:00:00,2014-04-23 00:00:00,-60.445653623293325,6.581546436742841,75.24900511410237,2.3321134364629357
sz002504,2014-06-06,10.6,10.65,10.51,10.59,0.0,1586076.0,16789980.94,1042900320.0,1473069000.0,0.01610560905763266,14.08,2014-03-31 00:00:00,2014-04-23 00:00:00,-59.10613136809811,6.435694296892369,73.58142918449417,2.2804320059129304
sz002504,2014-06-05,10.49,10.64,10.42,10.59,-0.002825,1977571.0,20868698.95,1042900320.0,1473069000.0,0.020080995746554184,14.08,2014-03-31 00:00:00,2014-04-23 00:00:00,-59.10613136809811,6.435694296892369,73.58142918449417,2.2804320059129304
sz002504,2014-06-04,10.34,10.7,10.31,10.62,0.030068,3260867.0,34228842.78,1045854710.0,1477242000.0,0.03311206347199029,14.12,2014-03-31 00:00:00,2014-04-23 00:00:00,-59.27357922942122,6.453926639649378,73.78988561134622,2.28689247716091
sz002504,2014-06-03,10.3,10.54,10.23,10.31,0.0038950000000000005,1193190.0,12411513.04,1015326000.0,1434121000.0,0.012116097588360783,13.71,2014-03-31 00:00:00,2014-04-23 00:00:00,-57.54336532095087,6.265534546893387,71.63593627930022,2.2201373862316953
sz002504,2014-05-30,10.22,10.36,10.21,10.27,0.0,1083905.0,11136734.34,1011386810.0,1428557000.0,0.011006376828268109,13.66,2014-03-31 00:00:00,2014-04-23 00:00:00,-57.32010351774924,6.241224975613374,71.357996881447,2.211523502190663
sz002504,2014-05-29,10.62,10.78,10.2,10.27,-0.033866,3621098.0,37903798.6,1011386810.0,1428557000.0,0.036769983642559075,13.66,2014-03-31 00:00:00,2014-04-23 00:00:00,-57.32010351774924,6.241224975613374,71.357996881447,2.211523502190663
sz002504,2014-05-28,10.35,10.63,10.23,10.63,0.027052999999999997,2497908.0,26193919.69,1046839510.0,1478633000.0,0.025364692282200927,14.14,2014-03-31 00:00:00,2014-04-23 00:00:00,-59.3293513298872,6.459999312324557,73.85931649382692,2.2890442756291187
sz002504,2014-05-27,10.47,10.53,10.3,10.35,-0.010516,1772836.0,18405149.55,1019265180.0,1439685000.0,0.01800204005791702,13.76,2014-03-31 00:00:00,2014-04-23 00:00:00,-57.76659172397841,6.2898402636714525,71.9138316073532,2.2287499044636627
sz002504,2014-05-26,10.08,10.47,10.08,10.46,0.031557999999999996,2741772.0,28351241.54,1030097950.0,1454986000.0,0.027840978734109706,13.91,2014-03-31 00:00:00,2014-04-23 00:00:00,-58.38052128582009,6.3566871861206975,72.67811466112963,2.2524365269813993
sz002504,2014-05-23,10.1,10.33,10.03,10.14,0.002967,2293289.0,23382709.81,998584440.0,1410474000.0,0.023286914484667916,13.48,2014-03-31 00:00:00,2014-04-23 00:00:00,-56.594511686032284,6.162219852030325,70.4547050782696,2.1835287274020456
sz002504,2014-05-22,9.9,10.17,9.9,10.11,0.014041999999999999,1821803.0,18274553.83,995630050.0,1406301000.0,0.01849926921149075,13.44,2014-03-31 00:00:00,2014-04-23 00:00:00,-56.42709250257714,6.143990631825698,70.24628435259545,2.1770693626032016
sz002504,2014-05-21,9.87,9.99,9.73,9.97,0.011156000000000001,1141556.0,11277451.92,981842890.0,1386827000.0,0.011591786665583534,13.26,2014-03-31 00:00:00,2014-04-23 00:00:00,-55.64571536738828,6.058911397975329,69.27354523046921,2.1469222799481695
sz002504,2014-05-20,9.81,10.0,9.81,9.86,0.0,984148.0,9737745.21,971010120.0,1371526000.0,0.009993406948220065,13.11,2014-03-31 00:00:00,2014-04-23 00:00:00,-55.03178082055418,5.992063932741664,68.50925597085832,2.12323546509952
sz002504,2014-05-19,9.75,9.95,9.61,9.86,0.011281999999999999,1132465.0,11109927.54,971010120.0,1371526000.0,0.011499473249568192,13.11,2014-03-31 00:00:00,2014-04-23 00:00:00,-55.03178082055418,5.992063932741664,68.50925597085832,2.12323546509952
sz002504,2014-05-16,9.87,9.91,9.57,9.75,-0.025,1576471.0,15298333.77,960177350.0,1356225000.0,0.016008076268410207,12.97,2014-03-31 00:00:00,2014-04-23 00:00:00,-54.41783876362298,5.925215649780836,67.74495736190136,2.0995483604963994
sz002504,2014-05-15,9.83,10.28,9.83,10.0,0.014199000000000002,2627816.0,26463290.41,984797280.0,1391000000.0,0.026683826746556408,13.3,2014-03-31 00:00:00,2014-04-23 00:00:00,-55.81316796269024,6.077144256185473,69.48200755066804,2.153382933842461
sz002504,2014-05-14,9.93,10.03,9.86,9.86,-0.008048,873917.0,8683693.43,971010120.0,1371526000.0,0.008874080138320289,13.11,2014-03-31 00:00:00,2014-04-23 00:00:00,-55.0317718344134,5.9920629542974035,68.50924478398031,2.1232351183963507
sz002504,2014-05-13,10.05,10.16,9.93,9.94,-0.018756000000000002,877639.0,8786247.9,978888500.0,1382654000.0,0.008911874702787906,13.22,2014-03-31 00:00:00,2014-04-23 00:00:00,-55.47826087795922,6.0406783335256184,69.06508055226494,2.1404615529746915
sz002504,2014-05-12,9.94,10.17,9.75,10.13,0.033673,1754082.0,17556018.73,997599640.0,1409083000.0,0.017811604923995365,13.47,2014-03-31 00:00:00,2014-04-23 00:00:00,-56.53870074921143,6.1561429507091185,70.38522584827518,2.1813754305500885
sz002504,2014-05-09,9.73,9.88,9.62,9.8,0.00823,1140945.0,11122619.88,965101330.0,1363180000.0,0.011585582417547804,13.03,2014-03-31 00:00:00,2014-04-23 00:00:00,-54.696892294963135,5.955600030869645,68.09235207679333,2.1103148002802516
sz002504,2014-05-08,9.8,10.08,9.65,9.72,-0.013198,1519366.0,14933657.17,957222960.0,1352052000.0,0.01542821070652129,12.93,2014-03-31 00:00:00,2014-04-23 00:00:00,-54.250411409066515,5.9069855398764615,67.53652646399465,2.093088680440229
sz002504,2014-05-07,10.29,10.29,9.84,9.85,-0.047389,2070944.0,20761498.93,970025320.0,1370135000.0,0.021029140146568544,13.1,2014-03-31 00:00:00,2014-04-23 00:00:00,-54.975984451862196,5.985988617652237,68.43979487677838,2.1210827303149253
sz002504,2014-05-06,10.07,10.48,10.05,10.34,0.020731,2975600.0,30539859.41,1018280390.0,1438294000.0,0.030215355517157705,13.75,2014-03-31 00:00:00,2014-04-23 00:00:00,-57.710843620178856,6.28377020384211,71.84443059840625,2.226599031834532
sz002504,2014-05-05,9.96,10.29,9.91,10.13,0.016048,1766323.0,17929578.49,997599640.0,1409083000.0,0.017935904618008886,13.47,2014-03-31 00:00:00,2014-04-23 00:00:00,-56.53873902152365,6.156147117940094,70.38527349361021,2.18137690717195
sz002504,2014-04-30,9.78,10.07,9.78,9.97,0.015275,1564556.0,15574976.33,981842890.0,1386827000.0,0.015887086904504653,13.26,2014-03-31 00:00:00,2014-04-23 00:00:00,-55.64573624624392,6.05891367134239,69.27357122262946,2.1469230854959114
sz002504,2014-04-29,9.68,9.85,9.61,9.82,0.015512,1254859.0,12240592.55,967070930.0,1365962000.0,0.012742307722971262,13.06,2014-03-31 00:00:00,2014-04-23 00:00:00,-54.808535860967645,5.967756195456788,68.23133754168029,2.1146222309186298
sz002504,2014-04-28,10.01,10.1,9.6,9.67,-0.025202000000000002,1926818.0,19021696.09,952298970.0,1345097000.0,0.01956563080184787,12.86,2014-03-31 00:00:00,2014-04-23 00:00:00,-53.97133255044513,5.876598401059553,67.1891002190819,2.082321263479535
sz002504,2014-04-25,10.7,10.7,9.9,9.92,-0.084871,5004444.0,51711525.65,976918900.0,1379872000.0,0.05081699666164714,13.19,2014-03-31 00:00:00,2014-04-23 00:00:00,-55.36668371338998,6.028529398972456,68.92617775075645,2.1361566842356416
sz002504,2014-04-24,10.96,11.22,10.84,10.84,-0.011851,3922903.0,43260459.53,1067520250.0,1507844000.0,0.039834624701498636,14.41,2014-03-31 00:00:00,2014-04-23 00:00:00,-60.50150712455838,6.587627972638236,75.31853733272189,2.334268375535735
sz002504,2014-04-23,10.89,10.98,10.77,10.97,0.007345999999999999,2261974.0,24635476.37,1080322620.0,1525927000.0,0.022968930133111534,14.59,2014-03-31 00:00:00,2014-04-23 00:00:00,-61.22710960043312,6.666634255196571,76.22184238684844,2.362263560997112
sz002504,2014-04-22,10.83,10.98,10.71,10.89,0.012081999999999999,2692286.0,29199601.68,1072444240.0,1514799000.0,0.027338479192167607,14.48,2013-12-31 00:00:00,2014-03-07 00:00:00,-95.10912650844583,6.754147063846906,76.08676959613939,2.313269268111653
sz002504,2014-04-21,10.82,11.09,10.75,10.76,-0.020928,2694171.0,29411902.85,1059641870.0000001,1496716000.0,0.02735762032506322,14.31,2013-12-31 00:00:00,2014-03-07 00:00:00,-93.97373583212212,6.673517623914768,75.17846340132459,2.2856539965256304
sz002504,2014-04-18,11.18,11.18,10.9,10.99,-0.016115,4055306.0,44638052.03,1082292210.0,1528709000.0,0.0411790942669725,14.61,2013-12-31 00:00:00,2014-03-07 00:00:00,-95.98245668563918,6.816166353357841,76.78542885643199,2.334510635096939
sz002504,2014-04-17,11.22,11.33,11.11,11.17,0.0054009999999999996,3012569.0,33761737.85,1100018560.0,1553747000.0,0.030590752696027238,14.85,2013-12-31 00:00:00,2014-03-07 00:00:00,-97.55454823037162,6.927807978938434,78.04309330504276,2.3727474604216336
sz002504,2014-04-16,11.32,11.34,11.05,11.11,-0.016814,3913948.0,43671112.79,1094109780.0,1545401000.0,0.03974369215491337,14.77,2013-12-31 00:00:00,2014-03-07 00:00:00,-97.03048657239412,6.890591892129045,77.62384690789324,2.360001094510184
sz002504,2014-04-15,11.51,11.58,11.24,11.3,-0.019948,5005225.0,56943065.29,1112820930.0,1571830000.0,0.05082492697185342,15.03,2013-12-31 00:00:00,2014-03-07 00:00:00,-98.68985784215207,7.00843166209552,78.95133464867608,2.400360760334448
sz002504,2014-04-14,11.29,11.68,11.19,11.53,0.009632,7985085.0,91420756.1,1135471260.0,1603823000.0,0.08108354063492546,15.33,2013-12-31 00:00:00,2014-03-07 00:00:00,-100.69859338295527,7.151081434551962,80.5583118535303,2.449217756133805
sz002504,2014-04-11,11.07,11.55,11.05,11.42,0.016013999999999997,7834736.0,88669226.03,1124638490.0,1588522000.0,0.0795568406341846,15.19,2013-12-31 00:00:00,2014-03-07 00:00:00,-99.7379177590996,7.08285933345215,79.78977672412354,2.4258519501499602
sz002504,2014-04-10,11.58,11.68,11.24,11.24,-0.040137,10649901.0,121875034.47,1106912140.0,1563484000.0,0.10814307921494114,14.95,2013-12-31 00:00:00,2014-03-07 00:00:00,-98.16588920930185,6.971222181438593,78.53216267110841,2.3876166570046875
sz002504,2014-04-09,11.38,11.9,11.25,11.71,0.026293,15056577.0,175500891.69,1153197610.0,1628861000.0,0.15289011626550286,15.57,2013-12-31 00:00:00,2014-03-07 00:00:00,-102.27072947837542,7.262726223886736,81.81601194244222,2.4874556650320803
sz002504,2014-04-08,11.84,11.85,11.12,11.41,-0.06933099999999999,18466003.0,210886219.14,1123653700.0,1587131000.0,0.18751070212290494,15.17,2013-12-31 00:00:00,2014-03-07 00:00:00,-99.65061583619436,7.07665961269027,79.71993567377174,2.423728569747704
sz002504,2014-04-04,13.09,13.09,12.15,12.26,0.024227000000000002,29552655.0,371141027.42,1207361470.0,1705366000.0,0.30008871353166505,16.3,2013-12-31 00:00:00,2014-03-07 00:00:00,-107.07417549761985,7.603841551282218,85.65874190906945,2.6042863464321946
sz002504,2014-04-03,11.97,11.97,11.97,11.97,0.10018400000000001,386899.0,4631181.03,1070808730.0,1665027000.0,0.004324937685183049,15.92,2013-12-31 00:00:00,2014-03-07 00:00:00,-104.54144979347336,7.423980769187121,83.63257550237343,2.542684723632744
sz002504,2014-04-02,10.88,10.88,10.88,10.88,0.100101,209166.0,2275726.08,973299830.0,1513408000.0,0.002338155221911423,14.47,2013-12-31 00:00:00,2014-03-07 00:00:00,-95.02178707695563,6.747944679423734,76.0168985391293,2.3111449754156976
sz002504,2014-04-01,9.89,9.89,9.89,9.89,0.100111,145961.0,1443554.29,884736700.0,1375699000.0,0.0016316202210216893,13.15,2013-12-31 00:00:00,2014-03-07 00:00:00,-86.37551195477108,6.133931956632831,69.0999267695687,2.1008479906987607
sz002504,2014-03-31,8.99,8.99,8.99,8.99,0.100367,236872.0,2129479.28,804224770.0,1250509000.0,0.002647865819900076,11.95,2013-12-31 00:00:00,2014-03-07 00:00:00,-78.51526978165938,5.57573913598976,62.81177696575046,1.9096691067526466
sz002504,2013-09-05,8.15,8.24,8.03,8.17,0.006157999999999999,3447992.0,28099748.85,705501510.0,1136447000.0,0.03992917696235689,10.86,2013-06-30 00:00:00,2013-08-27 00:00:00,-991.5060330869749,4.828220003839331,-49.76221190415866,1.2899820480559068
sz002504,2013-09-04,7.95,8.28,7.86,8.12,0.021384,2246499.0,18109125.64,701183880.0,1129492000.0,0.026015389686368715,10.8,2013-06-30 00:00:00,2013-08-27 00:00:00,-985.4377076830624,4.79866979524024,-49.45765168508193,1.2820869565773034
sz002504,2013-09-03,7.93,7.97,7.8,7.95,0.0,1164329.0,9220360.16,686503920.0,1105845000.0,0.013483412520062521,10.57,2013-06-30 00:00:00,2013-08-27 00:00:00,-964.8062899781693,4.698203413447088,-48.42219154116564,1.2552448017369604
sz002504,2013-09-02,7.73,7.97,7.64,7.95,0.027132,1715505.0,13427677.07,686503920.0,1105845000.0,0.019866259103079847,10.57,2013-06-30 00:00:00,2013-08-27 00:00:00,-964.8062899781693,4.698203413447088,-48.42219154116564,1.2552448017369604
sz002504,2013-08-30,8.0,8.03,7.67,7.74,-0.031289,2947162.0,23104047.92,668369850.0,1076634000.0,0.03412935798944253,10.29,2013-06-30 00:00:00,2013-08-27 00:00:00,-939.3206423109876,4.574098960452102,-47.14310482115799,1.2220871336273824
sz002504,2013-08-29,7.9,8.12,7.86,7.99,0.007566,1919268.0,15345998.17,689958030.0,1111409000.0,0.02222591904611937,10.62,2013-06-30 00:00:00,2013-08-27 00:00:00,-969.6603448407087,4.721840631986322,-48.66580932926124,1.2615600871956472
sz002504,2013-08-28,8.16,8.18,7.88,7.93,-0.030562,2779689.0,22372004.02,684776860.0,1103063000.0,0.03218995129303873,10.55,2013-06-30 00:00:00,2013-08-27 00:00:00,-962.3789854368931,4.686383454767551,-48.3003687393791,1.25208679847836
sz002504,2013-08-27,8.24,8.28,8.0,8.18,-0.012077,3206153.0,26042781.65,706365040.0,1137838000.0,0.037128580910516185,10.88,2013-06-30 00:00:00,2013-08-27 00:00:00,-992.7184466019417,4.834123950956689,-49.82306113374873,1.2915594380232256
sz002504,2013-08-26,8.07,8.3,8.06,8.28,0.024752,2195701.0,18063460.41,715000310.0,1151748000.0,0.025427127828797722,11.01,2013-03-31 00:00:00,2013-04-24 00:00:00,670.3616854107966,7.020853310282672,-67.99539762950786,1.7149313990143167
sz002504,2013-08-23,8.12,8.2,7.82,8.08,0.001239,2919087.0,23408202.33,697729770.0,1123928000.0,0.03380423764919763,10.74,2013-03-31 00:00:00,2013-04-24 00:00:00,654.1696775520287,6.851270658932768,-66.3530274930011,1.6735087113899916
sz002504,2013-08-22,8.18,8.28,8.04,8.07,-0.017052,2730599.0,22232622.83,696866240.0,1122537000.0,0.031621468604936295,10.73,2013-03-31 00:00:00,2013-04-24 00:00:00,653.3601643084505,6.842792439100721,-66.2709178258149,1.671437799955846
sz002504,2013-08-21,7.9,8.33,7.81,8.21,0.036616,4837144.0,39260980.97,708955620.0,1142011000.0,0.056016132913933314,10.92,2013-03-31 00:00:00,2013-04-24 00:00:00,664.6945355282786,6.961499936009556,-67.42057344418514,1.7004335935938075
sz002504,2013-08-20,7.84,8.04,7.82,7.92,0.005076,2790048.0,22183460.5,683913340.0,1101672000.0,0.032309912481016966,10.53,2013-03-31 00:00:00,2013-04-24 00:00:00,641.2157785798007,6.715601472492762,-65.0391016964673,1.6403698125379191
sz002504,2013-08-19,7.51,7.9,7.51,7.88,0.043709,2265337.0,17628914.9,680459230.0,1096108000.0,0.02623354166273856,10.48,2013-03-31 00:00:00,2013-04-24 00:00:00,637.9774052706468,6.6816852382235385,-64.71063053586724,1.6320853473149484
sz002504,2013-08-16,7.78,7.94,7.55,7.55,-0.033291,2835699.0,22049597.25,651962840.0,1050205000.0,0.03283857013997914,10.04,2013-03-31 00:00:00,2013-04-24 00:00:00,611.2598485503592,6.401866073995278,-62.00064437105288,1.563736010051603
sz002504,2013-08-15,7.83,8.0,7.77,7.81,-0.003827,1734561.0,13666530.22,674414540.0,1086371000.0,0.020086935566365458,10.39,2013-03-31 00:00:00,2013-04-24 00:00:00,632.3100835415405,6.62233006416127,-64.1357889199882,1.6175871022733859
sz002504,2013-08-14,7.94,8.0,7.8,7.84,-0.018772999999999998,2779140.0,21955664.56,677005120.0,1090544000.0,0.032183593530282315,10.43,2013-03-31 00:00:00,2013-04-24 00:00:00,634.7392305769586,6.647771084100122,-64.38217952101513,1.6238013901936572
sz002504,2013-08-13,8.07,8.16,7.89,7.99,0.007566,3139284.0,25104303.35,689958030.0,1111409000.0,0.03635421006695146,10.62,2013-03-31 00:00:00,2013-04-24 00:00:00,646.8831682953676,6.774957358592989,-65.61395020827509,1.6548682315036758
sz002504,2013-08-12,7.83,7.94,7.74,7.93,0.014066,3296795.0,25828872.27,684776860.0,1103063000.0,0.038178253204992935,10.55,2013-03-31 00:00:00,2013-04-24 00:00:00,642.0256025862004,6.724082947015867,-65.12124288461013,1.6424415189711403
sz002504,2013-08-09,7.75,7.94,7.66,7.82,0.007731999999999999,3317115.0,25874722.34,675278070.0,1087762000.0,0.0384135668732734,10.4,2013-03-31 00:00:00,2013-04-24 00:00:00,633.1201347705182,6.630813918439102,-64.21795315552451,1.6196593899915195
sz002504,2013-08-08,7.56,7.85,7.56,7.76,0.022397999999999998,3068030.0,23707746.85,670096910.0,1079416000.0,0.03552905922219519,10.32,2013-03-31 00:00:00,2013-04-24 00:00:00,628.262409817807,6.579937839067433,-63.72522967964153,1.6072322700792665
sz002504,2013-08-07,7.81,7.85,7.55,7.59,-0.035578,3680221.0,28248494.3,655416950.0,1055769000.0,0.04261848490491434,10.09,2013-03-31 00:00:00,2013-04-24 00:00:00,614.4988642561968,6.435789036233868,-62.32918069053493,1.5720221186653993
sz002504,2013-08-06,7.88,7.94,7.82,7.87,-0.011307,3280464.0,25840426.51,679595700.0,1094717000.0,0.03798913336267431,10.47,2013-03-31 00:00:00,2013-04-24 00:00:00,637.1680283695277,6.673208446337669,-64.62853469802113,1.6300147846745503
sz002504,2013-08-05,7.87,8.01,7.75,7.96,0.014013,3984588.0,31416300.42,687367440.0,1107236000.0,0.04614318141109506,10.59,2013-03-31 00:00:00,2013-04-24 00:00:00,644.4548796942304,6.7495253292353325,-65.36764667902081,1.6486561396455222
sz002504,2013-08-02,7.63,8.04,7.53,7.85,0.034256,6635173.0,51993323.59,677868650.0,1091935000.0,0.07683805417170421,10.44,2013-03-31 00:00:00,2013-04-24 00:00:00,635.548932503065,6.65625128004802,-64.46430832644238,1.6258727843188618
sz002504,2013-08-01,7.4,7.61,7.39,7.59,0.009309,4111006.0,30911457.03,655416950.0,1055769000.0,0.04760715379728889,10.09,2013-03-31 00:00:00,2013-04-24 00:00:00,614.4986661939258,6.435786961881797,-62.329160600898014,1.5720216119789123
sz002504,2013-07-31,7.16,7.87,7.15,7.52,0.045897,6212437.0,46937683.45,649372260.0,1046032000.0,0.07194259613122371,10.0,2013-03-31 00:00:00,2013-04-24 00:00:00,608.8310578761568,6.376428786310037,-61.75428991606933,1.5575226337810448
sz002504,2013-07-30,7.13,7.29,6.88,7.19,0.0070030000000000005,1689366.0,12061232.51,620875870.0,1000129000.0,0.01956355871907214,9.56,2013-03-31 00:00:00,2013-04-24 00:00:00,582.1137816402157,6.096612559659351,-59.044332201038266,1.4891740140578322
sz002504,2013-07-29,7.14,7.3,7.07,7.14,0.005634,1790349.0,12897873.33,616558240.0,993174000.0,0.0207329835702139,9.49,2013-03-31 00:00:00,2013-04-24 00:00:00,578.0655883251745,6.054214892765316,-58.633720258070994,1.4788178526358235
sz002504,2013-07-26,7.0,7.15,6.93,7.1,0.00141,1661006.0,11713567.47,613104130.0,987610000.0,0.01923513808331384,9.44,2013-03-31 00:00:00,2013-04-24 00:00:00,574.8270129343026,6.02029654204742,-58.305228600137816,1.4705328704437435
sz002504,2013-07-25,7.23,7.24,6.97,7.09,-0.024759,1881798.0,13407118.4,612240600.0,986219000.0,0.021792001085847622,9.43,2013-03-31 00:00:00,2013-04-24 00:00:00,574.0176480505514,6.01181987602223,-58.223133981224294,1.468462338546393
sz002504,2013-07-24,7.1,7.37,7.0,7.27,0.028338,2721309.0,19718630.23,627784090.0,1011257000.0,0.03151388629488842,9.67,2013-03-31 00:00:00,2013-04-24 00:00:00,588.5905617693999,6.164445379164975,-59.70127792127719,1.5057430302319046
sz002504,2013-07-23,9.12,9.3,9.09,9.21,0.013201,1568389.0,14408824.12,611775620.0,985470000.0,0.02361137354574542,9.4,2013-03-31 00:00:00,2013-04-24 00:00:00,572.3707202976065,5.994571219934472,-58.05608459599587,1.4642491381548721
sz002504,2013-07-22,8.68,9.11,8.68,9.09,0.037670999999999996,1141501.0,10205703.03,603804600.0,972630000.0,0.0171847715138308,9.28,2013-03-31 00:00:00,2013-04-24 00:00:00,564.9132998265956,5.916467926832358,-57.29967163079771,1.4451714301060423
sz002504,2013-07-19,9.02,9.07,8.75,8.76,-0.028825,1214673.0,10848640.93,581884310.0,937320000.0,0.018286341970622993,8.94,2013-03-31 00:00:00,2013-04-24 00:00:00,544.4050183792315,5.701679941746814,-55.21949792448446,1.3927067732509073
sz002504,2013-07-18,8.94,9.12,8.82,9.02,0.022675999999999998,1262806.0,11359233.51,599154840.0,965140000.0,0.019010962374934666,9.21,2013-03-31 00:00:00,2013-04-24 00:00:00,560.5632541809987,5.870908890515936,-56.85844253042392,1.434043064587646
sz002504,2013-07-17,9.0,9.02,8.75,8.82,-0.01891,908735.0,8090740.3,580013990.0,943740000.0,0.013818705821216486,9.0,2013-03-31 00:00:00,2013-04-24 00:00:00,548.1337727501171,5.740732050537938,-55.59770888377543,1.4022457401832509
sz002504,2013-07-16,8.95,9.02,8.8,8.99,0.011249,741250.0,6607590.18,591193390.0,961930000.0,0.011271840336374532,9.18,2013-03-31 00:00:00,2013-04-24 00:00:00,558.6987664231794,5.851381678070246,-56.66932583532136,1.4292732982532192
sz002504,2013-07-15,8.68,8.9,8.57,8.89,0.024194,787348.0,6942584.2,584617270.0,951230000.0,0.011972830908672951,9.07,2013-03-31 00:00:00,2013-04-24 00:00:00,552.4838753098193,5.786291682928978,-56.038943756998876,1.4133742513003416
sz002504,2013-07-12,8.77,8.87,8.67,8.68,-0.0034439999999999996,723347.0,6347111.4,570807420.0,928760000.0,0.010999597657647827,8.86,2013-03-31 00:00:00,2013-04-24 00:00:00,539.4328372455016,5.649605136262249,-54.7151650536899,1.3799868494643999
sz002504,2013-07-11,8.5,8.78,8.5,8.71,0.024706,919727.0,7986736.94,572780250.0,931970000.0,0.013985856128942995,8.89,2013-03-31 00:00:00,2013-04-24 00:00:00,541.2970643350716,5.669129618668944,-54.90425530897401,1.3847559489525927
sz002504,2013-07-10,8.31,8.55,8.2,8.5,0.040392000000000004,740758.0,6215060.89,558970400.0,909500000.0,0.011264358542062335,8.68,2013-03-31 00:00:00,2013-04-24 00:00:00,528.2462133871292,5.532445031715385,-53.580495585049775,1.3513690258011495
sz002504,2013-07-09,8.11,8.22,8.11,8.17,0.007398,460559.0,3758274.21,537269190.0,874190000.0,0.0070035042024278365,8.34,2013-03-31 00:00:00,2013-04-24 00:00:00,507.73767328769276,5.317654337706735,-51.50029564342073,1.2989037072576006
sz002504,2013-07-08,8.6,8.6,8.06,8.11,-0.061342999999999995,792073.0,6542174.79,533323520.0,867770000.0,0.012044681678392882,8.28,2013-03-31 00:00:00,2013-04-24 00:00:00,504.0090145976989,5.2786032310037685,-51.12209438912994,1.2893649850978466
sz002504,2013-07-05,8.67,8.73,8.56,8.64,-0.00346,600948.0,5197451.21,568176970.0,924480000.0,0.009138333642773307,8.82,2013-03-31 00:00:00,2013-04-24 00:00:00,536.9469514398752,5.623569878031878,-54.463019387411954,1.3736274113950535
sz002504,2013-07-04,8.69,8.78,8.54,8.67,-0.001152,805547.0,6969067.44,570149800.0,927690000.0,0.01224957456794688,8.85,2013-03-31 00:00:00,2013-04-24 00:00:00,538.8112383244779,5.643094986685811,-54.65211570776081,1.3783966638519813
sz002504,2013-07-03,8.41,8.68,8.1,8.68,0.024793,831574.0,7029972.55,570807420.0,928760000.0,0.01264535475029389,8.86,2013-03-31 00:00:00,2013-04-24 00:00:00,539.4326647542748,5.64960332972165,-54.71514755774733,1.379986408194221
sz002504,2013-07-02,8.31,8.48,8.27,8.47,0.016807,599480.0,5022521.19,556997560.0,906290000.0,0.009116010490243442,8.65,2013-03-31 00:00:00,2013-04-24 00:00:00,526.3820739937478,5.512921467771198,-53.39141422487012,1.346600150658934
sz002504,2013-07-01,8.13,8.34,8.05,8.33,0.019584,359395.0,2957661.69,547790990.0,891310000.0,0.005465150768544039,8.5,2013-03-31 00:00:00,2013-04-24 00:00:00,517.6814026592536,5.4217973202104215,-52.508897189801125,1.3243419357448698
sz002504,2013-06-28,8.12,8.31,8.03,8.17,0.00492,492272.0,4024651.46,537269190.0,874190000.0,0.007485748885023539,8.34,2013-03-31 00:00:00,2013-04-24 00:00:00,507.73786432432604,5.317656338477674,-51.50031502044081,1.2989041959709742
sz002504,2013-06-27,8.3,8.5,8.0,8.13,-0.020482,1042547.0,8663859.09,534638740.0,869910000.0,0.015853522155914106,8.3,2013-03-31 00:00:00,2013-04-24 00:00:00,505.2520243644529,5.291621560400503,-51.24817400433946,1.2925448751850637
sz002504,2013-06-26,8.11,8.34,8.0,8.3,0.020909999999999998,816635.0,6675861.15,545818150.0,888100000.0,0.012418184518048731,8.47,2013-03-31 00:00:00,2013-04-24 00:00:00,515.8169879108428,5.402270872409188,-52.3197879001095,1.319572356184433
sz002504,2013-06-25,8.12,8.25,7.51,8.13,-0.003676,1311658.0,10398828.05,534638740.0,869910000.0,0.019945766631127404,8.3,2013-03-31 00:00:00,2013-04-24 00:00:00,505.25216513781123,5.291623034752514,-51.248188283109684,1.2925452353140172
sz002504,2013-06-24,8.86,8.87,8.11,8.16,-0.080045,1038437.0,8790467.24,536611579.99999994,873120000.0,0.0157910232201847,8.33,2013-03-31 00:00:00,2013-04-24 00:00:00,507.11632474758335,5.311146810427646,-51.4372716938563,1.2973141621741695
sz002504,2013-06-21,9.0,9.0,8.75,8.87,-0.017719,897194.0,7908119.62,583302050.0,949090000.0,0.013643207288573732,9.05,2013-03-31 00:00:00,2013-04-24 00:00:00,551.2403593084263,5.773268051619532,-55.91281279394786,1.410193066154507
sz002504,2013-06-20,9.23,9.25,9.03,9.03,-0.020607,674266.0,6159643.47,593823840.0,966210000.0,0.01025324611420114,9.22,2013-03-31 00:00:00,2013-04-24 00:00:00,561.1839782184796,5.877409877234245,-56.92140313611671,1.4356310120571476
sz002504,2013-06-19,9.26,9.32,9.06,9.22,-0.013904,635197.0,5828656.34,606318480.0,986540000.0,0.00965914207332094,9.41,2013-03-31 00:00:00,2013-04-24 00:00:00,572.991616458847,6.001074009344814,-58.11906266035872,1.4658375259544918
sz002504,2013-06-18,9.29,9.36,9.17,9.35,0.0032189999999999996,711770.0,6588575.65,614867440.0,1000450000.0,0.01082355165854936,9.54,2013-03-31 00:00:00,2013-04-24 00:00:00,581.0708252126032,6.085689435252566,-58.93854417861824,1.4865059040443243
sz002504,2013-06-17,9.21,9.36,9.21,9.32,0.002151,701680.0,6530087.47,612894600.0,997240000.0,0.010670117831026737,9.51,2013-03-31 00:00:00,2013-04-24 00:00:00,579.2063599399563,6.0661624582993,-58.74942976420725,1.4817361952318728
sz002504,2013-06-14,9.16,9.35,9.14,9.3,0.017505,621882.0,5765552.08,611579370.0,995100000.0,0.009456667251545781,9.49,2013-03-31 00:00:00,2013-04-24 00:00:00,577.9631611802575,6.053142149535648,-58.623330979270825,1.478555821659483
sz002504,2013-06-13,9.44,9.44,9.05,9.14,-0.033826999999999996,622899.0,5695057.61,601057580.0,977980000.0,0.00947213220403942,9.33,2013-03-31 00:00:00,2013-04-24 00:00:00,568.0199715777883,5.949004820158768,-57.614784182162076,1.4531189740192754
sz002504,2013-06-07,9.69,9.7,9.39,9.46,-0.020704,733421.0,6990812.34,622101170.0,1012220000.0,0.011152788315765425,9.66,2013-03-31 00:00:00,2013-04-24 00:00:00,587.9071052262775,6.157287380374703,-59.631954300277556,1.5039945993308395
sz002504,2013-06-06,9.69,9.77,9.61,9.66,-0.0030960000000000002,722930.0,6993458.02,635253410.0,1033620000.0,0.010993256691058141,9.86,2013-03-31 00:00:00,2013-04-24 00:00:00,600.3364715328947,6.287463014629595,-60.892676269766824,1.5357916292222575
sz002504,2013-06-05,9.5,9.7,9.5,9.69,0.008325,682486.0,6582403.59,637226250.0,1036830000.0,0.010378243739958923,9.89,2013-03-31 00:00:00,2013-04-24 00:00:00,602.2008854743232,6.306989453979114,-61.08178547760548,1.540561206718257
sz002504,2013-06-04,9.94,9.95,9.57,9.61,-0.033199,1411152.0,13720770.21,631965350.0,1028270000.0,0.02145872510257089,9.81,2013-03-31 00:00:00,2013-04-24 00:00:00,597.2289544287042,6.254917267725301,-60.5774779734763,1.5278419227116824
sz002504,2013-06-03,9.92,10.06,9.84,9.94,-0.002008,1268971.0,12592221.56,653666560.0,1063580000.0,0.01929664528043166,10.15,2013-03-31 00:00:00,2013-04-24 00:00:00,617.7372121343526,6.469705004158354,-62.65764927164566,1.5803065188303305
sz002504,2013-05-31,10.18,10.24,9.96,9.96,-0.021611000000000002,1598187.0,16150960.77,654981780.0,1065720000.0,0.024302878348768726,10.17,2013-03-31 00:00:00,2013-04-24 00:00:00,618.9801242237942,6.482722310557956,-62.78371897935622,1.5834861590376785
sz002504,2013-05-30,10.17,10.31,10.06,10.18,-0.000981,1177448.0,11942953.91,669449250.0,1089260000.0,0.017904898153220727,10.39,2013-03-31 00:00:00,2013-04-24 00:00:00,632.6523746932909,6.625914958731094,-64.17050782393937,1.618462757694208
sz002504,2013-05-29,10.07,10.19,10.04,10.19,0.013930000000000001,1431605.0,14496231.41,670106860.0,1090330000.0,0.021769744231539427,10.4,2013-03-31 00:00:00,2013-04-24 00:00:00,633.2736161106953,6.632421364089265,-64.23352090795007,1.6200520287343965
sz002504,2013-05-28,10.18,10.19,9.96,10.05,-0.010827,1610573.0,16170787.0,660900290.0,1075350000.0,0.024491226429935446,10.26,2013-03-31 00:00:00,2013-04-24 00:00:00,624.5733099037365,6.541301040593795,-63.351040908100245,1.5977947478962025
sz002504,2013-05-27,10.26,10.36,10.09,10.16,-0.009747,1834552.0,18751685.15,668134030.0,1087120000.0,0.027897169554438054,10.37,2013-03-31 00:00:00,2013-04-24 00:00:00,631.4095814420092,6.6128988969510845,-64.04445017009184,1.6152834215007918
sz002504,2013-05-24,10.0,10.27,10.0,10.26,0.020896,2169343.0,22104634.45,674710150.0,1097820000.0,0.03298817896840591,10.47,2013-03-31 00:00:00,2013-04-24 00:00:00,637.6245075167751,6.677989258251259,-64.67483579458161,1.6311825578925705
sz002504,2013-05-23,9.86,10.26,9.83,10.05,0.013105,2565159.0,25852771.53,660900290.0,1075350000.0,0.0390071669510086,10.26,2013-03-31 00:00:00,2013-04-24 00:00:00,624.573421305182,6.5413022073269556,-63.35105220765056,1.5977950328853976
sz002504,2013-05-22,10.17,10.2,9.85,9.92,-0.023622,2615885.0,26149790.61,652351330.0,1061440000.0,0.03977853344761327,10.13,2013-03-31 00:00:00,2013-04-24 00:00:00,616.4942639757795,6.456687319998378,-62.531575905410165,1.5771267863502774
sz002504,2013-05-21,9.95,10.29,9.9,10.16,0.021106,3549549.0,35763512.74,668134030.0,1087120000.0,0.053976322445363246,10.37,2013-03-31 00:00:00,2013-04-24 00:00:00,631.4094172295767,6.612897177116217,-64.04443351387492,1.6152830014095743
sz002504,2013-05-20,9.8,10.04,9.8,9.95,0.014271,2201471.0,21862828.91,654324170.0,1064650000.0,0.03347673439909762,10.16,2013-03-31 00:00:00,2013-04-24 00:00:00,618.3583459793368,6.476210282885633,-62.72065144448757,1.5818955146768057
sz002504,2013-05-17,9.61,9.94,9.51,9.81,0.017634999999999998,2054300.0,20057909.16,645117600.0,1049670000.0,0.03123877413978475,10.01,2013-03-31 00:00:00,2013-04-24 00:00:00,609.6579178339289,6.385088682300523,-61.83815907630956,1.5596379218934642
sz002504,2013-05-16,9.47,9.68,9.47,9.64,0.006263,1862607.0,17848703.69,633938190.0,1031480000.0,0.0283237889170236,9.84,2013-03-31 00:00:00,2013-04-24 00:00:00,599.0929142904173,6.274438951392712,-60.76654112359496,1.5326103385727339
sz002504,2013-05-15,9.22,9.77,9.22,9.58,0.039046,2182625.0,20747356.66,629992520.0,1025060000.0,0.033190152003709505,9.78,2013-03-31 00:00:00,2013-04-24 00:00:00,595.3641486275629,6.235386724338183,-60.38832901894929,1.5230713427530718
sz002504,2013-05-14,9.37,9.4,9.14,9.22,-0.016009,833669.0,7693794.09,606318480.0,986540000.0,0.012677212444522556,9.41,2013-03-31 00:00:00,2013-04-24 00:00:00,572.9911367038254,6.001068984759272,-58.11901399836898,1.4658362986365105
sz002504,2013-05-13,9.31,9.41,9.26,9.37,0.004287,1110522.0,10377528.01,616182660.0,1002590000.0,0.016887185919837473,9.56,2013-03-31 00:00:00,2013-04-24 00:00:00,582.3133917930402,6.098703123056281,-59.06457884103511,1.4896846603642824
sz002504,2013-05-10,9.3,9.33,9.17,9.33,0.0032259999999999997,1013030.0,9368306.87,613552210.0,998310000.0,0.015404670940717497,9.52,2013-03-31 00:00:00,2013-04-24 00:00:00,579.8276705693096,6.072669588530252,-58.81244986844907,1.483325643331321
sz002504,2013-05-09,9.22,9.33,9.12,9.3,0.008676999999999999,1244507.0,11487145.96,611579370.0,995100000.0,0.018924632954836262,9.49,2013-03-31 00:00:00,2013-04-24 00:00:00,577.963161410599,6.053142151948068,-58.62333100263457,1.4785558222487467
sz002504,2013-05-08,9.01,9.24,9.01,9.22,0.025584,897549.0,8211563.86,606318480.0,986540000.0,0.013648605564521143,9.41,2013-03-31 00:00:00,2013-04-24 00:00:00,572.9913157637174,6.001070860095024,-58.119032160577255,1.4658367567107675
sz002504,2013-05-07,9.08,9.12,8.96,8.99,-0.007726,607337.0,5478733.53,591193390.0,961930000.0,0.009235488289204317,9.18,2013-03-31 00:00:00,2013-04-24 00:00:00,558.6975964559873,5.851369424732663,-56.669207164481165,1.4292703052219686
sz002504,2013-05-06,8.94,9.12,8.94,9.06,0.015694999999999997,666275.0,6043391.84,595796680.0,969420000.0,0.010131730676981953,9.25,2013-03-31 00:00:00,2013-04-24 00:00:00,563.0477030094382,5.89692909895116,-57.11044244279419,1.4403988265559398
sz002504,2013-05-03,8.7,8.96,8.7,8.92,0.025287,440244.0,3911604.71,586590110.0,954440000.0,0.006694583514202106,9.11,2013-03-31 00:00:00,2013-04-24 00:00:00,554.3472233391307,5.805806958733832,-56.22794484839858,1.4181411019606673
sz002504,2013-05-02,8.74,8.84,8.69,8.7,0.0,352687.0,3090026.34,572122640.0,930900000.0,0.0053631453913447645,8.88,2013-03-31 00:00:00,2013-04-24 00:00:00,540.6751703075632,5.662616378373892,-54.841176030124814,1.3831650083934228
sz002504,2013-04-26,9.06,9.15,8.67,8.7,-0.04185,749604.0,6650570.86,572122640.0,930900000.0,0.011398875597721495,8.88,2013-03-31 00:00:00,2013-04-24 00:00:00,540.6751703075632,5.662616378373892,-54.841176030124814,1.3831650083934228
sz002504,2013-04-25,9.18,9.25,9.08,9.08,-0.010893,608002.0,5576917.44,597111900.0,971560000.0,0.009245600631975347,9.27,2013-03-31 00:00:00,2013-04-24 00:00:00,564.2907376794482,5.909947689165467,-57.23652458396369,1.443578780351117
sz002504,2013-04-24,8.97,9.24,8.95,9.18,0.023411,822449.0,7496923.74,603688030.0,982260000.0,0.012506595202823552,9.37,2013-03-31 00:00:00,2013-04-24 00:00:00,570.5052513827605,5.975033731603827,-57.86686838124054,1.4594768618067782
sz002504,2013-04-23,9.23,9.23,8.93,8.97,-0.025,635567.0,5736435.76,589878170.0,959790000.0,0.009664768557209026,9.16,2012-09-30 00:00:00,2012-10-25 00:00:00,62.44458606263426,6.189854033724248,-23.9059150741944,1.4150836390898547
sz002504,2013-04-22,9.12,9.24,9.07,9.2,0.005464,568578.0,5214972.43,605003250.0,984400000.0,0.008646098347405571,9.39,2012-09-30 00:00:00,2012-10-25 00:00:00,64.04572929500951,6.348568239717178,-24.518887255584,1.4513678349639538
sz002504,2013-04-19,9.01,9.2,8.97,9.15,0.015538,595462.0,5438768.77,601715190.0,979050000.0,0.009054910679585802,9.34,2012-09-30 00:00:00,2012-10-25 00:00:00,63.697685143386046,6.31406817122958,-24.385644096242135,1.4434806566559857
sz002504,2013-04-18,9.02,9.05,8.91,9.01,0.003341,279142.0,2513078.74,592508620.0,964070000.0,0.004244781147656552,9.2,2012-09-30 00:00:00,2012-10-25 00:00:00,62.723093713269265,6.217461258199673,-24.012537291802115,1.4213950208224464
sz002504,2013-04-17,8.88,8.99,8.88,8.98,0.006726,261524.0,2342866.89,590535780.0,960860000.0,0.003976872527520686,9.17,2012-09-30 00:00:00,2012-10-25 00:00:00,62.51423365861582,6.196757890088886,-23.932578546876996,1.4166619532366824
sz002504,2013-04-16,8.82,8.96,8.72,8.92,0.010193,227343.0,2015098.05,586590110.0,954440000.0,0.0034570981089333402,9.11,2012-09-30 00:00:00,2012-10-25 00:00:00,62.096572114573206,6.155356959181431,-23.772683477805277,1.407197145237813
sz002504,2013-04-15,9.04,9.04,8.8,8.83,-0.02323,356906.0,3167912.36,580671600.0,944810000.0,0.005427301731305612,9.01,2012-09-30 00:00:00,2012-10-25 00:00:00,61.470008319769796,6.093248477450776,-23.532813509700897,1.392998313429031
sz002504,2013-04-12,9.06,9.15,9.01,9.04,-0.0033079999999999997,255066.0,2310336.31,594481460.0,967280000.0,0.003878668714075624,9.23,2012-09-30 00:00:00,2012-10-25 00:00:00,62.931916745774124,6.238160956469564,-24.092481863387384,1.4261272494333679
sz002504,2013-04-11,9.12,9.2,9.07,9.07,-0.004391,290666.0,2656925.01,596454290.0,970490000.0,0.004420021222414211,9.26,2012-09-30 00:00:00,2012-10-25 00:00:00,63.14078646740832,6.25886528282515,-24.172444309162096,1.430860536086743
sz002504,2013-04-10,9.11,9.2,9.05,9.11,-0.004372,305803.0,2791284.92,599084740.0,974770000.0,0.004650202457168246,9.3,2012-09-30 00:00:00,2012-10-25 00:00:00,63.41926044000036,6.286469168945991,-24.27905363366753,1.4371711546267087
sz002504,2013-04-09,9.01,9.16,8.96,9.15,0.01105,474703.0,4324404.8,601715190.0,979050000.0,0.007218585341014908,9.34,2012-09-30 00:00:00,2012-10-25 00:00:00,63.69774698983994,6.314074301793433,-24.38566777317184,1.4434820581850942
sz002504,2013-04-08,8.89,9.06,8.8,9.05,0.005556,356246.0,3173981.73,595139070.0,968350000.0,0.00541726541327559,9.24,2012-09-30 00:00:00,2012-10-25 00:00:00,63.0015795359675,6.245066318968827,-24.11915115293194,1.4277059079027685
sz002504,2013-04-03,9.07,9.14,8.98,9.0,-0.007718000000000001,443493.0,4008093.38,591851010.0,963000000.0,0.006743989505061417,9.19,2012-09-30 00:00:00,2012-10-25 00:00:00,62.65347681876246,6.210560445135655,-23.985885572690076,1.4198174024149512
sz002504,2013-04-02,9.12,9.21,9.05,9.07,-0.008743,411995.0,3756749.79,596454290.0,970490000.0,0.006265014289695192,9.26,2012-09-30 00:00:00,2012-10-25 00:00:00,63.14079749381977,6.258866375824266,-24.172448530448076,1.4308607859609983
sz002504,2013-04-01,9.2,9.23,9.11,9.15,0.004391,302087.0,2764486.25,601715190.0,979050000.0,0.0045936949838344615,9.34,2012-09-30 00:00:00,2012-10-25 00:00:00,63.697706542117494,6.314070292390637,-24.385652288405606,1.4434811415818483
sz002504,2013-03-29,9.27,9.27,9.08,9.11,-0.0010960000000000002,366910.0,3351348.13,599084740.0,974770000.0,0.005579427878600279,9.3,2012-09-30 00:00:00,2012-10-25 00:00:00,63.419232691369686,6.286466418347672,-24.279043010546296,1.4371705258030472
sz002504,2013-03-28,9.52,9.52,9.1,9.12,-0.034921,614309.0,5655584.24,599742350.0,975840000.0,0.009341508199312587,9.31,2012-09-30 00:00:00,2012-10-25 00:00:00,63.48881643418155,6.293363945231645,-24.305682038060006,1.4387473929457155
sz002504,2013-03-27,9.45,9.6,9.4,9.45,-0.002112,396042.0,3755972.39,621443560.0,1011150000.0,0.006022424466028741,9.65,2012-09-30 00:00:00,2012-10-25 00:00:00,65.7861340203046,6.521086818003133,-25.185173481196884,1.4908078954631856
sz002504,2013-03-26,9.61,9.66,9.41,9.47,-0.020683,832887.0,7913021.02,622758780.0,1013290000.0,0.012665321057376342,9.67,2012-09-30 00:00:00,2012-10-25 00:00:00,65.92536839836195,6.534888502520457,-25.23847714492697,1.4939631456267493
sz002504,2013-03-25,9.51,9.67,9.42,9.67,0.018966999999999998,1073784.0,10268589.03,635911030.0,1034690000.0,0.01632852834774701,9.87,2012-09-30 00:00:00,2012-10-25 00:00:00,67.31770039564509,6.672904179668541,-25.77150927118285,1.525515380236174
sz002504,2013-03-22,9.51,9.56,9.4,9.49,-0.0021030000000000003,570862.0,5409974.68,624074010.0,1015430000.0,0.008680829986815186,9.69,2012-09-30 00:00:00,2012-10-25 00:00:00,66.06465213853352,6.548695080084578,-25.291799706156183,1.4971195144064275
sz002504,2013-03-21,9.34,9.51,9.3,9.51,0.018201,738969.0,6970527.32,625389230.0,1017570000.0,0.01123715416397561,9.71,2012-09-30 00:00:00,2012-10-25 00:00:00,66.20387889585149,6.562496009191908,-25.345100452407596,1.5002745918731366
sz002504,2013-03-20,9.08,9.35,9.08,9.34,0.026374,700848.0,6476976.06,614209820.0,999380000.0,0.010657466075680782,9.53,2012-09-30 00:00:00,2012-10-25 00:00:00,65.02044183403031,6.445187157733992,-24.892040424638747,1.473456215298489
sz002504,2013-03-19,9.2,9.27,8.96,9.1,-0.009793000000000001,884721.0,8028776.08,598427130.0,973700000.0,0.01345353627266197,9.29,2012-09-30 00:00:00,2012-10-25 00:00:00,63.34965795512193,6.279569784244332,-24.252407431052177,1.4355938627620037
sz002504,2013-03-18,9.52,9.54,9.18,9.19,-0.034664,753964.0,7051739.45,604345640.0,983330000.0,0.011465176053888632,9.38,2012-09-30 00:00:00,2012-10-25 00:00:00,63.976176653085595,6.3416737957258755,-24.492260134549827,1.4497916726118922
sz002504,2013-03-15,9.51,9.68,9.44,9.52,0.002105,702805.0,6728775.39,626046840.0,1018640000.0,0.01068722525618051,9.72,2012-09-30 00:00:00,2012-10-25 00:00:00,66.27348058405116,6.569395314922344,-25.37174635002717,1.501851865683961
sz002504,2013-03-14,9.54,9.58,9.44,9.5,-0.002101,459037.0,4362239.5,624731620.0,1016500000.0,0.006980359822350596,9.7,2012-09-30 00:00:00,2012-10-25 00:00:00,66.13426795001637,6.555595785793249,-25.318451010649753,1.4986971082710505
sz002504,2013-03-13,9.62,9.74,9.38,9.52,-0.014493,793790.0,7550297.19,626046840.0,1018640000.0,0.012070791380402143,9.72,2012-09-30 00:00:00,2012-10-25 00:00:00,66.27350859156725,6.5693980911828245,-25.371757072258568,1.501852500374337
sz002504,2013-03-12,9.96,10.06,9.59,9.66,-0.034964999999999996,1317155.0,12895035.0,635253410.0,1033620000.0,0.02002935694591549,9.86,2012-09-30 00:00:00,2012-10-25 00:00:00,67.24813582406543,6.666008553143534,-25.744877583070004,1.5239389475410494
sz002504,2013-03-11,9.94,10.11,9.93,10.01,0.0,716367.0,7172906.47,658269840.0,1071070000.0,0.010893456200271913,10.22,2012-09-30 00:00:00,2012-10-25 00:00:00,69.68465995955114,6.907530351897635,-26.677662036164495,1.579154069584056
sz002504,2013-03-08,9.98,10.15,9.95,10.01,0.002002,1391562.0,14010928.05,658269840.0,1071070000.0,0.021160829151765485,10.22,2012-09-30 00:00:00,2012-10-25 00:00:00,69.68465995955114,6.907530351897635,-26.677662036164495,1.579154069584056
sz002504,2013-03-07,10.03,10.18,9.92,9.99,-0.007944,1592290.0,16007069.25,656954620.0,1068930000.0,0.024213205320026517,10.2,2012-09-30 00:00:00,2012-10-25 00:00:00,69.54543000867378,6.893729106226969,-26.62436006730974,1.575998919746723
sz002504,2013-03-06,9.83,10.15,9.75,10.07,0.024415,1855696.0,18514827.58,662215520.0,1077490000.0,0.028218696414726133,10.28,2012-09-30 00:00:00,2012-10-25 00:00:00,70.1023228614854,6.948931417406848,-26.8375576250834,1.5886189083546924
sz002504,2013-03-05,9.66,9.89,9.58,9.83,0.017598,1325743.0,12956634.7,646432820.0,1051810000.0,0.020159950557584624,10.03,2012-09-30 00:00:00,2012-10-25 00:00:00,68.43156617336275,6.7833167392188205,-26.197935041056017,1.5507571720003053
sz002504,2013-03-04,10.1,10.13,9.59,9.66,-0.048276,2078922.0,20540434.27,635253410.0,1033620000.0,0.03161318964033582,9.86,2012-09-30 00:00:00,2012-10-25 00:00:00,67.24813351968338,6.666008324720392,-25.744876700874038,1.523938895320456
sz002504,2013-03-01,10.25,10.25,10.01,10.15,-0.008789,2253922.0,22788032.84,667476410.0,1086050000.0,0.034274332331834766,10.36,2012-09-30 00:00:00,2012-10-25 00:00:00,70.65928096767904,7.004140196864207,-27.050780164074915,1.6012403756976348
sz002504,2013-02-28,10.2,10.25,10.03,10.24,-0.0038909999999999995,2458671.0,24919691.15,673394920.0,1095680000.0,0.03738785412874811,10.45,2012-09-30 00:00:00,2012-10-25 00:00:00,71.28581196907524,7.066245427930286,-27.29063757774572,1.6154384643609028
sz002504,2013-02-27,9.81,10.33,9.81,10.28,0.043655,3449333.0,34968305.16,676025370.0,1099960000.0,0.052452385389027634,10.49,2012-09-30 00:00:00,2012-10-25 00:00:00,71.56426853795644,7.093847588898692,-27.397240239517686,1.621748688507887
sz002504,2013-02-26,9.74,10.22,9.73,9.85,0.004077,2422808.0,24317599.15,647748050.0,1053950000.0,0.03684250195735826,10.05,2012-09-30 00:00:00,2012-10-25 00:00:00,68.57080983462583,6.797119343939033,-26.251242258713546,1.5539126325345896
sz002504,2013-02-25,9.74,9.85,9.74,9.81,0.006154,696603.0,6822835.56,645117600.0,1049670000.0,0.010592914268654274,10.01,2012-09-30 00:00:00,2012-10-25 00:00:00,68.2923817940515,6.769520010854778,-26.144650518549422,1.5476030548798445
sz002504,2013-02-22,9.69,9.82,9.65,9.75,0.005155,825397.0,8027186.12,641171920.0,1043250000.0,0.01255142419524548,9.95,2012-09-30 00:00:00,2012-10-25 00:00:00,67.87468100713359,6.728115189975668,-25.984740425968013,1.538137357581289
sz002504,2013-02-21,9.87,9.87,9.66,9.7,-0.019211000000000002,1086878.0,10577052.82,637883860.0,1037900000.0,0.01652764282200211,9.9,2012-09-30 00:00:00,2012-10-25 00:00:00,67.52658147960622,6.693609632321053,-25.851476066843436,1.5302489243761301
sz002504,2013-02-20,9.69,9.9,9.68,9.89,0.018538,956026.0,9385640.69,650378500.0,1058230000.0,0.014537837797528671,10.1,2012-09-30 00:00:00,2012-10-25 00:00:00,68.8492443120857,6.824719315083114,-26.357836463136756,1.5602223560583675
sz002504,2013-02-19,9.99,9.99,9.68,9.71,-0.027054,1237276.0,12120551.67,638541480.0,1038970000.0,0.018814674279265305,9.91,2012-09-30 00:00:00,2012-10-25 00:00:00,67.59614694010995,6.700505346961148,-25.8781080952667,1.5318253772155457
sz002504,2013-02-18,9.93,9.98,9.85,9.98,0.005035,1266539.0,12566514.05,656297010.0,1067860000.0,0.01925966296875252,10.19,2012-09-30 00:00:00,2012-10-25 00:00:00,69.47574371045252,6.886821413481476,-26.59768177809118,1.5744197285517856
sz002504,2013-02-08,9.76,10.03,9.76,9.93,0.015337,1444392.0,14321867.69,653008940.0,1062510000.0,0.021964190199294974,10.14,2012-09-30 00:00:00,2012-10-25 00:00:00,69.12768581238716,6.852319982370243,-26.464433356143005,1.5665322387297813
sz002504,2013-02-07,9.8,9.86,9.73,9.78,-0.002041,1310732.0,12814678.26,643144760.0,1046460000.0,0.01993168530207725,9.98,2012-09-30 00:00:00,2012-10-25 00:00:00,68.08348933643427,6.748813430782334,-26.064679368665775,1.5428692529965728
sz002504,2013-02-06,9.55,9.81,9.52,9.8,0.026177999999999996,1700109.0,16428006.69,644459990.0,1048600000.0,0.02585275805872759,10.0,2012-09-30 00:00:00,2012-10-25 00:00:00,68.22273193230811,6.76261592989525,-26.117986178456004,1.5460246893876128
sz002504,2013-02-05,9.46,9.58,9.41,9.55,0.0020989999999999997,1203412.0,11420294.97,628019680.0,1021850000.0,0.018299720480097058,9.75,2012-09-30 00:00:00,2012-10-25 00:00:00,66.48235679609981,6.590100284643844,-25.45171128055367,1.5065852994194115
sz002504,2013-02-04,9.78,9.78,9.5,9.53,-0.014478,1063022.0,10176111.4,626704460.0,1019710000.0,0.016164875641701992,9.73,2012-09-30 00:00:00,2012-10-25 00:00:00,66.34310262369267,6.57629663800068,-25.398400038872076,1.5034296006875683
sz002504,2013-02-01,9.51,9.74,9.49,9.67,0.008342,1667755.0,16019861.96,635911030.0,1034690000.0,0.025360766033575483,9.87,2012-09-30 00:00:00,2012-10-25 00:00:00,67.3177286998085,6.672906985334351,-25.771520106980947,1.5255160216490027
sz002504,2013-01-31,9.83,9.89,9.55,9.59,-0.037149,2161961.0,20924354.72,630650130.0,1026130000.0,0.032875924389328195,9.79,2012-09-30 00:00:00,2012-10-25 00:00:00,66.76081002259997,6.617702114296886,-25.5583126627483,1.5128954478232608
sz002504,2013-01-30,10.05,10.14,9.85,9.96,-0.006979000000000001,1628259.0,16215529.57,654981780.0,1065720000.0,0.024760169114933245,10.17,2012-09-30 00:00:00,2012-10-25 00:00:00,69.33659519759543,6.873028240399486,-26.544410986485236,1.5712664242164787
sz002504,2013-01-29,10.04,10.19,9.99,10.03,0.000998,1773025.0,17876477.59,659585070.0,1073210000.0,0.02696155743792078,10.24,2012-09-30 00:00:00,2012-10-25 00:00:00,69.8238961689586,6.921332217948549,-26.730966400997797,1.5823093612486328
sz002504,2013-01-28,9.86,10.06,9.83,10.02,0.017259,1625688.0,16191733.95,658927450.0,1072140000.0,0.02472107325320868,10.23,2012-09-30 00:00:00,2012-10-25 00:00:00,69.75428139612526,6.914431615196583,-26.704315494134654,1.5807317909212935
sz002504,2013-01-25,9.85,9.94,9.76,9.85,0.001016,1112663.0,10948246.69,647748050.0,1053950000.0,0.016919743023541326,10.05,2012-09-30 00:00:00,2012-10-25 00:00:00,68.5708176542309,6.797120119061697,-26.25124525232478,1.5539128097380248
sz002504,2013-01-24,10.31,10.45,9.78,9.84,-0.028627999999999997,2792704.0,28407367.31,647090430.0,1052880000.0,0.04246733699955971,10.04,2012-09-30 00:00:00,2012-10-25 00:00:00,68.50122041428997,6.790221254267362,-26.22460105765021,1.5523356367311063
sz002504,2013-01-23,10.1,10.2,9.93,10.13,-0.009775,2128737.0,21451413.41,666161190.0,1083910000.0,0.032370702667322906,10.34,2012-09-30 00:00:00,2012-10-25 00:00:00,70.52006894813725,6.99034072864707,-26.997485059946353,1.5980856322100143
sz002504,2013-01-22,10.81,10.95,10.21,10.23,-0.051019999999999996,4061861.0,42560362.72,672737310.0,1094610000.0,0.06176681062924844,10.44,2012-09-30 00:00:00,2012-10-25 00:00:00,71.21620737523011,7.059345834176141,-27.26399056774607,1.613861124703996
sz002504,2013-01-21,11.43,11.47,10.7,10.78,0.012206999999999999,8836632.0,96680901.01,708905980.0,1153460000.0,0.1343745089581555,11.0,2012-09-30 00:00:00,2012-10-25 00:00:00,75.04500345131628,7.4388773569265325,-28.729784155352135,1.7006271203860945
sz002504,2013-01-18,10.65,10.65,10.65,10.65,0.100207,1610034.0,17146862.1,700357020.0,1139550000.0,0.024483030240776343,10.87,2012-09-30 00:00:00,2012-10-25 00:00:00,74.13997675506717,7.349166086508522,-28.383309101154342,1.6801179209253585
sz002504,2013-01-17,9.96,9.98,9.66,9.68,-0.032967,2201716.0,21488164.97,636568640.0,1035760000.0,0.0334804599862161,9.88,2012-09-30 00:00:00,2012-10-25 00:00:00,67.38729780401975,6.6798030611589665,-25.7981535303396,1.5270925570600429
sz002504,2013-01-16,9.67,10.18,9.67,10.01,0.031958999999999994,4547865.0,45177977.02,658269840.0,1071070000.0,0.06915724507445153,10.22,2012-09-30 00:00:00,2012-10-25 00:00:00,69.6845896717276,6.90752338457836,-26.677635127590886,1.5791524767614369
sz002504,2013-01-15,9.57,9.81,9.52,9.7,0.014643999999999999,2322645.0,22426996.88,637883860.0,1037900000.0,0.03531937067666205,9.9,2012-09-30 00:00:00,2012-10-25 00:00:00,67.52650994053793,6.693602540971454,-25.851448679250712,1.5302473031985155
sz002504,2013-01-14,9.16,9.57,9.15,9.56,0.03913,1959231.0,18429220.26,628677290.0,1022920000.0,0.02979310475808662,9.76,2012-09-30 00:00:00,2012-10-25 00:00:00,66.55192357175318,6.5969961296488755,-25.478343812461034,1.5081617820619995
sz002504,2013-01-11,9.47,9.57,9.16,9.2,-0.028511,2025459.0,18994019.28,605003250.0,984400000.0,0.030800202808827885,9.39,2012-09-30 00:00:00,2012-10-25 00:00:00,64.04581098780054,6.348576337560146,-24.51891853036774,1.4513696862394496
sz002504,2013-01-10,9.32,9.48,9.27,9.47,0.019375999999999997,1917232.0,17975911.57,622758780.0,1013290000.0,0.02915444570689152,9.67,2012-09-30 00:00:00,2012-10-25 00:00:00,65.92541036265006,6.534892662253659,-25.238493210286208,1.493964096597542
sz002504,2013-01-09,9.23,9.42,9.21,9.29,0.0,1604624.0,14909811.22,610921760.0,994030000.0,0.024400762807990337,9.48,2012-09-30 00:00:00,2012-10-25 00:00:00,64.67231950001771,6.410679339373949,-24.75876733441459,1.4655672652657528
sz002504,2013-01-08,9.19,9.34,9.05,9.29,0.014191999999999998,1531455.0,14142165.04,610921760.0,994030000.0,0.023288116222934994,9.48,2012-09-30 00:00:00,2012-10-25 00:00:00,64.67231950001771,6.410679339373949,-24.75876733441459,1.4655672652657528
sz002504,2013-01-07,8.92,9.17,8.92,9.16,0.020045,889042.0,8083581.54,602372800.0,980120000.0,0.013519243763994656,9.35,2012-09-30 00:00:00,2012-10-25 00:00:00,63.76733350294393,6.3209721032841415,-24.41230786124776,1.4450589881065448
sz002504,2013-01-04,9.2,9.21,8.85,8.98,-0.01427,1004948.0,9068664.89,590535780.0,960860000.0,0.015281771817450248,9.17,2012-09-30 00:00:00,2012-10-25 00:00:00,62.51423564935265,6.196758087421771,-23.93257930899888,1.4166619983496263
