code,date,open,high,low,close,change,volume,money,traded_market_value,market_value,turnover,adjust_price,report_type,report_date,PE_TTM,PS_TTM,PC_TTM,PB
sz002239,2014-12-31,6.35,6.45,6.22,6.37,-0.001567,23239476.0,146922661.36,2688777000.0,2688777000.0,0.05505680170575693,20.5,2014-09-30 00:00:00,2014-10-29 00:00:00,-74.20534970413205,6.117174767174933,235.7342104452596,4.289927128360756
sz002239,2014-12-30,6.52,6.75,6.31,6.38,-0.031866000000000005,30521814.0,199507429.79,2692998000.0,2692998000.0,0.07230943852167733,20.53,2014-09-30 00:00:00,2014-10-29 00:00:00,-74.3218119835102,6.126775424264755,236.10418570425816,4.29665999457225
sz002239,2014-12-29,6.88,6.9,6.47,6.59,-0.065248,39628393.0,263982054.69,2781639000.0,2781639000.0,0.09388389718076286,21.21,2014-09-30 00:00:00,2014-10-29 00:00:00,-76.76810439826532,6.328437410797219,243.87552312413175,4.438083978635448
sz002239,2014-12-26,7.69,7.85,7.0,7.05,-0.040816000000000005,80969723.0,593924930.74,2975805000.0,2975805000.0,0.19182592513622365,22.69,2014-09-30 00:00:00,2014-10-29 00:00:00,-82.12670783081,6.770177983890079,260.89863741840804,4.747873209830466
sz002239,2014-12-25,6.7,7.35,6.68,7.35,0.100299,56096908.0,400794548.58,3102435000.0,3102435000.0,0.1328995688225539,23.65,2014-09-30 00:00:00,2014-10-29 00:00:00,-85.62143220780374,7.058268261240887,272.0006144998332,4.949908682620296
sz002239,2014-12-24,6.68,6.68,6.2,6.68,0.100494,80493493.0,524621184.55,2819628000.0,2819628000.0,0.19069768538261075,21.5,2014-09-30 00:00:00,2014-10-29 00:00:00,-77.81651370018854,6.41486383359513,247.206090798804,4.498694157333867
sz002239,2014-12-23,6.07,6.07,6.07,6.07,0.099638,479791.0,2912331.37,2562147000.0,2562147000.0,0.0011366761430940536,19.54,2014-09-30 00:00:00,2014-10-29 00:00:00,-70.71052972591266,5.829076608863955,224.63192965959288,4.087886128714802
sz002239,2014-12-22,5.52,5.52,5.52,5.52,0.099602,323194.0,1784030.88,2329992000.0,2329992000.0,0.0007656811182184315,17.77,2014-09-30 00:00:00,2014-10-29 00:00:00,-64.30346143541115,5.300905033169056,204.27807120124336,3.717483507040318
sz002239,2014-07-18,5.1,5.18,4.99,5.02,-0.009184999999999999,8134830.0,41254890.88,2118942000.0,2118942000.0,0.01927228144989339,16.16,2014-03-31 00:00:00,2014-04-28 00:00:00,85.1145849309375,4.7640859751380695,-1893.9443711370145,3.357138200852563
sz002239,2014-07-17,10.8,10.89,10.58,10.67,-0.015683000000000002,5201761.0,55678792.41,2144670000.0,2144670000.0,0.025879407960199004,16.31,2014-03-31 00:00:00,2014-04-28 00:00:00,85.9036095849755,4.808249749083401,-1911.5015125295988,3.388259363102661
sz002239,2014-07-16,11.03,11.09,10.8,10.84,-0.017225999999999998,3404659.0,37071579.6,2178840000.0,2178840000.0,0.01693860199004975,16.57,2014-03-31 00:00:00,2014-04-28 00:00:00,87.27230108285796,4.884858992665372,-1941.9572277321217,3.4422440769616505
sz002239,2014-07-15,11.06,11.16,10.92,11.03,-0.0018100000000000002,3898104.0,43076514.55,2217030000.0,2217030000.0,0.01939355223880597,16.86,2014-03-31 00:00:00,2014-04-28 00:00:00,88.80200441083907,4.970480489578857,-1975.995730180206,3.5025795116289715
sz002239,2014-07-14,10.93,11.05,10.76,11.05,0.002722,5163672.0,56276196.2,2221050000.0,2221050000.0,0.025689910447761193,16.89,2014-03-31 00:00:00,2014-04-28 00:00:00,88.96302749059706,4.979493372583232,-1979.578767749833,3.508930676152808
sz002239,2014-07-11,11.25,11.35,10.95,11.02,-0.000907,8052123.0,89919368.84,2215020000.0,2215020000.0,0.04006031343283582,16.84,2014-03-31 00:00:00,2014-04-28 00:00:00,88.72152749276177,4.965975985949479,-1974.2049817894026,3.4994052949399816
sz002239,2014-07-10,10.85,11.07,10.85,11.03,0.017528,2997555.0,32864946.86,2217030000.0,2217030000.0,0.01491320895522388,16.86,2014-03-31 00:00:00,2014-04-28 00:00:00,88.8020709711326,4.970484215132604,-1975.9972112600155,3.502582136938185
sz002239,2014-07-09,11.15,11.18,10.83,10.84,-0.030411,4406291.0,48569601.59,2178840000.0,2178840000.0,0.02192184577114428,16.57,2014-03-31 00:00:00,2014-04-28 00:00:00,87.27236102705045,4.884862347898637,-1941.9585615924236,3.442246441314819
sz002239,2014-07-08,11.1,11.18,11.01,11.18,0.01085,4471032.0,49637981.12,2247180000.0,2247180000.0,0.022243940298507462,17.09,2014-03-31 00:00:00,2014-04-28 00:00:00,90.00964432048058,5.038075254462083,-2002.867773450837,3.550211936516213
sz002239,2014-07-07,11.35,11.43,11.03,11.06,-0.028973000000000002,6123167.0,68312851.83,2223060000.0,2223060000.0,0.030463517412935324,16.9,2014-03-31 00:00:00,2014-04-28 00:00:00,89.04352210563444,4.98399886675776,-1981.3699099281166,3.5121055908554313
sz002239,2014-07-04,11.45,11.46,11.28,11.39,-0.002627,3611956.0,41021361.95,2289390000.0,2289390000.0,0.017969930348258705,17.41,2014-03-31 00:00:00,2014-04-28 00:00:00,91.7003565355386,5.132708839978457,-2040.48899765724,3.616897975911516
sz002239,2014-07-03,11.3,11.55,11.25,11.42,0.008834,4524438.0,51591697.11,2295420000.0,2295420000.0,0.022509641791044775,17.45,2014-03-31 00:00:00,2014-04-28 00:00:00,91.94188787498618,5.146227980884239,-2045.8634810218841,3.626424593318162
sz002239,2014-07-02,11.37,11.45,11.21,11.32,-0.004398,4666184.0,52821811.86,2275320000.0,2275320000.0,0.023214845771144278,17.3,2014-03-31 00:00:00,2014-04-28 00:00:00,91.13678551177516,5.101164295497812,-2027.9485832375638,3.5946692848557467
sz002239,2014-07-01,11.37,11.47,11.27,11.37,-0.0061189999999999994,3692342.0,41904108.34,2285370000.0,2285370000.0,0.01836986069651741,17.38,2014-03-31 00:00:00,2014-04-28 00:00:00,91.53937568604238,5.123698320712305,-2036.9068997828085,3.610548477057847
sz002239,2014-06-30,11.47,11.53,11.25,11.44,-0.010381,6216492.0,70666673.82,2299440000.0,2299440000.0,0.030927820895522387,17.48,2014-03-31 00:00:00,2014-04-28 00:00:00,92.10295365948475,5.1552432541846605,-2049.447468844669,3.632777442226833
sz002239,2014-06-27,11.3,11.77,11.23,11.56,0.030302999999999997,10203133.0,118069849.32,2323560000.0,2323560000.0,0.05076185572139304,17.67,2014-03-31 00:00:00,2014-04-28 00:00:00,93.06910402840361,5.209321217746083,-2070.9459588434224,3.6708848983566735
sz002239,2014-06-26,11.14,11.37,11.14,11.22,0.008086,6622077.0,74392551.63,2255220000.0,2255220000.0,0.03294565671641791,17.15,2014-03-31 00:00:00,2014-04-28 00:00:00,90.33178009614998,5.056106036521375,-2010.035842702023,3.56291780025553
sz002239,2014-06-25,11.1,11.25,11.02,11.13,-0.002688,4229197.0,47106438.55,2237130000.0,2237130000.0,0.021040781094527363,17.01,2014-03-31 00:00:00,2014-04-28 00:00:00,89.60721614639027,5.015550296821278,-1993.913061685236,3.534339134017862
sz002239,2014-06-24,11.03,11.2,10.91,11.16,0.01087,5033906.0,55730040.75,2243160000.0,2243160000.0,0.025044308457711443,17.05,2014-03-31 00:00:00,2014-04-28 00:00:00,89.84872953137058,5.029068432768559,-1999.2871455324268,3.543865043254128
sz002239,2014-06-23,11.0,11.26,10.92,11.04,-0.010753,7077106.0,78634007.03,2219040000.0,2219040000.0,0.03520948258706467,16.87,2014-03-31 00:00:00,2014-04-28 00:00:00,88.88257593100062,4.974990288334365,-1977.7885836283867,3.5057574596675423
sz002239,2014-06-20,10.76,11.26,10.72,11.16,0.042017,7203426.0,79860898.84,2243160000.0,2243160000.0,0.03583794029850746,17.05,2014-03-31 00:00:00,2014-04-28 00:00:00,89.84871920865123,5.029067854978954,-1999.2869158343533,3.5438646360995203
sz002239,2014-06-19,11.17,11.26,10.51,10.71,-0.044603,6687668.0,72833275.4,2152710000.0,2152710000.0,0.03327198009950249,16.37,2014-03-31 00:00:00,2014-04-28 00:00:00,86.22577098900618,4.826281965629116,-1918.6701520554402,3.40096623769048
sz002239,2014-06-18,11.21,11.47,11.03,11.21,-0.007086,7832369.0,87683594.81,2253210000.0,2253210000.0,0.038967009950248765,17.13,2014-03-31 00:00:00,2014-04-28 00:00:00,90.25124737570472,5.051598409487486,-2008.2438526135627,3.5597413825775877
sz002239,2014-06-17,11.1,11.48,10.93,11.29,0.012556,12384910.0,138868824.66,2269290000.0,2269290000.0,0.061616467661691536,17.25,2014-03-31 00:00:00,2014-04-28 00:00:00,90.89533169610333,5.087649493800558,-2022.5758249088674,3.5851457251862584
sz002239,2014-06-16,11.06,11.22,10.83,11.15,0.008137,14231387.0,157056223.48,2241150000.0,2241150000.0,0.07080292039800995,17.04,2014-03-31 00:00:00,2014-04-28 00:00:00,89.76820214990909,5.024561104571558,-1997.495274245442,3.540688836159441
sz002239,2014-06-13,10.14,11.06,10.13,11.06,0.100498,12350352.0,132873269.69,2223060000.0,2223060000.0,0.061444537313432836,16.9,2014-03-31 00:00:00,2014-04-28 00:00:00,89.04365393781706,4.984006245749891,-1981.372843418545,3.512110790655874
sz002239,2014-06-12,10.2,10.23,10.0,10.05,-0.01277,3597691.0,36319683.13,2020050000.0,2020050000.0,0.017898960199004974,15.36,2014-03-31 00:00:00,2014-04-28 00:00:00,80.91214517229207,4.528864428422307,-1800.4329343792951,3.191383165308683
sz002239,2014-06-11,10.19,10.25,10.11,10.18,-0.0058590000000000005,2980245.0,30346363.22,2046180000.0,2046180000.0,0.014827089552238807,15.56,2014-03-31 00:00:00,2014-04-28 00:00:00,81.95875851857426,4.587446115314878,-1823.7218625642404,3.232664288269889
sz002239,2014-06-10,10.08,10.27,10.02,10.24,0.005894,3335142.0,33899928.36,2058240000.0,2058240000.0,0.016592746268656717,15.65,2014-03-31 00:00:00,2014-04-28 00:00:00,82.44178493651732,4.6144823675060955,-1834.4700224256321,3.2517160928579436
sz002239,2014-06-09,10.02,10.29,9.98,10.18,0.00892,3552974.0,36089849.81,2046180000.0,2046180000.0,0.017676487562189053,15.56,2014-03-31 00:00:00,2014-04-28 00:00:00,81.95872023942611,4.587443972730819,-1823.721010788047,3.232662778441807
sz002239,2014-06-06,10.14,10.35,10.06,10.09,0.009,5613875.0,57179890.18,2028090000.0,2028090000.0,0.027929726368159203,15.42,2014-03-31 00:00:00,2014-04-28 00:00:00,81.23411196073636,4.5468857518245445,-1807.597243377123,3.2040823637570934
sz002239,2014-06-05,10.0,10.08,9.82,10.0,-0.009901,5094620.0,50672400.23,2010000000.0,2010000000.0,0.02534636815920398,15.28,2014-03-31 00:00:00,2014-04-28 00:00:00,80.50952622471395,4.506328792690332,-1791.4739775789133,3.175502838213176
sz002239,2014-06-04,9.93,10.19,9.82,10.1,0.015075,5606747.0,55862636.01,2030100000.0,2030100000.0,0.02789426368159204,15.43,2014-03-31 00:00:00,2014-04-28 00:00:00,81.3146223001073,4.551392126131156,-1809.3887354485896,3.207257898667886
sz002239,2014-06-03,9.68,9.97,9.64,9.95,0.031088,4797201.0,47232398.57,1999950000.0,1999950000.0,0.023866671641791046,15.21,2014-03-31 00:00:00,2014-04-28 00:00:00,80.10700913736159,4.483798858341657,-1782.5172873419106,3.1596265287470255
sz002239,2014-05-30,9.79,9.82,9.57,9.65,-0.013291999999999998,2383361.0,23045189.96,1939650000.0,1939650000.0,0.011857517412935323,14.75,2014-03-31 00:00:00,2014-04-28 00:00:00,77.69172867627358,4.3486092926517,-1728.7731865193955,3.0643616536581018
sz002239,2014-05-29,9.87,10.04,9.75,9.78,-0.011122,2792339.0,27637557.75,1965780000.0,1965780000.0,0.013892233830845771,14.95,2014-03-31 00:00:00,2014-04-28 00:00:00,78.73831840450629,4.407189657580257,-1752.061589162544,3.1056418450626753
sz002239,2014-05-28,9.91,9.93,9.76,9.89,-0.00101,2578819.0,25424569.59,1987890000.0,1987890000.0,0.01282994527363184,15.11,2014-03-31 00:00:00,2014-04-28 00:00:00,79.62389536879806,4.456757716907704,-1771.7671837805512,3.1405712788257754
sz002239,2014-05-27,9.84,10.08,9.81,9.9,0.005076,3666183.0,36488455.29,1989900000.0,1989900000.0,0.01823971641791045,15.13,2014-03-31 00:00:00,2014-04-28 00:00:00,79.70439680957571,4.461263593136772,-1773.5584778431726,3.1437464627531555
sz002239,2014-05-26,9.8,9.88,9.77,9.85,-0.002026,2344526.0,23015668.86,1979850000.0,1979850000.0,0.011664308457711443,15.05,2014-03-31 00:00:00,2014-04-28 00:00:00,79.30186056534602,4.438732586527558,-1764.601361333046,3.127869397690479
sz002239,2014-05-23,9.68,9.87,9.62,9.87,0.019628,2965649.0,28950232.39,1983870000.0,1983870000.0,0.014754472636815919,15.08,2014-03-31 00:00:00,2014-04-28 00:00:00,79.46285230411415,4.447743715294745,-1768.18370151231,3.134219326045046
sz002239,2014-05-22,9.59,9.78,9.55,9.68,0.011493999999999999,3120768.0,30254157.5,1945680000.0,1945680000.0,0.01552620895522388,14.79,2014-03-31 00:00:00,2014-04-28 00:00:00,77.933179850018,4.362123946473366,-1734.1458860607104,3.0738851091231765
sz002239,2014-05-21,9.55,9.58,9.37,9.57,0.004197,1572546.0,14939918.35,1923570000.0,1923570000.0,0.007823611940298507,14.62,2014-03-31 00:00:00,2014-04-28 00:00:00,77.04759479543924,4.312555434311392,-1714.4401114200487,3.0389553562583433
sz002239,2014-05-20,9.54,9.62,9.49,9.53,0.006336,1543405.0,14728493.43,1915530000.0,1915530000.0,0.00767863184079602,14.56,2014-03-31 00:00:00,2014-04-28 00:00:00,76.72557754647667,4.294531286501942,-1707.2746795898101,3.026254167517273
sz002239,2014-05-19,9.5,9.56,9.37,9.47,-0.010449,1717636.0,16271910.62,1903470000.0,1903470000.0,0.008545452736318408,14.47,2014-03-31 00:00:00,2014-04-28 00:00:00,76.24250503457759,4.267492454311426,-1696.5254940594496,3.0072005448650088
sz002239,2014-05-16,9.42,9.57,9.38,9.57,0.011628,2046518.0,19393914.63,1923570000.0,1923570000.0,0.0101816815920398,14.62,2014-03-31 00:00:00,2014-04-28 00:00:00,77.04757514729165,4.312554334553172,-1714.4396742153258,3.0389545812848544
sz002239,2014-05-15,9.76,9.76,9.42,9.46,-0.034694,3097450.0,29671328.24,1901460000.0,1901460000.0,0.015410199004975127,14.46,2014-03-31 00:00:00,2014-04-28 00:00:00,76.16196383185483,4.262984352502276,-1694.733315225879,3.00402379262422
sz002239,2014-05-14,9.71,9.96,9.62,9.8,0.014493,3528125.0,34546386.61,1969800000.0,1969800000.0,0.017552860696517413,14.98,2014-03-31 00:00:00,2014-04-28 00:00:00,78.89929600754044,4.416199995133435,-1755.6436147976694,3.111991215867528
sz002239,2014-05-13,9.66,9.74,9.63,9.66,0.001036,2286073.0,22140121.86,1941660000.0,1941660000.0,0.01137349751243781,14.76,2014-03-31 00:00:00,2014-04-28 00:00:00,77.77214431991196,4.35311036659044,-1730.5625714496496,3.0675334535255816
sz002239,2014-05-12,9.5,9.68,9.42,9.65,0.022246000000000002,3423952.0,32779831.66,1939650000.0,1939650000.0,0.01703458706467662,14.75,2014-03-31 00:00:00,2014-04-28 00:00:00,77.69165576453989,4.348605211591231,-1728.7715641092323,3.064358777831748
sz002239,2014-05-09,9.67,9.74,9.36,9.44,-0.020747,3795870.0,36105074.58,1897440000.0,1897440000.0,0.01888492537313433,14.43,2014-03-31 00:00:00,2014-04-28 00:00:00,76.00093887825426,4.253971364614028,-1691.150235960065,2.9976725541912104
sz002239,2014-05-08,9.75,9.92,9.58,9.64,-0.011281999999999999,3677290.0,36053260.88,1937640000.0,1937640000.0,0.01829497512437811,14.73,2014-03-31 00:00:00,2014-04-28 00:00:00,77.61113714050838,4.344098373570494,-1726.9798876899686,3.0611829161526285
sz002239,2014-05-07,10.13,10.15,9.75,9.75,-0.040354,4124356.0,41037683.63,1959750000.0,1959750000.0,0.02051918407960199,14.9,2014-03-31 00:00:00,2014-04-28 00:00:00,78.4967373310776,4.39366773293345,-1746.6859991321778,3.0961132660198647
sz002239,2014-05-06,10.2,10.27,10.16,10.16,-0.007812999999999999,4711817.0,48020911.83,2042160000.0,2042160000.0,0.023441875621890547,15.53,2014-03-31 00:00:00,2014-04-28 00:00:00,81.79759758398158,4.5784255162147804,-1820.1357574899262,3.226307686396718
sz002239,2014-05-05,10.24,10.34,10.06,10.24,-0.017274,6813527.0,69619789.3,2058240000.0,2058240000.0,0.03389814427860696,15.65,2014-03-31 00:00:00,2014-04-28 00:00:00,82.44171470094004,4.614478436237102,-1834.468459564504,3.2517133225860833
sz002239,2014-04-30,10.05,10.46,10.0,10.42,0.03373,9953879.0,102379465.0,2094420000.0,2094420000.0,0.04952178606965174,15.92,2014-03-31 00:00:00,2014-04-28 00:00:00,83.890845160238,4.695590058914796,-1866.7140785575064,3.308870756025671
sz002239,2014-04-29,9.88,10.16,9.7,10.08,0.010020000000000001,5410234.0,53566541.69,2026080000.0,2026080000.0,0.026916587064676617,15.4,2014-03-31 00:00:00,2014-04-28 00:00:00,81.15353637820125,4.542375725687361,-1805.804299534217,3.2009042554880582
sz002239,2014-04-28,10.98,10.98,9.98,9.98,-0.10009,9773159.0,99382697.3,2005980000.0,2005980000.0,0.0486226815920398,15.25,2014-03-31 00:00:00,2014-04-28 00:00:00,80.34844495970502,4.497312652905251,-1787.8896452884271,3.169149378713351
sz002239,2014-04-25,10.9,11.25,10.87,11.09,0.010939,13164914.0,146352869.12,2229090000.0,2229090000.0,0.06549708457711442,16.95,2013-09-30 00:00:00,2013-10-28 00:00:00,22.331188669373883,4.836686401520192,-135.11102354282295,3.427952848208014
sz002239,2014-04-24,10.93,11.0,10.73,10.97,-0.003633,5243901.0,56752408.83,2204970000.0,2204970000.0,0.02608905970149254,16.76,2013-09-30 00:00:00,2013-10-28 00:00:00,22.089551070216782,4.784350392575805,-133.64903673003312,3.3908602281720395
sz002239,2014-04-23,10.98,11.2,10.92,11.01,-0.001813,10452241.0,115623465.89,2213010000.0,2213010000.0,0.05200119900497512,16.83,2013-09-30 00:00:00,2013-10-28 00:00:00,22.17009502544422,4.801795314955036,-134.13635410449473,3.403224141478029
sz002239,2014-04-22,10.68,11.05,10.68,11.03,0.024141,8998531.0,98024252.82,2217030000.0,2217030000.0,0.04476881094527363,16.86,2013-09-30 00:00:00,2013-10-28 00:00:00,22.210362412498075,4.810516781880585,-134.37998501733114,3.4094053934563653
sz002239,2014-04-21,10.58,10.83,10.48,10.77,0.011268,6631821.0,70708765.21,2164770000.0,2164770000.0,0.03299413432835821,16.46,2013-09-30 00:00:00,2013-10-28 00:00:00,21.686820869878346,4.6971235229139205,-131.21238678788484,3.329039061473338
sz002239,2014-04-18,10.58,10.66,10.58,10.65,-0.0018739999999999998,2130579.0,22641302.61,2140650000.0,2140650000.0,0.01059989552238806,16.28,2013-09-30 00:00:00,2013-10-28 00:00:00,21.445176619727256,4.644786073438416,-129.75035973439762,3.2919454204754204
sz002239,2014-04-17,10.63,10.69,10.59,10.67,0.0018780000000000001,2737807.0,29133790.2,2144670000.0,2144670000.0,0.013620930348258706,16.31,2013-09-30 00:00:00,2013-10-28 00:00:00,21.485440334914887,4.653506745078693,-129.99396843123776,3.298126108803318
sz002239,2014-04-16,10.58,10.72,10.5,10.65,0.0066159999999999995,2805389.0,29769051.25,2140650000.0,2140650000.0,0.013957159203980099,16.28,2013-09-30 00:00:00,2013-10-28 00:00:00,21.44516631257986,4.644783841025248,-129.75029737277168,3.2919438382750372
sz002239,2014-04-15,10.73,10.73,10.53,10.58,-0.015813999999999998,4017052.0,42662491.89,2126580000.0,2126580000.0,0.019985333333333334,16.17,2013-09-30 00:00:00,2013-10-28 00:00:00,21.304217608879515,4.614255923833167,-128.89751143710382,3.27030748396115
sz002239,2014-04-14,10.71,10.78,10.62,10.75,-0.014665000000000001,4901157.0,52386538.99,2160750000.0,2160750000.0,0.024383865671641792,16.43,2013-09-30 00:00:00,2013-10-28 00:00:00,21.64653592804563,4.688398253819062,-130.96864966287248,3.3228551147457397
sz002239,2014-04-11,10.86,11.05,10.82,10.91,0.006458,3723364.0,40689309.17,2192910000.0,2192910000.0,0.018524199004975126,16.67,2013-09-30 00:00:00,2013-10-28 00:00:00,21.968707016441748,4.758176918326318,-132.91789052745767,3.372310041504402
sz002239,2014-04-10,10.9,10.95,10.78,10.84,-0.001842,3745414.0,40751047.97,2178840000.0,2178840000.0,0.01863390049751244,16.57,2013-09-30 00:00:00,2013-10-28 00:00:00,21.827743449246512,4.727645781867021,-132.06501466276552,3.3506714055672484
sz002239,2014-04-09,10.65,10.87,10.65,10.86,0.014953,3612614.0,38988385.9,2182860000.0,2182860000.0,0.0179732039800995,16.6,2013-09-30 00:00:00,2013-10-28 00:00:00,21.868024350099397,4.736370175730716,-132.30872733852308,3.356854731983562
sz002239,2014-04-08,10.53,10.72,10.45,10.7,0.011342,2797090.0,29748392.93,2150700000.0,2150700000.0,0.013915870646766169,16.35,2013-09-30 00:00:00,2013-10-28 00:00:00,21.54584926602453,4.666590645804009,-130.35946229876956,3.307399191867566
sz002239,2014-04-04,10.42,10.6,10.41,10.58,0.011472,2447874.0,25710560.18,2126580000.0,2126580000.0,0.012178477611940299,16.17,2013-09-30 00:00:00,2013-10-28 00:00:00,21.304216838640667,4.614255757008024,-128.8975067769059,3.2703073657255075
sz002239,2014-04-03,10.4,10.58,10.37,10.46,0.0077069999999999994,2409617.0,25224071.45,2102460000.0,2102460000.0,0.011988144278606967,15.98,2013-09-30 00:00:00,2013-10-28 00:00:00,21.06258684238483,4.561921394767254,-127.43556596416502,3.233215912774163
sz002239,2014-04-02,10.5,10.55,10.36,10.38,-0.013308,2654692.0,27659323.74,2086380000.0,2086380000.0,0.013207422885572142,15.86,2013-09-30 00:00:00,2013-10-28 00:00:00,20.901498989671435,4.527031562514952,-126.46093156459668,3.208488095025799
sz002239,2014-04-01,10.15,10.57,10.15,10.52,0.029354,3775802.0,39340225.5,2114520000.0,2114520000.0,0.018785084577114426,16.08,2013-09-30 00:00:00,2013-10-28 00:00:00,21.183407780413173,4.588089862403822,-128.1665723088833,3.251762551055242
sz002239,2014-03-31,10.4,10.52,10.15,10.22,-0.019194,4058837.0,41713495.06,2054220000.0,2054220000.0,0.020193218905472637,15.62,2013-09-30 00:00:00,2013-10-28 00:00:00,20.579322352089925,4.457251696116032,-124.5116571256179,3.1590323164385063
sz002239,2014-03-28,10.85,11.15,10.37,10.42,-0.039631,6801402.0,72745365.91,2094420000.0,2094420000.0,0.03383782089552239,15.92,2013-09-30 00:00:00,2013-10-28 00:00:00,20.98205185540252,4.544478414809893,-126.948302850531,3.22085337614014
sz002239,2014-03-27,11.16,11.17,10.8,10.85,-0.027777999999999997,6438947.0,70733713.55,2180850000.0,2180850000.0,0.032034562189054726,16.58,2013-09-30 00:00:00,2013-10-28 00:00:00,21.847906227088252,4.732012814668,-132.1870060888377,3.3537664961490212
sz002239,2014-03-26,10.97,11.22,10.97,11.16,0.014544999999999999,6290518.0,70029309.16,2243160000.0,2243160000.0,0.031296109452736316,17.05,2013-09-30 00:00:00,2013-10-28 00:00:00,22.47213725577929,4.867214293307495,-135.96380876881793,3.449589184516521
sz002239,2014-03-25,10.99,11.07,10.9,11.0,0.00365,3715530.0,40842780.96,2211000000.0,2211000000.0,0.018485223880597014,16.81,2013-09-30 00:00:00,2013-10-28 00:00:00,22.149966000304854,4.79743559261294,-134.01456689335407,3.400134232110474
sz002239,2014-03-24,10.88,11.09,10.86,10.96,0.0,3967333.0,43623409.47,2202960000.0,2202960000.0,0.019737975124378113,16.75,2013-09-30 00:00:00,2013-10-28 00:00:00,22.069412644153697,4.779988634098481,-133.52719264021732,3.387768875714118
sz002239,2014-03-21,10.73,10.99,10.65,10.96,0.015755,4459702.0,48232606.2,2202960000.0,2202960000.0,0.022187572139303485,16.75,2013-09-30 00:00:00,2013-10-28 00:00:00,22.069412644153697,4.779988634098481,-133.52719264021732,3.387768875714118
sz002239,2014-03-20,11.1,11.2,10.79,10.79,-0.032287,5459318.0,60068435.45,2168790000.0,2168790000.0,0.02716078606965174,16.49,2013-09-30 00:00:00,2013-10-28 00:00:00,21.72710214978385,4.7058479988761865,-131.4561017570352,3.3352224460761875
sz002239,2014-03-19,11.23,11.23,10.97,11.15,-0.004464,5175368.0,57406881.63,2241150000.0,2241150000.0,0.025748099502487562,17.04,2013-09-30 00:00:00,2013-10-28 00:00:00,22.452010203215053,4.862854998203172,-135.84203349240448,3.4464995779494414
sz002239,2014-03-18,11.28,11.37,11.16,11.2,-0.000892,6385183.0,71920539.93,2251200000.0,2251200000.0,0.03176707960199005,17.12,2013-09-30 00:00:00,2013-10-28 00:00:00,22.552685390799585,4.884660120983241,-136.45115143239872,3.4619537394423117
sz002239,2014-03-17,11.02,11.24,10.9,11.21,0.019091,5035495.0,56177089.82,2253210000.0,2253210000.0,0.025052213930348264,17.13,2013-09-30 00:00:00,2013-10-28 00:00:00,22.572820346548703,4.889021127829265,-136.5729745256756,3.465044559189108
sz002239,2014-03-14,11.02,11.21,10.95,11.0,-0.010791,3445368.0,38142559.19,2211000000.0,2211000000.0,0.017141134328358208,16.81,2013-09-30 00:00:00,2013-10-28 00:00:00,22.14995554523463,4.797433328161337,-134.01450363674647,3.4001326272031727
sz002239,2014-03-13,11.22,11.29,10.92,11.12,-0.018535,7364899.0,81683156.76,2235120000.0,2235120000.0,0.03664128855721393,16.99,2013-09-30 00:00:00,2013-10-28 00:00:00,22.39158311866818,4.849767165645821,-135.47642979061703,3.4372237082387773
sz002239,2014-03-12,10.83,11.46,10.63,11.33,0.036597000000000005,9465235.0,104827752.81,2277330000.0,2277330000.0,0.04709072139303483,17.31,2013-09-30 00:00:00,2013-10-28 00:00:00,22.814448929577907,4.941355183980908,-138.03490678793133,3.5021357952028622
sz002239,2014-03-11,10.58,10.97,10.55,10.93,0.029189999999999997,6065476.0,65422664.77,2196930000.0,2196930000.0,0.03017649751243781,16.7,2013-09-30 00:00:00,2013-10-28 00:00:00,22.008986066502125,4.7669009113289995,-133.16159200531288,3.3784930838145026
sz002239,2014-03-10,11.18,11.18,10.56,10.62,-0.050089,7290418.0,79140683.7,2134620000.0,2134620000.0,0.03627073631840796,16.23,2013-09-30 00:00:00,2013-10-28 00:00:00,21.384764782500923,4.631701543280638,-129.38484828390568,3.282671891307244
sz002239,2014-03-07,11.37,11.49,11.09,11.18,-0.015844999999999998,8157005.0,91800330.9,2247180000.0,2247180000.0,0.040582114427860694,17.09,2013-09-30 00:00:00,2013-10-28 00:00:00,22.512387773697668,4.875932106566445,-136.20733761784598,3.455767846995397
sz002239,2014-03-06,11.0,11.5,10.83,11.36,0.034608,12800703.0,143150877.35,2283360000.0,2283360000.0,0.06368508955223881,17.36,2013-09-30 00:00:00,2013-10-28 00:00:00,22.87483960727494,4.954435131220636,-138.40029021632364,3.511406076273958
sz002239,2014-03-05,10.75,11.17,10.63,10.98,0.024253999999999998,12048835.0,131868136.24,2206980000.0,2206980000.0,0.05994445273631841,16.78,2013-09-30 00:00:00,2013-10-28 00:00:00,22.109668209867838,4.788707540653694,-133.7707520300671,3.3939483130557258
sz002239,2014-03-04,10.8,10.8,10.56,10.72,-0.009242,8817456.0,94221516.84,2154720000.0,2154720000.0,0.04386794029850746,16.38,2013-09-30 00:00:00,2013-10-28 00:00:00,21.586118491963745,4.675312511011618,-130.60310433746616,3.3135807261243064
sz002239,2014-03-03,10.62,10.9,10.55,10.82,0.013109,11315783.0,121721372.95,2174820000.0,2174820000.0,0.05629742786069652,16.54,2013-09-30 00:00:00,2013-10-28 00:00:00,21.787478367031856,4.718924814143936,-131.82139769496303,3.3444905073936386
sz002239,2014-02-28,11.05,11.1,10.5,10.68,-0.078516,19498568.0,210173734.84,2146680000.0,2146680000.0,0.09700780099502487,16.32,2013-09-30 00:00:00,2013-10-28 00:00:00,21.505561955359052,4.657864863646395,-130.11571084154124,3.3012148815118993
sz002239,2014-02-27,11.8,12.17,11.59,11.59,-0.100155,36037252.0,421453566.55,2329590000.0,2329590000.0,0.17928981094527363,17.71,2013-09-30 00:00:00,2013-10-28 00:00:00,23.337965667726248,5.054743070575719,-141.20235494218159,3.5824983195713647
sz002239,2014-02-07,12.7,12.9,12.43,12.88,0.0,7181291.0,91007743.06,2588880000.0,2588880000.0,0.03572781592039801,19.68,2013-09-30 00:00:00,2013-10-28 00:00:00,25.935539640411683,5.617348621791218,-156.9185303493175,3.981239346300046
sz002239,2014-01-30,12.78,13.01,12.71,12.88,-0.009992000000000001,6075956.0,78162798.35,2588880000.0,2588880000.0,0.030228636815920397,19.68,2013-09-30 00:00:00,2013-10-28 00:00:00,25.935539640411683,5.617348621791218,-156.9185303493175,3.981239346300046
sz002239,2014-01-29,12.63,13.1,12.45,13.01,0.042468,10377318.0,133112058.65,2615010000.0,2615010000.0,0.05162844776119403,19.88,2013-09-30 00:00:00,2013-10-28 00:00:00,26.197303092916098,5.674043666102919,-158.50228518286468,4.021421388817107
sz002239,2014-01-28,12.73,12.84,12.35,12.48,-0.018096,5498929.0,68877500.46,2508480000.0,2508480000.0,0.027357855721393036,19.07,2013-09-30 00:00:00,2013-10-28 00:00:00,25.13007890210165,5.442894809339873,-152.04522842222946,3.8575969610742074
sz002239,2014-01-27,12.61,12.95,12.51,12.71,0.000787,8164330.0,104074327.62,2554710000.0,2554710000.0,0.040618557213930345,19.42,2013-09-30 00:00:00,2013-10-28 00:00:00,25.593213697165552,5.543204640514626,-154.8473459953615,3.92869054517978
sz002239,2014-01-24,12.8,12.86,12.55,12.7,-0.000787,12632484.0,160128741.01,2552700000.0,2552700000.0,0.06284817910447761,19.41,2013-09-30 00:00:00,2013-10-28 00:00:00,25.573087677163628,5.538845569051782,-154.72557696628903,3.9256010971163495
sz002239,2014-01-23,12.56,13.06,12.5,12.71,0.006334,11932881.0,152984142.21,2554710000.0,2554710000.0,0.059367567164179104,19.42,2013-09-30 00:00:00,2013-10-28 00:00:00,25.59322954881855,5.543208073805867,-154.84744190306674,3.928692978490422
sz002239,2014-01-22,12.52,12.84,12.44,12.63,0.005573,8677222.0,109780944.67,2538630000.0,2538630000.0,0.04317025870646766,19.3,2013-09-30 00:00:00,2013-10-28 00:00:00,25.432142359115904,5.5083183851543,-153.87281151493116,3.9039652625176346
sz002239,2014-01-21,12.28,12.56,12.15,12.56,0.02447,6871688.0,85150844.93,2524560000.0,2524560000.0,0.03418750248756219,19.19,2013-09-30 00:00:00,2013-10-28 00:00:00,25.291194531989127,5.477790657818278,-153.0200308828212,3.8823290427623203
sz002239,2014-01-20,12.21,12.4,12.13,12.26,-0.002441,3819135.0,46816667.05,2464260000.0,2464260000.0,0.019000671641791044,18.74,2013-09-30 00:00:00,2013-10-28 00:00:00,24.68710116644619,5.3469507724172285,-149.36506767677062,3.7895975897413496
sz002239,2014-01-17,12.2,12.38,12.11,12.29,-0.0064670000000000005,6133038.0,75154586.41,2470290000.0,2470290000.0,0.030512626865671643,18.78,2013-09-30 00:00:00,2013-10-28 00:00:00,24.747509837960653,5.360034616917123,-149.73055997366635,3.798870632956396
sz002239,2014-01-16,12.08,12.43,12.08,12.37,0.018946,9943601.0,121885548.26,2486370000.0,2486370000.0,0.04947065174129353,18.9,2013-09-30 00:00:00,2013-10-28 00:00:00,24.908593713505894,5.394923587759162,-150.7051703100615,3.8235978401888975
sz002239,2014-01-15,12.0,12.16,11.97,12.14,0.0058,11175209.0,135071091.42,2440140000.0,2440140000.0,0.05559805472636816,18.55,2013-09-30 00:00:00,2013-10-28 00:00:00,24.445450213756075,5.294611871246525,-147.90300007072162,3.752502919869059
sz002239,2014-01-14,11.82,12.08,11.73,12.07,0.024618,11870408.0,141071237.98,2426070000.0,2426070000.0,0.05905675621890547,18.45,2013-09-30 00:00:00,2013-10-28 00:00:00,24.304484205364957,5.2640802060514265,-147.05010943599285,3.7308639091957234
sz002239,2014-01-13,11.51,11.89,11.4,11.78,0.013769,10823037.0,126608238.39,2367780000.0,2367780000.0,0.053845955223880596,18.0,2013-09-30 00:00:00,2013-10-28 00:00:00,23.72053214501888,5.137602702715965,-143.51700773946274,3.6412242505945853
sz002239,2014-01-10,11.47,11.69,11.36,11.62,0.0043219999999999995,7498770.0,86461597.31,2335620000.0,2335620000.0,0.03730731343283582,17.76,2013-09-30 00:00:00,2013-10-28 00:00:00,23.39836012446512,5.067823836313761,-141.5677612350178,3.5917691807449095
sz002239,2014-01-09,12.16,12.32,11.57,11.57,-0.061638,12722597.0,152896954.72,2325570000.0,2325570000.0,0.06329650248756219,17.68,2013-09-30 00:00:00,2013-10-28 00:00:00,23.29766760507599,5.04601495965812,-140.9585384319151,3.576312358730477
sz002239,2014-01-08,12.33,12.58,11.94,12.33,0.0032549999999999996,16341279.0,200257394.3,2478330000.0,2478330000.0,0.08129989552238806,18.84,2013-09-30 00:00:00,2013-10-28 00:00:00,24.828016911464857,5.377471551126452,-150.21765420159286,3.811228884727298
sz002239,2014-01-07,12.5,12.79,12.18,12.29,-0.030757,13385911.0,166084953.42,2470290000.0,2470290000.0,0.06659657213930348,18.78,2013-09-30 00:00:00,2013-10-28 00:00:00,24.74746391641692,5.360024670822923,-149.73028213324915,3.798863583762152
sz002239,2014-01-06,13.42,13.87,12.45,12.68,-0.07445299999999999,24647176.0,324368016.03,2548680000.0,2548680000.0,0.12262276616915423,19.38,2013-09-30 00:00:00,2013-10-28 00:00:00,25.532775492231483,5.530114399405435,-154.4816750115803,3.9194129684322214
sz002239,2014-01-03,13.89,14.19,13.01,13.7,0.062015999999999995,46585388.0,639387301.37,2753700000.0,2753700000.0,0.23176809950248756,20.94,2013-09-30 00:00:00,2013-10-28 00:00:00,27.58668710744185,5.974968747568125,-166.90851465304334,4.234699014131342
sz002239,2014-01-02,12.4,13.09,12.31,12.9,0.02707,12595369.0,161787843.95,2592900000.0,2592900000.0,0.06266352736318408,19.71,2013-09-30 00:00:00,2013-10-28 00:00:00,25.975773535843008,5.626062834804866,-157.16195862684114,3.9874154571412688
sz002239,2013-12-31,12.63,12.83,12.36,12.56,-0.029366000000000003,9426610.0,118464152.71,2524560000.0,2524560000.0,0.046898557213930346,19.19,2013-09-30 00:00:00,2013-10-28 00:00:00,25.291142313418764,5.477779347858341,-153.01971494332534,3.8823210269419506
sz002239,2013-12-30,12.44,13.1,12.28,12.94,0.045233999999999996,12254342.0,157366314.91,2600940000.0,2600940000.0,0.06096687562189055,19.77,2013-09-30 00:00:00,2013-10-28 00:00:00,26.056311970751864,5.643506561544662,-157.64924260156283,3.999778523049832
sz002239,2013-12-27,12.1,12.87,11.88,12.38,0.02314,13776033.0,171793529.61,2488380000.0,2488380000.0,0.0685374776119403,18.92,2013-09-30 00:00:00,2013-10-28 00:00:00,24.92868771083974,5.399275723469254,-150.82674559147793,3.826682372607313
sz002239,2013-12-26,11.6,12.29,11.6,12.1,0.044003,11631591.0,140186607.36,2432100000.0,2432100000.0,0.057868611940298506,18.49,2013-09-30 00:00:00,2013-10-28 00:00:00,24.364884288406024,5.277162190383773,-147.41554976980467,3.7401356340357266
sz002239,2013-12-25,11.7,11.79,11.3,11.59,-0.012777,7379166.0,85271352.05,2329590000.0,2329590000.0,0.03671226865671642,17.71,2013-09-30 00:00:00,2013-10-28 00:00:00,23.33794470744435,5.0547385308124335,-141.20222812559413,3.5824951020597893
sz002239,2013-12-24,11.77,11.9,11.6,11.74,-0.003396,5728087.0,67259242.73,2359740000.0,2359740000.0,0.02849794527363184,17.94,2013-09-30 00:00:00,2013-10-28 00:00:00,23.6399928966853,5.120158799797446,-143.0297188432544,3.628861059821124
sz002239,2013-12-23,11.23,11.99,11.18,11.78,0.054611,8654153.0,100901614.66,2367780000.0,2367780000.0,0.043055487562189056,18.0,2013-09-30 00:00:00,2013-10-28 00:00:00,23.720547877276527,5.137606110147506,-143.51710292478697,3.641226665577425
sz002239,2013-12-20,11.36,11.49,10.95,11.17,-0.020175,4831876.0,54096836.64,2245170000.0,2245170000.0,0.02403918407960199,17.07,2013-09-30 00:00:00,2013-10-28 00:00:00,22.492224978951036,4.8715650701040545,-136.08534608949364,3.4526727538186357
sz002239,2013-12-19,11.75,11.76,11.36,11.4,-0.033079000000000004,6757501.0,78006518.33,2291400000.0,2291400000.0,0.03361940796019901,17.42,2013-09-30 00:00:00,2013-10-28 00:00:00,22.955349148012182,4.971872599805123,-138.88739937182012,3.5237647067778797
sz002239,2013-12-18,11.31,11.8,11.2,11.79,0.044287,13537553.0,156655674.83,2369790000.0,2369790000.0,0.06735100995024876,18.02,2013-09-30 00:00:00,2013-10-28 00:00:00,23.740666660474,5.141963614199219,-143.6388281688164,3.644315002753978
sz002239,2013-12-17,10.74,11.53,10.73,11.29,0.05219,11347765.0,126570343.9,2269290000.0,2269290000.0,0.056456542288557204,17.25,2013-09-30 00:00:00,2013-10-28 00:00:00,22.7338525333304,4.923898903461614,-137.54727212808012,3.4897638319293245
sz002239,2013-12-16,10.97,11.0,10.71,10.73,-0.010148,4309258.0,46697101.34,2156730000.0,2156730000.0,0.021439094527363183,16.4,2013-09-30 00:00:00,2013-10-28 00:00:00,21.606223717513377,4.679667078628018,-130.7247475532747,3.3166669821318626
sz002239,2013-12-13,10.58,10.87,10.48,10.84,0.020716,5451302.0,58594924.98,2178840000.0,2178840000.0,0.027120905472636816,16.57,2013-09-30 00:00:00,2013-10-28 00:00:00,21.827731537152403,4.727643201840294,-132.06494259068498,3.350669576999251
sz002239,2013-12-12,10.54,10.71,10.51,10.62,0.012393000000000001,4688057.0,49789958.03,2134620000.0,2134620000.0,0.023323666666666666,16.23,2013-09-30 00:00:00,2013-10-28 00:00:00,21.384725562401687,4.631693048644573,-129.384610989428,3.2826658708193572
sz002239,2013-12-11,10.57,10.75,10.33,10.49,-0.008506999999999999,5420856.0,57242596.16,2108490000.0,2108490000.0,0.026969432835820897,16.03,2013-09-30 00:00:00,2013-10-28 00:00:00,21.12294885721423,4.574995133949536,-127.80077597279713,3.2424817939469723
sz002239,2013-12-10,10.51,10.7,10.51,10.58,0.003795,6086678.0,64539930.79,2126580000.0,2126580000.0,0.030281980099502486,16.17,2013-09-30 00:00:00,2013-10-28 00:00:00,21.304183546645543,4.614248546333192,-128.8973053494045,3.2703022552322327
sz002239,2013-12-09,10.33,10.54,10.28,10.54,0.023301,5421815.0,56375521.56,2118540000.0,2118540000.0,0.026974203980099497,16.11,2013-09-30 00:00:00,2013-10-28 00:00:00,21.223639833477495,4.596803676381326,-128.40998943948168,3.2579383790836105
sz002239,2013-12-06,10.5,10.5,10.22,10.3,-0.016237,5576520.0,57628389.63,2070300000.0,2070300000.0,0.027743880597014926,15.74,2013-09-30 00:00:00,2013-10-28 00:00:00,20.740368506898257,4.492132497067163,-125.48603923916976,3.1837537333429853
sz002239,2013-12-05,10.61,10.66,10.36,10.47,-0.016901,5891927.0,61726668.51,2104470000.0,2104470000.0,0.029313069651741294,16.0,2013-09-30 00:00:00,2013-10-28 00:00:00,21.082688113802067,4.56627510596268,-127.5571852561743,3.2363015618019646
sz002239,2013-12-04,10.31,10.65,10.26,10.65,0.025024,6429189.0,67699413.24,2140650000.0,2140650000.0,0.03198601492537313,16.28,2013-09-30 00:00:00,2013-10-28 00:00:00,21.445132294715048,4.644776473135137,-129.75009155352035,3.2919386163570143
sz002239,2013-12-03,10.2,10.41,10.02,10.39,0.013659000000000001,5721168.0,58804629.3,2088390000.0,2088390000.0,0.0284635223880597,15.88,2013-09-30 00:00:00,2013-10-28 00:00:00,20.92159041614152,4.5313831414046275,-126.58249129144326,3.2115722328033436
sz002239,2013-12-02,11.0,11.0,10.18,10.25,-0.093722,9713776.0,102501259.04,2060250000.0,2060250000.0,0.04832724378109453,15.66,2013-09-30 00:00:00,2013-10-28 00:00:00,20.639673120982025,4.470322999553723,-124.87679909263692,3.1682964713018316
sz002239,2013-11-29,11.36,11.5,11.22,11.31,-0.0052770000000000004,7493250.0,84881748.52,2273310000.0,2273310000.0,0.037279850746268654,17.28,2013-09-30 00:00:00,2013-10-28 00:00:00,22.77410807829609,4.932617805522944,-137.79083139239498,3.4959432660859378
sz002239,2013-11-28,11.55,11.56,11.23,11.37,-0.015584,10670541.0,121007950.29,2285370000.0,2285370000.0,0.05308726865671642,17.38,2013-09-30 00:00:00,2013-10-28 00:00:00,22.89492459538594,4.958785315633542,-138.52181098898382,3.5144892257301157
sz002239,2013-11-27,11.34,11.87,11.31,11.55,0.02122,8671654.0,100961757.21,2321550000.0,2321550000.0,0.04314255721393035,17.65,2013-09-30 00:00:00,2013-10-28 00:00:00,23.257367409089188,5.03728638668362,-140.7147090142621,3.570126070411407
sz002239,2013-11-26,10.95,11.37,10.91,11.31,0.030994,6845887.0,76936895.37,2273310000.0,2273310000.0,0.03405913930348259,17.28,2013-09-30 00:00:00,2013-10-28 00:00:00,22.774100986162814,4.932616269445976,-137.79078848266005,3.495942177406834
sz002239,2013-11-25,10.91,11.1,10.88,10.97,-0.007240000000000001,3659619.0,40239945.77,2204970000.0,2204970000.0,0.01820705970149254,16.76,2013-09-30 00:00:00,2013-10-28 00:00:00,22.08946025501876,4.784330723016794,-133.64848726826736,3.3908462875698926
sz002239,2013-11-22,11.23,11.26,11.0,11.05,-0.012511,5648790.0,62780332.74,2221050000.0,2221050000.0,0.028103432835820896,16.89,2013-09-30 00:00:00,2013-10-28 00:00:00,22.250554267918492,4.819221889496751,-134.62315893898563,3.415575050938689
sz002239,2013-11-21,11.26,11.26,10.93,11.19,-0.009734999999999999,6661888.0,73758044.07,2249190000.0,2249190000.0,0.03314372139303483,17.1,2013-09-30 00:00:00,2013-10-28 00:00:00,22.532457848055515,4.880279060826753,-136.3287681574029,3.4588487071133844
sz002239,2013-11-20,11.13,11.34,11.12,11.3,0.010733,4597058.0,51634144.69,2271300000.0,2271300000.0,0.022870935323383086,17.27,2013-09-30 00:00:00,2013-10-28 00:00:00,22.75396772384717,4.928255629378756,-137.66897563521167,3.492851617610826
sz002239,2013-11-19,11.26,11.28,11.02,11.18,-0.006222,4390292.0,48958938.33,2247180000.0,2247180000.0,0.021842248756218905,17.09,2013-09-30 00:00:00,2013-10-28 00:00:00,22.51234274912085,4.875922354745275,-136.20706520437312,3.455760935490209
sz002239,2013-11-18,11.0,11.34,10.95,11.25,0.017179,6095208.0,67919327.86,2261250000.0,2261250000.0,0.03032441791044776,17.19,2013-09-30 00:00:00,2013-10-28 00:00:00,22.65329152901438,4.906450288439948,-137.05985160103478,3.477397301500143
sz002239,2013-11-15,10.8,11.16,10.7,11.06,0.007286,6705156.0,73624124.36,2223060000.0,2223060000.0,0.03335898507462687,16.9,2013-09-30 00:00:00,2013-10-28 00:00:00,22.27070312011394,4.823585906158058,-134.74506611032547,3.4186680038618005
sz002239,2013-11-14,11.8,11.96,10.94,10.98,-0.096296,10318943.0,114888645.93,2206980000.0,2206980000.0,0.05133802487562189,16.78,2013-09-30 00:00:00,2013-10-28 00:00:00,22.10961248355873,4.788695470956668,-133.77041486760015,3.393939758779335
sz002239,2013-11-13,12.21,12.4,12.13,12.15,-0.020161000000000002,3401192.0,41645743.97,2442150000.0,2442150000.0,0.016921353233830847,18.57,2013-09-30 00:00:00,2013-10-28 00:00:00,24.46554677588982,5.29896456246367,-148.02459087001958,3.7555878459975114
sz002239,2013-11-12,11.75,12.44,11.71,12.4,0.048183,7121348.0,87183572.56,2492400000.0,2492400000.0,0.03542959203980099,18.95,2013-09-30 00:00:00,2013-10-28 00:00:00,24.9689456899448,5.407995152738022,-151.07031958313516,3.8328621804168965
sz002239,2013-11-11,12.07,12.12,11.71,11.83,-0.019884,3342029.0,39717314.66,2377830000.0,2377830000.0,0.016627009950248756,18.08,2013-09-30 00:00:00,2013-10-28 00:00:00,23.82117024407455,5.159399792534339,-144.12590128167994,3.656672718806636
sz002239,2013-11-08,11.65,12.1,11.65,12.07,0.020287,3919076.0,46786086.33,2426070000.0,2426070000.0,0.019497890547263683,18.45,2013-09-30 00:00:00,2013-10-28 00:00:00,24.304439723537367,5.2640705717836855,-147.04984030633105,3.7308570810053463
sz002239,2013-11-07,11.96,12.2,11.57,11.83,-0.016625,4803699.0,57320581.46,2377830000.0,2377830000.0,0.023899,18.08,2013-09-30 00:00:00,2013-10-28 00:00:00,23.821179455915217,5.159401787716286,-144.12595701634055,3.656674132871777
sz002239,2013-11-06,12.13,12.3,11.96,12.03,-0.024331000000000002,5622381.0,68143474.07,2418030000.0,2418030000.0,0.027972044776119403,18.38,2013-09-30 00:00:00,2013-10-28 00:00:00,24.22390182373481,5.246626960941946,-146.56255956917815,3.7184940972383647
sz002239,2013-11-05,12.07,12.45,11.86,12.33,0.031799,5503770.0,66953324.36,2478330000.0,2478330000.0,0.027381940298507462,18.84,2013-09-30 00:00:00,2013-10-28 00:00:00,24.82799168953283,5.37746608833728,-150.21750160062288,3.8112250130304073
sz002239,2013-11-04,12.01,12.24,11.76,11.95,-0.036289999999999996,5049647.0,60315305.49,2401950000.0,2401950000.0,0.025122621890547262,18.26,2013-09-30 00:00:00,2013-10-28 00:00:00,24.06281813563769,5.21173803069908,-145.58795036690566,3.6937669187801188
sz002239,2013-11-01,13.01,13.01,11.98,12.4,-0.06837,12118676.0,147519309.58,2492400000.0,2492400000.0,0.06029192039800995,18.95,2013-09-30 00:00:00,2013-10-28 00:00:00,24.968941004698188,5.407994137965861,-151.07029123585482,3.8328614612073326
sz002239,2013-10-31,13.47,14.06,13.18,13.31,-0.029883,9499670.0,129495100.89,2675310000.0,2675310000.0,0.047262039800995026,20.34,2013-09-30 00:00:00,2013-10-28 00:00:00,26.801349253135033,5.804873327357279,-162.1569627812059,4.114145595576928
sz002239,2013-10-30,12.96,13.88,12.58,13.72,0.04893,12715594.0,169548072.19,2757720000.0,2757720000.0,0.06326166169154229,20.97,2013-09-30 00:00:00,2013-10-28 00:00:00,27.626924642218444,5.983683748823368,-167.1519649498008,4.240875683630869
sz002239,2013-10-29,13.16,13.43,12.35,13.08,-0.006834000000000001,12276806.0,158341930.6,2629080000.0,2629080000.0,0.0610786368159204,19.99,2013-09-30 00:00:00,2013-10-28 00:00:00,26.338196678728274,5.704559645375161,-159.35473763721203,4.043049282250359
sz002239,2013-10-28,13.43,13.84,12.76,13.17,-0.018629,7828491.0,103712608.86,2647170000.0,2647170000.0,0.03894771641791045,20.13,2013-09-30 00:00:00,2013-10-28 00:00:00,26.519430466536583,5.7438128624773315,-160.4512615587042,4.07086960513183
sz002239,2013-10-25,13.7,13.91,13.2,13.42,-0.028944,8493560.0,115476438.21,2697420000.0,2697420000.0,0.042256517412935325,20.51,2013-06-30 00:00:00,2013-08-27 00:00:00,28.560018492192903,5.903468211437527,220.57416625667813,4.193133812750781
sz002239,2013-10-24,13.0,14.26,12.8,13.82,0.04697,14078765.0,191803579.04,2777820000.0,2777820000.0,0.07004360696517413,21.12,2013-06-30 00:00:00,2013-08-27 00:00:00,29.41129913433716,6.079431270119877,227.14875996510824,4.318117402859136
sz002239,2013-10-23,12.37,13.88,11.4,13.2,0.043477999999999996,17821629.0,225678780.03,2653200000.0,2653200000.0,0.08866482089552238,20.17,2013-06-30 00:00:00,2013-08-27 00:00:00,28.091826064106098,5.806690994125789,216.95823181667885,4.124394589013187
sz002239,2013-10-22,12.65,12.65,12.4,12.65,0.1,13731213.0,173584531.61,2542650000.0,2542650000.0,0.06831449253731343,19.33,2013-06-30 00:00:00,2013-08-27 00:00:00,26.92134004177002,5.564746927223946,207.91835747057326,3.9525458026074216
sz002239,2013-10-18,11.06,11.5,10.71,11.5,0.035104,9868697.0,110462833.59,2311500000.0,2311500000.0,0.04909799502487562,17.57,2013-06-30 00:00:00,2013-08-27 00:00:00,24.4739454925182,5.05886084293086,189.01668860961203,3.5932234569158377
sz002239,2013-10-17,10.98,11.52,10.91,11.11,0.027752,8466922.0,94829392.09,2233110000.0,2233110000.0,0.042123990049751245,16.98,2013-06-30 00:00:00,2013-08-27 00:00:00,23.643948330330286,4.887297163310025,182.60647104987714,3.4713646714879256
sz002239,2013-10-16,10.92,10.99,10.67,10.81,-0.009165999999999999,6100485.0,65807080.31,2172810000.0,2172810000.0,0.030350671641791043,16.52,2013-06-30 00:00:00,2013-08-27 00:00:00,23.00549970258417,4.7553273195382015,177.6756173180662,3.3776287192707244
sz002239,2013-10-15,10.46,11.1,10.46,10.91,0.043021,8997109.0,96799567.28,2192910000.0,2192910000.0,0.04476173631840796,16.67,2013-06-30 00:00:00,2013-08-27 00:00:00,23.2183188128225,4.799317867108114,179.31925763353516,3.408874462594869
sz002239,2013-10-14,10.09,10.96,10.09,10.46,0.046,10113310.0,106954581.92,2102460000.0,2102460000.0,0.05031497512437812,15.98,2013-06-30 00:00:00,2013-08-27 00:00:00,22.260643661846217,4.601362644767568,171.92295997255584,3.268270209894977
sz002239,2013-10-11,9.91,10.05,9.85,10.0,0.014199000000000002,3433552.0,34254403.86,2010000000.0,2010000000.0,0.017082348258706467,15.28,2013-06-30 00:00:00,2013-08-27 00:00:00,21.281686101191408,4.399008264596145,164.36229442882967,3.12454130965103
sz002239,2013-10-10,9.82,9.97,9.75,9.86,0.004072999999999999,3085041.0,30502229.28,1981860000.0,1981860000.0,0.015348462686567164,15.07,2013-06-30 00:00:00,2013-08-27 00:00:00,20.983738005254796,4.337421220683658,162.0611876257319,3.0807970720253417
sz002239,2013-10-09,9.74,9.83,9.66,9.82,0.0071790000000000005,1846058.0,18022070.36,1973820000.0,1973820000.0,0.00918436815920398,15.01,2013-06-30 00:00:00,2013-08-27 00:00:00,20.89861793440795,4.319826567075958,161.40378998910626,3.0682998865872717
sz002239,2013-10-08,9.66,9.83,9.66,9.75,0.009317,2254420.0,21999357.24,1959750000.0,1959750000.0,0.011216019900497512,14.9,2013-06-30 00:00:00,2013-08-27 00:00:00,20.74965615288638,4.289035580642524,160.2533313235346,3.0464295687134775
sz002239,2013-09-30,9.57,9.72,9.54,9.66,0.009404000000000001,1184122.0,11413608.82,1941660000.0,1941660000.0,0.005891154228855722,14.76,2013-06-30 00:00:00,2013-08-27 00:00:00,20.558116184396358,4.249443515409455,158.77403365199893,3.0183079931413794
sz002239,2013-09-27,9.46,9.65,9.45,9.57,0.007368,1166155.0,11157089.12,1923570000.0,1923570000.0,0.005801766169154229,14.62,2013-06-30 00:00:00,2013-08-27 00:00:00,20.366588783476548,4.209854047942603,157.2948330420713,2.9901882627187724
sz002239,2013-09-26,9.68,9.74,9.5,9.5,-0.024641,1763623.0,16923461.33,1909500000.0,1909500000.0,0.008774243781094527,14.52,2013-06-30 00:00:00,2013-08-27 00:00:00,20.217625320117914,4.1790627138668315,156.14436138736914,2.9683176979204937
sz002239,2013-09-25,9.74,9.82,9.62,9.74,-0.001026,1935849.0,18826278.23,1957740000.0,1957740000.0,0.009631089552238806,14.88,2013-06-30 00:00:00,2013-08-27 00:00:00,20.72839366850351,4.284640541448669,160.08911732743448,3.0433078465677705
sz002239,2013-09-24,9.81,9.84,9.63,9.75,-0.009146,1728347.0,16783041.41,1959750000.0,1959750000.0,0.008598741293532339,14.9,2013-06-30 00:00:00,2013-08-27 00:00:00,20.749682843100533,4.289041097614821,160.25353745686522,3.0464334873257664
sz002239,2013-09-23,9.77,9.85,9.68,9.84,0.010267,1318406.0,12907020.14,1977840000.0,1977840000.0,0.006559233830845771,15.04,2013-06-30 00:00:00,2013-08-27 00:00:00,20.941211160373307,4.328630754495436,161.7327451439518,3.074553352285772
sz002239,2013-09-18,9.65,9.8,9.51,9.74,0.019895,1267056.0,12219461.31,1957740000.0,1957740000.0,0.006303761194029851,14.88,2013-06-30 00:00:00,2013-08-27 00:00:00,20.728392751988636,4.284640352001437,160.08911024902505,3.0433077120066
sz002239,2013-09-17,9.86,9.86,9.53,9.55,-0.030456999999999998,2078996.0,20165342.92,1919550000.0,1919550000.0,0.010343263681592042,14.59,2013-06-30 00:00:00,2013-08-27 00:00:00,20.324045859611665,4.20106025816524,156.96626637940676,2.9839421822899417
sz002239,2013-09-16,9.93,9.94,9.8,9.85,-0.003036,1743218.0,17185775.78,1979850000.0,1979850000.0,0.008672726368159203,15.05,2013-06-30 00:00:00,2013-08-27 00:00:00,20.962500744795914,4.33303139537415,161.89716843853935,3.0776790532136706
sz002239,2013-09-13,9.77,9.9,9.71,9.88,0.00611,2189741.0,21504915.94,1985880000.0,1985880000.0,0.010894233830845772,15.1,2013-06-30 00:00:00,2013-08-27 00:00:00,21.0263367030263,4.3462265391470005,162.39018504032174,3.087051341085205
sz002239,2013-09-12,9.78,9.87,9.72,9.82,-0.001017,1967617.0,19319871.72,1973820000.0,1973820000.0,0.009789139303482587,15.01,2013-06-30 00:00:00,2013-08-27 00:00:00,20.898645976112252,4.3198323634065865,161.40400656023868,3.068304003623068
sz002239,2013-09-11,10.05,10.09,9.76,9.83,-0.021891,3353123.0,33011668.72,1975830000.0,1975830000.0,0.0166822039800995,15.02,2013-06-30 00:00:00,2013-08-27 00:00:00,20.91992153631469,4.324230105423803,161.5683215432482,3.071427645538581
sz002239,2013-09-10,10.1,10.13,9.97,10.05,-0.005935,2668499.0,26761405.96,2020050000.0,2020050000.0,0.013276114427860697,15.36,2013-06-30 00:00:00,2013-08-27 00:00:00,21.38812906978127,4.421010445076983,165.18437264481585,3.140169087022593
sz002239,2013-09-09,9.89,10.12,9.88,10.11,0.022244999999999997,3678448.0,36792005.46,2032110000.0,2032110000.0,0.01830073631840796,15.45,2013-06-30 00:00:00,2013-08-27 00:00:00,21.515825494088684,4.447405798491027,166.17059512689397,3.158917260966428
sz002239,2013-09-06,9.89,9.94,9.82,9.89,0.002026,1794623.0,17700757.47,1987890000.0,1987890000.0,0.008928472636815921,15.11,2013-06-30 00:00:00,2013-08-27 00:00:00,21.047621161354357,4.350626120441799,162.55456874515792,3.0901762894085354
sz002239,2013-09-05,9.95,10.0,9.83,9.87,-0.013986000000000002,2366594.0,23420344.88,1983870000.0,1983870000.0,0.01177409950248756,15.08,2013-06-30 00:00:00,2013-08-27 00:00:00,21.005064899867225,4.341829573725431,162.22589907363474,3.0839282507724706
sz002239,2013-09-04,10.11,10.11,9.92,10.01,-0.0029879999999999998,1872531.0,18713859.01,2012010000.0,2012010000.0,0.009316074626865671,15.3,2013-06-30 00:00:00,2013-08-27 00:00:00,21.303008780673732,4.4034157463539385,164.5269733225236,3.127671869539855
sz002239,2013-09-03,9.85,10.05,9.81,10.04,0.019288999999999997,2001605.0,19961068.62,2018040000.0,2018040000.0,0.00995823383084577,15.34,2013-06-30 00:00:00,2013-08-27 00:00:00,21.366852937250233,4.416612584757193,165.0200532416095,3.1370453610787585
sz002239,2013-09-02,9.72,9.92,9.7,9.85,0.009221,1677302.0,16463636.69,1979850000.0,1979850000.0,0.00834478606965174,15.05,2013-06-30 00:00:00,2013-08-27 00:00:00,20.96250713708304,4.333032716685055,161.89721780732404,3.0776799917185005
sz002239,2013-08-30,10.05,10.08,9.7,9.76,-0.032706,3761701.0,37111593.03,1961760000.0,1961760000.0,0.018714930348258708,14.92,2013-06-30 00:00:00,2013-08-27 00:00:00,20.77097794941152,4.293442879889593,160.41800339799119,3.0495599989680167
sz002239,2013-08-29,10.31,10.33,9.91,10.09,-0.021339,4732196.0,47836966.23,2028090000.0,2028090000.0,0.02354326368159204,15.42,2013-06-30 00:00:00,2013-08-27 00:00:00,21.4732831480517,4.438612128152964,165.84203292689833,3.1526712653733164
sz002239,2013-08-28,10.21,10.59,10.18,10.31,0.013766,8775320.0,91117798.61,2072310000.0,2072310000.0,0.043658308457711445,15.76,2013-06-30 00:00:00,2013-08-27 00:00:00,21.94149265992177,4.535392876749931,169.45809930803242,3.221412997323196
sz002239,2013-08-27,10.16,10.25,10.05,10.17,-0.000982,4062115.0,41172550.95,2044170000.0,2044170000.0,0.020209527363184078,15.54,2013-06-30 00:00:00,2013-08-27 00:00:00,21.64354758388205,4.4738064570620155,167.15701582814222,3.177669203073684
sz002239,2013-08-26,9.9,10.24,9.86,10.18,0.033503,3817065.0,38619993.68,2046180000.0,2046180000.0,0.01899037313432836,15.56,2013-03-31 00:00:00,2013-04-24 00:00:00,52.670656744386505,4.549727018173338,115.57473910278084,3.491158531766434
sz002239,2013-08-23,10.08,10.15,9.7,9.85,-0.018924,3045711.0,30173125.87,1979850000.0,1979850000.0,0.015152791044776119,15.05,2013-03-31 00:00:00,2013-04-24 00:00:00,50.963235466550664,4.402238811279056,111.82816024992752,3.3779858711260964
sz002239,2013-08-22,10.11,10.13,10.01,10.04,-0.006924,1771565.0,17836707.2,2018040000.0,2018040000.0,0.00881375621890547,15.34,2013-03-31 00:00:00,2013-04-24 00:00:00,51.94626661599169,4.487153708050198,113.98521648672225,3.443143926796799
sz002239,2013-08-21,9.76,10.15,9.76,10.11,0.029532,3382970.0,33911604.77,2032110000.0,2032110000.0,0.016830696517412935,15.45,2013-03-31 00:00:00,2013-04-24 00:00:00,52.308450326049254,4.518439382333476,114.77995288046661,3.4671504766974524
sz002239,2013-08-20,9.88,9.9,9.75,9.82,-0.008081,2171843.0,21373080.76,1973820000.0,1973820000.0,0.010805189054726367,15.01,2013-03-31 00:00:00,2013-04-24 00:00:00,50.80798880078449,4.388828499098111,111.48750391485318,3.3676956876497797
sz002239,2013-08-19,9.56,9.96,9.56,9.9,0.022727,2349543.0,23076755.73,1989900000.0,1989900000.0,0.011689268656716418,15.13,2013-03-31 00:00:00,2013-04-24 00:00:00,51.221913080387104,4.424583558837073,112.39577416588772,3.3951317472997085
sz002239,2013-08-16,9.96,10.18,9.63,9.68,-0.032,3203818.0,31987418.87,1945680000.0,1945680000.0,0.01593939303482587,14.79,2013-03-31 00:00:00,2013-04-24 00:00:00,50.08366170091051,4.326260633421307,109.89811960169989,3.319685260386896
sz002239,2013-08-15,10.05,10.17,10.0,10.0,-0.006951000000000001,2157590.0,21740679.29,2010000000.0,2010000000.0,0.010734278606965174,15.28,2013-03-31 00:00:00,2013-04-24 00:00:00,51.739319938957145,4.469277513864987,113.53111529101228,3.4294269218872895
sz002239,2013-08-14,10.18,10.23,10.02,10.07,-0.013712,3893986.0,39346431.91,2024070000.0,2024070000.0,0.019373064676616914,15.39,2013-03-31 00:00:00,2013-04-24 00:00:00,52.10147730772313,4.500560912769649,114.32579388430207,3.4534317258134184
sz002239,2013-08-13,10.25,10.37,10.17,10.21,-0.007775,3922128.0,40222884.66,2052210000.0,2052210000.0,0.019513074626865676,15.6,2013-03-31 00:00:00,2013-04-24 00:00:00,52.825825020402895,4.563130558994583,115.91522342794607,3.501443519350756
sz002239,2013-08-12,10.13,10.49,10.03,10.29,0.007835,6632912.0,67945031.59,2068290000.0,2068290000.0,0.03299956218905472,15.73,2013-03-31 00:00:00,2013-04-24 00:00:00,53.239764186956485,4.598886904678458,116.82352634528063,3.528880565749458
sz002239,2013-08-09,9.95,10.63,9.67,10.21,0.029233999999999996,7783154.0,79411850.41,2052210000.0,2052210000.0,0.0387221592039801,15.6,2013-03-31 00:00:00,2013-04-24 00:00:00,52.82587346833209,4.563134743959535,115.91532973679284,3.5014467306150885
sz002239,2013-08-08,9.8,9.99,9.75,9.92,0.0040490000000000005,3191938.0,31456608.29,1993920000.0,1993920000.0,0.01588028855721393,15.16,2013-03-31 00:00:00,2013-04-24 00:00:00,51.325425965652215,4.433525072004554,112.62291154080884,3.401992871023585
sz002239,2013-08-07,9.72,10.08,9.66,9.88,0.012295,6280477.0,62261491.57,1985880000.0,1985880000.0,0.031246154228855728,15.1,2013-03-31 00:00:00,2013-04-24 00:00:00,51.11844737224201,4.415646120861187,112.16874031128843,3.3882737506073757
sz002239,2013-08-06,9.7,9.84,9.57,9.76,0.003083,3584174.0,34888756.47,1961760000.0,1961760000.0,0.01783171144278607,14.92,2013-03-31 00:00:00,2013-04-24 00:00:00,50.497579630682765,4.362015144657621,110.80637591935991,3.3471208991522983
sz002239,2013-08-05,9.6,9.73,9.52,9.73,0.009336,3013097.0,28995351.22,1955730000.0,1955730000.0,0.014990532338308458,14.87,2013-03-31 00:00:00,2013-04-24 00:00:00,50.342374091359105,4.348608385006646,110.46580982766122,3.336833441651686
sz002239,2013-08-02,9.71,9.86,9.63,9.64,-0.010267,4054939.0,39500206.28,1937640000.0,1937640000.0,0.020173825870646766,14.73,2013-03-31 00:00:00,2013-04-24 00:00:00,49.876724986881584,4.308385299847272,109.44404026772177,3.30596891585328
sz002239,2013-08-01,9.61,9.8,9.61,9.74,0.004124,4895517.0,47455212.94,1957740000.0,1957740000.0,0.024355805970149254,14.88,2013-03-31 00:00:00,2013-04-24 00:00:00,50.39412143162002,4.3530783553213555,110.57935854187116,3.340263400182958
sz002239,2013-07-31,10.19,10.2,9.69,9.7,-0.024145,8219036.0,81703661.63,1949700000.0,1949700000.0,0.04089072636815921,14.82,2013-03-31 00:00:00,2013-04-24 00:00:00,50.187149626560085,4.335199990560286,110.12520220796551,3.326544729717603
sz002239,2013-07-30,9.69,9.94,9.6,9.94,0.09955800000000001,3839913.0,38066123.8,1997940000.0,1997940000.0,0.019104044776119402,15.19,2013-03-31 00:00:00,2013-04-24 00:00:00,51.42890042737916,4.442463266120772,112.8499646033125,3.4088514479278205
sz002239,2013-07-29,9.04,9.05,8.88,9.04,0.0,1416098.0,12679375.72,1817040000.0,1817040000.0,0.007045263681592038,13.81,2013-03-31 00:00:00,2013-04-24 00:00:00,46.77233981961766,4.040226405629145,102.6321163624952,3.100201579114353
sz002239,2013-07-26,9.16,9.22,9.0,9.04,-0.0131,1441252.0,13092606.52,1817040000.0,1817040000.0,0.007170407960199004,13.81,2013-03-31 00:00:00,2013-04-24 00:00:00,46.77233981961766,4.040226405629145,102.6321163624952,3.100201579114353
sz002239,2013-07-25,9.35,9.41,9.12,9.16,-0.022412,2079734.0,19160354.42,1841160000.0,1841160000.0,0.010346935323383084,14.0,2013-03-31 00:00:00,2013-04-24 00:00:00,47.39319061669639,4.093855918157002,103.9944435733055,3.1413533074418414
sz002239,2013-07-24,9.31,9.42,9.15,9.37,-0.003191,2326129.0,21563125.04,1883370000.0,1883370000.0,0.01157278109452736,14.32,2013-03-31 00:00:00,2013-04-24 00:00:00,48.47971805780798,4.187710894729683,106.37860077384902,3.2133713869665357
sz002239,2013-07-23,9.29,9.49,9.19,9.4,0.020630000000000003,2415272.0,22609110.17,1889400000.0,1889400000.0,0.012016278606965174,14.36,2013-03-31 00:00:00,2013-04-24 00:00:00,48.63491206219846,4.201116657985315,106.71914155454958,3.223658079899495
sz002239,2013-07-22,8.95,9.24,8.86,9.21,0.021064,1724631.0,15584874.87,1851210000.0,1851210000.0,0.008580253731343284,14.07,2013-03-31 00:00:00,2013-04-24 00:00:00,47.65185430782797,4.116199463062339,104.5620269388021,3.158498260779612
sz002239,2013-07-19,9.33,9.45,9.0,9.02,-0.037353,2600748.0,23913216.85,1813020000.0,1813020000.0,0.012939044776119403,13.78,2013-03-31 00:00:00,2013-04-24 00:00:00,46.668822236243734,4.031284486635842,102.40496867855698,3.093340143986677
sz002239,2013-07-18,9.33,9.47,9.25,9.37,-0.001066,2109249.0,19701608.69,1883370000.0,1883370000.0,0.010493776119402984,14.32,2013-03-31 00:00:00,2013-04-24 00:00:00,48.479683867756016,4.187707941369829,106.37852575093152,3.213369120754208
sz002239,2013-07-17,9.78,9.78,9.37,9.38,-0.041879,2891197.0,27647170.55,1885380000.0,1885380000.0,0.014384064676616917,14.33,2013-03-31 00:00:00,2013-04-24 00:00:00,48.53141835972749,4.192176801840591,106.49204627225775,3.216798227664899
sz002239,2013-07-16,9.53,9.83,9.51,9.79,0.028361,3312759.0,31953872.68,1967790000.0,1967790000.0,0.01648138805970149,14.96,2013-03-31 00:00:00,2013-04-24 00:00:00,50.65270290467226,4.37541479817329,111.14676149699021,3.3574029038763364
sz002239,2013-07-15,9.35,9.55,9.33,9.52,0.020364,2044748.0,19350919.83,1913520000.0,1913520000.0,0.010172875621890547,14.55,2013-03-31 00:00:00,2013-04-24 00:00:00,49.25576028716789,4.254745948332628,108.08146312140404,3.264809637740381
sz002239,2013-07-12,9.53,9.65,9.32,9.33,-0.025078,3086789.0,29164211.89,1875330000.0,1875330000.0,0.015357159203980099,14.26,2013-03-31 00:00:00,2013-04-24 00:00:00,48.27273432536613,4.169831499673282,105.9244182677986,3.1996519259209273
sz002239,2013-07-11,9.35,9.73,9.35,9.57,0.023528999999999998,3647368.0,34894210.49,1923570000.0,1923570000.0,0.018146109452736318,14.62,2013-03-31 00:00:00,2013-04-24 00:00:00,49.514457900597314,4.277092423469038,108.64912092228774,3.2819568395429863
sz002239,2013-07-10,9.0,9.4,9.0,9.35,0.038889,2889742.0,26748404.75,1879350000.0,1879350000.0,0.014376825870646766,14.29,2013-03-31 00:00:00,2013-04-24 00:00:00,48.37621396227886,4.178770140825554,106.15148268616497,3.2065108458509597
sz002239,2013-07-09,8.92,9.18,8.92,9.0,0.013513999999999998,2083235.0,18800105.05,1809000000.0,1809000000.0,0.010364353233830845,13.75,2013-03-31 00:00:00,2013-04-24 00:00:00,46.56533466258557,4.0223451599021205,102.17788684466288,3.086480697986945
sz002239,2013-07-08,9.5,9.53,8.86,8.88,-0.093878,4058086.0,37185157.9,1784880000.0,1784880000.0,0.02018948258706468,13.57,2013-03-31 00:00:00,2013-04-24 00:00:00,45.94444148041919,3.968711986121672,100.81546662864339,3.045326160257229
sz002239,2013-07-05,10.25,10.25,9.77,9.8,-0.033531,3238492.0,32287896.45,1969800000.0,1969800000.0,0.01611190049751244,14.98,2013-03-31 00:00:00,2013-04-24 00:00:00,50.704476307185104,4.379887019762982,111.26036739936056,3.3608345898866037
sz002239,2013-07-04,9.68,10.3,9.5,10.14,0.029442000000000003,4908242.0,48704129.19,2038140000.0,2038140000.0,0.024419114427860697,15.5,2013-03-31 00:00:00,2013-04-24 00:00:00,52.46363443337045,4.531844290673556,115.1204719441188,3.477436513624962
sz002239,2013-07-03,10.19,10.19,9.62,9.85,-0.039024,4148088.0,41139878.22,1979850000.0,1979850000.0,0.020637253731343282,15.05,2013-03-31 00:00:00,2013-04-24 00:00:00,50.96317658825893,4.402233725332322,111.8280310538319,3.3779819685081454
sz002239,2013-07-02,10.24,10.44,10.12,10.25,-0.008704,3948430.0,40411636.54,2060250000.0,2060250000.0,0.019643930348258707,15.66,2013-03-31 00:00:00,2013-04-24 00:00:00,53.032725675000144,4.581002777730476,116.3692236370439,3.5151574737643245
sz002239,2013-07-01,9.82,10.35,9.76,10.34,0.055102,4333100.0,43483621.08,2078340000.0,2078340000.0,0.02155771144278607,15.8,2013-03-31 00:00:00,2013-04-24 00:00:00,53.49837553566255,4.621225928209613,117.3909948562729,3.546022049684781
sz002239,2013-06-28,9.91,10.19,9.71,9.8,-0.035433,3827864.0,37885416.73,1969800000.0,1969800000.0,0.019044099502487564,14.98,2013-03-31 00:00:00,2013-04-24 00:00:00,50.7044584653072,4.379885478569478,111.26032824909147,3.3608334072770036
sz002239,2013-06-27,10.5,10.65,10.0,10.16,-0.049579000000000005,7332399.0,75703455.34,2042160000.0,2042160000.0,0.036479597014925376,15.53,2013-03-31 00:00:00,2013-04-24 00:00:00,52.56706736318701,4.540778897235214,115.34743387353235,3.484292337677947
sz002239,2013-06-26,9.94,10.79,9.63,10.69,0.048039,9640090.0,99295537.82,2148690000.0,2148690000.0,0.04796064676616915,16.34,2013-03-31 00:00:00,2013-04-24 00:00:00,55.30924439084048,4.7776500069287335,121.36456777947073,3.666051505257088
sz002239,2013-06-25,9.9,10.39,8.79,10.2,0.044012,10868916.0,106034072.6,2050200000.0,2050200000.0,0.05407420895522388,15.59,2013-03-31 00:00:00,2013-04-24 00:00:00,52.77403263699203,4.55865669782206,115.80157587596526,3.4980105752334487
sz002239,2013-06-24,9.03,9.77,9.03,9.77,0.100225,8638958.0,83263070.53,1963770000.0,1963770000.0,0.04297989054726368,14.93,2013-03-31 00:00:00,2013-04-24 00:00:00,50.54925866464373,4.366479214627859,110.91977474968223,3.3505463301508494
sz002239,2013-06-21,8.79,8.96,8.59,8.88,-0.007821,1766028.0,15464752.16,1784880000.0,1784880000.0,0.008786208955223881,13.57,2013-03-31 00:00:00,2013-04-24 00:00:00,45.944473780039296,3.968714776184743,100.81553750340362,3.045328301166443
sz002239,2013-06-20,9.2,9.28,8.93,8.95,-0.043802999999999995,1877063.0,17155461.11,1798950000.0,1798950000.0,0.009338621890547263,13.68,2013-03-31 00:00:00,2013-04-24 00:00:00,46.30663799580448,3.999998766537835,101.61023112100096,3.069333558930841
sz002239,2013-06-19,9.54,9.54,9.0,9.36,-0.028037,2885361.0,26682126.09,1881360000.0,1881360000.0,0.014355029850746269,14.3,2013-03-31 00:00:00,2013-04-24 00:00:00,48.427926458464604,4.1832371012854415,106.26495494234028,3.2099384948194154
sz002239,2013-06-18,9.79,9.84,9.48,9.63,-0.013319999999999999,1909566.0,18392026.51,1935630000.0,1935630000.0,0.009500328358208956,14.72,2013-03-31 00:00:00,2013-04-24 00:00:00,49.82486623304035,4.303905705552003,109.33024707971424,3.302531572518106
sz002239,2013-06-17,9.72,9.89,9.6,9.76,0.006186,2001773.0,19537364.05,1961760000.0,1961760000.0,0.009959069651741294,14.92,2013-03-31 00:00:00,2013-04-24 00:00:00,50.497492837637694,4.362007647415578,110.806185470177,3.347115146266374
sz002239,2013-06-14,9.7,9.77,9.6,9.7,0.008316,2364598.0,22932612.92,1949700000.0,1949700000.0,0.011764169154228855,14.82,2013-03-31 00:00:00,2013-04-24 00:00:00,50.187035833968764,4.335190161079143,110.12495251392586,3.326537187226193
sz002239,2013-06-13,10.09,10.3,9.42,9.62,-0.075889,3178311.0,30693926.28,1933620000.0,1933620000.0,0.01581249253731343,14.7,2013-03-31 00:00:00,2013-04-24 00:00:00,49.773122546869,4.299436050880025,109.2167063836395,3.299101856190116
sz002239,2013-06-07,10.84,11.09,10.0,10.41,-0.039668,4024322.0,42686722.51,2092410000.0,2092410000.0,0.02002150248756219,15.91,2013-03-31 00:00:00,2013-04-24 00:00:00,53.86054548303073,4.652510413662455,118.18570105067413,3.5700276873558656
sz002239,2013-06-06,11.45,11.54,10.84,10.84,-0.058926,4884802.0,54434578.15,2178840000.0,2178840000.0,0.02430249751243781,16.57,2013-03-31 00:00:00,2013-04-24 00:00:00,56.08533869852376,4.844689559092538,123.06754440201318,3.7174932079279515
sz002239,2013-06-05,11.55,11.6,11.3,11.54,-0.000866,4990075.0,56977795.36,2319540000.0,2319540000.0,0.024826243781094527,17.6,2013-03-31 00:00:00,2013-04-24 00:00:00,59.59716100808627,5.148043149733749,130.77350389237532,3.9502666187015603
sz002239,2013-06-04,11.23,11.58,11.09,11.55,0.03402,8390664.0,95678808.2,2321550000.0,2321550000.0,0.041744597014925375,17.62,2013-03-31 00:00:00,2013-04-24 00:00:00,59.648816883507365,5.152505219253622,130.886851906126,3.9536905146872785
sz002239,2013-06-03,11.07,11.37,11.02,11.17,0.012693000000000001,5322262.0,59823659.41,2245170000.0,2245170000.0,0.026478915422885572,17.04,2013-03-31 00:00:00,2013-04-24 00:00:00,57.68632800478461,4.982984100165977,126.5805805556237,3.8236112596345135
sz002239,2013-05-31,11.2,11.27,10.99,11.03,-0.013416999999999998,6083682.0,67692741.35,2217030000.0,2217030000.0,0.030267074626865672,16.82,2013-03-31 00:00:00,2013-04-24 00:00:00,56.963292927653896,4.920527840289186,124.99403131612807,3.775686471254875
sz002239,2013-05-30,10.68,11.55,10.62,11.18,0.046816,9057314.0,101152818.25,2247180000.0,2247180000.0,0.04506126368159204,17.05,2013-03-31 00:00:00,2013-04-24 00:00:00,57.73796317963506,4.98744438155653,126.69388314630201,3.827033783528477
sz002239,2013-05-29,10.79,10.87,10.68,10.68,-0.010195000000000001,3382035.0,36281261.2,2146680000.0,2146680000.0,0.016826044776119403,16.29,2013-03-31 00:00:00,2013-04-24 00:00:00,55.15578972774113,4.764394489152372,121.02784361941546,3.6558801007325803
sz002239,2013-05-28,10.85,10.88,10.63,10.79,-0.00185,3363465.0,36127530.94,2168790000.0,2168790000.0,0.016733656716417907,16.46,2013-03-31 00:00:00,2013-04-24 00:00:00,55.72389483558997,4.813467793305118,122.2744314480281,3.693535697165179
sz002239,2013-05-27,10.6,10.81,10.51,10.81,0.026591000000000004,3843070.0,41008077.58,2172810000.0,2172810000.0,0.019119751243781093,16.49,2013-03-31 00:00:00,2013-04-24 00:00:00,55.82717510954262,4.8223892133498145,122.50105840607934,3.7003814027602853
sz002239,2013-05-24,10.5,10.58,10.43,10.53,-0.000949,2715682.0,28471253.04,2116530000.0,2116530000.0,0.013510855721393034,16.06,2013-03-31 00:00:00,2013-04-24 00:00:00,54.38112657284411,4.6974785609359655,119.32800736230818,3.6045332588735772
sz002239,2013-05-23,10.75,10.78,10.53,10.54,-0.017707,4282961.0,45584804.91,2118540000.0,2118540000.0,0.021308263681592037,16.08,2013-03-31 00:00:00,2013-04-24 00:00:00,54.4327832841808,4.701940702662792,119.44135721030075,3.60795721026612
sz002239,2013-05-22,10.53,10.73,10.42,10.73,0.019962,5597537.0,59271834.39,2156730000.0,2156730000.0,0.02784844278606965,16.37,2013-03-31 00:00:00,2013-04-24 00:00:00,55.41399896383339,4.786698777923483,121.59442977838664,3.672994931518518
sz002239,2013-05-21,10.55,10.59,10.4,10.52,-0.00095,4684769.0,49096653.32,2114520000.0,2114520000.0,0.023307308457711444,16.05,2013-03-31 00:00:00,2013-04-24 00:00:00,54.32947400377013,4.693016777020598,119.21466660364469,3.6011095820417998
sz002239,2013-05-20,10.4,10.55,10.38,10.53,0.0125,5587999.0,58546225.51,2116530000.0,2116530000.0,0.027800990049751242,16.06,2013-03-31 00:00:00,2013-04-24 00:00:00,54.38113608304903,4.697479382433911,119.32802823046363,3.604533889236574
sz002239,2013-05-17,10.39,10.49,10.31,10.4,0.001927,4053527.0,42194094.98,2090400000.0,2090400000.0,0.020166800995024877,15.86,2013-03-31 00:00:00,2013-04-24 00:00:00,53.70976403264102,4.639485809811269,117.8548426967542,3.5600334708509376
sz002239,2013-05-16,10.27,10.43,10.13,10.38,0.010711,1421781.0,14674432.22,2086380000.0,2086380000.0,0.0070735373134328365,15.83,2013-03-31 00:00:00,2013-04-24 00:00:00,53.606464375788875,4.630562715458582,117.62817320698434,3.5531864805030087
sz002239,2013-05-15,10.29,10.33,10.21,10.27,0.0019510000000000003,1073141.0,11012446.68,2064270000.0,2064270000.0,0.005339009950248756,15.67,2013-03-31 00:00:00,2013-04-24 00:00:00,53.03837039053585,4.5814903720831985,116.3816097845817,3.5155316213071877
sz002239,2013-05-14,10.32,10.42,10.21,10.25,-0.011572,1203477.0,12390059.53,2060250000.0,2060250000.0,0.00598744776119403,15.64,2013-03-31 00:00:00,2013-04-24 00:00:00,52.93509402209873,4.5725692893995795,116.1549913963674,3.5086861745805806
sz002239,2013-05-13,10.53,10.56,10.28,10.37,-0.015194999999999998,2153173.0,22322915.62,2084370000.0,2084370000.0,0.010712303482587063,15.82,2013-03-31 00:00:00,2013-04-24 00:00:00,53.55483052088643,4.626102548086031,117.51487351265584,3.549764044098893
sz002239,2013-05-10,10.32,10.55,10.22,10.53,0.016409,2940333.0,30720824.82,2116530000.0,2116530000.0,0.014628522388059702,16.06,2013-03-31 00:00:00,2013-04-24 00:00:00,54.38115212746323,4.697480768361281,119.32806343657458,3.604534952705249
sz002239,2013-05-09,10.16,10.38,9.96,10.36,0.019685,2603392.0,26562562.09,2082360000.0,2082360000.0,0.012952199004975124,15.8,2013-03-31 00:00:00,2013-04-24 00:00:00,53.50321782615387,4.621644208543294,117.40162024989407,3.5463430102500557
sz002239,2013-05-08,10.33,10.37,10.12,10.16,-0.015503999999999999,1972483.0,20142059.52,2042160000.0,2042160000.0,0.009813348258706467,15.5,2013-03-31 00:00:00,2013-04-24 00:00:00,52.47033919902115,4.53242345287348,115.13518414990324,3.4778809242560755
sz002239,2013-05-07,10.4,10.44,10.28,10.32,-0.007692,1920117.0,19878127.13,2074320000.0,2074320000.0,0.009552820895522387,15.74,2013-03-31 00:00:00,2013-04-24 00:00:00,53.29665046787508,4.603800780169223,116.9483513898515,3.532651147649229
sz002239,2013-05-06,10.39,10.4,10.24,10.4,0.006776000000000001,1662140.0,17175640.68,2090400000.0,2090400000.0,0.008269353233830845,15.86,2013-03-31 00:00:00,2013-04-24 00:00:00,53.70978614288616,4.639487719709226,117.85489121306236,3.5600349363798625
sz002239,2013-05-03,10.28,10.42,10.17,10.33,0.005842,2617375.0,27001444.81,2076330000.0,2076330000.0,0.01302176616915423,15.76,2013-03-31 00:00:00,2013-04-24 00:00:00,53.348298075129094,4.60826213547922,117.06168126083894,3.5360744955976933
sz002239,2013-05-02,9.9,10.3,9.73,10.27,0.029057999999999997,2265644.0,22784997.55,2064270000.0,2064270000.0,0.011271860696517413,15.67,2013-03-31 00:00:00,2013-04-24 00:00:00,53.03844746503834,4.581497029830948,116.38177890845574,3.5155367300209113
sz002239,2013-04-26,10.1,10.2,9.98,9.98,-0.009921,2651970.0,26764501.75,2005980000.0,2005980000.0,0.013193880597014925,15.22,2013-03-31 00:00:00,2013-04-24 00:00:00,51.540775607437425,4.452127119978609,113.09545128501576,3.41626684795309
sz002239,2013-04-25,10.38,10.5,10.08,10.08,-0.049953,2658154.0,27275294.2,2026080000.0,2026080000.0,0.013224646766169154,15.38,2013-03-31 00:00:00,2013-04-24 00:00:00,52.057235440240035,4.496739270279047,114.22871436018312,3.450499251022484
sz002239,2013-04-24,10.75,10.89,10.5,10.61,0.002836,3622857.0,38572001.61,2132610000.0,2132610000.0,0.018024164179104477,16.18,2013-03-31 00:00:00,2013-04-24 00:00:00,54.794379057288786,4.733175590553991,120.23480349938805,3.6319247900603697
sz002239,2013-04-23,10.66,10.74,10.4,10.58,-0.014898,1762485.0,18557374.4,2126580000.0,2126580000.0,0.00876858208955224,16.14,2012-09-30 00:00:00,2012-10-24 00:00:00,233.6981950335882,5.13953502469973,44.11911630516713,3.9352771270652256
sz002239,2013-04-22,10.66,10.74,10.32,10.74,0.005618,2640287.0,27753407.07,2158740000.0,2158740000.0,0.013135756218905472,16.38,2012-09-30 00:00:00,2012-10-24 00:00:00,237.23248458899502,5.217261790859961,44.786343246858834,3.9947915312985103
sz002239,2013-04-19,10.69,10.9,10.63,10.68,-0.0018690000000000002,4049155.0,43484777.0,2146680000.0,2146680000.0,0.02014504975124378,16.29,2012-09-30 00:00:00,2012-10-24 00:00:00,235.90715817437146,5.188114961009014,44.5361392167392,3.972474171403566
sz002239,2013-04-18,10.78,11.04,10.7,10.7,-0.025501,2044284.0,22106656.59,2150700000.0,2150700000.0,0.010170567164179104,16.32,2012-09-30 00:00:00,2012-10-24 00:00:00,236.34889425773918,5.197829704727149,44.619533124148234,3.9799126281054953
sz002239,2013-04-17,10.98,11.14,10.85,10.98,0.007339,1812227.0,19885963.49,2206980000.0,2206980000.0,0.009016054726368159,16.75,2012-09-30 00:00:00,2012-10-24 00:00:00,242.53374734888303,5.333848166829466,45.78715126865008,4.084060248502559
sz002239,2013-04-16,10.76,11.42,10.61,10.9,-0.016245,3503826.0,38514602.81,2190900000.0,2190900000.0,0.017431970149253732,16.63,2012-09-30 00:00:00,2012-10-24 00:00:00,240.76676009653457,5.294988248076831,45.453567536499705,4.054305698977761
sz002239,2013-04-15,11.77,11.77,10.9,11.08,-0.014235,2751210.0,30829702.49,2227080000.0,2227080000.0,0.013687611940298508,16.9,2012-09-30 00:00:00,2012-10-24 00:00:00,244.74260369353604,5.382425754458001,46.20415401853074,4.1212554944856805
sz002239,2013-04-12,11.0,11.4,10.77,11.24,0.003571,3945310.0,43737856.76,2259240000.0,2259240000.0,0.019628407960199004,17.15,2012-09-30 00:00:00,2012-10-24 00:00:00,248.2768242872653,5.460151003999941,46.87136794117335,4.180768737463474
sz002239,2013-04-11,11.5,11.57,10.98,11.2,0.042831,6142586.0,69288013.62,2251200000.0,2251200000.0,0.03056012935323383,17.08,2012-09-30 00:00:00,2012-10-24 00:00:00,247.39338251829244,5.44072218507703,46.704585865049246,4.1658923359318605
sz002239,2013-04-10,10.93,11.0,10.69,10.74,-0.014679,1138926.0,12311983.77,2158740000.0,2158740000.0,0.005666298507462687,16.38,2012-09-30 00:00:00,2012-10-24 00:00:00,237.23247824268023,5.2172616512906025,44.78634204875886,3.9947914244320133
sz002239,2013-04-09,10.98,11.1,10.87,10.9,-0.005474000000000001,981851.0,10762115.86,2190900000.0,2190900000.0,0.004884830845771145,16.63,2012-09-30 00:00:00,2012-10-24 00:00:00,240.76669252221376,5.294986761969553,45.453554779365156,4.054304561084167
sz002239,2013-04-08,10.88,11.28,10.75,10.96,-0.024911000000000003,1193652.0,13027529.63,2202960000.0,2202960000.0,0.005938567164179106,16.72,2012-09-30 00:00:00,2012-10-24 00:00:00,242.09190360253407,5.324131055366631,45.70373703589968,4.076619978848384
sz002239,2013-04-03,11.0,11.69,10.56,11.24,-0.021758,3015993.0,33350515.23,2259240000.0,2259240000.0,0.015004940298507463,17.15,2012-09-30 00:00:00,2012-10-24 00:00:00,248.2767251015385,5.460148822688627,46.871349216225056,4.180767067260921
sz002239,2013-04-02,11.8,12.2,11.3,11.49,0.010554000000000001,4162727.0,48873530.28,2309490000.0,2309490000.0,0.02071008457711443,17.53,2012-09-30 00:00:00,2012-10-24 00:00:00,253.79888115776922,5.581593125922447,47.913858959465095,4.273755438082724
sz002239,2013-04-01,11.18,11.41,10.93,11.37,0.019731,1657920.0,18572189.7,2285370000.0,2285370000.0,0.008248358208955224,17.34,2012-09-30 00:00:00,2012-10-24 00:00:00,251.14826239643727,5.523300215448604,47.413457330795886,4.229121291967302
sz002239,2013-03-29,10.43,11.32,10.43,11.15,0.07005800000000001,2710866.0,29759465.0,2241150000.0,2241150000.0,0.01348689552238806,17.01,2012-09-30 00:00:00,2012-10-24 00:00:00,246.28873928167067,5.416428661527996,46.496043888825476,4.147291091442059
sz002239,2013-03-28,10.96,10.96,10.41,10.42,-0.051002,1430427.0,15178170.08,2094420000.0,2094420000.0,0.00711655223880597,15.89,2012-09-30 00:00:00,2012-10-24 00:00:00,230.1639156771602,5.0618084828373755,43.45189128890722,3.875762894573995
sz002239,2013-03-27,11.37,11.38,10.8,10.98,-0.024867,1557101.0,17242762.59,2206980000.0,2206980000.0,0.007746771144278607,16.75,2012-09-30 00:00:00,2012-10-24 00:00:00,242.53361511526916,5.333845258722753,45.787126304699505,4.084058021801937
sz002239,2013-03-26,11.6,11.67,11.17,11.26,-0.035133,1198801.0,13572126.27,2263260000.0,2263260000.0,0.00596418407960199,17.18,2012-09-30 00:00:00,2012-10-24 00:00:00,248.71849800516353,5.4698643761648436,46.954750074809795,4.188206143984397
sz002239,2013-03-25,11.86,11.86,11.65,11.67,-0.010178,851268.0,9978287.3,2345670000.0,2345670000.0,0.004235164179104477,17.8,2012-09-30 00:00:00,2012-10-24 00:00:00,257.7749036967411,5.669034567629366,48.664479223364246,4.34070824681992
sz002239,2013-03-22,11.86,11.9,11.61,11.79,-0.005063000000000001,949133.0,11120106.87,2369790000.0,2369790000.0,0.004722054726368159,17.98,2012-09-30 00:00:00,2012-10-24 00:00:00,260.42551458417887,5.727327304939035,49.16487936554678,4.385342260345719
sz002239,2013-03-21,11.6,11.89,11.52,11.85,0.018917,2349816.0,27590826.45,2381850000.0,2381850000.0,0.011690626865671641,18.08,2012-09-30 00:00:00,2012-10-24 00:00:00,261.7507586753522,5.756472324317053,49.41506785409205,4.407658233984383
sz002239,2013-03-20,11.49,11.65,11.43,11.63,0.015721000000000002,1243847.0,14373046.97,2337630000.0,2337630000.0,0.006188293532338308,17.74,2012-09-30 00:00:00,2012-10-24 00:00:00,256.8911488132519,5.64959886263263,48.497638035376816,4.325826572708456
sz002239,2013-03-19,11.14,11.45,11.14,11.45,0.017778,675788.0,7629174.9,2301450000.0,2301450000.0,0.003362129353233831,17.47,2012-09-30 00:00:00,2012-10-24 00:00:00,252.9150709823385,5.562156204934849,47.74700733309326,4.258872832902397
sz002239,2013-03-18,11.51,11.51,11.2,11.25,-0.021738999999999998,759688.0,8565334.33,2261250000.0,2261250000.0,0.003779542288557214,17.16,2012-09-30 00:00:00,2012-10-24 00:00:00,248.49728622778105,5.4649994448051045,46.91298822836931,4.18448112741914
sz002239,2013-03-15,11.31,11.58,11.12,11.5,0.012324,2003660.0,22703924.33,2311500000.0,2311500000.0,0.009968457711442787,17.54,2012-09-30 00:00:00,2012-10-24 00:00:00,254.0194142746987,5.5864431320528,47.95549268382293,4.277469026588139
sz002239,2013-03-14,11.5,11.6,11.28,11.36,-0.017301,1026471.0,11718579.78,2283360000.0,2283360000.0,0.005106820895522388,17.33,2012-09-30 00:00:00,2012-10-24 00:00:00,250.92699004933073,5.518433952028006,47.371684049595714,4.225395255459851
sz002239,2013-03-13,11.25,11.58,11.25,11.56,0.017606,898973.0,10270871.93,2323560000.0,2323560000.0,0.004472502487562189,17.63,2012-09-30 00:00:00,2012-10-24 00:00:00,255.34470885727035,5.615589261847225,48.20569070447381,4.299785850458636
sz002239,2013-03-12,11.58,11.7,11.21,11.36,-0.018997999999999998,1179859.0,13477140.36,2283360000.0,2283360000.0,0.005869945273631841,17.33,2012-09-30 00:00:00,2012-10-24 00:00:00,250.92689003137795,5.518431752414221,47.37166516753421,4.225393571243327
sz002239,2013-03-11,11.97,12.02,11.42,11.58,-0.030151,1465586.0,17046063.43,2327580000.0,2327580000.0,0.0072914726368159205,17.66,2012-09-30 00:00:00,2012-10-24 00:00:00,255.7863185104393,5.625301225088451,48.289060743539984,4.3072221781844755
sz002239,2013-03-08,11.96,12.25,11.86,11.94,0.0042049999999999995,1684833.0,20263092.92,2399940000.0,2399940000.0,0.008382253731343284,18.21,2012-09-30 00:00:00,2012-10-24 00:00:00,263.7382917448379,5.8001825285054185,49.790287708230856,4.441126585875199
sz002239,2013-03-07,12.2,12.27,11.82,11.89,-0.018977,1749621.0,20929195.87,2389890000.0,2389890000.0,0.00870458208955224,18.14,2012-09-30 00:00:00,2012-10-24 00:00:00,262.6339161275216,5.775894890490903,49.58179625497866,4.422529847864927
sz002239,2013-03-06,12.25,12.25,11.95,12.12,-0.011419,2633122.0,31774986.95,2436120000.0,2436120000.0,0.013100109452736318,18.49,2012-09-30 00:00:00,2012-10-24 00:00:00,267.7143309866554,5.887624337544485,50.540911125405486,4.508079675873987
sz002239,2013-03-05,12.1,12.55,12.1,12.26,0.018272,3692715.0,45585188.11,2464260000.0,2464260000.0,0.01837171641791045,18.7,2012-09-30 00:00:00,2012-10-24 00:00:00,270.806672378546,5.955631695879736,51.124704121772,4.560152052157575
sz002239,2013-03-04,11.85,12.38,11.78,12.04,0.007531,5140906.0,62475599.95,2420040000.0,2420040000.0,0.025576646766169154,18.37,2012-09-30 00:00:00,2012-10-24 00:00:00,265.94728361238055,5.8487630965790425,50.20731604303368,4.478324113947524
sz002239,2013-03-01,11.57,12.09,11.55,11.95,0.029285000000000002,3946436.0,46707640.88,2401950000.0,2401950000.0,0.019634009950248756,18.23,2012-09-30 00:00:00,2012-10-24 00:00:00,263.95940533083404,5.805045300421568,49.83203101744133,4.4448499489817435
sz002239,2013-02-28,11.63,11.63,11.45,11.61,0.009565,1579027.0,18222297.08,2333610000.0,2333610000.0,0.007855855721393034,17.71,2012-09-30 00:00:00,2012-10-24 00:00:00,256.4492879336958,5.639881374373054,48.4142205681044,4.318386014545771
sz002239,2013-02-27,11.44,11.57,11.22,11.5,0.010545,1177341.0,13504943.51,2311500000.0,2311500000.0,0.005857417910447761,17.54,2012-09-30 00:00:00,2012-10-24 00:00:00,254.01959055008427,5.586447008734509,47.95552596227524,4.277471994914414
sz002239,2013-02-26,11.35,11.7,11.35,11.38,-0.008711,1624545.0,18774619.13,2287380000.0,2287380000.0,0.008082313432835822,17.36,2012-09-30 00:00:00,2012-10-24 00:00:00,251.36890544219625,5.528152639154622,47.45511180825716,4.232836731579904
sz002239,2013-02-25,11.52,11.54,11.25,11.48,0.001745,1062259.0,12099165.02,2307480000.0,2307480000.0,0.005284870646766169,17.51,2012-09-30 00:00:00,2012-10-24 00:00:00,253.57782184831697,5.576731547666344,47.872125896945455,4.270032988946618
sz002239,2013-02-22,11.23,11.7,11.15,11.46,0.025044999999999998,1882966.0,21501543.91,2303460000.0,2303460000.0,0.009367990049751244,17.48,2012-09-30 00:00:00,2012-10-24 00:00:00,253.1360993549426,5.56701710282192,47.788734555146725,4.262594761088518
sz002239,2013-02-21,11.48,11.48,11.1,11.18,-0.032872000000000005,2006858.0,22558766.92,2247180000.0,2247180000.0,0.00998436815920398,17.05,2012-09-30 00:00:00,2012-10-24 00:00:00,246.95120639088293,5.430997763826876,46.621108883167786,4.1584464692657575
sz002239,2013-02-20,11.4,11.6,11.4,11.56,0.010490000000000001,1007952.0,11617242.42,2323560000.0,2323560000.0,0.005014686567164179,17.63,2012-09-30 00:00:00,2012-10-24 00:00:00,255.3449040777259,5.615593555172506,48.205727559503785,4.299789137803638
sz002239,2013-02-19,11.59,11.59,11.36,11.44,-0.011236,1421259.0,16240568.32,2299440000.0,2299440000.0,0.007070940298507463,17.45,2012-09-30 00:00:00,2012-10-24 00:00:00,252.69414252266316,5.557297504351855,47.70529897327414,4.255152587164285
sz002239,2013-02-18,11.88,11.93,11.48,11.57,-0.024452,2540910.0,29649258.27,2325570000.0,2325570000.0,0.01264134328358209,17.65,2012-09-30 00:00:00,2012-10-24 00:00:00,255.56567848613335,5.6204488678308016,48.247406836488935,4.303506789450552
sz002239,2013-02-08,11.85,11.95,11.75,11.86,0.0,1364639.0,16175696.05,2383860000.0,2383860000.0,0.0067892487562189055,18.09,2012-09-30 00:00:00,2012-10-24 00:00:00,261.97140323811163,5.761324781385232,49.456722617942866,4.41137369914197
sz002239,2013-02-07,11.98,11.98,11.71,11.86,0.004234,1600472.0,18932616.19,2383860000.0,2383860000.0,0.007962547263681593,18.09,2012-09-30 00:00:00,2012-10-24 00:00:00,261.97140323811163,5.761324781385232,49.456722617942866,4.41137369914197
sz002239,2013-02-06,11.74,12.09,11.64,11.81,0.005963,2307741.0,27467424.4,2373810000.0,2373810000.0,0.011481298507462687,18.01,2012-09-30 00:00:00,2012-10-24 00:00:00,260.8668928139374,5.737034178672731,49.248205714945776,4.392774691099853
sz002239,2013-02-05,11.56,11.85,11.42,11.74,0.015571000000000002,2140242.0,24953495.86,2359740000.0,2359740000.0,0.01064797014925373,17.91,2012-09-30 00:00:00,2012-10-24 00:00:00,259.32056428908163,5.703027028501776,48.95627942075979,4.3667358452546
sz002239,2013-02-04,11.89,11.93,11.52,11.56,-0.030201,2312686.0,27003721.93,2323560000.0,2323560000.0,0.011505900497512437,17.63,2012-09-30 00:00:00,2012-10-24 00:00:00,255.34459362179658,5.615586727566832,48.2056689495464,4.2997839099921125
sz002239,2013-02-01,11.67,12.13,11.46,11.92,0.015332,4499038.0,53275011.37,2395920000.0,2395920000.0,0.022383273631840797,18.18,2012-09-30 00:00:00,2012-10-24 00:00:00,263.29640845350076,5.790464547361703,49.70686600991174,4.433685650317346
sz002239,2013-01-31,11.45,11.83,11.39,11.74,0.025328,3593391.0,41798608.87,2359740000.0,2359740000.0,0.017877567164179105,17.91,2012-09-30 00:00:00,2012-10-24 00:00:00,259.3205064486304,5.703025756463604,48.95626850125058,4.36673487127102
sz002239,2013-01-30,11.71,11.71,11.35,11.45,-0.021368,2967429.0,34049499.83,2301450000.0,2301450000.0,0.014763328358208955,17.47,2012-09-30 00:00:00,2012-10-24 00:00:00,252.91468334877268,5.562147680023957,47.74693415302281,4.258866305485679
sz002239,2013-01-29,11.65,11.8,11.51,11.7,0.017391,2895132.0,33719808.14,2351700000.0,2351700000.0,0.014403641791044777,17.85,2012-09-30 00:00:00,2012-10-24 00:00:00,258.4369644041608,5.683594732262952,48.7894674944441,4.351856781186062
sz002239,2013-01-28,11.36,11.63,11.36,11.5,0.0,2426053.0,27984936.8,2311500000.0,2311500000.0,0.012069915422885573,17.54,2012-09-30 00:00:00,2012-10-24 00:00:00,254.019314505594,5.586440937911728,47.955473848740645,4.277467346562002
sz002239,2013-01-25,11.67,11.88,11.38,11.5,-0.022109,2525423.0,29037151.81,2311500000.0,2311500000.0,0.012564293532338308,17.54,2012-09-30 00:00:00,2012-10-24 00:00:00,254.019314505594,5.586440937911728,47.955473848740645,4.277467346562002
sz002239,2013-01-24,11.72,12.22,11.66,11.76,0.010309,6370278.0,75933722.63,2363760000.0,2363760000.0,0.031692925373134326,17.94,2012-09-30 00:00:00,2012-10-24 00:00:00,259.76240143900907,5.712743994894859,49.039692408193396,4.374176003830695
sz002239,2013-01-23,11.4,11.64,11.31,11.64,0.00692,2706425.0,31114180.04,2339640000.0,2339640000.0,0.013464800995024876,17.76,2012-09-30 00:00:00,2012-10-24 00:00:00,257.1118355265657,5.654452246683796,48.539300756692654,4.329542747645221
sz002239,2013-01-22,11.69,11.77,11.41,11.56,-0.011120999999999999,3818507.0,44180974.09,2323560000.0,2323560000.0,0.01899754726368159,17.63,2012-09-30 00:00:00,2012-10-24 00:00:00,255.34484917030719,5.61559234763814,48.20571719371217,4.299788213209809
sz002239,2013-01-21,11.51,11.77,11.5,11.69,0.017406,4396194.0,51275695.43,2349690000.0,2349690000.0,0.02187161194029851,17.83,2012-09-30 00:00:00,2012-10-24 00:00:00,258.21647458415765,5.6787456783268135,48.747841943971075,4.348143921763745
sz002239,2013-01-18,11.23,11.64,11.21,11.49,0.021333,5536493.0,63246793.36,2309490000.0,2309490000.0,0.02754474129353234,17.53,2012-09-30 00:00:00,2012-10-24 00:00:00,253.79885177024474,5.581592479626435,47.91385341149066,4.273754943222022
sz002239,2013-01-17,11.9,11.92,11.25,11.25,-0.08313,10069539.0,116195316.29,2261250000.0,2261250000.0,0.05009720895522388,17.16,2012-09-30 00:00:00,2012-10-24 00:00:00,248.49765137349394,5.46500747515887,46.9130571630317,4.184487276159706
sz002239,2013-01-16,12.4,12.87,12.22,12.27,-0.011281,8771966.0,109912073.33,2466270000.0,2466270000.0,0.043641621890547266,18.72,2012-09-30 00:00:00,2012-10-24 00:00:00,271.0282279641541,5.9605041883351735,51.16653087464057,4.563882858158415
sz002239,2013-01-15,12.45,12.58,12.29,12.41,-0.019747,9313615.0,115870308.41,2494410000.0,2494410000.0,0.04633639303482587,18.93,2012-09-30 00:00:00,2012-10-24 00:00:00,274.12058225254503,6.028511830292705,51.75032630569512,4.615955451608005
sz002239,2013-01-14,12.43,12.75,12.2,12.66,0.011182,10738811.0,134395472.32,2544660000.0,2544660000.0,0.05342692039800995,19.31,2012-09-30 00:00:00,2012-10-24 00:00:00,279.64268638050083,6.149954991510055,52.792826245566324,4.708942948002205
sz002239,2013-01-11,12.38,12.6,12.16,12.52,0.008864,8198887.0,101633704.12,2516520000.0,2516520000.0,0.04079048258706468,19.1,2012-09-30 00:00:00,2012-10-24 00:00:00,276.55030091566186,6.081946663914166,52.20902492881233,4.656869829567976
sz002239,2013-01-10,12.43,12.6,12.1,12.41,-0.003213,8918765.0,109830027.31,2494410000.0,2494410000.0,0.044371965174129356,18.93,2012-09-30 00:00:00,2012-10-24 00:00:00,274.1204968317453,6.028509951702278,51.7503101793823,4.615954013195015
sz002239,2013-01-09,12.75,12.92,12.32,12.45,-0.027344,9967013.0,124772314.43,2502450000.0,2502450000.0,0.04958712935323383,18.99,2012-09-30 00:00:00,2012-10-24 00:00:00,275.0040849567112,6.047941989313944,51.91711988557466,4.630832879236001
sz002239,2013-01-08,12.7,13.12,12.58,12.8,-0.039039,16234684.0,208495847.8,2572800000.0,2572800000.0,0.08076957213930348,19.52,2012-09-30 00:00:00,2012-10-24 00:00:00,282.7351961605246,6.217966053069064,53.37665103137662,4.761018159797504
sz002239,2013-01-07,12.99,13.32,12.45,13.32,0.09991699999999999,27510197.0,354693959.18,2677320000.0,2677320000.0,0.13686665174129353,20.32,2012-09-30 00:00:00,2012-10-24 00:00:00,294.22130155180554,6.470570661108062,55.54507522300761,4.954434321265383
sz002239,2013-01-04,12.11,12.11,12.11,12.11,0.099909,1793698.0,21721682.78,2434110000.0,2434110000.0,0.008923870646766169,18.47,2012-09-30 00:00:00,2012-10-24 00:00:00,267.49409414692707,5.882780847198527,50.499333334249414,4.504371076422478
