code,date,open,high,low,close,change,volume,money,traded_market_value,market_value,turnover,adjust_price,report_type,report_date,PE_TTM,PS_TTM,PC_TTM,PB
sz002718,2014-12-31,69.72,71.32,69.42,70.56,0.012193,429937.0,30287668.58,924336000.0,3640896000.0,0.032819618320610686,71.09,2014-09-30 00:00:00,2014-10-28 00:00:00,23.101578421331375,6.490395092712933,20.566045895469347,7.375475180908602
sz002718,2014-12-30,69.71,70.1,68.62,69.71,0.0034549999999999997,324482.0,22484491.6,913201000.0,3597036000.0,0.024769618320610684,70.24,2014-09-30 00:00:00,2014-10-28 00:00:00,22.823293997618418,6.41221100394187,20.3183048049822,7.2866293097350034
sz002718,2014-12-29,72.0,72.01,69.0,69.47,-0.050697000000000006,671005.0,47045149.76,910057000.0,3584652000.0,0.05122175572519084,69.99,2014-09-30 00:00:00,2014-10-28 00:00:00,22.74471102104072,6.390133094101749,20.248346766902557,7.261540686662585
sz002718,2014-12-26,72.72,73.5,71.9,73.18,0.0026030000000000003,308306.0,22418551.51,958658000.0,3776088000.0,0.023534809160305346,73.73,2014-09-30 00:00:00,2014-10-28 00:00:00,23.959379693354723,6.7313946064657415,21.329698491316844,7.649339238012082
sz002718,2014-12-25,73.98,73.98,71.11,72.99,0.00468,532687.0,38630512.26,956169000.0,3766284000.0,0.040663129770992366,73.54,2014-09-30 00:00:00,2014-10-28 00:00:00,23.897175345929274,6.713918277190216,21.274321432627715,7.629479702346875
sz002718,2014-12-24,69.46,73.21,69.26,72.65,0.060894000000000004,655349.0,46860370.09,951715000.0,3748740000.0,0.050026641221374055,73.2,2014-09-30 00:00:00,2014-10-28 00:00:00,23.78585753267635,6.682643505584084,21.175221396492134,7.593940062852724
sz002718,2014-12-23,67.52,71.23,67.5,68.48,0.012718,648053.0,45123921.47,897088000.0,3533568000.0,0.04946969465648855,69.0,2014-09-30 00:00:00,2014-10-28 00:00:00,22.420578806814206,6.29906805541749,19.95978994743314,7.158057320385188
sz002718,2014-12-22,72.52,73.0,66.81,67.62,-0.086216,847557.0,58133017.61,885822000.0,3489192000.0,0.06469900763358778,68.13,2014-09-30 00:00:00,2014-10-28 00:00:00,22.13901481637949,6.219962571433993,19.709129241736733,7.068164405476341
sz002718,2014-12-19,77.93,77.93,72.97,74.0,-0.05128200000000001,1065015.0,79147463.8,969400000.0,3818400000.0,0.08129885496183206,74.56,2014-09-30 00:00:00,2014-10-28 00:00:00,24.227842483978154,6.80681930459933,21.568695930041162,7.735049426862739
sz002718,2014-12-18,79.79,80.74,77.4,78.0,-0.02646,556441.0,44069509.67,1021800000.0,4024800000.0,0.04247641221374046,78.59,2014-09-30 00:00:00,2014-10-28 00:00:00,25.537454210817284,7.1747550954017205,22.734570156823377,8.153159765981819
sz002718,2014-12-17,83.27,83.49,79.4,80.12,-0.051273,794224.0,64264121.46,1049572000.0,4134192000.0,0.06062778625954199,80.72,2014-09-30 00:00:00,2014-10-28 00:00:00,26.23154077985217,7.369758916327752,23.352476690041886,8.37475580457076
sz002718,2014-12-16,81.93,85.25,81.11,84.45,0.034673,947027.0,78682583.98,1106295000.0,4357620000.0,0.07229213740458015,85.09,2014-09-30 00:00:00,2014-10-28 00:00:00,27.649198114791897,7.768050151758886,24.61453789134481,8.827361089724189
sz002718,2014-12-15,78.62,82.22,78.24,81.62,0.033688,533065.0,43013055.0,1069222000.0,4211592000.0,0.04069198473282443,82.24,2014-09-30 00:00:00,2014-10-28 00:00:00,26.72264388342201,7.5077344743304275,23.789678373113837,8.531546768615968
sz002718,2014-12-12,78.85,79.32,78.11,78.96,-0.001391,347717.0,27373217.96,1034376000.0,4074336000.0,0.026543282442748086,79.56,2014-09-30 00:00:00,2014-10-28 00:00:00,25.851750125204138,7.263056622820841,23.014370267540922,8.253502767388197
sz002718,2014-12-11,77.8,79.33,76.88,79.07,0.011384,501561.0,39211535.37,1035817000.0,4080012000.0,0.03828709923664122,79.67,2014-09-30 00:00:00,2014-10-28 00:00:00,25.88775999936325,7.273173607308607,23.046427848678434,8.264999381527902
sz002718,2014-12-10,76.42,78.97,76.3,78.18,0.026387999999999998,661625.0,51528539.33,1024158000.0,4034088000.0,0.0505057251908397,78.77,2014-09-30 00:00:00,2014-10-28 00:00:00,25.596370912890897,7.191307759771369,22.787020408349775,8.171969678705517
sz002718,2014-12-09,79.12,80.88,75.5,76.17,-0.045489,1032732.0,80109533.14,997827000.0,3930372000.0,0.0788345038167939,76.74,2014-09-30 00:00:00,2014-10-28 00:00:00,24.938299076850956,7.006422288424425,22.201175781819135,7.961871805501932
sz002718,2014-12-08,80.8,82.78,79.42,79.8,-0.023256,852338.0,68450377.63,1045380000.0,4117680000.0,0.06506396946564885,80.4,2014-09-30 00:00:00,2014-10-28 00:00:00,26.12678018048085,7.340326395845019,23.259214175445997,8.341309639702352
sz002718,2014-12-05,87.7,87.7,80.88,81.7,-0.073486,1390128.0,116021893.83,1070270000.0,4215720000.0,0.10611664122137404,82.32,2014-09-30 00:00:00,2014-10-28 00:00:00,26.748851470273532,7.5150975033837115,23.81300952495843,8.53991387682172
sz002718,2014-12-04,89.99,90.73,87.4,88.18,-0.010437,888615.0,78579209.02,1155158000.0,4550088000.0,0.06783320610687024,88.85,2014-09-30 00:00:00,2014-10-28 00:00:00,28.87042340458269,8.111153747686178,25.701726606352878,9.217252925289547
sz002718,2014-12-03,86.88,91.3,85.64,89.11,0.018167,1354910.0,120090882.81,1167341000.0,4598076000.0,0.10342824427480916,89.78,2014-09-30 00:00:00,2014-10-28 00:00:00,29.17492206618749,8.19670273412221,25.972804769734598,9.314468028098814
sz002718,2014-12-02,84.12,90.6,84.12,87.52,0.036352999999999996,1779617.0,156674037.41,1146512000.0,4516032000.0,0.13584862595419847,88.18,2014-09-30 00:00:00,2014-10-28 00:00:00,28.65435833825639,8.050450205243552,25.509375937085565,9.148271381903768
sz002718,2014-12-01,81.31,84.8,80.0,84.45,0.040665,1155264.0,95257468.12,1106295000.0,4357620000.0,0.08818809160305344,85.09,2014-09-30 00:00:00,2014-10-28 00:00:00,27.64922602458466,7.768057993023179,24.614562737875573,8.827370000283462
sz002718,2014-11-28,81.12,82.49,79.92,81.15,0.00309,897110.0,72729301.07,1063065000.0,4187340000.0,0.06848167938931297,81.76,2014-09-30 00:00:00,2014-10-28 00:00:00,26.568805547015288,7.464513549531483,23.65272468842094,8.482431906793698
sz002718,2014-11-27,79.7,81.08,79.6,80.9,0.019534,721948.0,57996051.08,1059790000.0,4174440000.0,0.05511053435114504,81.51,2014-09-30 00:00:00,2014-10-28 00:00:00,26.486960838025784,7.441519255033428,23.579862912022783,8.456301933818198
sz002718,2014-11-26,79.1,80.59,78.31,79.35,0.008259,575243.0,45681742.59,1039485000.0,4094460000.0,0.04391167938931297,79.95,2014-09-30 00:00:00,2014-10-28 00:00:00,25.979477720238645,7.298941727331731,23.1280790165142,8.294281440165996
sz002718,2014-11-25,79.51,80.0,77.18,78.7,-0.015019,755808.0,59236679.8,1030970000.0,4060920000.0,0.057695267175572516,79.29,2014-09-30 00:00:00,2014-10-28 00:00:00,25.76667078621529,7.23915355809542,22.938628880589405,8.226340097302375
sz002718,2014-11-24,81.12,81.49,79.25,79.9,-0.002746,687166.0,55049812.61,1046690000.0,4122840000.0,0.05245541984732825,80.5,2014-09-30 00:00:00,2014-10-28 00:00:00,26.159561236425162,7.349536242927956,23.288397319937552,8.351775412218485
sz002718,2014-11-21,78.06,80.4,77.72,80.12,0.026389999999999997,832815.0,66139208.22,1049572000.0,4134192000.0,0.0635736641221374,80.72,2014-09-30 00:00:00,2014-10-28 00:00:00,26.231593191328553,7.369773641347096,23.352523349054056,8.374772537606754
sz002718,2014-11-20,76.5,78.43,76.02,78.06,0.008136,462572.0,35899395.97,1022586000.0,4027896000.0,0.03531083969465649,78.65,2014-09-30 00:00:00,2014-10-28 00:00:00,25.557140259870575,7.180285896537473,22.75209554755411,8.159444789608976
sz002718,2014-11-19,78.29,78.72,76.47,77.43,-0.012372,552274.0,42742707.06,1014333000.0,3995388000.0,0.04215832061068703,78.01,2014-09-30 00:00:00,2014-10-28 00:00:00,25.350885455802167,7.122338550093909,22.568478407232863,8.093595298262313
sz002718,2014-11-18,77.8,78.59,76.52,78.4,0.013313,500224.0,38914776.97,1027040000.0,4045440000.0,0.03818503816793894,78.99,2014-09-30 00:00:00,2014-10-28 00:00:00,25.66845558834112,7.211559970043284,22.851193371626625,8.194983635804485
sz002718,2014-11-17,75.02,79.0,75.0,77.37,0.018965,746024.0,57851226.27,1013547000.0,3992292000.0,0.05694839694656489,77.95,2014-09-30 00:00:00,2014-10-28 00:00:00,25.33122104260098,7.116813827557018,22.550972277693692,8.087317182158412
sz002718,2014-11-14,79.48,80.79,74.5,75.93,-0.05677000000000001,1452939.0,112417051.13,994683000.0,3917988000.0,0.11091137404580154,76.5,2014-09-30 00:00:00,2014-10-28 00:00:00,24.85975577434061,6.984355525024921,22.131253063347312,7.936795848884321
sz002718,2014-11-13,80.51,81.58,79.0,80.5,-0.030004000000000003,1213204.0,97669860.13,1054550000.0,4153800000.0,0.09261099236641221,81.11,2014-09-30 00:00:00,2014-10-28 00:00:00,26.35598504536604,7.404721568466781,23.463262473996068,8.41448623229151
sz002718,2014-11-12,78.2,83.8,77.6,82.99,0.059221,1753567.0,143319854.9,1087169000.0,4282284000.0,0.13386007633587788,83.62,2014-09-30 00:00:00,2014-10-28 00:00:00,27.171230649782103,7.633765055182476,24.18903013414083,8.674763846749379
sz002718,2014-11-11,76.99,78.35,75.8,78.35,0.014765,1067026.0,82213658.81,1026385000.0,4042860000.0,0.08145236641221373,78.94,2014-09-30 00:00:00,2014-10-28 00:00:00,25.652088326970578,7.206961583260222,22.83662251233768,8.18975817770737
sz002718,2014-11-10,76.32,77.58,75.8,77.21,0.013255000000000001,927915.0,71237587.35,1011451000.0,3984036000.0,0.07083320610687022,77.79,2014-09-30 00:00:00,2014-10-28 00:00:00,25.278846163368446,7.102099090193515,22.504345845922632,8.070595830273383
sz002718,2014-11-07,79.35,79.45,76.0,76.2,-0.029299000000000002,837689.0,65315124.47,998220000.0,3931920000.0,0.0639457251908397,76.77,2014-09-30 00:00:00,2014-10-28 00:00:00,24.94815832477357,7.009192246960058,22.20995291996845,7.965019496842733
sz002718,2014-11-06,75.91,78.5,75.91,78.5,0.032895,914870.0,70794589.71,1028350000.0,4050600000.0,0.06983740458015267,79.09,2014-09-30 00:00:00,2014-10-28 00:00:00,25.70117711300758,7.220753091796608,22.880323518744135,8.205430402196695
sz002718,2014-11-05,76.79,77.15,75.58,76.0,-0.013371000000000001,462008.0,35158645.12,995600000.0,3921600000.0,0.03526778625954199,76.57,2014-09-30 00:00:00,2014-10-28 00:00:00,24.882661948220857,6.990791021155692,22.151645151486004,7.944108938659491
sz002718,2014-11-04,77.15,78.6,76.53,77.03,0.001691,686732.0,53110449.16,1009093000.0,3974748000.0,0.05242229007633588,77.61,2014-09-30 00:00:00,2014-10-28 00:00:00,25.219876922552302,7.0855316650490625,22.451848822086117,8.05176914388234
sz002718,2014-11-03,75.96,77.0,75.53,76.9,0.013175,552142.0,42072855.7,1007390000.0,3968040000.0,0.04214824427480916,77.48,2014-09-30 00:00:00,2014-10-28 00:00:00,25.177302104693265,7.073570257743219,22.413946837983087,8.038176587273263
sz002718,2014-10-31,76.35,76.89,74.37,75.9,-0.0013160000000000001,764241.0,57696542.52,994290000.0,3916440000.0,0.05833900763358779,76.47,2014-09-30 00:00:00,2014-10-28 00:00:00,24.849904611437577,6.9815878379778615,22.12248312283968,7.9336507387897095
sz002718,2014-10-30,76.03,78.38,75.8,76.0,0.0,856311.0,65808233.38,995600000.0,3921600000.0,0.06536725190839694,76.57,2014-09-30 00:00:00,2014-10-28 00:00:00,24.882650179073234,6.990787714610287,22.15163467407075,7.944105181208178
sz002718,2014-10-29,75.72,78.48,75.42,76.0,0.003963,945410.0,72688652.76,995600000.0,3921600000.0,0.07216870229007634,76.57,2014-09-30 00:00:00,2014-10-28 00:00:00,24.882650179073234,6.990787714610287,22.15163467407075,7.944105181208178
sz002718,2014-10-28,73.4,76.49,73.4,75.7,0.023941999999999998,803894.0,60797022.14,991670000.0,3906120000.0,0.06136595419847328,76.27,2014-09-30 00:00:00,2014-10-28 00:00:00,24.784429485024084,6.9631925824062115,22.06419427217014,7.9127469649859385
sz002718,2014-10-27,72.37,74.74,71.66,73.93,0.021556,680153.0,49878485.6,968483000.0,3814788000.0,0.05192007633587787,74.49,2014-06-30 00:00:00,2014-08-23 00:00:00,30.81566970837316,8.491867236392716,25.502495398345175,8.59312971558972
sz002718,2014-10-24,76.51,77.23,72.0,72.37,-0.058908,1097760.0,81661898.91,948047000.0,3734292000.0,0.08379847328244275,72.92,2014-06-30 00:00:00,2014-08-23 00:00:00,30.165423832245285,8.31267912517054,24.96436357707769,8.41180485023799
sz002718,2014-10-23,76.58,79.68,75.25,76.9,0.000781,1016230.0,78958853.09,1007390000.0,3968040000.0,0.07757480916030536,77.48,2014-06-30 00:00:00,2014-08-23 00:00:00,32.05363963591794,8.833014333530134,26.52701710042981,8.938344869829931
sz002718,2014-10-22,76.1,77.6,75.55,76.84,0.010920000000000001,764986.0,58493743.65,1006604000.0,3964944000.0,0.05839587786259542,77.42,2014-06-30 00:00:00,2014-08-23 00:00:00,32.0286252795746,8.826121132925321,26.50631566789319,8.93136947027365
sz002718,2014-10-21,75.3,78.68,75.0,76.01,0.009295,819089.0,62911156.99,995731000.0,3922116000.0,0.06252587786259542,76.58,2014-06-30 00:00:00,2014-08-23 00:00:00,31.682650733564074,8.730781004357732,26.219993340613687,8.834892444776687
sz002718,2014-10-20,76.44,76.44,74.65,75.31,-0.020676,843699.0,63565277.89,986561000.0,3885996000.0,0.0644045038167939,75.88,2014-06-30 00:00:00,2014-08-23 00:00:00,31.390872572998056,8.650375761653166,25.97852296961115,8.753528398314355
sz002718,2014-10-17,70.55,78.09,70.27,76.9,0.083251,1929353.0,144062230.06,1007390000.0,3968040000.0,0.14727885496183207,77.48,2014-06-30 00:00:00,2014-08-23 00:00:00,32.05361307697765,8.833007014688874,26.52699512072731,8.93833746371411
sz002718,2014-10-16,68.96,72.72,68.77,70.99,0.018508,1107169.0,78506375.36,929969000.0,3663084000.0,0.0845167175572519,71.53,2014-06-30 00:00:00,2014-08-23 00:00:00,29.59019938774822,8.154164653149524,24.488318146696663,8.251400149839796
sz002718,2014-10-15,68.98,71.28,68.85,69.7,0.005337,909456.0,63698329.13,913070000.0,3596520000.0,0.06942412213740458,70.23,2014-06-30 00:00:00,2014-08-23 00:00:00,29.052495795563928,8.005989794041406,24.04332430054223,8.10145835853994
sz002718,2014-10-14,68.55,69.4,67.76,69.33,0.005365,549094.0,37666438.82,908223000.0,3577428000.0,0.04191557251908397,69.85,2014-06-30 00:00:00,2014-08-23 00:00:00,28.898265751249504,7.9634886550891935,23.915686282850654,8.05845040870866
sz002718,2014-10-13,66.65,69.4,65.1,68.96,0.029869,795502.0,53539253.5,903376000.0,3558336000.0,0.060725343511450376,69.48,2014-06-30 00:00:00,2014-08-23 00:00:00,28.744053902064927,7.92099253016486,23.788063323122106,8.015447532695747
sz002718,2014-10-10,66.6,69.45,66.46,66.96,0.000299,688945.0,46891040.95,877176000.0,3455136000.0,0.052591221374045795,67.47,2014-06-30 00:00:00,2014-08-23 00:00:00,27.91039821770043,7.691262218947126,23.098144835044167,7.782977769692793
sz002718,2014-10-09,66.81,67.02,65.8,66.94,0.000149,543489.0,36114763.79,876914000.0,3454104000.0,0.04148770992366412,67.44,2014-06-30 00:00:00,2014-08-23 00:00:00,27.902055503105,7.688963218944663,23.09124055411849,7.780651354937667
sz002718,2014-10-08,65.0,67.36,64.32,66.93,0.043173,773924.0,51405311.8,876783000.0,3453588000.0,0.05907816793893131,67.43,2014-06-30 00:00:00,2014-08-23 00:00:00,27.897898716196288,7.687817734102281,23.08780047184818,7.7794922105982875
sz002718,2014-09-30,64.65,64.65,63.8,64.16,-0.000156,459281.0,29466549.9,840496000.0,3310656000.0,0.035059618320610685,64.64,2014-06-30 00:00:00,2014-08-23 00:00:00,26.743309802109803,7.369647924267865,22.132283400594325,7.457528339593038
sz002718,2014-09-29,62.66,64.95,62.66,64.17,0.025244,748407.0,48000944.29,840627000.0,3311172000.0,0.05713030534351145,64.65,2014-06-30 00:00:00,2014-08-23 00:00:00,26.747482409365666,7.370797768719785,22.135736575500104,7.458691895528741
sz002718,2014-09-26,60.5,63.37,60.08,62.59,0.031307,643714.0,40093306.77,819929000.0,3229644000.0,0.049138473282442745,63.06,2014-06-30 00:00:00,2014-08-23 00:00:00,26.08889436013833,7.189310806715069,21.590700921439286,7.275040766421203
sz002718,2014-09-25,61.35,61.78,60.6,60.69,-0.00979,490893.0,30087517.67,795039000.0,3131604000.0,0.03747274809160305,61.15,2014-06-30 00:00:00,2014-08-23 00:00:00,25.296923573812965,6.97106759356338,20.935280107125507,7.054195081019718
sz002718,2014-09-24,61.0,61.47,60.88,61.29,-0.00016299999999999998,509951.0,31213589.08,802899000.0,3162564000.0,0.0389275572519084,61.75,2014-06-30 00:00:00,2014-08-23 00:00:00,25.547028987601585,7.039989086722392,21.142262860530096,7.1239384383309785
sz002718,2014-09-23,58.96,61.58,58.96,61.3,0.038983,974124.0,59051136.22,803030000.0,3163080000.0,0.0743606106870229,61.76,2014-06-30 00:00:00,2014-08-23 00:00:00,25.55119383219623,7.041136792019491,21.145709611196718,7.125099829603203
sz002718,2014-09-22,59.91,59.91,58.65,59.0,-0.011725,270041.0,15967280.91,772900000.0,3044400000.0,0.02061381679389313,59.45,2014-06-30 00:00:00,2014-08-23 00:00:00,24.592504239430514,6.776950914518805,20.352315303712114,6.857763630014354
sz002718,2014-09-19,58.85,59.76,58.7,59.7,0.012208,342353.0,20301762.9,782070000.0,3080520000.0,0.02613381679389313,60.15,2014-06-30 00:00:00,2014-08-23 00:00:00,24.88427233252942,6.857353382933702,20.593777343059486,6.939124869104606
sz002718,2014-09-18,59.16,59.3,58.54,58.98,-0.002874,293013.0,17263425.48,772638000.0,3043368000.0,0.022367404580152673,59.42,2014-06-30 00:00:00,2014-08-23 00:00:00,24.584149041036447,6.774648474358731,20.345400691418646,6.85543373407897
sz002718,2014-09-17,57.94,59.32,57.61,59.15,0.020884,545918.0,32008301.18,774865000.0,3052140000.0,0.04167312977099236,59.6,2014-06-30 00:00:00,2014-08-23 00:00:00,24.65500753268539,6.794174933116508,20.404041907861842,6.87519303887269
sz002718,2014-09-16,60.3,60.4,57.8,57.94,-0.039456,860732.0,50847678.39,759014000.0,2989704000.0,0.06570473282442749,58.38,2014-06-30 00:00:00,2014-08-23 00:00:00,24.150645453044017,6.655187987191992,19.986640899320438,6.734548723334572
sz002718,2014-09-15,59.5,60.53,59.29,60.32,0.01293,682397.0,40979853.94,790192000.0,3112512000.0,0.052091374045801525,60.77,2014-06-30 00:00:00,2014-08-23 00:00:00,25.142674831183182,6.92856130192057,20.807626615043596,7.0111819170538485
sz002718,2014-09-12,59.3,59.77,58.91,59.55,-0.000168,500990.0,29666223.21,780105000.0,3072780000.0,0.03824351145038168,60.0,2014-06-30 00:00:00,2014-08-23 00:00:00,24.821729864041128,6.840118568825654,20.542018318189406,6.921684536003324
sz002718,2014-09-11,59.17,60.63,58.85,59.56,0.002525,749796.0,44736018.67,780236000.0,3073296000.0,0.057236335877862594,60.01,2014-06-30 00:00:00,2014-08-23 00:00:00,24.82590061534451,6.841267901833162,20.545469957142206,6.922847574395823
sz002718,2014-09-10,59.11,59.62,58.87,59.41,0.004905,451955.0,26816530.46,778271000.0,3065556000.0,0.03450038167938931,59.86,2014-06-30 00:00:00,2014-08-23 00:00:00,24.76337309827137,6.824037207883255,20.493723305795072,6.905411410584097
sz002718,2014-09-09,59.99,60.24,58.74,59.12,-0.011537,517685.0,30582994.66,774472000.0,3050592000.0,0.03951793893129771,59.57,2014-06-30 00:00:00,2014-08-23 00:00:00,24.642501627787077,6.790728683689758,20.39369224533172,6.871705694154271
sz002718,2014-09-05,60.63,60.63,59.73,59.81,-0.007468000000000001,494780.0,29734789.65,783511000.0,3086196000.0,0.037769465648854965,60.26,2014-06-30 00:00:00,2014-08-23 00:00:00,24.930120427155167,6.869987732155638,20.631720403628385,6.951909878421622
sz002718,2014-09-04,59.16,60.8,58.86,60.26,0.018765999999999998,649046.0,39044448.42,789406000.0,3109416000.0,0.049545496183206104,60.71,2014-06-30 00:00:00,2014-08-23 00:00:00,25.117699406321577,6.921678829655506,20.78695740150281,7.004217373768929
sz002718,2014-09-03,59.29,59.57,58.88,59.15,0.001524,532293.0,31542074.31,774865000.0,3052140000.0,0.0406330534351145,59.6,2014-06-30 00:00:00,2014-08-23 00:00:00,24.655023240196055,6.794179261631724,20.40405490711587,6.875197419003902
sz002718,2014-09-02,58.5,59.38,58.5,59.06,0.011301,791043.0,46634006.4,773686000.0,3047496000.0,0.06038496183206107,59.51,2014-06-30 00:00:00,2014-08-23 00:00:00,24.617506160806983,6.7838406884225675,20.373006445293242,6.864735562007401
sz002718,2014-09-01,57.85,58.4,57.6,58.4,0.01073,480532.0,27866509.02,765040000.0,3013440000.0,0.0366818320610687,58.84,2014-06-30 00:00:00,2014-08-23 00:00:00,24.34241255650591,6.708033205170931,20.145343913724243,6.788024101634826
sz002718,2014-08-29,56.58,57.95,56.58,57.78,0.016359000000000002,318884.0,18288205.79,756918000.0,2981448000.0,0.024342290076335878,58.22,2014-06-30 00:00:00,2014-08-23 00:00:00,24.08399132953995,6.636820125227243,19.931479142524953,6.715961831186199
sz002718,2014-08-28,57.78,58.3,56.82,56.85,-0.020672,514419.0,29529699.62,744735000.0,2933460000.0,0.03926862595419847,57.28,2014-06-30 00:00:00,2014-08-23 00:00:00,23.696342856746433,6.529995921940223,19.61066822109604,6.607863787486703
sz002718,2014-08-27,57.9,58.27,57.55,58.05,0.001726,362659.0,21004082.61,760455000.0,2995380000.0,0.027683893129770994,58.49,2014-06-30 00:00:00,2014-08-23 00:00:00,24.1965335993114,6.66783337343589,20.024617105909403,6.74734490128609
sz002718,2014-08-26,58.96,59.39,57.8,57.95,-0.020784,628645.0,36752251.31,759145000.0,2990220000.0,0.0479881679389313,58.39,2014-06-30 00:00:00,2014-08-23 00:00:00,24.154842341430093,6.656344522789556,19.990114168853964,6.735719050205437
sz002718,2014-08-25,60.1,60.45,58.71,59.18,-0.047327999999999995,1345487.0,79982972.13,775258000.0,3053688000.0,0.10270893129770993,59.63,2014-06-30 00:00:00,2014-08-23 00:00:00,24.667532333448488,6.7976263896725095,20.41440720827066,6.8786856528135125
sz002718,2014-08-22,61.51,62.49,61.32,62.12,0.005340999999999999,445932.0,27620185.55,813772000.0,3205392000.0,0.0340406106870229,62.59,2014-03-31 00:00:00,2014-04-22 00:00:00,35.48825675701295,9.254964638488795,33.234548643648914,7.231078098274653
sz002718,2014-08-21,62.86,62.98,61.08,61.79,-0.014356,529012.0,32708306.2,809449000.0,3188364000.0,0.04038259541984733,62.26,2014-03-31 00:00:00,2014-04-22 00:00:00,35.29972094743271,9.205796479491829,33.05798594073942,7.192662090051687
sz002718,2014-08-20,61.87,63.0,61.55,62.69,0.011129,512535.0,32042152.45,821239000.0,3234804000.0,0.03912480916030534,63.16,2014-03-31 00:00:00,2014-04-22 00:00:00,35.81386479036317,9.339879793811793,33.5394786969123,7.297423907670202
sz002718,2014-08-19,60.2,62.56,60.18,62.0,0.026489999999999996,717403.0,44203384.14,812200000.0,3199200000.0,0.05476358778625954,62.47,2014-03-31 00:00:00,2014-04-22 00:00:00,35.41967918076049,9.237080326854231,33.17032613732995,7.217104748919477
sz002718,2014-08-18,59.98,60.98,59.98,60.4,0.007673999999999999,413314.0,24947255.92,791240000.0,3116640000.0,0.031550687022900765,60.86,2014-03-31 00:00:00,2014-04-22 00:00:00,34.505625170007,8.998704640916358,32.314319805677556,7.030857338034932
sz002718,2014-08-15,59.45,60.4,59.45,59.94,0.0016710000000000002,329225.0,19729189.24,785214000.0,3092904000.0,0.025131679389312978,60.39,2014-03-31 00:00:00,2014-04-22 00:00:00,34.242845573079194,8.930174481941934,32.06822822229963,6.977313434736762
sz002718,2014-08-14,59.43,60.78,59.43,59.84,0.000669,393709.0,23683991.07,783904000.0,3087744000.0,0.03005412213740458,60.29,2014-03-31 00:00:00,2014-04-22 00:00:00,34.18572123289902,8.915277053984727,32.01473160578636,6.965673793827277
sz002718,2014-08-13,59.93,60.43,58.85,59.8,-0.005488,611267.0,36366537.24,783380000.0,3085680000.0,0.04666160305343511,60.25,2014-03-31 00:00:00,2014-04-22 00:00:00,34.162866275360805,8.909316721098314,31.993328069308,6.96101687353888
sz002718,2014-08-12,59.9,61.56,59.63,60.13,0.002167,677537.0,41125797.14,787703000.0,3102708000.0,0.05172038167938931,60.58,2014-03-31 00:00:00,2014-04-22 00:00:00,34.35138668549078,8.958480864080387,32.169876350720756,6.999429743973809
sz002718,2014-08-11,58.92,60.5,58.92,60.0,0.018330000000000003,722706.0,43374530.61,786000000.0,3096000000.0,0.055168396946564884,60.45,2014-03-31 00:00:00,2014-04-22 00:00:00,34.27710819203863,8.939109813115365,32.1003149681847,6.984294777191633
sz002718,2014-08-08,57.98,59.8,57.52,58.92,0.02079,683087.0,40235507.66,771852000.0,3040272000.0,0.05214404580152672,59.36,2014-03-31 00:00:00,2014-04-22 00:00:00,33.660118224974845,8.778205309786971,31.52250740740693,6.858577059687561
sz002718,2014-08-07,58.34,58.86,57.56,57.72,-0.010627,506690.0,29430514.65,756132000.0,2978352000.0,0.03867862595419847,58.16,2014-03-31 00:00:00,2014-04-22 00:00:00,32.97457677384657,8.599423299392598,30.880501775494395,6.718891309365844
sz002718,2014-08-06,58.7,59.19,57.92,58.34,-0.007823,591223.0,34580226.83,764254000.0,3010344000.0,0.045131526717557255,58.78,2014-03-31 00:00:00,2014-04-22 00:00:00,33.32876152254667,8.691790961945188,31.21219375856668,6.791059902954542
sz002718,2014-08-05,57.06,59.59,57.0,58.8,0.031579,823973.0,48250586.64,770280000.0,3034080000.0,0.06289870229007634,59.24,2014-03-31 00:00:00,2014-04-22 00:00:00,33.59154820414773,8.760322968527985,31.458291976700416,6.844605249823916
sz002718,2014-08-04,56.58,57.29,56.43,57.0,0.006178,274114.0,15623719.23,746700000.0,2941200000.0,0.020924732824427483,57.43,2014-03-31 00:00:00,2014-04-22 00:00:00,32.56323384263128,8.492149383157262,30.49528148275645,6.635076179162154
sz002718,2014-08-01,57.5,57.7,56.5,56.65,-0.020235,614874.0,35025927.47,742115000.0,2923140000.0,0.04693694656488549,57.08,2014-03-31 00:00:00,2014-04-22 00:00:00,32.36329341590779,8.440007019789006,30.308038421389107,6.594336369074014
sz002718,2014-07-31,57.39,58.18,57.02,57.82,0.005915,571361.0,33035023.43,757442000.0,2983512000.0,0.04361534351145038,58.26,2014-03-31 00:00:00,2014-04-22 00:00:00,33.031689656098955,8.614317739242578,30.933987661724093,6.7305286156109005
sz002718,2014-07-30,57.91,58.18,56.61,57.48,-0.007425,624487.0,35710379.66,752988000.0,2965968000.0,0.04767076335877862,57.91,2014-03-31 00:00:00,2014-04-22 00:00:00,32.83745610324824,8.563663668642558,30.752089054963985,6.69095163667994
sz002718,2014-07-29,58.1,58.5,57.38,57.91,0.000518,603151.0,34912334.31,758621000.0,2988156000.0,0.04604206106870229,58.35,2014-03-31 00:00:00,2014-04-22 00:00:00,33.08309810669042,8.627724523227522,30.98213138046393,6.74100358832324
sz002718,2014-07-28,55.38,57.97,55.2,57.88,0.048931,858301.0,48842855.77,758228000.0,2986608000.0,0.06551916030534351,58.32,2014-03-31 00:00:00,2014-04-22 00:00:00,33.065969934264466,8.62325767575148,30.966090945354228,6.737513556301074
sz002718,2014-07-25,54.03,55.38,54.03,55.18,0.010623,335292.0,18344740.76,722858000.0,2847288000.0,0.025594809160305345,55.6,2014-03-31 00:00:00,2014-04-22 00:00:00,31.523493856378032,8.220996114855488,29.521570956863922,6.423219026133344
sz002718,2014-07-24,54.0,55.58,53.9,54.6,0.012799,559480.0,30730686.15,715260000.0,2817360000.0,0.042708396946564885,55.01,2014-03-31 00:00:00,2014-04-22 00:00:00,31.192139755752663,8.134582445536552,29.21125974459706,6.355702399542997
sz002718,2014-07-23,55.63,56.2,53.25,53.91,-0.024959000000000002,574443.0,31479621.36,706221000.0,2781756000.0,0.0438506106870229,54.32,2014-03-31 00:00:00,2014-04-22 00:00:00,30.797956707848904,8.031783646643165,28.842109584031043,6.275383762763388
sz002718,2014-07-22,54.8,55.97,54.47,55.29,0.006371,285300.0,15793922.32,724299000.0,2852964000.0,0.021778625954198473,55.71,2014-03-31 00:00:00,2014-04-22 00:00:00,31.58631966024906,8.237380424662312,29.58040696138013,6.436020395822728
sz002718,2014-07-21,56.0,56.56,54.2,54.94,-0.02242,474292.0,26171992.45,719714000.0,2834904000.0,0.03620549618320611,55.35,2014-03-31 00:00:00,2014-04-22 00:00:00,31.3863571786638,8.185232309617739,29.393143245761394,6.395276091841606
sz002718,2014-07-18,57.75,57.98,55.85,56.2,-0.02785,597015.0,33847888.46,736220000.0,2899920000.0,0.045573664122137404,56.62,2014-03-31 00:00:00,2014-04-22 00:00:00,32.10617768230099,8.372953936882647,30.0672510134837,6.5419465331140225
sz002718,2014-07-17,57.61,58.88,57.06,57.81,0.005566,716112.0,41459644.75,757311000.0,2982996000.0,0.05466503816793893,58.25,2014-03-31 00:00:00,2014-04-22 00:00:00,33.02595040096795,8.612821001782285,30.928612882254484,6.729359186456846
sz002718,2014-07-16,58.0,58.5,56.41,57.49,-0.016761,896657.0,51565662.64,753119000.0,2966484000.0,0.06844709923664122,57.92,2014-03-31 00:00:00,2014-04-22 00:00:00,32.84314545337447,8.565147391401743,30.757417098683216,6.692110897203014
sz002718,2014-07-15,56.4,58.97,55.08,58.47,0.035233999999999994,1482394.0,85147272.06,765957000.0,3017052000.0,0.11315984732824427,58.91,2014-03-31 00:00:00,2014-04-22 00:00:00,33.403013360306566,8.711155061385629,31.28173017820003,6.806189438379697
sz002718,2014-07-14,54.3,56.48,54.01,56.48,0.04612,941297.0,52478329.97,739888000.0,2914368000.0,0.07185473282442748,56.91,2014-03-31 00:00:00,2014-04-22 00:00:00,32.26614790502106,8.414672490843257,30.217062208350992,6.57454202468205
sz002718,2014-07-11,54.21,55.3,53.58,53.99,-0.0020329999999999997,600230.0,32685345.84,707269000.0,2785884000.0,0.04581908396946565,54.4,2014-03-31 00:00:00,2014-04-22 00:00:00,30.843639262246256,8.043697177038252,28.88489103386895,6.284692028335228
sz002718,2014-07-10,53.03,55.35,53.03,54.1,0.010648000000000001,635905.0,34570150.61,708710000.0,2791560000.0,0.04854236641221374,54.51,2014-03-31 00:00:00,2014-04-22 00:00:00,30.90647212006635,8.060083326440907,28.943733644367953,6.297494835335465
sz002718,2014-07-09,55.1,55.66,53.2,53.53,-0.031657,833127.0,45460360.03,701243000.0,2762148000.0,0.06359748091603054,53.93,2014-03-31 00:00:00,2014-04-22 00:00:00,30.580847258458288,7.975163782485006,28.63878783153774,6.231145597018414
sz002718,2014-07-08,54.3,55.47,53.78,55.28,0.017672999999999998,689139.0,37896420.19,724168000.0,2852448000.0,0.052606030534351145,55.7,2014-03-31 00:00:00,2014-04-22 00:00:00,31.58059412672812,8.235887265653808,29.575045032119544,6.434853762580421
sz002718,2014-07-07,55.8,55.81,54.19,54.32,-0.026523,765616.0,41764933.37,711592000.0,2802912000.0,0.05844396946564886,54.73,2014-03-31 00:00:00,2014-04-22 00:00:00,31.03216271506478,8.092862113521543,29.061442164742058,6.323105518747595
sz002718,2014-07-04,55.66,56.55,55.35,55.8,0.008312,1036180.0,57978823.46,730980000.0,2879280000.0,0.07909770992366412,56.22,2014-03-31 00:00:00,2014-04-22 00:00:00,31.87765372480786,8.313357288894903,29.853239639705983,6.495382550124549
sz002718,2014-07-03,54.9,55.38,54.17,55.34,0.007097,747337.0,40934484.59,724954000.0,2855544000.0,0.057048625954198476,55.76,2014-03-31 00:00:00,2014-04-22 00:00:00,31.6148709177396,8.244826292749567,29.60714505004996,6.441837992728985
sz002718,2014-07-02,55.8,56.2,53.71,54.95,-0.026226999999999997,1578963.0,86663666.8,719845000.0,2835420000.0,0.12053152671755725,55.36,2014-03-31 00:00:00,2014-04-22 00:00:00,31.392081316635444,8.186725104681642,29.398503868098075,6.396442440727145
sz002718,2014-07-01,56.3,57.37,55.39,56.43,0.001953,962626.0,54178629.15,739233000.0,2911788000.0,0.07348290076335878,56.86,2014-03-31 00:00:00,2014-04-22 00:00:00,32.23757622837709,8.407221297655246,30.190304997261244,6.568720267174325
sz002718,2014-06-30,57.6,57.85,55.78,56.32,-0.020522,1078224.0,61107071.85,737792000.0,2906112000.0,0.08230717557251908,56.74,2014-03-31 00:00:00,2014-04-22 00:00:00,32.174738963181994,8.39083399885548,30.131458259280866,6.5559165621284885
sz002718,2014-06-27,58.0,58.2,56.34,57.5,-0.0065650000000000005,1448871.0,82956916.3,753250000.0,2967000000.0,0.11060083969465649,57.93,2014-03-31 00:00:00,2014-04-22 00:00:00,32.848863336575185,8.56663855528708,30.762771863462845,6.693275971618032
sz002718,2014-06-26,55.1,58.93,55.1,57.88,0.048931,2102016.0,120231053.37,758228000.0,2986608000.0,0.1604592366412214,58.32,2014-03-31 00:00:00,2014-04-22 00:00:00,33.06594124082118,8.623250192802832,30.96606407410938,6.737507709732427
sz002718,2014-06-25,52.72,55.99,52.7,55.18,0.033333,1910880.0,104546431.2,722858000.0,2847288000.0,0.14586870229007634,55.6,2014-03-31 00:00:00,2014-04-22 00:00:00,31.523466501439252,8.220988980974756,29.521545339120856,6.4232134522980315
sz002718,2014-06-24,52.88,53.99,51.5,53.4,0.028109,1744294.0,91808638.57,699540000.0,2755440000.0,0.13315221374045802,53.8,2014-03-31 00:00:00,2014-04-22 00:00:00,30.506590326099385,7.955798354426653,28.56924664084168,6.216015023519071
sz002718,2014-06-23,47.61,51.94,47.57,51.94,0.099958,1702730.0,87317373.01,680414000.0,2680104000.0,0.1299793893129771,52.33,2014-03-31 00:00:00,2014-04-22 00:00:00,29.672525312101524,7.738282958739446,27.788149545273587,6.046066150105748
sz002718,2014-06-20,46.5,47.45,45.99,47.22,0.026744999999999998,422604.0,19765240.27,618582000.0,2436552000.0,0.03225984732824427,47.58,2014-03-31 00:00:00,2014-04-22 00:00:00,26.976053005752515,7.035071301576466,25.262918716236065,5.496633644289827
sz002718,2014-06-19,49.9,49.9,45.99,45.99,-0.07109700000000001,642252.0,30748112.98,602469000.0,2373084000.0,0.04902687022900763,46.34,2014-03-31 00:00:00,2014-04-22 00:00:00,26.273371680166463,6.851819391939055,24.604861690328235,5.35345547754294
sz002718,2014-06-18,49.5,50.24,49.5,49.51,-0.005823,311618.0,15526917.38,648581000.0,2554716000.0,0.02378763358778626,49.88,2014-03-31 00:00:00,2014-04-22 00:00:00,28.284300599918897,7.376248533957858,26.488085074898276,5.763201838666621
sz002718,2014-06-17,50.33,50.79,49.8,49.8,-0.014447,428673.0,21542091.42,652380000.0,2569680000.0,0.032723129770992364,50.18,2014-03-31 00:00:00,2014-04-22 00:00:00,28.449964744626858,7.419452002971158,26.643228595007002,5.796957522319085
sz002718,2014-06-16,50.88,51.48,50.44,50.53,0.004772,616738.0,31354662.66,661943000.0,2607348000.0,0.04707923664122137,50.91,2014-03-31 00:00:00,2014-04-22 00:00:00,28.867006385883723,7.528212082933297,27.033785696971147,5.881933820219801
sz002718,2014-06-13,48.24,50.78,48.24,50.29,0.0352,908682.0,45354750.36,658799000.0,2594964000.0,0.06936503816793893,50.67,2014-03-31 00:00:00,2014-04-22 00:00:00,28.72990726839892,7.4924580730088985,26.905393160807773,5.8539985391907825
sz002718,2014-06-12,48.55,48.94,48.0,48.58,0.000618,356272.0,17241702.27,636398000.0,2506728000.0,0.027196335877862597,48.95,2014-03-31 00:00:00,2014-04-22 00:00:00,27.753001611668203,7.237691337914315,25.990526623655114,5.654944493035918
sz002718,2014-06-11,49.28,49.28,48.16,48.55,-0.009588,439764.0,21313944.12,636005000.0,2505180000.0,0.03356977099236641,48.92,2014-03-31 00:00:00,2014-04-22 00:00:00,27.735860849663112,7.23322120720826,25.974474398476854,5.651451895764336
sz002718,2014-06-10,48.4,49.18,48.26,49.02,0.017511000000000002,353602.0,17232694.97,642162000.0,2529432000.0,0.026992519083969466,49.39,2014-03-31 00:00:00,2014-04-22 00:00:00,28.004366717752934,7.303244717560229,26.225928601911992,5.7061625826063676
sz002718,2014-06-09,49.52,49.99,48.54,48.54,-0.026083,428030.0,21084902.01,635874000.0,2504664000.0,0.03267404580152672,48.54,2014-03-31 00:00:00,2014-04-22 00:00:00,27.522421593233812,7.177558490827351,25.774589760613882,5.60796156759619
sz002718,2014-06-06,49.91,50.3,49.38,49.84,-0.001202,412788.0,20562872.83,652904000.0,2571744000.0,0.031510534351145036,49.84,2014-03-31 00:00:00,2014-04-22 00:00:00,28.259514510203445,7.369784582081789,26.464873044226437,5.758151431380897
sz002718,2014-06-05,49.75,50.08,49.21,49.9,0.001405,633907.0,31467329.24,653690000.0,2574840000.0,0.04838984732824427,49.9,2014-03-31 00:00:00,2014-04-22 00:00:00,28.29352332524039,7.378653723857867,26.49672210419568,5.765081058813592
sz002718,2014-06-04,48.43,49.96,48.41,49.83,0.029970999999999998,919854.0,45259847.39,652773000.0,2571228000.0,0.07021786259541984,49.83,2014-03-31 00:00:00,2014-04-22 00:00:00,28.253826698728673,7.368301260586742,26.45954644144545,5.756992484373047
sz002718,2014-06-03,48.2,49.0,48.02,48.38,0.0037340000000000003,381100.0,18526075.07,633778000.0,2496408000.0,0.029091603053435115,48.38,2014-03-31 00:00:00,2014-04-22 00:00:00,27.43167205555173,7.153891964518167,25.689603339749805,5.589470465064595
sz002718,2014-05-30,48.09,48.92,48.09,48.2,-0.001036,378939.0,18351083.61,631420000.0,2487120000.0,0.028926641221374047,48.2,2014-03-31 00:00:00,2014-04-22 00:00:00,27.329623242364743,7.127278705830596,25.5940352122672,5.568677025053048
sz002718,2014-05-29,48.99,49.97,48.25,48.25,-0.0143,556543.0,27211531.48,632075000.0,2489700000.0,0.04248419847328244,48.25,2014-03-31 00:00:00,2014-04-22 00:00:00,27.357966095239412,7.134670224182851,25.620578131211136,5.574452157488206
sz002718,2014-05-28,48.59,49.6,48.26,48.95,0.006993999999999999,581668.0,28542457.63,641245000.0,2525820000.0,0.044402137404580155,48.95,2014-03-31 00:00:00,2014-04-22 00:00:00,27.754860601845806,7.238176143028153,25.992267557280247,5.655323280397896
sz002718,2014-05-27,49.1,49.5,48.37,48.61,-0.00998,521116.0,25474239.78,636791000.0,2508276000.0,0.03977984732824427,48.61,2014-03-31 00:00:00,2014-04-22 00:00:00,27.56209133504848,7.187903942851848,25.811740245999722,5.616044664017756
sz002718,2014-05-26,48.89,49.17,48.2,49.1,0.007593000000000001,673348.0,32810302.58,643210000.0,2533560000.0,0.0514006106870229,49.1,2014-03-31 00:00:00,2014-04-22 00:00:00,27.8399338751222,7.2603623591966295,26.071938189127213,5.672657788749476
sz002718,2014-05-23,47.25,48.75,46.78,48.73,0.036368,829161.0,39827112.03,638363000.0,2514468000.0,0.06329473282442748,48.73,2014-03-31 00:00:00,2014-04-22 00:00:00,27.630138235500045,7.205649859811084,25.875465777478816,5.629909883007798
sz002718,2014-05-22,46.88,48.96,46.8,47.02,0.005345,1017426.0,48851611.34,615962000.0,2426232000.0,0.07766610687022901,47.02,2014-03-31 00:00:00,2014-04-22 00:00:00,26.660547445984484,6.952790765260105,24.967449571463824,5.432346312321298
sz002718,2014-05-21,45.8,46.81,45.19,46.77,0.013215000000000001,663919.0,30645198.5,612687000.0,2413332000.0,0.05068083969465649,46.77,2014-03-31 00:00:00,2014-04-22 00:00:00,26.51880443627261,6.915825677016453,24.834708056899697,5.403464793002698
sz002718,2014-05-20,45.17,48.87,45.17,46.16,0.038938,1047006.0,49141861.67,604696000.0,2381856000.0,0.07992412213740457,46.16,2014-03-31 00:00:00,2014-04-22 00:00:00,26.172929177195968,6.825625042085296,24.510797863138325,5.332989338889277
sz002718,2014-05-19,44.34,44.9,43.7,44.43,0.0,222371.0,9867651.33,582033000.0,2292588000.0,0.016974885496183208,44.43,2014-03-31 00:00:00,2014-04-22 00:00:00,25.19200296571689,6.5698097885391595,23.5921660995539,5.133116065529683
sz002718,2014-05-16,45.42,45.42,43.99,44.43,-0.021797,512517.0,22831450.82,582033000.0,2292588000.0,0.039123435114503814,44.43,2014-03-31 00:00:00,2014-04-22 00:00:00,25.19200296571689,6.5698097885391595,23.5921660995539,5.133116065529683
sz002718,2014-05-15,45.87,46.67,45.21,45.42,-0.012609,640287.0,29485580.88,595002000.0,2343672000.0,0.048876870229007635,45.42,2014-03-31 00:00:00,2014-04-22 00:00:00,25.753348707494137,6.716202862329352,24.117863162915977,5.247495729955523
sz002718,2014-05-14,44.78,46.09,44.24,46.0,0.027014999999999997,493132.0,22402336.01,602600000.0,2373600000.0,0.037643664122137405,46.0,2014-03-31 00:00:00,2014-04-22 00:00:00,26.08221941206081,6.801968888038631,24.42584868903603,5.314506340401647
sz002718,2014-05-13,45.54,46.18,44.01,44.79,-0.016685,405267.0,18378142.53,586749000.0,2311164000.0,0.03093641221374046,44.79,2014-03-31 00:00:00,2014-04-22 00:00:00,25.396142619203037,6.6230472661437565,23.783341712668296,5.1747115089863795
sz002718,2014-05-12,44.5,45.6,44.01,45.55,0.037585,468136.0,21051054.23,596705000.0,2350380000.0,0.03573557251908397,45.55,2014-03-31 00:00:00,2014-04-22 00:00:00,25.8270672360363,6.735427880327013,24.186900141529716,5.262516598431204
sz002718,2014-05-09,44.64,45.15,43.5,43.9,-0.026608,449660.0,19874246.69,575090000.0,2265240000.0,0.03432519083969466,43.9,2014-03-31 00:00:00,2014-04-22 00:00:00,24.89151947651161,6.491446850452746,23.31076503759183,5.071889626807639
sz002718,2014-05-08,45.88,46.37,44.92,45.1,-0.027598,477414.0,21802358.17,590810000.0,2327160000.0,0.03644381679389313,45.1,2014-03-31 00:00:00,2014-04-22 00:00:00,25.57193759195844,6.668892748710433,23.947972695062038,5.210531447564433
sz002718,2014-05-07,45.68,47.23,44.92,46.38,0.01377,836751.0,38564251.58,607578000.0,2393208000.0,0.06387412213740458,46.38,2014-03-31 00:00:00,2014-04-22 00:00:00,26.29770155960029,6.8581643689651335,24.627646482691357,5.358412927538645
sz002718,2014-05-06,44.95,46.5,44.52,45.75,0.015989,724344.0,33174216.24,599325000.0,2360700000.0,0.05529343511450382,45.75,2014-03-31 00:00:00,2014-04-22 00:00:00,25.940500862720626,6.765010178803015,24.293130081469517,5.285629805122113
sz002718,2014-05-05,43.99,45.09,43.65,45.03,0.013276,592934.0,26329943.02,589893000.0,2323548000.0,0.045262137404580155,45.03,2014-03-31 00:00:00,2014-04-22 00:00:00,25.532265470118894,6.658546676000444,23.910819980796564,5.202447866189607
sz002718,2014-04-30,43.5,44.48,43.22,44.44,0.022549,420748.0,18471460.59,582164000.0,2293104000.0,0.0321181679389313,44.44,2014-03-31 00:00:00,2014-04-22 00:00:00,25.197740270290513,6.5713060173145745,23.597539052337723,5.134285097238666
sz002718,2014-04-29,42.18,43.48,42.16,43.46,0.020188,377011.0,16202690.14,569326000.0,2242536000.0,0.028779465648854963,43.46,2014-03-31 00:00:00,2014-04-22 00:00:00,24.642085875875402,6.426397187141717,23.07717190309484,5.021065100292178
sz002718,2014-04-28,44.03,44.44,42.58,42.6,-0.055851,689160.0,29898868.71,558060000.0,2198160000.0,0.05260763358778626,42.6,2014-03-31 00:00:00,2014-04-22 00:00:00,24.154455723724844,6.2992283649108956,22.620509066069037,4.921705705509355
sz002718,2014-04-25,46.62,46.62,45.05,45.12,-0.032175,554953.0,25464842.13,591072000.0,2328192000.0,0.04236282442748092,45.12,2014-03-31 00:00:00,2014-04-22 00:00:00,25.583309121467952,6.671858324174357,23.958622067140926,5.212848507501841
sz002718,2014-04-24,48.5,48.5,46.47,46.62,-0.040148,647415.0,30617856.73,610722000.0,2405592000.0,0.04942099236641222,46.62,2014-03-31 00:00:00,2014-04-22 00:00:00,26.433817189541443,6.893661895667457,24.75511798841828,5.386147813397918
sz002718,2014-04-23,48.7,49.49,48.29,48.57,-0.010593,345719.0,16884281.51,636267000.0,2506212000.0,0.026390763358778626,48.57,2014-03-31 00:00:00,2014-04-22 00:00:00,27.53947190769144,7.182005033762973,25.79055728218338,5.61143573529869
sz002718,2014-04-22,49.89,50.36,48.39,49.09,-0.030991,767022.0,37848660.42,643079000.0,2533044000.0,0.058551297709923664,49.09,2014-03-31 00:00:00,2014-04-22 00:00:00,27.83432086865308,7.258898546061401,26.06668164080442,5.6715140839904
sz002718,2014-04-21,49.0,51.55,48.38,50.66,0.026545,927781.0,46969068.3,663646000.0,2614056000.0,0.07082297709923664,50.66,2013-12-31 00:00:00,2014-04-15 00:00:00,26.492334977717984,7.386253397892837,21.903667449887084,8.114545133855112
sz002718,2014-04-18,49.34,49.5,48.7,49.35,0.004682,326679.0,16069957.19,646485000.0,2546460000.0,0.02493732824427481,49.35,2013-12-31 00:00:00,2014-04-15 00:00:00,25.807280711238167,7.195255344766022,21.33726962762186,7.904714487777069
sz002718,2014-04-17,48.84,49.83,48.84,49.12,0.0040880000000000005,427116.0,21082938.97,643472000.0,2534592000.0,0.032604274809160304,49.12,2013-12-31 00:00:00,2014-04-15 00:00:00,25.68701411116967,7.161724152285023,21.237834088419877,7.867877087254542
sz002718,2014-04-16,49.4,49.77,48.18,48.92,-0.012913999999999998,603444.0,29495532.34,640852000.0,2524272000.0,0.04606442748091603,48.92,2013-12-31 00:00:00,2014-04-15 00:00:00,25.582433124556477,7.132566221571239,21.151367298901963,7.835844156343409
sz002718,2014-04-15,49.6,50.35,49.33,49.56,-0.007808,614298.0,30622979.36,649236000.0,2557296000.0,0.04689297709923664,49.56,2013-12-31 00:00:00,2014-04-15 00:00:00,25.91712690136065,7.225881252060346,21.428089648624297,7.93836013918079
sz002718,2014-04-14,50.63,50.78,49.01,49.95,-0.020588,1024653.0,51038099.22,654345000.0,2577420000.0,0.07821778625954198,49.95,,,,,,
sz002718,2014-04-11,50.8,52.18,50.01,51.0,-0.055555999999999994,1669661.0,85370447.5,668100000.0,2631600000.0,0.12745503816793893,51.0,,,,,,
sz002718,2014-04-10,51.91,56.99,51.71,54.0,0.037265,1936054.0,104779179.89,707400000.0,2786400000.0,0.14779038167938932,54.0,,,,,,
sz002718,2014-04-09,50.41,52.19,50.41,52.06,0.028854,1105634.0,57071567.26,681986000.0,2686296000.0,0.08439954198473282,52.06,,,,,,
sz002718,2014-04-08,49.0,51.32,48.5,50.6,0.013013,826704.0,41416834.27,662860000.0,2610960000.0,0.06310717557251909,50.6,,,,,,
sz002718,2014-04-04,49.4,50.58,49.4,49.95,0.000801,524149.0,26187271.03,654345000.0,2577420000.0,0.040011374045801525,49.95,,,,,,
sz002718,2014-04-03,49.58,51.96,49.3,49.91,-0.0033950000000000004,1254619.0,63666127.79,653821000.0,2575356000.0,0.0957724427480916,49.91,,,,,,
sz002718,2014-04-02,49.28,50.46,47.78,50.08,0.0183,974659.0,47758591.31,656048000.0,2584128000.0,0.07440145038167939,50.08,,,,,,
sz002718,2014-04-01,47.61,49.33,47.57,49.18,0.034933,683166.0,33311130.32,644258000.0,2537688000.0,0.052150076335877864,49.18,,,,,,
sz002718,2014-03-31,48.0,48.8,46.9,47.52,-0.01,779773.0,37280458.21,622512000.0,2452032000.0,0.05952465648854962,47.52,,,,,,
sz002718,2014-03-28,48.11,49.96,46.25,48.0,-0.004149,1275148.0,61499639.22,628800000.0,2476800000.0,0.09733954198473282,48.0,,,,,,
sz002718,2014-03-27,51.2,51.2,48.17,48.2,-0.055643,931868.0,45967697.32,631420000.0,2487120000.0,0.07113496183206107,48.2,,,,,,
sz002718,2014-03-26,51.5,51.5,50.4,51.04,-0.004874,450900.0,22995501.16,668624000.0,2633664000.0,0.034419847328244275,51.04,,,,,,
sz002718,2014-03-25,50.79,51.79,50.21,51.29,0.009844,536434.0,27386392.91,671899000.0,2646564000.0,0.04094916030534351,51.29,,,,,,
sz002718,2014-03-24,53.37,54.1,50.65,50.79,-0.057175,1144084.0,59594723.29,665349000.0,2620764000.0,0.08733465648854961,50.79,,,,,,
sz002718,2014-03-21,53.5,54.6,52.21,53.87,-0.000742,914606.0,48863039.81,705697000.0,2779692000.0,0.06981725190839695,53.87,,,,,,
sz002718,2014-03-20,54.1,55.15,53.61,53.91,-0.012456,898358.0,48976575.12,706221000.0,2781756000.0,0.0685769465648855,53.91,,,,,,
sz002718,2014-03-19,55.98,55.98,53.0,54.59,-0.026916000000000002,907128.0,49156798.77,715129000.0,2816844000.0,0.06924641221374046,54.59,,,,,,
sz002718,2014-03-18,55.9,57.46,55.66,56.1,0.003578,1139309.0,64518286.5,734910000.0,2894760000.0,0.08697015267175573,56.1,,,,,,
sz002718,2014-03-17,54.5,56.25,54.4,55.9,0.022499,874659.0,48381106.13,732290000.0,2884440000.0,0.06676786259541985,55.9,,,,,,
sz002718,2014-03-14,55.28,56.48,54.01,54.67,-0.015842,1109435.0,61472205.45,716177000.0,2820972000.0,0.08468969465648855,54.67,,,,,,
sz002718,2014-03-13,55.08,56.18,54.6,55.55,0.013686000000000002,979051.0,54345937.26,727705000.0,2866380000.0,0.0747367175572519,55.55,,,,,,
sz002718,2014-03-12,55.48,56.26,52.88,54.8,-0.021429,1349583.0,73547942.43,717880000.0,2827680000.0,0.10302160305343512,54.8,,,,,,
sz002718,2014-03-11,56.3,57.48,54.0,56.0,0.008827,1335718.0,74632981.97,733600000.0,2889600000.0,0.10196320610687024,56.0,,,,,,
sz002718,2014-03-10,57.18,57.18,55.37,55.51,-0.047366000000000005,1410641.0,79211065.35,727181000.0,2864316000.0,0.10768251908396946,55.51,,,,,,
sz002718,2014-03-07,63.34,63.34,57.88,58.27,-0.093497,2609687.0,158033619.11,763337000.0,3006732000.0,0.19921274809160305,58.27,,,,,,
sz002718,2014-03-06,62.02,65.88,60.03,64.28,0.009422,2408695.0,150997304.54,842068000.0,3316848000.0,0.18386984732824427,64.28,,,,,,
sz002718,2014-03-05,64.38,66.66,63.5,63.68,-0.020308,2052435.0,133076715.26,834208000.0,3285888000.0,0.15667442748091603,63.68,,,,,,
sz002718,2014-03-04,67.78,68.95,64.01,65.0,-0.055233000000000004,3162217.0,209527263.5,851500000.0,3354000000.0,0.2413906106870229,65.0,,,,,,
sz002718,2014-03-03,66.1,70.0,65.03,68.8,0.034586,3532904.0,241688577.09,901280000.0,3550080000.0,0.2696873282442748,68.8,,,,,,
sz002718,2014-02-28,60.98,67.0,59.3,66.5,0.084829,3152720.0,201804219.89,871150000.0,3431400000.0,0.24066564885496183,66.5,,,,,,
sz002718,2014-02-27,62.98,63.1,59.16,61.3,-0.024041,1733631.0,105757697.34,803030000.0,3163080000.0,0.13233824427480917,61.3,,,,,,
sz002718,2014-02-26,59.2,62.98,59.1,62.81,0.033229,2330511.0,142666268.2,822811000.0,3240996000.0,0.1779016030534351,62.81,,,,,,
sz002718,2014-02-25,64.48,65.55,58.02,60.79,-0.042677,3743938.0,234730259.75,796349000.0,3136764000.0,0.2857967938931298,60.79,,,,,,
sz002718,2014-02-24,64.5,64.5,62.38,63.5,-0.022626,2141107.0,135646693.61,831850000.0,3276600000.0,0.16344328244274808,63.5,,,,,,
sz002718,2014-02-21,65.8,67.45,63.8,64.97,-0.012614,2001347.0,129961547.89,851107000.0,3352452000.0,0.15277458015267176,64.97,,,,,,
sz002718,2014-02-20,65.1,69.59,64.03,65.8,-0.016442,3614599.0,242035842.84,861980000.0,3395280000.0,0.2759235877862595,65.8,,,,,,
sz002718,2014-02-19,64.69,67.5,60.01,66.9,0.047768,4403909.0,283108132.33,876390000.0,3452040000.0,0.33617625954198477,66.9,,,,,,
sz002718,2014-02-18,64.98,66.97,62.81,63.85,0.043812000000000004,4328094.0,278823619.03,836435000.0,3294660000.0,0.33038885496183207,63.85,,,,,,
sz002718,2014-02-17,58.0,61.17,58.0,61.17,0.099982,2224392.0,133636483.23,801327000.0,3156372000.0,0.16980091603053435,61.17,,,,,,
sz002718,2014-02-14,50.5,55.61,50.5,55.61,0.10009900000000001,3409398.0,183338440.92,728491000.0,2869476000.0,0.2602593893129771,55.61,,,,,,
sz002718,2014-02-13,51.52,53.95,49.7,50.55,-0.034384,3696960.0,191171269.83,662205000.0,2608380000.0,0.28221068702290075,50.55,,,,,,
sz002718,2014-02-12,49.5,53.68,48.0,52.35,0.061866,3810673.0,195983687.21,685785000.0,2701260000.0,0.2908910687022901,52.35,,,,,,
sz002718,2014-02-11,47.0,50.88,45.82,49.3,0.049606,4896785.0,234775219.0,645830000.0,2543880000.0,0.37380038167938934,49.3,,,,,,
sz002718,2014-02-10,42.88,46.97,42.66,46.97,0.1,4391350.0,200465943.39,615307000.0,2423652000.0,0.3352175572519084,46.97,,,,,,
sz002718,2014-02-07,40.9,43.88,40.53,42.7,0.031152,4110594.0,174360871.38,559370000.0,2203320000.0,0.31378580152671753,42.7,,,,,,
sz002718,2014-01-30,41.0,43.0,39.95,41.41,-0.06713200000000001,5765868.0,235979754.83,542471000.0,2136756000.0,0.4401425954198473,41.41,,,,,,
sz002718,2014-01-29,44.39,44.39,44.39,44.39,0.100124,1693244.0,75163101.16,581509000.0,2290524000.0,0.1292552671755725,44.39,,,,,,
sz002718,2014-01-28,33.62,40.35,33.62,40.35,0.440043,1207905.0,48426086.13,528585000.0,2082060000.0,0.09220648854961833,40.35,,,,,,
