code,date,open,high,low,close,change,volume,money,traded_market_value,market_value,turnover,adjust_price,report_type,report_date,PE_TTM,PS_TTM,PC_TTM,PB
sz002579,2014-12-31,12.33,12.65,12.14,12.49,0.020425,9704089.0,119968482.88,2918163600.0,2918163600.0,0.04153436483478856,30.61,2014-09-30 00:00:00,2014-10-28 00:00:00,215.25958851336983,6.068268272843208,204.42244724645673,4.7678934681084835
sz002579,2014-12-30,12.7,12.85,12.13,12.24,-0.03622,9324394.0,116379297.09,2859753600.0,2859753600.0,0.03990923643211779,29.99,2014-09-30 00:00:00,2014-10-28 00:00:00,210.95091605298757,5.94680478510739,200.33069284509565,4.672458503181011
sz002579,2014-12-29,13.79,13.85,12.55,12.7,-0.07904299999999999,13183505.0,170286516.55,2967228000.0,2967228000.0,0.05642657507276151,31.12,2014-09-30 00:00:00,2014-10-28 00:00:00,218.87870266345803,6.170292789959731,207.85935882161453,4.848055057358538
sz002579,2014-12-26,13.98,14.02,13.71,13.79,-0.017806,8925543.0,123616202.72,3221895600.0,3221895600.0,0.0382021186440678,33.79,2014-09-30 00:00:00,2014-10-28 00:00:00,237.6644106765658,6.699870667099257,225.69930932889866,5.264149202795068
sz002579,2014-12-25,13.7,14.28,13.6,14.04,-0.011268,14451837.0,201479202.72,3280305600.0,3280305600.0,0.0618551489470981,34.4,2014-09-30 00:00:00,2014-10-28 00:00:00,241.97298158669855,6.8213312920861435,229.79096729250907,5.359581918434716
sz002579,2014-12-24,13.88,14.95,13.88,14.2,-0.079118,27085663.0,382263296.41,3317688000.0,3317688000.0,0.11592904896421846,34.8,2014-09-30 00:00:00,2014-10-28 00:00:00,244.7306060557346,6.899070012992544,232.40976047352478,5.420661937142438
sz002579,2014-12-23,15.42,15.42,15.42,15.42,-0.099825,115300.0,1777926.0,3602728800.0,3602728800.0,0.0004934942646807053,37.79,2014-09-30 00:00:00,2014-10-28 00:00:00,265.756748482145,7.491806781968314,252.37735179265616,5.8863805972344325
sz002579,2014-12-22,17.13,17.13,17.13,17.13,-0.099842,236400.0,4049532.0,4002253200.0,4002253200.0,0.0010118130457113508,41.98,2014-09-30 00:00:00,2014-10-28 00:00:00,295.22787067197487,8.322611472178538,280.3647643987627,6.539151384158006
sz002579,2014-09-17,19.39,19.59,18.4,19.03,-0.017553,4322598.0,82300660.43,4446169200.0,4446169200.0,0.01850110426296867,46.63,2014-06-30 00:00:00,2014-08-28 00:00:00,358.6971957675109,9.454838933073596,98.49673053898344,7.301888336928809
sz002579,2014-09-16,20.08,20.13,19.36,19.37,-0.039187,7529703.0,148565678.75,4525606800.0,4525606800.0,0.03222779917822291,47.47,2014-06-30 00:00:00,2014-08-28 00:00:00,365.1058996236041,9.623764877976722,100.25653347099993,7.4323483474719865
sz002579,2014-09-15,20.39,21.3,20.13,20.16,-0.01128,9283243.0,191610675.52,4710182400.0,4710182400.0,0.039733106488614965,49.4,2014-06-30 00:00:00,2014-08-28 00:00:00,379.9968356210876,10.016272550409623,104.34552141883998,7.735478545223665
sz002579,2014-09-12,19.86,20.45,19.68,20.39,0.027204000000000002,7178287.0,144158188.62,4763919600.0,4763919600.0,0.03072370741311419,49.97,2014-06-30 00:00:00,2014-08-28 00:00:00,384.33210172858605,10.130545099127785,105.53596712804433,7.823730222129284
sz002579,2014-09-11,19.77,20.1,19.71,19.85,0.007103,6002251.0,119540681.46,4637754000.0,4637754000.0,0.02569016863550762,48.64,2014-06-30 00:00:00,2014-08-28 00:00:00,374.1536264739877,9.862252385239724,102.74100093851303,7.616530136301342
sz002579,2014-09-10,20.09,20.1,19.55,19.71,-0.028586,8465799.0,167243545.05,4605044400.0,4605044400.0,0.036234373394966615,48.3,2014-06-30 00:00:00,2014-08-28 00:00:00,371.51475715392337,9.792694873552877,102.01637860130793,7.562811486314053
sz002579,2014-09-09,20.35,21.2,20.22,20.29,0.007448000000000001,9691285.0,199257292.7,4740555600.0,4740555600.0,0.041479562574901555,49.72,2014-06-30 00:00:00,2014-08-28 00:00:00,382.44739848707485,10.080866524008174,105.01843560140982,7.785363898722947
sz002579,2014-09-05,19.7,20.29,19.7,20.14,0.022854,7195222.0,144388312.95,4705509600.0,4705509600.0,0.030796190720766992,49.35,2014-06-30 00:00:00,2014-08-28 00:00:00,379.61998881041495,10.006339308835965,104.24204088092868,7.727807190766121
sz002579,2014-09-04,19.8,20.02,19.5,19.69,-0.016484,7179125.0,141746934.25,4600371600.0,4600371600.0,0.03072729412771786,48.25,2014-06-30 00:00:00,2014-08-28 00:00:00,371.1380009370008,9.78276401992461,101.91292294005665,7.555141976045578
sz002579,2014-09-03,20.03,20.6,19.75,20.02,-0.0034840000000000006,7551700.0,151409316.16,4677472800.0,4677472800.0,0.032321948296524565,49.06,2014-06-30 00:00:00,2014-08-28 00:00:00,377.35837641380596,9.9467258488165,103.62101169686781,7.681768243775981
sz002579,2014-09-02,19.45,20.38,19.4,20.09,0.032905000000000004,8600806.0,172575245.11,4693827600.0,4693827600.0,0.03681221537407978,49.23,2014-06-30 00:00:00,2014-08-28 00:00:00,378.67768948396815,9.981501399693032,103.9832894774071,7.70862509360209
sz002579,2014-09-01,19.61,19.84,19.0,19.45,-0.008665,7720538.0,150101216.21,4544298000.0,4544298000.0,0.033044589967471324,47.66,2014-06-30 00:00:00,2014-08-28 00:00:00,366.6142476645656,9.663523169791057,100.67071945378046,7.46305332397664
sz002579,2014-08-29,19.0,20.2,18.6,19.62,0.025078,12230891.0,238721037.15,4584016800.0,4584016800.0,0.052349302345488784,48.08,2014-06-30 00:00:00,2014-08-28 00:00:00,369.81872693344394,9.747989498798145,101.55065588704169,7.528285921486319
sz002579,2014-08-28,17.2,19.6,16.75,19.14,0.069871,18645122.0,342859056.83,4471869600.0,4471869600.0,0.0798027820578668,46.9,2014-06-30 00:00:00,2014-08-28 00:00:00,360.7713041675306,9.50951000684645,99.06627191983604,7.344110322810868
sz002579,2014-08-27,18.4,18.62,17.58,17.89,-0.03558,9837356.0,177292623.58,4179819600.0,4179819600.0,0.04210475945899675,43.84,2014-03-31 00:00:00,2014-04-23 00:00:00,349.3150199372811,9.218656093760618,93.02231532910812,6.869651546544447
sz002579,2014-08-26,18.38,18.95,18.2,18.55,0.007605,8634756.0,160486514.22,4334022000.0,4334022000.0,0.03695752439650745,45.46,2014-03-31 00:00:00,2014-04-23 00:00:00,362.2021732619409,9.558756655565643,96.45415413316617,7.123091128911104
sz002579,2014-08-25,19.0,19.0,18.13,18.41,-0.031052999999999997,12794788.0,235429932.67,4301312400.0,4301312400.0,0.0547628317068995,45.11,2014-03-31 00:00:00,2014-04-23 00:00:00,359.4684159585759,9.486610979069816,95.72615671137615,7.0693288827577305
sz002579,2014-08-22,20.45,20.65,18.7,19.0,-0.044746,16455774.0,318415159.04,4439160000.0,4439160000.0,0.07043217770929636,46.56,2014-03-31 00:00:00,2014-04-23 00:00:00,370.98872895893777,9.790639714112139,98.79400701109157,7.295888095796498
sz002579,2014-08-21,20.21,20.47,19.45,19.89,-0.01094,8121123.0,160436203.09,4647099600.0,4647099600.0,0.03475912942989214,48.74,2014-03-31 00:00:00,2014-04-23 00:00:00,388.36657994516406,10.249252778959459,103.42171507378306,7.637642025886831
sz002579,2014-08-20,20.58,21.2,20.0,20.11,-0.030843000000000002,8870938.0,181618044.63,4698500400.0,4698500400.0,0.03796840438281116,49.28,2014-03-31 00:00:00,2014-04-23 00:00:00,392.66230556807886,10.36261984000916,104.56566343172614,7.72212204101554
sz002579,2014-08-19,21.35,21.62,20.58,20.75,-0.03757,8510460.0,179543394.07,4848030000.0,4848030000.0,0.03642552645095018,50.85,2014-03-31 00:00:00,2014-04-23 00:00:00,405.1586126582987,10.692405709301132,107.89342019066686,7.967875216312258
sz002579,2014-08-18,20.39,21.97,20.39,21.56,0.064691,15007649.0,318851333.36,5037278400.0,5037278400.0,0.0642340737887348,52.83,2014-03-31 00:00:00,2014-04-23 00:00:00,420.9746294881692,11.10980093025065,112.10521304475843,8.278914015889216
sz002579,2014-08-15,20.28,20.33,19.88,20.25,-0.019844999999999998,12738927.0,255581197.41,4731210000.0,4731210000.0,0.054523741653826396,49.62,2014-03-31 00:00:00,2014-04-23 00:00:00,395.3960627902079,10.434765514361116,105.29366083188309,7.775884285571322
sz002579,2014-08-14,20.59,21.25,20.06,20.66,-0.020853,11986460.0,245873569.85,4827002400.0,4827002400.0,0.05130311590481082,50.63,2014-03-31 00:00:00,2014-04-23 00:00:00,403.4015668850415,10.646036100781116,107.42552028187694,7.933321041642722
sz002579,2014-08-13,20.0,21.35,19.8,21.1,0.08595,20075842.0,410052994.02,4929804000.0,4929804000.0,0.08592639102893342,51.71,2014-03-31 00:00:00,2014-04-23 00:00:00,411.9928538667244,10.872765887840249,109.7133732543499,8.102277841470915
sz002579,2014-08-12,17.84,19.43,17.79,19.43,0.100227,11559407.0,220481232.96,4539625200.0,4539625200.0,0.049475291046053756,47.61,2014-03-31 00:00:00,2014-04-23 00:00:00,379.3847358227583,10.012215928763064,101.02985704162245,7.4610045043242454
sz002579,2014-08-11,17.5,17.85,17.3,17.66,0.01436,6834147.0,120268930.85,4126082400.0,4126082400.0,0.029250757575757576,43.28,2014-03-31 00:00:00,2014-04-23 00:00:00,344.82405523838105,9.100136543425187,91.82637495864257,6.781331947247473
sz002579,2014-08-08,16.82,17.85,16.67,17.41,0.048795,8863599.0,154796722.53,4067672400.0,4067672400.0,0.03793699280945044,42.66,2014-03-31 00:00:00,2014-04-23 00:00:00,339.94248120823084,8.971308552609711,90.526415630193,6.685330599833859
sz002579,2014-08-07,16.78,17.0,16.55,16.6,-0.016588,3697903.0,62104449.9,3878424000.0,3878424000.0,0.01582735404896422,40.68,2014-03-31 00:00:00,2014-04-23 00:00:00,324.1267180032617,8.55392002499031,86.31469031621339,6.37429678806045
sz002579,2014-08-06,17.37,17.38,16.62,16.88,-0.023148,5763902.0,97445797.71,3943843200.0,3943843200.0,0.02467001369628488,41.36,2014-03-31 00:00:00,2014-04-23 00:00:00,329.5940236678643,8.698205863860021,87.77062951866907,6.481817171297941
sz002579,2014-08-05,17.21,17.35,16.88,17.28,0.016471,4213198.0,72459546.2,4037299200.0,4037299200.0,0.018032862523540492,42.34,2014-03-31 00:00:00,2014-04-23 00:00:00,337.4042574185898,8.904323135807697,89.8504886294639,6.635413728280169
sz002579,2014-08-04,16.96,17.3,16.72,17.0,0.013715,3230441.0,55119157.55,3971880000.0,3971880000.0,0.013826575072761513,41.66,2014-03-31 00:00:00,2014-04-23 00:00:00,331.93692433782155,8.760036573407108,88.39454212610482,6.527892805874609
sz002579,2014-08-01,17.31,17.33,16.7,16.77,-0.040618,5530278.0,93716427.36,3918142800.0,3918142800.0,0.023670082177709297,41.09,2014-03-31 00:00:00,2014-04-23 00:00:00,327.44600241470386,8.641518151953072,87.1986131467965,6.43957404780891
sz002579,2014-07-31,17.55,17.95,17.27,17.48,0.0,5354737.0,93966725.37,4084027200.0,4084027200.0,0.022918751070022256,42.83,2014-03-31 00:00:00,2014-04-23 00:00:00,341.3093037129151,9.007379909100935,90.8903993891865,6.712210618720083
sz002579,2014-07-30,17.4,17.74,17.13,17.48,-0.006818,6003028.0,104690481.98,4084027200.0,4084027200.0,0.025693494264680705,42.83,2014-03-31 00:00:00,2014-04-23 00:00:00,341.3093037129151,9.007379909100935,90.8903993891865,6.712210618720083
sz002579,2014-07-29,17.36,17.65,16.78,17.6,0.040188999999999996,9839995.0,169230739.85,4112064000.0,4112064000.0,0.04211605461393598,43.13,2014-03-31 00:00:00,2014-04-23 00:00:00,343.65232526658264,9.069213808849671,91.51434418785932,6.758288630603538
sz002579,2014-07-28,15.4,16.92,15.38,16.92,0.10013,8439354.0,138335901.56,3953188800.0,3953188800.0,0.03612118644067797,41.46,2014-03-31 00:00:00,2014-04-23 00:00:00,330.37488885825803,8.718813416455731,87.97857330529288,6.4971737161261425
sz002579,2014-07-25,14.95,15.38,14.8,15.38,0.013843000000000001,4620752.0,69768709.3,3593383200.0,3593383200.0,0.019777229926382468,37.69,2014-03-31 00:00:00,2014-04-23 00:00:00,300.30531742453894,7.925257393631417,79.97107006016823,5.905823599143867
sz002579,2014-07-24,16.4,16.63,15.17,15.17,-0.100237,9510130.0,149753464.22,3544318800.0,3544318800.0,0.040704203047423386,37.17,2014-03-31 00:00:00,2014-04-23 00:00:00,296.20495227026174,7.817046025500415,78.87914604151554,5.825185555499093
sz002579,2014-07-23,17.28,17.82,16.63,16.86,-0.012302,8205133.0,140426552.67,3939170400.0,3939170400.0,0.03511869970895395,41.32,2014-03-31 00:00:00,2014-04-23 00:00:00,329.20330383696785,8.687894507220694,87.66658113471607,6.474133250088181
sz002579,2014-07-22,16.85,17.07,16.6,17.07,0.016071000000000002,4899313.0,82581741.4,3988234800.0,3988234800.0,0.020969495805512755,41.83,2014-03-31 00:00:00,2014-04-23 00:00:00,333.30360478300844,8.796104180853556,88.75848805476579,6.554770031009663
sz002579,2014-07-21,16.9,17.34,16.53,16.8,0.0,5529089.0,93655782.91,3925152000.0,3925152000.0,0.02366499315185756,41.17,2014-03-31 00:00:00,2014-04-23 00:00:00,328.03180563465395,8.656977889196282,87.35461208396441,6.451094491437767
sz002579,2014-07-18,16.18,17.08,16.18,16.8,0.015719,7057380.0,119015298.71,3925152000.0,3925152000.0,0.030206214689265536,41.17,2014-03-31 00:00:00,2014-04-23 00:00:00,328.03180563465395,8.656977889196282,87.35461208396441,6.451094491437767
sz002579,2014-07-17,15.98,16.6,15.45,16.54,0.024149,6024837.0,96202656.23,3864405600.0,3864405600.0,0.025786838726245508,40.53,2014-03-31 00:00:00,2014-04-23 00:00:00,322.95527171851063,8.523004777104969,86.0027350910679,6.35125905042415
sz002579,2014-07-16,16.85,17.1,15.7,16.15,-0.041543000000000004,8376040.0,136418035.71,3773286000.0,3773286000.0,0.03585019688409519,39.58,2014-03-31 00:00:00,2014-04-23 00:00:00,315.3401230861043,8.322035931397648,83.97482699399005,6.2014990498688665
sz002579,2014-07-15,16.88,17.7,16.6,16.85,-0.009988,9202241.0,157139181.63,3936834000.0,3936834000.0,0.039386410717342925,41.29,2014-03-31 00:00:00,2014-04-23 00:00:00,329.0081068697963,8.682743129214611,87.6146003357376,6.470294494034544
sz002579,2014-07-14,16.16,17.29,16.02,17.02,0.052565999999999995,11521960.0,194690654.33,3976552800.0,3976552800.0,0.04931501455230269,41.71,2014-03-31 00:00:00,2014-04-23 00:00:00,332.32739286977966,8.770341298100034,88.49852358934801,6.5355717850233574
sz002579,2014-07-11,16.11,16.35,15.85,16.17,0.0037240000000000003,8223796.0,132301578.4,3777958800.0,3777958800.0,0.035198579010443425,39.62,2014-03-31 00:00:00,2014-04-23 00:00:00,315.73069324848007,8.332343338185002,84.0788355213336,6.209180027687915
sz002579,2014-07-10,15.85,16.4,15.6,16.11,0.013208000000000001,11705371.0,186701301.09,3763940400.0,3763940400.0,0.05010002996062318,39.48,2014-03-31 00:00:00,2014-04-23 00:00:00,314.55927451020403,8.301428817269489,83.76688763179278,6.186142831782357
sz002579,2014-07-09,16.93,17.23,15.9,15.9,-0.066901,15452067.0,255481133.12,3714876000.0,3714876000.0,0.06613622239342579,38.96,2014-03-31 00:00:00,2014-04-23 00:00:00,310.4587355313065,8.193212861790954,82.67491732378029,6.1055013696914715
sz002579,2014-07-08,17.0,17.56,16.5,17.04,-0.017301,14741379.0,251557165.73,3981225600.0,3981225600.0,0.06309441448382126,41.76,2014-03-31 00:00:00,2014-04-23 00:00:00,332.7178954551516,8.780646921485237,88.60251412098854,6.543251433868723
sz002579,2014-07-07,17.99,18.0,15.35,17.34,0.021200999999999998,23656971.0,406335006.13,4051317600.0,4051317600.0,0.1012539419619928,42.49,2014-03-31 00:00:00,2014-04-23 00:00:00,338.57559176833564,8.935235429653677,90.16241404640542,6.65844926459549
sz002579,2014-07-04,15.44,16.98,15.16,16.98,0.099741,16815767.0,272819817.9,3967207200.0,3967207200.0,0.0719729797979798,41.61,2014-03-31 00:00:00,2014-04-23 00:00:00,331.54647495286,8.74973235401618,88.2905657616918,6.520214203271922
sz002579,2014-07-03,13.82,15.44,13.74,15.44,0.099715,20441078.0,297964743.63,3607401600.0,3607401600.0,0.08748963362437939,37.84,2014-03-31 00:00:00,2014-04-23 00:00:00,301.47687042027167,7.956175457690655,80.28305370236426,5.928863435365164
sz002579,2014-07-02,13.43,14.53,13.31,14.04,0.045420999999999996,17001116.0,237034986.04,3280305600.0,3280305600.0,0.07276629001883239,34.4,2014-03-31 00:00:00,2014-04-23 00:00:00,274.1409096177388,7.234761240585657,73.0035088203437,5.391272680071804
sz002579,2014-07-01,13.5,13.7,12.93,13.43,0.046765,20410503.0,272607982.18,3137785200.0,3137785200.0,0.08735876990241397,32.91,2014-03-31 00:00:00,2014-04-23 00:00:00,262.23015380190265,6.920428459525547,69.8316839056645,5.157034993626304
sz002579,2014-06-30,11.78,12.83,11.78,12.83,0.100343,14785591.0,183501323.65,2997601200.0,2997601200.0,0.06328364577983223,31.44,2014-03-31 00:00:00,2014-04-23 00:00:00,250.51482787626892,6.611253203465483,66.7119018171839,4.9266406439136805
sz002579,2014-06-27,11.4,11.76,11.34,11.66,0.016565,8558393.0,99593275.73,2724242400.0,2724242400.0,0.03663068395822633,28.57,2014-03-31 00:00:00,2014-04-23 00:00:00,227.66976104384625,6.00835667011603,60.62827847060771,4.477368096960385
sz002579,2014-06-26,11.13,11.61,11.02,11.47,0.025939,7600372.0,86526145.87,2679850800.0,2679850800.0,0.032530268789590824,28.11,2014-03-31 00:00:00,2014-04-23 00:00:00,223.9598658657796,5.910450064792738,59.6403362998015,4.4044090608671205
sz002579,2014-06-25,10.9,11.44,10.9,11.18,0.025688,7522357.0,84528396.64,2612095200.0,2612095200.0,0.032196357644239,27.4,2014-03-31 00:00:00,2014-04-23 00:00:00,218.2974483529524,5.7610150942626595,58.13243896547602,4.293051595530652
sz002579,2014-06-24,11.05,11.05,10.5,10.9,-0.013575,5101158.0,55642912.16,2546676000.0,2546676000.0,0.0218334103749358,26.71,2014-03-31 00:00:00,2014-04-23 00:00:00,212.83026451801365,5.616732470558942,56.676532206164076,4.18553360820313
sz002579,2014-06-23,10.55,11.15,10.54,11.05,0.04147,8497030.0,92929914.26,2581722000.0,2581722000.0,0.036368044855332994,27.08,2014-03-31 00:00:00,2014-04-23 00:00:00,215.75919559826005,5.6940289130536454,57.456504251376515,4.243134154348409
sz002579,2014-06-20,10.17,10.66,10.17,10.61,0.032101,4770387.0,49610321.64,2478920400.0,2478920400.0,0.020417681047765795,26.0,2014-03-31 00:00:00,2014-04-23 00:00:00,207.16794108160587,5.467299982768247,55.16865992431517,4.074177992979548
sz002579,2014-06-19,10.71,10.88,9.97,10.28,-0.039251999999999995,7912018.0,83339156.15,2401819200.0,2401819200.0,0.033864141414141416,25.19,2014-03-31 00:00:00,2014-04-23 00:00:00,200.72448440763637,5.297252868438503,53.45277247509224,3.9474605614949976
sz002579,2014-06-18,10.58,10.97,10.55,10.7,-0.03777,12886796.0,138753589.88,2499948000.0,2499948000.0,0.05515663413799006,26.22,2014-03-31 00:00:00,2014-04-23 00:00:00,208.92521702635483,5.513675665667275,55.636621127592505,4.108736694216379
sz002579,2014-06-17,11.9,11.9,10.99,11.12,-0.088525,18609017.0,211820225.19,2598076800.0,2598076800.0,0.07964824944358842,27.25,2014-03-31 00:00:00,2014-04-23 00:00:00,217.12606863884398,5.7301016032209295,57.82050146804039,4.270015167076872
sz002579,2014-06-16,12.0,12.23,11.8,12.2,0.007431999999999999,13968780.0,167536008.08,2850408000.0,2850408000.0,0.05978762198253724,29.9,2014-03-31 00:00:00,2014-04-23 00:00:00,238.21395939421703,6.286625089246473,63.43619020602912,4.684730976797907
sz002579,2014-06-13,11.6,12.42,11.49,12.11,0.034158999999999995,21759973.0,262209453.5,2829380400.0,2829380400.0,0.09313462164013012,29.68,2014-03-31 00:00:00,2014-04-23 00:00:00,236.45661384015696,6.240247569311351,62.96821046584694,4.650170906619907
sz002579,2014-06-12,11.9,12.11,11.58,11.71,-0.020903,12101416.0,142795529.55,2735924400.0,2735924400.0,0.05179513781886664,28.7,2014-03-31 00:00:00,2014-04-23 00:00:00,228.64628537793217,6.034127797864111,60.88832613345427,4.4965724870352695
sz002579,2014-06-11,11.83,12.13,11.69,11.96,-0.008292,16258064.0,193555318.88,2794334400.0,2794334400.0,0.06958596130799521,29.31,2014-03-31 00:00:00,2014-04-23 00:00:00,233.52771520894476,6.162951983168277,62.1882470617868,4.592570998619411
sz002579,2014-06-10,11.57,12.39,11.14,12.06,0.046875,27005651.0,318423548.77,2817698400.0,2817698400.0,0.11558659048108201,29.55,2014-03-31 00:00:00,2014-04-23 00:00:00,235.48031800584926,6.214482471824647,62.708223652311766,4.630971010236291
sz002579,2014-06-09,11.6,11.65,11.42,11.52,-0.033557,20101910.0,231552191.09,2691532800.0,2691532800.0,0.0860379643896593,28.23,2014-03-31 00:00:00,2014-04-23 00:00:00,224.9364231697664,5.936222062638468,59.90039274250675,4.423614099330187
sz002579,2014-06-06,11.39,12.24,11.38,11.92,0.070979,31048615.0,374211877.27,2784988800.0,2784988800.0,0.13289083632939566,29.21,2014-03-31 00:00:00,2014-04-23 00:00:00,232.74670432686295,6.142340585671858,61.98026447758093,4.577211588609144
sz002579,2014-06-05,11.29,11.4,10.98,11.13,-0.008905,7951811.0,88501628.56,2600413200.0,2600413200.0,0.03403445899674714,27.27,2014-03-31 00:00:00,2014-04-23 00:00:00,217.3214454502497,5.735257727436168,57.8725301593971,4.273857459958734
sz002579,2014-06-04,11.19,11.42,11.02,11.23,0.0,7061339.0,79587237.12,2623777200.0,2623777200.0,0.030223159561718883,27.52,2014-03-31 00:00:00,2014-04-23 00:00:00,219.2740811428266,5.786789084231247,58.39251551001377,4.312258118504012
sz002579,2014-06-03,10.96,11.41,10.93,11.23,0.025571,7694635.0,86291047.7,2623777200.0,2623777200.0,0.03293372282143468,27.52,2014-03-31 00:00:00,2014-04-23 00:00:00,219.2740811428266,5.786789084231247,58.39251551001377,4.312258118504012
sz002579,2014-05-30,11.08,11.23,10.85,10.95,-0.018817,6629698.0,73057674.68,2558358000.0,2558358000.0,0.02837569765451121,26.83,2014-03-31 00:00:00,2014-04-23 00:00:00,213.80682677535398,5.642504599126971,56.93658996794348,4.2047387440791635
sz002579,2014-05-29,11.18,11.43,10.95,11.16,-0.006233,9568840.0,107288621.44,2607422400.0,2607422400.0,0.040955487074131144,27.35,2014-03-31 00:00:00,2014-04-23 00:00:00,217.9071862999603,5.7507158186872065,58.02851248741924,4.285376677010469
sz002579,2014-05-28,11.3,11.3,10.8,11.23,-0.018357,14995951.0,165906929.43,2623777200.0,2623777200.0,0.06418400530731039,27.52,2014-03-31 00:00:00,2014-04-23 00:00:00,219.2739206473553,5.786784848648836,58.39247277019588,4.312254962189798
sz002579,2014-05-27,11.54,11.97,11.36,11.44,0.0070420000000000005,14463996.0,167980249.1,2672841600.0,2672841600.0,0.06190719054956343,28.03,2014-03-31 00:00:00,2014-04-23 00:00:00,223.37440459245906,5.89499935174889,59.484428422752345,4.392895341982572
sz002579,2014-05-26,11.32,11.98,11.32,11.36,-0.004382,17751268.0,205877030.14,2654150400.0,2654150400.0,0.07597700736175313,27.84,2014-03-31 00:00:00,2014-04-23 00:00:00,221.81240165996957,5.8537770537364775,59.068468269200636,4.362176892306947
sz002579,2014-05-23,11.56,11.74,11.11,11.41,-0.01468,11607392.0,132499070.43,2665832400.0,2665832400.0,0.049680671117959256,27.96,2014-03-31 00:00:00,2014-04-23 00:00:00,222.7886615749912,5.879541203289293,59.32844551745815,4.381376082299584
sz002579,2014-05-22,11.58,11.74,11.42,11.58,-0.010256,15389698.0,177328653.45,2705551200.0,2705551200.0,0.06586927752097244,28.38,2014-03-31 00:00:00,2014-04-23 00:00:00,226.1079259276085,5.967138800886303,60.21236300639198,4.446652947569911
sz002579,2014-05-21,11.0,11.74,10.81,11.7,0.054054,18810280.0,213763987.96,2733588000.0,2733588000.0,0.08050967300119842,28.67,2014-03-31 00:00:00,2014-04-23 00:00:00,228.4509185482393,6.028971937072924,60.836300100219844,4.492730390454412
sz002579,2014-05-20,10.6,11.24,10.53,11.1,0.035448,14846316.0,163713218.62,2593404000.0,2593404000.0,0.06354355418592707,27.2,2014-03-31 00:00:00,2014-04-23 00:00:00,216.73549794245767,5.719794182340681,57.71649279849025,4.262334178755938
sz002579,2014-05-19,10.78,10.79,10.11,10.72,-0.010139,9845424.0,103804740.9,2504620800.0,2504620800.0,0.04213929121725732,26.27,2014-03-31 00:00:00,2014-04-23 00:00:00,209.31567586441585,5.523980134531798,55.74060000935851,4.116415482724326
sz002579,2014-05-16,10.35,10.93,10.23,10.85,0.038278,15324983.0,164354340.2,2534994000.0,2534994000.0,0.06559229155966444,26.54,2014-03-31 00:00:00,2014-04-23 00:00:00,211.45966541202841,5.58056144704337,56.31154274121165,4.158579318433928
sz002579,2014-05-15,10.4,10.56,10.06,10.45,-0.018779,9786501.0,100496507.38,2441538000.0,2441538000.0,0.04188709553158705,25.56,2014-03-31 00:00:00,2014-04-23 00:00:00,203.66382164702364,5.374823936405635,54.23551567230708,4.005265755832183
sz002579,2014-05-14,10.47,11.12,10.37,10.65,0.023055000000000003,15328787.0,165389696.74,2488266000.0,2488266000.0,0.06560857301831878,26.05,2014-03-31 00:00:00,2014-04-23 00:00:00,207.56162133405584,5.477689466904637,55.27349666620168,4.081920134029116
sz002579,2014-05-13,10.52,10.65,10.27,10.41,-0.026193,10276122.0,107022893.78,2432192400.0,2432192400.0,0.04398271700051361,25.46,2014-03-31 00:00:00,2014-04-23 00:00:00,202.88412776835642,5.35424729550673,54.02788380507567,3.989932246095387
sz002579,2014-05-12,10.39,10.75,10.24,10.69,0.03485,21282374.0,223511257.65,2497611600.0,2497611600.0,0.09109045540147236,26.15,2014-03-31 00:00:00,2014-04-23 00:00:00,208.3412090571914,5.49826330628834,55.481100264298426,4.09725155610443
sz002579,2014-05-09,9.43,10.33,9.31,10.33,0.100106,19315863.0,196425177.12,2413501200.0,2413501200.0,0.08267361325115562,25.27,2014-03-31 00:00:00,2014-04-23 00:00:00,201.32503170236407,5.313101711637764,53.612697747788026,3.9592709630424032
sz002579,2014-05-08,9.47,9.73,9.21,9.39,-0.008448,6010923.0,56979549.45,2193879600.0,2193879600.0,0.025727285567539806,22.97,2014-03-31 00:00:00,2014-04-23 00:00:00,183.00512105412028,4.829627064699006,48.7341199373406,3.598990427324642
sz002579,2014-05-07,9.87,9.87,9.4,9.47,-0.045363,7314020.0,70681364.87,2212570800.0,2212570800.0,0.03130465673686013,23.16,2014-03-31 00:00:00,2014-04-23 00:00:00,184.56432043313944,4.870775375067576,49.1493335068061,3.629653742138226
sz002579,2014-05-06,9.34,9.94,9.27,9.92,0.051962,10860052.0,104949420.56,2317708800.0,2317708800.0,0.046481989385379216,24.26,2014-03-31 00:00:00,2014-04-23 00:00:00,193.33455589207148,5.102227731658815,51.48484031815874,3.802129754176955
sz002579,2014-05-05,9.12,9.46,9.0,9.43,0.033991,6074053.0,56056338.97,962146270.0,2203225200.0,0.05953182127910759,23.07,2014-03-31 00:00:00,2014-04-23 00:00:00,183.78473356648954,4.850201558287101,48.94173013679081,3.6143223369066138
sz002579,2014-04-30,9.21,9.3,9.1,9.12,-0.009772,4612860.0,42292826.68,930516860.0,2130796799.9999998,0.045210661954045626,22.31,2014-03-31 00:00:00,2014-04-23 00:00:00,177.74306891113127,4.690758003006893,47.33283958640917,3.495506572984304
sz002579,2014-04-29,8.85,9.3,8.79,9.21,0.022198,5690176.0,52026265.94,939699590.0,2151824400.0,0.055769441125328154,22.53,2014-03-31 00:00:00,2014-04-23 00:00:00,179.49711471613736,4.737048440366151,47.79994060601111,3.5300017500861456
sz002579,2014-04-28,8.98,9.39,8.65,9.01,0.004459,8892018.0,80371036.29,919293520.0,2105096400.0,0.08715070914456136,22.04,2014-03-31 00:00:00,2014-04-23 00:00:00,175.59916446337928,4.634178936337335,46.761919516582026,3.4533444108540086
sz002579,2014-04-25,9.41,9.55,8.97,8.97,-0.068536,9502901.0,87826578.52,915212300.0,2095750800.0,0.09313797680603725,21.94,2014-03-31 00:00:00,2014-04-23 00:00:00,174.81964367224475,4.613606863333731,46.55433374242456,3.438014305067712
sz002579,2014-04-24,9.99,10.1,9.63,9.63,-0.047478,9203525.0,90372439.54,982552340.0,2249953200.0,0.09020379082299067,23.55,2014-03-31 00:00:00,2014-04-23 00:00:00,187.68266263886179,4.953070503351424,49.97974558589979,3.690979259603927
sz002579,2014-04-23,10.52,10.69,10.1,10.11,-0.040797,9677396.0,99730940.06,1031526910.0,2362100400.0,0.09484820280645902,24.73,2014-03-31 00:00:00,2014-04-23 00:00:00,197.03761450009742,5.199953915344133,52.47096191573506,3.8749543418460957
sz002579,2014-04-22,10.1,10.73,10.04,10.54,0.039448000000000004,12466277.0,129989679.67,1075399960.0,2462565600.0,0.12218203874584484,25.78,2013-12-31 00:00:00,2014-03-05 00:00:00,208.23867517103878,5.516438905328245,55.35540132024268,4.048057640567115
sz002579,2014-04-21,10.45,10.56,10.1,10.14,-0.044298000000000004,10252333.0,105893592.54,1034587820.0,2369109600.0,0.1004831630629481,24.8,2013-12-31 00:00:00,2014-03-05 00:00:00,200.3358274497991,5.30708501563161,53.254613333464185,3.8944301596300295
sz002579,2014-04-18,10.9,11.04,10.5,10.61,-0.042419,14658784.0,156610669.5,1082542090.0,2478920400.0,0.1436708093631722,25.95,2013-12-31 00:00:00,2014-03-05 00:00:00,209.62164717642014,5.553075138099125,55.723032214502204,4.074941937580992
sz002579,2014-04-17,10.56,11.36,10.46,11.08,0.045283,24130645.0,264906807.08,1130496360.0,2588731200.0,0.23650456211995233,27.1,2013-12-31 00:00:00,2014-03-05 00:00:00,218.90748372870823,5.799065706294428,58.19145556825188,4.255454042614664
sz002579,2014-04-16,10.5,10.67,10.22,10.6,-0.001883,13691322.0,143112938.54,1081521780.0,2476584000.0,0.13418871065176327,25.93,2013-12-31 00:00:00,2014-03-05 00:00:00,209.4241308130987,5.547842743347427,55.67052709003388,4.071102316420208
sz002579,2014-04-15,11.02,11.17,10.51,10.62,-0.042381,20300600.0,219451103.74,1083562390.0,2481256800.0,0.19896627456772467,25.98,2013-12-31 00:00:00,2014-03-05 00:00:00,209.81922040512154,5.558309039268369,55.77555245530722,4.0787826641768525
sz002579,2014-04-14,11.31,11.45,10.87,11.09,-0.011585999999999999,24243912.0,270447767.39,1131516660.0,2591067600.0,0.23761469325604095,27.13,2013-12-31 00:00:00,2014-03-05 00:00:00,219.10511425224598,5.8043011252579255,58.24399103955459,4.259295882994023
sz002579,2014-04-11,11.08,11.57,10.98,11.22,0.06654,43322460.0,488726080.46,1144780610.0,2621440800.0,0.4246036288123364,27.44,2013-12-31 00:00:00,2014-03-05 00:00:00,221.6734225256279,5.872338033716566,58.92671597079219,4.3092225352878675
sz002579,2014-04-10,9.69,10.52,9.69,10.52,0.100418,12173294.0,125223264.06,1073359360.0000001,2457892800.0,0.11931051020974,25.73,2013-12-31 00:00:00,2014-03-05 00:00:00,207.84351503518658,5.50597074063473,55.25035720253547,4.040375921473051
sz002579,2014-04-09,9.23,9.58,9.18,9.56,0.035753,10141458.0,95918390.55,975410210.0,2233598400.0,0.09939647697556908,23.38,2013-12-31 00:00:00,2014-03-05 00:00:00,188.87687681879666,5.003526605921323,50.20851821992686,3.671673783483232
sz002579,2014-04-08,9.22,9.28,8.92,9.23,-0.009656999999999999,6792925.0,62007935.42,941740200.0,2156497200.0,0.0665774889401557,22.58,2013-12-31 00:00:00,2014-03-05 00:00:00,182.35706468510995,4.83081063334726,48.47537802924719,3.5449318355662327
sz002579,2014-04-04,9.12,9.34,9.11,9.32,0.016358,5804869.0,53599480.84,950922930.0,2177524800.0,0.056893547703177165,22.8,2013-12-31 00:00:00,2014-03-05 00:00:00,184.13525888011523,4.877916674674592,48.94806953676372,3.5794990579690396
sz002579,2014-04-03,9.02,9.36,9.02,9.17,0.015503999999999999,7727356.0,71208960.48,935618370.0,2142478799.9999998,0.07573585212953866,22.43,2013-12-31 00:00:00,2014-03-05 00:00:00,181.1716529806576,4.799407959276742,48.16026393924553,3.5218880138386663
sz002579,2014-04-02,9.2,9.22,8.99,9.03,-0.024838,5698518.0,51734815.22,921334120.0,2109769200.0000002,0.055851201451217275,22.09,2013-12-31 00:00:00,2014-03-05 00:00:00,178.40565175583515,4.726133978080581,47.42498694170139,3.4681183075976723
sz002579,2014-04-01,8.92,9.26,8.85,9.26,0.038117000000000005,9074215.0,82394628.79,944801110.0,2163506400.0,0.088936422714406,22.65,2013-12-31 00:00:00,2014-03-05 00:00:00,182.9497578410922,4.846511634047041,48.6329316992473,3.556453499621265
sz002579,2014-03-31,9.05,9.14,8.82,8.92,-0.019780000000000002,7410221.0,66445296.23,910110780.0,2084068800.0,0.07262761058604317,21.82,2013-12-31 00:00:00,2014-03-05 00:00:00,176.23231084848064,4.668560127660987,46.847254884803256,3.4258696270471103
sz002579,2014-03-28,9.53,9.58,8.91,9.1,-0.04712,9321242.0,85610911.3,928476250.0,2126124000.0,0.0913575357474141,22.26,2013-12-31 00:00:00,2014-03-05 00:00:00,179.78852793095493,4.762767672217448,47.792592361718036,3.495000741718298
sz002579,2014-03-27,10.11,10.13,9.52,9.55,-0.065558,10214699.0,100119053.11,974389910.0,2231262000.0,0.10011431199036123,23.36,2013-12-31 00:00:00,2014-03-05 00:00:00,188.6790864861839,4.998286953464705,50.15594026710397,3.6678288364938902
sz002579,2014-03-26,9.99,10.35,9.85,10.22,0.025075,10557955.0,107325357.8,1042750250.0,2387800800.0,0.10347856555296919,25.0,2013-12-31 00:00:00,2014-03-05 00:00:00,201.91631635369976,5.348953657332081,53.6747494944619,3.925154088208674
sz002579,2014-03-25,9.83,10.17,9.83,9.97,0.008089,8076851.0,80671284.08,1017242660.0,2329390800.0,0.07916125388410275,24.39,2013-12-31 00:00:00,2014-03-05 00:00:00,196.97711519030292,5.218109560112267,52.36177791328626,3.8291384417810157
sz002579,2014-03-24,10.05,10.1,9.73,9.89,-0.021761000000000003,9017346.0,89345671.53,1009080230.0,2310699600.0,0.0883790498402689,24.19,2013-12-31 00:00:00,2014-03-05 00:00:00,195.39655247731395,5.176238963139433,51.94162213186163,3.79841307838992
sz002579,2014-03-21,9.96,10.17,9.63,10.11,0.01608,12748244.0,127224296.64,1031526910.0,2362100400.0,0.12494559821032686,24.73,2013-12-31 00:00:00,2014-03-05 00:00:00,199.74316345730844,5.291384787500225,53.097067415899005,3.8829090624989595
sz002579,2014-03-20,11.15,11.36,9.95,9.95,-0.099548,23346607.0,247417590.48,1015202050.0,2324718000.0,0.22882020347575144,24.34,2013-12-31 00:00:00,2014-03-05 00:00:00,196.58212292074285,5.207645842355153,52.25677841892272,3.8214599859252805
sz002579,2014-03-19,10.62,11.09,10.62,11.05,0.025998,15469982.0,169021802.31,1127435440.0,2581722000.0,0.1516213656544272,27.03,2013-12-31 00:00:00,2014-03-05 00:00:00,218.31493840953527,5.783368621931156,58.033941197223974,4.243935252434644
sz002579,2014-03-18,10.89,11.01,10.7,10.77,-0.016438,12337880.0,133566327.5,1098866940.0,2516302800.0,0.12092361937833893,26.34,2013-12-31 00:00:00,2014-03-05 00:00:00,212.7830058241198,5.636822510308164,56.563405773913765,4.1363971980789875
sz002579,2014-03-17,10.53,10.95,10.32,10.95,0.034972,14207644.0,152238056.27,1117232410.0,2558358000.0,0.1392491843304116,26.78,2013-12-31 00:00:00,2014-03-05 00:00:00,216.3391894198025,5.731029167767932,57.508734349145,4.205527661783382
sz002579,2014-03-14,10.32,10.76,10.21,10.58,0.005703,12306314.0,128961953.5,1079481180.0,2471911200.0,0.12061423999999703,25.88,2013-12-31 00:00:00,2014-03-05 00:00:00,209.02902631163212,5.5373760524612585,55.565497761432205,4.063421678831294
sz002579,2014-03-13,10.33,10.63,10.21,10.52,0.010567,13353152.0,139217587.02,1073359360.0000001,2457892800.0,0.1308743038678118,25.73,2013-12-31 00:00:00,2014-03-05 00:00:00,207.84369372631096,5.505975474331147,55.250404703408655,4.040379395140806
sz002579,2014-03-12,11.33,11.66,10.41,10.41,-0.100259,17639654.0,191153056.11,1062136020.0,2432192400.0,0.1728863297000322,25.46,2013-12-31 00:00:00,2014-03-05 00:00:00,205.67037487500676,5.448402208197128,54.67267850959774,3.9981311433490365
sz002579,2014-03-11,11.33,11.57,11.12,11.57,0.012248,13118486.0,149658734.54,1180491230.0,2703214800.0,0.12857434190341252,28.3,2013-12-31 00:00:00,2014-03-05 00:00:00,228.58842141794887,6.055522876246751,60.76490735622555,4.443646719832747
sz002579,2014-03-10,11.8,11.89,11.36,11.43,-0.066176,19823250.0,229974094.04,1166206980.0,2670505200.0,0.19428776485285656,27.96,2013-12-31 00:00:00,2014-03-05 00:00:00,225.82254686395908,5.982252250680417,60.029664031171755,4.38987947601057
sz002579,2014-03-07,12.63,13.0,12.06,12.24,-0.030111000000000002,22183380.0,276998048.53,1248851570.0,2859753600.0,0.2174194097381805,29.94,2013-12-31 00:00:00,2014-03-05 00:00:00,241.82559761149756,6.406188158240115,64.28370231560953,4.700970928151953
sz002579,2014-03-06,12.9,13.09,12.25,12.62,-0.035905,22507242.0,283407968.0,1287623110.0,2948536800.0,0.22059358195271905,30.87,2013-12-31 00:00:00,2014-03-05 00:00:00,249.33327175738418,6.605073527218182,66.27944261210256,4.846916428737674
sz002579,2014-03-05,13.1,13.35,12.7,13.09,-0.050073,32041245.0,418222064.61,1335577370.0,3058347600.0,0.3140363909056051,32.02,2013-12-31 00:00:00,2014-03-05 00:00:00,258.6189864664625,6.851060867671943,68.747833576673,5.02742616519915
sz002579,2014-03-04,13.7,13.79,13.01,13.78,0.098884,56586686.0,760510357.24,1405978320.0,3219559200.0,0.5546063705164387,33.7,2013-09-30 00:00:00,2013-10-23 00:00:00,331.1381658771375,7.30702569489006,86.55333673440532,5.337801766206794
sz002579,2014-03-03,12.54,12.54,12.54,12.54,0.1,2008794.0,25190276.76,1279460680.0,2929845600.0,0.019688199218439444,30.67,2013-09-30 00:00:00,2013-10-23 00:00:00,301.3404198051273,6.649496848520917,78.76476200800569,4.857475189562132
sz002579,2014-02-28,11.4,11.4,11.4,11.4,0.100386,2543661.0,28997735.4,1163146070.0,2663496000.0,0.024930433200019326,27.88,2013-09-30 00:00:00,2013-10-23 00:00:00,273.9458361864793,6.044997135019015,71.60432909818698,4.415886535965575
sz002579,2014-02-27,10.36,10.36,10.36,10.36,0.099788,956544.0,9909795.84,1057034500.0,2420510400.0,0.009375092146945062,25.34,2013-09-30 00:00:00,2013-10-23 00:00:00,248.95430893021117,5.493524213338787,65.07201027474629,4.013034095277089
sz002579,2014-02-26,9.42,9.42,9.42,9.42,0.100467,677845.0,6385299.9,961125960.0,2200888800.0,0.006643561994725437,23.04,2013-09-30 00:00:00,2013-10-23 00:00:00,226.3657258764518,4.995075608516175,59.167776221186536,3.6489160595288257
sz002579,2014-02-25,8.56,8.56,8.56,8.56,0.100257,383920.0,3286355.2,873379860.0,1999958400.0,0.0037628016748634443,20.94,2013-09-30 00:00:00,2013-10-23 00:00:00,205.69969465368044,4.53905079254187,53.76606133685656,3.3157887147264073
sz002579,2014-02-24,7.78,7.78,7.78,7.78,0.100424,115260.0,896722.8,793796180.0,1817719200.0,0.001129663788505508,19.03,2013-09-30 00:00:00,2013-10-23 00:00:00,186.95604268246456,4.1254459572098785,48.86682051271344,3.0136492789651936
sz002579,2013-11-01,7.17,7.19,6.91,7.07,-0.013947,2669651.0,18755834.26,721354620.0,1651834800.0,0.026165261920690273,17.29,2013-09-30 00:00:00,2013-10-23 00:00:00,169.89455217485676,3.748960361833147,44.40726530202308,2.73862554703023
sz002579,2013-10-31,7.31,7.31,7.1,7.17,-0.019152000000000002,2770137.0,19815274.98,731557660.0,1675198800.0,0.027150125514371622,17.54,2013-09-30 00:00:00,2013-10-23 00:00:00,172.29758661538148,3.8019866699185,45.0353736584373,2.7773614065676284
sz002579,2013-10-30,7.21,7.39,7.12,7.31,0.011065,3110555.0,22578538.17,745841910.0,1707908400.0,0.03048656390199365,17.88,2013-09-30 00:00:00,2013-10-23 00:00:00,175.66186260805088,3.8762241141527545,45.9147326175282,2.8315920576558535
sz002579,2013-10-29,7.65,7.74,6.9,7.23,-0.054902,4906590.0,35678777.94,737679480.0,1689217200.0,0.04808951131458883,17.68,2013-09-30 00:00:00,2013-10-23 00:00:00,173.73943575146095,3.8338030830389282,45.41224611427376,2.8006033812424063
sz002579,2013-10-28,7.75,7.75,7.62,7.65,0.007905,2430948.0,18666595.87,780532230.0,1787346000.0,0.02382573260299578,18.71,2013-09-30 00:00:00,2013-10-23 00:00:00,183.83219068441682,4.056513803900684,48.05030389893298,2.963294157052926
sz002579,2013-10-25,8.12,8.16,7.5,7.59,-0.054795,5990516.0,46072541.11,774410410.0,1773327600.0,0.058713074944330874,18.56,2013-09-30 00:00:00,2013-10-23 00:00:00,182.39039461498535,4.024698561769893,47.67344531372796,2.9400530377892022
sz002579,2013-10-24,8.08,8.24,7.99,8.03,-0.020732,3714482.0,30157809.47,819303770.0,1876129200.0,0.03640565508443834,19.64,2013-09-30 00:00:00,2013-10-23 00:00:00,192.96384870476282,4.258016580286702,50.437148886990606,3.110492472838381
sz002579,2013-10-23,8.95,8.96,8.19,8.2,-0.078652,9598932.0,80243887.58,836648930.0,1915848000.0,0.09407917655497389,20.06,2013-09-30 00:00:00,2013-10-23 00:00:00,197.04907002451097,4.3481626891583325,51.50494950002513,3.1763444458905847
sz002579,2013-10-22,9.38,9.38,8.86,8.9,-0.044039,8134862.0,73702118.78,908070180.0,2079396000.0,0.07972981978110986,21.77,2013-06-30 00:00:00,2013-08-24 00:00:00,212.69548893912145,4.637383325238909,85.86854402712098,3.403717028042722
sz002579,2013-10-21,9.0,9.33,9.0,9.31,0.040223,8188764.0,75276168.5,949902620.0,2175188400.0,0.08025811407910424,22.77,2013-06-30 00:00:00,2013-08-24 00:00:00,222.49389769992862,4.851017275013216,89.82431712917261,3.5605187115820858
sz002579,2013-10-18,8.66,8.96,8.66,8.95,0.026376,4519099.0,40003429.19,913171700.0,2091078000.0,0.04429170992705972,21.89,2013-06-30 00:00:00,2013-08-24 00:00:00,213.89057702043567,4.663439738414953,86.35102004971301,3.422841747954127
sz002579,2013-10-17,8.95,9.07,8.6,8.72,-0.024609,5355811.0,47619134.55,889704710.0,2037340800.0,0.05249232851650296,21.33,2013-06-30 00:00:00,2013-08-24 00:00:00,208.39397747066928,4.543597802769114,84.13195558909504,3.334880928581852
sz002579,2013-10-16,9.15,9.15,8.64,8.94,-0.027202999999999998,8428633.0,74976931.49,912151390.0,2088741600.0,0.08260907108851744,21.87,2013-06-30 00:00:00,2013-08-24 00:00:00,213.65173296726059,4.658232239962348,86.2545949153673,3.4190195814620514
sz002579,2013-10-15,9.39,9.44,9.03,9.19,-0.020256,9427767.0,86189125.61,937658980.0,2147151600.0,0.0924015879739135,22.48,2013-06-30 00:00:00,2013-08-24 00:00:00,219.62622517057576,4.788493632240177,88.66659222362662,3.514628007140289
sz002579,2013-10-14,9.39,9.64,9.32,9.38,-0.014706,10938997.0,103009947.95,957044750.0,2191543200.0,0.10721315994889477,22.94,2013-06-30 00:00:00,2013-08-24 00:00:00,224.1669509285852,4.887494725397836,90.49975526630082,3.5872921979009713
sz002579,2013-10-11,9.09,9.89,9.09,9.52,0.051934,20128667.0,192233563.74,971329000.0,2224252800.0,0.19728115791868664,23.29,2013-06-30 00:00:00,2013-08-24 00:00:00,227.51275348128092,4.960443000158161,91.8505088494407,3.6408343072229923
sz002579,2013-10-10,9.0,9.44,8.96,9.05,-0.009847,13445505.0,123312876.39,923374730.0,2114442000.0,0.13177945670009836,22.14,2013-06-30 00:00:00,2013-08-24 00:00:00,216.2804448580243,4.715545842379999,87.3158476191859,3.4610862537221845
sz002579,2013-10-09,9.06,9.32,8.87,9.14,0.009945,17216209.0,157172177.25,932557460.0,2135469600.0,0.16873614443017806,22.36,2013-06-30 00:00:00,2013-08-24 00:00:00,218.43133824573002,4.762441604863087,88.18419741109294,3.495506506289619
sz002579,2013-10-08,8.51,9.09,8.43,9.05,0.06596,15195426.0,135484413.33,923374730.0,2114442000.0,0.1489304405157373,22.14,2013-06-30 00:00:00,2013-08-24 00:00:00,216.28042937558973,4.7155455048176735,87.31584136868139,3.4610860059603428
sz002579,2013-09-30,8.33,8.56,8.2,8.49,0.019208000000000003,5524874.0,46457598.65,866237730.0,1983603600.0,0.05414931563879122,20.77,2013-06-30 00:00:00,2013-08-24 00:00:00,202.8973220154506,4.423754648221015,81.91286855855884,3.246919214567472
sz002579,2013-09-27,8.53,8.62,8.3,8.33,-0.018846,7819487.0,66129137.1,849912870.0,1946221200.0,0.07663882853074104,20.37,2013-06-30 00:00:00,2013-08-24 00:00:00,199.073517883936,4.340384541939444,80.36913815291761,3.1857277558334243
sz002579,2013-09-26,8.84,8.99,8.47,8.49,-0.050336,9855203.0,86783681.42,866237730.0,1983603600.0,0.09659089020516343,20.77,2013-06-30 00:00:00,2013-08-24 00:00:00,202.897320791574,4.423754621536928,81.91286806446044,3.246919194982056
sz002579,2013-09-25,8.54,9.12,8.44,8.94,0.034722,16525134.0,145402585.72,912151390.0,2088741600.0,0.16196291490604425,21.87,2013-06-30 00:00:00,2013-08-24 00:00:00,213.651692379172,4.658231355023386,86.25457852931189,3.419018931940198
sz002579,2013-09-24,9.0,9.11,8.53,8.64,-0.020408000000000003,11852819.0,103700171.3,881542280.0,2018649600.0,0.11616953433021954,21.13,2013-06-30 00:00:00,2013-08-24 00:00:00,206.48221684585042,4.5019158334541896,83.36014748822572,3.30428746266166
sz002579,2013-09-23,8.52,8.89,8.49,8.82,0.031579,12679648.0,111101510.88,899907750.0,2060704800.0,0.12427328841206224,21.57,2013-06-30 00:00:00,2013-08-24 00:00:00,210.7838945661565,4.595704980700321,85.09680304476323,3.3731262226127403
sz002579,2013-09-18,8.34,8.7,8.23,8.55,0.02518,7773972.0,66186496.63,872359550.0,1997622000.0,0.076192735667306,20.91,2013-06-30 00:00:00,2013-08-24 00:00:00,204.33131594008458,4.455019907055418,82.49179466115851,3.2698670897844377
sz002579,2013-09-17,8.6,8.72,8.31,8.34,-0.041379,7808302.0,66260056.19,850933180.0,1948557600.0,0.07652920371491449,20.4,2013-06-30 00:00:00,2013-08-24 00:00:00,199.3126240661002,4.345597755570162,80.4656691128958,3.1895541171154704
sz002579,2013-09-16,8.49,8.84,8.34,8.7,0.018734999999999998,12208959.0,105681399.43,887664110.0,2032668000.0,0.1196600629713417,21.28,2013-06-30 00:00:00,2013-08-24 00:00:00,207.91597937672992,4.5331760472284275,83.93898017349485,3.3272316349375517
sz002579,2013-09-13,8.36,8.58,8.12,8.54,0.016666999999999998,10085858.0,85149535.22,871339250.0,1995285600.0,0.09885154068292,20.89,2013-06-30 00:00:00,2013-08-24 00:00:00,204.09230994982005,4.449808877900953,82.39530415024011,3.2660423318503358
sz002579,2013-09-12,8.32,8.5,8.25,8.4,0.013269,9162195.0,76717240.01,857055000.0,1962576000.0,0.08979871536832526,20.55,2013-06-30 00:00:00,2013-08-24 00:00:00,200.7464685583579,4.376859756342001,81.04453488727391,3.212499601000461
sz002579,2013-09-11,9.08,9.08,8.22,8.29,-0.092004,16755424.0,142920880.34,845831660.0,1936875600.0,0.1642199878874243,20.28,2013-06-30 00:00:00,2013-08-24 00:00:00,198.11764551995364,4.319543730580922,79.98323731138909,3.1704311500701796
sz002579,2013-09-10,9.3,9.41,8.96,9.13,-0.023528999999999998,13059406.0,119713259.02,931537160.0,2133133200.0000002,0.12799529841622206,22.33,2013-06-30 00:00:00,2013-08-24 00:00:00,218.1922007585426,4.757227708691363,88.08765381278012,3.4916796440404805
sz002579,2013-09-09,9.38,9.48,9.18,9.35,-0.019916,14007783.0,130081323.57,953983840.0,2184534000.0,0.13729034555763545,22.87,2013-06-30 00:00:00,2013-08-24 00:00:00,223.44974992451657,4.871857647274075,90.21020984010802,3.575814995059229
sz002579,2013-09-06,9.64,9.69,9.33,9.54,-0.020534,13159668.0,124956770.65,973369610.0,2228925600.0,0.12897796626299027,23.33,2013-06-30 00:00:00,2013-08-24 00:00:00,227.99040686769357,4.9708572400672555,92.04334510114239,3.648478084591963
sz002579,2013-09-05,9.87,10.08,9.7,9.74,-0.027944,17486265.0,172162621.38,993775680.0,2275653600.0,0.1713829635074185,23.82,2013-06-30 00:00:00,2013-08-24 00:00:00,232.77010827092883,5.075068700768843,93.97298640396133,3.7249665476820666
sz002579,2013-09-04,9.3,10.1,9.18,10.02,0.06937,26157438.0,253726941.44,1022344180.0,2341072800.0,0.25636916988171243,24.51,2013-06-30 00:00:00,2013-08-24 00:00:00,239.46162388887967,5.220963299201736,96.67445744274129,3.8320493342791635
sz002579,2013-09-03,9.39,9.56,9.1,9.37,-0.009514,12812057.0,119241137.3,956024450.0,2189206800.0,0.12557102916144036,22.92,2013-06-30 00:00:00,2013-08-24 00:00:00,223.92775549050347,4.882279565727238,90.40318827229238,3.5834644082769893
sz002579,2013-09-02,8.8,9.65,8.8,9.46,0.038419,12913310.0,120182082.38,965207180.0,2210234400.0,0.1265634105622795,23.14,2013-06-30 00:00:00,2013-08-24 00:00:00,226.07866793725856,4.929175743753307,91.27154575864007,3.61788496584201
sz002579,2013-08-30,9.32,9.86,8.92,9.11,-0.026708999999999997,16438869.0,156140600.9,929496550.0,2128460400.0,0.16111743135571616,22.28,2013-06-30 00:00:00,2013-08-24 00:00:00,217.71430216247828,4.746808122495165,87.89471856605097,3.484031942637808
sz002579,2013-08-29,9.48,9.65,9.22,9.36,-0.026014999999999996,14711218.0,138632020.05,955004140.0,2186870400.0,0.14418471576468767,22.89,2013-06-30 00:00:00,2013-08-24 00:00:00,223.68880649515745,4.877069779228581,90.30672077112699,3.5796405624194696
sz002579,2013-08-28,10.04,10.15,9.56,9.61,-0.061523,19895212.0,196389378.32,980511730.0,2245280400.0,0.19499306481524703,23.51,2013-06-30 00:00:00,2013-08-24 00:00:00,229.66350251303405,5.007335615259558,92.71880036255897,3.675252249695293
sz002579,2013-08-27,10.0,10.37,9.65,10.24,0.01992,22264099.0,223354276.29,1044790860.0,2392473600.0,0.21821053618328934,25.05,2013-06-30 00:00:00,2013-08-24 00:00:00,244.71937246521117,5.335597585513079,98.79709397519487,3.9161878764160356
sz002579,2013-08-26,9.86,10.1,9.72,10.04,0.016194,15369921.0,152486112.04,1024384780.0,2345745600.0,0.15064066730862596,24.56,2013-06-30 00:00:00,2013-08-24 00:00:00,239.93977220292885,5.23138832997988,96.86749350458356,3.839701031861358
sz002579,2013-08-23,9.85,10.19,9.42,9.88,0.008163,19176276.0,188417452.18,1008059930.0,2308363200.0,0.18794676907750912,24.17,2013-03-31 00:00:00,2013-04-24 00:00:00,236.27898127809465,5.348023284226867,84.42592610112351,3.8515862327569694
sz002579,2013-08-22,9.8,10.13,9.71,9.8,-0.012097,15940723.0,157907187.72,999897500.0,2289672000.0,0.15623509949769854,23.97,2013-03-31 00:00:00,2013-04-24 00:00:00,234.36585282151273,5.304720847945093,83.74233740091982,3.8204003050667112
sz002579,2013-08-21,10.11,10.24,9.9,9.92,-0.042470999999999995,24016700.0,240929045.66,1012141140.0,2317708800.0,0.23538778791266204,24.26,2013-03-31 00:00:00,2013-04-24 00:00:00,237.23569299973045,5.369677840785069,84.76777315274862,3.86718160089271
sz002579,2013-08-20,9.94,10.95,9.8,10.36,0.02069,35858417.0,370428377.39,1057034500.0,2420510400.0,0.3514485100722824,25.34,2013-03-31 00:00:00,2013-04-24 00:00:00,247.75823290963555,5.607848786600791,88.52763013208853,4.038709637925023
sz002579,2013-08-19,9.43,10.32,9.1,10.15,0.036772000000000006,31827112.0,313781047.75,1035608120.0,2371446000.0,0.3119376727173595,24.83,2013-03-31 00:00:00,2013-04-24 00:00:00,242.73602456145898,5.494174319921614,86.73312184119423,3.9568425652500006
sz002579,2013-08-16,9.48,10.59,9.31,9.79,0.01556,54560055.0,547164801.99,998877200.0,2287335600.0,0.5347433482814504,23.95,2013-03-31 00:00:00,2013-04-24 00:00:00,234.1267169266328,5.299308160252797,83.65689065792115,3.81650214825439
sz002579,2013-08-15,8.68,9.64,8.56,9.64,0.100457,44930812.0,413703284.94,983572640.0,2252289600.0,0.4403670965064665,23.58,2013-03-31 00:00:00,2013-04-24 00:00:00,230.5395219648596,5.218114301718064,82.3751335794253,3.7580272443325753
sz002579,2013-08-14,8.44,8.9,8.22,8.76,0.036686,27637742.0,237646210.45,893785930.0,2046686400.0,0.2708776361247933,21.43,2013-03-31 00:00:00,2013-04-24 00:00:00,209.49434822520058,4.7417702842710465,74.85538606181366,3.414969639279476
sz002579,2013-08-13,8.38,8.56,8.32,8.45,0.005952000000000001,14458092.0,121910314.13,862156520.0,1974258000.0,0.14170382588999036,20.67,2013-03-31 00:00:00,2013-04-24 00:00:00,202.0808115718748,4.5739696342682805,72.20642129035568,3.294121498003712
sz002579,2013-08-12,8.5,8.65,8.08,8.4,-0.012925999999999998,20355912.0,169966134.27,857055000.0,1962576000.0,0.199508387209689,20.55,2013-03-31 00:00:00,2013-04-24 00:00:00,200.88514319955107,4.5469064470951706,71.77919154229593,3.2746308949171654
sz002579,2013-08-09,8.81,8.99,8.47,8.51,-0.047032,25950932.0,225887818.98,868278340.0,1988276400.0,0.25434520377417225,20.81,2013-03-31 00:00:00,2013-04-24 00:00:00,203.51578827884342,4.606449412197232,72.71915939665713,3.3175130688450567
sz002579,2013-08-08,9.15,9.52,8.8,8.93,-0.059009000000000006,36179707.0,329514053.57,911131090.0,2086405200.0,0.35459747456318275,21.84,2013-03-31 00:00:00,2013-04-24 00:00:00,213.5599393461726,4.833792333212901,76.30808106532132,3.4812428841735046
sz002579,2013-08-07,8.85,9.5,8.6,9.49,0.049779000000000004,40694318.0,365587403.09,968268090.0,2217243600.0,0.3988451977385726,23.21,2013-03-31 00:00:00,2013-04-24 00:00:00,226.95215931520343,5.13691664767559,81.09331658360315,3.699549606928764
sz002579,2013-08-06,8.75,9.42,8.52,9.04,0.026106999999999998,45169399.0,404973595.82,922354430.0,2112105600.0,0.4427054868267939,22.11,2013-03-31 00:00:00,2013-04-24 00:00:00,216.19041656882393,4.893331498987491,77.24798894205652,3.5241223218684734
sz002579,2013-08-05,8.65,8.85,8.4,8.81,0.002275,34158595.0,293824083.93,898887450.0,2058368400.0,0.3347885454958794,21.55,2013-03-31 00:00:00,2013-04-24 00:00:00,210.68993445013427,4.768831612090641,75.28258645741285,3.4344589032805284
sz002579,2013-08-02,8.65,9.28,8.61,8.79,-0.010135,47759684.0,426115106.25,896846840.0,2053695600.0,0.4680928823476704,21.5,2013-03-31 00:00:00,2013-04-24 00:00:00,210.21170282620466,4.758007145833869,75.11170732325245,3.4266632443995193
sz002579,2013-08-01,8.49,9.09,8.41,8.88,0.066026,52464009.0,457897733.87,906029570.0,2074723200.0,0.514199994510113,21.72,2013-03-31 00:00:00,2013-04-24 00:00:00,212.36401208872385,4.806723286340934,75.88075881383061,3.4617480609977314
sz002579,2013-07-31,7.8,8.33,7.73,8.33,0.100396,39952495.0,319648812.31,849912870.0,1946221200.0,0.391574589698824,20.37,2013-03-31 00:00:00,2013-04-24 00:00:00,199.21091238743134,4.509011305860208,71.18096445474183,3.247339240316588
sz002579,2013-07-30,7.31,7.57,7.18,7.57,0.10029099999999999,52404215.0,391761446.73,772369800.0,1768654800.0,0.5136139548050688,18.52,2013-03-31 00:00:00,2013-04-24 00:00:00,181.03565660674096,4.0976260417706065,64.68668048115572,2.9510641989943514
sz002579,2013-07-29,6.88,6.88,6.88,6.88,0.1008,5028752.0,34597813.76,701968860.0,1607443200.0,0.049286821298597204,16.83,2013-03-31 00:00:00,2013-04-24 00:00:00,164.5343428299795,3.724129381927696,58.790520399744906,2.6820761044072445
sz002579,2013-07-26,5.6,6.25,5.59,6.25,0.100352,14209740.0,86542823.02,637689730.0,1460250000.0,0.13926972761502682,15.29,2013-03-31 00:00:00,2013-04-24 00:00:00,149.46797132083893,3.3831117205011774,53.40708611895431,2.436479019265302
sz002579,2013-07-25,5.98,6.07,5.62,5.68,-0.061157,13102305.0,76534311.82,579532430.0,1327075200.0,0.12841575129799035,13.89,2013-03-31 00:00:00,2013-04-24 00:00:00,135.8365062460367,3.0745722464276684,48.536364835029445,2.2142723594497964
sz002579,2013-07-24,5.65,6.17,5.64,6.05,0.054007000000000006,21753746.0,129071353.91,617283660.0,1413522000.0,0.21320856492459236,14.8,2013-03-31 00:00:00,2013-04-24 00:00:00,144.68500723341037,3.274852394306256,51.69806329176385,2.3585118698757905
sz002579,2013-07-23,5.45,5.85,5.4,5.74,0.047445,14190892.0,79881339.53,585654250.0,1341093600.0,0.13908499781227576,14.04,2013-03-31 00:00:00,2013-04-24 00:00:00,137.27139120841736,3.1070499477766806,49.04907015965154,2.2376624347616194
sz002579,2013-07-22,5.22,5.53,5.07,5.48,0.035917000000000004,5966485.0,31794102.74,559126360.0,1280347200.0,0.05847754664974122,13.4,2013-03-31 00:00:00,2013-04-24 00:00:00,131.05355527824122,2.966313217187233,46.82734669567524,2.136305423923566
sz002579,2013-07-19,5.43,5.65,5.29,5.29,-0.029358,9493138.0,52373265.58,539740590.0,1235955600.0,0.09304228911151559,12.94,2013-03-31 00:00:00,2013-04-24 00:00:00,126.50970616201995,2.8634661050906907,45.203763135150055,2.0622360902693617
sz002579,2013-07-18,5.38,5.49,5.22,5.45,0.009259,7352794.0,39341019.19,556065450.0,1273338000.0,0.07206476737585478,13.33,2013-03-31 00:00:00,2013-04-24 00:00:00,130.33611379068694,2.9500743890030416,46.57099438840484,2.1246104024649264
sz002579,2013-07-17,5.6,5.67,5.38,5.4,-0.045936000000000005,9060295.0,50162020.27,550963930.0,1261656000.0,0.08879999276903662,13.21,2013-03-31 00:00:00,2013-04-24 00:00:00,129.14040280115108,2.923010237216653,46.14374941259364,2.1051191046747437
sz002579,2013-07-16,5.47,5.75,5.41,5.66,0.030964999999999996,13336357.0,74918879.21,577491820.0,1322402400.0,0.1307096966672186,13.84,2013-03-31 00:00:00,2013-04-24 00:00:00,135.35821789853833,3.063746496269278,48.36546543271063,2.2064757759172795
sz002579,2013-07-15,5.33,5.5,5.33,5.49,0.031955000000000004,6675274.0,36085682.07,560146660.0,1282683600.0,0.06542439128352565,13.43,2013-03-31 00:00:00,2013-04-24 00:00:00,131.29273825836796,2.9717269706239087,46.912810262919336,2.1402043482730058
sz002579,2013-07-12,5.43,5.58,5.28,5.32,-0.022059,10208243.0,55909110.76,542801500.0,1242964800.0,0.10005103663125471,13.01,2013-03-31 00:00:00,2013-04-24 00:00:00,127.22719329657589,2.879705966465504,45.4601317527599,2.0739318558202693
sz002579,2013-07-11,5.39,5.58,5.39,5.44,-0.001835,12714969.0,69681472.12,555045140.0,1271001600.0,0.1246194703371333,13.31,2013-03-31 00:00:00,2013-04-24 00:00:00,130.0970030876872,2.9446622715128052,46.48555664683238,2.1207126563057175
sz002579,2013-07-10,5.28,5.49,5.27,5.45,0.0073939999999999995,11576764.0,62262960.61,556065450.0,1273338000.0,0.11346391652277624,13.33,2013-03-31 00:00:00,2013-04-24 00:00:00,130.33616995956302,2.950075660349547,46.571014458363486,2.124611318074384
sz002579,2013-07-09,5.01,5.5,5.0,5.41,0.028517,13360902.0,70026797.64,551984230.0,1263992400.0,0.13095026251021702,13.23,2013-03-31 00:00:00,2013-04-24 00:00:00,129.3795376581189,2.9284229014164738,46.22919578473118,2.109017244568048
sz002579,2013-07-08,5.2,5.64,5.17,5.26,0.017408,21287615.0,114289100.46,536679680.00000006,1228946400.0,0.20864001204591906,12.87,2013-03-31 00:00:00,2013-04-24 00:00:00,125.79231812222734,2.8472284866623245,44.947429925544434,2.050541940063264
sz002579,2013-07-05,5.17,5.17,5.17,5.17,0.1,3222366.0,16659632.22,527496949.99999994,1207918800.0,0.031582423784630415,12.65,2013-03-31 00:00:00,2013-04-24 00:00:00,123.63999312196026,2.7985119899414244,44.17837281163941,2.0154568669238535
sz002579,2013-07-04,4.6,4.77,4.59,4.7,0.015119,3108705.0,14630263.82,479542680.0,1098108000.0,0.030468431923515133,11.5,2013-03-31 00:00:00,2013-04-24 00:00:00,112.3999937472366,2.5441018090376586,40.16215710149038,1.8322335153853215
sz002579,2013-07-03,4.67,4.69,4.57,4.63,-0.014894,3271262.0,15159528.03,472400550.0,1081753200.0,0.032061654161918314,11.32,2013-03-31 00:00:00,2013-04-24 00:00:00,110.72592843522443,2.506210413791544,39.5639891495385,1.8049445586037907
sz002579,2013-07-02,4.5,4.78,4.49,4.7,0.037528,5126249.0,23868760.42,479542680.0,1098108000.0,0.05024238989530609,11.5,2013-03-31 00:00:00,2013-04-24 00:00:00,112.40001424742557,2.544102273046295,40.16216442650689,1.832233849559124
sz002579,2013-07-01,4.39,4.57,4.36,4.53,0.031891,2789171.0,12484000.99,462197520.0,1058389200.0,0.027336677682736163,11.08,2013-03-31 00:00:00,2013-04-24 00:00:00,108.334439405419,2.4520805925683886,38.70947523971101,1.7659608700286873
sz002579,2013-06-28,4.34,4.49,4.33,4.39,0.0,2141993.0,9414956.22,447913270.0,1025679600.0,0.020993683152097726,10.74,2013-03-31 00:00:00,2013-04-24 00:00:00,104.98632065345954,2.3762980707927377,37.513143577869194,1.7113831499922836
sz002579,2013-06-27,4.58,4.61,4.37,4.39,-0.041485,3220482.0,14533693.14,447913270.0,1025679600.0,0.03156395875478304,10.74,2013-03-31 00:00:00,2013-04-24 00:00:00,104.98632065345954,2.3762980707927377,37.513143577869194,1.7113831499922836
sz002579,2013-06-26,4.4,4.58,4.33,4.58,0.036199,2926102.0,13128052.24,467299040.0,1070071200.0,0.028678738907745242,11.2,2013-03-31 00:00:00,2013-04-24 00:00:00,109.5301801781501,2.47914541847831,39.13673085749226,1.7854526533150588
sz002579,2013-06-25,4.39,4.49,4.04,4.42,-0.006742000000000001,3621379.0,15663359.76,450974180.0,1032688800.0,0.035493152135672154,10.81,2013-03-31 00:00:00,2013-04-24 00:00:00,105.70380803122767,2.3925379376725027,37.769512282382294,1.7230789195077958
sz002579,2013-06-24,4.92,4.96,4.43,4.45,-0.095528,3540039.0,16298338.61,454035090.0,1039698000.0,0.03469593847911623,10.88,2013-03-31 00:00:00,2013-04-24 00:00:00,106.42130043878598,2.4087779183983447,38.02588278411279,1.7347747710139723
sz002579,2013-06-21,4.88,4.97,4.8,4.92,-0.01006,2020593.0,9886901.09,501989360.0,1149508800.0,0.019803841181016267,12.03,2013-03-31 00:00:00,2013-04-24 00:00:00,117.66124372980698,2.6631868298834513,42.042078454736895,1.91799720833146
sz002579,2013-06-20,5.11,5.14,4.95,4.97,-0.034950999999999996,1484799.0,7504194.45,507090870.0,1161190800.0,0.014552521976978209,12.16,2013-03-31 00:00:00,2013-04-24 00:00:00,118.85694459240659,2.6902507524531294,42.46931981204607,1.9374883410423458
sz002579,2013-06-19,5.13,5.15,4.95,5.15,0.0,2260759.0,11400573.59,525456339.99999994,1203246000.0,0.02215770933508958,12.6,2013-03-31 00:00:00,2013-04-24 00:00:00,123.16156443082845,2.7876830631948524,44.00742326249348,2.0076579956482474
sz002579,2013-06-18,5.1,5.25,5.09,5.15,0.003899,2205095.0,11377253.24,525456339.99999994,1203246000.0,0.02161214621561137,12.6,2013-03-31 00:00:00,2013-04-24 00:00:00,123.16156443082845,2.7876830631948524,44.00742326249348,2.0076579956482474
sz002579,2013-06-17,5.13,5.19,5.06,5.13,0.001953,2348544.0,12043240.39,523415730.0,1198573200.0,0.023018090648517574,12.55,2013-03-31 00:00:00,2013-04-24 00:00:00,122.68322254612112,2.7768561012560546,43.83650473054906,1.9998605394051068
sz002579,2013-06-14,5.08,5.13,5.0,5.12,0.024,2334154.0,11841249.15,522395430.0,1196236800.0,0.022877054035484193,12.52,2013-03-31 00:00:00,2013-04-24 00:00:00,122.44408923983569,2.7714434721549357,43.75105891249296,1.9959624247894925
sz002579,2013-06-13,4.96,5.04,4.86,5.0,-0.019608,2902830.0,14435964.89,510151790.0,1168200000.0,0.028450649952634684,12.23,2013-03-31 00:00:00,2013-04-24 00:00:00,119.57430589827702,2.706487765776304,42.72564346923139,1.9491820554584884
sz002579,2013-06-07,5.2,5.27,5.01,5.1,-0.021113,3325579.0,17086896.05,520354820.0,1191564000.0,0.032594015176029306,12.47,2013-03-31 00:00:00,2013-04-24 00:00:00,121.96581153077243,2.7606179627907044,43.580163311442156,1.9881660146742208
sz002579,2013-06-06,5.48,5.48,5.16,5.21,-0.04927,4191376.0,22279298.66,531578160.00000006,1217264400.0,0.041079695523984654,12.74,2013-03-31 00:00:00,2013-04-24 00:00:00,124.59641565448557,2.820160000889484,44.520116531777575,2.0310475209847723
sz002579,2013-06-05,5.44,5.51,5.4,5.48,0.007353,2335355.0,12742009.75,559126360.0,1280347200.0,0.022888824987611033,13.4,2013-03-31 00:00:00,2013-04-24 00:00:00,131.0534175365094,2.966310099491426,46.82729747854551,2.136303178594104
sz002579,2013-06-04,5.62,5.7,5.42,5.44,-0.037168,4477996.0,24786445.14,555045140.0,1271001600.0,0.04388885963401103,13.31,2013-03-31 00:00:00,2013-04-24 00:00:00,130.0968156510274,2.9446580290041595,46.4854896729801,2.120709600898696
sz002579,2013-06-03,5.63,5.7,5.6,5.65,-0.012237999999999999,4171391.0,23537427.74,576471520.0,1320066000.0,0.04088382223982202,13.82,2013-03-31 00:00:00,2013-04-24 00:00:00,135.1189155024214,3.058330039928211,48.27995919639158,2.2025749049664904
sz002579,2013-05-31,5.68,5.78,5.57,5.72,0.0070420000000000005,6745444.0,38359867.08,583613640.0,1336420800.0,0.06611212801674751,13.99,2013-03-31 00:00:00,2013-04-24 00:00:00,136.79298809067507,3.096221599867388,48.87812974825067,2.229863980358113
sz002579,2013-05-30,5.69,5.76,5.67,5.68,-0.010453,5601377.0,31995407.6,579532430.0,1327075200.0,0.054899121624651784,13.89,2013-03-31 00:00:00,2013-04-24 00:00:00,135.83642796494593,3.074570474585358,48.53633686405401,2.2142710833888883
sz002579,2013-05-29,5.56,5.74,5.56,5.74,0.028674,6793580.0,38438858.11,585654250.0,1341093600.0,0.0665839088506572,14.04,2013-03-31 00:00:00,2013-04-24 00:00:00,137.27132512649317,3.107048452054686,49.049046547616236,2.2376613575594573
sz002579,2013-05-28,5.75,5.75,5.49,5.58,-0.03125,8167471.0,45533027.52,569329390.0,1303711200.0,0.08004942126736159,13.65,2013-03-31 00:00:00,2013-04-24 00:00:00,133.44492533736943,3.0204403455853703,47.681818095544585,2.1752871731563714
sz002579,2013-05-27,5.79,5.81,5.67,5.76,-0.010309,7835315.0,44942418.42,587694860.0,1345766400.0,0.07679395800739179,14.09,2013-03-31 00:00:00,2013-04-24 00:00:00,137.7496003482523,3.1178739051203825,49.21994125991699,2.245457727129158
sz002579,2013-05-24,5.74,5.84,5.67,5.82,0.017483000000000002,9189555.0,52874324.26,593816680.0,1359784800.0,0.09006687063758466,14.24,2013-03-31 00:00:00,2013-04-24 00:00:00,139.18445287291922,3.150350872262537,49.73263499407087,2.2688472736734573
sz002579,2013-05-23,5.82,5.96,5.67,5.72,-0.030507999999999997,12419022.0,71931517.17,583613640.0,1336420800.0,0.12171889238229593,13.99,2013-03-31 00:00:00,2013-04-24 00:00:00,136.79290255750638,3.096219663878942,48.878099186002004,2.2298625860810035
sz002579,2013-05-22,5.97,6.19,5.83,5.9,-0.006734,19570396.0,117971344.16,601979110.0,1378476000.0,0.19180954036760514,14.43,2013-03-31 00:00:00,2013-04-24 00:00:00,141.09750524760014,3.1936515864792505,50.416196509101674,2.300031961151823
sz002579,2013-05-21,5.82,6.07,5.67,5.94,0.013652000000000001,16903499.0,98942310.33,606060320.0,1387821600.0,0.16567127189584036,14.53,2013-03-31 00:00:00,2013-04-24 00:00:00,142.05409754043745,3.215303439843155,50.75800088707524,2.3156253824774264
sz002579,2013-05-20,5.67,5.94,5.61,5.86,0.01209,18651618.0,107668482.89,597897890.0,1369130400.0,0.18280459474443037,14.33,2013-03-31 00:00:00,2013-04-24 00:00:00,140.14089405480132,3.171999305326833,50.074385377896206,2.284438231737743
sz002579,2013-05-17,5.4,6.1,5.36,5.79,0.042513999999999996,33419215.0,190095052.08,590755770.0,1352775600.0,0.32754187885460684,14.16,2013-03-31 00:00:00,2013-04-24 00:00:00,138.46683007914447,3.1341079403282643,49.476217903443576,2.2571492967401543
sz002579,2013-05-16,7.58,8.35,7.55,8.35,0.100132,17854585.0,145332845.87,567968990.0,1300596000.0,0.26248930377343316,13.58,2013-03-31 00:00:00,2013-04-24 00:00:00,132.8201156810791,3.0062981795239825,47.45856449260498,2.165102144182385
sz002579,2013-05-15,7.45,7.59,7.43,7.59,0.021534,3004360.0,22600586.87,516273610.0,1182218400.0,0.04416861903904017,12.35,2013-03-31 00:00:00,2013-04-24 00:00:00,120.73107198143416,2.732670424570854,43.138972861988364,1.9680385119080122
sz002579,2013-05-14,7.61,7.7,7.39,7.43,-0.027487,3864593.0,28979976.75,505390370.0,1157296800.0,0.056815340565353464,12.09,2013-03-31 00:00:00,2013-04-24 00:00:00,118.18605350525206,2.675065562742752,42.22960064176853,1.926552138164772
sz002579,2013-05-13,7.65,7.76,7.53,7.64,0.011921,4712670.0,36114231.21,519674620.0,1190006400.0,0.06928335041645867,12.43,2013-03-31 00:00:00,2013-04-24 00:00:00,121.5264510656948,2.7506733202977762,43.4231734092691,1.9810039949746396
sz002579,2013-05-10,7.6,7.75,7.5,7.55,-0.013072,3759272.0,28545919.91,513552800.0,1175988000.0,0.055266963007503805,12.28,2013-03-31 00:00:00,2013-04-24 00:00:00,120.09480094364561,2.7182688374861046,42.91162394027706,1.9576666508300944
sz002579,2013-05-09,7.55,7.65,7.43,7.65,0.007905,4265561.0,32225476.0,520354820.0,1191564000.0,0.06271017466504876,12.45,2013-03-31 00:00:00,2013-04-24 00:00:00,121.68547345261824,2.754272690090974,43.47999442743246,1.983596220626119
sz002579,2013-05-08,7.4,7.59,7.34,7.59,0.020161000000000002,4857712.0,36382928.95,516273610.0,1182218400.0,0.07141568611264093,12.35,2013-03-31 00:00:00,2013-04-24 00:00:00,120.73109415333609,2.732670926417642,43.1389807843323,1.9680388733324257
sz002579,2013-05-07,7.4,7.45,7.27,7.44,0.0013460000000000002,3941540.0,28993508.51,506070570.0,1158854400.0,0.05794657768777188,12.1,2013-03-31 00:00:00,2013-04-24 00:00:00,118.34513782955445,2.678666334448819,42.28644379106073,1.9291453734581363
sz002579,2013-05-06,7.2,7.55,7.2,7.43,0.027663,6361559.0,47073603.86,505390370.0,1157296800.0,0.09352450338537316,12.09,2013-03-31 00:00:00,2013-04-24 00:00:00,118.18605939361063,2.675065696021974,42.22960274576492,1.9265522341509689
sz002579,2013-05-03,6.93,7.27,6.9,7.23,0.043289999999999995,4430991.0,31790123.2,491786320.0,1126144800.0,0.06514224496931921,11.76,2013-03-31 00:00:00,2013-04-24 00:00:00,115.0046847980424,2.6030573213416988,41.09285120293806,1.8746926124137673
sz002579,2013-05-02,6.93,6.98,6.75,6.93,-0.01,2060407.0,14160976.69,471380250.0,1079416800.0,0.030291087736492986,11.27,2013-03-31 00:00:00,2013-04-24 00:00:00,110.23271074968838,2.4950467476365135,39.387755276996856,1.7969046117702334
sz002579,2013-04-26,7.15,7.33,6.97,7.0,-0.026425999999999998,3893826.0,27839998.64,476141670.0,1090320000.0,0.057245109423000096,11.39,2013-03-31 00:00:00,2013-04-24 00:00:00,111.3461724744327,2.520249240036882,39.78561139090591,1.8150551634042762
sz002579,2013-04-25,7.05,7.42,7.01,7.19,0.018414,7574082.0,54809746.16,489065510.0,1119914400.0,0.11135041925160498,11.7,2013-03-31 00:00:00,2013-04-24 00:00:00,114.36847376206913,2.588657092359576,40.86552372075046,1.8643217294260899
sz002579,2013-04-24,6.86,7.12,6.86,7.06,0.035191,4016900.0,28176860.44,480222880.0,1099665600.0,0.05905448320163337,11.49,2013-03-31 00:00:00,2013-04-24 00:00:00,112.30057104681312,2.5418514399444394,40.126631920565174,1.830612824868953
sz002579,2013-04-23,7.13,7.18,6.81,6.82,-0.043477999999999996,2969485.0,20657844.2,463898020.0,1062283200.0,0.04365590458868525,11.1,2012-12-31 00:00:00,2013-03-30 00:00:00,105.9619340940539,2.3344493112446494,57.73927491175011,1.669832754992033
sz002579,2013-04-22,7.04,7.17,7.0,7.13,0.012784,3056701.0,21603646.28,484984300.0,1110568800.0,0.04493811063574635,11.6,2012-12-31 00:00:00,2013-03-30 00:00:00,110.77835543150486,2.4405599779666844,60.363770944892124,1.745733767746098
sz002579,2013-04-19,7.0,7.16,6.98,7.04,0.002849,3855104.0,27227644.47,478862480.0,1096550400.0,0.05667583762252578,11.45,2012-12-31 00:00:00,2013-03-30 00:00:00,109.3800409875204,2.409753686834196,59.60182126188025,1.723698012356137
sz002579,2013-04-18,6.89,7.07,6.84,7.02,0.015919,3584662.0,25078563.88,477502070.0,1093435200.0,0.052699933300812705,11.42,2012-12-31 00:00:00,2013-03-30 00:00:00,109.06930254457092,2.40290780250486,59.43249807486495,1.71880114788581
sz002579,2013-04-17,6.78,6.97,6.75,6.91,0.019174,1720807.0,11759572.13,470019840.0,1076301600.0,0.025298456273675596,11.24,2012-12-31 00:00:00,2013-03-30 00:00:00,107.36023496417619,2.365255303331131,58.501217198285445,1.6918682964742369
sz002579,2013-04-16,6.55,6.79,6.53,6.78,0.019549,937576.0,6274427.01,461177210.0,1056052800.0,0.013783780165546343,11.03,2012-12-31 00:00:00,2013-03-30 00:00:00,105.34043741713995,2.3207571065697628,57.40061775348022,1.660038714168765
sz002579,2013-04-15,6.81,6.88,6.62,6.65,-0.039017,1872012.0,12637107.03,452334580.0,1035804000.0,0.027521397546037715,10.82,2012-12-31 00:00:00,2013-03-30 00:00:00,103.32062256658574,2.2762585285942727,56.30000887988729,1.628208859180642
sz002579,2013-04-12,6.82,7.09,6.82,6.92,0.011696,2933090.0,20416198.18,470700050.0,1077859200.0,0.043120842668276746,11.26,2012-12-31 00:00:00,2013-03-30 00:00:00,107.51555705624942,2.3686772071870914,58.585853110707774,1.694315986006664
sz002579,2013-04-11,6.86,6.89,6.82,6.84,-0.002915,1277530.0,8762420.37,465258430.0,1065398399.9999999,0.018781616057983085,11.13,2012-12-31 00:00:00,2013-03-30 00:00:00,106.27259281073506,2.3412934391231075,57.908554655457536,1.674728363072172
sz002579,2013-04-10,6.9,6.91,6.78,6.86,-0.011526999999999999,1847977.0,12647789.5,466618830.0,1068513600.0000001,0.02716804681885641,11.16,2012-12-31 00:00:00,2013-03-30 00:00:00,106.58328308091593,2.348138262157296,58.0778515928507,1.6796244683975508
sz002579,2013-04-09,6.99,7.04,6.84,6.94,-0.005731,3946013.0,27266041.43,472060450.0,1080974400.0,0.05801233765717929,11.29,2012-12-31 00:00:00,2013-03-30 00:00:00,107.82619563803557,2.375520891473309,58.75512188279366,1.699211276785052
sz002579,2013-04-08,6.8,6.98,6.73,6.98,0.016012000000000002,2982093.0,20469107.57,474781260.0,1087204800.0,0.04384126100512055,11.36,2012-12-31 00:00:00,2013-03-30 00:00:00,108.4477094609563,2.389213473892185,59.09378838402249,1.7090055878087842
sz002579,2013-04-03,6.72,6.89,6.66,6.87,0.019288,2294975.0,15584396.5,467299040.0,1070071200.0,0.03373959049862375,11.18,2012-12-31 00:00:00,2013-03-30 00:00:00,106.73861082443544,2.3515602905203727,58.16249058477901,1.6820722469899807
sz002579,2013-04-02,6.75,6.96,6.73,6.74,-0.007364,2677268.0,18328834.36,458456400.0,1049822399.9999999,0.039359874395907664,10.97,2012-12-31 00:00:00,2013-03-30 00:00:00,104.7187947120298,2.3070616847450105,57.06188102359589,1.6502423721165955
sz002579,2013-04-01,6.9,6.99,6.69,6.79,0.060938,4846641.0,32986188.3,461857420.0,1057610399.9999999,0.07125292561067872,11.05,2012-12-31 00:00:00,2013-03-30 00:00:00,105.49566478752514,2.3241769236104783,57.48520205150316,1.6624849110012085
sz002579,2013-03-29,6.2,6.45,6.2,6.4,0.019108,771193.0,4889071.1,435329520.0,996864000.0,0.011337699313384492,10.41,2012-09-30 00:00:00,2012-10-26 00:00:00,72.82214651932487,2.3451599988264706,25.22126439964922,1.6710484809360588
sz002579,2013-03-28,6.58,6.58,6.28,6.28,-0.045593,1357875.0,8609084.4,427167090.0,978172800.0,0.019962808932682524,10.22,2012-09-30 00:00:00,2012-10-26 00:00:00,71.45675092269404,2.301188881675417,24.748372497958236,1.6397167728406206
sz002579,2013-03-27,6.65,6.74,6.54,6.58,-0.009036,1655198.0,11011022.61,447573170.0,1024900800.0,0.024333904644016087,10.7,2012-09-30 00:00:00,2012-10-26 00:00:00,74.87031310823794,2.4111190316871283,25.93062760222655,1.7180477226598512
sz002579,2013-03-26,6.6,6.65,6.43,6.64,0.0060609999999999995,1264785.0,8237023.75,451654380.0,1034246400.0,0.018594245449363292,10.8,2012-09-30 00:00:00,2012-10-26 00:00:00,75.55301010756995,2.4331045645322416,26.167073276351665,1.7337135583733123
sz002579,2013-03-25,6.58,6.63,6.54,6.6,0.0030399999999999997,693902.0,4574432.34,448933570.0,1028016000.0,0.010201405076479356,10.74,2012-09-30 00:00:00,2012-10-26 00:00:00,75.09784208668255,2.418446361137388,26.009430120391965,1.723268826018812
sz002579,2013-03-22,6.5,6.63,6.5,6.58,-0.001517,748249.0,4927336.8,447573170.0,1024900800.0,0.011000387757827397,10.7,2012-09-30 00:00:00,2012-10-26 00:00:00,74.87023656751731,2.411116566774394,25.93060109306904,1.718045966281317
sz002579,2013-03-21,6.48,6.6,6.43,6.59,0.018547,1324443.0,8669251.64,448253370.0,1026458400.0,0.01947130786769099,10.72,2012-09-30 00:00:00,2012-10-26 00:00:00,74.98398727621533,2.4147797877123534,25.969997579396985,1.7206562017393559
sz002579,2013-03-20,6.28,6.48,6.28,6.47,0.030255,1132295.0,7245885.15,440090940.0,1007767200.0,0.016646442778394846,10.53,2012-09-30 00:00:00,2012-10-26 00:00:00,73.61858340971533,2.3708084042389337,25.497102813514726,1.689324303875379
sz002579,2013-03-19,6.34,6.38,6.21,6.28,-0.009464,1013745.0,6360289.98,427167090.0,978172800.0,0.014903579299613178,10.22,2012-09-30 00:00:00,2012-10-26 00:00:00,71.4566620979421,2.3011860211684816,24.7483417343422,1.6397147345806418
sz002579,2013-03-18,6.48,6.5,6.32,6.34,-0.021605000000000003,652426.0,4182526.31,431248310.0,987518400.0,0.009591645333056493,10.31,2012-09-30 00:00:00,2012-10-26 00:00:00,72.13938927806976,2.3231725259541114,24.984797861301562,1.6553812628522757
sz002579,2013-03-15,6.57,6.68,6.41,6.48,-0.016692,1020639.0,6695214.38,440771140.0,1009324800.0,0.015004931402722965,10.54,2012-09-30 00:00:00,2012-10-26 00:00:00,73.7323772894074,2.3744730154529727,25.53651425170975,1.6919355299774381
sz002579,2013-03-14,6.6,6.72,6.57,6.59,-0.007529999999999999,759239.0,5037488.92,448253370.0,1026458400.0,0.011161957376918327,10.72,2012-09-30 00:00:00,2012-10-26 00:00:00,74.9840103908515,2.4147805320946976,25.97000558493346,1.7206567321504944
sz002579,2013-03-13,6.62,6.69,6.46,6.64,-0.001504,1166980.0,7654910.57,451654380.0,1034246400.0,0.017156364563540822,10.8,2012-09-30 00:00:00,2012-10-26 00:00:00,75.55292390787781,2.4331017885625736,26.16704342190037,1.7337115803505339
sz002579,2013-03-12,6.86,6.92,6.55,6.65,-0.030612,2153353.0,14456561.71,452334580.0,1035804000.0,0.03165753423052467,10.82,2012-09-30 00:00:00,2012-10-26 00:00:00,75.66672666478165,2.436766685657803,26.20645793463406,1.736323010157811
sz002579,2013-03-11,6.97,6.98,6.83,6.86,-0.01295,1084354.0,7483178.09,466618830.0,1068513600.0000001,0.015941637931756847,11.16,2012-09-30 00:00:00,2012-10-26 00:00:00,78.05618252421284,2.5137165775291246,27.034023460816574,1.7911538106081477
sz002579,2013-03-08,6.9,7.0,6.87,6.95,0.004335,1144490.0,7954060.65,472740650.0,1082532000.0,0.016825727806567936,11.31,2012-09-30 00:00:00,2012-10-26 00:00:00,79.08027204722441,2.546696294543463,27.3887072193066,1.8146535743965837
sz002579,2013-03-07,7.08,7.08,6.83,6.92,-0.021216,2388342.0,16606261.67,470700050.0,1077859200.0,0.035112226225597384,11.26,2012-09-30 00:00:00,2012-10-26 00:00:00,78.73893874775291,2.5357040176270496,27.27048964668821,1.8068210053384417
sz002579,2013-03-06,6.86,7.1,6.82,7.07,0.032117,2652623.0,18549559.5,480903080.0,1101223200.0,0.03899755561973112,11.5,2012-09-30 00:00:00,2012-10-26 00:00:00,80.44567417096408,2.5906676218931346,27.86160138160024,1.8459854322694709
sz002579,2013-03-05,6.64,6.86,6.64,6.85,0.028529000000000002,1580939.0,10741738.79,465938630.0,1066956000.0,0.02324218567153361,11.14,2012-09-30 00:00:00,2012-10-26 00:00:00,77.94239816897124,2.5100522730399115,26.994615321325238,1.7885428030634811
sz002579,2013-03-04,6.94,7.08,6.63,6.66,-0.041727,3447827.0,23763124.62,453014790.0,1037361600.0,0.05068825196634309,10.83,2012-09-30 00:00:00,2012-10-26 00:00:00,75.78045749703823,2.4404292664960456,26.245847536943767,1.7389327895115072
sz002579,2013-03-01,6.83,6.95,6.8,6.95,0.01757,2310038.0,15805797.43,472740650.0,1082532000.0,0.03396103994864838,11.31,2012-09-30 00:00:00,2012-10-26 00:00:00,79.08023861367087,2.5466952178513282,27.388695639910306,1.8146528071974346
sz002579,2013-02-28,6.67,6.83,6.65,6.83,0.025526,1598037.0,10829888.82,464578230.0,1063840800.0,0.02349355179643265,11.11,2012-09-30 00:00:00,2012-10-26 00:00:00,77.7147897576293,2.5027223855374348,26.915785292324163,1.78331987695926
sz002579,2013-02-27,6.83,6.88,6.61,6.66,-0.019146,1900147.0,12775643.06,453014790.0,1037361600.0,0.027935023975707286,10.83,2012-09-30 00:00:00,2012-10-26 00:00:00,75.78041878765562,2.440428019901431,26.245834130313778,1.7389319012480036
sz002579,2013-02-26,7.05,7.05,6.76,6.79,-0.036879,2348617.0,16161773.39,461857420.0,1057610399.9999999,0.03452820879222856,11.05,2012-09-30 00:00:00,2012-10-26 00:00:00,77.25963169610932,2.488064502873446,26.758145585697537,1.7728753731421836
sz002579,2013-02-25,7.12,7.2,6.96,7.05,-0.009831,2335761.0,16426813.58,479542680.0,1098108000.0,0.03433920636636556,11.47,2012-09-30 00:00:00,2012-10-26 00:00:00,80.21799098566983,2.5833353263748227,27.782745455345214,1.8407607903287162
sz002579,2013-02-22,6.9,7.26,6.9,7.12,0.020057,5482788.0,38833229.64,484304090.0,1109011200.0,0.08060524650948125,11.58,2012-09-30 00:00:00,2012-10-26 00:00:00,81.01444398448128,2.6089842505419005,28.058589448210572,1.8590369829076818
sz002579,2013-02-21,6.76,7.02,6.71,6.98,0.027982,4788887.0,32930418.99,474781260.0,1087204800.0,0.07040385557761905,11.36,2012-09-30 00:00:00,2012-10-26 00:00:00,79.42148721540195,2.5576847671668355,27.50688387826423,1.822483432698057
sz002579,2013-02-20,6.65,6.8,6.61,6.79,0.021053,1216866.0,8189067.81,461857420.0,1057610399.9999999,0.01788976377168521,11.05,2012-09-30 00:00:00,2012-10-26 00:00:00,77.2596088408182,2.488063766843034,26.758137669982776,1.7728748486822312
sz002579,2013-02-19,6.78,6.83,6.61,6.65,-0.022059,1565190.0,10487232.22,452334580.0,1035804000.0,0.02301065176135771,10.82,2012-09-30 00:00:00,2012-10-26 00:00:00,75.6665999128529,2.4367626037463617,26.206414035297655,1.7363201015835916
sz002579,2013-02-18,6.72,6.84,6.72,6.8,0.011904999999999999,1575503.0,10680963.43,462537620.0,1059168000.0,0.02316226818480192,11.06,2012-09-30 00:00:00,2012-10-26 00:00:00,77.37337928653457,2.491727623390738,26.79754099204109,1.7754855370452736
sz002579,2013-02-08,6.63,6.73,6.63,6.72,0.013575,1234855.0,8274712.35,457096000.0,1046707200.0,0.01815422930850412,10.93,2012-09-30 00:00:00,2012-10-26 00:00:00,76.46308624479035,2.4624126013714114,26.482269572777177,1.7545970590571975
sz002579,2013-02-07,6.63,6.69,6.6,6.63,0.0,980206.0,6508329.79,450974180.0,1032688800.0,0.01441050523114206,10.79,2012-09-30 00:00:00,2012-10-26 00:00:00,75.43900179541757,2.4294330477482298,26.12758757149415,1.7310974116934592
sz002579,2013-02-06,6.6,6.68,6.58,6.63,0.010671,1378856.0,9144769.57,450974180.0,1032688800.0,0.02027126094003874,10.79,2012-09-30 00:00:00,2012-10-26 00:00:00,75.43900179541757,2.4294330477482298,26.12758757149415,1.7310974116934592
sz002579,2013-02-05,6.43,6.59,6.43,6.56,0.013909999999999999,1056139.0,6878355.45,446212760.0,1021785600.0,0.015526834866846926,10.67,2012-09-30 00:00:00,2012-10-26 00:00:00,74.64249176578487,2.403782286964036,25.851723826541125,1.7128199104292683
sz002579,2013-02-04,6.58,6.58,6.42,6.47,-0.016717,1360680.0,8826064.65,440090940.0,1007767200.0,0.02000404643640244,10.53,2012-09-30 00:00:00,2012-10-26 00:00:00,73.61845900107983,2.3708043977907662,25.497059725755857,1.6893214490726671
sz002579,2013-02-01,6.49,6.61,6.42,6.58,0.017002,1324300.0,8674014.68,447573170.0,1024900800.0,0.019469205448575035,10.7,2012-09-30 00:00:00,2012-10-26 00:00:00,74.8700618246017,2.411110939364116,25.930540572506448,1.7180419564587888
sz002579,2013-01-31,6.59,6.59,6.41,6.47,-0.019697,1498706.0,9704491.21,440090940.0,1007767200.0,0.022033236630592756,10.53,2012-09-30 00:00:00,2012-10-26 00:00:00,73.61840175791366,2.3708025543353077,25.497039900124534,1.689320135514767
sz002579,2013-01-30,6.7,6.73,6.54,6.6,-0.017856999999999998,1675265.0,11074357.32,448933570.0,1028016000.0,0.02462892004266912,10.74,2012-09-30 00:00:00,2012-10-26 00:00:00,75.09759916874033,2.4184385382226794,26.009345988051173,1.7232632517851794
sz002579,2013-01-29,6.7,6.76,6.64,6.72,0.004484,1304947.0,8731262.89,457096000.0,1046707200.0,0.01918468733045137,10.93,2012-09-30 00:00:00,2012-10-26 00:00:00,76.46299894082668,2.4624097898398496,26.48223933587184,1.75459505569472
sz002579,2013-01-28,6.43,6.7,6.43,6.69,0.029231,1445183.0,9559302.23,455055390.0,1042034400.0,0.021246367986103847,10.88,2012-09-30 00:00:00,2012-10-26 00:00:00,76.12166937534762,2.4514176331727033,26.364023056486555,1.7467625723204352
sz002579,2013-01-25,6.47,6.55,6.41,6.5,0.012461,1353573.0,8773779.5,442131550.0,1012440000.0,0.019899562698025057,10.57,2012-09-30 00:00:00,2012-10-26 00:00:00,73.95975186848008,2.381795372635204,25.615263295107273,1.6971530903368004
sz002579,2013-01-24,6.71,6.81,6.37,6.42,-0.047478,3208580.0,21111194.14,436689930.0,999979200.0,0.04717096086919156,10.44,2012-09-30 00:00:00,2012-10-26 00:00:00,73.04948226991466,2.3524811055785886,25.299999995167486,1.676265150298925
sz002579,2013-01-23,6.92,6.96,6.53,6.74,-0.026012,3158462.0,21258718.31,458456400.0,1049822399.9999999,0.04643415138277054,10.97,2012-09-30 00:00:00,2012-10-26 00:00:00,76.69059850577169,2.4697393924534956,26.561066301006683,1.759817778800831
sz002579,2013-01-22,7.32,7.34,6.88,6.92,-0.054645000000000006,4376710.0,31015525.75,470700050.0,1077859200.0,0.06434423195833525,11.26,2012-09-30 00:00:00,2012-10-26 00:00:00,78.73875089402713,2.535697967997035,27.27042458532003,1.8068166946623891
sz002579,2013-01-21,7.1,7.36,7.1,7.32,0.03244,6517055.0,47342107.83,497908140.0,1140163200.0,0.09581052962901954,11.91,2012-09-30 00:00:00,2012-10-26 00:00:00,83.29014062868141,2.682270647531387,28.846755541907566,1.9112573527007197
sz002579,2013-01-18,6.97,7.1,6.87,7.09,0.021613999999999998,3792238.0,26552624.48,482263490.0,1104338400.0,0.05575161292014869,11.53,2012-09-30 00:00:00,2012-10-26 00:00:00,80.67310509926138,2.597991793742384,27.940369941020847,1.8512042856734723
sz002579,2013-01-17,6.87,7.01,6.8,6.94,0.001443,2886289.0,19982547.95,472060450.0,1080974400.0,0.042432797875780526,11.29,2012-09-30 00:00:00,2012-10-26 00:00:00,78.96632690944071,2.5430268122229958,27.349243394296515,1.8120388773778275
sz002579,2013-01-16,7.03,7.18,6.75,6.93,-0.017021,5209979.0,36462073.73,471380250.0,1079416800.0,0.07659454224057965,11.27,2012-09-30 00:00:00,2012-10-26 00:00:00,78.85254269033854,2.539362512118009,27.309835301955793,1.8094278729571502
sz002579,2013-01-15,7.03,7.11,6.98,7.05,0.004274,5482406.0,38770443.25,479542680.0,1098108000.0,0.08059962942193175,11.47,2012-09-30 00:00:00,2012-10-26 00:00:00,80.21793211283104,2.5833334304374853,27.782725065292126,1.8407594393747477
sz002579,2013-01-14,6.79,7.05,6.78,7.02,0.024818,3976932.0,27649630.38,477502070.0,1093435200.0,0.058466893431477686,11.42,2012-09-30 00:00:00,2012-10-26 00:00:00,79.8765397818036,2.5723392524724185,27.66448704765047,1.832925515720558
sz002579,2013-01-11,7.1,7.15,6.75,6.85,-0.039271,4955098.0,34579844.36,465938630.0,1066956000.0,0.07284740760816505,11.14,2012-09-30 00:00:00,2012-10-26 00:00:00,77.94217098236331,2.5100449567361407,26.994536637383874,1.7885375898164921
sz002579,2013-01-10,7.05,7.13,7.02,7.13,0.009915,4301529.0,30455892.88,484984300.0,1110568800.0,0.06323895798276356,11.6,2012-09-30 00:00:00,2012-10-26 00:00:00,81.12815474745044,2.6126461850700258,28.09797209971165,1.8616463017318017
sz002579,2013-01-09,7.23,7.24,7.01,7.06,-0.036835,7907351.0,56119766.5,480222880.0,1099665600.0,0.1162499755530182,11.49,2012-09-30 00:00:00,2012-10-26 00:00:00,80.33166627632072,2.5869961185545574,27.822115821343036,1.8433692951701894
sz002579,2013-01-08,7.53,7.53,7.31,7.33,-0.039318,7295364.0,53737041.88,498588340.0,1141720800.0,0.10725284534331468,11.92,2012-09-30 00:00:00,2012-10-26 00:00:00,83.40384697982248,2.685932439981267,28.886136665413545,1.9138665702867
sz002579,2013-01-07,7.51,7.97,7.4,7.63,-0.005215,9303027.0,70644018.75,518994420.0,1188448800.0,0.13676851479443652,12.41,2012-09-30 00:00:00,2012-10-26 00:00:00,86.81733079189833,2.7958600660585575,30.06836462576955,1.992195721671375
sz002579,2013-01-04,7.15,7.78,7.11,7.67,0.084866,11390072.0,84881616.51,521715230.0,1194679200.0,0.16745122092755466,12.48,2012-09-30 00:00:00,2012-10-26 00:00:00,87.27245665334553,2.8105169117533513,30.225993180204316,2.0026394865939627
