code,date,open,high,low,close,change,volume,money,traded_market_value,market_value,turnover,adjust_price,report_type,report_date,PE_TTM,PS_TTM,PC_TTM,PB
sz002151,2014-12-31,32.47,34.98,32.47,34.16,0.041463,5818457.0,198321929.64,4620148880.0,8014267220.0,0.04301993210227459,131.12,2014-09-30 00:00:00,2014-10-28 00:00:00,248.94337920450852,8.78929561238875,46.860203400714504,6.949027898109434
sz002151,2014-12-30,34.15,34.5,32.4,32.8,-0.062321,8388333.0,280739640.21,4436208530.0,7695198030.0,0.06202082714087383,125.9,2014-09-30 00:00:00,2014-10-28 00:00:00,239.03237964719676,8.439373854269187,44.99459260743252,6.67237136423419
sz002151,2014-12-29,33.5,36.19,33.46,34.98,-0.042955,10813314.0,376216285.93,4731054090.0,8206647170.0,0.0799504120063865,134.27,2014-09-30 00:00:00,2014-10-28 00:00:00,254.91919905127105,9.000280324363867,47.98507016519782,7.115837471281954
sz002151,2014-12-26,36.55,36.55,36.55,36.55,-0.099975,2545400.0,93034370.0,4943397000.0,8574984390.000001,0.018819926864057243,140.29,2014-09-30 00:00:00,2014-10-28 00:00:00,266.3607239484779,9.404239429038203,50.13878152563131,7.435217227279756
sz002151,2014-12-17,41.9,41.9,40.18,40.61,-0.026139,6202535.0,252631081.57,5492513060.0,9527499750.0,0.04585969001774207,155.88,2014-09-30 00:00:00,2014-10-28 00:00:00,295.94813916110985,10.44886467491259,55.70820980042922,8.26112299911642
sz002151,2014-12-16,42.0,42.7,41.4,41.7,-0.006906,5654612.0,237396628.59,5639935840.0,9783224320.0,0.04180851114079341,160.06,2014-09-30 00:00:00,2014-10-28 00:00:00,303.8915606653412,10.729318326652972,57.203450800914325,8.482856382087814
sz002151,2014-12-15,40.1,42.81,39.6,41.99,0.010346,6360001.0,265140419.43,5679158420.0,9851261140.0,0.04702394654981292,161.17,2014-09-30 00:00:00,2014-10-28 00:00:00,306.0048300214695,10.803930269091317,57.60124499887657,8.541846373140723
sz002151,2014-12-12,42.0,42.17,41.3,41.56,-0.008824,3764460.0,156528553.13,5621000810.0,9750378970.0,0.02783329212863074,159.52,2014-09-30 00:00:00,2014-10-28 00:00:00,302.87132331049906,10.6932974140456,57.01140500271843,8.454377384718425
sz002151,2014-12-11,41.78,42.79,41.02,41.93,-0.003091,5920483.0,247790501.96,5671043400.0,9837184550.0,0.043774281852612874,160.94,2014-09-30 00:00:00,2014-10-28 00:00:00,305.56765227416633,10.788495094761778,57.518952237260024,8.529642954145809
sz002151,2014-12-10,40.18,42.8,39.64,42.06,0.030376999999999998,7977884.0,329393392.38,5688625940.0,9867683810.0,0.058986089888694644,161.44,2014-09-30 00:00:00,2014-10-28 00:00:00,306.51509041865035,10.82194572901015,57.6972945747907,8.55608982780355
sz002151,2014-12-09,45.27,46.5,40.73,40.82,-0.097901,16472794.0,720294642.39,5520915610.0,9576767790.0,0.12179491565892638,156.68,2014-09-30 00:00:00,2014-10-28 00:00:00,297.4785834880343,10.502899161190658,55.996295117991465,8.303843959835621
sz002151,2014-12-08,44.5,46.89,44.5,45.25,0.030517000000000002,20229654.0,924968051.09,6120074270.0,10616088740.0,0.14957201548797544,173.69,2014-09-30 00:00:00,2014-10-28 00:00:00,329.762679581769,11.642734512720509,62.07333687099915,9.205025124554645
sz002151,2014-12-05,41.48,44.4,39.39,43.91,0.06216699999999999,20472890.0,872019182.45,5938838920.0,10301711750.0,0.15137042981121973,168.54,2014-09-30 00:00:00,2014-10-28 00:00:00,319.99732132683795,11.29795482531633,60.23514107093735,8.932434035105336
sz002151,2014-12-04,40.0,42.0,39.81,41.34,0.024789,9037887.0,370104615.61,5591245750.0,9698764830.0,0.06682343529257323,158.68,2014-09-30 00:00:00,2014-10-28 00:00:00,301.2683705357424,10.636702915187847,56.709670956579664,8.409632416658901
sz002151,2014-12-03,40.0,40.44,39.07,40.34,0.00951,7339774.0,292139300.49,5455995490.0,9464155140.0,0.05426809529125912,154.84,2014-09-30 00:00:00,2014-10-28 00:00:00,293.9808785376721,10.37940777583273,55.33789975944284,8.20620870897219
sz002151,2014-12-02,39.82,40.43,39.26,39.96,0.003012,3617788.0,144500776.91,5404600390.0,9375003450.0,0.026748843216510224,153.38,2014-09-30 00:00:00,2014-10-28 00:00:00,291.2114575761232,10.28162947948285,54.81659395096913,8.12890284293587
sz002151,2014-12-01,41.18,41.2,39.6,39.84,-0.032305,5156234.0,206595902.49,5388370360.0,9346850290.0,0.0381236531335979,152.92,2014-09-30 00:00:00,2014-10-28 00:00:00,290.33696264463754,10.25075420780893,54.65198218064104,8.104492112692443
sz002151,2014-11-28,41.27,42.38,40.98,41.17,0.009811,7036671.0,293304970.69,5568253200.0,9658881180.0,0.052027042353246435,158.02,2014-09-30 00:00:00,2014-10-28 00:00:00,300.0294128259809,10.592959773284898,56.4764540280161,8.37504803961211
sz002151,2014-11-27,41.0,41.35,40.43,40.77,-0.005124,4254761.0,173706854.79,5514153100.0,9565037310.0,0.031458431208593034,156.49,2014-09-30 00:00:00,2014-10-28 00:00:00,297.1144232197717,10.490041971502487,55.927746903149306,8.293678757324006
sz002151,2014-11-26,40.99,41.38,40.37,40.98,-0.013243000000000001,6606901.0,269618499.1,5542555650.0,9614305340.0,0.04884945142228748,157.3,2014-09-30 00:00:00,2014-10-28 00:00:00,298.6446785526756,10.544069785081245,56.2157966451591,8.336394442447105
sz002151,2014-11-25,39.19,42.36,39.19,41.53,0.078421,10053918.0,416804964.04,5616943300.0,9743340670.0,0.07433566483393202,159.41,2014-09-30 00:00:00,2014-10-28 00:00:00,302.65270836961446,10.685578906540561,56.970253715108285,8.448274947577879
sz002151,2014-11-24,38.77,38.88,38.25,38.51,0.005483,3194866.0,123225242.65,5208487510.0,9034819390.0,0.02362188436158888,147.81,2014-09-30 00:00:00,2014-10-28 00:00:00,280.6443015942887,9.908541197306581,52.82747064004529,7.833930299556369
sz002151,2014-11-21,38.68,38.68,38.13,38.3,0.0015689999999999999,1823745.0,69837373.36,5180084960.0,8985551360.0,0.013484225459499026,147.01,2014-09-30 00:00:00,2014-10-28 00:00:00,279.1139199710873,9.854508924871512,52.539397125605596,7.791211089154535
sz002151,2014-11-20,38.68,38.95,38.19,38.24,-0.009326000000000001,1683701.0,64773898.94,5171969940.0,8971474780.0,0.012448781989633916,146.78,2014-09-30 00:00:00,2014-10-28 00:00:00,278.67667626602594,9.839071421810694,52.457091948338665,7.779005829008821
sz002151,2014-11-19,38.2,38.68,37.78,38.6,0.008359,2362424.0,90483514.95,5220660040.0,9055934270.0,0.01746705698155362,148.16,2014-09-30 00:00:00,2014-10-28 00:00:00,281.3000808197509,9.931694403820725,52.95091215509709,7.852235779892094
sz002151,2014-11-18,38.43,38.94,38.16,38.28,-0.006231,1995289.0,76769584.27,5177379950.0,8980859160.0,0.014752570539081258,146.93,2014-09-30 00:00:00,2014-10-28 00:00:00,278.96818575502465,9.849363573708098,52.5119646426492,7.787143051127718
sz002151,2014-11-17,37.69,38.57,37.32,38.52,0.023651,3517187.0,134339608.57,5209840020.0,9037165490.0,0.02600502946729639,147.85,2014-09-30 00:00:00,2014-10-28 00:00:00,280.7173354723529,9.911119760938506,52.84121827371269,7.835968973803487
sz002151,2014-11-14,37.3,37.84,36.63,37.63,0.00615,2951973.0,110093103.91,5089467280.0,8828362860.0,0.02182600611787409,144.44,2014-09-30 00:00:00,2014-10-28 00:00:00,274.23148658317416,9.682127757349432,51.62034548270131,7.65492240402587
sz002151,2014-11-13,39.8,39.8,36.9,37.4,-0.061951,7024701.0,265654230.41,5058359720.0,8774402630.0,0.05193853975256627,143.55,2014-09-30 00:00:00,2014-10-28 00:00:00,272.5552716624501,9.622946635540856,51.304820834568716,7.608132389828425
sz002151,2014-11-12,39.8,39.99,39.16,39.87,0.001004,2637007.0,104600451.4,5392427870.0,9353888580.0,0.01949724161818042,153.04,2014-09-30 00:00:00,2014-10-28 00:00:00,290.5554738211437,10.258469051766863,54.693113936019024,8.110591653344787
sz002151,2014-11-11,42.29,42.4,39.52,39.83,-0.048949,5261378.0,214311170.37,5387017860.0,9344504190.0,0.038901056426050164,152.88,2014-09-30 00:00:00,2014-10-28 00:00:00,290.26404871623265,10.248179879168179,54.638257125864655,8.10245678673091
sz002151,2014-11-10,41.3,42.1,41.1,41.88,0.008428,3240319.0,134736595.44,5664280890.0,9825454070.0,0.023957950242118026,160.75,2014-09-30 00:00:00,2014-10-28 00:00:00,305.2034525133065,10.775636510732,57.450396588473865,8.519476649234278
sz002151,2014-11-07,41.45,41.74,41.03,41.53,0.0016879999999999998,2956217.0,122397635.52,5616943300.0,9743340670.0,0.021857384960606602,159.41,2014-09-30 00:00:00,2014-10-28 00:00:00,302.65269559483323,10.685578455508969,56.97025131042956,8.448274590981486
sz002151,2014-11-06,41.5,41.67,41.01,41.46,-0.000964,2664196.0,109959587.21,5607475780.0,9726918000.0,0.019698268970499238,159.14,2014-09-30 00:00:00,2014-10-28 00:00:00,302.14267875309804,10.66757159465719,56.87424758051366,8.434037934947296
sz002151,2014-11-05,41.35,42.3,41.21,41.5,0.004843,3381968.0,141498398.68,5612885790.0,9736302380.0,0.02500526061835297,159.29,2014-09-30 00:00:00,2014-10-28 00:00:00,302.43422534633186,10.677865056571724,56.929127259191525,8.442176192797152
sz002151,2014-11-04,42.31,42.39,41.0,41.3,-0.023871,4603900.0,191512521.7,5585835740.0,9689380440.0,0.034039860613588324,158.52,2014-09-30 00:00:00,2014-10-28 00:00:00,300.97659569338884,10.626401394617593,56.65474831311113,8.401487787442568
sz002151,2014-11-03,42.58,42.75,41.96,42.31,-0.010986,4264192.0,179939469.9,5722438500.0,9926336240.0,0.03152816120610121,162.4,2014-09-30 00:00:00,2014-10-28 00:00:00,308.3369059759405,10.886267485770418,58.04022656135729,8.606944151277718
sz002151,2014-10-31,42.0,43.4,41.37,42.78,0.025899000000000002,7672804.0,325897031.82,5786006120.0,10036602790.0,0.05673041962147112,164.2,2014-09-30 00:00:00,2014-10-28 00:00:00,311.76192245604256,11.007192502604026,58.68493930455715,8.702550369638567
sz002151,2014-10-30,42.65,42.98,41.68,41.7,-0.026838,4625085.0,195356105.02,5639935840.0,9783224320.0,0.03419649619631134,160.06,2014-09-30 00:00:00,2014-10-28 00:00:00,303.89143810067327,10.729313999335243,57.2034277297835,8.482852960806639
sz002151,2014-10-29,42.56,43.55,42.45,42.85,0.010613,5715049.0,245525112.83,5795473640.0,10053025470.0,0.04225536424836538,164.47,2014-09-30 00:00:00,2014-10-28 00:00:00,312.2721993878443,11.025208546300869,58.78099199288865,8.71679428585029
sz002151,2014-10-28,41.5,42.49,41.0,42.4,0.030126,4250188.0,179307206.11,5734611020.0,9947451110.0,0.031424619834110386,162.75,2014-09-30 00:00:00,2014-10-28 00:00:00,308.99285818393815,10.909426799675908,58.163700638017374,8.625254460263513
sz002151,2014-10-27,41.0,41.48,40.4,41.16,0.00024300000000000002,2719794.0,111570396.64,5566900700.0,9656535090.0,0.02010934397302973,157.99,2014-06-30 00:00:00,2014-08-26 00:00:00,269.31047448231936,11.698341960942859,50.272880618596396,8.496502602308848
sz002151,2014-10-24,41.5,42.1,41.0,41.15,-0.010817,2533858.0,105449051.59,5565548200.0,9654188990.0,0.018734588750843984,157.95,2014-06-30 00:00:00,2014-08-26 00:00:00,269.24504793567104,11.695499954453927,50.260667276448224,8.494438453764586
sz002151,2014-10-23,41.2,41.9,40.9,41.6,0.004831,2857990.0,118413642.72,5626410820.0,9759763350.0,0.021131123873389678,159.68,2014-06-30 00:00:00,2014-08-26 00:00:00,272.18931980803455,11.823393603058207,50.810282097901215,8.587327576155863
sz002151,2014-10-22,41.65,42.39,41.28,41.4,-0.004089,3660431.0,153334673.79,5599360760.0,9712841410.0,0.027064132835048833,158.91,2014-06-30 00:00:00,2014-08-26 00:00:00,270.8806951696698,11.766549402892831,50.565997762709564,8.546041648949785
sz002151,2014-10-21,42.18,42.46,41.5,41.57,-0.014462000000000001,3351811.0,140222874.98,5622353310.0,9752725060.0,0.02478228876548493,159.56,2014-06-30 00:00:00,2014-08-26 00:00:00,271.992874031585,11.814860366933221,50.77361105832706,8.581129889066176
sz002151,2014-10-20,41.58,42.51,41.5,42.18,0.007404000000000001,3500046.0,147394339.82,5704855970.0,9895836980.0,0.025878294045695253,161.9,2014-06-30 00:00:00,2014-08-26 00:00:00,275.98415690880006,11.988234210079389,51.518674123501135,8.70705126445269
sz002151,2014-10-17,42.5,43.0,41.08,41.87,-0.016674,5030134.0,210461479.07,5662928390.0,9823107970.0,0.03719130740765027,160.71,2014-06-30 00:00:00,2014-08-26 00:00:00,273.955788252578,11.900125679548015,51.14003331682338,8.643058062557516
sz002151,2014-10-16,43.5,44.0,42.57,42.58,-0.021374,5389705.0,233424474.26,5758956070.0,9989680860.0,0.03984986794663985,163.44,2014-06-30 00:00:00,2014-08-26 00:00:00,278.601184401285,12.101912976518486,52.00720139284772,8.789616121771942
sz002151,2014-10-15,44.0,44.78,43.18,43.51,-0.008884,5506674.0,241007064.5,5884738810.0,10207867870.0,0.04071470178639925,167.01,2014-06-30 00:00:00,2014-08-26 00:00:00,284.6860643404988,12.366228749817074,53.14308161938035,8.98158859643208
sz002151,2014-10-14,44.7,45.49,43.5,43.9,-0.022706999999999998,8114145.0,360839121.71,5937486410.0,10299365650.0,0.05999356308421428,168.5,2014-06-30 00:00:00,2014-08-26 00:00:00,287.2378857172105,12.477075084871068,53.61943669497854,9.062096259602386
sz002151,2014-10-13,44.41,46.5,43.43,44.92,-0.005535,14908283.0,674905362.19,6075441680.0,10538667540.0,0.11022738882747371,172.42,2014-06-30 00:00:00,2014-08-26 00:00:00,293.9117395880361,12.766974781228424,54.86526220384116,9.272650330660701
sz002151,2014-10-10,42.2,45.78,41.82,45.17,0.068354,19310826.0,854763384.28,6109254240.0,10597319970.0,0.1427784760877786,173.38,2014-06-30 00:00:00,2014-08-26 00:00:00,295.5475955292907,12.838033295519121,55.17063165002405,9.324260110371608
sz002151,2014-10-09,43.15,43.19,41.95,42.28,-0.020162,6362967.0,270193745.23,5718380990.0,9919297950.0,0.04704587631192444,162.29,2014-06-30 00:00:00,2014-08-26 00:00:00,276.6382636553901,12.016647380474188,51.640777916331146,8.727687742425832
sz002151,2014-10-08,42.6,43.5,42.37,43.15,0.018409000000000002,6467810.0,278891412.04,5836048720.0,10123408380.0,0.047821054088115975,165.62,2014-06-30 00:00:00,2014-08-26 00:00:00,282.33061348446387,12.263912381918427,52.703383535167184,8.907276246099693
sz002151,2014-09-30,42.21,42.66,41.81,42.37,0.010735,4836850.0,204575807.66,5730553520.0,9940412820.0,0.03576222327995988,162.63,2014-06-30 00:00:00,2014-08-26 00:00:00,277.22713908111956,12.042227024622157,51.75070481031411,8.746266231052251
sz002151,2014-09-29,42.3,42.46,41.8,41.92,-0.00828,5433060.0,228226443.42,5669690900.0,9834838460.0,0.040170421847864755,160.9,2014-06-30 00:00:00,2014-08-26 00:00:00,274.2827141447754,11.914326727205607,51.20106141601321,8.65337227963042
sz002151,2014-09-26,43.1,43.13,41.83,42.27,-0.019258,5360541.0,226554026.56,5717028490.0,9916951850.0,0.03963423804277737,162.25,2014-06-30 00:00:00,2014-08-26 00:00:00,276.5727364021855,12.013800999481312,51.62854577503046,8.725620416680535
sz002151,2014-09-25,43.4,43.89,43.0,43.1,-0.005767,8156297.0,354029042.75,5829286210.0,10111677900.0,0.06030522229238767,165.43,2014-06-30 00:00:00,2014-08-26 00:00:00,282.0035609795292,12.249705834440974,52.642331800851245,8.89695803450911
sz002151,2014-09-24,42.23,43.7,42.23,43.35,0.028225999999999998,8615075.0,372644341.39,5863098770.0,10170330320.0,0.06369728976099101,166.39,2014-06-30 00:00:00,2014-08-26 00:00:00,283.63930887380445,12.320759655373513,52.947681077625916,8.948564405435254
sz002151,2014-09-23,41.45,42.42,41.1,42.16,0.025791,6223019.0,261264404.76,5702150960.0,9891144780.0,0.04601114261625932,161.82,2014-06-30 00:00:00,2014-08-26 00:00:00,275.85307984217906,11.982540468120344,51.49420562952688,8.702915901207762
sz002151,2014-09-22,42.0,42.0,40.87,41.1,-0.019561000000000002,4956193.0,203855845.07,5558785690.0,9642458510.0,0.03664460975109116,157.76,2014-06-30 00:00:00,2014-08-26 00:00:00,268.9174303948651,11.681268862877863,50.19951006542939,8.484102415801818
sz002151,2014-09-19,41.37,42.26,41.3,41.92,0.016982,5243588.0,219128580.01,5669690900.0,9834838460.0,0.03876952250783195,160.9,2014-06-30 00:00:00,2014-08-26 00:00:00,274.2826737766094,11.914324973688178,51.201053880383576,8.653371006051186
sz002151,2014-09-18,41.9,41.9,41.0,41.22,-0.018104,6745921.0,278960902.34,5575015720.0,9670611670.0,0.04987732368582451,158.22,2014-06-30 00:00:00,2014-08-26 00:00:00,269.7025844868536,11.715374484197534,50.34607680409641,8.508873319342118
sz002151,2014-09-17,43.99,44.0,41.33,41.98,-0.059165999999999996,13671520.0,577869761.41,5677805910.0,9848915040.0,0.1010831329385826,161.13,2014-06-30 00:00:00,2014-08-26 00:00:00,274.675306230857,11.931380191178631,51.2743475929186,8.665758205901762
sz002151,2014-09-16,44.6,46.2,44.2,44.62,-0.000672,17441831.0,789719302.31,6034866600.0,10468284640.0,0.1289596855744914,171.27,2014-06-30 00:00:00,2014-08-26 00:00:00,291.9487457201345,12.681706008901287,54.49882507745108,9.210719644381223
sz002151,2014-09-15,45.07,45.16,44.22,44.65,-0.008219,8431443.0,376949537.39,6038924110.0,10475322930.0,0.06233956961416427,171.38,2014-06-30 00:00:00,2014-08-26 00:00:00,292.1450672052965,12.69023384604583,54.53547291525013,9.216913410192873
sz002151,2014-09-12,44.8,45.5,44.5,45.02,0.015565,10481418.0,472220152.6,6088966710.0,10562128510.0,0.07749647203441519,172.8,2014-06-30 00:00:00,2014-08-26 00:00:00,294.56610603076336,12.795399232336402,54.987414474818664,9.293295001812773
sz002151,2014-09-11,45.0,45.75,43.85,44.33,-0.026142000000000002,15393198.0,686568868.51,5995644030.0,10400247820.0,0.11381270534501696,170.15,2014-06-30 00:00:00,2014-08-26 00:00:00,290.05145513163933,12.599291263815118,54.14465295162659,9.150861837314963
sz002151,2014-09-10,45.13,46.59,44.9,45.52,0.008642,12138562.0,554610851.9,6156591840.0,10679433360.0,0.0897488994885196,174.72,2014-06-30 00:00:00,2014-08-26 00:00:00,297.837523675566,12.937503479783622,55.59809844107313,9.39650527830029
sz002151,2014-09-09,45.91,46.39,44.51,45.13,-0.016776,12673174.0,574240014.31,6103844230.0,10587935580.0,0.09370166096456889,173.22,2014-06-30 00:00:00,2014-08-26 00:00:00,295.2856649589904,12.826655522755967,55.12173639514628,9.315996437090952
sz002151,2014-09-05,47.0,47.0,45.4,45.9,-0.018392,13947831.0,641721993.21,6207986930.0,10768585050.0,0.10312609387210805,176.18,2014-06-30 00:00:00,2014-08-26 00:00:00,300.3238986833015,13.045506947303936,56.06223647423809,9.474948167549766
sz002151,2014-09-04,45.0,48.68,44.5,46.76,0.03888,26161826.0,1224028159.75,6324302160.0,10970349380.0,0.1934327223479784,179.48,2014-06-30 00:00:00,2014-08-26 00:00:00,305.9509485286402,13.289935439914851,57.1126523767513,9.652476515625143
sz002151,2014-09-03,45.48,46.0,44.43,45.01,-0.010334000000000001,15534738.0,699156192.11,6087614200.0,10559782420.0,0.11485920993153607,172.76,2014-06-30 00:00:00,2014-08-26 00:00:00,294.50075901801966,12.792560680651137,54.97521597946954,9.291233362491477
sz002151,2014-09-02,44.01,46.58,44.0,45.48,0.026637,21401083.0,980139343.09,6151181820.0,10670048970.0,0.15823321165297632,174.57,2014-06-30 00:00:00,2014-08-26 00:00:00,297.575908456004,12.926139405265147,55.54926205353072,9.388251554051038
sz002151,2014-09-01,44.43,46.3,44.2,44.3,0.027127,19589770.0,883332816.28,5991586520.0,10393209530.0,0.14484090450887788,170.04,2014-06-30 00:00:00,2014-08-26 00:00:00,289.8550397618671,12.590759348499171,54.10798758814528,9.144665109528525
sz002151,2014-08-29,42.0,43.35,40.51,43.13,0.011966,17539246.0,734326202.84,5833343710.0,10118716190.0,0.1296799430287642,165.55,2014-06-30 00:00:00,2014-08-26 00:00:00,282.1998056344221,12.258230334222711,52.67896529654588,8.903149376395056
sz002151,2014-08-28,46.7,47.29,42.62,42.62,-0.100084,32155855.0,1445700117.0,5764366080.0,9999065240.0,0.23775078145279763,163.59,2014-06-30 00:00:00,2014-08-26 00:00:00,278.862931792592,12.113282792329697,52.05606245323054,8.797874015920554
sz002151,2014-08-27,43.68,47.36,43.1,47.36,0.100116,30677601.0,1415042711.25,6405452310.0,11111115200.0,0.226821013262684,181.78,2014-06-30 00:00:00,2014-08-26 00:00:00,309.8766238099912,13.460459412133686,57.84546830285331,9.776328030527909
sz002151,2014-08-26,41.8,43.39,40.89,43.05,0.025733,23944467.0,1014598311.99,5822523690.0,10099947410.0,0.17703823277187902,165.24,2014-06-30 00:00:00,2014-08-26 00:00:00,281.67631759740897,12.235490995616539,52.58124443499895,8.886633800915456
sz002151,2014-08-25,41.8,44.9,40.7,41.97,-0.008973,26829414.0,1150649897.21,5676453410.0,9846568940.0,0.19836866864727776,161.1,2014-03-31 00:00:00,2014-04-28 00:00:00,240.52626738298355,12.44834205892686,72.76963719754454,8.520266219750187
sz002151,2014-08-22,40.89,43.44,39.15,42.35,0.060341,39286729.0,1633216547.38,5727848510.0,9935720630.0,0.29047433259543387,162.55,2014-03-31 00:00:00,2014-04-28 00:00:00,242.7040508310909,12.561052381950097,73.42851122880056,8.597410786739601
sz002151,2014-08-21,39.94,39.94,39.7,39.94,0.099972,17642307.0,704480142.45,5401895380.0,9370311260.0,0.13044194528254635,153.3,2014-03-31 00:00:00,2014-04-28 00:00:00,228.89245141995917,11.846238504358595,69.24990284144494,8.108156514498262
sz002151,2014-08-20,36.31,36.31,36.31,36.31,0.09997,2843699.0,103254710.69,4910936940.0,8518678060.000001,0.021025460508153054,139.37,2014-03-31 00:00:00,2014-04-28 00:00:00,208.08934356507183,10.769581866046224,62.95605964646822,7.371239008354998
sz002151,2014-08-19,33.01,33.01,33.01,33.01,0.099967,871318.0,28762207.18,4464611080.0,7744466060.0,0.006442264883686127,126.7,2014-03-31 00:00:00,2014-04-28 00:00:00,189.17728989433516,9.790795990841774,57.23434243340112,6.701309134208205
sz002151,2014-08-18,30.01,30.01,30.01,30.01,0.100073,245986.0,7382039.86,4058860300.0,7040636980.0,0.0018187469669749413,115.19,2014-03-31 00:00:00,2014-04-28 00:00:00,171.98451398481515,8.900990657757708,52.03278137744234,6.092281981375991
sz002151,2014-08-15,27.28,27.28,27.28,27.28,0.099759,130404.0,3557421.12,3689627090.0,6400152510.0,0.0009641682027003981,104.71,2014-03-31 00:00:00,2014-04-28 00:00:00,156.33918293132828,8.091272722589961,47.29938956545823,5.538070638381261
sz002151,2014-05-16,25.06,25.09,24.68,24.91,-0.009543000000000001,1038597.0,25813901.42,3369034160.0,5844127530.0,0.007679189358531171,95.21,2014-03-31 00:00:00,2014-04-28 00:00:00,142.15767539190702,7.357314395781222,43.008867911477175,5.035712950183869
sz002151,2014-05-15,25.43,25.8,25.15,25.15,-0.007498,1557229.0,39761959.64,3401493740.0,5900433850.0,0.01151385607136234,96.13,2014-03-31 00:00:00,2014-04-28 00:00:00,143.5273569593703,7.428201724841383,43.42325604390415,5.084231774003181
sz002151,2014-05-14,25.49,25.5,25.23,25.34,-0.0058850000000000005,900316.0,22797777.85,3427190910.0,5945009700.0,0.006656765858427186,96.86,2014-03-31 00:00:00,2014-04-28 00:00:00,144.61165514968263,7.484319149826784,43.75130331616879,5.122641338761213
sz002151,2014-05-13,25.4,25.6,25.36,25.49,0.003939,1341281.0,34150115.26,3447478150.0,5980201150.0,0.00991717748522931,97.43,2014-03-31 00:00:00,2014-04-28 00:00:00,145.4677327569573,7.528625108590841,44.01030395494363,5.152966546889658
sz002151,2014-05-12,24.86,25.49,24.86,25.39,0.025444,1236111.0,31294875.63,3433953320.0,5956740180.0,0.009139570449955912,97.05,2014-03-31 00:00:00,2014-04-28 00:00:00,144.896983538798,7.499086208017462,43.83762754006332,5.132748649957477
sz002151,2014-05-09,25.48,25.55,24.66,24.76,-0.026347000000000002,1527345.0,38104668.9,3348746920.0,5808936070.0,0.011292899434753343,94.64,2014-03-31 00:00:00,2014-04-28 00:00:00,141.30170300747582,7.313013882783909,42.749899107180234,5.005391469409814
sz002151,2014-05-08,25.58,25.83,25.24,25.43,-0.004307,1091111.0,27945340.4,3439363250.0,5966124570.0,0.008067467933199554,97.2,2014-03-31 00:00:00,2014-04-28 00:00:00,145.12531980846956,7.510903661554895,43.90670917378186,5.140837104604837
sz002151,2014-05-07,25.58,25.89,25.4,25.54,0.0015689999999999999,1703384.0,43700753.99,3454240560.0,5991931640.0,0.01259449844454377,97.62,2014-03-31 00:00:00,2014-04-28 00:00:00,145.75307831677992,7.543393055444695,44.09663337372248,5.1630744663313255
sz002151,2014-05-06,24.9,25.93,24.88,25.5,0.024096,2214976.0,56736742.38,3448830630.0,5982547250.0,0.016377112725886454,97.47,2014-03-31 00:00:00,2014-04-28 00:00:00,145.52474998405492,7.531576012680799,44.02755414127483,5.1549862928378625
sz002151,2014-05-05,24.82,24.92,24.7,24.9,0.007281999999999999,884915.0,21965955.48,3367681670.0,5841781430.0,0.006542893794353194,95.17,2014-03-31 00:00:00,2014-04-28 00:00:00,142.10069171645526,7.354365228143456,42.99162787597533,5.0336943927501565
sz002151,2014-04-30,24.55,24.84,24.54,24.72,0.006515000000000001,946332.0,23414791.08,3343336990.0,5799551690.0,0.006996999437977683,94.49,2014-03-31 00:00:00,2014-04-28 00:00:00,141.07339525222852,7.301197904999251,42.680826100312856,4.997304024841262
sz002151,2014-04-29,24.5,24.84,24.36,24.56,0.002449,1177333.0,28932091.32,3321697270.0,5762014130.0,0.008704977043257164,93.87,2014-03-31 00:00:00,2014-04-28 00:00:00,140.16025121555913,7.253938495699766,42.404560389376066,4.964957327850317
sz002151,2014-04-28,26.08,26.08,24.43,24.5,-0.060943,2547831.0,63403092.49,3313582370.0,5747937550.0,0.018838179507817698,93.64,2014-03-31 00:00:00,2014-04-28 00:00:00,139.81783733193325,7.236217000266115,42.30096532529442,4.952827852439692
sz002151,2014-04-25,26.65,26.65,26.01,26.09,-0.021013,1314929.0,34514998.81,3528627100.0,6120966970.0,0.009722335808734224,99.72,2013-12-31 00:00:00,2014-04-09 00:00:00,109.71721946422291,6.0838354271677675,43.46259411023404,6.68940229635989
sz002151,2014-04-24,27.02,27.16,26.64,26.65,-0.018778,1215777.0,32662707.66,3604366130.0,6252348400.0,0.00898922470176469,101.86,2013-12-31 00:00:00,2014-04-09 00:00:00,112.07219244404973,6.214419013906995,44.39547625273272,6.832983784626242
sz002151,2014-04-23,26.72,27.18,26.62,27.16,0.016467,1357690.0,36494943.12,3673342740.0,6371999340.0,0.010038502532981717,103.81,2013-12-31 00:00:00,2014-04-09 00:00:00,114.21695849058595,6.33334659629217,45.245088525056225,6.9637490645605595
sz002151,2014-04-22,26.5,26.99,26.5,26.72,-0.001121,1194156.0,31925025.19,3613833510.0,6268771080.0,0.008829363121379656,102.13,2013-12-31 00:00:00,2014-04-09 00:00:00,112.36661740183001,6.230744919699479,44.51210764840986,6.850934722485393
sz002151,2014-04-21,27.0,27.28,26.74,26.75,-0.018349,1317387.0,35593758.89,3617890960.0,6275809370.0,0.00974050977202475,102.24,2013-12-31 00:00:00,2014-04-09 00:00:00,112.49272174290381,6.237737423351055,44.56206171959753,6.858623239136465
sz002151,2014-04-18,27.18,27.3,27.02,27.25,0.002575,939549.0,25538372.53,3685515090.0,6393114220.0,0.006946847218037031,104.16,2013-12-31 00:00:00,2014-04-09 00:00:00,114.59543334943254,6.354333081055339,45.3950148470256,6.986824481548396
sz002151,2014-04-17,27.54,27.75,27.17,27.18,-0.012355,1194267.0,32668297.75,3676047710.0,6376691540.0,0.008830183833495459,103.89,2013-12-31 00:00:00,2014-04-09 00:00:00,114.30110799634194,6.338012698357069,45.2784229080374,6.968879616535815
sz002151,2014-04-16,27.79,27.79,27.28,27.52,-0.000726,1323888.0,36373405.34,3722032120.0,6456458830.0,0.009788576934688034,105.19,2013-12-31 00:00:00,2014-04-09 00:00:00,115.73096405726952,6.417298420340375,45.84483585502625,7.056057203282369
sz002151,2014-04-15,27.54,28.11,27.46,27.54,0.009901,2878877.0,79957007.17,3724737080.0,6461151030.0,0.021285870888905798,105.26,2013-12-31 00:00:00,2014-04-09 00:00:00,115.81504578050615,6.4219607638549325,45.8781433871253,7.061183622592371
sz002151,2014-04-14,27.14,27.42,27.1,27.27,0.00479,1092778.0,29785606.4,3688220050.0,6397806410.0,0.008079793411458732,104.23,2013-12-31 00:00:00,2014-04-09 00:00:00,114.67960303089727,6.359000301866157,45.428357222267636,6.991956263626209
sz002151,2014-04-11,27.35,27.45,26.9,27.14,-0.007678,1600120.0,43283271.88,3670637780.0,6367307150.0,0.011830983987747219,103.74,2013-12-31 00:00:00,2014-04-09 00:00:00,114.1329064091972,6.328685896422294,45.21179273506666,6.958624452498739
sz002151,2014-04-10,27.42,27.64,27.15,27.35,-0.002189,1600568.0,43833105.74,3699039910.0,6416575190.0,0.011834296429637603,104.54,2013-12-31 00:00:00,2014-04-09 00:00:00,115.01599925144983,6.377653520150005,45.56161481360552,7.012466167734605
sz002151,2014-04-09,27.18,27.54,27.18,27.41,0.008462,1703538.0,46593472.14,3707154810.0,6430651770.0,0.012595637078344726,104.77,2013-12-31 00:00:00,2014-04-09 00:00:00,115.26832160744851,6.391644830684372,45.66156798592671,7.027850131672836
sz002151,2014-04-08,26.63,27.28,26.52,27.18,0.020653,2306282.0,62445052.25,3676047710.0,6376691540.0,0.017052211969251073,103.89,2013-09-30 00:00:00,2013-10-25 00:00:00,164.8869241443665,8.908497496868105,191.843228751777,8.71327050150363
sz002151,2014-04-04,26.4,26.66,26.3,26.63,0.008329999999999999,1229876.0,32632136.79,3601661160.0,6247656200.0,0.009093470047582155,101.79,2013-09-30 00:00:00,2013-10-25 00:00:00,161.55042325292385,8.728233294634029,187.96126475087712,8.536956734074783
sz002151,2014-04-03,26.61,26.7,26.36,26.41,0.000379,1402284.0,37139431.52,3571906550.0,6196042070.0,0.010368222102563125,100.95,2013-09-30 00:00:00,2013-10-25 00:00:00,160.215825427116,8.656127750472592,186.40848209502556,8.466431360838994
sz002151,2014-04-02,26.75,26.92,26.3,26.4,-0.013084,1167420.0,30957922.67,3570554060.0,6193695970.0,0.008631682221330098,100.91,2013-09-30 00:00:00,2013-10-25 00:00:00,160.15512663412167,8.652848320958949,186.33786004606813,8.463223799019167
sz002151,2014-04-01,26.4,26.95,26.4,26.75,0.012491,1586750.0,42454545.49,3617890960.0,6275809370.0,0.011732128737235354,102.24,2013-09-30 00:00:00,2013-10-25 00:00:00,162.27837691771302,8.767563116778884,188.8082268866531,8.575424655207907
sz002151,2014-03-31,26.41,26.65,26.0,26.42,0.001137,1712814.0,45104153.23,3573259030.0,6198388170.0,0.01266422207292372,100.98,2013-09-30 00:00:00,2013-10-25 00:00:00,160.2763648444411,8.659398569250378,186.47891871300888,8.469630500624605
sz002151,2014-03-28,27.7,27.7,26.0,26.39,-0.051061,4023199.0,106640058.07,3569201580.0,6191349880.0,0.0297467708758551,100.87,2013-09-30 00:00:00,2013-10-25 00:00:00,160.09433758260968,8.649564014965362,186.26713298280745,8.46001146758596
sz002151,2014-03-27,28.25,28.31,27.74,27.81,-0.015227000000000001,1676244.0,46755856.12,3761254110.0,6524495650.0,0.012393830429074626,106.3,2013-09-30 00:00:00,2013-10-25 00:00:00,168.70877641514335,9.114984224450005,196.2898911129245,8.91523213566516
sz002151,2014-03-26,28.19,28.36,28.06,28.24,0.0017739999999999998,1275665.0,36002804.5,3819410860.0,6625377820.0,0.009432025231242076,107.94,2013-09-30 00:00:00,2013-10-25 00:00:00,171.31742687415613,9.255924181968846,199.32501308720336,9.053083437162838
sz002151,2014-03-25,28.6,28.6,27.86,28.19,-0.012263,1876977.0,53068312.89,3812648450.0,6613647330.0,0.013878012180745383,107.75,2013-09-30 00:00:00,2013-10-25 00:00:00,171.01404795308736,9.239533249983376,198.97203669410806,9.037051707433852
sz002151,2014-03-24,28.56,28.8,28.5,28.54,0.00035099999999999997,1346781.0,38511827.43,3859985340.0,6695760720.0,0.00995784345129145,109.09,2013-09-30 00:00:00,2013-10-25 00:00:00,173.13722980215113,9.354244348428148,201.44232391224384,9.149248947274275
sz002151,2014-03-21,28.09,28.65,27.7,28.53,0.015663999999999997,2180631.0,61467847.24,3858632860.0,6693414630.0,0.016123172296314298,109.05,2013-09-30 00:00:00,2013-10-25 00:00:00,173.07647995768596,9.35096216070974,201.37164246573838,9.146038687694896
sz002151,2014-03-20,29.05,29.25,28.08,28.09,-0.031045,2037552.0,58582569.51,3799123620.0,6590186360.0,0.015065273311638119,107.37,2013-09-30 00:00:00,2013-10-25 00:00:00,170.40722124411815,9.206747665280783,198.2660037824895,9.004984608782921
sz002151,2014-03-19,29.23,29.23,28.71,28.99,-0.010242,1609037.0,46553361.34,3920847060.0,6801335090.0,0.01189691459936721,110.81,2013-09-30 00:00:00,2013-10-25 00:00:00,175.86701265189623,9.501728837026263,204.61838143411148,9.293501358456192
sz002151,2014-03-18,29.25,29.5,29.25,29.29,-0.0030629999999999998,1704875.0,50050152.33,3961421540.0,6871718000.0,0.012605522599849345,111.95,2013-09-30 00:00:00,2013-10-25 00:00:00,177.68688169420832,9.60005257550458,206.73576918207428,9.389670362306939
sz002151,2014-03-17,29.1,29.45,28.97,29.38,0.014853,1890899.0,55314149.91,3973593880.0,6892832870.0,0.013980948807984374,112.3,2013-09-30 00:00:00,2013-10-25 00:00:00,178.23280878752453,9.629547880663052,207.37094639086953,9.418519286882663
sz002151,2014-03-14,29.18,29.28,28.8,28.95,-0.012282,1817987.0,52678705.75,3915437130.0,6791950700.0,0.013441851293370149,110.65,2013-09-30 00:00:00,2013-10-25 00:00:00,175.62426162954094,9.488613504283924,204.33594460564194,9.280673444215726
sz002151,2014-03-13,29.3,29.49,28.9,29.31,0.0030800000000000003,2342019.0,68409725.07,3964126500.0,6876410190.0,0.01731644459126115,112.03,2013-09-30 00:00:00,2013-10-25 00:00:00,177.80810072261613,9.606601787437228,206.87680553117582,9.396076050265082
sz002151,2014-03-12,29.45,29.62,28.92,29.22,0.007586,2758716.0,80846297.36,3951954160.0,6855295320.0,0.020397423213026337,111.69,2013-09-30 00:00:00,2013-10-25 00:00:00,177.2621333518923,9.57710430617421,206.24158146027816,9.367224997273478
sz002151,2014-03-11,28.32,29.0,28.3,29.0,0.013277,2193375.0,62938979.56,3922199540.0,6803681180.0,0.016217399026057712,110.84,2013-09-30 00:00:00,2013-10-25 00:00:00,175.9275469804982,9.504999380870922,204.68881213144894,9.296700229333752
sz002151,2014-03-10,30.0,30.0,28.6,28.62,-0.045364,3460821.0,100359087.67,3870805200.0,6714529500.0,0.025588654531103764,109.39,2013-09-30 00:00:00,2013-10-25 00:00:00,173.6223628686906,9.38045507878983,202.0067682691396,9.174885277504327
sz002151,2014-03-07,29.81,30.27,29.55,29.98,0.007054,1990755.0,59570397.07,4054742830.0,7033598690.0,0.014719265167305321,114.59,2013-09-30 00:00:00,2013-10-25 00:00:00,181.8728424956639,9.826211329543229,211.60606583990088,9.610872916487883
sz002151,2014-03-06,30.14,30.43,29.42,29.77,-0.012276,2155211.0,64229126.18,4026340700.0,6984330650.0,0.01593522164430844,113.79,2013-09-30 00:00:00,2013-10-25 00:00:00,180.5988978700883,9.75738275161335,210.12385218657678,9.54355269577191
sz002151,2014-03-05,30.68,30.85,30.06,30.14,-0.014066,2136190.0,64934489.51,4076382560.0,7071136240.0,0.01579458396073601,115.2,2013-09-30 00:00:00,2013-10-25 00:00:00,182.84348448563398,9.87865309703252,212.7353918570135,9.66216543869736
sz002151,2014-03-04,30.86,31.09,30.2,30.57,-0.009396999999999999,3152911.0,96510485.33,4134539310.0,7172018410.0,0.023312026333110376,116.85,2013-09-30 00:00:00,2013-10-25 00:00:00,185.4520530640326,10.019588630712116,215.7704185645423,9.800012413302875
sz002151,2014-03-03,29.98,30.97,29.98,30.86,0.029352999999999997,4252991.0,130215290.27,4173761300.0,7240055220.0,0.03144580938540975,117.95,2013-09-30 00:00:00,2013-10-25 00:00:00,187.21127743811863,10.114635863925425,217.8172472368268,9.892976715498415
sz002151,2014-02-28,29.4,30.12,28.75,29.98,0.015583000000000001,2549875.0,75669515.99,4054742830.0,7033598690.0,0.01885329247872423,114.59,2013-09-30 00:00:00,2013-10-25 00:00:00,181.87276613379342,9.826207203870224,211.60597699411846,9.610868881227738
sz002151,2014-02-27,29.35,30.71,29.35,29.52,0.006135,3838459.0,114995008.22,3992528640.0,6925678230.0,0.028380838284982224,112.83,2013-09-30 00:00:00,2013-10-25 00:00:00,179.08212931271342,9.675434901795542,208.3591168758422,9.463400707995051
sz002151,2014-02-26,29.26,29.54,28.86,29.34,0.000682,3475044.0,101284038.24,3968183950.0,6883448480.0,0.025693816679037775,112.14,2013-09-30 00:00:00,2013-10-25 00:00:00,177.99015968305787,9.616438054332216,207.0886281421899,9.405696758382376
sz002151,2014-02-25,30.92,31.2,29.2,29.32,-0.051746,4858932.0,146814073.28,3965478980.0,6878756290.0,0.035926022293528835,112.07,2013-09-30 00:00:00,2013-10-25 00:00:00,177.86885312522642,9.609884113366897,206.9474899540412,9.399286445026867
sz002151,2014-02-24,31.14,31.14,30.2,30.92,-0.013401,2392035.0,73527529.67,4181876200.0,7254131800.0,0.017686253409414654,118.18,2013-09-30 00:00:00,2013-10-25 00:00:00,187.57511502743614,10.134293251984065,218.240566297681,9.912203317915735
sz002151,2014-02-21,31.25,31.63,30.98,31.34,0.007717,2951209.0,92415491.75,4238680469.9999995,7352667870.0,0.021820679976851384,119.79,2013-09-30 00:00:00,2013-10-25 00:00:00,190.1229527167939,10.27194762206739,221.2049336130292,10.046841034620686
sz002151,2014-02-20,31.7,31.7,30.92,31.1,-0.013637999999999999,3715525.0,115856711.85,4206220889.9999995,7296361550.0,0.027471887597420024,118.87,2013-09-30 00:00:00,2013-10-25 00:00:00,188.6670094052139,10.193286033744982,219.51096747700916,9.969903290924622
sz002151,2014-02-19,32.01,32.08,31.15,31.53,-0.014995,4492251.0,141879027.85,4264377639.9999995,7397243710.0,0.03321485243272217,120.51,2013-09-30 00:00:00,2013-10-25 00:00:00,191.27562639803025,10.33422418315485,222.546050513918,10.107752823937483
sz002151,2014-02-18,32.8,32.85,31.83,32.01,-0.012037,6234881.0,200195739.26,4329296800.0,7509856370.0,0.046099528406091266,122.35,2013-09-30 00:00:00,2013-10-25 00:00:00,194.18746747278468,10.491544898914066,225.9339297911361,10.261625904373565
sz002151,2014-02-17,31.49,32.5,31.41,32.4,0.032175999999999996,7672058.0,246768656.21,4382043620.0,7601354150.0,0.05672574277113197,123.84,2013-09-30 00:00:00,2013-10-25 00:00:00,196.55338051403203,10.619370258718256,228.68663076566233,10.38665001055056
sz002151,2014-02-14,30.95,31.47,30.95,31.39,0.015529,3220082.0,100573409.25,4245442880.0,7364398360.0,0.023808675993775237,119.98,2013-09-30 00:00:00,2013-10-25 00:00:00,190.42622625795605,10.288332860595728,221.55778739833355,10.06286719566291
sz002151,2014-02-13,31.68,31.87,30.9,30.91,-0.023072,5112634.0,160283899.84,4180523720.0,7251785700.0,0.037801846736083104,118.14,2013-09-30 00:00:00,2013-10-25 00:00:00,187.51431643799052,10.131008430675767,218.16982813719116,9.90899048246078
sz002151,2014-02-12,31.7,31.98,31.23,31.64,-0.009393,5298663.0,167202460.4,4279254950.0,7423050780.0,0.039177309900640535,120.94,2013-09-30 00:00:00,2013-10-25 00:00:00,191.94282120892277,10.370271330820454,223.32232072086288,10.1430100093976
sz002151,2014-02-11,32.29,33.34,31.64,31.94,-0.00869,9071706.0,294098540.18,4319829420.0,7493433690.0,0.06707447481572086,122.08,2013-09-30 00:00:00,2013-10-25 00:00:00,193.76283552299023,10.468602918029505,225.43987749012766,10.239186689976549
sz002151,2014-02-10,32.11,32.68,31.58,32.22,0.003426,8838928.0,284282303.69,4357698940.0,7559124410.0,0.06535335829326475,123.15,2013-09-30 00:00:00,2013-10-25 00:00:00,195.46139504593944,10.560372555537123,227.41612360424855,10.328945223972873
sz002151,2014-02-07,31.0,32.3,30.81,32.11,0.029167000000000002,9951682.0,317270479.12,4342821630.0,7533317340.0,0.07358085048038228,122.73,2013-09-30 00:00:00,2013-10-25 00:00:00,194.7940306967723,10.524316248071232,226.63965614230506,10.29367907944669
sz002151,2014-01-30,29.86,31.2,29.5,31.2,0.052277,7186340.0,218675191.98,4219745710.0,7319822520.0,0.053134435913675,119.25,2013-09-30 00:00:00,2013-10-25 00:00:00,189.27349079087483,10.226052961347605,220.2165986106288,10.001952141340219
sz002151,2014-01-29,29.5,29.73,29.12,29.65,0.013328999999999999,2254899.0,66631908.51,4010110910.0,6956177490.0,0.01667229581687555,113.33,2013-09-30 00:00:00,2013-10-25 00:00:00,179.87040559745662,9.71802382960723,209.27626338942014,9.505056312492073
sz002151,2014-01-28,29.75,29.93,29.03,29.26,-0.013819,2559397.0,75180658.7,3957364090.0,6864679700.0,0.01892369630816557,111.84,2013-09-30 00:00:00,2013-10-25 00:00:00,177.50444879940932,9.590196105714167,206.52351150457565,9.380029894034488
sz002151,2014-01-27,30.28,30.28,29.65,29.67,-0.017875,4198285.0,125628048.46,4012815870.0,6960869680.0,0.0310413235955429,113.41,2013-09-30 00:00:00,2013-10-25 00:00:00,179.99175485981715,9.724580077809415,209.4174512635872,9.51146888252206
sz002151,2014-01-24,29.87,30.45,29.68,30.21,0.010368,3913653.0,118097352.16,4085849930.0,7087558920.0,0.028936808535696756,115.47,2013-09-30 00:00:00,2013-10-25 00:00:00,183.26766436025673,9.901570653236009,213.2289181759829,9.68458076367271
sz002151,2014-01-23,30.0,30.25,29.62,29.9,-0.014177,5115074.0,153169455.54,4043922970.0,7014829910.0,0.03781988770176797,114.28,2013-09-30 00:00:00,2013-10-25 00:00:00,181.38704349331803,9.799964620055277,211.04084667762925,9.585201395603098
sz002151,2014-01-22,30.15,30.53,30.05,30.33,0.008311,2840872.0,86101464.05,4102079730.0,7115712080.0,0.021004869098436563,115.93,2013-09-30 00:00:00,2013-10-25 00:00:00,183.99554838274014,9.940896712751961,214.07579928407964,9.723045004633791
sz002151,2014-01-21,29.8,30.3,29.7,30.08,0.014503,1800894.0,54230010.08,4068267660.0,7057059660.0,0.01331546890402978,114.97,2013-09-30 00:00:00,2013-10-25 00:00:00,182.47896569881726,9.858958905290097,212.3112802340544,9.642902839137719
sz002151,2014-01-20,29.6,30.2,29.3,29.65,-0.001011,1525154.0,45300676.57,4010110910.0,6956177490.0,0.011276699601308534,113.33,2013-09-30 00:00:00,2013-10-25 00:00:00,179.87030664159423,9.718018483227842,209.27614825589913,9.505051083276953
sz002151,2014-01-17,29.96,30.3,29.63,29.68,-0.010337,1680254.0,50342357.7,4014168360.0,6963215780.0,0.012423479597153717,113.44,2013-09-30 00:00:00,2013-10-25 00:00:00,180.05233955688627,9.727853342957575,209.48794056380916,9.514670415066586
sz002151,2014-01-16,30.58,30.58,29.98,29.99,-0.013811000000000002,2443493.0,73683842.89,4056095320.0,7035944780.0,0.0180667241000638,114.63,2013-09-30 00:00:00,2013-10-25 00:00:00,181.93298077920085,9.82946047589692,211.67603574530838,9.614050858793938
sz002151,2014-01-15,29.21,30.56,29.01,30.41,0.039658,4335110.0,130571809.01,4112899590.0,7134480860.0,0.03205298165326716,116.23,2013-09-30 00:00:00,2013-10-25 00:00:00,184.480845739712,9.96711631938393,214.64043479019577,9.748690016613384
sz002151,2014-01-14,29.65,29.65,27.8,29.25,-0.012440999999999999,2848984.0,82410573.85,3956011610.0,6862333610.0,0.021064847683801416,111.8,2013-09-30 00:00:00,2013-10-25 00:00:00,177.4437803005527,9.586918312929763,206.45292470235,9.376823933075478
sz002151,2014-01-03,35.48,35.89,35.22,35.75,0.005626,5046634.0,179383774.53,3739683910.0,6488780160.0,0.04824396121221914,113.21,2013-09-30 00:00:00,2013-10-25 00:00:00,179.6791688400923,9.707691705437107,209.0537625623887,9.494950613660023
sz002151,2014-01-02,34.75,35.65,34.72,35.55,0.028348,3630481.0,128247838.06,3718762600.0,6452479290.0,0.0347060604379532,112.57,2013-09-30 00:00:00,2013-10-25 00:00:00,178.67394920188252,9.653381779545384,207.88420601932398,9.441830873167584
sz002151,2013-12-31,35.55,35.55,33.18,34.57,-0.028932999999999997,3448963.0,119874998.38,3616248190.0,6274605030.0,0.032970815233232094,109.47,2013-09-30 00:00:00,2013-10-25 00:00:00,173.74852598719744,9.387271409625326,202.15355698588803,9.181552230536338
sz002151,2013-12-30,36.4,36.43,35.5,35.6,-0.018202,4596954.0,164736732.13,3714469400.0,6461554500.0,0.044057857200277384,112.73,2013-09-30 00:00:00,2013-10-25 00:00:00,178.9253738281678,9.666965729064342,208.17673444354304,9.455117134591474
sz002151,2013-12-27,35.33,36.33,35.0,36.26,0.030699,5873576.0,209318628.03,3783333160.0,6581347370.0,0.05629318295616345,114.82,2013-09-30 00:00:00,2013-10-25 00:00:00,182.2425527737557,9.846186006759376,212.03621767771276,9.63040985476796
sz002151,2013-12-26,35.5,35.66,34.85,35.18,-0.007336,3387882.0,119191423.74,3670647010.0,6385322680.0,0.03246994015913287,111.4,2013-09-30 00:00:00,2013-10-25 00:00:00,176.81452371037102,9.552920888406195,205.7207949922458,9.343571551702253
sz002151,2013-12-25,34.5,35.5,34.35,35.44,0.039296,4416837.0,154891014.47,3697775150.0,6432513810.0,0.04233159046460681,112.23,2013-09-30 00:00:00,2013-10-25 00:00:00,178.1212209875356,9.623519023966011,207.24111581788583,9.41262255073444
sz002151,2013-12-24,34.0,34.74,34.0,34.1,0.002941,2052575.0,70658211.68,3557960850.0,6189297990.0,0.01967216910214175,107.98,2013-09-30 00:00:00,2013-10-25 00:00:00,171.38642021862452,9.259651748843458,199.405285710602,9.056729315550564
sz002151,2013-12-23,33.5,34.23,33.42,34.0,0.013715,1384426.0,46970850.91,3547526950.0,6171147560.0,0.01326853457730603,107.67,2013-09-30 00:00:00,2013-10-25 00:00:00,170.88385081338237,9.232498969374527,198.82055445993532,9.030171580931047
sz002151,2013-12-20,34.05,34.4,33.5,33.54,-0.013819,1504673.0,50896161.39,3499531000.0,6087655560.0,0.014420998819556106,106.21,2013-09-30 00:00:00,2013-10-25 00:00:00,168.5718873779932,9.107588394543365,196.13062296595723,8.907998383106738
sz002151,2013-12-19,34.75,34.87,34.0,34.01,-0.014774,1358086.0,46703302.35,3548570340.0,6172962600.0,0.013016088293180064,107.7,2013-09-30 00:00:00,2013-10-25 00:00:00,170.93402466483658,9.235209758191818,198.8789309122334,9.032822963641298
sz002151,2013-12-18,34.55,34.88,34.5,34.52,0.0,1446383.0,50138189.59,3601783250.0,6265529820.0,0.013862339206558308,109.31,2013-09-30 00:00:00,2013-10-25 00:00:00,173.49727338177897,9.373696754035945,201.86122870512287,9.168275059368407
sz002151,2013-12-17,34.16,34.88,33.96,34.52,0.010835,2171370.0,74671501.24,3601783250.0,6265529820.0,0.020810717135741025,109.31,2013-09-30 00:00:00,2013-10-25 00:00:00,173.49727338177897,9.373696754035945,201.86122870512287,9.168275059368407
sz002151,2013-12-16,35.07,35.29,34.0,34.15,-0.023169,2630855.0,90508575.52,3563177810.0,6198373210.0,0.02521448634919513,108.14,2013-09-30 00:00:00,2013-10-25 00:00:00,171.63758020030863,9.273221400165156,199.69750622517313,9.07000159211781
sz002151,2013-12-13,34.86,35.18,34.48,34.96,0.002006,1478244.0,51697779.38,3647692420.0,6345391730.0,0.014167699545237424,110.71,2013-09-30 00:00:00,2013-10-25 00:00:00,175.70857210746652,9.49316862401496,204.43403846230632,9.285128739892377
sz002151,2013-12-12,34.5,35.19,34.5,34.89,0.011304,2425397.0,84687402.85,3640388690.0,6332686420.0,0.023245347828503446,110.48,2013-09-30 00:00:00,2013-10-25 00:00:00,175.35680635392058,9.474163452129988,204.0247647841493,9.266540060530952
sz002151,2013-12-11,34.77,35.0,34.2,34.5,-0.008905,2462157.0,85114666.17,3599696470.0,6261899730.0,0.023597660860555834,109.25,2013-09-30 00:00:00,2013-10-25 00:00:00,173.39672972115264,9.368264589213517,201.74424780693965,9.162961938775037
sz002151,2013-12-10,35.85,35.85,34.5,34.81,-0.027654,4189593.0,146397316.89,3632041560.0,6318166080.0,0.0401536518568912,110.23,2013-09-30 00:00:00,2013-10-25 00:00:00,174.95470133655468,9.452438554541711,203.55692219912285,9.245291257422386
sz002151,2013-12-09,35.56,36.06,35.56,35.8,0.011299,2137402.0,76436040.28,3735337200.0,6497855370.0,0.020485163053017008,113.37,2013-09-30 00:00:00,2013-10-25 00:00:00,179.93049936602267,9.721270570909647,209.34618150238995,9.508231902452815
sz002151,2013-12-06,35.4,35.66,35.25,35.4,-0.002817,2291433.0,81079029.83,3693601590.0,6425253640.0,0.021961417934087468,112.1,2013-09-30 00:00:00,2013-10-25 00:00:00,177.92017926055763,9.612657157684964,207.00720706970932,9.401998718927652
sz002151,2013-12-05,35.95,36.3,35.3,35.5,-0.010867,3968761.0,141847415.87,3704035490.0,6443404070.0,0.038037166728119014,112.42,2013-09-30 00:00:00,2013-10-25 00:00:00,178.42279627767184,9.639812509524294,207.59199371600732,9.428558969544861
sz002151,2013-12-04,35.8,36.2,35.4,35.89,0.002794,4385993.0,157320830.22,3744727710.0,6514190760.0,0.04203597723531146,113.65,2013-09-30 00:00:00,2013-10-25 00:00:00,180.38301854014765,9.745719240510928,209.87268013099083,9.532144786944588
sz002151,2013-12-03,35.14,35.98,35.11,35.79,0.019077,4388704.0,156122769.56,3734293810.0,6496040330.0,0.04206195981135186,113.34,2013-09-30 00:00:00,2013-10-25 00:00:00,179.88043261143133,9.718565568313062,209.28792965553328,9.505586179160016
sz002151,2013-12-02,37.81,37.89,35.07,35.12,-0.09717200000000001,9976450.0,361897711.92,3664386660.0,6374432420.0,0.09561570775939895,111.21,2013-09-30 00:00:00,2013-10-25 00:00:00,176.51309234869527,9.536635179003218,205.37008455252476,9.327642738635076
sz002151,2013-11-29,38.4,40.12,38.38,38.9,0.011704,10003246.0,393327345.14,4058788190.0,7060518830.0,0.09587252430632504,123.18,2013-09-30 00:00:00,2013-10-25 00:00:00,195.51131815660932,10.563069797351453,227.4742083237613,10.331583356558586
sz002151,2013-11-28,39.02,39.32,38.3,38.45,-0.031242000000000002,10889632.0,422470578.58,4011835630.0,6978841870.0,0.10436777301367156,121.76,2013-09-30 00:00:00,2013-10-25 00:00:00,193.24952570772612,10.440869856550389,224.84264994876102,10.212061390049449
sz002151,2013-11-27,36.77,40.43,36.11,39.69,0.079706,19275803.0,747526588.18,4141216020.0,7203907250.0,0.1847420219991325,125.68,2013-09-30 00:00:00,2013-10-25 00:00:00,199.48173404268778,10.777583108010866,232.09372201185545,10.541395673686772
sz002151,2013-11-26,36.45,37.15,35.84,36.76,-0.004334,4952888.0,180386841.14,3835502670.0,6672099540.0,0.04746917902158571,116.41,2013-09-30 00:00:00,2013-10-25 00:00:00,184.75560387984115,9.98196093011511,214.96011137462924,9.763209312244973
sz002151,2013-11-25,37.45,38.36,36.56,36.92,0.010123,7212002.0,270508735.53,3852196910.0,6701140230.0,0.06912084715835567,116.91,2013-09-30 00:00:00,2013-10-25 00:00:00,185.55982014032932,10.025411061656326,215.89580378824746,9.805707247455445
sz002151,2013-11-22,36.4,37.41,36.16,36.55,0.0038450000000000003,4640256.0,170643359.68,3813591470.0,6633983630.0,0.04447286976966098,115.74,2013-09-30 00:00:00,2013-10-25 00:00:00,183.700222785076,9.924940885076696,213.7321928005277,9.707438844037254
sz002151,2013-11-21,37.0,37.45,36.06,36.41,-0.034218,6836808.0,250440678.87,3798984010.0,6608573020.0,0.0655249347259032,115.3,2013-09-30 00:00:00,2013-10-25 00:00:00,182.9966008547893,9.886925655929646,212.91354023831138,9.670256706998844
sz002151,2013-11-20,35.91,38.0,35.82,37.7,0.049847,11336761.0,422668283.43,3933581360.0,6842713620.0,0.10865312054966622,119.38,2013-09-30 00:00:00,2013-10-25 00:00:00,189.48023555501067,10.23722295086225,220.45714274889303,10.01287734395427
sz002151,2013-11-19,36.7,37.27,35.6,35.91,-0.029197000000000004,7511044.0,273749538.69,3746814500.0,6517820850.0,0.07198690782263173,113.72,2013-09-30 00:00:00,2013-10-25 00:00:00,180.48366624375805,9.751157026559346,209.98978208147759,9.5374634055765
sz002151,2013-11-18,36.2,38.18,35.7,36.99,0.014258000000000002,10486316.0,389334556.81,3859500650.0,6713845540.0,0.1005023354096339,117.14,2013-09-30 00:00:00,2013-10-25 00:00:00,185.91173105538206,10.044424076315531,216.305246359434,9.824303597719103
sz002151,2013-11-15,36.31,38.22,36.31,36.47,-0.011117,13134824.0,488833976.39,3805244350.0,6619463280.0,0.12588601078403808,115.49,2013-09-30 00:00:00,2013-10-25 00:00:00,183.2982644015448,9.903223909809466,213.26452082156015,9.686197789634493
sz002151,2013-11-14,34.9,37.5,33.88,36.88,0.06929500000000001,10924362.0,392584262.9,3848023350.0,6693880060.0,0.1047006304054782,116.79,2013-09-30 00:00:00,2013-10-25 00:00:00,185.358899284895,10.014555725813333,215.66203567212722,9.795089802974157
sz002151,2013-11-13,33.4,35.15,33.4,34.49,0.045785,5705065.0,196025279.06,3598653080.0,6260084690.0,0.05467814970650075,109.22,2013-09-30 00:00:00,2013-10-25 00:00:00,173.346830654679,9.365568646457088,201.6861910624544,9.160325076778772
sz002151,2013-11-12,32.75,33.13,32.74,32.98,0.007946,1199307.0,39521743.11,3441101140.0,5986013130.0,0.011494327905747052,104.44,2013-09-30 00:00:00,2013-10-25 00:00:00,165.75761810953398,8.955539280499423,192.85626688320679,8.759281378848208
sz002151,2013-11-11,33.0,33.0,32.33,32.72,0.013003,1055734.0,34558127.5,3413973000.0,5938822000.0,0.010118303946750604,103.61,2013-09-30 00:00:00,2013-10-25 00:00:00,164.45089132704925,8.88493955082854,191.33591172861125,8.690228820639406
sz002151,2013-11-08,32.28,32.94,32.08,32.3,-0.010112999999999999,1432427.0,46505496.15,3370150600.0,5862590180.0,0.01372858296006119,102.28,2013-09-30 00:00:00,2013-10-25 00:00:00,162.33998450848537,8.7708916467459,188.87990630690257,8.578680241459704
sz002151,2013-11-07,33.33,33.33,32.63,32.63,-0.023931,1824384.0,59940577.11,3404582480.0,5922486610.0,0.017485154279475702,103.33,2013-09-30 00:00:00,2013-10-25 00:00:00,163.9985013526649,8.86049786162047,190.80956342178715,8.666322763567665
sz002151,2013-11-06,33.68,34.38,33.33,33.43,-0.008012,2324507.0,78792548.11,3488053710.0,6067690090.0,0.02227840379499202,105.86,2013-09-30 00:00:00,2013-10-25 00:00:00,168.01937296714158,9.077737190322068,195.48778152137515,8.878801358887195
sz002151,2013-11-05,33.5,33.7,32.81,33.7,0.00507,1695155.0,56285481.32,3516225240.0,6116696260.0,0.016246605265821938,106.72,2013-09-30 00:00:00,2013-10-25 00:00:00,169.37641681869295,9.151055446559907,197.06667975960917,8.950512867985495
sz002151,2013-11-04,33.9,34.16,33.4,33.53,-0.006519,1432626.0,48301230.57,3498487610.0,6085840520.0,0.013730490181727412,106.18,2013-09-30 00:00:00,2013-10-25 00:00:00,168.52201022684287,9.104893635826267,196.07259171959083,8.905362679201941
sz002151,2013-11-01,34.95,34.95,33.58,33.75,-0.021455000000000002,2878003.0,97770660.75,3521442200.0,6125771480.0,0.027583187720644685,106.88,2013-09-30 00:00:00,2013-10-25 00:00:00,169.62781394595658,9.16463791036393,197.35917618916804,8.963797676253439
sz002151,2013-10-31,33.0,34.66,32.69,34.49,0.033253,4277850.0,144791016.58,3598653080.0,6260084690.0,0.04099951932571395,109.22,2013-09-30 00:00:00,2013-10-25 00:00:00,173.34697325718955,9.365576350974079,201.6863569781339,9.16033261245363
sz002151,2013-10-30,32.5,33.58,32.4,33.38,0.027076999999999997,2378990.0,78442747.43,3482836750.0,6058614870.0,0.022800576627658477,105.7,2013-09-30 00:00:00,2013-10-25 00:00:00,167.76817803305633,9.064165650594848,195.19552034025926,8.865527235298257
sz002151,2013-10-29,33.52,33.71,31.5,32.5,-0.030430000000000002,3423589.0,111667650.64,3391018410.0,5898891050.0,0.03281216114069991,102.92,2013-09-30 00:00:00,2013-10-25 00:00:00,163.34527794221498,8.825205559656041,190.04954870984284,8.631803881596275
sz002151,2013-10-28,33.5,33.87,32.92,33.52,0.0008960000000000001,2438367.0,81612750.26,3497444220.0,6084025480.0,0.023369654152768735,106.15,2013-09-30 00:00:00,2013-10-25 00:00:00,168.4718771643254,9.102185050750375,196.01426272455092,8.902713451938771
sz002151,2013-10-25,35.05,35.55,32.5,33.49,-0.050468,5422633.0,183477024.41,3494314050.0,6078580350.0,0.05197128150802587,106.05,2013-09-30 00:00:00,2013-10-25 00:00:00,168.32106149322746,9.094036793783145,195.83879116766468,8.894743761528442
sz002151,2013-10-24,35.7,35.7,34.97,35.27,-0.004235,1973214.0,69736170.37,3680037520.0,6401658070.0,0.018911562015813364,111.69,2013-06-30 00:00:00,2013-08-29 00:00:00,148.49250246570813,10.076525889395464,-267.1753693113261,9.648580709659273
sz002151,2013-10-23,36.1,36.87,35.16,35.42,-0.021547,3204592.0,114959551.67,3695688370.0,6428883720.0,0.030713262936723208,112.16,2013-06-30 00:00:00,2013-08-29 00:00:00,149.1240427869107,10.119381469920578,-268.3116692305174,9.689616234412007
sz002151,2013-10-22,36.85,36.89,36.16,36.2,-0.021092,3780244.0,137901175.16,3777072810.0,6570457110.0,0.03623039313345935,114.63,2013-06-30 00:00:00,2013-08-29 00:00:00,152.40797747762102,10.342225400627909,-274.2202939032507,9.902996091188854
sz002151,2013-10-21,36.1,37.18,36.1,36.98,0.0008119999999999999,4042200.0,148363255.55,3858457260.0,6712030490.0,0.03874101640301699,117.1,2013-06-30 00:00:00,2013-08-29 00:00:00,155.69182954641397,10.56506372470948,-280.12876991836896,10.116370579450626
sz002151,2013-10-18,37.05,37.86,36.59,36.95,0.028388999999999998,5981610.0,222378670.52,3855327080.0,6706585360.0,0.057328596228987144,117.01,2013-06-30 00:00:00,2013-08-29 00:00:00,155.56551035200815,10.55649185332458,-279.9014899085632,10.108162751296572
sz002151,2013-10-17,35.25,36.2,35.25,35.93,0.012969,2683051.0,96165102.67,3748901280.0,6521450940.0,0.025714740194492398,113.78,2013-06-30 00:00:00,2013-08-29 00:00:00,151.27107578164308,10.265076593900343,-272.1747217332772,9.829123756960229
sz002151,2013-10-16,36.58,36.58,35.35,35.47,-0.035879,4166979.0,148846634.2,3700905320.0,6437958940.0,0.0399369160651751,112.32,2013-06-30 00:00:00,2013-08-29 00:00:00,149.33435848643254,10.133653244966373,-268.6900800846592,9.703281894075957
sz002151,2013-10-15,36.38,37.26,36.22,36.79,0.005741,3920959.0,144054198.21,3838632840.0,6677544670.0,0.03757902556004809,116.5,2013-06-30 00:00:00,2013-08-29 00:00:00,154.89171845280055,10.510769130603288,-278.68916877099366,10.064381850489676
sz002151,2013-10-14,37.36,37.36,36.39,36.58,-0.021402,4392975.0,161176521.39,3816721640.0,6639428760.0,0.042102893702250704,115.84,2013-06-30 00:00:00,2013-08-29 00:00:00,154.0075610448421,10.450771252840731,-277.09834715994845,10.00693205357013
sz002151,2013-10-11,37.45,37.98,37.12,37.38,0.004839,5569003.0,208283788.34,3900192870.0,6784632230.0,0.05337411227563216,118.37,2013-06-30 00:00:00,2013-08-29 00:00:00,157.37571612126953,10.679330279482208,-283.1585054945426,10.22578428892163
sz002151,2013-10-10,39.21,39.5,37.18,37.2,-0.027197000000000002,10638751.0,406954334.94,3881411840.0,6751961450.0,0.10196329416050837,117.8,2013-06-30 00:00:00,2013-08-29 00:00:00,156.6178423819831,10.6279018623702,-281.7948999735705,10.176540011804509
sz002151,2013-10-09,36.9,38.86,36.59,38.24,0.038284,10115223.0,385529122.48,3989924430.0,6940725960.0,0.09694572774652777,121.09,2013-06-30 00:00:00,2013-08-29 00:00:00,160.99646319139958,10.925029900576169,-289.67314037227527,10.461049165971433
sz002151,2013-10-08,35.75,37.19,35.5,36.83,0.029057999999999997,4729790.0,173428445.83,3842806400.0,6684804840.0,0.04533097626255645,116.63,2013-06-30 00:00:00,2013-08-29 00:00:00,155.06014076244998,10.52219806967667,-278.99220287732,10.075325408049661
sz002151,2013-09-30,35.54,36.0,35.31,35.79,0.007034,3069172.0,109364925.66,3734293810.0,6496040330.0,0.029415378507670238,113.34,2013-06-30 00:00:00,2013-08-29 00:00:00,150.6816338461486,10.225077760123014,-271.11416740098224,9.790823654302926
sz002151,2013-09-27,36.88,37.5,35.52,35.54,-0.037117000000000004,5569736.0,201588991.08,3708209060.0,6450664240.0,0.053381137427025216,112.54,2013-06-30 00:00:00,2013-08-29 00:00:00,149.62914245809833,10.153656937226563,-269.22047061070657,9.722436039203172
sz002151,2013-09-26,36.35,38.5,35.99,36.91,0.002172,10090288.0,378882887.82,3851153520.0,6699325190.0,0.09670674725010703,116.88,2013-06-30 00:00:00,2013-08-29 00:00:00,155.39701340463827,10.545057849423618,-279.59832151020066,10.097214344009782
sz002151,2013-09-25,35.88,38.88,35.88,36.83,0.037757,12822046.0,478735517.51,3842806400.0,6684804840.0,0.1228883022001837,116.63,2013-06-30 00:00:00,2013-08-29 00:00:00,155.06022260114855,10.522203623154125,-278.9923501257275,10.075330725673618
sz002151,2013-09-24,34.96,35.5,34.72,35.49,0.024538,5678127.0,199978059.88,3702992100.0,6441589030.0,0.05441997222462344,112.39,2013-06-30 00:00:00,2013-08-29 00:00:00,149.41862362879613,10.139371378033708,-268.8416942749869,9.70875718079822
sz002151,2013-09-23,34.15,34.69,34.09,34.64,0.016432,3222068.0,111249903.74,3614303930.0,6287310340.0,0.030880755376872803,109.69,2013-06-30 00:00:00,2013-08-29 00:00:00,145.84000166786993,9.896530317112402,-262.40285306644245,9.476229462253444
sz002151,2013-09-18,33.94,34.35,33.7,34.08,0.002353,1861399.0,63410272.19,3555874070.0,6185667910.0,0.017839911276723026,107.92,2013-06-30 00:00:00,2013-08-29 00:00:00,143.48230050595606,9.736539500047622,-258.1607555315481,9.323033377789606
sz002151,2013-09-17,34.38,34.7,33.97,34.0,-0.010765,3147294.0,107550875.64,3547526950.0,6171147560.0,0.030164110804006716,107.67,2013-06-30 00:00:00,2013-08-29 00:00:00,143.14547919341393,9.713683203469856,-257.5547292536143,9.30114777707016
sz002151,2013-09-16,34.16,34.93,33.95,34.37,0.006148,3080791.0,106401829.47,3586132390.0,6238304170.0,0.029526736649563567,108.84,2013-06-30 00:00:00,2013-08-29 00:00:00,144.70320924089214,9.819388925250175,-260.35747749888986,9.402364227984412
sz002151,2013-09-13,34.37,34.37,33.62,34.16,-0.00611,3063937.0,103815175.83,3564221200.0,6200188250.0,0.029365205481635088,108.17,2013-06-30 00:00:00,2013-08-29 00:00:00,143.81900996761127,9.759388206556267,-258.7665805615972,9.344911710786496
sz002151,2013-09-12,34.34,34.83,34.05,34.37,0.000874,3803428.0,130943642.24,3586132390.0,6238304170.0,0.03645259185760289,108.84,2013-06-30 00:00:00,2013-08-29 00:00:00,144.7031461908373,9.819384646747896,-260.3573640559792,9.402360131188056
sz002151,2013-09-11,36.2,36.49,34.19,34.34,-0.049806,7328076.0,254966793.27,3583002220.0,6232859040.0,0.07023331675189418,108.74,2013-06-30 00:00:00,2013-08-29 00:00:00,144.57678607980353,9.810809998808937,-260.13001042686614,9.394149644398851
sz002151,2013-09-10,36.68,36.99,36.01,36.14,-0.011758,7202168.0,261479095.54,3770812470.0,6559566850.0,0.06902659667930928,114.44,2013-06-30 00:00:00,2013-08-29 00:00:00,152.15501895381738,10.325059933875544,-273.7651578802499,9.886559633505213
sz002151,2013-09-09,36.56,37.59,35.38,36.57,0.0063289999999999996,9770632.0,354744147.77,3815678250.0,6637613710.0,0.09364311895008444,115.81,2013-06-30 00:00:00,2013-08-29 00:00:00,153.96534346224647,10.447906417532895,-277.0223871078641,10.004188886431878
sz002151,2013-09-06,35.79,36.5,35.5,36.34,0.031214999999999996,8587254.0,310025292.7,3791680280.0,6595867720.0,0.08230145669349527,115.08,2013-06-30 00:00:00,2013-08-29 00:00:00,152.99702528919119,10.382197489621081,-275.28013910745307,9.941270584900044
sz002151,2013-09-05,35.75,36.68,35.2,35.24,0.0057079999999999995,9148174.0,327919309.97,3676907350.0,6396212940.0,0.0876773932745409,111.59,2013-06-30 00:00:00,2013-08-29 00:00:00,148.36578724047962,10.067927143826537,-266.9473767424379,9.640347148654786
sz002151,2013-09-04,33.72,35.58,33.72,35.04,0.036686,8518332.0,297342216.26,3656039540.0,6359912070.0,0.08164089857737152,110.96,2013-06-30 00:00:00,2013-08-29 00:00:00,147.52372183623837,10.010785579737396,-265.43228923548173,9.585632359148766
sz002151,2013-09-03,33.5,33.99,32.9,33.8,-0.009669,5035280.0,169034699.31,3526659150.0,6134846690.0,0.04825883556112872,107.03,2013-06-30 00:00:00,2013-08-29 00:00:00,142.30318711378214,9.656526257456353,-256.03923390060413,9.246418258902661
sz002151,2013-09-02,33.9,35.38,33.36,34.13,-0.000293,6832446.0,235529325.88,3561091030.0,6194743120.0,0.06548312862982332,108.08,2013-06-30 00:00:00,2013-08-29 00:00:00,143.69255038343962,9.750806808487619,-258.5390479552838,9.336694760542347
sz002151,2013-08-30,34.99,34.99,32.58,34.14,-0.047432999999999996,12340847.0,416628716.18,3562134420.0,6196558170.0,0.11827642275779138,108.11,2013-06-30 00:00:00,2013-08-29 00:00:00,143.73466464017918,9.75366463222486,-258.6148220981585,9.339431213888014
sz002151,2013-08-29,37.99,37.99,35.6,35.84,-0.062762,15389296.0,558544858.78,3739510760.0,6505115550.0,0.14749318936041786,113.49,2013-06-30 00:00:00,2013-08-29 00:00:00,150.89192113539434,10.23934760728102,-271.4925271378901,9.80448746795555
sz002151,2013-08-28,34.88,38.24,34.88,38.24,0.100115,20468329.0,765256100.82,3989924430.0,6940725960.0,0.19617135980693248,121.09,2013-03-31 00:00:00,2013-04-18 00:00:00,135.36672436001447,11.429721292430758,174.54119500467777,10.442488534441024
sz002151,2013-08-27,33.8,34.97,33.8,34.76,0.034832,8009235.0,277362087.83,3626824610.0,6309090860.0,0.07676164097717425,110.07,2013-03-31 00:00:00,2013-04-18 00:00:00,123.04779442150544,10.389569538121705,158.6572267487288,9.492179030774986
sz002151,2013-08-26,33.26,33.74,33.1,33.59,0.011747,3387674.0,113465612.34,3504747950.0,6096730780.0,0.03246794670641009,106.37,2013-03-31 00:00:00,2013-04-18 00:00:00,118.90605858874237,10.039861096411498,153.31689274078187,9.172676367540804
sz002151,2013-08-23,32.83,33.77,32.65,33.2,0.016845,4282849.0,142174505.0,3464055730.0,6025944090.0,0.041047430492695915,105.13,2013-03-31 00:00:00,2013-04-18 00:00:00,117.52548669651834,9.923292183136196,151.53679006785475,9.066175998091225
sz002151,2013-08-22,32.72,33.26,32.62,32.65,-0.008202,2295679.0,75390432.98,3406669260.0,5926116700.0,0.022002112218548624,103.39,2013-03-31 00:00:00,2013-04-18 00:00:00,115.5785657563526,9.758903454446054,149.02643969125558,8.915986210377419
sz002151,2013-08-21,32.76,32.98,32.28,32.92,0.004577,2205612.0,71918277.26,3434840800.0,5975122870.0,0.02113889733695955,104.25,2013-03-31 00:00:00,2013-04-18 00:00:00,116.53438074724147,9.839607918594364,150.25886288463533,8.989719892939306
sz002151,2013-08-20,32.96,33.2,32.7,32.77,-0.010568000000000001,1934462.0,63714296.13,3419189950.0,5947897220.0,0.018540157366805553,103.77,2013-03-31 00:00:00,2013-04-18 00:00:00,116.00343303424373,9.794777223243578,149.57426148979653,8.948761411956779
sz002151,2013-08-19,32.72,33.22,32.62,33.12,0.012534,1806444.0,59571402.67,3455708610.0,6011423740.0,0.017313214750476313,104.88,2013-03-31 00:00:00,2013-04-18 00:00:00,117.24245125915044,9.899394019238896,151.17184555360706,9.044342018407308
sz002151,2013-08-16,33.49,33.73,32.69,32.71,-0.033678,4170460.0,137949107.56,3412929610.0,5937006960.0,0.039970278379107854,103.58,2013-03-31 00:00:00,2013-04-18 00:00:00,115.79112529470659,9.776850969191054,149.30051292461002,8.93238352332594
sz002151,2013-08-15,34.45,34.66,33.8,33.85,-0.002358,3363752.0,115052441.73,3531876100.0,6143921910.0,0.03223867485045696,107.19,2013-03-31 00:00:00,2013-04-18 00:00:00,119.82664711628897,10.117591205820682,154.5038951039198,9.243692602803145
sz002151,2013-08-14,34.49,34.9,33.66,33.93,-0.015951,3229413.0,110069478.01,3540223220.0,6158442260.0,0.03095115089663753,107.45,2013-03-31 00:00:00,2013-04-18 00:00:00,120.10986618074314,10.141504874314315,154.86907638603807,9.26554074788666
sz002151,2013-08-13,33.4,35.0,33.19,34.48,0.032335,5486345.0,188137880.37,3597609690.0,6258269640.0,0.05258190629345341,109.19,2013-03-31 00:00:00,2013-04-18 00:00:00,122.05679410348789,10.305894192580162,157.3794357659406,9.415731074252056
sz002151,2013-08-12,33.45,33.46,33.0,33.4,0.010896,2673426.0,88890222.78,3484923540.0,6062244960.0,0.02562249282519409,105.77,2013-03-31 00:00:00,2013-04-18 00:00:00,118.23370718176548,9.983090946814901,152.44996611171817,9.120809692834259
sz002151,2013-08-09,33.2,33.47,32.63,33.04,-0.000907,2603169.0,86088367.46,3447361490.0,5996903390.0,0.024949139801407946,104.63,2013-03-31 00:00:00,2013-04-18 00:00:00,116.95931844795658,9.875487633559636,150.8067754860225,9.022500527091077
sz002151,2013-08-08,33.5,33.55,33.0,33.07,-0.021308,3074727.0,102080599.1,3450491660.0,6002348520.0,0.029468618362056845,104.72,2013-03-31 00:00:00,2013-04-18 00:00:00,117.06549685360278,9.884452832278512,150.94368140505688,9.030691364158368
sz002151,2013-08-07,34.18,34.95,33.6,33.79,-0.021147,4043433.0,138004176.88,3525615760.0,6133031650.0,0.038752833652524854,107.0,2013-03-31 00:00:00,2013-04-18 00:00:00,119.6142370159384,10.09965630890874,154.23001455519906,9.227306817832748
sz002151,2013-08-06,34.4,35.1,34.0,34.52,0.017089,5796904.0,201072070.23,3601783250.0,6265529820.0,0.05555834768235985,109.31,2013-03-31 00:00:00,2013-04-18 00:00:00,122.19836585875346,10.317847837120324,157.56197769756957,9.426652232595444
sz002151,2013-08-05,33.3,33.95,33.13,33.94,0.016168000000000002,3501939.0,117347215.75,3541266610.0,6160257300.0,0.033563078624006794,107.48,2013-03-31 00:00:00,2013-04-18 00:00:00,120.14520445974097,10.144488670234685,154.9146413908415,9.268266820893201
sz002151,2013-08-02,32.93,33.85,32.93,33.4,0.014581,3823783.0,127943764.8,3484923540.0,6062244960.0,0.036647676981745196,105.77,2013-03-31 00:00:00,2013-04-18 00:00:00,118.23360355742452,9.983082197269235,152.4498324989977,9.12080169902339
sz002151,2013-08-01,32.3,32.98,32.22,32.92,0.019195,2839685.0,92921479.05,3434840800.0,5975122870.0,0.027215942642814774,104.25,2013-03-31 00:00:00,2013-04-18 00:00:00,116.53441524868347,9.839610831731756,150.2589073706266,8.989722554456856
sz002151,2013-07-31,32.12,32.75,31.93,32.3,0.010955,2379924.0,76875361.95,3370150600.0,5862590180.0,0.022809528215148603,102.28,2013-03-31 00:00:00,2013-04-18 00:00:00,114.33966537187041,9.654296608334768,147.4290075703144,8.820414694397888
sz002151,2013-07-30,32.32,32.7,30.98,31.95,-0.006529999999999999,2886925.0,92286834.84,3333631940.0,5799063660.0,0.027668697507739863,101.18,2013-03-31 00:00:00,2013-04-18 00:00:00,113.10064777548989,9.549679865409209,145.8314243169225,8.724834136433259
sz002151,2013-07-29,32.7,32.97,32.16,32.16,-0.025159,2454195.0,79628820.77,3355543140.0,5837179570.0,0.023521351956154554,101.84,2013-03-31 00:00:00,2013-04-18 00:00:00,113.84404941819069,9.61244915841365,146.78996277383564,8.78218178347938
sz002151,2013-07-26,33.51,33.95,32.86,32.99,-0.032551,4194259.0,139631786.62,3442144530.0,5987828180.0,0.04019837145246194,104.47,2013-03-31 00:00:00,2013-04-18 00:00:00,116.7821720856947,9.860530238688824,150.57836382942006,9.008835064876612
sz002151,2013-07-25,33.92,35.28,33.82,34.1,0.000587,5029205.0,173928711.99,3557960850.0,6189297990.0,0.048200612016290174,107.98,2013-03-31 00:00:00,2013-04-18 00:00:00,120.71145051128761,10.192299789124618,155.64475629146347,9.311948293787696
sz002151,2013-07-24,34.32,34.55,33.37,34.08,-0.008438,4955718.0,168471385.61,3555874070.0,6185667910.0,0.047496302207350106,107.92,2013-03-31 00:00:00,2013-04-18 00:00:00,120.64063445886028,10.186320419038644,155.55344641841586,9.306485386865607
sz002151,2013-07-23,34.13,34.77,33.74,34.37,0.007031999999999999,4719470.0,162015185.39,3586132390.0,6238304170.0,0.04523206793823916,108.84,2013-03-31 00:00:00,2013-04-18 00:00:00,121.66726282255698,10.273004027018626,156.8771760297549,9.385681769637808
sz002151,2013-07-22,33.6,34.53,32.81,34.13,0.002349,4714797.0,159669781.74,3561091030.0,6194743120.0,0.04518728116029093,108.08,2013-03-31 00:00:00,2013-04-18 00:00:00,120.81767294639795,10.20126870548168,155.7817189818744,9.320142527385238
sz002151,2013-07-19,35.96,36.45,34.01,34.05,-0.058091,6378032.0,226801976.23,3552743900.0,6180222780.0,0.061127960729170476,107.83,2013-03-31 00:00:00,2013-04-18 00:00:00,120.53453731823741,10.177362081951177,155.41664528210674,9.298300818761966
sz002151,2013-07-18,35.9,36.5,35.0,36.15,0.002496,6221416.0,222630652.85,3771855860.0,6561381890.0,0.05962693081278032,114.48,2013-03-31 00:00:00,2013-04-18 00:00:00,127.96834653691323,10.805037516311211,165.00176267782422,9.871761304714113
sz002151,2013-07-17,35.99,36.65,35.33,36.06,0.001667,7914805.0,285812842.5,3762465350.0,6545046500.0,0.07585661042699038,114.19,2013-03-31 00:00:00,2013-04-18 00:00:00,127.64973280383484,10.778135290625809,164.59094368239295,9.847182736603548
sz002151,2013-07-16,34.6,36.9,33.69,36.0,0.04834,8937000.0,316331832.91,3756205010.0,6534156240.0,0.08565347182687454,114.0,2013-03-31 00:00:00,2013-04-18 00:00:00,127.43729483334765,10.760198040492307,164.31702719805378,9.830794801669166
sz002151,2013-07-15,33.33,34.49,33.32,34.34,0.030302999999999997,6098597.0,207302667.05,3583002220.0,6232859040.0,0.05844981613770812,108.74,2013-03-31 00:00:00,2013-04-18 00:00:00,121.56103442904747,10.264034607562724,156.74020565661309,9.377487076396173
sz002151,2013-07-12,33.3,34.0,33.1,33.33,-0.002693,4596420.0,154674929.69,3477619800.0,6049539650.0,0.04405273934775734,105.55,2013-03-31 00:00:00,2013-04-18 00:00:00,117.98571335718471,9.962151529756513,152.13020408230696,9.101678900669196
sz002151,2013-07-11,32.81,33.98,32.51,33.42,0.018902000000000002,5107243.0,170528958.02,3487010320.0,6065875040.0,0.0489485391198957,105.83,2013-03-31 00:00:00,2013-04-18 00:00:00,118.3043068555467,9.989052046918864,152.54099698719347,9.126255907828979
sz002151,2013-07-10,32.1,33.0,31.93,32.8,0.010786,3474503.0,113025105.73,3422320120.0,5953342350.0,0.0333001281014004,103.87,2013-03-31 00:00:00,2013-04-18 00:00:00,116.10960313705019,9.803741720910221,149.71115670318977,8.956951608524648
sz002151,2013-07-09,31.61,32.65,31.5,32.45,0.028526,3113099.0,99888304.78,3385801460.0,5889815830.0,0.029836381058799592,102.76,2013-03-31 00:00:00,2013-04-18 00:00:00,114.87060875106124,9.699126937759546,148.11360337716368,8.861372841060962
sz002151,2013-07-08,32.81,33.28,31.51,31.55,-0.06324199999999999,4656525.0,150822201.46,3291896330.0,5726461930.0,0.044628794172871175,99.91,2013-03-31 00:00:00,2013-04-18 00:00:00,111.68469124850635,9.430123242153867,144.0056968682986,8.615604117991149
sz002151,2013-07-05,34.2,34.81,33.5,33.68,-0.010576,3952016.0,135176552.39,3514138460.0,6113066170.0,0.037876680271727255,106.65,2013-03-31 00:00:00,2013-04-18 00:00:00,119.22469970740185,10.0667656344049,153.727747047048,9.197257048235668
sz002151,2013-07-04,33.47,34.89,33.47,34.04,-0.000294,5204040.0,179153534.03,3551700510.0,6178407730.0,0.04987625536028093,107.79,2013-03-31 00:00:00,2013-04-18 00:00:00,120.49909816964401,10.17436976908272,155.37095021653815,9.29556696445171
sz002151,2013-07-03,34.5,34.55,33.6,34.05,-0.021552,5128972.0,174691436.2,3552743900.0,6180222780.0,0.049156793035377525,107.83,2013-03-31 00:00:00,2013-04-18 00:00:00,120.53453532302896,10.177361913485282,155.41664270949468,9.298300664847174
sz002151,2013-07-02,33.4,34.99,33.16,34.8,0.034483,6699830.0,230089302.73,3630998170.0,6316351030.0,0.06421211828922513,110.2,2013-03-31 00:00:00,2013-04-18 00:00:00,123.18951576683583,10.401535813334263,158.83996156105866,9.50311172882685
sz002151,2013-07-01,33.29,33.66,32.48,33.64,0.008695999999999999,4003155.0,132873272.97,3509964900.0,6105806000.0,0.038366803668036686,106.53,2013-03-31 00:00:00,2013-04-18 00:00:00,119.08317078853479,10.054815606766148,153.54526034846262,9.186339194386811
sz002151,2013-06-28,32.28,33.5,31.39,33.35,0.009687999999999999,4137611.0,134532211.02,3296835190.0,6053169740.0,0.041855087954821305,105.61,2013-03-31 00:00:00,2013-04-18 00:00:00,118.0565510208574,9.968132724593085,152.221541820789,9.107143474730552
sz002151,2013-06-27,34.0,34.71,33.0,33.03,-0.028244,5881568.0,199226399.73,3265201390.0,5995088350.0,0.0594965418166749,104.6,2013-03-31 00:00:00,2013-04-18 00:00:00,116.92379331125794,9.872488060265235,150.76096954780985,9.019760039468185
sz002151,2013-06-26,33.6,34.21,32.6,33.99,0.012813,6334515.0,212884865.44,3360102800.0,6169332520.0,0.06407844571005387,107.64,2013-03-31 00:00:00,2013-04-18 00:00:00,120.32217275865335,10.159431030284594,155.1428234534285,9.281918546907027
sz002151,2013-06-25,31.9,33.9,29.01,33.56,0.050062999999999996,7972635.0,251874038.27,3317594880.0,6091285650.0,0.08064927764778804,106.27,2013-03-31 00:00:00,2013-04-18 00:00:00,118.79998850592692,10.030905043956382,153.18012649267783,9.164493886736278
sz002151,2013-06-24,33.86,34.45,30.88,31.96,-0.04597,6332764.0,208739831.44,3159425870.0,5800878710.0,0.06406073311034831,101.21,2013-03-31 00:00:00,2013-04-18 00:00:00,113.13605803263891,9.552669738821749,145.87708213000346,8.727565761993592
sz002151,2013-06-21,34.33,34.4,32.68,33.5,-0.040115,4085600.0,136667522.18,3311663540.0,6080395390.0,0.04132895698697701,106.08,2013-03-31 00:00:00,2013-04-18 00:00:00,118.58752663190772,10.012965775522519,152.90617918724092,9.148104107830562
sz002151,2013-06-20,35.7,36.49,34.89,34.9,-0.028937,4042253.0,143928833.2,3450061420.0,6334501470.0,0.04089046904562064,110.52,2013-03-31 00:00:00,2013-04-18 00:00:00,123.54347305344673,10.431422280296617,159.2963523622527,9.530416776833228
sz002151,2013-06-19,36.7,36.7,35.75,35.94,-0.023635,3870199.0,139382532.57,3552871270.0,6523265980.0,0.03915001177624992,113.81,2013-03-31 00:00:00,2013-04-18 00:00:00,127.2249823682364,10.742271387434819,164.04327253973503,9.814416548497089
sz002151,2013-06-18,36.45,37.64,36.45,36.81,-0.002169,3538338.0,130661098.14,3638875670.0,6681174760.0,0.035792984864470516,116.57,2013-03-31 00:00:00,2013-04-18 00:00:00,130.30473477463485,11.002311008111533,168.01429029075703,10.051995461223095
sz002151,2013-06-17,37.59,37.94,36.1,36.89,-0.019405000000000002,4575586.0,170361532.72,3646784120.0,6695695100.0,0.04628553870636028,116.82,2013-03-31 00:00:00,2013-04-18 00:00:00,130.5879801034793,11.026226894245152,168.37950543805218,10.07384563239977
sz002151,2013-06-14,37.05,38.14,36.55,37.62,0.01347,5430899.0,202921917.12,3718948730.0,6828193270.0,0.054937681375349316,119.13,2013-03-31 00:00:00,2013-04-18 00:00:00,133.17218638018687,11.244424960605707,171.71156842330646,10.273197020584208
sz002151,2013-06-13,36.9,37.58,34.3,37.12,0.011444,5787761.0,210249332.12,3669520910.0,6737441100.0,0.058547612505633596,117.55,2013-03-31 00:00:00,2013-04-18 00:00:00,131.40219876285124,11.09497563875172,169.42935501130418,10.136656260751879
sz002151,2013-06-07,38.6,38.88,36.65,36.7,-0.050207,7281280.0,271081302.98,3628001550.0,6661209280.0,0.07365569510299687,116.22,2013-03-31 00:00:00,2013-04-18 00:00:00,129.9154463943147,10.969441351920345,167.51234374943564,10.02196489449923
sz002151,2013-06-06,38.88,39.98,38.51,38.64,-0.013027,4911826.0,192986625.78,3819781470.0,7013327700.0,0.04968686248954446,122.36,2013-03-31 00:00:00,2013-04-18 00:00:00,136.78290574295104,11.54929690145152,176.3672123814722,10.55173589876871
sz002151,2013-06-05,39.5,39.98,38.51,39.15,-0.00861,4056743.0,157959137.72,3870197840.0,7105894910.0,0.04103704642913035,123.98,2013-03-31 00:00:00,2013-04-18 00:00:00,138.58829546801286,11.701735408619609,178.69507309872938,10.69100765549687
sz002151,2013-06-04,40.85,41.29,38.69,39.49,-0.025419999999999998,7629116.0,304998668.02,3903808750.0,7167606390.0,0.07717432131889146,125.05,2013-03-31 00:00:00,2013-04-18 00:00:00,139.79190375938114,11.803362358526522,180.24699976672082,10.783856661351102
sz002151,2013-06-03,38.53,41.0,38.53,40.52,0.052467999999999994,11607196.0,467098683.37,4005630050.0,7354555860.0,0.11741563151095295,128.31,2013-03-31 00:00:00,2013-04-18 00:00:00,143.43810026819875,12.111229820565292,184.94838778419506,11.065132325053973
sz002151,2013-05-31,39.18,39.68,38.09,38.5,-0.021103,8276776.0,319799079.37,3805941680.0,6987917090.0,0.08372589566322519,121.92,2013-03-31 00:00:00,2013-04-18 00:00:00,136.287374312757,11.507456588290847,175.72827656916417,10.513509508178846
sz002151,2013-05-30,39.88,40.38,38.9,39.33,-0.016012000000000002,6838478.0,270993852.97,3887991850.0,7138565690.0,0.06917641551640598,124.55,2013-03-31 00:00:00,2013-04-18 00:00:00,139.22544896220646,11.755533614150261,179.51661571050292,10.740159085357138
sz002151,2013-05-29,39.4,40.63,39.05,39.97,0.011643,7994142.0,320409126.14,3951259450.0,7254728470.0,0.08086683746874683,126.57,2013-03-31 00:00:00,2013-04-18 00:00:00,141.49100290065172,11.946826195187606,182.43780992298986,10.914928927341736
sz002151,2013-05-28,42.0,42.14,38.75,39.51,-0.062856,14301894.0,570414096.46,3905785860.0,7171236470.0,0.14467455518413905,125.12,2013-03-31 00:00:00,2013-04-18 00:00:00,139.86258284854605,11.809330164087138,180.33813304000503,10.78930900262418
sz002151,2013-05-27,43.4,43.41,41.81,42.16,-0.024074,10577438.0,446988326.62,4167753280.0,7652222970.0,0.10699884473007959,133.51,2013-03-31 00:00:00,2013-04-18 00:00:00,149.243427742744,12.601404014844185,192.4337487515313,11.512968127229307
sz002151,2013-05-24,42.58,43.54,41.76,43.2,0.007228,14877363.0,637430781.1,4270563130.0,7840987490.0,0.15049586249764677,136.8,2013-03-31 00:00:00,2013-04-18 00:00:00,152.92494281609876,12.91225360820819,197.18067635407942,11.796968343121618
sz002151,2013-05-23,39.5,43.8,39.0,42.89,0.076286,22188725.0,939831096.43,4239917880.0,7784721140.0,0.22445586027482212,135.82,2013-03-31 00:00:00,2013-04-18 00:00:00,151.82753340464996,12.819593585770242,195.7656820045505,11.7123117537654
sz002151,2013-05-22,41.0,41.47,39.07,39.85,0.008860999999999999,23344984.0,941581531.22,3939396780.0,7232947950.0,0.23615230055602573,126.19,2013-03-31 00:00:00,2013-04-18 00:00:00,141.06616030000382,11.910954510018934,181.8900199431661,10.8821556294195
sz002151,2013-05-21,36.31,39.5,36.31,39.5,0.099972,17646219.0,681884732.49,3904797310.0,7169421430.0,0.17850495049127146,125.08,2013-03-31 00:00:00,2013-04-18 00:00:00,139.82715190695626,11.806338544178963,180.29244855650688,10.786575781420336
sz002151,2013-05-20,35.5,36.38,35.38,35.91,0.021912,8034528.0,288863794.83,3549905600.0,6517820850.0,0.081275372640895,113.72,2013-03-31 00:00:00,2013-04-18 00:00:00,127.11882839468304,10.733308251645465,163.90639812332216,9.806227596175482
sz002151,2013-05-17,34.6,36.46,34.6,35.14,0.020622,9755008.0,348394918.82,3473786770.0,6378062510.0,0.09867933866303485,111.28,2013-03-31 00:00:00,2013-04-18 00:00:00,124.39312621310157,10.503162945190454,160.39189100756442,9.59596090091464
sz002151,2013-05-16,34.57,35.2,33.72,34.43,-0.00145,6626749.0,229015988.73,3403599270.0,6249194430.0,0.06703461540876403,109.03,2013-03-31 00:00:00,2013-04-18 00:00:00,121.87972257417688,10.290943116247202,157.1511205985805,9.402071384816946
sz002151,2013-05-15,34.7,35.45,34.38,34.48,0.0008710000000000001,5859035.0,204048326.82,3408542050.0,6258269640.0,0.05926860336078294,109.19,2013-03-31 00:00:00,2013-04-18 00:00:00,122.05670479613129,10.305886651892447,157.37932061347001,9.415724184885029
sz002151,2013-05-14,36.48,36.5,34.36,34.45,-0.050703,8409202.0,295740901.03,3405576380.0,6252824510.0,0.08506548571375751,109.09,2013-03-31 00:00:00,2013-04-18 00:00:00,121.95048592289243,10.296918036282843,157.2423625157188,9.407530226058132
sz002151,2013-05-13,34.91,37.45,34.29,36.29,0.048844,12387898.0,448515259.2,3587470740.0,6586792500.0,0.12531302719977028,114.92,2013-03-31 00:00:00,2013-04-18 00:00:00,128.46399590738451,10.846887787787004,165.64085056175122,9.909996793477834
sz002151,2013-05-10,33.5,34.98,33.47,34.6,0.005814,8519252.0,292101649.6,3420404730.0,6280050160.0,0.08617872517092444,109.57,2013-03-31 00:00:00,2013-04-18 00:00:00,122.4815090779797,10.34175510160425,157.92706118522037,9.448494526810315
sz002151,2013-05-09,32.3,34.75,32.16,34.4,0.059113,12078722.0,408189595.94,3400633600.0,6243749300.0,0.12218547649473321,108.93,2013-03-31 00:00:00,2013-04-18 00:00:00,121.77351784522753,10.281975694914017,157.01418073840725,9.393878517111824
sz002151,2013-05-08,31.85,32.97,31.85,32.48,0.020421,6326897.0,205445646.67,3210830800.0,5895260960.0,0.06400138386613209,102.85,2013-03-31 00:00:00,2013-04-18 00:00:00,114.97688900544843,9.708100736100883,148.25064061946858,8.869571534965413
sz002151,2013-05-07,31.5,32.08,31.4,31.83,-0.004068,3147294.0,99653655.31,3146574640.0,5777283140.0,0.03183727687451266,100.8,2013-03-31 00:00:00,2013-04-18 00:00:00,112.67593376209274,9.513819037535376,145.28380013687348,8.69207075801597
sz002151,2013-05-06,31.15,32.32,31.0,31.96,0.026662,4670257.0,148257993.53,3159425870.0,5800878710.0,0.04724320805792478,101.21,2013-03-31 00:00:00,2013-04-18 00:00:00,113.13617170860334,9.552679337078612,145.87722870323827,8.727574531208928
sz002151,2013-05-03,30.71,31.6,30.71,31.13,0.016324,3773852.0,117845049.92,3077375700.0,5650230100.0,0.038175388451920256,98.58,2013-03-31 00:00:00,2013-04-18 00:00:00,110.19807074636378,9.30460008949256,142.08885563431613,8.500922924203804
sz002151,2013-05-02,30.45,31.09,30.05,30.63,0.009891,2464474.0,75492733.64,3027947890.0,5559477930.0,0.024930032273441798,97.0,2013-03-31 00:00:00,2013-04-18 00:00:00,108.42809059548311,9.155151398070458,139.80665184952448,8.364382740350326
sz002151,2013-04-26,31.81,31.83,30.17,30.33,-0.046826,4817296.0,148281121.62,2998291200.0,5505026630.0,0.048730619520879086,96.05,2013-03-31 00:00:00,2013-04-18 00:00:00,107.36613218207025,9.065484689011445,138.43736784417771,8.282460919396573
sz002151,2013-04-25,32.3,32.82,31.8,31.82,-0.015165999999999999,4724455.0,152502923.2,3145586080.0,5775468100.0,0.04779146215575827,100.76,2013-03-31 00:00:00,2013-04-18 00:00:00,112.64064292780778,9.510839247620522,145.2382963070517,8.689348344999521
sz002151,2013-04-24,31.78,32.44,31.21,32.31,0.015080000000000001,4170086.0,132992799.08,3194025340.0,5864405230.0,0.042183597284798,102.32,2013-03-31 00:00:00,2013-04-18 00:00:00,114.37525809203153,9.657301888054763,147.4749006503144,8.823160395558563
sz002151,2013-04-23,32.17,32.78,31.59,31.83,-0.019711000000000003,3960416.0,126953226.65,3146574640.0,5777283140.0,0.04006262545864795,100.8,2013-03-31 00:00:00,2013-04-18 00:00:00,112.67610246683171,9.513833282159792,145.28401766394214,8.69208377227269
sz002151,2013-04-22,33.5,33.5,32.2,32.47,0.015322,4134040.0,134801611.85,3209842240.0,5893445920.0,0.041818964535777305,102.82,2013-03-31 00:00:00,2013-04-18 00:00:00,114.94171868380828,9.705131121699615,148.20529217806398,8.866858418560946
sz002151,2013-04-19,31.75,32.3,31.55,31.98,0.010745999999999999,3954952.0,126641495.48,3161402980.0,5804508790.0,0.040007352988577244,101.27,2013-03-31 00:00:00,2013-04-18 00:00:00,113.207158599743,9.558673131971545,145.96875885488936,8.733050617007162
sz002151,2013-04-18,31.8,32.45,31.51,31.64,-0.014308000000000001,3326236.0,105715814.75,3127792070.0,5742797320.0,0.03364741155571764,100.19,2013-03-31 00:00:00,2013-04-18 00:00:00,112.00356825527186,9.457047697415124,144.41685532753962,8.64020299561627
sz002151,2013-04-17,31.63,32.74,31.23,32.15,0.01644,4160513.0,133185745.71,3178208440.0,5835364530.0,0.042086759089344054,101.65,2012-12-31 00:00:00,2013-02-28 00:00:00,126.54937071594262,10.245635304316439,86.38500630021129,8.66350383949743
sz002151,2013-04-16,30.68,32.0,30.45,31.63,0.009898,3178876.0,100359260.46,3126803510.0,5740982270.0,0.032156752913456974,100.0,2012-12-31 00:00:00,2013-02-28 00:00:00,124.50254881344951,10.07992139655704,84.98780675712418,8.523379480832542
sz002151,2013-04-15,32.28,32.33,31.3,31.32,-0.042495,4546951.0,143757857.3,3096158270.0,5684715930.0,0.045995873886640816,99.02,2012-12-31 00:00:00,2013-02-28 00:00:00,123.28230060209003,9.981128189735044,84.15484212972416,8.439841925454395
sz002151,2013-04-12,33.45,34.12,32.46,32.71,-0.029376999999999997,5139799.0,170040806.53,3233567590.0,5937006960.0,0.05199298317125946,103.42,2012-12-31 00:00:00,2013-02-28 00:00:00,128.75368859910915,10.424100333403004,87.88971559388635,8.814410290760252
sz002151,2013-04-11,34.77,34.83,33.7,33.7,-0.0437,6774070.0,232172495.2,3331434660.0,6116696260.0,0.06852487960847475,106.55,2012-12-31 00:00:00,2013-02-28 00:00:00,132.6505642243272,10.739597488832434,90.54979697976079,9.081188361248653
sz002151,2013-04-10,33.99,35.8,33.99,35.24,0.036775999999999996,13028949.0,456607727.26,3483672330.0,6396212940.0,0.13179774653490448,111.42,2012-12-31 00:00:00,2013-02-28 00:00:00,138.7122913566111,11.23036441371163,94.6876471606826,9.496171035500002
sz002151,2013-04-09,34.3,34.68,33.5,33.99,-0.019896,7601074.0,258564381.72,3360102800.0,6169332520.0,0.0768906550299592,107.47,2012-12-31 00:00:00,2013-02-28 00:00:00,133.79195829823522,10.832006541154147,91.32893427382831,9.159327603551782
sz002151,2013-04-08,31.48,34.85,30.66,34.68,0.08988099999999999,13252732.0,444104161.12,3428313180.0,6294570510.0,0.1340614820259799,109.65,2012-12-31 00:00:00,2013-02-28 00:00:00,136.50791987200873,11.051895044968848,93.18290127764841,9.345260914710872
sz002151,2013-04-03,29.81,32.18,29.71,31.82,0.068861,8253108.0,258674484.86,3145586080.0,5775468100.0,0.08348647593201455,100.6,2012-12-31 00:00:00,2013-02-28 00:00:00,125.25029785087429,10.14046033004415,85.49823446564203,8.574569989485889
sz002151,2013-04-02,30.46,30.76,29.68,29.77,-0.017166999999999998,2903663.0,87371341.05,2942932050.0,5403384200.0,0.029372763638902233,94.12,2012-12-31 00:00:00,2013-02-28 00:00:00,117.18109076004669,9.487164682820449,79.9900403005087,8.022156285509423
sz002151,2013-04-01,29.9,30.74,29.78,30.29,0.013043,3083233.0,93609558.23,2994336970.0,5497766460.0,0.03118925107817775,95.77,2012-12-31 00:00:00,2013-02-28 00:00:00,119.22787570222683,9.652875598215006,81.38721461378353,8.162278113890585
sz002151,2013-03-29,30.8,31.18,29.66,29.9,-0.029220999999999997,3549310.0,107336513.24,2955783280.0,5426979770.0,0.03590397500320118,94.53,2012-12-31 00:00:00,2013-02-28 00:00:00,117.6928084022365,9.528594144784584,80.33934849141008,8.057188208092436
sz002151,2013-03-28,31.46,31.49,30.8,30.8,-0.040199,4028574.0,125018186.64,3044753340.0,5590333670.0,0.04075209560325172,97.38,2012-12-31 00:00:00,2013-02-28 00:00:00,121.23542886922407,9.815410247630597,82.7576085714772,8.299714155428203
sz002151,2013-03-27,30.88,32.66,30.88,32.09,0.032497000000000005,6270712.0,200160655.87,3172277100.0,5824474270.0,0.06343302988254085,101.46,2012-12-31 00:00:00,2013-02-28 00:00:00,126.31308872279158,10.226505543993596,86.22371571969316,8.647328097624616
sz002151,2013-03-26,31.5,31.9,30.77,31.08,-0.054745,6552982.0,204540985.3,3072432920.0,5641154890.0,0.06628840591904607,98.27,2012-12-31 00:00:00,2013-02-28 00:00:00,122.3374873949189,9.904634632346239,83.50989467252026,8.375160506640325
sz002151,2013-03-25,33.25,33.62,32.5,32.88,-0.002427,3537454.0,116940745.03,3250373050.0,5967862700.0,0.035784042548593,103.96,2012-12-31 00:00:00,2013-02-28 00:00:00,129.42273502379666,10.478267380068067,88.3464194027223,8.860212859641393
sz002151,2013-03-22,33.02,33.96,32.62,32.96,-0.001515,4998502.0,166400647.43,3258281500.0,5982383050.0,0.050563656307780654,104.21,2012-12-31 00:00:00,2013-02-28 00:00:00,129.73760819889537,10.503760005601663,88.56135781814694,8.881768912792742
sz002151,2013-03-21,32.67,33.38,32.4,33.01,0.010098000000000001,4803570.0,158563249.71,3263224280.0,5991458260.0,0.04859177062141742,104.37,2012-12-31 00:00:00,2013-02-28 00:00:00,129.93445890413514,10.519697347082493,88.69573185190258,8.895245209284809
sz002151,2013-03-20,31.46,32.77,31.46,32.68,0.038119,5609651.0,181324385.19,3230601920.0,5931561830.0,0.05674589417689692,103.32,2012-12-31 00:00:00,2013-02-28 00:00:00,128.6354976488768,10.414531408915268,87.80903620431145,8.806319000022581
sz002151,2013-03-19,31.0,31.67,30.6,31.48,0.015484,3277182.0,102401079.5,3111975170.0,5713756620.0,0.03315119296404926,99.53,2012-12-31 00:00:00,2013-02-28 00:00:00,123.91209259138577,10.032117135815131,84.58475011468961,8.48295715618593
sz002151,2013-03-18,32.38,32.38,30.82,31.0,-0.043210000000000005,4502182.0,141908975.57,3064524470.0,5626634540.0,0.04554300132574892,98.01,2012-12-31 00:00:00,2013-02-28 00:00:00,122.02269320972636,9.879148401959194,83.29501017710727,8.353609861096707
sz002151,2013-03-15,32.14,33.28,31.57,32.4,0.00809,4789375.0,155876564.53,3202922350.0,5880740620.0,0.04844817733405244,102.44,2012-12-31 00:00:00,2013-02-28 00:00:00,127.53341193963813,10.325304823377328,87.05673154726458,8.730870787839242
sz002151,2013-03-14,32.07,32.7,31.75,32.14,-0.0067989999999999995,3071960.0,99258208.42,3177219880.0,5833549490.0,0.031075216110003693,101.62,2012-12-31 00:00:00,2013-02-28 00:00:00,126.5099464726742,10.242443455819748,86.35809456225593,8.660804876389253
sz002151,2013-03-13,33.89,34.07,31.27,32.36,-0.044582,6523878.0,211069867.23,3198968120.0,5873480440.0,0.06599399686421382,102.31,2012-12-31 00:00:00,2013-02-28 00:00:00,127.37597573167385,10.312558541342334,86.94926259866425,8.720092787249765
sz002151,2013-03-12,35.37,35.47,33.5,33.87,-0.042408999999999995,6700042.0,229912027.44,3348240120.0,6147552000.0,0.06777602991627732,107.09,2012-12-31 00:00:00,2013-02-28 00:00:00,133.31963154522296,10.793766227287254,91.00651505274575,9.1269923606733
sz002151,2013-03-11,35.02,36.18,35.02,35.37,0.0028350000000000003,4060871.0,144609970.36,3496523560.0,6419808510.0,0.041078804362467955,111.83,2012-12-31 00:00:00,2013-02-28 00:00:00,139.22398137119393,11.271791638901423,95.03693649245423,9.531201066711468
sz002151,2013-03-08,35.6,36.5,35.24,35.27,-0.007318000000000001,5018567.0,180113992.39,3486638000.0,6401658070.0,0.05076662908222764,111.51,2012-12-31 00:00:00,2013-02-28 00:00:00,138.8303971951457,11.239926447422981,94.76826845139455,9.504256499535286
sz002151,2013-03-07,37.3,37.3,35.31,35.53,-0.052533,9945529.0,358634842.06,3512340460.0,6448849200.0,0.10060660388543313,112.33,2012-12-31 00:00:00,2013-02-28 00:00:00,139.853847652265,11.322786599760025,95.46689519039788,9.574321383419148
sz002151,2013-03-06,38.81,38.94,37.13,37.5,-0.027993999999999998,11714644.0,442215929.48,3707086050.0,6806412750.0,0.1185025500015032,118.56,2012-12-31 00:00:00,2013-02-28 00:00:00,147.60814640748964,11.950586774800625,100.76012693887795,10.105176627174504
sz002151,2013-03-05,36.88,38.93,36.58,38.58,0.033762,14459485.0,553102787.38,3813850130.0,7002437440.0,0.14626870807322467,121.98,2012-12-31 00:00:00,2013-02-28 00:00:00,151.85929552645726,12.294766467285823,103.6620421467336,10.396208076055604
sz002151,2013-03-04,36.28,38.7,35.2,37.32,0.028099000000000002,15667002.0,578844441.0,3689292040.0,6773741970.0,0.1584836625294646,117.99,2012-12-31 00:00:00,2013-02-28 00:00:00,146.89966890489035,11.893227326295436,100.27650672662914,10.056674627289071
sz002151,2013-03-01,35.3,37.48,35.22,36.3,0.028329000000000003,13159789.0,480606577.27,3588459300.0,6588607540.0,0.13312129266730152,114.77,2012-12-31 00:00:00,2013-02-28 00:00:00,142.8847503060409,11.568173226795704,97.53584696282084,9.781815396463834
sz002151,2013-02-28,35.48,35.65,34.82,35.3,-0.0045119999999999995,7125566.0,250234251.59,3489603670.0,6407103200.0,0.07208052936280869,111.61,2012-12-31 00:00:00,2013-02-28 00:00:00,138.94847884873508,11.249486523083277,94.84887323300309,9.512340307881848
sz002151,2013-02-27,34.59,35.65,34.35,35.46,0.021313,8743722.0,307735564.75,3505420570.0,6436143900.0,0.08844941025721201,112.11,2012-09-30 00:00:00,2012-10-25 00:00:00,167.1940608791005,11.748899705102339,374.54648399100535,9.803832700902419
sz002151,2013-02-26,35.1,35.67,34.28,34.72,-0.00998,6884058.0,240056889.6,3432267400.0,6301830680.0,0.06963749204388912,109.77,2012-09-30 00:00:00,2012-10-25 00:00:00,163.70501587574088,11.503720901528073,366.73035983190795,9.599244013248065
sz002151,2013-02-25,34.7,35.28,34.51,35.07,0.004871,4060451.0,142138136.88,3466866870.0,6365357200.0,0.04107455576164077,110.88,2012-09-30 00:00:00,2012-10-25 00:00:00,165.35526138435674,11.619685361435197,370.4272235226641,9.696010194994106
sz002151,2013-02-22,34.59,35.59,34.2,34.9,0.005764,5771590.0,202227954.44,3450061420.0,6334501470.0,0.05838403045010137,110.34,2012-09-30 00:00:00,2012-10-25 00:00:00,164.55372021319823,11.563360233736663,368.63161890696824,9.64900986792743
sz002151,2013-02-21,35.28,35.31,33.55,34.7,-0.026920999999999997,7061697.0,244681138.05,3430290290.0,6298200600.0,0.07143444582936449,109.71,2012-09-30 00:00:00,2012-10-25 00:00:00,163.61066832099598,11.497091001205712,366.5190033715346,9.59371171361018
sz002151,2013-02-20,35.56,35.94,34.9,35.66,0.0028120000000000003,4865388.0,172464279.32,3525191690.0,6472444760.0,0.049217106851854625,112.75,2012-09-30 00:00:00,2012-10-25 00:00:00,168.13708683569988,11.815167115111631,376.65904142575744,9.859129334422159
sz002151,2013-02-19,36.25,36.52,35.18,35.56,-0.030005,6224131.0,222471716.79,3515306130.0,6454294330.0,0.06296182755497315,112.43,2012-09-30 00:00:00,2012-10-25 00:00:00,167.66561113718208,11.782036029795844,375.60284622218063,9.831483203653484
sz002151,2013-02-18,35.0,36.97,34.8,36.66,0.052842999999999994,11394165.0,408814752.5,3624047320.0,6653949100.0,0.1152606608072656,115.91,2012-09-30 00:00:00,2012-10-25 00:00:00,172.85203649212838,12.146491507477712,387.22142508175875,10.135601939858951
sz002151,2013-02-08,34.6,35.2,34.6,34.82,-0.0034340000000000004,4342586.0,151511143.92,3442152970.0,6319981120.0,0.04392856617293217,110.09,2012-09-30 00:00:00,2012-10-25 00:00:00,164.176459825566,11.536849755830369,367.78648391237704,9.626888282354493
sz002151,2013-02-07,35.16,35.5,34.58,34.94,-0.010479,5625089.0,196844513.05,3454015640.0,6341761640.0,0.056902061294661646,110.47,2012-09-30 00:00:00,2012-10-25 00:00:00,164.7421844870947,11.57660381332533,369.0538147120984,9.660060931593586
sz002151,2013-02-06,35.17,35.57,34.82,35.31,0.005124,5839670.0,205561963.32,3490592220.0,6408918250.0,0.0590727116500592,111.64,2012-09-30 00:00:00,2012-10-25 00:00:00,166.4867996607396,11.699199727267365,372.96208439446804,9.762360709468101
sz002151,2013-02-05,35.9,36.28,34.71,35.13,-0.019809999999999998,8310391.0,291629405.35,3472798210.0,6376247460.0,0.084065937084781,111.07,2012-09-30 00:00:00,2012-10-25 00:00:00,165.63807018909074,11.639558628853123,371.0607690140402,9.712593380983943
sz002151,2013-02-04,36.08,36.99,35.48,35.84,-0.006652,7860623.0,284282849.7,3542985710.0,6505115550.0,0.07951619096990376,113.31,2012-09-30 00:00:00,2012-10-25 00:00:00,168.98567643935434,11.874798384857142,378.56004347528557,9.908888461404361
sz002151,2013-02-01,35.8,36.98,35.5,36.08,-0.014477,12086025.0,434853822.58,3566711060.0,6548676590.0,0.12225935172892867,114.07,2012-09-30 00:00:00,2012-10-25 00:00:00,170.11729669698266,11.95431851159628,381.095088000666,9.975243783049205
sz002151,2013-01-31,39.95,39.95,36.25,36.61,-0.083605,22246263.0,838465731.91,3619104540.0,6644873890.0,0.22503790079244299,115.75,2012-09-30 00:00:00,2012-10-25 00:00:00,172.61626232668607,12.129923412844022,386.6932461248149,10.121776744986372
sz002151,2013-01-30,36.03,39.95,36.01,39.95,0.099945,27888466.0,1073063542.42,3949282340.0,7251098380.0,0.28211308303168825,126.31,2012-09-30 00:00:00,2012-10-25 00:00:00,188.3644741914634,13.236566560101291,421.97223481666197,11.045211666351706
sz002151,2013-01-29,35.67,37.2,35.0,36.32,0.015944,16097839.0,584292091.01,3590436410.0,6592237630.0,0.16284190714298155,114.83,2012-09-30 00:00:00,2012-10-25 00:00:00,171.24899353282515,12.033844019565787,383.63030407580555,10.04160359504494
sz002151,2013-01-28,34.96,37.1,34.81,35.75,0.017938,14203284.0,512223832.24,3534088700.0,6488780160.0,0.14367703985471558,113.03,2012-09-30 00:00:00,2012-10-25 00:00:00,168.56144977757157,11.844987538255838,377.6096950971762,9.884012893471432
sz002151,2013-01-25,35.75,36.3,34.71,35.12,-0.044094,11434015.0,404327676.38,3471809660.0,6374432420.0,0.11566377368740888,111.04,2012-09-30 00:00:00,2012-10-25 00:00:00,165.59107703766986,11.636256371464508,370.95549542032643,9.709837822609465
sz002151,2013-01-24,36.0,38.5,34.58,36.74,0.006024,25154504.0,916411495.95,3631955770.0,6668469450.0,0.2544569745572645,116.16,2012-09-30 00:00:00,2012-10-25 00:00:00,173.2294567014642,12.173013216220534,388.0669181073519,10.157732896968387
sz002151,2013-01-23,35.33,37.27,34.23,36.52,0.021537999999999998,17955577.0,647441411.2,3610207530.0,6628538500.0,0.1816343427880447,115.46,2012-09-30 00:00:00,2012-10-25 00:00:00,172.1921710629808,12.10012208080576,385.74320106414154,10.096909116450886
sz002151,2013-01-22,35.39,37.0,35.13,35.75,0.009887,17721204.0,637683274.95,3534088700.0,6488780160.0,0.1792634811344718,113.03,2012-09-30 00:00:00,2012-10-25 00:00:00,168.5616893967535,11.84500437654376,377.6102318897011,9.884026944128252
sz002151,2013-01-21,36.15,37.36,34.09,35.4,-0.04013,23108635.0,823704017.74,3499489230.0,6425253640.0,0.23376145066747353,111.92,2012-09-30 00:00:00,2012-10-25 00:00:00,166.91143602873737,11.729039364348447,373.9133505923941,9.787260301527054
sz002151,2013-01-18,34.75,38.36,34.2,36.88,0.039458999999999994,28137077.0,1022026042.2,3645795560.0,6693880060.0,0.2846279728751439,116.6,2012-09-30 00:00:00,2012-10-25 00:00:00,173.88962675022384,12.21940404882791,389.5458245308157,10.196443582492476
sz002151,2013-01-17,40.97,41.45,34.85,35.48,-0.060132000000000005,37777108.0,1447782924.42,3507397680.0,6439773980.0,0.3821442317427774,112.18,2012-09-30 00:00:00,2012-10-25 00:00:00,167.2885864187273,11.755542112606568,374.7582391713533,9.80937543711919
sz002151,2013-01-11,35.98,37.75,34.6,37.75,0.09994199999999999,23549431.0,871010305.13,3731799960.0,6851788840.0,0.23822043779913646,119.35,2012-09-30 00:00:00,2012-10-25 00:00:00,177.99157585823465,12.507652258196435,398.73497041217837,10.436971401429977
sz002151,2013-01-10,30.19,34.32,30.01,34.32,0.1,25795177.0,857139830.19,3392725150.0,6229228950.0,0.26093787014842623,108.51,2012-09-30 00:00:00,2012-10-25 00:00:00,161.81905578497293,11.371192533966735,362.5054506621062,9.488656130441404
sz002151,2013-01-09,31.3,31.38,29.51,31.2,0.093586,29396221.0,904558659.23,3084295590.0,5662935410.0,0.2973651741336504,98.64,2012-09-30 00:00:00,2012-10-25 00:00:00,147.10823253179356,10.337447758151576,329.55040969282385,8.626051027674002
sz002151,2013-01-08,27.47,28.53,26.98,28.53,0.099846,6892453.0,192361313.06,2820351070.0,5178318820.0,0.06972241370291536,90.2,2012-09-30 00:00:00,2012-10-25 00:00:00,134.5191256396786,9.452798187021026,301.34841676175796,7.887857953260195
sz002151,2013-01-07,23.16,25.94,23.02,25.94,0.10008500000000001,13581624.0,338301952.65,2564314990.0,4708222580.0,0.13738847525903986,82.01,2012-09-30 00:00:00,2012-10-25 00:00:00,122.30723723110198,8.594656149152723,273.991464952146,7.171784007270285
sz002151,2013-01-04,24.29,24.5,23.08,23.58,0.02611,24301713.0,579511288.77,2331015710.0,4279872340.0,0.24583034343427912,74.55,2012-09-30 00:00:00,2012-10-25 00:00:00,111.17980631596832,7.812720061770431,249.06390410936066,6.519299878891437
