code,date,open,high,low,close,change,volume,money,traded_market_value,market_value,turnover,adjust_price,report_type,report_date,PE_TTM,PS_TTM,PC_TTM,PB
sz002171,2014-11-21,11.98,13.13,11.83,13.07,0.091896,15974342.0,203899585.94,4233386809.9999995,5204518100.0,0.049318585640890214,31.77,2014-09-30 00:00:00,2014-10-28 00:00:00,109.41728847226244,0.7367940576931657,118.19073758681384,4.815881764911438
sz002171,2014-11-20,12.05,12.1,11.89,11.97,-0.006639,3448317.0,41307174.47,3877095650.0,4766494390.0,0.010646204844082194,29.1,2014-09-30 00:00:00,2014-10-28 00:00:00,100.20852578657899,0.6747840982045595,108.24358509126681,4.410568190479165
sz002171,2014-11-19,12.0,12.11,11.87,12.05,0.003331,4449555.0,53485955.82,3903007740.0,4798350660.0,0.013737389552294355,29.29,2014-09-30 00:00:00,2014-10-28 00:00:00,100.8782565316929,0.6792939306098785,108.96701711791262,4.440045653573238
sz002171,2014-11-18,11.87,12.2,11.77,12.01,0.011793999999999999,4885421.0,58642685.04,3890051690.0,4782422520.0,0.015083065955352382,29.2,2014-09-30 00:00:00,2014-10-28 00:00:00,100.54334664402167,0.6770387146513749,108.60525302010267,4.425304962742343
sz002171,2014-11-17,11.58,12.07,11.51,11.87,0.032174,6381228.0,75896224.59,3844705550.0,4726674050.0,0.01970116446498744,28.86,2014-09-30 00:00:00,2014-10-28 00:00:00,99.37136081457456,0.6691467973237386,107.33929339381599,4.373721293803228
sz002171,2014-11-14,11.7,11.74,11.4,11.5,-0.031170999999999997,5082803.0,58583284.92,3724862160.0,4579338800.0,0.015692455717609695,27.96,2014-09-30 00:00:00,2014-10-28 00:00:00,96.27384609046011,0.6482887549228509,103.99340943854041,4.237387585623382
sz002171,2014-11-13,12.07,12.1,11.3,11.87,-0.020627,7836480.0,92198775.64,3844705550.0,4726674050.0,0.02419405501677495,28.86,2014-09-30 00:00:00,2014-10-28 00:00:00,99.37135045550878,0.6691467275678689,107.33928220412518,4.373720837860326
sz002171,2014-11-12,12.05,12.13,11.7,12.12,-0.004108,5609527.0,67066321.25,3925680810.0,4826224890.0,0.017318643702975943,29.46,2014-09-30 00:00:00,2014-10-28 00:00:00,101.4642536148217,0.6832399173429009,109.60000143369807,4.465837671510574
sz002171,2014-11-11,12.95,13.0,11.92,12.17,-0.05218099999999999,8609000.0,107839424.54,3941875860.0,4846135060.0,0.02657910439625057,29.58,2014-09-30 00:00:00,2014-10-28 00:00:00,101.88278810837089,0.686058244611766,110.05209544177288,4.484259007513439
sz002171,2014-11-10,12.56,12.98,12.47,12.84,0.021480000000000003,6331856.0,80882804.86,4158889570.0,5112931320.0,0.019548735226456133,31.21,2014-09-30 00:00:00,2014-10-28 00:00:00,107.49181869995314,0.723828330738006,116.11087712081408,4.731134327876355
sz002171,2014-11-07,12.9,13.02,12.5,12.57,-0.025581,8737199.0,111500273.66,4071436290.0,5005416410.0,0.026974901142318992,30.56,2014-09-30 00:00:00,2014-10-28 00:00:00,105.2314472138007,0.7086074428652601,113.6692613862377,4.631646559772443
sz002171,2014-11-06,12.37,12.95,12.3,12.9,0.046229,8801839.0,111493180.4,4178323640.0,5136823520.0,0.027174468251578522,31.36,2014-09-30 00:00:00,2014-10-28 00:00:00,107.99404282326259,0.727210207175004,116.65337127687134,4.753239171005947
sz002171,2014-11-05,12.35,12.5,12.12,12.33,-0.00081,4573562.0,56374572.55,3993700030.0,4909847600.0,0.014120244143624377,29.97,2014-09-30 00:00:00,2014-10-28 00:00:00,103.22218445795575,0.6950774707783897,111.49888913122398,4.543211066607737
sz002171,2014-11-04,12.5,12.57,12.08,12.34,-0.018298,9116052.0,112168670.8,3996939040.0,4913829640.0,0.02814455776138132,30.0,2014-09-30 00:00:00,2014-10-28 00:00:00,103.30586220634288,0.6956409399397409,111.58927644514455,4.546894050788876
sz002171,2014-11-03,12.6,12.9,12.41,12.57,-0.007109000000000001,8124733.0,102771848.04,4071436290.0,5005416410.0,0.025083996539707613,30.56,2014-09-30 00:00:00,2014-10-28 00:00:00,105.23138610937217,0.7086070314003037,113.66919538224893,4.631643870328141
sz002171,2014-10-31,12.45,12.8,12.3,12.66,0.0128,8542949.0,107750676.08,4100587380.0,5041254710.0,0.026375180996630783,30.78,2014-09-30 00:00:00,2014-10-28 00:00:00,105.98483228206538,0.7136805866910907,114.48305542325284,4.664805976011607
sz002171,2014-10-30,12.94,13.15,12.4,12.5,-0.033256,10790382.0,136976004.35,4048763210.0,4977542180.0,0.03331382153119298,30.39,2014-09-30 00:00:00,2014-10-28 00:00:00,104.64537152652586,0.7046609268276962,113.0361921635593,4.605851082159961
sz002171,2014-10-29,13.17,13.29,12.79,12.93,-0.010712000000000001,8567494.0,111065175.93,4188040670.0,5148769630.0,0.026450960281624965,31.43,2014-09-30 00:00:00,2014-10-28 00:00:00,108.24517299980745,0.7289012673755371,116.92463792230342,4.764292389877734
sz002171,2014-10-28,12.99,13.07,12.73,13.07,0.013178,9404454.0,121569448.06,4233386809.9999995,5204518100.0,0.029034959311927372,31.77,2014-09-30 00:00:00,2014-10-28 00:00:00,109.41725058810727,0.7367938025888691,118.19069666497867,4.815880097481961
sz002171,2014-10-27,12.23,12.92,12.05,12.9,0.051345,6963357.0,87131046.26,4178323640.0,5136823520.0,0.021498407744211984,31.36,2014-06-30 00:00:00,2014-08-28 00:00:00,134.8877895154625,0.879704794817026,55.10604180504949,4.818439523441628
sz002171,2014-10-24,12.3,12.65,12.05,12.27,0.003271,5970519.0,73618036.65,3974265970.0,4885955400.0,0.018433156885572004,29.83,2014-06-30 00:00:00,2014-08-28 00:00:00,128.30021497744556,0.8367422633075025,52.41480370862989,4.5831192647909385
sz002171,2014-10-23,12.5,12.9,12.03,12.23,-0.025498,8973820.0,110774060.62,3961309930.0,4870027260.0,0.027705435964208942,29.73,2014-06-30 00:00:00,2014-08-28 00:00:00,127.88191323923998,0.8340142028499801,52.24391386637298,4.568176758613513
sz002171,2014-10-22,13.17,13.17,12.51,12.55,-0.047077,9818470.0,125703877.69,4064958270.0,4997452340.0,0.030313176745108385,30.51,2014-06-30 00:00:00,2014-08-28 00:00:00,131.22796386178786,0.8558363172676712,53.610884191487536,4.687703830893639
sz002171,2014-10-21,12.99,13.45,12.84,13.17,0.006111999999999999,12183535.0,160705550.2,4265776920.0,5244338440.0,0.0376149899441999,32.02,2014-06-30 00:00:00,2014-08-28 00:00:00,137.71098384841991,0.8981169698576602,56.2594083587945,4.9192892089850275
sz002171,2014-10-20,13.21,14.08,12.8,13.09,-0.004563,22704655.0,302768116.83,4239864840.0,5212482170.0,0.07009750196423714,31.82,2014-06-30 00:00:00,2014-08-28 00:00:00,136.87440746996353,0.8926610256687729,55.91763974467506,4.889405164618878
sz002171,2014-10-17,12.1,13.48,12.07,13.15,0.073469,21121078.0,273168568.17,4259298900.0000005,5236374370.0,0.06520842566366966,31.97,2014-06-30 00:00:00,2014-08-28 00:00:00,137.50182831255373,0.8967529091934224,56.17396153114166,4.911817789190956
sz002171,2014-10-16,12.0,12.97,11.68,12.25,0.011561,17076559.0,212631892.81,3967787950.0,4877991330.0,0.052721529070120794,29.78,2014-06-30 00:00:00,2014-08-28 00:00:00,128.09110306171274,0.8353784871229839,52.32937470121788,4.575649403188128
sz002171,2014-10-15,11.9,12.11,11.56,12.11,0.020219,13166886.0,156210774.68,3922441800.0,4822242860.0,0.04065095101219857,29.44,2014-06-30 00:00:00,2014-08-28 00:00:00,126.62716639106566,0.8258310543041736,51.73130903743609,4.523354897221352
sz002171,2014-10-14,11.1,12.16,11.08,11.87,0.07420800000000001,21879124.0,257435186.76,3844705550.0,4726674050.0,0.06754878845793534,28.86,2014-06-30 00:00:00,2014-08-28 00:00:00,124.11763198986262,0.8094644917455698,50.70608275030762,4.43370972038489
sz002171,2014-10-13,11.3,11.3,10.85,11.05,-0.024713,7002460.0,77326019.16,3579106680.0,4400147280.0,0.021619132906091527,26.86,2014-06-30 00:00:00,2014-08-28 00:00:00,115.54338823567002,0.7535453950683386,47.203225772203915,4.127421989395806
sz002171,2014-10-10,11.43,11.45,11.24,11.33,-0.012206,4674358.0,52898667.46,3669798980.0,4511644230.0,0.014431437914890913,27.54,2014-06-30 00:00:00,2014-08-28 00:00:00,118.47116616510833,0.7726396384534383,48.39931812092636,4.2320075930426695
sz002171,2014-10-09,11.62,11.7,11.26,11.47,-0.011207,6575105.0,75291410.82,3715145120.0,4567392700.0,0.020299733096294233,27.88,2014-06-30 00:00:00,2014-08-28 00:00:00,119.93509392151435,0.7821870131357737,48.99738014295123,4.284301780576385
sz002171,2014-10-08,11.62,11.8,11.4,11.6,0.0,6673428.0,77548721.65,3757252260.0,4619159140.0,0.020603291832207188,28.2,2014-06-30 00:00:00,2014-08-28 00:00:00,121.29444071864822,0.7910523366728663,49.552717447384055,4.3328601442125745
sz002171,2014-09-30,11.2,11.68,11.16,11.6,0.034789999999999995,8386257.0,95697822.17,3757252260.0,4619159140.0,0.02589141597854811,28.2,2014-06-30 00:00:00,2014-08-28 00:00:00,121.29444071864822,0.7910523366728663,49.552717447384055,4.3328601442125745
sz002171,2014-09-29,11.2,11.35,11.12,11.21,0.0026829999999999996,6923401.0,77690934.87,3630930850.0,4463859820.0,0.021375049103455113,27.25,2014-06-30 00:00:00,2014-08-28 00:00:00,117.21647940031137,0.7644568817565557,47.88673783800003,4.187187877939074
sz002171,2014-09-26,11.5,11.68,11.16,11.18,-0.026132,7701315.0,87189528.63,3621213820.0,4451913720.0,0.023776751658370725,27.18,2014-06-30 00:00:00,2014-08-28 00:00:00,116.90282910980974,0.7624113321523908,47.758601510148296,4.1759837136353894
sz002171,2014-09-25,11.7,12.0,11.41,11.48,-0.013746000000000001,8956177.0,105171922.88,3718384130.0,4571374730.0,0.027650965679008533,27.91,2014-06-30 00:00:00,2014-08-28 00:00:00,120.03970672597286,0.782869271967444,49.04011787033592,4.288038742042443
sz002171,2014-09-24,11.31,11.86,11.27,11.64,0.021053,11783283.0,135985062.15,3770208300.0,4635087270.0,0.03637926692803684,28.3,2014-06-30 00:00:00,2014-08-28 00:00:00,121.7127704688375,0.793780579817617,49.72361873344586,4.347803651029494
sz002171,2014-09-23,11.05,11.6,10.96,11.4,0.036364,11745342.0,132517195.75,3692472050.0,4539518460.0,0.036262129269197856,27.71,2014-06-30 00:00:00,2014-08-28 00:00:00,119.20318579822744,0.7774136894143762,48.69837190963238,4.258156678477508
sz002171,2014-09-22,11.1,11.5,10.94,11.0,-0.010791,11525338.0,129837241.28,3562911630.0,4380237110.0,0.03558289712619114,26.74,2014-06-30 00:00:00,2014-08-28 00:00:00,115.02057751738523,0.7501357528960637,46.989640618192425,4.108746230549795
sz002171,2014-09-19,10.88,11.28,10.72,11.12,0.02112,7290377.0,80557536.93,3601779750.0,4428021520.0,0.022508037100269666,27.03,2014-06-30 00:00:00,2014-08-28 00:00:00,116.2753043263711,0.7583187707512403,47.50223726047015,4.1535673761053475
sz002171,2014-09-18,10.52,10.96,10.48,10.89,0.00647,7148185.0,77011979.88,3527282510.0,4336434740.0,0.022069038822183824,26.47,2014-06-30 00:00:00,2014-08-28 00:00:00,113.87036227512056,0.7426343336250786,46.5197403443965,4.067658430062429
sz002171,2014-09-17,10.88,11.28,10.38,10.82,0.030476,13139042.0,142791340.81,3504609440.0,4308560510.0,0.04056498644824742,26.3,2014-06-30 00:00:00,2014-08-28 00:00:00,113.13835710465345,0.7378603769859794,46.22069246415343,4.041509861260076
sz002171,2014-09-16,11.31,11.51,10.5,10.5,-0.073257,12508366.0,137503228.27,3400961100.0,4181135430.0,0.03861786099229421,25.53,2014-06-30 00:00:00,2014-08-28 00:00:00,109.7923261722286,0.7160383909823997,44.85373018309347,3.9219834923473
sz002171,2014-09-15,11.43,11.46,11.14,11.33,-0.012206,9044641.0,101990477.47,3669798980.0,4511644230.0,0.027924086057160548,27.54,2014-06-30 00:00:00,2014-08-28 00:00:00,118.47116856801574,0.772639654124606,48.39931910259206,4.232007678878934
sz002171,2014-09-12,11.4,11.55,11.03,11.47,0.0017469999999999999,9843993.0,110668387.17,3715145120.0,4567392700.0,0.03039197556568127,27.88,2014-06-30 00:00:00,2014-08-28 00:00:00,119.93509635411407,0.7821870290005872,48.9973811367472,4.284301867473314
sz002171,2014-09-11,11.37,11.86,11.2,11.45,0.007036,12346851.0,142112670.32,3708667100.0,4559428630.0,0.03811920567095386,27.83,2014-06-30 00:00:00,2014-08-28 00:00:00,119.72593514541502,0.7808229313395371,48.91193199155795,4.276830245035237
sz002171,2014-09-10,11.3,11.62,11.12,11.37,-0.019828,13836376.0,157105618.58,3682755020.0,4527572360.0,0.04271790935471998,27.64,2014-06-30 00:00:00,2014-08-28 00:00:00,118.88942912211185,0.7753674459895546,48.57019211980302,4.246948713884347
sz002171,2014-09-09,11.2,11.95,10.83,11.6,0.032947000000000004,24239852.0,276064262.58,3757252260.0,4619159140.0,0.07483721180861037,28.2,2014-06-30 00:00:00,2014-08-28 00:00:00,121.29445558750079,0.7910524336438447,49.552723521793126,4.332860675355291
sz002171,2014-09-05,10.46,11.23,10.46,11.23,0.099902,26798725.0,294948803.36,3637408870.0,4471823890.0,0.08273738051064905,27.3,2014-06-30 00:00:00,2014-08-28 00:00:00,117.42563324885091,0.7658209314164665,47.97218397632514,4.194659237458739
sz002171,2014-09-04,10.0,10.45,9.98,10.21,0.017946,13246893.0,135905434.0,3307029790.0,4065656450.0,0.040897961650959304,24.82,2014-06-30 00:00:00,2014-08-28 00:00:00,106.76008703398205,0.6962628774349591,43.61496203873176,3.8136663425093675
sz002171,2014-09-03,9.42,10.35,9.4,10.03,0.065887,18393926.0,185440920.86,3248727600.0,3993979840.0,0.056788718690973045,24.38,2014-06-30 00:00:00,2014-08-28 00:00:00,104.87794739011896,0.6839880282794559,42.84604688139819,3.7464328584319473
sz002171,2014-09-02,9.26,9.42,9.26,9.41,0.016199,5893244.0,55039482.62,3047908950.0,3747093750.0,0.018194580924079114,22.88,2014-06-30 00:00:00,2014-08-28 00:00:00,98.39499627082323,0.6417078248251981,40.19755084863422,3.514849940408268
sz002171,2014-09-01,9.15,9.3,9.06,9.26,0.019824,4449650.0,40866499.53,2999323790.0,3687363240.0,0.01373768285284064,22.51,2014-06-30 00:00:00,2014-08-28 00:00:00,96.82650373679093,0.6314785045303115,39.55677071974507,3.458820507015129
sz002171,2014-08-29,9.05,9.1,9.01,9.08,0.003315,1776339.0,16080255.65,2941021600.0,3615686640.0,0.005484202536968787,22.07,2014-06-30 00:00:00,2014-08-28 00:00:00,94.94432739059968,0.6192034160113034,38.787840568318714,3.391585711863154
sz002171,2014-08-28,9.15,9.16,9.02,9.05,-0.005495,3543274.0,32145519.81,2931304570.0,3603740530.0,0.01093937150993491,22.0,2014-06-30 00:00:00,2014-08-28 00:00:00,94.63062686255033,0.6171575387702799,38.65968371679753,3.3803797529820185
sz002171,2014-08-27,9.14,9.14,8.93,9.1,0.002203,3740297.0,33798167.41,2947499620.0,3623650700.0,0.011547652956101145,22.12,2014-03-31 00:00:00,2014-04-29 00:00:00,176.4680607346083,0.770824209437623,39.03149228090144,4.813192655001047
sz002171,2014-08-26,9.17,9.36,8.99,9.08,-0.021552,4811010.0,43933910.98,2941021600.0,3615686640.0,0.014853332189059747,22.07,2014-03-31 00:00:00,2014-04-29 00:00:00,176.08015615060847,0.7691298164519793,38.94569491500368,4.802612499664286
sz002171,2014-08-25,9.22,9.47,9.22,9.28,0.010893,8001908.0,74820719.68,3005801810.0,3695327310.0,0.024704791245035544,22.56,2014-03-31 00:00:00,2014-04-29 00:00:00,179.9586244241988,0.7860712234599889,39.803540826905135,4.908398299822051
sz002171,2014-08-22,9.04,9.31,8.87,9.18,0.013244999999999998,7743052.0,70536899.37,2973411700.0,3655506970.0,0.023905608954185524,22.32,2014-03-31 00:00:00,2014-04-29 00:00:00,178.0194584631596,0.777600817752214,39.37463295017884,4.855507259247072
sz002171,2014-08-21,9.06,9.29,9.02,9.06,0.008909,6672558.0,60845711.21,2934543580.0,3607722570.0,0.0206006057950586,22.02,2014-03-31 00:00:00,2014-04-29 00:00:00,175.69241246012527,0.7674361262599018,38.85993313579524,4.792036732722168
sz002171,2014-08-20,9.01,9.05,8.93,8.98,-0.002222,2220987.0,19987529.4,2908631490.0,3575866300.0,0.006856992138251244,21.83,2014-03-31 00:00:00,2014-04-29 00:00:00,174.14099037685781,0.7606594115622931,38.51678707970216,4.749721464197631
sz002171,2014-08-19,9.08,9.09,8.92,9.0,-0.007718000000000001,3172991.0,28562330.63,2915109510.0,3583830370.0,0.0097961736607281,21.88,2014-03-31 00:00:00,2014-04-29 00:00:00,174.52879335569418,0.762353360729835,38.60256197240485,4.760298848238417
sz002171,2014-08-18,8.9,9.09,8.9,9.07,0.021396000000000002,3305932.0,29755355.37,2937782590.0,3611704600.0,0.010206610707703867,22.05,2014-03-31 00:00:00,2014-04-29 00:00:00,175.88628369323857,0.7682829686821234,38.90281389000793,4.797324599497337
sz002171,2014-08-15,8.9,9.0,8.81,8.88,-0.002247,4032600.0,35905753.32,2876241390.0,3536045960.0,0.012450098286083006,21.59,2014-03-31 00:00:00,2014-04-29 00:00:00,172.2018528496671,0.752189130055457,38.08788549202065,4.6968311991601075
sz002171,2014-08-14,9.15,9.15,8.9,8.9,-0.027322000000000003,4402759.0,39684824.05,2882719410.0,3544010030.0,0.013592913331790416,21.64,2014-03-31 00:00:00,2014-04-29 00:00:00,172.58966181977615,0.7538831053932756,38.173661709882765,4.707408746613749
sz002171,2014-08-13,9.13,9.15,8.91,9.15,0.004391,6189747.0,56086037.31,2963694670.0,3643560870.0,0.019109993220050567,22.24,2014-03-31 00:00:00,2014-04-29 00:00:00,177.43761226199845,0.7750592749021522,39.24593926241034,4.839637317399744
sz002171,2014-08-12,9.03,9.16,8.96,9.11,0.0022,5383542.0,48844429.7,2950738630.0,3627632740.0,0.01662094606461298,22.15,2014-03-31 00:00:00,2014-04-29 00:00:00,176.66188990343247,0.7716708681202361,39.07436373126634,4.818479374466461
sz002171,2014-08-11,8.93,9.1,8.84,9.09,0.01,8567561.0,77238276.2,2944260610.0,3619668670.0,0.0264511671370015,22.1,2014-03-31 00:00:00,2014-04-29 00:00:00,176.27408691222558,0.7699769188986592,38.98858883582753,4.807901990088268
sz002171,2014-08-08,8.94,9.06,8.75,9.0,0.007839,7179624.0,63655893.18,2915109510.0,3583830370.0,0.02216610243228907,21.88,2014-03-31 00:00:00,2014-04-29 00:00:00,174.52879892299563,0.7623533850481774,38.60256320378963,4.760299000087393
sz002171,2014-08-07,8.9,9.14,8.86,8.93,-0.008879000000000001,6791095.0,61004130.78,2892436440.0,3555956130.0,0.020966572510060066,21.71,2014-03-31 00:00:00,2014-04-29 00:00:00,173.17130903149774,0.7564237790442496,38.30231138484384,4.723273260994459
sz002171,2014-08-06,8.96,9.1,8.8,9.01,0.0,5497311.0,49254764.64,2918348520.0,3587812400.0,0.016972192241795712,21.9,2014-03-31 00:00:00,2014-04-29 00:00:00,174.7226716329265,0.7632002339212364,38.645444284647226,4.765586907142981
sz002171,2014-08-05,9.15,9.19,8.97,9.01,-0.008801,4961247.0,44982037.98,2918348520.0,3587812400.0,0.015317168310658111,21.9,2014-03-31 00:00:00,2014-04-29 00:00:00,174.7226716329265,0.7632002339212364,38.645444284647226,4.765586907142981
sz002171,2014-08-04,8.97,9.1,8.91,9.09,0.014509000000000001,5378310.0,48443036.59,2944260610.0,3619668670.0,0.01660479297720863,22.1,2014-03-31 00:00:00,2014-04-29 00:00:00,176.27405963174547,0.7699767997357102,38.98858280188663,4.807901246009107
sz002171,2014-08-01,9.02,9.11,8.88,8.96,-0.017544,4833900.0,43343271.82,2902153470.0,3567902230.0,0.014924001934329134,21.78,2014-03-31 00:00:00,2014-04-29 00:00:00,173.75307624845658,0.7589649768860701,38.4309876027582,4.739141048535899
sz002171,2014-07-31,8.85,9.14,8.85,9.12,0.031674,6744075.0,60801883.33,2953977640.0,3631614770.0,0.020821404728033076,22.17,2014-03-31 00:00:00,2014-04-29 00:00:00,176.8558350180126,0.7725180332616118,39.11726082670186,4.823769256369649
sz002171,2014-07-30,8.9,8.93,8.74,8.84,-0.017778,5848770.0,51601725.65,2863285340.0,3520117830.0,0.018057273607247258,21.49,2014-03-31 00:00:00,2014-04-29 00:00:00,171.4260851955294,0.7488005254194754,37.91629994232854,4.675672020783356
sz002171,2014-07-29,9.09,9.1,8.88,9.0,-0.004425,6608862.0,59265673.97,2915109510.0,3583830370.0,0.020403953194883577,21.88,2014-03-31 00:00:00,2014-04-29 00:00:00,174.52885925537137,0.7623536485840017,38.602576548202485,4.760300645661934
sz002171,2014-07-28,8.95,9.36,8.88,9.04,0.01459,8636501.0,78553223.14,2928065560.0,3599758500.0,0.026664009886445298,21.98,2014-03-31 00:00:00,2014-04-29 00:00:00,175.30458203085794,0.7657420571870543,38.774152171561646,4.781458599966786
sz002171,2014-07-25,8.95,9.26,8.9,8.91,-0.004469,8102666.0,73546982.94,2885958420.0,3547992060.0,0.025015867713021313,21.66,2014-03-31 00:00:00,2014-04-29 00:00:00,172.7836683102119,0.754730538628465,38.21657238052971,4.712700302552544
sz002171,2014-07-24,8.7,8.97,8.6,8.95,0.005618,5372685.0,47405452.78,2898914460.0,3563920200.0,0.016587426574152863,21.76,2014-03-31 00:00:00,2014-04-29 00:00:00,173.55930484355775,0.7581185705201193,38.38812892871212,4.733855904590157
sz002171,2014-07-23,8.6,9.3,8.49,8.9,0.037295999999999996,10015976.0,89500912.56,2882719410.0,3544010030.0,0.030922949382714983,21.64,2014-03-31 00:00:00,2014-04-29 00:00:00,172.58969593181286,0.7538832543969175,38.173669254838444,4.707409677024633
sz002171,2014-07-22,8.3,8.67,8.3,8.58,0.034982,3124543.0,26714281.39,2779071070.0,3416584950.0,0.00964659710555729,20.86,2014-03-31 00:00:00,2014-04-29 00:00:00,166.3842297008885,0.7267773657634056,36.801134155379415,4.5381546607956
sz002171,2014-07-21,8.39,8.43,8.26,8.29,-0.015438999999999998,2041611.0,16983177.74,2685139760.0,3301105970.0,0.006303193391319042,20.15,2014-03-31 00:00:00,2014-04-29 00:00:00,160.76050569081247,0.702212565787043,35.557269745154414,4.384766750335367
sz002171,2014-07-18,8.25,8.5,8.25,8.42,-0.011737000000000001,2643374.0,22129558.25,2727246900.0,3352872410.0,0.008161053947847552,20.47,2014-03-31 00:00:00,2014-04-29 00:00:00,163.2814073387149,0.7132240316110866,36.114846865917315,4.453524718463729
sz002171,2014-07-17,8.46,8.74,8.37,8.52,0.007092,3023085.0,25942974.25,2759637010.0,3392692750.0,0.00933335946237364,20.71,2014-03-31 00:00:00,2014-04-29 00:00:00,165.2206015389779,0.7216945606696665,36.54376098864099,4.506416529267745
sz002171,2014-07-16,8.58,8.72,8.45,8.46,-0.019699,2927260.0,25099682.77,2740202940.0,3368800540.0,0.009037512966101701,20.57,2014-03-31 00:00:00,2014-04-29 00:00:00,164.05710852531632,0.7166123459124554,36.2864177142118,4.474682083928523
sz002171,2014-07-15,8.64,8.77,8.6,8.63,-0.006904,3049527.0,26473339.16,2795266120.0,3436495120.0,0.009414995524647937,20.98,2014-03-31 00:00:00,2014-04-29 00:00:00,167.353811253193,0.7310125623787544,37.01558777784762,4.564600142128309
sz002171,2014-07-14,8.49,8.8,8.49,8.69,0.025974,4085822.0,35387283.08,2814700190.0,3460387320.0,0.012614413892514782,21.13,2014-03-31 00:00:00,2014-04-29 00:00:00,168.51725437741467,0.7360945592155789,37.272920017649476,4.596333226725623
sz002171,2014-07-11,8.45,8.52,8.35,8.47,0.004745,2373986.0,20043960.03,2743441950.0,3372782580.0,0.007329355527278426,20.59,2014-03-31 00:00:00,2014-04-29 00:00:00,164.2509989311763,0.7174592720825079,36.32930270908374,4.479970473643215
sz002171,2014-07-10,8.26,8.49,8.22,8.43,0.013221,2732168.0,22836371.54,2730485910.0,3356854440.0,0.00843519322170756,20.49,2014-03-31 00:00:00,2014-04-29 00:00:00,163.47530859190772,0.7140710051630094,36.15773426001994,4.45881340404104
sz002171,2014-07-09,8.6,8.64,8.32,8.32,-0.034803,4804009.0,40765099.49,2694856790.0,3313052070.0,0.014831717599360819,20.23,2014-03-31 00:00:00,2014-04-29 00:00:00,161.34220332179032,0.7047534596726769,35.68593057192848,4.400632639908806
sz002171,2014-07-08,8.54,8.68,8.47,8.62,0.009368000000000001,3144311.0,26996190.16,2792027110.0,3432513080.0,0.009707628096777327,20.95,2014-03-31 00:00:00,2014-04-29 00:00:00,167.159868215287,0.7301654063084294,36.972691141734266,4.5593103168667195
sz002171,2014-07-07,8.59,8.6,8.45,8.54,-0.012717000000000001,2825763.0,24070336.91,2766115030.0,3400656810.0,0.008724154909783342,20.76,2014-03-31 00:00:00,2014-04-29 00:00:00,165.60844827187603,0.723388700957856,36.629545558938126,4.516995106707086
sz002171,2014-07-04,8.63,8.7,8.46,8.65,-0.001155,4664558.0,39941096.43,2801744140.0,3444459190.0,0.014401181793852169,21.03,2014-03-31 00:00:00,2014-04-29 00:00:00,167.74161843349475,0.7327065298985761,37.10136359983725,4.57517764076469
sz002171,2014-07-03,8.85,8.95,8.6,8.66,0.012865000000000001,7625422.0,66647095.18,2804983150.0,3448441220.0,0.02354244249916439,21.05,2014-03-31 00:00:00,2014-04-29 00:00:00,167.93558403305295,0.7335537845196964,37.14426522617348,4.580468081398706
sz002171,2014-07-02,8.61,8.69,8.32,8.55,0.015438999999999998,7348375.0,62578261.6,2769354040.0,3404638850.0,0.02268709790894053,20.78,2014-03-31 00:00:00,2014-04-29 00:00:00,165.80253442764135,0.7242364821764958,36.672473850092054,4.5222888355296185
sz002171,2014-07-01,8.2,8.53,8.2,8.42,0.038224,6603223.0,55427960.42,2727246900.0,3352872410.0,0.020386543535900616,20.47,2014-03-31 00:00:00,2014-04-29 00:00:00,163.28162935207467,0.7132250013801872,36.11489597119281,4.4535307739112024
sz002171,2014-06-30,8.15,8.24,8.07,8.11,-0.008556999999999999,3724346.0,30265233.42,2621059200.0,3229429360.0,0.01152375576255584,19.72,2014-03-31 00:00:00,2014-04-29 00:00:00,157.27013568562725,0.6869663977910231,34.78526403858205,4.289566388285383
sz002171,2014-06-27,8.3,8.45,8.16,8.18,-0.015643999999999998,5026380.0,41641619.86,2643682400.0,3257303600.0,0.015552468934997636,19.89,2014-03-31 00:00:00,2014-04-29 00:00:00,158.62751129981982,0.6928955046240916,35.08549058148784,4.326589010447785
sz002171,2014-06-26,8.2,8.5,8.2,8.31,0.017136000000000002,5598415.0,46767936.09,2685696910.0,3309070040.0,0.017322441887159933,20.2,2014-03-31 00:00:00,2014-04-29 00:00:00,161.1485187267816,0.7039074324980916,35.64309109863488,4.395349863715754
sz002171,2014-06-25,8.22,8.25,8.08,8.17,-0.016847,3222548.0,26262465.78,2640450510.0,2663746800.0,0.009971107983387274,19.86,2014-03-31 00:00:00,2014-04-29 00:00:00,158.4336005477946,0.6920484895806379,35.04260108641803,4.321300065788404
sz002171,2014-06-24,8.24,8.38,8.1,8.31,0.0012050000000000001,6825530.0,56237503.44,2685696910.0,2709392400.0,0.02111934302370702,20.2,2014-03-31 00:00:00,2014-04-29 00:00:00,161.1484688016968,0.7039072144220054,35.643080056123544,4.395348502001625
sz002171,2014-06-23,7.78,8.48,7.78,8.3,0.069588,8609164.0,70365139.12,2682465020.0,2706132000.0,0.026638208016595128,20.18,2014-03-31 00:00:00,2014-04-29 00:00:00,160.95451860677562,0.7030600270893628,35.60018183700995,4.39005848153138
sz002171,2014-06-20,7.63,7.84,7.6,7.76,0.014379,2588319.0,20022087.98,2507943200.0,2530070400.0,0.00800869630540277,18.86,2014-03-31 00:00:00,2014-04-29 00:00:00,150.48272662630438,0.6573185442332589,33.28401387918521,4.104438794686722
sz002171,2014-06-19,7.98,8.04,7.59,7.65,-0.042553,3946248.0,30871287.71,2472392460.0,2494206000.0,0.012210358059415859,18.6,2014-03-31 00:00:00,2014-04-29 00:00:00,148.34960761836,0.6480009387351857,32.81220715253886,4.046257655853209
sz002171,2014-06-18,8.1,8.14,7.89,7.99,-0.018428,3884573.0,31033246.31,2582276570.0,2605059600.0,0.012019525185871164,19.42,2014-03-31 00:00:00,2014-04-29 00:00:00,154.94289252393082,0.6768008450965805,34.27052061632535,4.226090484228587
sz002171,2014-06-17,8.13,8.19,7.98,8.14,0.0,4685240.0,37801499.61,2630754850.0,2653965600.0,0.01449692418128584,19.79,2014-03-31 00:00:00,2014-04-29 00:00:00,157.85178522200184,0.6895070815962357,34.913914227713654,4.3054309660713495
sz002171,2014-06-16,8.0,8.24,7.96,8.14,0.009926,5938869.0,48099195.32,2630754850.0,2653965600.0,0.01837586412128063,19.79,2014-03-31 00:00:00,2014-04-29 00:00:00,157.85178522200184,0.6895070815962357,34.913914227713654,4.3054309660713495
sz002171,2014-06-13,7.9,8.14,7.82,8.06,0.021546,7703989.0,61815788.44,2604899770.0,2627882400.0,0.023837443595766453,19.59,2014-03-31 00:00:00,2014-04-29 00:00:00,156.30034796807075,0.6827303006321609,34.57076481614856,4.263115283764701
sz002171,2014-06-12,7.87,8.1,7.81,7.89,-0.003788,7087300.0,56423935.93,2549957710.0,2572455600.0,0.02192930368245205,19.18,2014-03-31 00:00:00,2014-04-29 00:00:00,153.00372960989594,0.6683304526983228,33.841613413540415,4.173199526761106
sz002171,2014-06-11,7.51,8.08,7.47,7.92,0.054594000000000004,11627502.0,91168358.89,2559653370.0,2582236800.0,0.03597745574432994,19.25,2014-03-31 00:00:00,2014-04-29 00:00:00,153.58551152756237,0.6708717147538104,33.970292882981155,4.189067715266536
sz002171,2014-06-10,7.52,7.55,7.38,7.51,0.001333,2173659.0,16217750.61,2427146060.0,2448560400.0,0.00672566820721123,18.26,2014-03-31 00:00:00,2014-04-29 00:00:00,145.63472912567525,0.6361421691701359,32.21172591820279,3.972208940375667
sz002171,2014-06-09,7.53,7.63,7.43,7.5,-0.010554000000000001,1960004.0,14771171.59,2423914180.0,2445300000.0,0.006064583524157609,18.23,2014-03-31 00:00:00,2014-04-29 00:00:00,145.4408564640087,0.6352953205078988,32.16884484802037,3.966921034636496
sz002171,2014-06-06,7.58,7.7,7.48,7.58,-0.001318,3403271.0,25906119.39,2449769260.0,2471383200.0,0.010530295485869555,18.43,2014-03-31 00:00:00,2014-04-29 00:00:00,146.9922122723309,0.6420717457121448,32.51197624531341,4.0092344955020245
sz002171,2014-06-05,7.4,7.64,7.4,7.59,0.024291,3374550.0,25506635.34,2453001150.0,2474643600.0,0.010441427840341615,18.45,2014-03-31 00:00:00,2014-04-29 00:00:00,147.18620368879274,0.6429191131032149,32.55488358187432,4.014525640295934
sz002171,2014-06-04,7.54,7.55,7.4,7.41,-0.021136000000000002,2082230.0,15540597.21,2394827210.0,2415956400.0,0.006442771418151709,18.01,2014-03-31 00:00:00,2014-04-29 00:00:00,143.6956916430904,0.6276723246647826,31.78284645854969,3.9193214040696778
sz002171,2014-06-03,7.5,7.65,7.49,7.57,0.013387,4593541.0,34802691.01,2446537380.0,2468122800.0,0.014213191939867274,18.4,2014-03-31 00:00:00,2014-04-29 00:00:00,146.7984231140285,0.6412252617981482,32.469113644540705,4.003948867329555
sz002171,2014-05-30,7.23,7.47,7.22,7.47,0.030345,2036126.0,15030888.6,2414218520.0,2435518800.0,0.00630011786174186,18.16,2014-03-31 00:00:00,2014-04-29 00:00:00,144.85919309605168,0.6327545762854154,32.0401915995969,3.9510560795920564
sz002171,2014-05-29,7.44,7.47,7.25,7.25,-0.025537999999999998,1119290.0,8253518.13,2343117040.0,2363790000.0,0.0034632723681613446,17.62,2014-03-31 00:00:00,2014-04-29 00:00:00,140.59290150003318,0.6141191312477039,31.096566295364077,3.834692340519007
sz002171,2014-05-28,7.4,7.46,7.36,7.44,0.002695,1177877.0,8749433.07,2404522860.0,2425737600.0,0.0036445504535565117,18.09,2014-03-31 00:00:00,2014-04-29 00:00:00,144.27745925447388,0.6302135242294761,31.91152276370353,3.935189202369109
sz002171,2014-05-27,7.45,7.45,7.36,7.42,0.0,815610.0,6032460.8,2398059090.0,2419216800.0,0.0025236351452874333,18.04,2014-03-31 00:00:00,2014-04-29 00:00:00,143.88967657610135,0.6285196637357086,31.8257523610904,3.9246123720264983
sz002171,2014-05-26,7.27,7.42,7.27,7.42,0.022039,1182650.0,8699984.72,2398059090.0,2419216800.0,0.003659318920285655,18.04,2014-03-31 00:00:00,2014-04-29 00:00:00,143.88967657610135,0.6285196637357086,31.8257523610904,3.9246123720264983
sz002171,2014-05-23,7.18,7.27,7.17,7.26,0.00554,576633.0,4167624.88,2346348920.0,2367050400.0,0.00178419993050309,17.65,2014-03-31 00:00:00,2014-04-29 00:00:00,140.78687464578292,0.6149664188310902,31.139469590779218,3.8399829869765227
sz002171,2014-05-22,7.34,7.41,7.22,7.22,-0.016349000000000002,672893.0,4940797.47,2333421380.0,2354008800.0,0.002082044632675818,17.55,2014-03-31 00:00:00,2014-04-29 00:00:00,140.0112125283757,0.6115782751865565,30.96790738387256,3.818826687129823
sz002171,2014-05-21,7.33,7.34,7.22,7.34,0.002732,672567.0,4893498.0,2372204010.0,2393133600.0,0.0020810359308009096,17.84,2014-03-31 00:00:00,2014-04-29 00:00:00,142.3383014182629,0.6217431540114904,31.48261668403993,3.88229838340003
sz002171,2014-05-20,7.4,7.5,7.31,7.32,-0.010811,776012.0,5723767.1,2365740240.0,2386612800.0,0.0024011122370729936,17.79,2014-03-31 00:00:00,2014-04-29 00:00:00,141.95049267228222,0.6200491796526794,31.396840515750903,3.871720842059524
sz002171,2014-05-19,7.23,7.45,7.16,7.4,0.023513,1961777.0,14356763.23,2391595320.0,2412696000.0,0.0060700694965400755,17.99,2014-03-31 00:00:00,2014-04-29 00:00:00,143.50189162261432,0.6268257933040898,31.73998145526376,3.914035479629802
sz002171,2014-05-16,7.27,7.3,7.15,7.23,-0.006868000000000001,1058290.0,7631937.1,2336653270.0,2357269200.0,0.0032745280603827033,17.58,2014-03-31 00:00:00,2014-04-29 00:00:00,140.2052456809189,0.6124258248836018,31.010823951687726,3.8241189702815714
sz002171,2014-05-15,7.37,7.47,7.28,7.28,-0.017544,1744859.0,12871261.09,2352812690.0,2373571200.0,0.00539888856175797,17.7,2014-03-31 00:00:00,2014-04-29 00:00:00,141.17483444387946,0.6166610529955754,31.225279169020563,3.850564648286
sz002171,2014-05-14,7.41,7.49,7.35,7.41,-0.0026920000000000004,1719012.0,12769843.73,2394827210.0,2415956400.0,0.005318913559529834,18.01,2014-03-31 00:00:00,2014-04-29 00:00:00,143.6958341583536,0.6276729471809174,31.782877980307067,3.91932529119472
sz002171,2014-05-13,7.59,7.65,7.38,7.43,-0.02108,3796417.0,28375790.21,2401290980.0,2422477200.0,0.011746755618096728,18.06,2014-03-31 00:00:00,2014-04-29 00:00:00,144.08370749894075,0.6293672036932596,31.868668435736065,3.9299045943627444
sz002171,2014-05-12,7.27,7.66,7.2,7.59,0.051247,4948645.0,37296108.94,2453001150.0,2474643600.0,0.015311943718412034,18.45,2014-03-31 00:00:00,2014-04-29 00:00:00,147.18639674226776,0.6429199563736154,32.55492628175547,4.014530905858236
sz002171,2014-05-09,7.08,7.33,7.06,7.22,0.023371,1530339.0,11034441.22,2333421380.0,2354008800.0,0.004735127429062984,17.55,2014-03-31 00:00:00,2014-04-29 00:00:00,140.01124069059674,0.6115783982010083,30.967913612838345,3.818827455258598
sz002171,2014-05-08,7.04,7.16,7.0,7.06,-0.004231,688910.0,4881457.76,2281711210.0,2301842400.0,0.002131603937730577,17.15,2014-03-31 00:00:00,2014-04-29 00:00:00,136.8137661616332,0.5976116170978153,30.260691003397934,3.731615860971826
sz002171,2014-05-07,7.11,7.18,7.06,7.09,-0.011158,619138.0,4394733.23,2291406870.0,2311623600.0,0.00191571757834522,17.22,2014-03-31 00:00:00,2014-04-29 00:00:00,137.39508476527507,0.6001508553668725,30.389267996290236,3.7474714125181903
sz002171,2014-05-06,7.1,7.26,7.1,7.17,0.004202,931167.0,6707567.85,2317261950.0,2337706800.0,0.002881188028828592,17.42,2014-03-31 00:00:00,2014-04-29 00:00:00,138.9454379620557,0.6069229010973164,30.732177634334136,3.7897575270045065
sz002171,2014-05-05,7.1,7.17,7.04,7.14,0.004219,898382.0,6384829.34,2307566300.0,2327925600.0,0.002779745691380568,17.35,2014-03-31 00:00:00,2014-04-29 00:00:00,138.3640322983381,0.6043832825440663,30.603581385352882,3.773899600881602
sz002171,2014-04-30,7.02,7.11,7.02,7.11,0.005658,495236.0,3509314.11,2297870640.0,2318144400.0,0.0015323438572677878,17.27,2014-03-31 00:00:00,2014-04-29 00:00:00,137.782726973238,0.6018441022765615,30.47500732943002,3.758044411509444
sz002171,2014-04-29,7.0,7.1,6.96,7.07,0.011445,810807.0,5708516.16,2284943100.0,2305102800.0,0.0025087738464909695,17.18,2014-03-31 00:00:00,2014-04-29 00:00:00,137.00753832141544,0.5984580267611469,30.303549844410348,3.736901025507125
sz002171,2014-04-28,7.06,7.15,6.89,6.99,-0.012712000000000001,1905854.0,13316248.1,2259088010.0,2279019600.0,0.005897034290399337,16.98,2013-12-31 00:00:00,2014-03-31 00:00:00,198.64145377795694,0.5925128284214933,15.691032571810723,3.698640506122883
sz002171,2014-04-25,7.3,7.39,7.02,7.08,-0.035422,1418898.0,10234455.06,2288174980.0,2308363200.0,0.004390310150144199,17.2,2013-12-31 00:00:00,2014-03-31 00:00:00,201.19909669514567,0.6001418313820217,15.893065216847289,3.746263001396638
sz002171,2014-04-24,7.48,7.48,7.34,7.34,-0.014765,871700.0,6450319.0,2372204010.0,2393133600.0,0.0026971870770929186,17.83,2013-12-31 00:00:00,2014-03-31 00:00:00,208.58768984482924,0.6221807167300331,16.47670299016491,3.883836249009036
sz002171,2014-04-23,7.56,7.6,7.4,7.45,-0.015852,915826.0,6855909.34,2407754750.0,2428998000.0,0.0028337203778748647,18.1,2013-12-31 00:00:00,2014-03-31 00:00:00,211.7136417654968,0.6315048863773952,16.723627347957503,3.9420404766467247
sz002171,2014-04-22,7.48,7.6,7.25,7.57,0.0066489999999999995,1962964.0,14589316.61,2446537380.0,2468122800.0,0.006073742261808401,18.39,2013-12-31 00:00:00,2014-03-31 00:00:00,215.12378398929505,0.6416767461574835,16.99300039014203,4.005536237076867
sz002171,2014-04-21,7.64,7.71,7.5,7.52,-0.022106999999999998,2790851.0,21211886.68,2430377950.0,2451820800.0,0.008635364520156216,18.27,2013-12-31 00:00:00,2014-03-31 00:00:00,213.70287358284276,0.6374384181154341,16.880760215469376,3.979079338554816
sz002171,2014-04-18,7.57,7.73,7.54,7.69,0.015852,3701403.0,28270556.55,2485320000.0,2507247600.0,0.011452766271546523,18.68,2013-12-31 00:00:00,2014-03-31 00:00:00,218.53400482756572,0.6518488404308386,17.262379642219933,4.069033461283408
sz002171,2014-04-17,7.49,7.58,7.49,7.57,0.0066489999999999995,1765795.0,13322741.2,2446537380.0,2468122800.0,0.005463668063800439,18.39,2013-12-31 00:00:00,2014-03-31 00:00:00,215.12386137701725,0.6416769769915682,16.99300650313228,4.005537678011569
sz002171,2014-04-16,7.45,7.58,7.43,7.52,0.009396,1741507.0,13093896.85,2430377950.0,2451820800.0,0.0053885168930206916,18.27,2013-12-31 00:00:00,2014-03-31 00:00:00,213.70295045941265,0.6374386474248406,16.880766288082818,3.979080769972025
sz002171,2014-04-15,7.46,7.51,7.36,7.45,-0.006667,1935466.0,14402240.16,2407754750.0,2428998000.0,0.005988658811699988,18.1,2013-12-31 00:00:00,2014-03-31 00:00:00,211.71368864094237,0.6315050261986778,16.72363105073016,3.9420413494525692
sz002171,2014-04-14,7.54,7.55,7.43,7.5,-0.0039840000000000006,1724562.0,12907179.06,2423914180.0,2445300000.0,0.005336086197573217,18.22,2013-12-31 00:00:00,2014-03-31 00:00:00,213.13465740184037,0.6357435283018662,16.835875834921577,3.968499334515785
sz002171,2014-04-11,7.5,7.55,7.42,7.53,0.00534,2543640.0,19037874.85,2433609830.0,2455081200.0,0.007870451936825057,18.29,2013-12-31 00:00:00,2014-03-31 00:00:00,213.9871823362681,0.6382864615647402,16.903218256455297,3.984373076853972
sz002171,2014-04-10,7.46,7.52,7.39,7.49,0.005369,2590571.0,19294697.38,2420682290.0,2442039600.0,0.00801566437287398,18.2,2013-12-31 00:00:00,2014-03-31 00:00:00,212.850560344031,0.6348961163036786,16.813434516139115,3.9632095379214713
sz002171,2014-04-09,7.53,7.59,7.4,7.45,-0.013244999999999998,2502650.0,18704563.56,2407754750.0,2428998000.0,0.007743621936578051,18.1,2013-12-31 00:00:00,2014-03-31 00:00:00,211.71386858360566,0.6315055629362739,16.723645264712875,3.942044699927561
sz002171,2014-04-08,7.41,7.62,7.38,7.55,0.008011,4127423.0,31110410.21,2440073610.0,2461602000.0,0.012770944090494058,18.34,2013-12-31 00:00:00,2014-03-31 00:00:00,214.55565827749103,0.6399821261977633,16.948123155912942,3.9949579175454506
sz002171,2014-04-04,7.39,7.63,7.31,7.49,0.005369,4875266.0,36375139.18,2420682290.0,2442039600.0,0.015084896721411549,18.2,2013-12-31 00:00:00,2014-03-31 00:00:00,212.85051281929563,0.6348959745456778,16.813430762077935,3.9632086530260584
sz002171,2014-04-03,7.22,7.51,7.18,7.45,0.005398,5590992.0,41171742.91,2407754750.0,2428998000.0,0.01729947387706327,18.1,2013-12-31 00:00:00,2014-03-31 00:00:00,211.71382131266793,0.6315054219353071,16.72364153069961,3.942043819757779
sz002171,2014-04-02,7.5,7.9,7.29,7.41,0.030598,13049518.0,97900436.5,2394827210.0,2415956400.0,0.040377413441865816,18.0,2013-12-31 00:00:00,2014-03-31 00:00:00,210.57712598659234,0.6281148579321892,16.63385199761648,3.9208789153725983
sz002171,2014-04-01,7.05,7.2,7.01,7.19,0.019858,1556900.0,11098529.72,2323725720.0,2344227600.0,0.004817311657590983,17.47,2013-12-31 00:00:00,2014-03-31 00:00:00,204.32518400636562,0.6094664048757997,16.140000269374173,3.804469749963225
sz002171,2014-03-31,6.96,7.1,6.96,7.05,0.008584,1165926.0,8185018.84,2278479330.0,2298582000.0,0.0036075720291919434,17.13,2013-12-31 00:00:00,2014-03-31 00:00:00,200.34669925260735,0.5975992784052288,15.825732866118786,3.730391632916764
sz002171,2014-03-28,7.07,7.13,6.85,6.99,-0.008511,2537957.0,17788558.89,2259088010.0,2279019600.0,0.007852867772955867,16.98,2013-09-30 00:00:00,2013-10-26 00:00:00,-76.18909886382271,0.6203915255179285,-52.07858201757074,3.818541724359155
sz002171,2014-03-27,7.19,7.23,7.05,7.05,-0.023546,1721958.0,12271199.12,2278479330.0,2298582000.0,0.005328028979749402,17.13,2013-09-30 00:00:00,2013-10-26 00:00:00,-76.84311057795166,0.6257170029298647,-52.52562763436684,3.851320311530592
sz002171,2014-03-26,7.15,7.3,7.15,7.22,0.00979,4185335.0,30221323.63,2333421380.0,2354008800.0,0.012950133635957343,17.54,2013-09-30 00:00:00,2013-10-26 00:00:00,-78.69608868205943,0.6408054070441255,-53.79221922831678,3.944190214316897
sz002171,2014-03-25,7.07,7.21,7.02,7.15,0.011315,2655582.0,18921955.88,2310798180.0,2331186000.0,0.008216819393548251,17.37,2013-09-30 00:00:00,2013-10-26 00:00:00,-77.93312340393491,0.6345927440795864,-53.27069908428167,3.9059509544726105
sz002171,2014-03-24,7.05,7.12,7.03,7.07,-0.0014119999999999998,3152472.0,22304200.11,2284943100.0,2305102800.0,0.009754280988441244,17.18,2013-09-30 00:00:00,2013-10-26 00:00:00,-77.06117619528527,0.6274926645798653,-52.674685023243676,3.8622496002458298
sz002171,2014-03-21,6.96,7.14,6.86,7.08,0.009986,3679481.0,25711923.58,2288174980.0,2308363200.0,0.011384935902061126,17.2,2013-09-30 00:00:00,2013-10-26 00:00:00,-77.17014043357747,0.6283799370509813,-52.74916684683139,3.8677108079065934
sz002171,2014-03-20,7.21,7.26,7.01,7.01,-0.029086,3683969.0,26253311.65,2265551780.0,2285540400.0,0.011398822537615979,17.03,2013-09-30 00:00:00,2013-10-26 00:00:00,-76.40713874605932,0.6221669776125424,-52.227621815382975,3.8294697232502166
sz002171,2014-03-19,7.32,7.35,7.16,7.22,-0.019022,3560223.0,25744718.64,2333421380.0,2354008800.0,0.011015931490265167,17.54,2013-09-30 00:00:00,2013-10-26 00:00:00,-78.69609331625594,0.6408054447793958,-53.79222239599282,3.9441904465794253
sz002171,2014-03-18,7.37,7.41,7.22,7.36,0.001361,5228098.0,38200083.58,2378667780.0,2399654400.0,0.016176618527199288,17.88,2013-09-30 00:00:00,2013-10-26 00:00:00,-80.22207767784388,0.653231208833833,-54.835299462365946,4.0206716629521
sz002171,2014-03-17,7.51,7.55,7.3,7.35,-0.026489999999999996,5207657.0,38315323.04,2375435890.0,2396394000.0,0.016113370649628436,17.86,2013-09-30 00:00:00,2013-10-26 00:00:00,-80.11304382519779,0.6523433695079328,-54.76077005432202,4.015206966271006
sz002171,2014-03-14,7.64,7.76,7.35,7.55,-0.040661,4525335.0,34345372.5,2440073610.0,2461602000.0,0.014002151045762919,18.34,2013-09-30 00:00:00,2013-10-26 00:00:00,-82.29298499778923,0.6700941639099063,-56.250855208803216,4.12446401811076
sz002171,2014-03-13,7.6,8.25,7.5,7.87,0.045153,9156575.0,72146804.5,2543493940.0,2565934800.0,0.02833199014816603,19.12,2013-09-30 00:00:00,2013-10-26 00:00:00,-85.78092311246519,0.6984956974645107,-58.635013492418445,4.299276916825814
sz002171,2014-03-05,7.53,7.53,7.39,7.53,0.006684000000000001,2058537.0,15348043.16,2433609830.0,2455081200.0,0.006369461291171724,18.29,2013-09-30 00:00:00,2013-10-26 00:00:00,-82.07499104194812,0.6683190857841014,-56.10184680369138,4.113538321016938
sz002171,2014-03-04,7.4,7.55,7.34,7.48,0.008086,2442373.0,18209031.14,2417450410.0,2438779200.0,0.0075571147041647085,18.17,2013-09-30 00:00:00,2013-10-26 00:00:00,-81.53004422633927,0.6638817004979729,-55.729351816152224,4.086225986523019
sz002171,2014-03-03,7.2,7.49,7.18,7.42,0.030556,2348942.0,17308608.9,2398059090.0,2419216800.0,0.007268023424727203,18.03,2013-09-30 00:00:00,2013-10-26 00:00:00,-80.87608024150646,0.65855661173548,-55.28233882441799,4.053449791508878
sz002171,2014-02-28,7.12,7.23,7.06,7.2,0.011236,1147907.0,8209132.85,2326957610.0,2347488000.0,0.003551818204372017,17.49,2013-09-30 00:00:00,2013-10-26 00:00:00,-78.47810331656547,0.639030398867679,-53.64321669508302,3.933264947764971
sz002171,2014-02-27,7.22,7.34,7.09,7.12,-0.025992,1499723.0,10803029.84,2301102530.0,2321404800.0,0.004640396340792342,17.3,2013-09-30 00:00:00,2013-10-26 00:00:00,-77.60612094166493,0.6319300330167034,-53.04717859637416,3.8895618310315005
sz002171,2014-02-26,7.11,7.33,7.05,7.31,0.023809999999999998,1420398.0,10226393.42,2362508350.0,2383352400.0,0.004394951399854311,17.76,2013-09-30 00:00:00,2013-10-26 00:00:00,-79.67708780796967,0.6487934729660365,-54.46277504535298,3.993357170609996
sz002171,2014-02-25,7.31,7.33,7.09,7.14,-0.016529,1848898.0,13355595.02,2307566300.0,2327925600.0,0.005720802786901507,17.35,2013-09-30 00:00:00,2013-10-26 00:00:00,-77.82409608029778,0.6337049579180087,-53.196174139100975,3.9004865850206536
sz002171,2014-02-24,7.41,7.45,7.2,7.26,-0.030708,2753850.0,20060676.45,2346348920.0,2367050400.0,0.00852087719332042,17.64,2013-09-30 00:00:00,2013-10-26 00:00:00,-79.13207006642571,0.6443555101451987,-54.09023157683447,3.966041281360257
sz002171,2014-02-21,7.56,7.83,7.41,7.49,-0.009259,5734500.0,43940471.12,2420682290.0,2442039600.0,0.017743511892260755,18.2,2013-09-30 00:00:00,2013-10-26 00:00:00,-81.63904176081688,0.6647692440928002,-55.803856399139235,4.09168886296416
sz002171,2014-02-20,7.41,7.67,7.3,7.56,0.023004,5614857.0,42381605.94,2443305490.0,2464862400.0,0.017373316228254373,18.37,2013-09-30 00:00:00,2013-10-26 00:00:00,-82.40200189637542,0.6709818651825253,-56.32537302800554,4.129927865066814
sz002171,2014-02-19,7.37,7.45,7.33,7.39,-0.001351,1534194.0,11328503.78,2388363440.0,2409435600.0,0.0047470554397700876,17.95,2013-09-30 00:00:00,2013-10-26 00:00:00,-80.54905151531707,0.6558936868111223,-55.05880038397263,4.0370593517394004
sz002171,2014-02-18,7.47,7.47,7.36,7.4,-0.009370999999999999,2041274.0,15122640.29,2391595320.0,2412696000.0,0.006316046646219395,17.98,2013-09-30 00:00:00,2013-10-26 00:00:00,-80.65802050101394,0.6567809979393383,-55.13328545261912,4.042520797336603
sz002171,2014-02-17,7.42,7.48,7.38,7.47,0.009459,2206253.0,16426510.23,2414218520.0,2435518800.0,0.006826519543889506,18.15,2013-09-30 00:00:00,2013-10-26 00:00:00,-81.4210168499145,0.6629939139065567,-55.654826834888866,4.080761614425383
sz002171,2014-02-14,7.26,7.4,7.2,7.4,0.019284,2611030.0,19120498.75,2391595320.0,2412696000.0,0.008078967975234205,17.98,2013-09-30 00:00:00,2013-10-26 00:00:00,-80.65807214549028,0.6567814184692559,-55.13332075387792,4.042523385719858
sz002171,2014-02-13,7.3,7.45,7.25,7.26,-0.0054789999999999995,2357995.0,17314530.19,2346348920.0,2367050400.0,0.007296034939253621,17.64,2013-09-30 00:00:00,2013-10-26 00:00:00,-79.13208894232645,0.6443556638476183,-54.09024447933835,3.9660422274065494
sz002171,2014-02-12,7.34,7.34,7.23,7.3,-0.002732,1513694.0,11006132.82,2359276470.0,2380092000.0,0.004683624975923233,17.73,2013-09-30 00:00:00,2013-10-26 00:00:00,-79.56804224579115,0.6479055382919199,-54.388237633331386,3.9878918870557283
sz002171,2014-02-11,7.25,7.4,7.2,7.32,0.009655,2458659.0,17972316.77,2365740240.0,2386612800.0,0.007607506342285492,17.78,2013-09-30 00:00:00,2013-10-26 00:00:00,-79.786017646,0.6496804653231827,-54.537233354856845,3.998816654154879
sz002171,2014-02-10,7.08,7.25,7.08,7.25,0.022567,1616751.0,11654914.78,2343117040.0,2363790000.0,0.005002500750026554,17.61,2013-09-30 00:00:00,2013-10-26 00:00:00,-79.02305009731047,0.6434677838699187,-54.01571165879122,3.96057728051154
sz002171,2014-02-07,6.99,7.1,6.99,7.09,0.009972,631009.0,4445826.4,2291406870.0,2311623600.0,0.001952448458007809,17.22,2013-09-30 00:00:00,2013-10-26 00:00:00,-77.27909280987015,0.6292671129323738,-52.82364056222353,3.873171421052646
sz002171,2014-01-30,7.01,7.11,7.0,7.02,-0.002841,333802.0,2351082.99,2268783670.0,2288800800.0,0.001032839785910483,17.05,2013-09-30 00:00:00,2013-10-26 00:00:00,-76.51607451480848,0.6230540182622625,-52.302084178792605,3.834929504038375
sz002171,2014-01-29,7.08,7.09,7.02,7.04,-0.00565,831855.0,5859231.96,2275247440.0,2295321600.0,0.00257389991833152,17.1,2013-09-30 00:00:00,2013-10-26 00:00:00,-76.73407602479492,0.6248291578998559,-52.45109774749323,3.8458555797404173
sz002171,2014-01-28,7.11,7.18,7.05,7.08,-0.005618,672512.0,4768973.22,2288174980.0,2308363200.0,0.002080865756166952,17.2,2013-09-30 00:00:00,2013-10-26 00:00:00,-77.17008701643779,0.6283795020866455,-52.749130333879656,3.867708130678752
sz002171,2014-01-27,7.12,7.2,7.08,7.12,-0.009736,992742.0,7069707.76,2301102530.0,2321404800.0,0.003071711472152438,17.3,2013-09-30 00:00:00,2013-10-26 00:00:00,-77.60607796243073,0.631929683045998,-53.04714921818743,3.8895596769438225
sz002171,2014-01-24,7.12,7.25,7.08,7.19,0.014103999999999998,1340058.0,9644632.17,2323725720.0,2344227600.0,0.0041463658714420044,17.47,2013-09-30 00:00:00,2013-10-26 00:00:00,-78.36907931867736,0.6381426397869637,-53.568694023197274,3.927800744997114
sz002171,2014-01-23,7.15,7.15,7.05,7.09,-0.009777,965413.0,6839074.81,2291406870.0,2311623600.0,0.0029871509331732085,17.22,2013-09-30 00:00:00,2013-10-26 00:00:00,-77.27913440700104,0.6292674516489077,-52.82366899568218,3.87317350587032
sz002171,2014-01-22,7.15,7.21,7.07,7.16,0.015603,1226559.0,8775141.67,2314030070.0,2334446400.0,0.0037951807774045045,17.39,2013-09-30 00:00:00,2013-10-26 00:00:00,-78.04215253230943,0.6354805449367544,-53.345225263079314,3.911415414376681
sz002171,2014-01-21,7.02,7.1,7.0,7.05,0.0014199999999999998,544919.0,3841276.32,2278479330.0,2298582000.0,0.0016860714509970998,17.13,2013-09-30 00:00:00,2013-10-26 00:00:00,-76.8431685730639,0.6257174751716511,-52.52566727656309,3.851323218203058
sz002171,2014-01-20,7.14,7.17,6.98,7.04,-0.014006000000000001,902083.0,6357978.56,2275247440.0,2295321600.0,0.0027911972158949005,17.1,2013-09-30 00:00:00,2013-10-26 00:00:00,-76.73420600054314,0.6248302162645555,-52.45118659160302,3.8458620940295365
sz002171,2014-01-17,7.14,7.26,7.08,7.14,-0.01108,1073133.0,7668365.48,2307566300.0,2327925600.0,0.003320454809900803,17.35,2013-09-30 00:00:00,2013-10-26 00:00:00,-77.82421191259088,0.6337059011155802,-53.196253315540474,3.9004923904501814
sz002171,2014-01-16,6.85,7.51,6.85,7.22,0.049419,2046390.0,14784521.81,2333421380.0,2354008800.0,0.0063318764140234286,17.54,2013-09-30 00:00:00,2013-10-26 00:00:00,-78.69616542550548,0.6408060319495815,-53.79227168581935,3.9441940606420958
sz002171,2014-01-15,6.85,6.9,6.82,6.88,0.002915,326998.0,2237834.26,2223537270.0,2243155200.0,0.0010117870612530815,16.71,2013-09-30 00:00:00,2013-10-26 00:00:00,-74.99022356704565,0.6106293405680492,-51.25909830660523,3.7584549742687106
sz002171,2014-01-14,6.81,6.88,6.75,6.86,0.0073420000000000004,513961.0,3499583.3,2217073500.0,2236634400.0,0.0015902821715202498,16.66,2013-09-30 00:00:00,2013-10-26 00:00:00,-74.77226242208528,0.6088545296142237,-51.11011232916571,3.7475309216321526
sz002171,2014-01-13,6.7,6.95,6.7,6.81,0.016418000000000002,746974.0,5117382.5,2200914070.0,2220332400.0,0.0023112637650592144,16.54,2013-09-30 00:00:00,2013-10-26 00:00:00,-74.22728569054529,0.6044169007290708,-50.73759689277893,3.7202170877737184
sz002171,2014-01-10,6.85,6.88,6.62,6.7,-0.019034,1009667.0,6788020.56,2165363330.0,2184468000.0,0.0031240802900268936,16.28,2013-09-30 00:00:00,2013-10-26 00:00:00,-73.028306947088,0.5946538734350147,-49.91804247148213,3.660125153011574
sz002171,2014-01-09,7.07,7.16,6.77,6.83,-0.036670999999999995,1139442.0,7935466.53,2207377840.0,2226853200.0,0.0035256260704329624,16.59,2013-09-30 00:00:00,2013-10-26 00:00:00,-74.44529876375735,0.6061921345235358,-50.88661836545011,3.7311437430161436
sz002171,2014-01-08,7.1,7.18,7.07,7.09,-0.00561,518207.0,3688152.72,2291406870.0,2311623600.0,0.001603420011566955,17.22,2013-09-30 00:00:00,2013-10-26 00:00:00,-77.2792044709101,0.6292680221643236,-52.82371688742902,3.8731770174220266
sz002171,2014-01-07,7.02,7.21,7.02,7.13,0.007062000000000001,462308.0,3300444.61,2304334410.0,2324665200.0,0.001430459062580244,17.32,2013-09-30 00:00:00,2013-10-26 00:00:00,-77.71518666811824,0.632818131884194,-53.12172979155967,3.895028125204423
sz002171,2014-01-06,7.3,7.3,7.06,7.08,-0.034106,920712.0,6575386.82,2288174980.0,2308363200.0,0.0028488384922380366,17.2,2013-09-30 00:00:00,2013-10-26 00:00:00,-77.17021064057451,0.628380508731532,-52.74921483638512,3.867714326629764
sz002171,2014-01-03,7.21,7.33,7.21,7.33,0.012431000000000001,1096524.0,7987322.57,2368972120.0,2389873200.0,0.003392830524320396,17.81,2013-09-30 00:00:00,2013-10-26 00:00:00,-79.89511337742496,0.6505688085147355,-54.61180505975306,4.004284452154961
sz002171,2014-01-02,7.22,7.24,7.18,7.24,0.0,541146.0,3902186.34,2339885150.0,2360529600.0,0.001674397155774932,17.59,2013-09-30 00:00:00,2013-10-26 00:00:00,-78.91413180495753,0.6425808855267524,-53.941261241262914,3.955118375627535
sz002171,2013-12-31,7.15,7.27,7.11,7.24,0.014006000000000001,758127.0,5456929.81,2339885150.0,2360529600.0,0.002345773030783156,17.59,2013-09-30 00:00:00,2013-10-26 00:00:00,-78.91413180495753,0.6425808855267524,-53.941261241262914,3.955118375627535
sz002171,2013-12-30,7.19,7.25,7.11,7.14,-0.006954000000000001,629362.0,4511510.05,2307566300.0,2327925600.0,0.0019473523599300266,17.35,2013-09-30 00:00:00,2013-10-26 00:00:00,-77.82412708106021,0.6337052103505821,-53.19619532947825,3.900488138756117
sz002171,2013-12-27,7.15,7.21,7.1,7.19,0.012676,718603.0,5150754.52,2323725720.0,2344227600.0,0.0022234790989015692,17.47,2013-09-30 00:00:00,2013-10-26 00:00:00,-78.36910584309307,0.638142855769604,-53.56871215379574,3.927802074381365
sz002171,2013-12-26,7.2,7.27,7.06,7.1,-0.013888999999999999,674469.0,4821622.91,2294638750.0,2314884000.0,0.002086921045850899,17.25,2013-09-30 00:00:00,2013-10-26 00:00:00,-77.3881338583052,0.6301550108520435,-52.898174888903995,3.8786364783814022
sz002171,2013-12-25,7.2,7.35,7.15,7.2,0.005587,782949.0,5659050.8,2326957610.0,2347488000.0,0.0024225764903383867,17.49,2013-09-30 00:00:00,2013-10-26 00:00:00,-78.47811641722403,0.6390305055435377,-53.64322564995624,3.9332656043603635
sz002171,2013-12-24,7.0,7.19,7.0,7.16,0.015603,989573.0,7066677.05,2314030070.0,2334446400.0,0.00306190605379644,17.39,2013-09-30 00:00:00,2013-10-26 00:00:00,-78.0420952311675,0.6354800783458197,-53.34518609524213,3.9114125424854973
sz002171,2013-12-23,7.28,7.28,7.03,7.05,-0.018106,869940.0,6186040.2,2278479330.0,2298582000.0,0.0026917413378509778,17.13,2013-09-30 00:00:00,2013-10-26 00:00:00,-76.84311215225586,0.6257170157490867,-52.525628710472624,3.8513203904335627
sz002171,2013-12-20,7.34,7.39,7.13,7.18,-0.0271,912406.0,6607498.37,2320493840.0,2340967200.0,0.002823138319557013,17.44,2013-09-30 00:00:00,2013-10-26 00:00:00,-78.26008932965864,0.6372551576331932,-53.494194597861494,3.9223382467288346
sz002171,2013-12-19,7.53,7.54,7.36,7.38,-0.013368999999999999,883403.0,6583108.6,2385131550.0,2406175200.0,0.0027333981389831515,17.93,2013-09-30 00:00:00,2013-10-26 00:00:00,-80.44001370095452,0.6550058152258128,-54.9842682679222,4.031594456499985
sz002171,2013-12-18,7.45,7.53,7.43,7.48,0.004027,591770.0,4425635.42,2417450410.0,2438779200.0,0.00183103636032807,18.17,2013-09-30 00:00:00,2013-10-26 00:00:00,-81.52998811202416,0.663881243571115,-55.72931345956309,4.086223174114724
sz002171,2013-12-17,7.52,7.54,7.42,7.45,-0.004011,719781.0,5378711.73,2407754750.0,2428998000.0,0.002227124024986349,18.1,2013-09-30 00:00:00,2013-10-26 00:00:00,-81.20298369667763,0.6612185166047476,-55.50579163664232,4.06983395278685
sz002171,2013-12-16,7.65,7.72,7.46,7.48,-0.022222,1267463.0,9597671.99,2417450410.0,2438779200.0,0.003921744661558539,18.17,2013-09-30 00:00:00,2013-10-26 00:00:00,-81.53000052879864,0.663881344678252,-55.72932194697162,4.086223796434349
sz002171,2013-12-13,7.61,7.72,7.6,7.65,0.0,908246.0,6953068.31,2472392460.0,2494206000.0,0.002810266578793886,18.58,2013-09-30 00:00:00,2013-10-26 00:00:00,-83.38293613560403,0.6789694027460752,-56.995884492156314,4.179091569287045
sz002171,2013-12-12,7.72,7.79,7.63,7.65,-0.019231,1911186.0,14681718.91,2472392460.0,2494206000.0,0.005913532392830546,18.58,2013-09-30 00:00:00,2013-10-26 00:00:00,-83.38293613560403,0.6789694027460752,-56.995884492156314,4.179091569287045
sz002171,2013-12-11,7.9,7.95,7.76,7.8,-0.020101,2295101.0,17957835.67,2520870740.0,2543112000.0,0.007101430278015761,18.95,2013-09-30 00:00:00,2013-10-26 00:00:00,-85.01791567189014,0.6922826911801608,-58.11346452850397,4.261035543830448
sz002171,2013-12-10,7.77,8.03,7.75,7.96,0.024453,3318443.0,26273825.47,2572580910.0,2595278400.0,0.01026782332766358,19.34,2013-09-30 00:00:00,2013-10-26 00:00:00,-86.76191696479958,0.7064837204448223,-59.30556570473485,4.348443608811161
sz002171,2013-12-09,7.78,7.84,7.71,7.77,-0.001285,842639.0,6541995.31,2511175090.0,2533330800.0,0.00260726743271414,18.88,2013-09-30 00:00:00,2013-10-26 00:00:00,-84.69096870700714,0.6896204320206221,-57.88998197548824,4.244649201877648
sz002171,2013-12-06,7.87,7.9,7.71,7.78,-0.01269,1247075.0,9681831.99,2514406970.0,2536591200.0,0.003858660756098684,18.9,2013-09-30 00:00:00,2013-10-26 00:00:00,-84.799936625571,0.6905077344594024,-57.964466314702634,4.250110593990926
sz002171,2013-12-05,8.0,8.07,7.83,7.88,0.002545,1904995.0,15062961.53,2546725830.0,2569195200.0,0.0058943763883684335,19.14,2013-09-30 00:00:00,2013-10-26 00:00:00,-85.88987919252412,0.6993829035048792,-58.709489739496846,4.304737715601914
sz002171,2013-12-04,7.77,8.03,7.75,7.86,0.012887000000000001,2833316.0,22393715.57,2540262060.0,2562674400.0,0.00876675840287124,19.09,2013-09-30 00:00:00,2013-10-26 00:00:00,-85.67184434865679,0.697607492436628,-58.56045338563042,4.293809969230223
sz002171,2013-12-03,7.7,7.77,7.58,7.76,0.011734,1480002.0,11402336.75,2507943200.0,2530070400.0,0.004579376247436545,18.85,2013-09-30 00:00:00,2013-10-26 00:00:00,-84.58183819977627,0.6887318056571247,-57.815386499807396,4.239179660939693
sz002171,2013-12-02,7.75,7.87,7.57,7.67,-0.02665,3751159.0,28835606.85,2478856230.0,2500726800.0,0.011606719737029685,18.63,2013-09-30 00:00:00,2013-10-26 00:00:00,-83.60086564232918,0.6807439560765227,-57.14484884347802,4.190014036238471
sz002171,2013-11-29,7.95,8.07,7.83,7.88,-0.0075569999999999995,4091560.0,32484134.64,2546725830.0,2569195200.0,0.012659977929387084,19.14,2013-09-30 00:00:00,2013-10-26 00:00:00,-85.88982960120119,0.6993824996933504,-58.70945584165821,4.3047352301212
sz002171,2013-11-28,7.91,8.12,7.82,7.94,0.010178,5860663.0,47062388.38,2566117140.0,2588757600.0,0.018133881534340247,19.29,2013-09-30 00:00:00,2013-10-26 00:00:00,-86.54384141074216,0.7047079778822063,-59.1565015236726,4.3375138220746186
sz002171,2013-11-27,7.9,7.94,7.75,7.86,-0.005063000000000001,1744466.0,13682267.92,2540262060.0,2562674400.0,0.005397672537769588,19.09,2013-09-30 00:00:00,2013-10-26 00:00:00,-85.67187308646808,0.6976077264424747,-58.56047302918159,4.293811409548236
sz002171,2013-11-26,7.67,7.92,7.67,7.9,0.023316,2952207.0,23122738.18,2553189600.0,2575716000.0,0.009134627252124168,19.19,2013-09-30 00:00:00,2013-10-26 00:00:00,-86.10783706553086,0.7011576878158865,-58.85847348041292,4.315661604250557
sz002171,2013-11-25,7.88,7.96,7.7,7.72,-0.027708,2431083.0,18968365.81,2495015660.0,2517028800.0,0.007522181548151084,18.75,2013-09-30 00:00:00,2013-10-26 00:00:00,-84.14589146024382,0.6851819846615186,-57.5173978325492,4.217330330269982
sz002171,2013-11-22,7.74,8.02,7.74,7.94,0.014049,6050569.0,47745945.5,2566117140.0,2588757600.0,0.018721482784686907,19.29,2013-09-30 00:00:00,2013-10-26 00:00:00,-86.54384841204475,0.7047080348923148,-59.156506309369206,4.337514172974767
sz002171,2013-11-21,7.73,7.91,7.52,7.83,0.001279,5053000.0,38853979.17,2530566400.0,2552893200.0,0.015634835742701712,19.02,2013-09-30 00:00:00,2013-10-26 00:00:00,-85.34483877213502,0.6949447560150592,-58.33693076899558,4.2774206897050995
sz002171,2013-11-20,7.72,8.03,7.7,7.82,0.016905,5034489.0,39580357.96,2527334520.0,2549632800.0,0.01557755954680665,19.0,2013-09-30 00:00:00,2013-10-26 00:00:00,-85.23582215559802,0.6940570570391063,-58.26241314258621,4.271956856885143
sz002171,2013-11-19,7.71,7.79,7.56,7.69,-0.011568,3729720.0,28685901.49,2485320000.0,2507247600.0,0.011540383853990635,18.68,2013-09-30 00:00:00,2013-10-26 00:00:00,-83.81886425536113,0.6825190721248359,-57.29386043198353,4.20093996674728
sz002171,2013-11-18,7.19,7.9,7.19,7.78,0.079057,6328145.0,48387576.98,2514406970.0,2536591200.0,0.019580349834935434,18.9,2013-09-30 00:00:00,2013-10-26 00:00:00,-84.79982867345568,0.690506855428432,-57.964392524709375,4.250105183510126
sz002171,2013-11-15,7.07,7.27,7.07,7.21,0.019802,1218603.0,8778461.67,2330189500.0,2350748400.0,0.0037705635657529143,17.52,2013-09-30 00:00:00,2013-10-26 00:00:00,-78.58697795710114,0.6399169417634398,-53.71763727468464,3.938721664851928
sz002171,2013-11-14,7.04,7.13,6.9,7.07,0.002837,1272372.0,8932950.48,2284943100.0,2305102800.0,0.003936933939405318,17.18,2013-09-30 00:00:00,2013-10-26 00:00:00,-77.06101572373966,0.6274913578944147,-52.674575333922306,3.8622415575297238
sz002171,2013-11-13,7.22,7.22,7.02,7.05,-0.023546,1603507.0,11370585.0,2278479330.0,2298582000.0,0.004961521573250348,17.13,2013-09-30 00:00:00,2013-10-26 00:00:00,-76.84301209841645,0.6257162010320866,-52.52556031929647,3.8513153758085554
sz002171,2013-11-12,7.3,7.34,7.16,7.22,-0.0013830000000000001,885043.0,6422893.23,2333421380.0,2354008800.0,0.002738472577121926,17.54,2013-09-30 00:00:00,2013-10-26 00:00:00,-78.69598782781006,0.6408045858095585,-53.7921502900254,3.94418515957593
sz002171,2013-11-11,7.22,7.25,7.11,7.23,0.0041670000000000006,907779.0,6517159.26,2336653270.0,2357269200.0,0.0028088215972239647,17.56,2013-09-30 00:00:00,2013-10-26 00:00:00,-78.80497510838495,0.6416920459090507,-53.866647864021346,3.949647522098993
sz002171,2013-11-08,7.23,7.39,7.13,7.2,-0.008264,1127722.0,8176082.51,2326957610.0,2347488000.0,0.0034893624039846606,17.49,2013-09-30 00:00:00,2013-10-26 00:00:00,-78.4779574596506,0.6390292111860385,-53.643116995501096,3.933257637523433
sz002171,2013-11-07,7.38,7.49,7.25,7.26,-0.02288,1544851.0,11352825.64,2346348920.0,2367050400.0,0.004780030013609399,17.64,2013-09-30 00:00:00,2013-10-26 00:00:00,-79.13190351025938,0.6443541539139837,-54.090117728408664,3.966032933687426
sz002171,2013-11-06,7.47,7.62,7.4,7.43,-0.014588999999999998,1712844.0,12830979.27,2401290980.0,2422477200.0,0.005299828727961989,18.05,2013-09-30 00:00:00,2013-10-26 00:00:00,-80.98483657100395,0.6594421912497787,-55.356678533249415,4.0589005789334225
sz002171,2013-11-05,7.5,7.55,7.34,7.54,-0.002646,1942701.0,14456603.13,2436841720.0,2458341600.0,0.006011045124424413,18.32,2013-09-30 00:00:00,2013-10-26 00:00:00,-82.18381626651616,0.669205226296214,-56.176233605317385,4.1189925614118605
sz002171,2013-11-04,7.69,7.9,7.53,7.56,-0.016905,1872652.0,14313783.34,2443305490.0,2464862400.0,0.005794301685950864,18.37,2013-09-30 00:00:00,2013-10-26 00:00:00,-82.40185156575916,0.6709806410724919,-56.325270270453004,4.129920330606645
sz002171,2013-11-01,7.4,7.8,7.4,7.69,0.030831,3975407.0,30518230.14,2485320000.0,2507247600.0,0.012300580943299054,18.68,2013-09-30 00:00:00,2013-10-26 00:00:00,-83.81880852385491,0.6825186183151087,-57.293822337061016,4.200937173525086
sz002171,2013-10-31,7.46,7.66,7.34,7.46,-0.005333,3196316.0,24121164.37,2410986640.0,2432258400.0,0.009889941721120446,18.12,2013-09-30 00:00:00,2013-10-26 00:00:00,-81.3118818932055,0.6621052513119112,-55.580228317795076,4.0752918504828495
sz002171,2013-10-30,7.22,7.57,7.09,7.5,0.019022,3918660.0,29157661.71,2423914180.0,2445300000.0,0.012124996108566847,18.22,2013-09-30 00:00:00,2013-10-26 00:00:00,-81.7478431406747,0.6656551904425413,-55.8782269018627,4.097141908279705
sz002171,2013-10-29,7.19,7.4,6.59,7.36,0.020804,4570959.0,31849776.32,2378667780.0,2399654400.0,0.014143319434040512,17.88,2013-09-30 00:00:00,2013-10-26 00:00:00,-80.2218628652519,0.6532294596608722,-54.8351526285622,4.020660896702628
sz002171,2013-10-28,7.36,7.45,7.12,7.21,-0.013680000000000001,2221572.0,16180866.5,2330189500.0,2350748400.0,0.006873919104004203,17.52,2013-09-30 00:00:00,2013-10-26 00:00:00,-78.58694016211916,0.6399166340069907,-53.717611440161086,3.938719770595166
sz002171,2013-10-25,7.55,7.6,7.25,7.31,-0.030504000000000003,2765703.0,20402204.85,2362508350.0,2383352400.0,0.008557552370132364,17.76,2013-06-30 00:00:00,2013-08-10 00:00:00,-62.64829278051284,0.6608241732237123,-29.370721437875744,3.9724583551657124
sz002171,2013-10-24,7.58,7.7,7.5,7.54,-0.02458,3145536.0,23772319.8,2436841720.0,2458341600.0,0.00973281984026439,18.32,2013-06-30 00:00:00,2013-08-10 00:00:00,-64.61944430973706,0.6816161935930755,-30.29483508738122,4.097446874629408
sz002171,2013-10-23,8.05,8.09,7.55,7.73,-0.040943,4640022.0,36048573.91,2498247550.0,2520289200.0,0.014357012002273356,18.78,2013-06-30 00:00:00,2013-08-10 00:00:00,-66.24781561761812,0.6987925135767931,-31.058246793567097,4.20070008266122
sz002171,2013-10-22,7.88,8.09,7.83,8.06,0.0075,4524209.0,35989212.65,2604899770.0,2627882400.0,0.013998667035085195,19.58,2013-06-30 00:00:00,2013-08-10 00:00:00,-69.07599404166605,0.728624590172214,-32.38415109171519,4.380031721431803
sz002171,2013-10-21,7.79,8.0,7.63,8.0,0.028277999999999998,5473742.0,42803397.21,2585508460.0,2608320000.0,0.016936682543285897,19.43,2013-06-30 00:00:00,2013-08-10 00:00:00,-68.56178068651715,0.7232005857788724,-32.1430780066652,4.3474260262350395
sz002171,2013-10-18,8.02,8.1,7.71,7.78,-0.029925,4426720.0,34630376.01,2514406970.0,2536591200.0,0.013697019619699831,18.9,2013-06-30 00:00:00,2013-08-10 00:00:00,-66.67630804754857,0.7033123199940797,-31.259132264489953,4.227870309619616
sz002171,2013-10-17,8.03,8.25,8.0,8.02,-0.008653000000000001,5316560.0,42984828.26,2591972230.0,2614840800.0,0.016450334886496835,19.48,2013-06-30 00:00:00,2013-08-10 00:00:00,-68.7331474860692,0.7250081900822923,-32.22341804962498,4.3582922038188965
sz002171,2013-10-16,8.26,8.4,8.0,8.09,-0.058207,9689811.0,79203078.72,2614595430.0,2637663600.0,0.02998191234121449,19.65,2013-06-30 00:00:00,2013-08-10 00:00:00,-69.33308668515586,0.7313364443351242,-32.5046810547921,4.396333679144535
sz002171,2013-10-15,8.26,8.9,8.1,8.59,0.041212,16593196.0,142024838.9,2776189700.0,2800683600.0,0.051342152029452456,20.87,2013-06-30 00:00:00,2013-08-10 00:00:00,-73.61818009388035,0.776536292301094,-34.513615045760694,4.668046671768143
sz002171,2013-10-14,8.5,8.5,8.08,8.25,0.06727000000000001,19434606.0,160255447.04,2666305600.0,2689830000.0,0.060133954449932525,20.04,2013-06-30 00:00:00,2013-08-10 00:00:00,-70.70431390906016,0.74580036755348,-33.147538681614016,4.483281667679726
sz002171,2013-10-11,7.73,7.73,7.73,7.73,0.09957300000000001,1236568.0,9558670.64,2498247550.0,2520289200.0,0.0038261503108448966,18.78,2013-06-30 00:00:00,2013-08-10 00:00:00,-66.24782286493593,0.698792590022656,-31.058250191248717,4.200700542205558
sz002171,2013-10-10,7.03,7.03,7.03,7.03,0.100156,356415.0,2505597.45,2272015560.0,2292061200.0,0.0011028082263661962,17.08,2013-06-30 00:00:00,2013-08-10 00:00:00,-60.24868095609472,0.6355126853993832,-28.24573738282835,3.8203016463714174
sz002171,2013-07-12,6.58,6.62,6.38,6.39,-0.031818,3353445.0,21742876.64,2065174880.0,2083395600.0,0.010376125410744876,15.52,2013-03-31 00:00:00,2013-04-23 00:00:00,-34.44931418434835,0.6111305160889137,-15.968780395782586,3.472167407316422
sz002171,2013-07-11,6.4,6.69,6.36,6.6,0.03125,5379765.0,35325036.18,2133044480.0,2151864000.0,0.01664590182385695,16.03,2013-03-31 00:00:00,2013-04-23 00:00:00,-35.581444588257526,0.6312144990186904,-16.493572898259405,3.586275521871324
sz002171,2013-07-10,6.18,6.45,6.09,6.4,0.04065,2941372.0,18594010.63,2068406760.0,2086656000.0,0.009101101951532976,15.55,2013-03-31 00:00:00,2013-04-23 00:00:00,-34.50321899467397,0.612086786927215,-15.99376765891821,3.4776005060570414
sz002171,2013-07-09,6.06,6.2,6.04,6.15,0.014851,1384557.0,8493146.49,1987609630.0,2005146000.0,0.004284053277604618,14.94,2013-03-31 00:00:00,2013-04-23 00:00:00,-33.15544995404215,0.5881773765696583,-15.369017113264027,3.341758041663423
sz002171,2013-07-08,6.24,6.25,6.06,6.06,-0.057543,3279921.0,20183311.93,1958522660.0,1975802400.0,0.010148629712560997,14.72,2013-03-31 00:00:00,2013-04-23 00:00:00,-32.670263865377436,0.5795701798290176,-15.144111907328297,3.292855839589677
sz002171,2013-07-05,6.35,6.68,6.27,6.43,0.00312,5447771.0,35305723.72,2078102420.0,2096437200.0,0.016856323919780623,15.62,2013-03-31 00:00:00,2013-04-23 00:00:00,-34.66499146950729,0.6149566291395975,-16.068756354219126,3.493905652554628
sz002171,2013-07-04,6.16,6.6,6.06,6.41,0.037217,4499762.0,28610180.86,2071638650.0,2089916400.0,0.013923023892221746,15.57,2013-03-31 00:00:00,2013-04-23 00:00:00,-34.55717308946815,0.6130439320715343,-16.018777767584265,3.4830385722093347
sz002171,2013-07-03,6.28,6.28,6.07,6.18,-0.014353999999999999,1850918.0,11432982.49,1997305280.0,2014927200.0,0.005727053022159937,15.01,2013-03-31 00:00:00,2013-04-23 00:00:00,-33.31720661102561,0.59104693817353,-15.443998476292101,3.358061593870265
sz002171,2013-07-02,6.35,6.38,6.21,6.27,0.0015970000000000001,1727146.0,10831503.26,2026392250.0,2044270800.0,0.005344081541962076,15.23,2013-03-31 00:00:00,2013-04-23 00:00:00,-33.802406351799334,0.5996543771024586,-15.668910010584023,3.4069651719484124
sz002171,2013-07-01,6.16,6.28,6.12,6.26,0.016234000000000002,1451053.0,9014762.22,2023160370.0,2041010400.0,0.004489803139036378,15.21,2013-03-31 00:00:00,2013-04-23 00:00:00,-33.748509981359106,0.5986982559876464,-15.64392665970847,3.4015329238689938
sz002171,2013-06-28,6.14,6.35,5.92,6.16,-0.006451999999999999,1714700.0,10621634.32,1985048150.0,2008406400.0,0.005321055814187682,14.96,2013-03-31 00:00:00,2013-04-23 00:00:00,-33.20938876416171,0.5891342505639906,-15.394020136807535,3.3471945672640295
sz002171,2013-06-27,6.34,6.48,6.17,6.2,-0.025157,1852558.0,11756711.13,1997938070.0,2021448000.0,0.005748856670016803,15.06,2013-03-31 00:00:00,2013-04-23 00:00:00,-33.42504716849282,0.5929600286689626,-15.493987343145507,3.368930909492072
sz002171,2013-06-26,6.33,6.49,6.21,6.36,0.0063289999999999996,2192386.0,13924222.3,2049497760.0,2073614400.0,0.006803410685357373,15.45,2013-03-31 00:00:00,2013-04-23 00:00:00,-34.28762084611862,0.6082620777591495,-15.89382838379668,3.4558702370454237
sz002171,2013-06-25,6.5,6.53,5.91,6.32,-0.036585,2877431.0,17998807.89,2036607840.0,2060572800.0,0.00892924183184918,15.35,2013-03-31 00:00:00,2013-04-23 00:00:00,-34.071979289197294,0.6044365985270718,-15.793868986978097,3.4341355928780986
sz002171,2013-06-24,7.18,7.18,6.52,6.56,-0.092669,3018299.0,20542139.95,2113947380.0,2138822400.0,0.009366383301366753,15.94,2013-03-31 00:00:00,2013-04-23 00:00:00,-35.36583849036739,0.627389648829499,-16.393629938269694,3.5645444516413987
sz002171,2013-06-21,7.16,7.32,6.99,7.23,-0.010944,1813173.0,12940096.07,2329853590.0,2357269200.0,0.005626637161350555,17.56,2013-03-31 00:00:00,2013-04-23 00:00:00,-38.97787961655381,0.6914672251135461,-18.06797071660694,3.928604281834742
sz002171,2013-06-20,7.43,7.5,7.3,7.31,-0.030504000000000003,1951595.0,14417857.58,2355633440.0,2383352400.0,0.006056188203033829,17.76,2013-03-31 00:00:00,2013-04-23 00:00:00,-39.40917361256977,0.6991183766273559,-18.26789455461262,3.9720746669902836
sz002171,2013-06-19,7.43,7.67,7.28,7.54,0.00266,2566503.0,19074533.15,2429750490.0,2458341600.0,0.007964370292194076,18.32,2013-03-31 00:00:00,2013-04-23 00:00:00,-40.649134821154256,0.7211152770381268,-18.842671403092556,4.097051114177143
sz002171,2013-06-18,7.48,7.57,7.4,7.52,0.008043000000000002,1520529.0,11382631.92,2423305530.0,2451820800.0,0.004718504513130872,18.27,2013-03-31 00:00:00,2013-04-23 00:00:00,-40.54129497651672,0.7192021991882859,-18.792682866667217,4.086181870401874
sz002171,2013-06-17,7.63,7.7,7.41,7.46,-0.02228,2812754.0,21104588.16,2403970650.0,2432258400.0,0.008728536199058836,18.12,2013-03-31 00:00:00,2013-04-23 00:00:00,-40.217823025919245,0.7134638097663353,-18.642739314361805,4.053578935027447
sz002171,2013-06-14,7.58,7.8,7.58,7.63,0.001312,2809289.0,21529892.89,2458752820.0,2487685200.0,0.008717783624138355,18.54,2013-03-31 00:00:00,2013-04-23 00:00:00,-41.13429512122003,0.7297220162892599,-19.06756465487236,4.145950717002258
sz002171,2013-06-13,8.1,8.14,7.54,7.62,-0.078597,6451633.0,49893545.96,2455530340.0,2484424800.0,0.02002070292481094,18.51,2013-03-31 00:00:00,2013-04-23 00:00:00,-41.08039763951698,0.7287658754606555,-19.042580788877352,4.1405183569179815
sz002171,2013-06-07,8.28,8.67,8.19,8.27,0.029887999999999998,17416284.0,146417667.91,2664991590.0,2696350800.0,0.05404620007825241,20.09,2013-03-31 00:00:00,2013-04-23 00:00:00,-44.58461459265596,0.7909306519087257,-20.666940295264236,4.493710522885189
sz002171,2013-06-06,7.9,8.09,7.84,8.03,0.008794,3634066.0,28940971.14,2587652050.0,2618101200.0,0.011277231024936291,19.51,2013-03-31 00:00:00,2013-04-23 00:00:00,-43.29074092780571,0.7679773450207457,-20.067172639417333,4.363300206318734
sz002171,2013-06-05,7.9,7.97,7.81,7.96,0.012723,2243685.0,17724704.05,2565094680.0,2595278400.0,0.006962601707941635,19.34,2013-03-31 00:00:00,2013-04-23 00:00:00,-42.91336083264345,0.7612826256111216,-19.89224027840901,4.325263836143688
sz002171,2013-06-04,8.06,8.09,7.85,7.86,-0.018727,2687219.0,21429868.64,2532869880.0,2562674400.0,0.008338976078786961,19.09,2013-03-31 00:00:00,2013-04-23 00:00:00,-42.374233460327694,0.751718510995723,-19.642330902338553,4.270924859160587
sz002171,2013-06-03,8.0,8.09,7.95,8.01,0.00125,2393546.0,19197066.55,2581207090.0,2611580400.0,0.007427650239407951,19.46,2013-03-31 00:00:00,2013-04-23 00:00:00,-43.182920003228155,0.7660646028125945,-20.0171928732764,4.352432869507862
sz002171,2013-05-31,8.1,8.2,8.0,8.0,-0.009901,3462025.0,28075239.01,2577984610.0,2608320000.0,0.0107433535066759,19.43,2013-03-31 00:00:00,2013-04-23 00:00:00,-43.129008742300286,0.7651082175406688,-19.992202620001404,4.346999120607103
sz002171,2013-05-30,8.16,8.18,8.05,8.08,-0.012225,3759659.0,30460028.06,2603764450.0,2634403200.0,0.011666971150174512,19.63,2013-03-31 00:00:00,2013-04-23 00:00:00,-43.56029926532628,0.7727593074436685,-20.192124848122663,4.390469155717866
sz002171,2013-05-29,8.26,8.28,8.13,8.18,-0.008485,4665572.0,38137652.26,2635989260.0,2667007200.0,0.014478199717702946,19.87,2013-03-31 00:00:00,2013-04-23 00:00:00,-44.09941460892034,0.7823232086696551,-20.44202864834873,4.444806920318763
sz002171,2013-05-28,8.1,8.36,8.08,8.25,0.01601,9748565.0,80193217.7,2658546630.0,2689830000.0,0.03025173993280682,20.04,2013-03-31 00:00:00,2013-04-23 00:00:00,-44.47680025911896,0.7890180266255731,-20.616963584362043,4.482843850389316
sz002171,2013-05-27,8.08,8.22,8.02,8.12,-0.002457,3183590.0,25849237.37,2616654380.0,2647444800.0,0.009879314210384942,19.73,2013-03-31 00:00:00,2013-04-23 00:00:00,-43.7759473421708,0.7765849023391237,-20.292087267213947,4.41220445703223
sz002171,2013-05-24,7.94,8.17,7.91,8.14,0.021330000000000002,5392258.0,43494230.51,2623099340.0,2653965600.0,0.0167332511775936,19.77,2013-03-31 00:00:00,2013-04-23 00:00:00,-43.88376976448214,0.7784976711170584,-20.342067727620712,4.423071944800605
sz002171,2013-05-23,8.1,8.18,7.96,7.97,-0.032767000000000004,6129363.0,49369205.09,2568317170.0,2598538800.0,0.019020634865747517,19.36,2013-03-31 00:00:00,2013-04-23 00:00:00,-42.96727773049076,0.7622391108819462,-19.91723314464542,4.330698153192998
sz002171,2013-05-22,8.03,8.48,7.92,8.24,0.022333000000000002,9381339.0,77125590.16,2655324150.0,2686569600.0,0.029112164463988323,20.02,2013-03-31 00:00:00,2013-04-23 00:00:00,-44.42288231531675,0.7880615227995181,-20.591970233279284,4.477409427917573
sz002171,2013-05-21,8.0,8.06,7.94,8.06,0.008761,5201074.0,41640811.92,2597319490.0,2627882400.0,0.016139969149501898,19.58,2013-03-31 00:00:00,2013-04-23 00:00:00,-43.45245855833349,0.7708462142956534,-20.14213591195754,4.379599825025284
sz002171,2013-05-20,7.98,8.04,7.89,7.99,-0.00125,4948301.0,39410077.26,2574762130.0,2605059600.0,0.015355564123509925,19.41,2013-03-31 00:00:00,2013-04-23 00:00:00,-43.07507780171268,0.7641514831517607,-19.967203244333927,4.341563388181426
sz002171,2013-05-17,7.86,8.04,7.72,8.0,0.008827,6534680.0,51612374.17,2577984610.0,2608320000.0,0.020278414307523737,19.43,2013-03-31 00:00:00,2013-04-23 00:00:00,-43.1289890380102,0.7651078679867441,-19.992193486191667,4.346997134599675
sz002171,2013-05-16,7.61,8.08,7.5,7.93,0.033898000000000005,6289130.0,49310691.51,2555427240.0,2585497200.0,0.0195164237585571,19.26,2013-03-31 00:00:00,2013-04-23 00:00:00,-42.75162048399795,0.7584133533170149,-19.817266475016694,4.308961927664184
sz002171,2013-05-15,7.55,7.67,7.45,7.67,0.006562,2965797.0,22376554.7,2471642740.0,2500726800.0,0.009203459149601856,18.63,2013-03-31 00:00:00,2013-04-23 00:00:00,-41.34994021073446,0.7335475581895069,-19.16752568920405,4.167685717221799
sz002171,2013-05-14,7.75,7.75,7.56,7.62,-0.015503999999999999,2185133.0,16645718.72,2455530340.0,2484424800.0,0.006780903167337774,18.51,2013-03-31 00:00:00,2013-04-23 00:00:00,-41.08037081743049,0.7287653996370884,-19.04256835565425,4.14051565350351
sz002171,2013-05-13,7.75,7.79,7.67,7.74,-0.006418000000000001,1613318.0,12442536.66,2494200110.0,2523549600.0,0.005006447265371984,18.8,2013-03-31 00:00:00,2013-04-23 00:00:00,-41.727311047917404,0.7402421133626631,-19.342453758729597,4.205721154279458
sz002171,2013-05-10,7.74,7.79,7.58,7.79,0.001285,2119281.0,16330772.87,2510312510.0,2539851600.0,0.006576551295599447,18.92,2013-03-31 00:00:00,2013-04-23 00:00:00,-41.99684681074878,0.7450236753108078,-19.467395503068285,4.232887828361884
sz002171,2013-05-09,7.93,7.99,7.67,7.78,-0.017677000000000002,3633019.0,28340836.86,2507090030.0,2536591200.0,0.011273981979817455,18.9,2013-03-31 00:00:00,2013-04-23 00:00:00,-41.94295011984478,0.7440675485109712,-19.442412003643604,4.227455547982727
sz002171,2013-05-08,7.96,8.1,7.86,7.92,-0.005025,3512773.0,27828722.52,2552204760.0,2582236800.0,0.010900834680678208,19.24,2013-03-31 00:00:00,2013-04-23 00:00:00,-42.69771767518911,0.7574571179856029,-19.792280139672602,4.303529030657663
sz002171,2013-05-07,7.89,8.16,7.8,7.96,-0.008717,6010676.0,47961256.51,2565094680.0,2595278400.0,0.018652325519617857,19.34,2013-03-31 00:00:00,2013-04-23 00:00:00,-42.91335729559949,0.7612825628639943,-19.892238638832733,4.325263479642868
sz002171,2013-05-06,8.01,8.2,7.89,8.03,0.077852,9435976.0,76112254.46,2587652050.0,2618101200.0,0.029281714007878296,19.51,2013-03-31 00:00:00,2013-04-23 00:00:00,-43.2907225238398,0.7679770185345601,-20.067164108365354,4.363298351371776
sz002171,2013-05-03,7.35,7.5,7.35,7.45,0.014986000000000001,1463795.0,10897833.8,2400748170.0,2428998000.0,0.004542447594576319,18.1,2013-03-31 00:00:00,2013-04-23 00:00:00,-40.163883839191094,0.7125069290909699,-18.61773611624356,4.048142371468231
sz002171,2013-05-02,7.34,7.43,7.27,7.34,-0.030382999999999997,1512767.0,11121945.32,2365300880.0,2393133600.0,0.0046944174730108755,17.83,2013-03-31 00:00:00,2013-04-23 00:00:00,-39.57087471077541,0.7019869526190212,-18.342850163690493,3.9883726193939926
sz002171,2013-04-26,7.8,7.86,7.52,7.57,0.001323,1471470.0,11308552.24,2439417940.0,2468122800.0,0.00456626464754129,18.39,2013-03-31 00:00:00,2013-04-23 00:00:00,-40.810830163637206,0.7239837509233247,-18.917624344138453,4.113348486458047
sz002171,2013-04-25,7.74,7.8,7.56,7.56,-0.019455,2167253.0,16624541.14,2436195450.0,2464862400.0,0.006725417979087022,18.37,2013-03-31 00:00:00,2013-04-23 00:00:00,-40.75690877333009,0.7230271859563046,-18.892629395448274,4.107913716610971
sz002171,2013-04-24,7.63,7.78,7.51,7.71,0.01715,1592829.0,12212944.77,2484532670.0,2513768400.0,0.004942865810655651,18.73,2013-03-31 00:00:00,2013-04-23 00:00:00,-41.565566876920585,0.7373727732600793,-19.267478183508434,4.189418860542832
sz002171,2013-04-23,7.94,7.94,7.57,7.58,-0.04534,2511680.0,19353430.39,2442640420.0,2471383200.0,0.007794243575155446,18.41,2013-03-31 00:00:00,2013-04-23 00:00:00,-40.86473664348482,0.7249400513789307,-18.942612381171344,4.118781753470808
sz002171,2013-04-22,7.98,7.98,7.83,7.94,-0.012438,1848922.0,14594125.93,2558649720.0,2588757600.0,0.005737573441666725,19.29,2012-12-31 00:00:00,2013-03-26 00:00:00,-45.44384289962802,0.8076685109394319,-12.473675928089213,4.2810031548246545
sz002171,2013-04-19,7.82,8.05,7.8,8.04,0.033419,2516393.0,20017694.63,2590874530.0,2621361600.0,0.007808868969042665,19.53,2012-12-31 00:00:00,2013-03-26 00:00:00,-46.01619229944855,0.8178408149963564,-12.630777539120794,4.334920900991182
sz002171,2013-04-18,7.75,7.9,7.66,7.78,-0.01269,1493403.0,11621215.26,2507090030.0,2536591200.0,0.00463432712865122,18.9,2012-12-31 00:00:00,2013-03-26 00:00:00,-44.52810747571755,0.7913932441694573,-12.222319832633998,4.194736985667171
sz002171,2013-04-17,7.83,7.92,7.75,7.88,0.002545,1264883.0,9935497.45,2539314840.0,2569195200.0,0.00392518402326196,19.14,2012-12-31 00:00:00,2013-03-26 00:00:00,-45.10043195725511,0.8015651053564303,-12.379414603958228,4.24865238442553
sz002171,2013-04-16,7.68,7.88,7.6,7.86,0.005115,1689548.0,13052939.71,2532869880.0,2562674400.0,0.0052430041451635885,19.09,2012-12-31 00:00:00,2013-03-26 00:00:00,-44.985942732999625,0.7995303007410444,-12.347988972024426,4.237867012877757
sz002171,2013-04-15,7.97,7.97,7.76,7.82,-0.036946,2053200.0,16102875.56,2519979950.0,2549632800.0,0.006371488789027865,19.0,2012-12-31 00:00:00,2013-03-26 00:00:00,-44.75701062365961,0.7954615150913522,-12.285150427587318,4.216300635129072
sz002171,2013-04-12,8.18,8.25,8.07,8.12,-0.013366,1777376.0,14472127.15,2616654380.0,2647444800.0,0.005515551931623465,19.73,2012-12-31 00:00:00,2013-03-26 00:00:00,-46.47404052489229,0.8259781020496798,-12.756450238083554,4.378052149857716
sz002171,2013-04-11,8.47,8.47,8.2,8.23,-0.020238,2504065.0,20745921.97,2652101670.0,2683309200.0,0.007770612711842228,19.99,2012-12-31 00:00:00,2013-03-26 00:00:00,-47.103627611548234,0.8371676853318248,-12.929262764189712,4.4373619294061575
sz002171,2013-04-10,8.36,8.59,8.25,8.4,0.001192,4350540.0,36685729.29,2706883840.0,2738736000.0,0.01350059262240082,20.41,2012-12-31 00:00:00,2013-03-26 00:00:00,-48.07660188040385,0.8544602519099791,-13.196330092603828,4.529020241044415
sz002171,2013-04-09,8.32,8.43,8.18,8.39,0.00479,4866115.0,40452589.47,2703661360.0,2735475600.0,0.015100524590106211,20.38,2012-12-31 00:00:00,2013-03-26 00:00:00,-48.0193627999463,0.8534429479160629,-13.180618795000186,4.523628076377372
sz002171,2013-04-08,7.95,8.45,7.9,8.35,0.020782,6786864.0,55967903.49,2690771430.0,2722434000.0,0.02106099156850346,20.28,2012-12-31 00:00:00,2013-03-26 00:00:00,-47.7904465609195,0.849374444327733,-13.11778460673393,4.502063193679646
sz002171,2013-04-03,7.84,8.45,7.77,8.18,0.058214999999999996,6734745.0,54872998.06,2635989260.0,2667007200.0,0.02089925590212761,19.87,2012-12-31 00:00:00,2013-03-26 00:00:00,-46.817485575685595,0.8320821138379526,-12.850720924481358,4.410406133415015
sz002171,2013-04-02,7.7,7.82,7.7,7.73,0.002594,1185271.0,9183227.19,2490977630.0,2520289200.0,0.0036781321195566096,18.78,2012-12-31 00:00:00,2013-03-26 00:00:00,-44.24194098145046,0.786307237979005,-12.143771279448277,4.167778885590373
sz002171,2013-04-01,7.68,7.75,7.66,7.71,0.003906,897092.0,6916074.51,2484532670.0,2513768400.0,0.0027838552511366254,18.73,2012-12-31 00:00:00,2013-03-26 00:00:00,-44.12747431308233,0.7842728342469684,-12.112351838778487,4.156995638903058
sz002171,2013-03-29,7.8,7.85,7.6,7.68,-0.011583,1173463.0,9068860.92,2474865220.0,2503987200.0,0.003641489551499697,18.66,2012-12-31 00:00:00,2013-03-26 00:00:00,-43.955783024588285,0.7812213835229278,-12.065225069656409,4.140821589773403
sz002171,2013-03-28,7.97,8.0,7.75,7.77,-0.033582,2226866.0,17390911.94,2503867550.0,2533330800.0,0.006910408987088793,18.88,2012-12-31 00:00:00,2013-03-26 00:00:00,-44.47088933576445,0.7903763123488647,-12.206614282895183,4.189346793684653
sz002171,2013-03-27,8.05,8.19,8.0,8.04,0.0037450000000000005,1580817.0,12813355.23,2590874530.0,2621361600.0,0.004905590190814837,19.53,2012-12-31 00:00:00,2013-03-26 00:00:00,-46.01620555056347,0.8178410505069905,-12.630781176359696,4.33492214930253
sz002171,2013-03-26,8.19,8.19,7.95,8.01,-0.025547,1858701.0,14899182.61,2581207090.0,2611580400.0,0.005767919617019183,19.46,2012-12-31 00:00:00,2013-03-26 00:00:00,-45.8445178312853,0.8147896632182381,-12.58365538693562,4.318748436408181
sz002171,2013-03-25,8.13,8.24,8.1,8.22,0.01107,1779403.0,14537636.54,2648879180.0,2680048800.0,0.0055218421324901654,19.97,2012-09-30 00:00:00,2012-10-29 00:00:00,-79.72554953452376,0.8714358093604386,-107.88564493920018,4.217663164206988
sz002171,2013-03-22,8.17,8.17,8.06,8.13,-0.004896,1412096.0,11462491.82,2619876860.0,2650705200.0,0.004382015298230468,19.75,2012-09-30 00:00:00,2012-10-29 00:00:00,-78.8526506913703,0.8618946357427664,-106.70442693305131,4.1714848271702145
sz002171,2013-03-21,8.16,8.24,8.11,8.17,0.00492,2082373.0,17026429.63,2632766780.0,2663746800.0,0.00646201841319192,19.85,2012-09-30 00:00:00,2012-10-29 00:00:00,-79.24061273130276,0.8661352338476846,-107.22942218406449,4.192008902758118
sz002171,2013-03-20,7.96,8.14,7.95,8.13,0.023929,2442969.0,19697694.32,2619876860.0,2650705200.0,0.007581019655252042,19.75,2012-09-30 00:00:00,2012-10-29 00:00:00,-78.85265765563703,0.8618947118653073,-106.70443635718712,4.171485195595787
sz002171,2013-03-19,7.95,8.02,7.75,7.94,-0.001258,1325113.0,10436073.55,2558649720.0,2588757600.0,0.004112089723637514,19.29,2012-09-30 00:00:00,2012-10-29 00:00:00,-77.00988804461737,0.8417524182490262,-104.21077668196439,4.073998485828399
sz002171,2013-03-18,8.05,8.13,7.93,7.95,-0.032847,2359577.0,18896086.19,2561872200.0,2592018000.0,0.0073222376783666256,19.31,2012-09-30 00:00:00,2012-10-29 00:00:00,-77.1068885103634,0.8428126765961843,-104.34203896698486,4.07913003140791
sz002171,2013-03-15,8.28,8.42,8.19,8.22,-0.002427,1537019.0,12790634.89,2648879180.0,2680048800.0,0.004769676274929233,19.97,2012-09-30 00:00:00,2012-10-29 00:00:00,-79.72563649222347,0.8714367598468745,-107.88576261148428,4.21766776446737
sz002171,2013-03-14,8.3,8.35,8.22,8.24,-0.01199,1302531.0,10777455.47,2655324150.0,2686569600.0,0.004042013266063957,20.02,2012-09-30 00:00:00,2012-10-29 00:00:00,-79.91960136473568,0.8735568824004605,-108.14823838604721,4.227928948024224
sz002171,2013-03-13,8.28,8.43,8.26,8.34,0.0048189999999999995,1599215.0,13327159.08,2687548950.0,2719173600.0,0.004962682856436903,20.26,2012-09-30 00:00:00,2012-10-29 00:00:00,-80.889466062829,0.8841579360537448,-109.4606718414259,4.279236999650028
sz002171,2013-03-12,8.42,8.59,8.21,8.3,-0.014252,2317459.0,19446286.8,2674659030.0,2706132000.0,0.007191537120901726,20.16,2012-09-30 00:00:00,2012-10-29 00:00:00,-80.50152919364483,0.8799176130763301,-108.93571065179492,4.258714255652041
sz002171,2013-03-11,8.45,8.52,8.35,8.42,-0.004728,1619592.0,13666206.27,2713328800.0,2745256800.0,0.005025916741089395,20.45,2012-09-30 00:00:00,2012-10-29 00:00:00,-81.66542482829774,0.8926395113926989,-110.51070928046003,4.320286985773282
sz002171,2013-03-08,8.57,8.58,8.43,8.46,-0.010526,1798486.0,15269416.63,2726218720.0,2758298400.0,0.0055810604807232786,20.55,2012-09-30 00:00:00,2012-10-29 00:00:00,-82.05337317667706,0.8968799598428356,-111.0356860038864,4.34081033704684
sz002171,2013-03-07,8.51,8.71,8.42,8.55,-0.001168,2880521.0,24668044.07,2755221050.0,2787642000.0,0.008938830715597212,20.77,2012-09-30 00:00:00,2012-10-29 00:00:00,-82.92625493613481,0.9064209467280957,-112.21688089215725,4.386987770317198
sz002171,2013-03-06,8.44,8.65,8.44,8.56,0.014218000000000001,2031278.0,17351198.34,2758443530.0,2790902400.0,0.00630346044459355,20.79,2012-09-30 00:00:00,2012-10-29 00:00:00,-83.02322606417776,0.907480884401076,-112.3481034770184,4.392117763865393
sz002171,2013-03-05,8.34,8.48,8.32,8.44,0.01199,1727917.0,14548461.08,2719773760.0,2751777600.0,0.0053620708069482955,20.5,2012-09-30 00:00:00,2012-10-29 00:00:00,-81.85934982831874,0.894759198122175,-110.77313109905208,4.330546059984533
sz002171,2013-03-04,8.78,8.78,8.22,8.34,-0.060811000000000004,3789920.0,32337866.05,2687548950.0,2719173600.0,0.011760877062350808,20.26,2012-09-30 00:00:00,2012-10-29 00:00:00,-80.88948490431599,0.8841581419995999,-109.46069733796983,4.2792379964076055
sz002171,2013-03-01,8.91,8.95,8.79,8.88,-0.013333000000000001,3422649.0,30293945.31,2861562910.0,2895235200.0,0.010621161957959542,21.57,2012-09-30 00:00:00,2012-10-29 00:00:00,-86.12695091649923,0.9414059811173255,-116.5481040961615,4.556311878022002
sz002171,2013-02-28,8.86,9.04,8.71,9.0,0.019253,3621038.0,32184236.86,2900232680.0,2934360000.0,0.01123680255888986,21.86,2012-09-30 00:00:00,2012-10-29 00:00:00,-87.29079914145221,0.9541273612245322,-118.12303856940741,4.61788210006213
sz002171,2013-02-27,8.77,8.88,8.74,8.83,0.010297,1810111.0,15964891.72,2845450510.0,2878933200.0,0.005617135168518534,21.45,2012-09-30 00:00:00,2012-10-29 00:00:00,-85.64193496752252,0.9361045405061671,-115.89177423996539,4.530653429582381
sz002171,2013-02-26,8.91,8.91,8.72,8.74,-0.023464,2106533.0,18611000.88,2816448180.0,2849589600.0,0.0065369917155727675,21.23,2012-09-30 00:00:00,2012-10-29 00:00:00,-84.76906787560738,0.926563713943689,-114.71059920000295,4.484476772258436
sz002171,2013-02-25,8.9,8.99,8.85,8.95,0.005618,2203288.0,19667330.63,2884120280.0,2918058000.0,0.006837241753315502,21.74,2012-09-30 00:00:00,2012-10-29 00:00:00,-86.80588106901065,0.9488269904475504,-117.46684116100478,4.5922288295141565
sz002171,2013-02-22,8.84,8.98,8.78,8.9,0.007928,2617099.0,23216008.94,2868007880.0,2901756000.0,0.008121379743210469,21.62,2012-09-30 00:00:00,2012-10-29 00:00:00,-86.32093008379987,0.9435262599193236,-116.81059921461706,4.5665738178057245
sz002171,2013-02-21,9.18,9.18,8.77,8.83,-0.047465,5508479.0,49018285.61,2845450510.0,2878933200.0,0.01709390811720707,21.45,2012-09-30 00:00:00,2012-10-29 00:00:00,-85.64196062000448,0.9361048208992345,-115.89180895323581,4.530654786657107
sz002171,2013-02-20,9.2,9.44,9.16,9.27,0.003247,4043610.0,37420745.76,2987239660.0,3022390800.0,0.012548127691904037,22.52,2012-09-30 00:00:00,2012-10-29 00:00:00,-89.90951578682619,0.9827511019534553,-121.66671980896851,4.7564181753501
sz002171,2013-02-19,9.3,9.32,9.11,9.24,-0.009646,3815710.0,35093452.9,2977572220.0,3012609600.0,0.011840908564091856,22.45,2012-09-30 00:00:00,2012-10-29 00:00:00,-89.61852443797608,0.9795704367453432,-121.27294655151573,4.741024070194179
sz002171,2013-02-18,9.5,9.53,9.3,9.33,-0.017894999999999998,3756816.0,35158896.14,3006574550.0,3041953200.0,0.0116581487327497,22.67,2012-09-30 00:00:00,2012-10-29 00:00:00,-90.4914045260342,0.9891114053614599,-122.45413917802699,4.787201415043691
sz002171,2013-02-08,9.36,9.55,9.36,9.5,0.013874000000000001,5338131.0,50557443.46,3061356720.0,3097380000.0,0.01656528432923034,23.08,2012-09-30 00:00:00,2012-10-29 00:00:00,-92.14025437813086,1.007134069535803,-124.68538412697929,4.87442932786585
sz002171,2013-02-07,9.39,9.5,9.27,9.37,-0.005308,4001033.0,37491527.4,3019464470.0,3054994800.0,0.012416002765550011,22.76,2012-09-30 00:00:00,2012-10-29 00:00:00,-90.87939367034845,0.993352299729358,-122.9791711070402,4.807726924515127
sz002171,2013-02-06,9.6,9.64,9.36,9.42,-0.016701,5982235.0,56614580.2,3035576880.0,3071296800.0,0.018564067367649737,22.88,2012-09-30 00:00:00,2012-10-29 00:00:00,-91.36435567024611,0.9986531506530242,-123.63542795864468,4.833382518925584
sz002171,2013-02-05,9.24,9.66,9.13,9.58,0.027897,10851266.0,102603340.74,3087136570.0,3123463200.0,0.03367364090406924,23.27,2012-09-30 00:00:00,2012-10-29 00:00:00,-92.91614826237605,1.0156149356940505,-125.73533376790243,4.915475881624597
sz002171,2013-02-04,9.3,9.55,9.02,9.32,0.018579,9756461.0,91199472.91,3003352070.0,3038692800.0,0.03027624281158619,22.64,2012-09-30 00:00:00,2012-10-29 00:00:00,-90.39441525987141,0.9880512694307411,-122.32289204842745,4.782070461947643
sz002171,2013-02-01,9.15,9.18,8.91,9.15,-0.01824,6489455.0,58857199.04,2948569900.0,2983266000.0,0.02013807210403932,22.23,2012-09-30 00:00:00,2012-10-29 00:00:00,-88.74561056125388,0.9700290988040605,-120.09170820174718,4.694844937847376
sz002171,2013-01-31,9.18,9.61,9.17,9.32,0.025303,12629779.0,118983583.16,3003352070.0,3038692800.0,0.039192721178373205,22.64,2012-09-30 00:00:00,2012-10-29 00:00:00,-90.3944044993215,0.988051151813132,-122.32287748711211,4.782069892690043
sz002171,2013-01-30,9.04,9.34,9.01,9.09,0.008879000000000001,6194595.0,56712213.1,2929235010.0,2963703600.0,0.019223062798911447,22.08,2012-09-30 00:00:00,2012-10-29 00:00:00,-88.16360090560691,0.9636674737254567,-119.30412520699939,4.66405530139875
sz002171,2013-01-29,8.92,9.04,8.86,9.01,0.01009,3837780.0,34410707.08,2903455160.0,2937620400.0,0.011909396182994608,21.89,2012-09-30 00:00:00,2012-10-29 00:00:00,-87.38768564476703,0.9551863739114964,-118.25414663899177,4.623007616769454
sz002171,2013-01-28,8.62,9.12,8.62,8.92,0.025287,2838805.0,25295414.41,2874452840.0,2908276800.0,0.008809377648373595,21.67,2012-09-30 00:00:00,2012-10-29 00:00:00,-86.51475179911398,0.9456448177008946,-117.07288126700769,4.576827428020725
sz002171,2013-01-25,8.6,8.86,8.57,8.7,0.0057799999999999995,2298665.0,20048735.58,2803558260.0,2836548000.0,0.0071332155943853994,21.13,2012-09-30 00:00:00,2012-10-29 00:00:00,-84.3810092189933,0.9223220597753551,-114.18547320604638,4.463947585428007
sz002171,2013-01-24,8.84,9.07,8.63,8.65,-0.025901,3750087.0,33206095.23,2787445860.0,2820246000.0,0.011637267297453449,21.01,2012-09-30 00:00:00,2012-10-29 00:00:00,-83.89608981983466,0.917021674496764,-113.52927400231303,4.438294244693678
sz002171,2013-01-23,9.0,9.0,8.78,8.88,-0.022026,4290976.0,38055158.01,2861562910.0,2895235200.0,0.013315753690699046,21.57,2012-09-30 00:00:00,2012-10-29 00:00:00,-86.12686166378843,0.9414050055453951,-116.5479833182387,4.556307156350306
sz002171,2013-01-22,9.18,9.25,9.01,9.08,-0.017315999999999998,4267236.0,38932109.47,2926012530.0,2960443200.0,0.013242083717255989,22.06,2012-09-30 00:00:00,2012-10-29 00:00:00,-88.06661696915096,0.9626073960508102,-119.17288528962807,4.658924630256333
sz002171,2013-01-21,9.2,9.32,9.13,9.24,0.003257,3982608.0,36679562.22,2977572220.0,3012609600.0,0.012358826319248775,22.45,2012-09-30 00:00:00,2012-10-29 00:00:00,-89.61845005022057,0.979569623654003,-121.27284588904274,4.741020134912477
sz002171,2013-01-18,8.99,9.27,8.89,9.21,0.031355,6284477.0,57469116.97,2967904780.0,3002828400.0,0.019501984551539422,22.37,2012-09-30 00:00:00,2012-10-29 00:00:00,-89.32751034901383,0.9763895229776647,-120.87914252184906,4.725628762034531
sz002171,2013-01-17,9.1,9.17,8.92,8.93,-0.030402,4945423.0,44628197.44,2877675320.0,2911537200.0,0.015346633125379828,21.69,2012-09-30 00:00:00,2012-10-29 00:00:00,-86.61179744027403,0.9467055698354733,-117.20420468398277,4.581961363482535
sz002171,2013-01-16,9.05,9.47,9.0,9.21,0.022198,12924423.0,119574336.91,2967904780.0,3002828400.0,0.04010706025076721,22.37,2012-09-30 00:00:00,2012-10-29 00:00:00,-89.3275331016298,0.9763897716739035,-120.8791733109833,4.725629965699739
sz002171,2013-01-15,8.85,9.14,8.77,9.01,0.019231,7620105.0,68344782.58,2903455160.0,2937620400.0,0.023646704449191494,21.89,2012-09-30 00:00:00,2012-10-29 00:00:00,-87.38770091668131,0.95518654084033,-118.25416730514374,4.623008424688504
sz002171,2013-01-14,8.59,8.88,8.5,8.84,0.029104,4964964.0,43375889.6,2848672990.0,2882193600.0,0.015407272759657822,21.47,2012-09-30 00:00:00,2012-10-29 00:00:00,-85.73885695851216,0.9371639410892427,-116.02293033193038,4.535780823668535
sz002171,2013-01-11,8.99,9.05,8.56,8.59,-0.042363,5122020.0,45047274.67,2768110970.0,2800683600.0,0.015894648833388352,20.87,2012-09-30 00:00:00,2012-10-29 00:00:00,-83.31408386179838,0.9106600898346937,-112.74169601121983,4.407504803857078
sz002171,2013-01-10,8.91,9.05,8.85,8.97,0.007865,4677650.0,41825846.15,2890565240.0,2924578800.0,0.014515680158113298,21.79,2012-09-30 00:00:00,2012-10-29 00:00:00,-86.99965003628554,0.9509449716695301,-117.7290518340664,4.602479649237736
sz002171,2013-01-09,8.89,8.94,8.74,8.9,0.002252,4916947.0,43551628.42,2868007880.0,2901756000.0,0.015258266410341942,21.62,2012-09-30 00:00:00,2012-10-29 00:00:00,-86.32073743634867,0.9435241541967725,-116.81033852159406,4.566563626316755
sz002171,2013-01-08,8.8,8.91,8.7,8.88,0.006803,4448592.0,39188215.8,2861562910.0,2895235200.0,0.013804867550509314,21.57,2012-09-30 00:00:00,2012-10-29 00:00:00,-86.12677992795093,0.9414041121362418,-116.54787271224609,4.55630283233833
sz002171,2013-01-07,8.8,8.85,8.7,8.82,-0.015625,5685755.0,49849880.86,2842228030.0,2875672800.0,0.017644030869683597,21.43,2012-09-30 00:00:00,2012-10-29 00:00:00,-85.5448185275083,0.9350430145085402,-115.760355017065,4.525515748699925
sz002171,2013-01-04,9.02,9.4,8.95,8.96,0.010147,11354536.0,103947250.92,2887342760.0,2921318400.0,0.03523538804239508,21.77,2012-09-30 00:00:00,2012-10-29 00:00:00,-86.9026727898497,0.9498849671197869,-117.59782096971682,4.597349332012622
