code,date,open,high,low,close,change,volume,money,traded_market_value,market_value,turnover,adjust_price,report_type,report_date,PE_TTM,PS_TTM,PC_TTM,PB
sz002196,2014-12-31,14.65,15.3,14.55,15.24,0.043121,3180315.0,47020425.2,1307592000.0,2602901230.0,0.03706660839160839,24.65,2014-09-30 00:00:00,2014-10-29 00:00:00,587.8962404297637,4.726071214247386,45.53967453148853,3.2439602110571886
sz002196,2014-12-30,15.13,15.2,14.41,14.61,-0.031809,2766324.0,40864879.45,1253538000.0,2495300980.0,0.03224153846153846,23.63,2014-09-30 00:00:00,2014-10-29 00:00:00,563.5935240779963,4.530702779684606,43.65713520434209,3.1098599405602885
sz002196,2014-12-29,15.98,15.98,15.01,15.09,-0.061567,3400815.0,51748960.73,1294722000.0,2577282120.0,0.03963653846153846,24.41,2014-09-30 00:00:00,2014-10-29 00:00:00,582.1098565035167,4.679554736291296,45.09144910905192,3.212031448918951
sz002196,2014-12-26,16.13,16.28,15.9,16.08,0.0018690000000000002,2197407.0,35388379.31,1379664000.0,2746368230.0,0.02561080419580419,26.01,2014-09-30 00:00:00,2014-10-29 00:00:00,620.2998578518836,4.986562425118572,48.049726628381485,3.4227605475499594
sz002196,2014-12-25,15.9,16.1,15.63,16.05,0.012618,2832790.0,44922568.67,1377090000.0,2741244410.0,0.03301620046620047,25.96,2014-09-30 00:00:00,2014-10-29 00:00:00,619.1426801826224,4.977259926316286,47.96008922162627,3.416375342035695
sz002196,2014-12-24,15.5,15.99,15.38,15.85,0.035271,2917138.0,45662053.37,1359930000.0,2707085600.0,0.03399927738927739,25.64,2014-09-30 00:00:00,2014-10-29 00:00:00,611.4276856451518,4.915239435123893,47.36246958046002,3.373804674650949
sz002196,2014-12-23,15.3,15.63,15.18,15.31,0.005253,2407520.0,37181869.65,1313598000.0,2614856810.0,0.02805967365967366,24.77,2014-09-30 00:00:00,2014-10-29 00:00:00,590.5967477550822,4.7477804701608495,45.74886148695368,3.2588613750901447
sz002196,2014-12-22,16.43,16.65,15.08,15.23,-0.086383,5094538.0,79053747.48,1306734000.0,2601193290.0,0.05937689976689977,24.64,2014-09-30 00:00:00,2014-10-29 00:00:00,587.5105548106619,4.722970705047237,45.509798515352536,3.2418320314290483
sz002196,2014-12-19,17.88,17.9,16.31,16.67,-0.067152,3046672.0,51672940.94,1430286000.0,2847136710.0,0.03550899766899768,26.97,2014-09-30 00:00:00,2014-10-29 00:00:00,643.0600074327227,5.169530235369128,49.81277550149847,3.5483490690618145
sz002196,2014-12-18,17.79,17.95,17.61,17.87,0.004497,1570835.0,27917585.83,1533246000.0,3052089570.0,0.018308100233100234,28.91,2014-09-30 00:00:00,2014-10-29 00:00:00,689.3513277969431,5.541664060349733,53.39859816550872,3.803780539875537
sz002196,2014-12-17,18.38,18.39,17.67,17.79,-0.027869,2025576.0,36165652.8,1526382000.0,3038426040.0,0.023608111888111887,28.78,2014-09-30 00:00:00,2014-10-29 00:00:00,686.2651932230192,5.516854764473894,53.15953971540853,3.7867515182977516
sz002196,2014-12-16,18.96,18.96,18.2,18.3,-0.009204,2263083.0,41823703.95,1570140000.0,3125531010.0,0.02637625874125874,29.6,2014-09-30 00:00:00,2014-10-29 00:00:00,705.9390074208303,5.675011664553331,54.683514583331394,3.895309910184689
sz002196,2014-12-15,18.41,18.47,18.12,18.47,-0.000541,2146250.0,39316826.4,1584726000.0,3154565990.0,0.025014568764568763,29.88,2014-09-30 00:00:00,2014-10-29 00:00:00,712.4968282278393,5.727729688607272,55.191497122850095,3.931495393789124
sz002196,2014-12-12,18.08,18.52,17.73,18.48,0.029526,3335845.0,60398335.51,1585584000.0,3156273930.0,0.038879312354312356,29.89,2014-09-30 00:00:00,2014-10-29 00:00:00,712.8824976590729,5.7308300676738835,55.22137188503991,3.933623484094019
sz002196,2014-12-11,17.49,17.98,17.48,17.95,0.012980000000000002,2950480.0,52289283.71,1540110000.0,3065753090.0,0.03438787878787879,29.04,2014-09-30 00:00:00,2014-10-29 00:00:00,692.4375855093247,5.5664743461300485,53.63766615417184,3.820810240920598
sz002196,2014-12-10,17.0,17.9,16.88,17.72,0.042352999999999995,4542473.0,80082682.47,1520376000.0,3026470460.0,0.05294257575757576,28.67,2014-09-30 00:00:00,2014-10-29 00:00:00,683.5649129393715,5.495147333738128,52.95037034706691,3.7718516070609467
sz002196,2014-12-09,18.01,18.02,17.0,17.0,-0.065934,5706934.0,99958242.86,1458600000.0,2903498750.0,0.06651438228438228,27.5,2014-09-30 00:00:00,2014-10-29 00:00:00,655.790229355479,5.271867912058705,50.798885163727554,3.6185933240091854
sz002196,2014-12-08,18.98,18.98,17.46,18.2,-0.061855999999999994,5479402.0,99270644.57,1561560000.0,3108451600.0,0.06386249417249418,29.44,2014-09-30 00:00:00,2014-10-29 00:00:00,702.0812548101301,5.643999366274659,54.38468498342468,3.8740231675376102
sz002196,2014-12-05,21.39,21.39,19.37,19.4,-0.098513,7842608.0,155735951.15,1664520000.0,3313404450.0,0.09140568764568764,31.38,2014-09-30 00:00:00,2014-10-29 00:00:00,748.3725897198407,6.0161333081858,57.970508774159065,4.129454718612079
sz002196,2014-12-04,22.83,22.95,21.42,21.52,-0.031067,7751716.0,168234445.24,1846416000.0,3675487830.0,0.09034634032634033,34.81,2014-09-30 00:00:00,2014-10-29 00:00:00,830.1535016254704,6.673566350025901,64.3054295560103,4.580714662121671
sz002196,2014-11-28,22.44,22.68,21.84,22.21,-0.009367,2550446.0,56848427.73,1905618000.0,3793335720.0,0.029725477855477855,35.93,2014-09-30 00:00:00,2014-10-29 00:00:00,856.7708000712851,6.88754160507063,66.3672612616252,4.727586594864321
sz002196,2014-11-27,21.26,22.8,21.1,22.42,0.054563,6182848.0,135942892.31,1923636000.0,3829202470.0,0.0720611655011655,36.27,2014-09-30 00:00:00,2014-10-29 00:00:00,864.872056625698,6.952667239099272,66.99480156791184,4.77228862239025
sz002196,2014-11-26,20.57,21.97,20.35,21.26,0.028045999999999998,4571752.0,96115696.29,1824108000.0,3631081380.0,0.053283822843822846,34.39,2014-09-30 00:00:00,2014-10-29 00:00:00,820.123649915366,6.592936827007275,63.528496228211914,4.525370814631511
sz002196,2014-11-25,20.52,20.85,20.39,20.68,0.010259,2083588.0,42837749.93,1774344000.0,3532020830.0,0.024284242424242423,33.45,2014-09-30 00:00:00,2014-10-29 00:00:00,797.7499546862357,6.413075705763433,61.7953829188693,4.401914714547317
sz002196,2014-11-24,20.69,20.9,20.4,20.47,-0.016338,1880522.0,38717643.17,1756326000.0,3496154080.0,0.021917505827505828,33.11,2014-09-30 00:00:00,2014-10-29 00:00:00,789.6489461477064,6.34795206552323,61.16786182441265,4.357214055551415
sz002196,2014-11-21,21.2,21.21,20.0,20.81,-0.018396,1021114.0,21369611.18,1785498000.0,3554224060.0,0.01190109557109557,33.66,2014-09-30 00:00:00,2014-10-29 00:00:00,802.7645127571325,6.4533875106725995,62.18382109343723,4.429584608891484
sz002196,2014-11-20,21.07,21.51,21.05,21.2,-0.000471,1154254.0,24501244.61,1818960000.0,3620833730.0,0.013452843822843823,34.29,2014-09-30 00:00:00,2014-10-29 00:00:00,817.8089257553273,6.574328864463265,63.3491928450141,4.512598368478005
sz002196,2014-11-19,21.5,21.53,21.0,21.21,-0.013488,1127293.0,24035667.8,1819818000.0,3622541670.0,0.013138613053613054,34.31,2014-09-30 00:00:00,2014-10-29 00:00:00,818.1942952683988,6.577426832501374,63.37904437491469,4.514724803860624
sz002196,2014-11-18,21.78,21.98,21.14,21.5,-0.011493999999999999,1506368.0,32454264.61,1844700000.0,3672071950.0,0.017556736596736598,34.78,2014-09-30 00:00:00,2014-10-29 00:00:00,829.3809860076701,6.667356132009922,64.24558887769706,4.5764519882785235
sz002196,2014-11-17,20.66,21.84,20.4,21.75,0.053269000000000004,3380161.0,72516703.14,1866150000.0,3714770460.0,0.03939581585081585,35.18,2014-09-30 00:00:00,2014-10-29 00:00:00,839.0247363270129,6.744881803458879,64.99261398281554,4.6296653619487635
sz002196,2014-11-14,20.45,20.88,20.16,20.65,-0.002897,955136.0,19717150.69,1771770000.0,3526897010.0,0.011132121212121213,33.41,2014-09-30 00:00:00,2014-10-29 00:00:00,796.591123755672,6.403759916468518,61.70561744702972,4.395520386481291
sz002196,2014-11-13,21.02,21.4,19.81,20.71,-0.010038,2612380.0,53160825.19,1776918000.0,3537144650.0,0.030447319347319347,33.5,2014-09-30 00:00:00,2014-10-29 00:00:00,798.9055531431276,6.422365509349102,61.88489799652565,4.408291206105378
sz002196,2014-11-12,21.13,21.74,20.6,20.92,-0.009,1834189.0,38738057.99,1794936000.0,3573011400.0,0.021377494172494172,33.84,2014-09-30 00:00:00,2014-10-29 00:00:00,807.0062822038902,6.487486902880213,62.512397442048936,4.452990322967324
sz002196,2014-11-11,22.73,22.73,20.85,21.11,-0.076149,2132991.0,45881886.21,1811238000.0,3605462270.0,0.024860034965034965,34.15,2014-09-30 00:00:00,2014-10-29 00:00:00,814.3352999030175,6.546404543774182,63.08011850862658,4.4934312038015385
sz002196,2014-11-10,22.65,23.05,21.93,22.85,0.002633,2285275.0,51361789.74,1960530000.0,3902643910.0,0.02663490675990676,36.96,2014-09-30 00:00:00,2014-10-29 00:00:00,881.4573994107465,7.085996057561427,68.27953696930196,4.863805098226379
sz002196,2014-11-07,23.4,23.63,22.79,22.79,-0.017249,1814960.0,41816512.55,1955382000.0,3892396260.0,0.021153379953379955,36.87,2014-09-30 00:00:00,2014-10-29 00:00:00,879.1426169004474,7.067387625942319,68.10022906617073,4.851032330101222
sz002196,2014-11-06,23.1,23.29,22.75,23.19,0.004765999999999999,1732493.0,39956267.85,1989702000.0,3960713880.0,0.020192226107226107,37.51,2014-09-30 00:00:00,2014-10-29 00:00:00,894.5731084480682,7.19143264768219,69.29550727108975,4.936176437471162
sz002196,2014-11-05,23.14,23.15,22.61,23.08,0.0,1946540.0,44733089.06,1980264000.0,3941926540.0,0.022686946386946388,37.34,2014-09-30 00:00:00,2014-10-29 00:00:00,890.3297966372946,7.1573208564802036,68.96681144772985,4.912762212765123
sz002196,2014-11-04,23.59,23.59,22.5,23.08,-0.021619,3692388.0,84568424.61,1980264000.0,3941926540.0,0.043034825174825174,37.34,2014-09-30 00:00:00,2014-10-29 00:00:00,890.3297966372946,7.1573208564802036,68.96681144772985,4.912762212765123
sz002196,2014-11-03,24.0,24.43,23.54,23.59,-0.023188,3909690.0,93286079.39,2024022000.0,4029031500.0,0.045567482517482515,38.16,2014-09-30 00:00:00,2014-10-29 00:00:00,910.00315484182,7.315474090850297,70.49075099345741,5.0213180885208555
sz002196,2014-10-31,24.8,24.8,23.4,24.15,-0.02621,2529772.0,60801418.96,2072070000.0,4124676160.0,0.029484522144522143,39.07,2014-09-30 00:00:00,2014-10-29 00:00:00,931.6052166044439,7.489132085652405,72.16409195777429,5.14051638239585
sz002196,2014-10-30,25.34,25.8,24.65,24.8,-0.033138,2997701.0,75206330.1,2127840000.0,4235692290.0,0.03493824009324009,40.12,2014-09-30 00:00:00,2014-10-29 00:00:00,956.6797940053234,7.690705476183165,74.10642125897195,5.278875714882932
sz002196,2014-10-29,24.5,26.42,24.02,25.65,0.06786,4199836.0,105360089.71,2200770000.0,4380867230.0,0.04894913752913753,41.49,2014-09-30 00:00:00,2014-10-29 00:00:00,989.4688114801527,7.954294900599223,76.64632725142982,5.459802655273381
sz002196,2014-10-28,21.9,24.02,21.9,24.02,0.09981699999999999,3571006.0,84491527.75,2060916000.0,4102472940.0,0.04162011655011655,38.86,2014-06-30 00:00:00,2014-08-27 00:00:00,945.1123838953993,6.919662658731892,109.94306602846787,5.924979116252175
sz002196,2014-10-27,21.7,22.17,21.35,21.84,0.006451999999999999,695365.0,15166266.34,1873872000.0,3730141920.0,0.008104487179487179,35.33,2014-06-30 00:00:00,2014-08-27 00:00:00,859.336038536774,6.291649118655095,99.96487236373675,5.387240892123121
sz002196,2014-10-24,21.02,22.14,21.02,21.7,0.0,879330.0,18996149.57,1861860000.0,3706230750.0,0.010248601398601398,35.1,2014-06-30 00:00:00,2014-08-27 00:00:00,853.8271457921232,6.251315630208987,99.32403369831522,5.35270523792801
sz002196,2014-10-23,22.6,22.86,21.27,21.7,-0.041519,1490349.0,32915747.77,1861860000.0,3706230750.0,0.017370034965034965,35.1,2014-06-30 00:00:00,2014-08-27 00:00:00,853.8271457921232,6.251315630208987,99.32403369831522,5.35270523792801
sz002196,2014-10-22,22.0,22.77,21.6,22.64,0.017528,1329926.0,29665321.46,1942512000.0,3866777160.0,0.015500303030303031,36.62,2014-06-30 00:00:00,2014-08-27 00:00:00,890.8128025408154,6.522106990340953,103.62650245368998,5.584571043065027
sz002196,2014-10-21,22.35,22.85,21.93,22.25,-0.0044740000000000005,1670515.0,37508542.48,1909050000.0,3800167480.0,0.019469871794871797,35.99,2014-06-30 00:00:00,2014-08-27 00:00:00,875.4676063369415,6.409756773613064,101.84142593981687,5.488370878310009
sz002196,2014-10-20,21.3,22.55,21.25,22.35,0.069378,2755655.0,60227947.24,1917630000.0,3817246880.0,0.032117191142191144,36.16,2014-06-30 00:00:00,2014-08-27 00:00:00,879.4020511136239,6.438562904045765,102.29911216765497,5.513036202279006
sz002196,2014-10-17,20.09,21.05,19.8,20.9,0.030063999999999997,2120063.0,43134652.8,1793220000.0,3569595520.0,0.024709358974358973,33.81,2014-06-30 00:00:00,2014-08-27 00:00:00,822.3491142642022,6.020848478317083,95.66225615980034,5.155367140785584
sz002196,2014-10-16,20.91,20.95,20.2,20.29,-0.042925,1650709.0,34203470.79,1740882000.0,3465411150.0,0.019239032634032635,32.82,2014-06-30 00:00:00,2014-08-27 00:00:00,798.3475922507747,5.8451207675611245,92.87020627825099,5.004899832229437
sz002196,2014-10-15,21.88,21.88,20.86,21.2,-0.028858999999999996,2047907.0,43470109.05,1818960000.0,3620833730.0,0.023868379953379953,34.29,2014-06-30 00:00:00,2014-08-27 00:00:00,834.153637124337,6.1072755714663165,97.0354531026837,5.229370563675196
sz002196,2014-10-14,22.0,22.83,20.76,21.83,0.0036780000000000003,3320553.0,71941524.56,1873014000.0,3728433980.0,0.038701083916083914,35.31,2014-06-30 00:00:00,2014-08-27 00:00:00,858.9418396755331,6.288762982374666,99.91901598499464,5.384769630440065
sz002196,2014-10-13,20.99,21.79,20.61,21.75,0.029342,2674895.0,56964447.62,1866150000.0,3714770460.0,0.031175932400932402,35.18,2014-06-30 00:00:00,2014-08-27 00:00:00,855.7942285030987,6.265717672774203,99.55286056384084,5.365037024264819
sz002196,2014-10-10,20.98,21.8,20.73,21.13,-0.007049,1877592.0,39719063.47,1812954000.0,3608878150.0,0.021883356643356642,34.18,2014-06-30 00:00:00,2014-08-27 00:00:00,831.3993099505303,6.0871096999580345,96.71504763610233,5.212103483841929
sz002196,2014-10-09,20.78,21.41,20.1,21.28,0.023569,3156061.0,65582115.44,1825824000.0,3634497260.0,0.03678392773892774,34.42,2014-06-30 00:00:00,2014-08-27 00:00:00,837.3014478564706,6.130322342147835,97.40163173822509,5.249104420904888
sz002196,2014-10-08,20.8,20.89,20.0,20.79,-0.015625,2651934.0,54570894.3,1783782000.0,3550808170.0,0.03090832167832168,33.63,2014-06-30 00:00:00,2014-08-27 00:00:00,818.0214991431654,5.989163741914649,95.15883319856805,5.128237002981615
sz002196,2014-09-30,22.04,22.2,20.8,21.12,-0.022222,3359907.0,72612023.5,1812096000.0,3607170210.0,0.03915975524475524,34.17,2014-06-30 00:00:00,2014-08-27 00:00:00,831.0059673835332,6.084229833056152,96.6692908683866,5.20963759033053
sz002196,2014-09-29,19.64,21.6,19.64,21.6,0.09979600000000001,5349545.0,111160126.33,1853280000.0,3689151350.0,0.06234900932400932,34.94,2014-06-30 00:00:00,2014-08-27 00:00:00,849.8922734849149,6.222506369601434,98.86629773669134,5.32803723373867
sz002196,2014-09-26,18.67,19.87,18.53,19.64,0.047467,5622674.0,108969701.96,1685112000.0,3354395020.0,0.065532331002331,31.77,2014-06-30 00:00:00,2014-08-27 00:00:00,772.7726537329785,5.657873250676884,89.89512394725143,4.844568659768421
sz002196,2014-09-25,19.2,19.43,18.56,18.75,-0.03599,4090314.0,77185715.38,1608750000.0,3202388330.0,0.04767265734265734,30.33,2014-06-30 00:00:00,2014-08-27 00:00:00,737.7536989069617,5.401481145159593,85.82143776104776,4.625032253778325
sz002196,2014-09-24,19.7,19.7,18.82,19.45,0.015666,3428103.0,65535389.31,1668810000.0,3321944160.0,0.03995458041958042,31.46,2014-06-30 00:00:00,2014-08-27 00:00:00,765.2967281531952,5.6031380848327235,89.02546421826305,4.797701531911832
sz002196,2014-09-23,17.25,19.6,16.85,19.15,0.06448,5431683.0,102154415.06,1643070000.0,3270705940.0,0.06330632867132867,30.98,2014-06-30 00:00:00,2014-08-27 00:00:00,753.4925144222562,5.516713254980203,87.65230323577147,4.723700046975908
sz002196,2014-09-15,16.5,18.0,16.5,17.99,0.096951,5427748.0,94920949.85,1543542000.0,2685703230.0,0.06326046620046619,29.1,2014-06-30 00:00:00,2014-08-27 00:00:00,707.8503254380131,5.182542889467349,82.34283709958991,4.437565803937986
sz002196,2014-09-12,16.15,16.65,16.1,16.4,0.018634,2526449.0,41462523.93,1407120000.0,2448334240.0,0.02944579254079254,26.53,2014-06-30 00:00:00,2014-08-27 00:00:00,645.2889194120913,4.724498076456785,75.06519169916422,4.045363743629373
sz002196,2014-09-11,16.43,16.66,16.06,16.1,-0.01227,2132511.0,34828586.56,1381380000.0,2403547640.0,0.024854440559440565,26.04,2014-06-30 00:00:00,2014-08-27 00:00:00,633.484567972492,4.638072238367054,73.69201469729484,3.971361395387719
sz002196,2014-09-10,16.08,16.45,16.03,16.3,0.0012289999999999998,2115564.0,34427854.93,1398540000.0,2433405370.0,0.024656923076923076,26.37,2014-06-30 00:00:00,2014-08-27 00:00:00,641.3539813233293,4.695688334228033,74.6074480853015,4.020695327050631
sz002196,2014-09-09,16.25,16.67,15.83,16.28,-0.006104999999999999,4385493.0,71437038.8,1396824000.0,2430419600.0,0.05111297202797203,26.34,2014-06-30 00:00:00,2014-08-27 00:00:00,640.5667248185272,4.689924417119393,74.51586808342695,4.015759958062172
sz002196,2014-09-05,16.0,17.1,15.7,16.38,0.021834,9928711.0,162066126.44,1405404000.0,2445348460.0,0.11571924242424242,26.5,2014-06-30 00:00:00,2014-08-27 00:00:00,644.5014059015563,4.718732277674596,74.9735818003179,4.040426763453053
sz002196,2014-09-04,14.88,16.16,14.7,16.03,0.080917,4851231.0,74581669.71,1375374000.0,2393097430.0,0.056541153846153845,25.93,2014-06-30 00:00:00,2014-08-27 00:00:00,630.7300460755429,4.617904941188683,73.37158657895304,3.9540930948207373
sz002196,2014-09-03,14.79,15.0,14.66,14.83,0.002027,1489665.0,22058783.65,1272414000.0,2213951020.0,0.01736206293706294,23.99,2014-06-30 00:00:00,2014-08-27 00:00:00,583.5138554352859,4.272210485345945,67.8790199237805,3.6580913195192024
sz002196,2014-09-02,14.49,14.95,14.49,14.8,0.022099,1525954.0,22512612.85,1269840000.0,2209472360.0,0.017785011655011656,23.94,2014-06-30 00:00:00,2014-08-27 00:00:00,582.333465500716,4.26356823253859,67.74170748271305,3.6506913681160316
sz002196,2014-09-01,14.26,14.54,14.26,14.48,0.019001,691182.0,9981094.12,1242384000.0,2161699990.0,0.008055734265734266,23.42,2014-06-30 00:00:00,2014-08-27 00:00:00,569.742721106973,4.171384799846777,66.27705093411994,3.571759064548573
sz002196,2014-08-29,14.0,14.25,14.0,14.21,0.012830000000000001,603228.0,8545114.66,1219218000.0,2121392040.0,0.007030629370629371,22.99,2014-06-30 00:00:00,2014-08-27 00:00:00,559.1189028342201,4.093602263242898,65.04120303524721,3.5051575656437755
sz002196,2014-08-28,14.13,14.25,13.98,14.03,-0.007077,804453.0,11320258.9,1203774000.0,2094520080.0,0.009375909090909091,22.7,2014-06-30 00:00:00,2014-08-27 00:00:00,552.036277395239,4.041746653676231,64.21729513861872,3.460756065325647
sz002196,2014-08-27,14.05,14.34,14.01,14.13,0.001417,922513.0,13065069.89,1212354000.0,2109448950.0000002,0.010751899766899766,22.86,2014-06-30 00:00:00,2014-08-27 00:00:00,555.9708833366122,4.070553964080026,64.67500011442853,3.4854223996479554
sz002196,2014-08-26,14.48,14.65,14.11,14.11,-0.026897000000000004,1564197.0,22387395.94,1137565840.0,2106463180.0000002,0.01940179538970685,22.83,2014-03-31 00:00:00,2014-04-28 00:00:00,1349.8518582640907,4.270713404116755,44.670704677711,3.400869830680697
sz002196,2014-08-25,14.78,14.84,14.49,14.5,-0.018945,1382236.0,20241391.31,1169008130.0,2164685760.0,0.017144809762785825,23.46,2014-03-31 00:00:00,2014-04-28 00:00:00,1387.1623643787866,4.3887578232897795,45.90542283572345,3.494871386359611
sz002196,2014-08-22,14.6,14.9,14.5,14.78,0.005442,1173076.0,17287464.93,1191582080.0,2206486590.0,0.014550456549329778,23.91,2014-03-31 00:00:00,2014-04-28 00:00:00,1413.9496403145458,4.4735084406988195,46.79189529203098,3.5623603022864274
sz002196,2014-08-21,15.18,15.19,14.43,14.7,-0.025845,1966914.0,29048497.02,1185132380.0,2194543490.0,0.0243969671978754,23.78,2014-03-31 00:00:00,2014-04-28 00:00:00,1406.2965743568957,4.449295375266619,46.53863205638016,3.5430788670917144
sz002196,2014-08-20,15.31,15.48,15.01,15.09,-0.017578,1970759.0,30056838.27,1216574660.0,2252766080.0,0.024444659491756962,24.41,2014-03-31 00:00:00,2014-04-28 00:00:00,1443.6065865872429,4.56733823186928,47.77333387025695,3.6370791784589867
sz002196,2014-08-19,15.29,15.37,14.98,15.36,0.0045780000000000005,2584315.0,39134513.76,1238342400.0,2293074020.0,0.03205501031055708,24.85,2014-03-31 00:00:00,2014-04-28 00:00:00,1469.4363385462082,4.64905939796674,48.62811894507345,3.7021556708410306
sz002196,2014-08-18,14.71,15.4,14.71,15.29,0.035907999999999995,2938756.0,44327626.0,1232698910.0,2282623810.0,0.03645138230875859,24.73,2014-03-31 00:00:00,2014-04-28 00:00:00,1462.7399152143569,4.627872995393826,48.406513924327875,3.6852844386807497
sz002196,2014-08-15,14.53,14.95,14.4,14.76,0.015131,1949677.0,28576840.8,1189969650.0,2203500810.0,0.024183165108454658,23.88,2014-03-31 00:00:00,2014-04-28 00:00:00,1412.0365082752105,4.467455599719112,46.72858393248037,3.5575402822265585
sz002196,2014-08-14,14.72,14.94,14.53,14.54,-0.016903,2018274.0,29677596.53,1172232980.0,2170657310.0,0.02503402008020624,23.52,2014-03-31 00:00:00,2014-04-28 00:00:00,1390.9894469533592,4.400866094838117,46.03207264134419,3.504513488630096
sz002196,2014-08-13,15.22,15.22,14.48,14.79,-0.022472,2421146.0,35757354.67,1192388290.0,2207979470.0,0.03003111456252224,23.93,2014-03-31 00:00:00,2014-04-28 00:00:00,1414.9055962467176,4.476532930970308,46.823530782154954,3.5647687752379436
sz002196,2014-08-12,14.75,15.45,14.57,15.13,0.025763,5088131.0,76660552.24,1219799510.0,2258737620.0,0.06311153710006,24.48,2014-03-31 00:00:00,2014-04-28 00:00:00,1447.432294774899,4.579442155079248,47.8999381932333,3.646717818045052
sz002196,2014-08-11,14.44,14.88,14.27,14.75,0.020761,3758303.0,55043962.59,1189163440.0,2202007930.0,0.04661677897699243,23.86,2014-03-31 00:00:00,2014-04-28 00:00:00,1411.078674874117,4.464425169438992,46.6968863111979,3.5551270791060428
sz002196,2014-08-08,14.1,14.5,14.0,14.45,0.024822999999999998,2581033.0,36778649.24,1164977060.0,2157221320.0,0.03201430150907864,23.38,2014-03-31 00:00:00,2014-04-28 00:00:00,1382.3791023306308,4.373624354221009,45.74713014231333,3.4828202479385895
sz002196,2014-08-07,14.55,14.55,14.09,14.1,-0.030261,2476967.0,35318478.2,1136759630.0,2104970290.0,0.03072350018270793,22.81,2014-03-31 00:00:00,2014-04-28 00:00:00,1348.8954700769116,4.267687546260192,44.639054882953765,3.398460268688924
sz002196,2014-08-06,14.12,14.6,14.0,14.54,0.030475,3284295.0,47207554.83,1172232980.0,2170657310.0,0.04073733644654837,23.52,2014-03-31 00:00:00,2014-04-28 00:00:00,1390.9881628736305,4.4008620322171135,46.032030147239375,3.504510253469154
sz002196,2014-08-05,14.26,14.34,13.9,14.11,-0.009129,2362274.0,33157099.97,1137565840.0,2106463180.0000002,0.02930088524810133,22.83,2014-03-31 00:00:00,2014-04-28 00:00:00,1349.8514402325436,4.270712081532413,44.67069084377532,3.4008687774755852
sz002196,2014-08-04,14.01,14.3,13.8,14.24,0.020057,2482811.0,35132991.76,1148046600.0,2125870700.0000002,0.030795987410267144,23.04,2014-03-31 00:00:00,2014-04-28 00:00:00,1362.2877652414327,4.310058606551623,45.08224667365916,3.4322013435407692
sz002196,2014-08-01,14.51,14.74,13.9,13.96,-0.04318,3548794.0,50862331.85,1125472650.0,2084069880.0,0.04401809696575035,22.58,2014-03-31 00:00:00,2014-04-28 00:00:00,1335.501609460484,4.225311533131603,44.19581128668218,3.364715249776012
sz002196,2014-07-31,14.55,14.6,14.26,14.59,-0.000685,3032748.0,43782288.57,1176264040.0,2178121740.0,0.037617228628361365,23.6,2014-03-31 00:00:00,2014-04-28 00:00:00,1395.771001296465,4.415994161003744,46.19030882159881,3.5165603245918895
sz002196,2014-07-30,14.76,14.78,14.37,14.6,-0.019476,4184825.0,61045728.96,1177070250.0,2179614630.0,0.051907220490875546,23.62,2014-03-31 00:00:00,2014-04-28 00:00:00,1396.7277598119365,4.419021190519251,46.221970871645894,3.5189708196033185
sz002196,2014-07-29,14.35,15.05,14.3,14.89,0.038354,8682259.0,128005774.49,1200450410.0,2222908340.0,0.10769194248515439,24.09,2014-03-31 00:00:00,2014-04-28 00:00:00,1424.4707521814219,4.506795540465355,47.14007089234521,3.588867605079854
sz002196,2014-07-28,14.28,14.41,13.95,14.34,-0.001393,4758067.0,67443945.26,1156108730.0,2140799569.9999998,0.059017529242253876,23.2,2014-03-31 00:00:00,2014-04-28 00:00:00,1371.8546393440215,4.340326652052532,45.39884364325193,3.456304502202384
sz002196,2014-07-25,14.32,14.5,14.1,14.36,-0.015764,4606691.0,65909278.66,1157721150.0,2143785339.9999998,0.05713991038342869,23.23,2014-03-31 00:00:00,2014-04-28 00:00:00,1373.768298583949,4.346381161009819,45.46217244947405,3.4611258505121474
sz002196,2014-07-24,13.8,14.87,13.54,14.59,0.04964,9472368.0,135409103.59,1176264040.0,2178121740.0,0.11749219938747767,23.6,2014-03-31 00:00:00,2014-04-28 00:00:00,1395.7712363538308,4.4159949046873095,46.19031660036216,3.516560916804656
sz002196,2014-07-23,14.45,14.45,13.74,13.9,-0.018362,8614112.0,120222458.87,1120635380.0,2075112550.0,0.10684666836058665,22.49,2014-03-31 00:00:00,2014-04-28 00:00:00,1329.7618577358246,4.207151885110428,44.00586543992432,3.3502542936670254
sz002196,2014-07-22,12.89,14.16,12.74,14.16,0.100233,6206506.0,85451767.34,1141596900.0,2113927609.9999998,0.0769835000077523,22.91,2014-03-31 00:00:00,2014-04-28 00:00:00,1354.6356780562944,4.2858486377976694,44.8290158285685,3.4129223743039954
sz002196,2014-07-21,13.03,13.15,12.8,12.87,-0.01,1552322.0,20055263.39,1037595490.0,1921345220.0,0.01925450171337965,20.82,2014-03-31 00:00:00,2014-04-28 00:00:00,1231.2261839594835,3.895400917621694,40.74502021714355,3.101999643988133
sz002196,2014-07-18,12.93,13.2,12.88,13.0,0.001541,1713979.0,22401560.98,1048076250.0,1940752750.0,0.021259643084174457,21.03,2014-03-31 00:00:00,2014-04-28 00:00:00,1243.6628120802864,3.9347484016380756,41.15658607792278,3.133332973725387
sz002196,2014-07-17,13.03,13.09,12.68,12.98,0.002317,1722582.0,22220876.94,1046463830.0,1937766980.0,0.02136635182125693,21.0,2014-03-31 00:00:00,2014-04-28 00:00:00,1241.7492764452845,3.928694283746822,41.093261362163695,3.1285119368307313
sz002196,2014-07-16,13.4,13.65,12.88,12.95,-0.056122000000000005,4239733.0,55962533.18,1044045190.0,1933288320.0,0.05258828149957762,20.95,2014-03-31 00:00:00,2014-04-28 00:00:00,1238.8787942789402,3.919612541488194,40.99826837434035,3.1212799312300716
sz002196,2014-07-15,13.65,14.4,13.38,13.72,-0.002182,5582228.0,77432760.15,1106123550.0,2048240590.0,0.06924015690652278,22.19,2014-03-31 00:00:00,2014-04-28 00:00:00,1312.5412333786148,4.152668609172154,43.43598258921211,3.3068679757660115
sz002196,2014-07-14,13.26,13.98,13.23,13.75,0.043247,6708759.0,91776250.46,1108542190.0,2052719250.0,0.08321328415114268,22.24,2014-03-31 00:00:00,2014-04-28 00:00:00,1315.4114611869247,4.1617495466830166,43.530967159554265,3.314099340527042
sz002196,2014-07-11,13.13,13.47,13.13,13.18,-0.017151,3817137.0,50584695.86,1062588080.0000001,1967624710.0,0.047346536825446026,21.32,2014-03-31 00:00:00,2014-04-28 00:00:00,1260.8820932980634,3.9892274280999764,41.72642448006489,3.1767159076681186
sz002196,2014-07-10,13.3,13.67,13.03,13.41,0.025228999999999998,6119496.0,82046364.25,1081130960.0,2001961100.0,0.07590425618742802,21.69,2014-03-31 00:00:00,2014-04-28 00:00:00,1282.884851384153,4.058840603286951,42.45456268466967,3.2321505212582187
sz002196,2014-07-09,13.48,13.62,13.07,13.08,-0.04386,6407835.0,85594742.88,1054525950.0,1952695840.0,0.07948072003348992,21.16,2014-03-31 00:00:00,2014-04-28 00:00:00,1251.3154147845535,3.9589600014113446,41.40983398310979,3.1526132417813177
sz002196,2014-07-08,13.4,13.98,13.32,13.68,-0.012274,7131350.0,97260175.65,1102898700.0,2042269050.0,0.08845496689768516,22.13,2014-03-31 00:00:00,2014-04-28 00:00:00,1308.7156847162062,4.1405651906743195,43.309383545411535,3.297229738094126
sz002196,2014-07-07,14.14,14.79,13.62,13.85,-0.012830000000000001,12023996.0,168474686.08,1116604310.0,2067648120.0,0.14914177126900038,22.4,2014-03-31 00:00:00,2014-04-28 00:00:00,1324.978470462665,4.192018019849958,43.84756860243786,3.338202839749208
sz002196,2014-07-04,14.03,14.03,13.4,14.03,0.100392,13302053.0,185248043.41,1131116140.0,2094520080.0,0.1649943776684152,22.7,2014-03-31 00:00:00,2014-04-28 00:00:00,1342.1988821202683,4.246500622841009,44.417444414272985,3.381588621766472
sz002196,2014-07-03,12.43,12.87,12.36,12.75,0.019185,4714268.0,59776750.56,1027920940.0,1903430580.0,0.05847426067611775,20.63,2014-03-31 00:00:00,2014-04-28 00:00:00,1219.7461287616306,3.8590798759360383,40.36511026459024,3.0730763416732145
sz002196,2014-07-02,12.21,12.58,12.03,12.51,0.022059,3931080.0,48492171.97,1008571840.0,1867601300.0,0.04875984917445246,20.24,2014-03-31 00:00:00,2014-04-28 00:00:00,1196.7857933168468,3.7864370805457677,39.60528291192496,3.015229170045884
sz002196,2014-07-01,12.3,12.39,12.16,12.24,-0.004878,1944562.0,23794620.14,986804100.0,1827293360.0,0.02411972029706808,19.8,2014-03-31 00:00:00,2014-04-28 00:00:00,1170.955681929171,3.7047147772738827,38.750485942518935,2.9501517721050194
sz002196,2014-06-30,12.36,12.38,12.17,12.3,0.002445,1917079.0,23489783.52,991641380.0,1836250680.0,0.023778829903205533,19.9,2014-03-31 00:00:00,2014-04-28 00:00:00,1176.6956030810004,3.7228749613352763,38.94043739613729,2.9646131550754773
sz002196,2014-06-27,11.86,12.48,11.75,12.27,0.035443,3482199.0,42669681.59,989222740.0,1831772020.0,0.043192073940799214,19.85,2014-03-31 00:00:00,2014-04-28 00:00:00,1173.8255994902465,3.713794733212571,38.845460245836215,2.957382355216972
sz002196,2014-06-26,11.6,11.89,11.6,11.85,0.018040999999999998,1780227.0,20987252.73,955361810.0,1769070780.0,0.02208136198159313,19.17,2014-03-31 00:00:00,2014-04-28 00:00:00,1133.645791695194,3.5866723066480453,37.51578816587318,2.8561517681001973
sz002196,2014-06-25,11.77,11.77,11.55,11.64,-0.01855,1385036.0,16134642.06,938431350.0,1737720150.0,0.017179540133649626,18.83,2014-03-31 00:00:00,2014-04-28 00:00:00,1113.5561256326555,3.523111845837295,36.85095999657498,2.805537073752626
sz002196,2014-06-24,11.69,11.91,11.55,11.86,0.008503,1719272.0,20174988.91,956168030.0,1770563660.0,0.021325295638675558,19.19,2014-03-31 00:00:00,2014-04-28 00:00:00,1134.6030114959042,3.5897007955955926,37.5474654812522,2.858563425291788
sz002196,2014-06-23,11.48,11.88,11.43,11.76,0.019948,1748833.0,20554672.33,948105900.0,1755634790.0,0.021691960866396888,19.02,2014-03-31 00:00:00,2014-04-28 00:00:00,1125.036823386648,3.5594349204668636,37.23089121326581,2.83446199494874
sz002196,2014-06-20,11.33,11.68,11.23,11.53,0.015859,1605969.0,18455303.5,929563010.0,1721298400.0,0.019919921910403898,18.65,2014-03-31 00:00:00,2014-04-28 00:00:00,1103.0335109109951,3.4898199912807937,36.50273466222376,2.779025984607783
sz002196,2014-06-19,12.0,12.08,11.2,11.35,-0.05574,1999316.0,23320886.43,915051190.0,1694426440.0,0.024798871197577482,18.36,2014-03-31 00:00:00,2014-04-28 00:00:00,1085.8135931374286,3.435338950859119,35.93287519451396,2.735641446901374
sz002196,2014-06-18,12.39,12.41,11.91,12.02,-0.029863,3734822.0,45231944.58,969067430.0,1794449850.0,0.046325528080125446,19.44,2014-03-31 00:00:00,2014-04-28 00:00:00,1149.9095515402842,3.638128217714527,38.05400545878674,2.8971273239376596
sz002196,2014-06-17,13.01,13.33,12.38,12.39,0.007317000000000001,6402937.0,81694838.19,998897290.0,1849686660.0,0.07941996662139307,20.04,2014-03-31 00:00:00,2014-04-28 00:00:00,1185.3063552264102,3.750117991288371,39.2253933813335,2.986307422495647
sz002196,2014-06-04,12.28,12.34,11.98,12.3,-0.0008119999999999999,2131911.0,25900934.2,991641380.0,1836250680.0,0.026443536775361272,19.9,2014-03-31 00:00:00,2014-04-28 00:00:00,1176.696467176083,3.7228776951926466,38.94046599167243,2.964615332110594
sz002196,2014-06-03,12.38,12.5,12.15,12.31,-0.0152,2723781.0,33542798.39,992447590.0,1837743560.0,0.03378490153822632,19.91,2014-03-31 00:00:00,2014-04-28 00:00:00,1177.6527211856858,3.725903128533016,38.972111346085455,2.9670245560501067
sz002196,2014-05-30,12.58,12.58,12.13,12.5,-0.011858,3432341.0,42360236.28,1007765630.0,1866108410.0,0.04257365127643815,20.22,2014-03-31 00:00:00,2014-04-28 00:00:00,1195.8293269554079,3.783410975358464,39.57363053014364,3.0128194110988082
sz002196,2014-05-29,12.52,12.77,12.24,12.65,0.005564,5191645.0,64878385.92,1019858810.0,1888501710.0,0.06439549142101346,20.46,2014-03-31 00:00:00,2014-04-28 00:00:00,1210.1796370920451,3.828813040391425,40.048525950869035,3.0489741465283413
sz002196,2014-05-28,12.18,12.8,12.05,12.58,0.033689,8255451.0,103599169.22,1014215330.0,1878051510.0,0.10239795288836741,20.35,2014-03-31 00:00:00,2014-04-28 00:00:00,1203.4834551476042,3.8076274015293166,39.82692891836725,3.03210352252899
sz002196,2014-05-27,12.14,12.37,11.9,12.17,-0.020916999999999998,6788221.0,82135889.63,981160610.0,1816843150.0,0.08419890558998287,19.69,2014-03-31 00:00:00,2014-04-28 00:00:00,1164.2606771936278,3.6835328629107167,38.52892786744102,2.933284114012038
sz002196,2014-05-26,11.36,12.43,11.36,12.43,0.1,9249422.0,112724312.74,1002122140.0,1855658210.0,0.11472684902461092,20.11,2014-03-31 00:00:00,2014-04-28 00:00:00,1189.1337886508372,3.7622273728690176,39.35205479764332,2.995950408711047
sz002196,2014-05-23,11.12,11.3,10.92,11.3,0.016187,1071351.0,11942352.6,911020130.0,1686962000.0,0.013288692424392423,18.28,2014-03-31 00:00:00,2014-04-28 00:00:00,1081.0307169553068,3.4202067026081986,35.77459527058485,2.7235912806464064
sz002196,2014-05-22,11.09,11.29,11.01,11.12,0.008159999999999999,970854.0,10831452.6,896508300.0,1660090040.0,0.01204216010046979,17.99,2014-03-31 00:00:00,2014-04-28 00:00:00,1063.8108113519527,3.365725700691111,35.2047362056244,2.680206773602109
sz002196,2014-05-21,10.94,11.11,10.86,11.03,0.00364,463568.0,5095221.62,889252390.0,1646654060.0,0.005749948043434552,17.84,2014-03-31 00:00:00,2014-04-28 00:00:00,1055.2003762814957,3.3384836739119894,34.91979071340303,2.6585133050330394
sz002196,2014-05-20,10.89,11.15,10.88,10.99,0.009183,570219.0,6286032.21,886027540.0,1640682520.0,0.0070728126690057505,17.78,2014-03-31 00:00:00,2014-04-28 00:00:00,1051.3733771885293,3.3263756664859803,34.79314367044262,2.648871413089394
sz002196,2014-05-19,10.89,10.95,10.72,10.89,0.0036869999999999997,678762.0,7342358.31,877965410.0,1625753650.0,0.008419145100488641,17.62,2014-03-31 00:00:00,2014-04-28 00:00:00,1041.8064683893103,3.296107511210534,34.47654555263279,2.6247681670117253
sz002196,2014-05-16,10.67,10.91,10.58,10.85,0.0,708064.0,7598627.07,874740560.0,1619782100.0,0.008782597665300897,17.55,2014-03-31 00:00:00,2014-04-28 00:00:00,1037.9794382006646,3.283999405402814,34.34989748062174,2.6151261967244026
sz002196,2014-05-15,11.3,11.33,10.8,10.85,-0.038120999999999995,1022025.0,11279568.75,874740560.0,1619782100.0,0.012676868727797417,17.55,2014-03-31 00:00:00,2014-04-28 00:00:00,1037.9794382006646,3.283999405402814,34.34989748062174,2.6151261967244026
sz002196,2014-05-14,11.14,11.32,11.13,11.28,0.011659000000000001,711794.0,7997850.49,909407700.0,1683976230.0,0.008828863357985642,18.25,2014-03-31 00:00:00,2014-04-28 00:00:00,1079.11643585177,3.4141502261748244,35.711245885003976,2.7187683655890216
sz002196,2014-05-13,11.19,11.32,11.12,11.15,-0.008889,576751.0,6475588.19,898926940.0,1664568700.0,0.00715383349174072,18.04,2014-03-31 00:00:00,2014-04-28 00:00:00,1066.6800135735161,3.3748033934110446,35.29968683618094,2.687435554459577
sz002196,2014-05-12,11.03,11.35,11.0,11.25,0.019946000000000002,936750.0,10494422.37,906989060.0,1679497570.0,0.011619145108541883,18.2,2014-03-31 00:00:00,2014-04-28 00:00:00,1076.24677112202,3.4050710701536406,35.61627994864445,2.7115384194702488
sz002196,2014-05-09,10.96,11.16,10.84,11.03,0.004554,751375.0,8264058.63,889252390.0,1646654060.0,0.009319813298449497,17.84,2014-03-31 00:00:00,2014-04-28 00:00:00,1055.1997567734172,3.3384817138884224,34.919770211995974,2.6585117442200357
sz002196,2014-05-08,10.77,11.14,10.76,10.98,0.006416,718682.0,7886995.74,885221330.0,1639189630.0,0.008914299839566677,17.76,2014-03-31 00:00:00,2014-04-28 00:00:00,1050.4161615736111,3.3233471907816035,34.761466493584194,2.6464597664436518
sz002196,2014-05-07,10.92,11.36,10.88,10.91,-0.018002,1429628.0,15877116.41,879577840.0,1628739420.0,0.017732644878820505,17.65,2014-03-31 00:00:00,2014-04-28 00:00:00,1043.719656259053,3.3021605288286384,34.53985875978144,2.6295883277329173
sz002196,2014-05-06,10.85,11.33,10.8,11.11,0.00543,1127263.0,12508190.67,895702090.0,1658597160.0,0.013982206885327239,17.97,2014-03-31 00:00:00,2014-04-28 00:00:00,1062.853138457566,3.3626957782283045,35.173043895997175,2.6777939748684996
sz002196,2014-05-05,10.7,11.05,10.52,11.05,0.031745999999999996,1170187.0,12749186.36,890864810.0,1649639840.0,0.014514622426269145,17.88,2014-03-31 00:00:00,2014-04-28 00:00:00,1057.1130147872711,3.344534953431173,34.98308574042665,2.6633320816650583
sz002196,2014-04-30,10.51,10.82,10.44,10.71,0.02,720128.0,7670462.03,863453590.0,1598881690.0,0.008932235581995785,17.33,2014-03-31 00:00:00,2014-04-28 00:00:00,1024.5864920118624,3.241626285375638,33.90668414554227,2.581383481656394
sz002196,2014-04-29,10.34,10.51,10.2,10.5,0.014493,635226.0,6596549.87,846523130.0,1567531070.0,0.007879138518046164,16.99,2014-03-31 00:00:00,2014-04-28 00:00:00,1004.4965607959438,3.1780649856623904,33.24184720151203,2.530768119270975
sz002196,2014-04-28,11.15,11.15,10.2,10.35,-0.073411,1668038.0,17529853.25,834429940.0,1545137770.0,0.020689805665410326,16.74,2014-03-31 00:00:00,2014-04-28 00:00:00,990.1463694633119,3.1326632965061267,32.766955712372614,2.4946136831609236
sz002196,2014-04-25,11.16,11.21,10.98,11.17,0.005352,975091.0,10821321.94,900539360.0,1667554480.0,0.01209471451642047,18.07,2013-12-31 00:00:00,2014-02-20 00:00:00,309.3860099866995,3.453313996146355,21.736622793136668,2.7277829028792255
sz002196,2014-04-24,11.15,11.33,11.12,11.21,0.00448,569510.0,6366884.85,903764210.0,1673526020.0,0.007064018501020306,17.97,2013-12-31 00:00:00,2014-02-20 00:00:00,307.73899090736325,3.434930249451291,21.620907695152212,2.7132615271857277
sz002196,2014-04-23,11.25,11.42,11.16,11.16,-0.010638,732748.0,8281200.05,899733150.0,1666061590.0,0.009088770020311021,17.89,2013-12-31 00:00:00,2014-02-20 00:00:00,306.3664691256802,3.419610394882219,21.524478033561856,2.701160328912201
sz002196,2014-04-22,11.55,11.6,11.19,11.28,-0.024221,1156527.0,13088549.92,909407700.0,1683976230.0,0.014345188148285967,18.09,2013-12-31 00:00:00,2014-02-20 00:00:00,309.66063900339833,3.4563793584979194,21.75591748375403,2.7302042416347105
sz002196,2014-04-21,11.7,11.88,11.49,11.56,-0.022823,1277991.0,14946876.09,931981650.0,1725777060.0,0.01585178845527699,18.53,2013-12-31 00:00:00,2014-02-20 00:00:00,317.3471031897575,3.542174363762614,22.295947631332538,2.797973969141282
sz002196,2014-04-18,11.75,11.88,11.58,11.83,0.011111,1152759.0,13588245.89,953749390.0,1766085000.0,0.014298451053268825,18.97,2013-12-31 00:00:00,2014-02-20 00:00:00,324.7590796649506,3.6249055839040563,22.81669301603756,2.8633236037496603
sz002196,2014-04-17,11.63,11.75,11.54,11.7,0.006019,911278.0,10642388.3,943268630.0,1746677470.0,0.011303198538469365,18.76,2013-12-31 00:00:00,2014-02-20 00:00:00,321.19033386537245,3.5850718505723465,22.56596260552754,2.8318588203962376
sz002196,2014-04-16,11.81,11.81,11.46,11.63,-0.00937,1582430.0,18343258.01,937625140.0,1736227270.0,0.019627951635341177,18.65,2013-12-31 00:00:00,2014-02-20 00:00:00,319.268655825956,3.5636224073027907,22.43095071318488,2.814915841943579
sz002196,2014-04-15,11.97,11.98,11.65,11.74,-0.015926,1240055.0,14580972.43,946493480.0,1752649020.0,0.015381242457158818,18.82,2013-12-31 00:00:00,2014-02-20 00:00:00,322.2884990621685,3.5973293836273794,22.6431167168215,2.841541081880802
sz002196,2014-04-14,11.63,12.01,11.6,11.93,0.029336,2048409.0,24313615.18,961811510.0,1781013870.0,0.025407805080228246,19.13,2013-12-31 00:00:00,2014-02-20 00:00:00,327.5043330706517,3.6555476352666356,23.009567082172172,2.8875278504266975
sz002196,2014-04-11,11.64,11.75,11.45,11.59,-0.011935,1337805.0,15474056.65,934400290.0,1730255720.0,0.016593701988256018,18.58,2013-12-31 00:00:00,2014-02-20 00:00:00,318.1704837590949,3.5513647975652614,22.35379611921877,2.805233519887284
sz002196,2014-04-10,11.59,12.0,11.52,11.73,0.009466,2621072.0,30903466.79,945687260.0,1751156130.0,0.03251093237736966,18.81,2013-12-31 00:00:00,2014-02-20 00:00:00,322.0137174771851,3.5942623183345845,22.62381130716984,2.8391183979670207
sz002196,2014-04-09,11.41,11.7,11.36,11.62,0.024691,1795808.0,20770558.08,936818930.0,1734734380.0,0.02227462350702072,18.63,2013-12-31 00:00:00,2014-02-20 00:00:00,318.9941191453552,3.56055807559104,22.41166250985159,2.8124953172935205
sz002196,2014-04-08,11.2,11.37,11.08,11.34,0.005319,1159336.0,13087513.15,914244980.0,1692933550.0,0.014380030000274107,18.18,2013-12-31 00:00:00,2014-02-20 00:00:00,311.3076226348774,3.4747627095300335,21.871630091268084,2.7447253047928792
sz002196,2014-04-04,11.2,11.3,11.08,11.28,0.007143000000000001,1109998.0,12448174.61,909407700.0,1683976230.0,0.013768057429027706,18.09,2013-12-31 00:00:00,2014-02-20 00:00:00,309.6605382320213,3.4563782337049567,21.755910403830114,2.730203353157435
sz002196,2014-04-03,11.16,11.28,11.02,11.2,0.004484,1164235.0,12999022.96,902958000.0,1672033140.0,0.014440795695923842,17.96,2013-12-31 00:00:00,2014-02-20 00:00:00,307.4643205900466,3.431864426109259,21.60161010286535,2.710839824292514
sz002196,2014-04-02,11.36,11.36,11.0,11.15,-0.014147,1351971.0,15083301.09,898926940.0,1664568700.0,0.01676941248417808,17.88,2013-12-31 00:00:00,2014-02-20 00:00:00,306.09180493671045,3.4165446399437513,21.50518087183604,2.6987386800511644
sz002196,2014-04-01,11.07,11.32,11.0,11.31,0.02168,905255.0,10130279.1,911826340.0,1688454890.0,0.011228491216869214,18.13,2013-12-31 00:00:00,2014-02-20 00:00:00,310.4842252716282,3.4655720882766006,21.81378042348711,2.7374656059789486
sz002196,2014-03-31,11.27,11.27,10.9,11.07,-0.012489,1391968.0,15413757.14,892477240.0,1652625610.0,0.017265522379035683,17.75,2013-12-31 00:00:00,2014-02-20 00:00:00,303.8957650845942,3.3920328168081992,21.350893061905012,2.679376718717161
sz002196,2014-03-28,11.9,12.05,11.11,11.21,-0.057191,2304908.0,26630376.73,903764210.0,1673526020.0,0.028589336017189708,17.97,2013-12-31 00:00:00,2014-02-20 00:00:00,307.73911894104896,3.4349316785415036,21.620916690452066,2.713262656028298
sz002196,2014-03-27,12.39,12.39,11.87,11.89,-0.033333,2467940.0,29788021.84,958586660.0,1775042320.0,0.030611532399167755,19.06,2013-12-31 00:00:00,2014-02-20 00:00:00,326.40664115536543,3.6432953848992784,22.93244622235476,2.877849761752697
sz002196,2014-03-26,12.39,12.68,12.21,12.3,-0.016,2496009.0,31009009.92,991641380.0,1836250680.0,0.030959690992322243,19.72,2013-12-31 00:00:00,2014-02-20 00:00:00,337.6619261393691,3.7689249606113364,23.723212049604218,2.977084933852813
sz002196,2014-03-25,12.22,12.5,11.93,12.5,0.021242,2566715.0,31615423.51,1007765630.0,1866108410.0,0.031836705425248524,20.04,2013-12-31 00:00:00,2014-02-20 00:00:00,343.15236396277345,3.830208293304204,24.10895533496364,3.0254928189561108
sz002196,2014-03-24,12.21,12.3,12.11,12.24,0.002457,1384394.0,16899987.78,986804100.0,1827293360.0,0.017171576972572367,19.62,2013-12-31 00:00:00,2014-02-20 00:00:00,336.0147388794952,3.7505393367137305,23.607485135710867,2.962562075351494
sz002196,2014-03-21,11.93,12.26,11.66,12.21,0.024329,2152180.0,25861959.64,984385460.0,1822814700.0,0.026694947119596833,19.58,2013-12-31 00:00:00,2014-02-20 00:00:00,335.1911741645729,3.7413468475094005,23.549623710254775,2.955300901037645
sz002196,2014-03-20,12.53,12.53,11.92,11.92,-0.044106,2097548.0,25648624.0,961005300.0,1779520980.0,0.026017309332217003,19.11,2013-12-31 00:00:00,2014-02-20 00:00:00,327.229995601582,3.6524855271200956,22.990292874901296,2.885109082177352
sz002196,2014-03-19,12.4,12.6,12.09,12.47,0.003218,2230995.0,27528440.31,1005346990.0,1861629750.0,0.0276725428401591,19.99,2013-12-31 00:00:00,2014-02-20 00:00:00,342.3287473313799,3.8210152246170557,24.051090261996936,3.0182311869070757
sz002196,2014-03-18,12.45,12.89,12.35,12.43,0.003228,3482644.0,43824937.84,1002122140.0,1855658210.0,0.043197593578762766,19.93,2013-12-31 00:00:00,2014-02-20 00:00:00,341.23066704482954,3.8087586393157373,23.973942116266787,3.0085496740559634
sz002196,2014-03-17,12.09,12.45,12.0,12.39,0.025662,2391856.0,29435984.98,998897290.0,1849686660.0,0.029667810831682205,19.87,2013-12-31 00:00:00,2014-02-20 00:00:00,340.1327186290949,3.7965035259340225,23.896803235422844,2.9988693238784836
sz002196,2014-03-14,11.94,12.15,11.79,12.08,0.0,2233134.0,26706332.85,973904700.0,1803407170.0,0.02769907437555235,19.37,2013-12-31 00:00:00,2014-02-20 00:00:00,331.62261898080925,3.701515241798976,23.298906691895418,2.9238377982985457
sz002196,2014-03-13,11.8,12.3,11.74,12.08,-0.027375,2851204.0,34384035.47,973904700.0,1803407170.0,0.03536541544567964,19.37,2013-12-31 00:00:00,2014-02-20 00:00:00,331.62261898080925,3.701515241798976,23.298906691895418,2.9238377982985457
sz002196,2014-03-12,12.5,12.89,11.9,12.42,0.009756,4755973.0,58995191.48,1001315930.0,1854165320.0,0.05899155590184209,19.91,2013-12-31 00:00:00,2014-02-20 00:00:00,340.9562976283863,3.8056961745780504,23.954665664460013,3.00613062413422
sz002196,2014-03-11,11.97,12.3,11.2,12.3,0.01569,3842669.0,45621127.56,991641380.0,1836250680.0,0.04766322750670207,19.72,2013-12-31 00:00:00,2014-02-20 00:00:00,337.6620665075388,3.7689265273769603,23.7232219114915,2.9770861714455967
sz002196,2014-03-10,12.8,12.8,11.91,12.11,-0.059783,4305117.0,52626018.63,976323340.0,1807885830.0,0.053399283550877724,19.42,2013-12-31 00:00:00,2014-02-20 00:00:00,332.4459889410536,3.710705557184732,23.35675443441552,2.9310972555066965
sz002196,2014-03-07,12.45,13.17,12.45,12.88,0.0304,4823645.0,61725212.82,1038401700.0,1922838110.0,0.059830937873079366,20.65,2013-12-31 00:00:00,2014-02-20 00:00:00,353.5843203654621,3.9466480154950743,24.84187632686446,3.1174688986762598
sz002196,2014-03-06,12.88,13.02,12.4,12.5,-0.050151999999999995,6480269.0,81858125.5,1007765630.0,1866108410.0,0.08037916762451999,20.04,2013-12-31 00:00:00,2014-02-20 00:00:00,343.1524848267295,3.8302096423671146,24.108963826537714,3.0254938845848796
sz002196,2014-03-05,13.4,13.96,13.01,13.16,-0.029499,8155798.0,110531810.44,1060975649.9999999,1964638940.0,0.10116188970029616,21.1,2013-12-31 00:00:00,2014-02-20 00:00:00,361.270945274117,4.032444814714685,25.381917766356,3.1852400432331063
sz002196,2014-03-04,12.66,13.78,12.35,13.56,0.051163,7917367.0,103101771.93,1093224150.0,2024354410.0,0.09820446842488798,21.74,2013-12-31 00:00:00,2014-02-20 00:00:00,372.25200723555884,4.155013559712649,26.153417427036143,3.2820574561315303
sz002196,2014-03-03,12.65,13.33,12.47,12.9,0.024623,6327709.0,81503044.6,1040014130.0,1925823880.0,0.07848686257753057,20.68,2013-12-31 00:00:00,2014-02-20 00:00:00,354.1334761930916,3.9527775993948118,24.880458527398833,3.122310675063268
sz002196,2014-02-28,12.48,12.7,11.7,12.59,-0.019469999999999998,7402014.0,90345441.22,1015021540.0,1879544390.0,0.09181219568995551,20.19,2013-12-31 00:00:00,2014-02-20 00:00:00,345.62319623226455,3.8577873026418605,24.282549315600793,3.047277559710516
sz002196,2014-02-27,12.54,13.88,12.44,12.84,0.011023999999999999,11494378.0,151842452.81,1035176850.0,1916866560.0,0.14257255996402934,20.59,2013-12-31 00:00:00,2014-02-20 00:00:00,352.4861006111639,3.9343898734784872,24.764718382508228,3.1077861561711684
sz002196,2014-02-26,12.16,12.8,11.91,12.7,0.052196000000000006,7554951.0,93879552.33,1023889880.0,1895966150.0,0.09370917671341765,20.36,2013-12-31 00:00:00,2014-02-20 00:00:00,348.64266388450113,3.891490086762022,24.49468893172489,3.073899488213107
sz002196,2014-02-25,13.2,13.45,11.93,12.07,-0.089744,9363710.0,119856350.52,973098490.0,1801914280.0,0.11614444052831693,19.35,2013-12-31 00:00:00,2014-02-20 00:00:00,331.3476423446783,3.6984459993784644,23.279587578478623,2.9214133946651644
sz002196,2014-02-24,13.51,13.54,12.88,13.26,-0.059574,7152528.0,94516720.15,1069037780.0,1979567800.0,0.08871765156887158,21.26,2013-12-31 00:00:00,2014-02-20 00:00:00,364.0158838224394,4.063083351692782,25.574769711464274,3.209441513887483
sz002196,2014-02-20,14.12,14.38,13.38,14.1,-0.026243,9598344.0,132983688.9,1136759630.0,2104970290.0,0.11905476481426419,22.61,2013-12-31 00:00:00,2014-02-20 00:00:00,387.07552090482335,4.320471096814403,27.194877333744788,3.4127528523110624
sz002196,2014-02-19,15.88,16.1,14.21,14.48,-0.057291999999999996,15305505.0,230687601.79,1167395700.0,2161699990.0,0.18984455090934463,23.22,2013-09-30 00:00:00,2013-10-18 00:00:00,350.73254747999476,4.6489505254830625,49.26055793293208,3.4939142940278853
sz002196,2014-02-18,14.0,15.36,13.83,15.36,0.100287,12552530.0,184233029.89,1238342400.0,2293074020.0,0.15569753631951874,24.63,2013-09-30 00:00:00,2013-10-18 00:00:00,372.04791672500363,4.931485174076237,52.25431197457969,3.7062529373123865
sz002196,2014-02-17,13.64,14.21,13.58,13.96,0.030257999999999997,11134996.0,154364274.71,1125472650.0,2084069880.0,0.13811490146828534,22.38,2013-09-30 00:00:00,2013-10-18 00:00:00,338.13715578299445,4.481998945798903,47.49152900523199,3.3684419949634834
sz002196,2014-02-14,13.23,13.56,13.15,13.55,0.018797,6905194.0,92162632.19,1092417940.0,2022861520.0,0.08564980056991742,21.73,2013-09-30 00:00:00,2013-10-18 00:00:00,328.20628986428113,4.350365583959459,46.09673402704178,3.2695130685357303
sz002196,2014-02-13,13.83,14.14,13.3,13.3,-0.045911,10160711.0,139846331.11,1072262629.9999999,1985539350.0,0.12603018376197633,21.32,2013-09-30 00:00:00,2013-10-18 00:00:00,322.1508208841223,4.270100504771273,45.24624044538979,3.2091899255059944
sz002196,2014-02-12,13.81,14.09,13.61,13.94,0.002878,9028401.0,125292041.49,1123860230.0,2081084100.0,0.11198537556578544,22.35,2013-09-30 00:00:00,2013-10-18 00:00:00,337.65279851682845,4.475578803205229,47.423500790167154,3.363616942974916
sz002196,2014-02-11,14.19,14.34,13.68,13.9,-0.021127,12250259.0,170645647.53,1120635380.0,2075112550.0,0.15194826358239735,22.29,2013-09-30 00:00:00,2013-10-18 00:00:00,336.6838224757432,4.46273505172636,47.28740763100512,3.3539642339097235
sz002196,2014-02-10,13.98,14.59,13.61,14.2,0.023055000000000003,16295346.0,228564903.72,1144821750.0,2119899160.0000002,0.2021222196381227,22.77,2013-09-30 00:00:00,2013-10-18 00:00:00,343.9504639271318,4.559054189589825,48.30801097895756,3.4263527892890333
sz002196,2014-02-07,13.06,14.25,13.02,13.88,0.066052,16294521.0,222614968.97,1119022950.0,2072126780.0,0.2021119866040281,22.25,2013-09-30 00:00:00,2013-10-18 00:00:00,336.1993870584981,4.456313873242225,47.219368439582965,3.3491384033986766
sz002196,2014-01-30,12.1,13.02,11.64,13.02,0.099662,12387777.0,155510169.96,1049688679.9999999,1943738520.0,0.15365399247708378,20.88,2013-09-30 00:00:00,2013-10-18 00:00:00,315.36865655568215,4.180203098199923,44.293682146445924,3.141627616100037
sz002196,2014-01-29,11.01,11.84,10.91,11.84,0.100372,12603858.0,143109049.19,954555600.0,1767577890.0,0.1563341922880134,18.98,2013-09-30 00:00:00,2013-10-18 00:00:00,286.7869004800404,3.801352686734582,40.279360518455604,2.856902953907689
sz002196,2014-01-28,10.76,10.76,10.76,10.76,0.100204,660880.0,7111068.8,867484650.0,1606346120.0,0.008197342512054824,17.25,2013-09-30 00:00:00,2013-10-18 00:00:00,260.6272246840527,3.4546068845214006,36.605221251045656,2.596306479906513
sz002196,2014-01-27,9.78,9.78,9.78,9.78,0.100112,118533.0,1159252.74,788475830.0,1460043220.0,0.0014702451183570204,15.68,2013-09-30 00:00:00,2013-10-18 00:00:00,236.88990831159745,3.1399693916050126,33.2713035501104,2.3598409748614926
sz002196,2013-11-08,8.91,8.95,8.75,8.89,-0.004479,545656.0,4832636.15,744889770.0,1327176300.0,0.0065122143374314306,14.25,2013-09-30 00:00:00,2013-10-18 00:00:00,215.33253733401457,2.8542270165265107,30.243560246693427,2.145091567823542
sz002196,2013-11-07,8.87,9.02,8.77,8.93,0.0,464372.0,4117282.39,748241350.0,1333147850.0,0.005542118141425891,14.32,2013-09-30 00:00:00,2013-10-18 00:00:00,216.30135108552665,2.8670686168614328,30.379630612205492,2.154742660198571
sz002196,2013-11-06,8.92,9.08,8.88,8.93,-0.018681,686645.0,6170152.36,748241350.0,1333147850.0,0.008194869008509086,14.32,2013-09-30 00:00:00,2013-10-18 00:00:00,216.30135108552665,2.8670686168614328,30.379630612205492,2.154742660198571
sz002196,2013-11-05,8.99,9.15,8.77,9.1,0.008869,801160.0,7225127.44,762485590.0,1358526920.0,0.009561565615948231,14.59,2013-09-30 00:00:00,2013-10-18 00:00:00,220.41899839453492,2.921647921686457,30.957956191824973,2.1957616842215133
sz002196,2013-11-04,8.83,9.05,8.62,9.02,0.015766,705023.0,6304401.15,755782420.0,1346583830.0,0.008414203998023664,14.46,2013-09-30 00:00:00,2013-10-18 00:00:00,218.4812878525705,2.895963620337682,30.685803797941034,2.1764586722572634
sz002196,2013-11-01,8.87,8.88,8.74,8.88,-0.005599,253029.0,2231669.82,744051870.0,1325683420.0,0.0030198130138427044,14.24,2013-09-30 00:00:00,2013-10-18 00:00:00,215.09017613561636,2.8510145253313093,30.209520497773145,2.142677223156971
sz002196,2013-10-31,8.83,8.94,8.62,8.93,0.002245,644772.0,5665080.32,748241350.0,1333147850.0,0.007695129332266922,14.32,2013-09-30 00:00:00,2013-10-18 00:00:00,216.30124681654218,2.8670672347788355,30.3796159675756,2.154741621495725
sz002196,2013-10-30,8.72,8.91,8.41,8.91,0.034843,984216.0,8566909.53,746565560.0,1330162080.0,0.01174627525009324,14.29,2013-09-30 00:00:00,2013-10-18 00:00:00,215.81673823919516,2.860645086559509,30.311566500781343,2.1499150621811283
sz002196,2013-10-29,9.25,9.25,8.48,8.61,-0.057987000000000004,1119460.0,9930870.65,721428670.0,1285375470.0,0.01336036534284117,13.8,2013-09-30 00:00:00,2013-10-18 00:00:00,208.55022282529347,2.764327619319558,29.290980854855608,2.0775277623573127
sz002196,2013-10-28,9.15,9.29,8.94,9.14,-0.006522,578600.0,5297367.75,765837170.0,1364498470.0,0.006905389562118016,14.65,2013-09-30 00:00:00,2013-10-18 00:00:00,221.38783947280288,2.9344898842367972,31.09403039539328,2.205413048819191
sz002196,2013-10-25,9.22,9.34,9.12,9.2,-0.002169,875333.0,8090293.55,770864550.0,1373455790.0,0.010446794576297483,14.75,2013-09-30 00:00:00,2013-10-18 00:00:00,222.84120984340154,2.9537542695830177,31.29815697518544,2.219891179089211
sz002196,2013-10-24,9.28,9.3,9.05,9.22,-0.0064659999999999995,984158.0,9065823.75,772540340.0,1376441570.0,0.011745583097964828,14.78,2013-09-30 00:00:00,2013-10-18 00:00:00,223.32560307647444,2.960174888917079,31.366190241819947,2.2247165893715577
sz002196,2013-10-23,9.65,9.66,9.26,9.28,-0.032325,1393691.0,13157320.15,777567720.0,1385398890.0,0.016633216821295,14.88,2013-09-30 00:00:00,2013-10-18 00:00:00,224.77902424725718,2.979439947618379,31.57032395652282,2.23919522570094
sz002196,2013-10-22,9.63,9.65,9.48,9.59,-0.006218,1621143.0,15474246.85,803542500.0,1431678370.0,0.019347777335984095,15.38,2013-09-30 00:00:00,2013-10-18 00:00:00,232.28772495647527,3.0789675744628924,32.62492464569491,2.3139951178866256
sz002196,2013-10-21,9.65,9.71,9.4,9.65,-0.002068,2283731.0,21850108.1,808569880.0,1440635690.0,0.027255534363956273,15.47,2013-09-30 00:00:00,2013-10-18 00:00:00,233.7411272859392,3.0982323834230163,32.82905571412534,2.3284735665232668
sz002196,2013-10-18,9.99,9.99,9.55,9.67,-0.042574,3587031.0,34811371.52,810245670.0,1443621470.0,0.04280996622913147,15.5,2013-09-30 00:00:00,2013-10-18 00:00:00,234.22550563158532,3.1046528054246343,32.89708688981347,2.333298828500606
sz002196,2013-10-17,9.37,10.11,9.37,10.1,0.08719099999999999,6711056.0,65195781.29,846275210.0,1507815600.0,0.08009411690081292,16.19,2013-06-30 00:00:00,2013-08-23 00:00:00,168.31356895434845,2.5953088939616595,23.576849692201865,4.083084911349928
sz002196,2013-10-16,9.36,9.51,9.2,9.29,-0.008537999999999999,1461537.0,13615008.21,778405620.0,1386891770.0,0.0174429351242351,14.89,2013-06-30 00:00:00,2013-08-23 00:00:00,154.8150867274917,2.3871692223000918,21.686023607813038,3.755627954379615
sz002196,2013-10-15,9.4,9.4,9.21,9.37,0.004287,1223984.0,11382164.5,785108790.0,1398834870.0,0.014607822796124853,15.02,2013-06-30 00:00:00,2013-08-23 00:00:00,156.14828074852258,2.4077263902197887,21.872773346646706,3.7879696391587525
sz002196,2013-10-14,9.12,9.36,9.12,9.33,0.014130000000000002,1108054.0,10251790.4,781757200.0,1392863320.0,0.013224238702246682,14.96,2013-06-30 00:00:00,2013-08-23 00:00:00,155.48173056957086,2.3974485283786295,21.779405037252012,3.7717999328466396
sz002196,2013-10-11,9.19,9.23,9.11,9.2,0.004367,959683.0,8798100.36,770864550.0,1373455790.0,0.011453482456807749,14.75,2013-06-30 00:00:00,2013-08-23 00:00:00,153.3153841909527,2.364044578484642,21.47594986565037,3.7192469731165034
sz002196,2013-10-10,9.3,9.34,9.07,9.16,-0.012931,1065521.0,9750589.97,767512970.0,1367484240.0,0.012716622052654041,14.69,2013-06-30 00:00:00,2013-08-23 00:00:00,152.64876702535298,2.353765683743733,21.382572172971006,3.7030756417888115
sz002196,2013-10-09,9.33,9.33,9.21,9.28,-0.004292,705472.0,6543213.65,777567720.0,1385398890.0,0.008419562684520905,14.88,2013-06-30 00:00:00,2013-08-23 00:00:00,154.6485271296667,2.3846009587412156,21.662692449029407,3.7515874187000215
sz002196,2013-10-08,9.22,9.34,9.18,9.32,0.008657999999999999,834876.0,7743452.42,780919310.0,1391370430.0,0.009963954304062479,14.94,2013-06-30 00:00:00,2013-08-23 00:00:00,155.31513970929902,2.3948797827688595,21.75606949932049,3.7677586387776554
sz002196,2013-09-30,9.16,9.39,9.15,9.24,0.005441,304670.0,2818986.82,774216140.0,1379427340.0,0.0036361303446864335,14.81,2013-06-30 00:00:00,2013-08-23 00:00:00,153.98196386614592,2.3743228951427136,21.569322306788315,3.7354173949719875
sz002196,2013-09-27,9.1,9.33,9.07,9.19,0.006572,668908.0,6139069.6,770026650.0,1371962900.0,0.00798318411447188,14.73,2013-06-30 00:00:00,2013-08-23 00:00:00,153.14868188799332,2.3614741144857962,21.4525987171682,3.715202975581846
sz002196,2013-09-26,9.32,9.45,9.09,9.13,-0.025613999999999998,697600.0,6447097.56,764999280.0,1363005580.0,0.00832561306462929,14.64,2013-06-30 00:00:00,2013-08-23 00:00:00,152.14876023572413,2.346055835534662,21.312532751922564,3.690946077957509
sz002196,2013-09-25,9.47,9.49,9.33,9.37,0.0,867377.0,8162789.11,785108790.0,1398834870.0,0.010351842437020734,15.02,2013-06-30 00:00:00,2013-08-23 00:00:00,156.1483439168093,2.4077273642423664,21.872782195067014,3.787971171545476
sz002196,2013-09-24,9.34,9.42,9.31,9.37,0.0,923265.0,8657140.91,785108790.0,1398834870.0,0.011018846254415264,15.02,2013-06-30 00:00:00,2013-08-23 00:00:00,156.1483439168093,2.4077273642423664,21.872782195067014,3.787971171545476
sz002196,2013-09-23,9.3,9.39,9.23,9.37,0.008611,582267.0,5417079.23,785108790.0,1398834870.0,0.006949153874585967,15.02,2013-06-30 00:00:00,2013-08-23 00:00:00,156.1483439168093,2.4077273642423664,21.872782195067014,3.787971171545476
sz002196,2013-09-18,9.26,9.38,9.26,9.29,0.0,453059.0,4213414.06,778405620.0,1386891770.0,0.0054071013901466946,14.89,2013-06-30 00:00:00,2013-08-23 00:00:00,154.8152299715245,2.3871714310495986,21.68604367299882,3.755631429307707
sz002196,2013-09-17,9.45,9.63,9.24,9.29,-0.02416,1014981.0,9528212.32,778405620.0,1386891770.0,0.012113444774460904,14.89,2013-06-30 00:00:00,2013-08-23 00:00:00,154.8152299715245,2.3871714310495986,21.68604367299882,3.755631429307707
sz002196,2013-09-16,9.63,9.73,9.52,9.52,-0.010395,807546.0,7755274.53,797677230.0,1421228170.0,0.009637780333782375,15.26,2013-06-30 00:00:00,2013-08-23 00:00:00,158.648169752751,2.446273396304311,22.222950148588726,3.8486139421500525
sz002196,2013-09-13,9.6,9.7,9.53,9.62,0.0062759999999999995,1078148.0,10357397.64,806056190.0,1436157030.0,0.012867321023860631,15.42,2013-06-30 00:00:00,2013-08-23 00:00:00,160.3146404401261,2.4719695194590883,22.45638426300264,3.8890405183381787
sz002196,2013-09-12,9.64,9.79,9.52,9.56,-0.012397,1087608.0,10446627.26,801028820.0,1427199710.0,0.012980222709090543,15.33,2013-06-30 00:00:00,2013-08-23 00:00:00,159.3147808753524,2.456552197865286,22.316326994783378,3.8647851268818676
sz002196,2013-09-11,9.47,9.73,9.4,9.68,0.017876,2147077.0,20535428.0,811083570.0,1445114350.0,0.025624616412831543,15.52,2013-06-30 00:00:00,2013-08-23 00:00:00,161.31459794609003,2.4873883512558033,22.596455250524123,3.9132982857300624
sz002196,2013-09-10,9.49,9.54,9.28,9.51,0.003165,1561672.0,14644286.92,796839330.0,1419735280.0,0.018638011655373488,15.25,2013-06-30 00:00:00,2013-08-23 00:00:00,158.48158120054904,2.4437046862837946,22.199614933964575,3.8445727040720707
sz002196,2013-09-09,9.54,9.58,9.4,9.48,0.0,1259226.0,11929710.29,794325650.0,1415256620.0,0.01502842377052787,15.2,2013-06-30 00:00:00,2013-08-23 00:00:00,157.98156953297718,2.4359947628593446,22.129574829628798,3.8324430219077326
sz002196,2013-09-06,9.42,9.61,9.4,9.48,0.003175,942778.0,8929236.13,794325650.0,1415256620.0,0.01125172709706655,15.2,2013-06-30 00:00:00,2013-08-23 00:00:00,157.98156953297718,2.4359947628593446,22.129574829628798,3.8324430219077326
sz002196,2013-09-05,9.43,9.59,9.35,9.45,0.001059,798701.0,7543955.76,791811960.0,1410777960.0,0.009532218293343282,15.15,2013-06-30 00:00:00,2013-08-23 00:00:00,157.48156556231683,2.4282849581173225,22.05953580345284,3.8203135264612187
sz002196,2013-09-04,9.57,9.6,9.36,9.44,-0.005268999999999999,535581.0,5036324.93,790974060.0,1409285070.0,0.006391972753189909,15.14,2013-06-30 00:00:00,2013-08-23 00:00:00,157.3149690101351,2.425716124741222,22.036199468215997,3.816272094313341
sz002196,2013-09-03,9.33,9.65,9.33,9.49,0.014972999999999998,758411.0,7191496.3,795163540.0,1416749510.0,0.009051371231130641,15.22,2013-06-30 00:00:00,2013-08-23 00:00:00,158.14825215071724,2.438564923322206,22.152923220665684,3.8364865419026257
sz002196,2013-09-02,9.34,9.49,9.21,9.35,0.0010710000000000001,531009.0,4942860.84,783432990.0,1395849090.0,0.006337407555431129,14.99,2013-06-30 00:00:00,2013-08-23 00:00:00,155.8152307014248,2.40259092933724,21.826120715197042,3.7798902452603427
sz002196,2013-08-30,9.54,9.71,9.19,9.34,-0.025052,1167182.0,10955847.52,782595100.0,1394356210.0,0.013929910729060276,14.98,2013-06-30 00:00:00,2013-08-23 00:00:00,155.64853112459033,2.400020507373842,21.802769948582107,3.7758463138582
sz002196,2013-08-29,9.58,9.97,9.53,9.58,0.0,795001.0,7663351.88,802704610.0,1430185490.0,0.009488060097225554,15.36,2013-06-30 00:00:00,2013-08-23 00:00:00,159.64803366393934,2.4616907849175975,22.36300802564045,3.872869439045159
sz002196,2013-08-28,9.68,9.72,9.47,9.58,-0.014403000000000001,1024535.0,9800144.58,802704610.0,1430185490.0,0.012227468458166696,15.36,2013-06-30 00:00:00,2013-08-23 00:00:00,159.64803366393934,2.4616907849175975,22.36300802564045,3.872869439045159
sz002196,2013-08-27,9.65,9.73,9.64,9.72,0.007254000000000001,948585.0,9187537.91,814435160.0,1451085900.0,0.01132103162147371,15.58,2013-06-30 00:00:00,2013-08-23 00:00:00,161.98104667926074,2.497664648855057,22.68980934970424,3.929465531089441
sz002196,2013-08-26,9.51,9.77,9.48,9.65,0.013655,1245484.0,11987121.42,808569880.0,1440635690.0,0.014864417902878103,15.47,2013-06-30 00:00:00,2013-08-23 00:00:00,160.81449830853063,2.4796770713792715,22.526402823621687,3.9011664695195454
sz002196,2013-08-23,9.64,9.81,9.29,9.52,-0.003141,1237718.0,11780289.85,797677230.0,1421228170.0,0.014771733373911149,15.26,2013-06-30 00:00:00,2013-08-23 00:00:00,158.64815771493323,2.446273210687336,22.222948462368052,3.8486136501270605
sz002196,2013-08-22,9.52,9.72,9.47,9.55,0.0042060000000000005,1138289.0,10914504.93,800190920.0,1425706830.0,0.013585082857476066,15.31,2013-03-31 00:00:00,2013-04-25 00:00:00,72.18120380249255,2.4011207138511925,17.32679872164439,3.677232477682574
sz002196,2013-08-21,9.53,9.56,9.35,9.51,0.002107,645255.0,6095382.18,796839330.0,1419735280.0,0.007700893792478843,15.25,2013-03-31 00:00:00,2013-04-25 00:00:00,71.87888122804738,2.391063899091613,17.254227441027428,3.661830817265156
sz002196,2013-08-20,9.74,9.75,9.44,9.49,-0.017598,1022985.0,9794995.17,795163540.0,1416749510.0,0.012208969805129645,15.22,2013-03-31 00:00:00,2013-04-25 00:00:00,71.72775085699169,2.3860365201436706,17.21794922201664,3.654131562063888
sz002196,2013-08-19,9.45,9.77,9.42,9.66,0.012579,1156022.0,11094254.17,809407780.0,1442128580.0,0.013796720016701595,15.49,2013-03-31 00:00:00,2013-04-25 00:00:00,73.01262706813678,2.428778158171167,17.526378429621115,3.71958888730264
sz002196,2013-08-16,9.6,9.62,9.35,9.54,-0.00625,1544829.0,14639092.4,799353020.0,1424213940.0,0.018436996284820442,15.3,2013-03-31 00:00:00,2013-04-25 00:00:00,72.1056105924938,2.3986060921381616,17.30865288498094,3.6733814223903916
sz002196,2013-08-15,9.85,9.93,9.48,9.6,-0.026369,2101170.0,20165967.32,804380400.0,1433171260.0,0.025076732352006588,15.39,2013-03-31 00:00:00,2013-04-25 00:00:00,72.55910499873589,2.4136916650446905,17.417512337087736,3.696484450204167
sz002196,2013-08-14,9.82,10.12,9.74,9.86,0.004072999999999999,2428820.0,24097350.44,826165700.0,1471986320.0,0.028987121106577047,15.81,2013-03-31 00:00:00,2013-04-25 00:00:00,74.52423453930278,2.479062052301838,17.8892335362039,3.7965969142356473
sz002196,2013-08-13,9.8,9.97,9.68,9.82,0.0071790000000000005,1307977.0,12804831.21,822814120.0,1466014770.0,0.015610250028280993,15.74,2013-03-31 00:00:00,2013-04-25 00:00:00,74.22192862401715,2.469005791712194,17.816666254549123,3.781196102510124
sz002196,2013-08-12,9.46,9.98,9.46,9.75,0.020942,1598741.0,15582878.23,816948840.0,1455564560.0,0.01908041726333806,15.63,2013-03-31 00:00:00,2013-04-25 00:00:00,73.69288738547682,2.4514071398551738,17.689672098553604,3.754244382091092
sz002196,2013-08-09,9.49,9.66,9.2,9.55,0.008448,1895556.0,17929791.27,800190920.0,1425706830.0,0.022622800818584646,15.31,2013-03-31 00:00:00,2013-04-25 00:00:00,72.18126728597396,2.4011228256406083,17.32681396059091,3.6772357118142773
sz002196,2013-08-08,9.25,9.48,9.25,9.47,0.021575,1715263.0,16125450.73,793487750.0,1413763730.0,0.02047106664217564,15.18,2013-03-31 00:00:00,2013-04-25 00:00:00,71.57658826828349,2.3810080694697278,17.18166326929193,3.646430665551696
sz002196,2013-08-07,9.25,9.44,9.14,9.27,0.0021620000000000003,1830250.0,17020302.07,776729820.0,1072770750.0,0.021843396588018208,14.86,2013-03-31 00:00:00,2013-04-25 00:00:00,70.06493724717568,2.330722726642418,16.818797708726166,3.569420419990404
sz002196,2013-08-06,9.16,9.32,9.07,9.25,0.004343,1336259.0,12298788.02,775054030.0,1070456250.0,0.015947785924034223,14.83,2013-03-31 00:00:00,2013-04-25 00:00:00,69.91378364693102,2.32569457497133,16.782513913644866,3.5617199813906373
sz002196,2013-08-05,9.17,9.28,9.09,9.21,0.0043619999999999996,1179173.0,10820086.13,771702450.0,1065827250.0,0.014073019115074728,14.77,2013-03-31 00:00:00,2013-04-25 00:00:00,69.6114610714975,2.3156377601788734,16.709942632790657,3.5463183209228695
sz002196,2013-08-02,9.18,9.34,9.03,9.17,0.002186,1058583.0,9724627.4,768350860.0,1061198250.0,0.012633819541765073,14.7,2013-03-31 00:00:00,2013-04-25 00:00:00,69.30913462625777,2.305580816656617,16.637370423005507,3.5309164633099117
sz002196,2013-08-01,8.98,9.17,8.89,9.15,0.012168,835304.0,7576078.65,766675070.0,1058883750.0,0.009969062382581452,14.67,2013-03-31 00:00:00,2013-04-25 00:00:00,69.15795533589352,2.3005518103990847,16.601080461117505,3.523214715940865
sz002196,2013-07-31,9.1,9.19,8.93,9.04,-0.001105,824961.0,7450835.11,757458210.0,1046154000.0,0.009845622295123053,14.49,2013-03-31 00:00:00,2013-04-25 00:00:00,68.32655778081653,2.2728952213457494,16.40150692485586,3.4808596161317737
sz002196,2013-07-30,8.98,9.11,8.83,9.05,0.011173,707775.0,6332883.41,758296110.0,1047311250.0,0.008447048145875363,14.51,2013-03-31 00:00:00,2013-04-25 00:00:00,68.40214214788996,2.275409548897281,16.419650638811746,3.484710220925897
sz002196,2013-07-29,9.02,9.18,8.85,8.95,-0.01323,569515.0,5083264.92,749917140.0,1035738750.0,0.006796963261834501,14.35,2013-03-31 00:00:00,2013-04-25 00:00:00,67.64632970608388,2.2502673122178707,16.238220995627596,3.446205763925556
sz002196,2013-07-26,9.07,9.32,8.9,9.07,-0.004391,1057023.0,9596484.27,759971900.0,1049625750.0,0.012615201443632323,14.54,2013-03-31 00:00:00,2013-04-25 00:00:00,68.5532897292012,2.2804375003474675,16.455932989073034,3.4924103528943484
sz002196,2013-07-25,9.18,9.18,8.92,9.11,-0.004372,1281707.0,11607954.38,763323480.0,1054254750.0,0.01529672684770551,14.61,2013-03-31 00:00:00,2013-04-25 00:00:00,68.8556348217033,2.290495064174257,16.528509675056206,3.507813160482025
sz002196,2013-07-24,9.1,9.36,8.8,9.15,-0.005435,1470350.0,13347837.12,766675070.0,1058883750.0,0.017548115266093105,14.67,2013-03-31 00:00:00,2013-04-25 00:00:00,69.15799356958955,2.3005530822498534,16.60108963895773,3.523216663735879
sz002196,2013-07-23,8.92,9.27,8.78,9.2,0.027933,2437950.0,21866407.79,770864550.0,1064670000.0,0.029096084389922977,14.75,2013-03-31 00:00:00,2013-04-25 00:00:00,69.53592130186519,2.313124916169233,16.691809624265613,3.542469988121318
sz002196,2013-07-22,8.88,9.0,8.5,8.95,-0.012140999999999999,2068261.0,18086789.04,749917140.0,1035738750.0,0.024683975018893422,14.35,2013-03-31 00:00:00,2013-04-25 00:00:00,67.6463556495075,2.250268175230519,16.23822722323888,3.4462070855992732
sz002196,2013-07-19,8.99,9.48,8.95,9.06,0.034247,3352599.0,31156293.86,759134000.0,1048468500.0,0.040012101868708294,14.53,2013-03-31 00:00:00,2013-04-25 00:00:00,68.47774393866685,2.2779244560514393,16.437798535255418,3.4885617133611913
sz002196,2013-07-18,8.88,8.88,8.65,8.76,-0.013513999999999998,664734.0,5815451.65,733997120.0,1013751000.0,0.007933368784880246,14.05,2013-03-31 00:00:00,2013-04-25 00:00:00,66.21024178814814,2.2024955895945935,15.893494044706358,3.3730450398804073
sz002196,2013-07-17,9.04,9.04,8.73,8.88,-0.015521,738649.0,6540615.19,744051870.0,1027638000.0,0.008815518627753734,14.24,2013-03-31 00:00:00,2013-04-25 00:00:00,67.11726450060938,2.2326678630964794,16.111221086468902,3.4192528225239966
sz002196,2013-07-16,8.91,9.19,8.85,9.02,0.008948999999999999,954419.0,8577441.34,755782420.0,1043839500.0,0.011390658411980528,14.46,2013-03-31 00:00:00,2013-04-25 00:00:00,68.1754151186662,2.2678674335323348,16.365225755418756,3.47315973476732
sz002196,2013-07-15,8.91,9.03,8.77,8.94,0.003367,919490.0,8179271.51,749079250.0,1034581500.0,0.010973792959823677,14.33,2013-03-31 00:00:00,2013-04-25 00:00:00,67.5707247032964,2.2477522982156035,16.220072328154103,3.442354107856116
sz002196,2013-07-12,9.15,9.15,8.79,8.91,-0.004469,1230379.0,10995292.96,746565560.0,1031109750.0,0.014684144939662096,14.29,2013-03-31 00:00:00,2013-04-25 00:00:00,67.34397753094969,2.240209512786053,16.165642609487957,3.4308025955170103
sz002196,2013-07-11,8.77,8.96,8.65,8.95,0.019362,1776991.0,15678356.44,749917140.0,1035738750.0,0.02120776896764888,14.35,2013-03-31 00:00:00,2013-04-25 00:00:00,67.64628879557712,2.250265951322513,16.23821117523006,3.4462036797618656
sz002196,2013-07-10,8.68,8.79,8.51,8.78,0.009195,1085995.0,9415471.52,735672910.0,1016065500.0,0.012960972152692152,14.08,2013-03-31 00:00:00,2013-04-25 00:00:00,66.36139938076671,2.2075238740727166,15.929778798140463,3.380745681869508
sz002196,2013-07-09,8.54,8.85,8.43,8.7,-0.007982,1354299.0,11634667.46,728969740.0,1006807500.0,0.016163086961606937,13.95,2013-03-31 00:00:00,2013-04-25 00:00:00,65.75676591814931,2.1874106332995273,15.78463904214791,3.3499429563855423
sz002196,2013-07-08,8.62,9.22,8.61,8.77,0.024533000000000003,3279557.0,28982030.55,734835010.0,1014908250.0,0.03914037096572195,14.06,2013-03-31 00:00:00,2013-04-25 00:00:00,66.28585964987462,2.205011031351777,15.911645798914849,3.3768973510415563
sz002196,2013-07-05,8.39,8.76,8.2,8.56,0.032569,1365030.0,11439377.12,717239190.0,990606000.0,0.016291157765654162,13.72,2013-03-31 00:00:00,2013-04-25 00:00:00,64.69860868305328,2.152210842746673,15.530632784805224,3.2960357070407262
sz002196,2013-07-04,8.2,8.43,8.02,8.29,0.0072900000000000005,1060502.0,8781244.84,694615990.0,959360250.0,0.012656722140819131,13.29,2013-03-31 00:00:00,2013-04-25 00:00:00,62.65790342636016,2.084326415713307,15.040769948357179,3.192073078932959
sz002196,2013-07-03,8.43,8.43,8.0,8.23,-0.022565,1016450.0,8277512.6,689588610.0,952416750.0,0.012130976902301215,13.2,2013-03-31 00:00:00,2013-04-25 00:00:00,62.20443310899557,2.069241644127616,14.931916278685561,3.168971278314049
sz002196,2013-07-02,8.43,8.43,8.23,8.42,0.016908000000000003,632454.0,5259598.21,705508640.0,974404500.0,0.0075481183051138824,13.5,2013-03-31 00:00:00,2013-04-25 00:00:00,63.640480552666496,2.117012020367202,15.276633513927331,3.242129940419618
sz002196,2013-07-01,8.3,8.31,8.14,8.28,0.002421,535190.0,4408978.25,693778100.0,958203000.0,0.006387306258297861,13.28,2013-03-31 00:00:00,2013-04-25 00:00:00,62.582338375414984,2.0818127307162517,15.022630871157796,3.188223458188566
sz002196,2013-06-28,8.38,8.39,8.12,8.26,-0.01432,502772.0,4178975.25,692102300.0,955888500.0,0.006000408783499202,13.24,2013-03-31 00:00:00,2013-04-25 00:00:00,62.431192458473014,2.0767848346316087,14.986348920421454,3.180523411010509
sz002196,2013-06-27,8.42,8.52,8.18,8.38,-0.004751,836562.0,6996711.21,702157060.0,969775500.0,0.009984076155269308,13.44,2013-03-31 00:00:00,2013-04-25 00:00:00,63.338195416842204,2.106956451010073,15.204071220296097,3.2267301872925387
sz002196,2013-06-26,8.29,8.48,8.03,8.42,0.015681999999999998,841285.0,6959637.12,705508640.0,974404500.0,0.010040443586913408,13.5,2013-03-31 00:00:00,2013-04-25 00:00:00,63.640551677863726,2.1170143863596675,15.276650587236054,3.2421335638544106
sz002196,2013-06-25,8.41,8.55,7.88,8.29,-0.05257100000000001,1608011.0,13111092.33,694615990.0,959360250.0,0.01919105143260523,13.29,2013-03-31 00:00:00,2013-04-25 00:00:00,62.657949710503615,2.084327955363655,15.04078105867393,3.192075436853672
sz002196,2013-06-24,9.38,9.55,8.45,8.75,-0.06815800000000001,1624945.0,14395191.9,733159220.0,1012593750.0,0.019393152758823654,14.03,2013-03-31 00:00:00,2013-04-25 00:00:00,66.1347179688437,2.199983276175476,15.875364864991393,3.369197519659702
sz002196,2013-06-21,9.29,9.48,8.92,9.39,0.010764,877786.0,8195327.96,786784580.0,1086657750.0,0.010476070260553402,15.06,2013-03-31 00:00:00,2013-04-25 00:00:00,70.9720295595645,2.3608973153984003,17.036541457662775,3.615631748364747
sz002196,2013-06-20,9.3,9.38,9.16,9.29,-0.001075,613676.0,5679583.3,778405620.0,1075085250.0,0.007324009351319946,14.89,2013-03-31 00:00:00,2013-04-25 00:00:00,70.21622214440217,2.335755245931197,16.855113021103616,3.5771275474440594
sz002196,2013-06-19,9.45,9.51,9.1,9.3,-0.01169,923149.0,8528401.8,779243510.0,1076242500.0,0.011017461922782008,14.91,2013-03-31 00:00:00,2013-04-25 00:00:00,70.29178581415238,2.3382688849825533,16.873251766752876,3.5809770978242206
sz002196,2013-06-18,9.57,9.68,9.32,9.41,-0.006336,1237581.0,11701954.89,788460370.0,1088972250.0,0.014770098350028679,15.09,2013-03-31 00:00:00,2013-04-25 00:00:00,71.12321621166676,2.36592656654547,17.072833186705463,3.6233338707735636
sz002196,2013-06-17,9.57,9.62,9.2,9.47,-0.008376999999999999,1064709.0,9947311.44,793487750.0,1095915750.0,0.012706931178206596,15.18,2013-03-31 00:00:00,2013-04-25 00:00:00,71.57672634981922,2.381012662776824,17.18169641519212,3.6464377000410235
sz002196,2013-06-14,9.46,9.58,9.46,9.55,0.003151,1116925.0,10641782.94,800190920.0,1105173750.0,0.013330110956520229,15.31,2013-03-31 00:00:00,2013-04-25 00:00:00,72.18138985261457,2.401126902841931,17.32684338220485,3.677241955905645
sz002196,2013-06-13,9.9,9.95,9.31,9.52,-0.079304,2127335.0,20197618.45,797677230.0,1101702000.0,0.025389002516719703,15.26,2013-03-31 00:00:00,2013-04-25 00:00:00,71.95466071669627,2.393584717397412,17.272417993108565,3.6656913624226513
sz002196,2013-06-07,10.62,10.93,10.3,10.34,-0.025093,3002828.0,31942054.14,866384720.0,1196596500.0,0.03583770674071906,16.58,2013-03-31 00:00:00,2013-04-25 00:00:00,78.15246369778545,2.5997557471710664,18.760174903669146,3.9814350908689207
sz002196,2013-06-06,10.75,11.28,10.72,10.76,0.013183000000000002,4725940.0,52098471.89,901576370.0,1245201000.0,0.05640244808102058,17.01,2013-03-31 00:00:00,2013-04-25 00:00:00,80.16401943753142,2.6666705102856643,19.243040519423026,4.083912712565322
sz002196,2013-06-05,10.58,10.62,10.41,10.62,0.006634999999999999,1628071.0,17157435.69,889845820.0,1228999500.0,0.01943046045886915,16.78,2013-03-31 00:00:00,2013-04-25 00:00:00,79.12096772007766,2.631973207491307,18.99266027896543,4.030775005665633
sz002196,2013-06-04,10.45,10.55,10.23,10.55,0.019324,1818871.0,18980624.5,883980540.0,1220898750.0,0.021707592171655726,16.67,2013-03-31 00:00:00,2013-04-25 00:00:00,78.59946030098065,2.6146251694917297,18.867474585093337,4.004207091612782
sz002196,2013-06-03,10.39,10.6,10.27,10.35,-0.004808,723500.0,7549434.22,867222620.0,1197753750.0,0.008634720574977623,16.36,2013-03-31 00:00:00,2013-04-25 00:00:00,77.10939828845457,2.565057988913957,18.50979137653321,3.9282966864439404
sz002196,2013-05-31,10.54,10.55,10.29,10.4,-0.007634,952348.0,9966151.46,871412100.0,1203540000.0,0.011365941785752114,16.44,2013-03-31 00:00:00,2013-04-25 00:00:00,77.48193141469643,2.577450370294332,18.599216409027818,3.9472751855359975
sz002196,2013-05-30,10.48,10.55,10.3,10.48,0.0028710000000000003,1018856.0,10634217.2,878115270.0,1212798000.0,0.012159691608597126,16.56,2013-03-31 00:00:00,2013-04-25 00:00:00,78.07797870412372,2.5972779904736076,18.742295089742917,3.977640493060018
sz002196,2013-05-29,10.32,10.48,10.32,10.45,0.012597,937452.0,9771080.49,875601580.0,1209326250.0,0.011188163228302992,16.52,2013-03-31 00:00:00,2013-04-25 00:00:00,77.85445855361628,2.5898425525053645,18.688640004290598,3.9662533796071653
sz002196,2013-05-28,10.55,10.55,10.2,10.32,-0.013384,1019644.0,10510833.68,864708930.0,1194282000.0,0.012169096114226553,16.31,2013-03-31 00:00:00,2013-04-25 00:00:00,76.88592653702932,2.557624160949879,18.45614790907992,3.9169120386562133
sz002196,2013-05-27,10.35,10.6,10.35,10.46,0.0,794920.0,8320116.36,876439480.0,1210483500.0,0.009487093392917444,16.53,2013-03-31 00:00:00,2013-04-25 00:00:00,77.9289273000127,2.5923197687346233,18.706515918128147,3.9700471497079044
sz002196,2013-05-24,10.46,10.47,10.26,10.46,0.014549000000000001,689549.0,7179181.48,876439480.0,1210483500.0,0.008229527200212387,16.53,2013-03-31 00:00:00,2013-04-25 00:00:00,77.9289273000127,2.5923197687346233,18.706515918128147,3.9700471497079044
sz002196,2013-05-23,10.59,10.6,10.24,10.31,-0.019029,949623.0,9856515.03,863871030.0,1193124750.0,0.011333419908756519,16.29,2013-03-31 00:00:00,2013-04-25 00:00:00,76.81139826663149,2.555144964644018,18.438257706752605,3.9131152361373425
sz002196,2013-05-22,10.71,10.75,10.46,10.51,-0.014995,1260096.0,13303950.41,880628960.0,1216269750.0,0.01503880699085799,16.61,2013-03-31 00:00:00,2013-04-25 00:00:00,78.30139552201999,2.6047099910639737,18.795925370630325,3.9890223422887545
sz002196,2013-05-21,10.66,10.74,10.44,10.67,0.000938,1704571.0,18079192.73,894035300.0,1234785750.0,0.02034346134878567,16.86,2013-03-31 00:00:00,2013-04-25 00:00:00,79.49339904063432,2.6443622022872715,19.082060873427373,4.049748318321993
sz002196,2013-05-20,10.34,10.7,10.34,10.66,0.033948,2221646.0,23317982.37,893197400.0,1233628500.0,0.02651457153816167,16.85,2013-03-31 00:00:00,2013-04-25 00:00:00,79.41890410858046,2.641884114987413,19.064178673831318,4.045953214207066
sz002196,2013-05-17,10.3,10.35,10.2,10.31,-0.001936,1097668.0,11284122.42,863871030.0,1193124750.0,0.013100285444228869,16.29,2013-03-31 00:00:00,2013-04-25 00:00:00,76.8113136333553,2.5551421493028785,18.438237390885533,3.9131109245407565
sz002196,2013-05-16,10.18,10.38,10.17,10.33,0.009775,1485975.0,15262866.41,865546830.0,1195439250.0,0.017734594152461976,16.33,2013-03-31 00:00:00,2013-04-25 00:00:00,76.96030879117501,2.5600984999988765,18.47400306081126,3.9207014024559106
sz002196,2013-05-15,10.36,10.37,10.17,10.23,-0.009681,926067.0,9473926.11,857167860.0,1183866750.0,0.011052287249780924,16.17,2013-03-31 00:00:00,2013-04-25 00:00:00,76.21530419269145,2.535315788169519,18.29516779560918,3.8827475452015654
sz002196,2013-05-14,10.27,10.39,10.15,10.33,0.005842,1204643.0,12367430.31,865546830.0,1195439250.0,0.014376994702874714,16.33,2013-03-31 00:00:00,2013-04-25 00:00:00,76.96035741280481,2.560100117406128,18.474014732231918,3.920703879458604
sz002196,2013-05-13,10.41,10.42,10.18,10.27,-0.017225,1594933.0,16382971.89,860519450.0,1188495750.0,0.01903496999399607,16.23,2013-03-31 00:00:00,2013-04-25 00:00:00,76.51336632672411,2.54523087861327,18.36671637516819,3.8979321597811634
sz002196,2013-05-10,10.65,10.8,10.25,10.45,0.010638,2686595.0,28176489.1,875601580.0,1209326250.0,0.03206357593598678,16.52,2013-03-31 00:00:00,2013-04-25 00:00:00,77.85440851336686,2.589840887907476,18.688627992336183,3.966250830333661
sz002196,2013-05-09,10.41,10.55,10.17,10.34,-0.020833,3247275.0,33554000.51,866384720.0,1196596500.0,0.03875509658111237,16.34,2013-03-31 00:00:00,2013-04-25 00:00:00,77.0349111287789,2.5625801601636553,18.491911042664317,3.9245019782886263
sz002196,2013-05-08,10.2,10.74,10.11,10.56,0.021277,4103570.0,42858909.19,884818440.0,1222056000.0,0.04897467914434514,16.69,2013-03-31 00:00:00,2013-04-25 00:00:00,78.6739250084806,2.617102251366371,18.88534952941053,4.008000655954119
sz002196,2013-05-07,10.79,10.85,10.3,10.34,-0.044362,4836984.0,50718662.23,866384720.0,1196596500.0,0.05772772003642908,16.34,2013-03-31 00:00:00,2013-04-25 00:00:00,77.03485441117405,2.562578273442339,18.491897427838413,3.9244990888408524
sz002196,2013-05-06,11.07,11.07,10.6,10.82,0.075547,6296108.0,68616258.31,906603740.0,1252144500.0,0.07514185697049959,17.1,2013-03-31 00:00:00,2013-04-25 00:00:00,80.61091586058114,2.6815366000957876,19.350316153018625,4.106679609685731
sz002196,2013-05-03,9.9,10.14,9.88,10.06,0.006,1129701.0,11348798.58,842923630.0,1164193500.0,0.01348258804893155,15.9,2013-03-31 00:00:00,2013-04-25 00:00:00,74.94876175618651,2.4931840264495997,17.991139534598325,3.8182242242186817
sz002196,2013-05-02,9.65,10.37,9.48,10.0,0.059322,2242383.0,22548815.02,837896250.0,1157250000.0,0.02676206033861591,15.8,2013-03-31 00:00:00,2013-04-25 00:00:00,74.50175124869435,2.4783141415999994,17.88383651550529,3.795451515127914
sz002196,2013-04-26,9.52,9.61,9.36,9.44,-0.0063159999999999996,493561.0,4666093.83,790974060.0,1092444000.0,0.005890478683965945,14.92,2013-03-31 00:00:00,2013-04-25 00:00:00,70.32965542931643,2.339528624535316,16.882342210871947,3.582906344933754
sz002196,2013-04-25,9.68,9.68,9.48,9.5,-0.011446,497671.0,4748460.16,796001440.0,1099387500.0,0.0059395300842671845,15.01,2013-03-31 00:00:00,2013-04-25 00:00:00,70.77668094617246,2.3543990086741013,16.989648832900546,3.605679818668464
sz002196,2013-04-24,9.75,9.75,9.54,9.61,0.0062829999999999995,340678.0,3274712.12,805218300.0,1112117250.0,0.004065873291752063,15.19,2012-12-31 00:00:00,2013-03-22 00:00:00,54.54397999229631,2.3380873041018013,24.82291961833824,3.7140980618591692
sz002196,2013-04-23,9.75,9.86,9.5,9.55,-0.021516,363718.0,3517081.57,800190920.0,1105173750.0,0.004340847681700763,15.09,2012-12-31 00:00:00,2013-03-22 00:00:00,54.20341990503299,2.3234888238217293,24.66793100781613,3.6909080863526156
sz002196,2013-04-22,9.75,9.8,9.65,9.76,0.003083,456966.0,4444696.24,817786740.0,1129476000.0,0.005453730100832889,15.42,2012-12-31 00:00:00,2013-03-22 00:00:00,55.395305293732946,2.374580293414843,25.210357050106214,3.772067899273382
sz002196,2013-04-19,9.51,9.74,9.51,9.73,0.017782,621894.0,6024541.44,815273050.0,1126004250.0,0.007422088366590801,15.38,2012-12-31 00:00:00,2013-03-22 00:00:00,55.22504647544913,2.367281963122536,25.132872404483194,3.760474356831271
sz002196,2013-04-18,9.55,9.63,9.51,9.56,-0.001045,146647.0,1403454.26,801028820.0,1106331000.0,0.0017501808736419746,15.11,2012-12-31 00:00:00,2013-03-22 00:00:00,54.260191745824876,2.3259224108134515,24.693767825018714,3.6947738875626324
sz002196,2013-04-17,9.58,9.66,9.47,9.57,0.0,188165.0,1795241.56,801866710.0,1107488250.0,0.0022456837620806083,15.12,2012-12-31 00:00:00,2013-03-22 00:00:00,54.31695296166983,2.328355542355213,24.719599806816838,3.6986389652813516
sz002196,2013-04-16,9.54,9.57,9.42,9.57,0.004197,251842.0,2390679.62,801866710.0,1107488250.0,0.0030056465868248854,15.12,2012-12-31 00:00:00,2013-03-22 00:00:00,54.31695296166983,2.328355542355213,24.719599806816838,3.6986389652813516
sz002196,2013-04-15,9.69,9.69,9.45,9.53,-0.00418,207753.0,1976756.55,798515130.0,1102859250.0,0.0024794597066683005,15.06,2012-12-31 00:00:00,2013-03-22 00:00:00,54.08993749400747,2.318624276267717,24.616285257590725,3.6831806560678344
sz002196,2013-04-12,9.68,9.75,9.56,9.57,-0.006231,332100.0,3204154.64,801866710.0,1107488250.0,0.003963497873605453,15.12,2012-12-31 00:00:00,2013-03-22 00:00:00,54.31698248077712,2.3283568077240036,24.719613240937846,3.6986409753447758
sz002196,2013-04-11,9.65,9.68,9.57,9.63,0.003125,244750.0,2350738.0,806894090.0,1114431750.0,0.0029210060269495844,15.22,2012-12-31 00:00:00,2013-03-22 00:00:00,54.65755369786854,2.3429557650963186,24.874606916635404,3.7218317087218216
sz002196,2013-04-10,9.61,9.76,9.51,9.6,-0.001041,241902.0,2326942.11,804380400.0,1110960000.0,0.0028870161431084097,15.17,2012-12-31 00:00:00,2013-03-22 00:00:00,54.487280944915675,2.335656837479196,24.797115929356163,3.710237217417392
sz002196,2013-04-09,9.65,9.65,9.53,9.61,0.00418,214949.0,2061655.91,805218300.0,1112117250.0,0.0025653414608187617,15.19,2012-12-31 00:00:00,2013-03-22 00:00:00,54.544061312742244,2.3380907899915773,24.822956627205084,3.714103599264226
sz002196,2013-04-08,9.51,9.59,9.33,9.57,0.0,313418.0,2968491.9,801866710.0,1107488250.0,0.0037405347080688763,15.12,2012-12-31 00:00:00,2013-03-22 00:00:00,54.31701618508856,2.328358252496143,24.71962857974176,3.6986432703939784
sz002196,2013-04-03,9.68,9.88,9.53,9.57,-0.001044,268544.0,2588301.53,801866710.0,1107488250.0,0.00320497914173292,15.12,2012-12-31 00:00:00,2013-03-22 00:00:00,54.31701618508856,2.328358252496143,24.71962857974176,3.6986432703939784
sz002196,2013-04-02,9.65,9.66,9.48,9.58,-0.0020829999999999998,331711.0,3171240.5,802704610.0,1108645500.0,0.003958855275541522,15.14,2012-12-31 00:00:00,2013-03-22 00:00:00,54.37378241392871,2.3307915989254213,24.745462842949802,3.7025086894657813
sz002196,2013-04-01,9.57,9.69,9.46,9.6,0.012657999999999999,386861.0,3703340.6,804380400.0,1110960000.0,0.004617051335412946,15.17,2012-12-31 00:00:00,2013-03-22 00:00:00,54.487279416954216,2.3356567719814585,24.797115233982183,3.7102371133729366
sz002196,2013-03-29,9.76,9.76,9.48,9.48,-0.021672,364500.0,3486260.4,794325650.0,1097073000.0,0.004350180558817408,14.98,2012-12-31 00:00:00,2013-03-22 00:00:00,53.806200530637405,2.306461581285546,24.487156803167686,3.6638599738242688
sz002196,2013-03-28,10.05,10.05,9.64,9.69,-0.031968,558030.0,5425511.08,811921470.0,1121375250.0,0.0066598937210023525,15.31,2012-12-31 00:00:00,2013-03-22 00:00:00,54.99811978256516,2.3575545024629228,25.029598256584386,3.745022092615431
sz002196,2013-03-27,9.98,10.21,9.93,10.01,0.003006,465230.0,4680997.4,838734150.0,1158407250.0,0.005552358038599001,15.82,2012-12-31 00:00:00,2013-03-22 00:00:00,56.81436128409511,2.4354096790838757,25.856168242975833,3.868696585046187
sz002196,2013-03-26,10.25,10.25,9.93,9.98,-0.020608,756211.0,7594956.32,836220460.0,1154935500.0,0.009025114955929206,15.77,2012-12-31 00:00:00,2013-03-22 00:00:00,56.64408915210389,2.4281107780849522,25.778677538295717,3.857102136025295
sz002196,2013-03-25,10.15,10.24,10.13,10.19,0.001967,367566.0,3738238.54,853816280.0,1179237750.0,0.0043867722222396596,16.1,2012-12-31 00:00:00,2013-03-22 00:00:00,57.835972881240494,2.4792021765390695,26.321102825319908,3.9382618359403536
sz002196,2013-03-22,10.25,10.25,10.1,10.17,-0.000982,897401.0,9115944.11,852140490.0,1176923250.0,0.010710168425396616,16.07,2012-12-31 00:00:00,2013-03-22 00:00:00,57.7224328558131,2.474335159280764,26.26943085482846,3.9305304824813128
sz002196,2013-03-21,10.23,10.26,10.07,10.18,-0.004888,917787.0,9320990.24,852978380.0,1178080500.0,0.010953468316512314,16.09,2012-09-30 00:00:00,2012-10-25 00:00:00,35.491890850960466,2.28216288652518,11.686410948350863,3.9343850927895234
sz002196,2013-03-20,10.18,10.38,10.16,10.23,0.004912,916454.0,9374056.13,857167860.0,1183866750.0,0.010937559441391095,16.17,2012-09-30 00:00:00,2012-10-25 00:00:00,35.66622737034672,2.293372893227275,11.7438147146762,3.9537108313330793
sz002196,2013-03-19,10.3,10.3,10.04,10.18,0.003945000000000001,273407.0,2779768.23,852978380.0,1178080500.0,0.0032630173580718426,16.09,2012-09-30 00:00:00,2012-10-25 00:00:00,35.49189120076854,2.2821629090181776,11.686411063532129,3.9343851315668226
sz002196,2013-03-18,10.09,10.26,10.08,10.14,0.005952000000000001,531708.0,5389822.01,849626800.0,1173451500.0,0.006345749828042147,16.03,2012-09-30 00:00:00,2012-10-25 00:00:00,35.352425880669294,2.2731951541351143,11.640489333112997,3.918924972550112
sz002196,2013-03-15,10.15,10.2,9.96,10.08,-0.000991,484500.0,4894720.44,844599420.0,1166508000.0,0.005782338803879359,15.93,2012-09-30 00:00:00,2012-10-25 00:00:00,35.143253237400295,2.259745150996384,11.571615080155912,3.8957375426959864
sz002196,2013-03-14,9.86,10.27,9.84,10.09,0.015091,779753.0,7873595.86,845437320.0,1167665250.0,0.00930608051463827,15.95,2012-09-30 00:00:00,2012-10-25 00:00:00,35.178114749116666,2.26198677989526,11.583093926236812,3.899602048325877
sz002196,2013-03-13,10.08,10.1,9.09,9.94,-0.010945,802655.0,7824816.48,832868870.0,1150306500.0,0.009579407980514388,15.71,2012-09-30 00:00:00,2012-10-25 00:00:00,34.655134120110084,2.2283586199614223,11.410892152759516,3.8416280395805664
sz002196,2013-03-12,10.51,10.57,9.8,10.05,-0.049196,1148745.0,11746398.55,842085730.0,1163036250.0,0.01370987161841586,15.88,2012-09-30 00:00:00,2012-10-25 00:00:00,35.03863194676745,2.2530179008866265,11.537166439439178,3.8841399513480708
sz002196,2013-03-11,10.51,10.6,10.3,10.57,0.0,754037.0,7865999.87,885656340.0,1223213250.0,0.008999169011763638,16.7,2012-09-30 00:00:00,2012-10-25 00:00:00,36.8515823942342,2.36959236697219,12.134116431398246,4.085111075834842
sz002196,2013-03-08,10.68,10.73,10.48,10.57,-0.01215,1008626.0,10693139.49,885656340.0,1223213250.0,0.012037600069571004,16.7,2012-09-30 00:00:00,2012-10-25 00:00:00,36.8515823942342,2.36959236697219,12.134116431398246,4.085111075834842
sz002196,2013-03-07,10.81,10.89,10.63,10.7,-0.029918,2248101.0,24172160.73,896548990.0,1238257500.0,0.02683030260287282,16.91,2012-09-30 00:00:00,2012-10-25 00:00:00,37.30483615349922,2.3987370217869013,12.283359246240064,4.135355646945227
sz002196,2013-03-06,10.39,11.17,10.38,11.03,0.075049,4360422.0,47308447.87,924199560.0,1276446750.0,0.05204011854322891,17.43,2012-09-30 00:00:00,2012-10-25 00:00:00,38.455343108623,2.4727157310277907,12.66218654324074,4.262892876009684
sz002196,2013-03-05,10.4,10.45,10.19,10.26,-0.011561,1579720.0,16237863.89,859681550.0,1187338500.0,0.018853408218426928,16.21,2012-09-30 00:00:00,2012-10-25 00:00:00,35.770781711924755,2.300095838448099,11.778241311085113,3.9653010011726764
sz002196,2013-03-04,10.58,10.58,10.3,10.38,-0.022599,1095378.0,11435714.94,869736310.0,1201225500.0,0.013072954997130107,16.4,2012-09-30 00:00:00,2012-10-25 00:00:00,36.18916464437842,2.326998265394323,11.916002212665743,4.011680034046285
sz002196,2013-03-01,10.58,10.64,10.42,10.62,0.013359000000000001,910262.0,9605460.25,889845820.0,1228999500.0,0.010863659998987238,16.78,2012-09-30 00:00:00,2012-10-25 00:00:00,37.025913258098186,2.3808020100187366,12.191518335530395,4.104436187446387
sz002196,2013-02-28,10.31,10.6,10.31,10.48,0.0028710000000000003,512225.0,5351463.61,878115270.0,1212798000.0,0.0061132270254223,16.56,2012-09-30 00:00:00,2012-10-25 00:00:00,36.53780472477985,2.349416159543397,12.030798893117243,4.050327857596752
sz002196,2013-02-27,10.58,10.58,10.35,10.45,-0.002863,688563.0,7181040.01,875601580.0,1209326250.0,0.008217759668729698,16.52,2012-09-30 00:00:00,2012-10-25 00:00:00,36.433204993244246,2.342690295704429,11.996357351162056,4.03873265614097
sz002196,2013-02-26,10.53,10.64,10.47,10.48,-0.004748,977175.0,10299363.97,878115270.0,1212798000.0,0.011662243386338107,16.56,2012-09-30 00:00:00,2012-10-25 00:00:00,36.53781275115079,2.349416675646806,12.030801535959508,4.050328747344619
sz002196,2013-02-25,10.58,10.7,10.45,10.53,0.006692,719254.0,7587836.3,882304750.0,1218584250.0,0.008584046067982746,16.64,2012-09-30 00:00:00,2012-10-25 00:00:00,36.71212190596029,2.360624922780166,12.088196291953704,4.069651452440808
sz002196,2013-02-22,10.4,10.88,10.4,10.46,0.0009570000000000001,836502.0,8863527.23,876439480.0,1210483500.0,0.009983360083231304,16.53,2012-09-30 00:00:00,2012-10-25 00:00:00,36.46807753112202,2.344932633596141,12.007839827825894,4.042598384054713
sz002196,2013-02-21,10.56,10.62,10.39,10.45,-0.017856999999999998,782366.0,8223750.0,875601580.0,1209326250.0,0.00933726581443583,16.52,2012-09-30 00:00:00,2012-10-25 00:00:00,36.43321094824455,2.3426906786167043,11.996359311964342,4.038733316271042
sz002196,2013-02-20,10.52,10.65,10.44,10.64,0.011406999999999999,908064.0,9603467.11,891521610.0,1231314000.0,0.010837427664821271,16.82,2012-09-30 00:00:00,2012-10-25 00:00:00,37.09562756975771,2.3852847076410506,12.214473159167598,4.112164232979354
sz002196,2013-02-19,10.6,10.78,10.48,10.52,-0.015903,746945.0,7898788.59,881466860.0,1217427000.0,0.008914528448636175,16.63,2012-09-30 00:00:00,2012-10-25 00:00:00,36.67725017698881,2.3583826369019105,12.07671408163835,4.065785814196811
sz002196,2013-02-18,10.42,10.75,10.41,10.69,0.027885000000000004,1170213.0,12473664.72,895711090.0,1237100250.0,0.013966084722697806,16.89,2012-09-30 00:00:00,2012-10-25 00:00:00,37.26995425957889,2.39649408229261,12.271873688913136,4.131488881885436
sz002196,2013-02-08,10.38,10.44,10.3,10.4,0.009709,351734.0,3649547.08,871412100.0,1203540000.0,0.004197822821142832,16.44,2012-09-30 00:00:00,2012-10-25 00:00:00,36.258875515820236,2.3314807418073134,11.938955903542844,4.019407698220555
sz002196,2013-02-07,10.44,10.47,10.29,10.3,-0.0077069999999999994,247100.0,2553592.34,863033140.0,1191967500.0,0.0029490524546948453,16.28,2012-09-30 00:00:00,2012-10-25 00:00:00,35.91022315916788,2.3090620582834394,11.824155180891568,3.9807585138099744
sz002196,2013-02-06,10.2,10.4,10.19,10.38,0.011696,330504.0,3408902.92,869736310.0,1201225500.0,0.003944450151793709,16.4,2012-09-30 00:00:00,2012-10-25 00:00:00,36.189132805701426,2.3269962181366184,11.915991729148114,4.0116765046311675
sz002196,2013-02-05,10.38,10.38,10.19,10.26,-0.008695999999999999,367798.0,3774431.37,859681550.0,1187338500.0,0.004389541080647828,16.21,2012-09-30 00:00:00,2012-10-25 00:00:00,35.77075801990067,2.3000943150280504,11.77823351001498,3.96529837483905
sz002196,2013-02-04,10.22,10.45,10.22,10.35,0.004854,575894.0,5953629.25,867222620.0,1197753750.0,0.006873094361860626,16.36,2012-09-30 00:00:00,2012-10-25 00:00:00,36.084549260267956,2.320271395079663,11.881555516788977,4.000083097454515
sz002196,2013-02-01,10.38,10.41,10.28,10.3,-0.002904,524191.0,5412063.36,863033140.0,1191967500.0,0.0062560370509062956,16.28,2012-09-30 00:00:00,2012-10-25 00:00:00,35.91024095069329,2.30906320229572,11.824161039105158,3.9807604860552024
sz002196,2013-01-31,10.42,10.48,10.3,10.33,-0.008637,356528.0,3695608.7,865546830.0,1195439250.0,0.004255037523504072,16.33,2012-09-30 00:00:00,2012-10-25 00:00:00,36.01482801123793,2.315788251377721,11.85859840888456,3.9923542828927228
sz002196,2013-01-30,10.45,10.59,10.39,10.42,-0.004776,506501.0,5289807.26,873087890.0,1205854500.0,0.006044913095748012,16.47,2012-09-30 00:00:00,2012-10-25 00:00:00,36.328598113141126,2.3359639722056613,11.961913455398841,4.027136662244529
sz002196,2013-01-29,10.38,10.49,10.38,10.47,0.002874,325010.0,3392962.48,877277370.0,1211640750.0,0.0038788812026463193,16.55,2012-09-30 00:00:00,2012-10-25 00:00:00,36.502936136127275,2.3471740755906825,12.019317716814346,4.04646256746675
sz002196,2013-01-28,10.19,10.48,10.19,10.44,0.020528,286486.0,2970129.67,874763690.0,1208169000.0,0.0034191106400403974,16.5,2012-09-30 00:00:00,2012-10-25 00:00:00,36.39832734334251,2.3404476291046357,11.984873191262658,4.034866361543674
sz002196,2013-01-25,10.18,10.29,10.18,10.23,-0.002924,285051.0,2918423.74,857167860.0,1183866750.0,0.00340198444911362,16.17,2012-09-30 00:00:00,2012-10-25 00:00:00,35.66617216121704,2.2933693432268742,11.74379653597222,3.9537047112315133
sz002196,2013-01-24,10.67,10.67,10.25,10.26,-0.032075,601150.0,6291778.5,859681550.0,1187338500.0,0.007174515958845458,16.21,2012-09-30 00:00:00,2012-10-25 00:00:00,35.77076588065207,2.3000948204819633,11.778236098323717,3.9652992462274823
sz002196,2013-01-23,10.72,10.74,10.51,10.6,-0.011193999999999999,481360.0,5098349.95,888170030.0,1226685000.0,0.005744863964842407,16.75,2012-09-30 00:00:00,2012-10-25 00:00:00,36.95613387468251,2.3763151282196073,12.168542085723292,4.096700928509422
sz002196,2013-01-22,11.08,11.08,10.57,10.72,-0.019213,671739.0,7237674.69,898224780.0,1240572000.0,0.008016971074879498,16.94,2012-09-30 00:00:00,2012-10-25 00:00:00,37.37450407327879,2.403216736366494,12.30629879442812,4.1430785497958365
sz002196,2013-01-21,10.96,11.03,10.78,10.93,-0.0009140000000000001,826628.0,8992376.92,915820600.0,1264874250.0,0.009865517373162385,17.27,2012-09-30 00:00:00,2012-10-25 00:00:00,38.10664708369788,2.4502942395917704,12.547371441942156,4.224238850836967
sz002196,2013-01-18,10.8,10.99,10.6,10.94,0.00367,2350549.0,25553150.38,916658500.0,1266031500.0,0.0280529838102194,17.29,2012-09-30 00:00:00,2012-10-25 00:00:00,38.14150842239595,2.4525358573654024,12.558850231053338,4.228103337287248
sz002196,2013-01-17,10.49,11.2,10.31,10.9,0.035138,1181813.0,12574186.48,913306910.0,1261402500.0,0.014104526702858297,17.23,2012-09-30 00:00:00,2012-10-25 00:00:00,38.002040932174864,2.4435679629414073,12.51292778607843,4.212642937705867
sz002196,2013-01-16,10.78,10.88,10.4,10.53,-0.022284,1038091.0,11014109.98,882304750.0,1218584250.0,0.012389254653791674,16.64,2012-09-30 00:00:00,2012-10-25 00:00:00,36.71205282017941,2.3606204804976803,12.088173544086326,4.069643794069841
sz002196,2013-01-15,10.51,10.85,10.5,10.77,0.027672000000000002,1934311.0,20716939.19,902414260.0,1246358250.0,0.023085328316952793,17.02,2012-09-30 00:00:00,2012-10-25 00:00:00,37.54879005782804,2.414423493629725,12.363685921153303,4.162398686397523
sz002196,2013-01-14,10.16,10.53,10.16,10.48,0.02544,668861.0,6973833.53,878115270.0,1212798000.0,0.007982623146958827,16.56,2012-09-30 00:00:00,2012-10-25 00:00:00,36.53771831657187,2.349410603412105,12.030770441496221,4.050318278981546
sz002196,2013-01-11,10.56,10.56,10.21,10.22,-0.032197,990051.0,10268560.21,856329970.0,1182709500.0,0.011815913928599276,16.15,2012-09-30 00:00:00,2012-10-25 00:00:00,35.631259085438316,2.2911243987089494,11.732300711398251,3.9498344895669626
sz002196,2013-01-10,10.48,10.62,10.43,10.56,0.006673,1248717.0,13138528.51,884818440.0,1222056000.0,0.014903002609213253,16.69,2012-09-30 00:00:00,2012-10-25 00:00:00,36.816644591345884,2.3673458324772185,12.122612464931656,4.081238113094258
sz002196,2013-01-09,10.53,10.59,10.33,10.49,-0.002852,859887.0,9008242.91,878953170.0,1213955250.0,0.010262451900594431,16.58,2012-09-30 00:00:00,2012-10-25 00:00:00,36.572595660503346,2.351653250337715,12.042254500648827,4.0541845396611
sz002196,2013-01-08,10.44,10.55,10.34,10.52,0.000951,916629.0,9593594.6,881466860.0,1217427000.0,0.010939647895554462,16.63,2012-09-30 00:00:00,2012-10-25 00:00:00,36.677199032143015,2.358379348238892,12.076697241180673,4.065780144633595
sz002196,2013-01-07,10.39,10.53,10.26,10.51,0.010577,909228.0,9486837.5,880628960.0,1216269750.0,0.010851319584129961,16.61,2012-09-30 00:00:00,2012-10-25 00:00:00,36.64235215524338,2.356138660372878,12.06522321390425,4.061917261318082
sz002196,2013-01-04,10.7,10.78,10.28,10.4,-0.022556,1260290.0,13149889.48,871412100.0,1203540000.0,0.015041122334656588,16.44,2012-09-30 00:00:00,2012-10-25 00:00:00,36.2588423793965,2.331478611103239,11.938944992716289,4.019404024946225
