code,date,open,high,low,close,change,volume,money,traded_market_value,market_value,turnover,adjust_price,report_type,report_date,PE_TTM,PS_TTM,PC_TTM,PB
sz002737,2014-12-31,57.86,57.86,57.86,57.86,0.1,50600.0,2927716.0,2111890000.0,8447560000.0,0.0013863013698630136,57.86,,,,,,
sz002737,2014-12-30,43.84,52.6,43.84,52.6,0.43991199999999997,131900.0,6926948.0,1919900000.0,7679600000.0,0.0036136986301369863,52.6,,,,,,
