code,date,open,high,low,close,change,volume,money,traded_market_value,market_value,turnover,adjust_price,report_type,report_date,PE_TTM,PS_TTM,PC_TTM,PB
sz002509,2014-08-18,11.98,12.36,11.95,12.27,0.024207,6319515.0,76790897.37,2835583200.0,5600533390.0,0.02734550305207056,49.94,2014-03-31 00:00:00,2014-04-22 00:00:00,50.72142273865909,7.964882463085331,-86.98661776213804,5.257173281930092
sz002509,2014-08-15,11.72,11.99,11.6,11.98,0.022184,4244642.0,50218114.53,2768564520.0,5468165440.0,0.018367211886396638,48.76,2014-03-31 00:00:00,2014-04-22 00:00:00,49.52262847125541,7.776633496046532,-84.9307002999765,5.132920671241352
sz002509,2014-08-14,11.69,11.88,11.56,11.72,0.002566,3761663.0,44247854.9,2708478820.0,5349490740.0,0.01627728820858935,47.7,2014-03-31 00:00:00,2014-04-22 00:00:00,48.447861120165655,7.607860713967869,-83.08748747776966,5.021523200560126
sz002509,2014-08-13,11.84,11.84,11.53,11.69,-0.015163999999999999,5036747.0,58704785.64,2701545850.0,5335797500.0,0.021794770734688808,47.58,2014-03-31 00:00:00,2014-04-22 00:00:00,48.3238620900426,7.588388908029865,-82.87483066229021,5.008670950900116
sz002509,2014-08-12,11.87,11.96,11.72,11.87,0.006784999999999999,3183543.0,37606454.38,2743143650.0,5417956910.0,0.013775675003385258,48.32,2014-03-31 00:00:00,2014-04-22 00:00:00,49.067928152547836,7.70523103138986,-84.1508948315153,5.085791899260502
sz002509,2014-08-11,11.8,12.03,11.72,11.79,0.0016989999999999998,5163097.0,61252526.14,2724655740.0,5381441620.0,0.022341506391556094,47.99,2014-03-31 00:00:00,2014-04-22 00:00:00,48.73724593885272,7.653303368037724,-83.5837788917349,5.05151735401352
sz002509,2014-08-08,11.65,11.98,11.61,11.77,0.0034100000000000003,4100773.0,48247882.24,2720033760.0,5372312790.0,0.017744668805140123,47.91,2014-03-31 00:00:00,2014-04-22 00:00:00,48.6545818043671,7.640322460177882,-83.44201091518998,5.042949383011783
sz002509,2014-08-07,11.65,11.84,11.52,11.73,0.006867,5913113.0,68977443.76,2710789800.0,5354055150.0,0.02558693982469611,47.75,2014-03-31 00:00:00,2014-04-22 00:00:00,48.489233518070485,7.614357501099134,-83.1584406326327,5.025811366252861
sz002509,2014-08-06,11.0,12.08,10.92,11.65,0.055254,10181558.0,116589329.79,2692301890.0,5317539850.0,0.04405715092373984,47.42,2014-03-31 00:00:00,2014-04-22 00:00:00,48.15852890011341,7.562426319562698,-82.59128626981787,4.991534498849264
sz002509,2014-08-05,10.96,11.08,10.82,11.04,0.009141,4544938.0,49943228.65,2551331580.0,5039110730.0,0.01966663835987951,44.94,2014-03-31 00:00:00,2014-04-22 00:00:00,45.6369072281303,7.166451223651081,-78.26673603683841,4.730173492684476
sz002509,2014-08-04,11.09,11.2,10.84,10.94,0.007365999999999999,4647947.0,50815758.33,2528221690.0,4993466610.0,0.02011237399834189,44.53,2014-03-31 00:00:00,2014-04-22 00:00:00,45.223519040580356,7.10153608232257,-77.55778036650815,4.687326639869429
sz002509,2014-08-01,10.9,10.96,10.81,10.86,-0.004582999999999999,3181554.0,34649925.14,2509733780.0,4956951310.0,0.013767068330251346,44.2,2014-03-31 00:00:00,2014-04-22 00:00:00,44.89283839297768,7.049608664896939,-76.99066711255706,4.6530522569447745
sz002509,2014-07-31,10.83,10.93,10.71,10.91,0.011120999999999999,3645969.0,39517532.11,2521288730.0,4979773370.0,0.015776662671236386,44.41,2014-03-31 00:00:00,2014-04-22 00:00:00,45.09952953684504,7.082065772331536,-77.34513988866682,4.6744753776003165
sz002509,2014-07-30,10.74,10.84,10.63,10.79,0.002788,3035129.0,32605775.89,2493556860.0,4925000430.0,0.013133465065641212,43.92,2014-03-31 00:00:00,2014-04-22 00:00:00,44.60349407919037,7.004172371389315,-76.49444516399801,4.623062301742637
sz002509,2014-07-29,10.52,10.94,10.52,10.76,0.016053,7404971.0,79599223.5,2486623900.0,4911307190.0,0.03204243631696776,43.8,2014-03-31 00:00:00,2014-04-22 00:00:00,44.47948527424577,6.984699030492303,-76.28177158481952,4.610209038942067
sz002509,2014-07-28,10.5,10.66,10.44,10.59,0.0037909999999999997,5124703.0,54056114.98,2447337090.0,4833712190.0,0.02217536970765233,43.11,2014-03-31 00:00:00,2014-04-22 00:00:00,43.77673731020504,6.8743451675181335,-75.07656744758346,4.53737062824682
sz002509,2014-07-25,10.45,10.71,10.35,10.55,-0.014939,3419459.0,35993631.77,2438093130.0,4815454540.0,0.014796519462732747,42.94,2014-03-31 00:00:00,2014-04-22 00:00:00,43.611406468283775,6.848382947763162,-74.79302708191591,4.520234419562259
sz002509,2014-07-24,10.41,10.72,10.19,10.71,0.011331,8213837.0,85663552.97,2475068950.0,4888485130.0,0.03554252267194415,43.59,2014-03-31 00:00:00,2014-04-22 00:00:00,44.27279779453636,6.952242498447469,-75.92730509269569,4.588786298069113
sz002509,2014-07-23,10.4,10.89,10.37,10.59,0.012428,3997463.0,42494378.9,2447337090.0,4833712190.0,0.01729763069541025,43.11,2014-03-31 00:00:00,2014-04-22 00:00:00,43.77676328970076,6.874349247128259,-75.0766120020999,4.537373320969212
sz002509,2014-07-22,10.65,10.69,10.42,10.46,-0.01784,5443012.0,57301486.05,2417294230.0,4774374840.0,0.023552741248217848,42.58,2014-03-31 00:00:00,2014-04-22 00:00:00,43.2393842225825,6.789963579759013,-74.1550134943916,4.481675063282733
sz002509,2014-07-21,10.99,11.02,10.65,10.65,-0.029169999999999998,3502953.0,37847378.81,2461203020.0,4861098660.0,0.015157810691293563,43.35,2014-03-31 00:00:00,2014-04-22 00:00:00,44.02478641217571,6.913296794574217,-75.5019686144738,4.56308041793876
sz002509,2014-07-18,11.0,11.08,10.8,10.97,0.0018260000000000001,3421707.0,37525520.47,2535154660.0,5007159840.0,0.014806246885939496,44.65,2014-03-31 00:00:00,2014-04-22 00:00:00,45.34757518018161,7.121016856271661,-77.77053512404211,4.7001848088118
sz002509,2014-07-17,10.93,11.24,10.69,10.95,0.00183,5429378.0,59473948.99,2530532680.0,4998031020.0,0.023493744842686636,44.57,2014-03-31 00:00:00,2014-04-22 00:00:00,45.264921433643764,7.108037579651217,-77.62878496270021,4.691617914499923
sz002509,2014-07-16,10.92,11.09,10.78,10.93,0.0,4088866.0,44591539.26,2525910700.0,4988902200.0,0.017693145438593693,44.49,2014-03-31 00:00:00,2014-04-22 00:00:00,45.18223793821682,7.095053631505561,-77.48698378237845,4.683047936775623
sz002509,2014-07-15,10.92,11.09,10.83,10.93,0.0018329999999999998,3022594.0,33083548.61,2525910700.0,4988902200.0,0.01307922422593958,44.49,2014-03-31 00:00:00,2014-04-22 00:00:00,45.18223793821682,7.095053631505561,-77.48698378237845,4.683047936775623
sz002509,2014-07-14,10.8,10.95,10.68,10.91,0.007387,3777626.0,40762845.98,2521288730.0,4979773370.0,0.016346362544523013,44.41,2014-03-31 00:00:00,2014-04-22 00:00:00,45.09957042562666,7.082072193175472,-77.3452100124257,4.674479615640156
sz002509,2014-07-11,10.6,10.97,10.42,10.83,0.022663,5370303.0,57898068.59,2502800820.0,4943258080.0,0.02323811828142201,44.08,2014-03-31 00:00:00,2014-04-22 00:00:00,44.76886283585817,7.030140544969779,-76.77805055299073,4.640202440214292
sz002509,2014-07-10,10.75,10.88,10.52,10.59,-0.026654,5425719.0,57914177.49,2447337090.0,4833712190.0,0.023477911745292103,43.11,2014-03-31 00:00:00,2014-04-22 00:00:00,43.77675034283842,6.8743472140575905,-75.07658979838982,4.537371979053013
sz002509,2014-07-09,10.94,10.96,10.71,10.88,-0.001835,4188607.0,45458730.04,2514355760.0,4966080140.0,0.018124739897587127,44.29,2014-03-31 00:00:00,2014-04-22 00:00:00,44.975528067961875,7.062593583430344,-77.1324788907437,4.661622875167733
sz002509,2014-07-08,10.85,11.15,10.7,10.9,0.006464,4612316.0,50413485.08,2518977740.0,4975208960.0,0.019958193199436532,44.37,2014-03-31 00:00:00,2014-04-22 00:00:00,45.058209883097355,7.075577267716604,-77.27427718938623,4.670192678733209
sz002509,2014-07-07,10.99,11.22,10.66,10.83,-0.014559,10022148.0,108750703.6,2502800820.0,4943258080.0,0.043367359468900926,44.08,2014-03-31 00:00:00,2014-04-22 00:00:00,44.76882420344628,7.030134478447915,-76.77798429887827,4.640198436042629
sz002509,2014-07-04,10.84,11.29,10.8,10.99,0.014774,8982331.0,99335162.84,2539776640.0,5016288670.0,0.03886791308152201,44.73,2014-03-31 00:00:00,2014-04-22 00:00:00,45.430243112927386,7.133998360579594,-77.91230961455659,4.708753173495551
sz002509,2014-07-03,10.87,11.03,10.72,10.83,-0.00551,6032968.0,65572587.87,2502800820.0,4943258080.0,0.026105570574329603,44.08,2014-03-31 00:00:00,2014-04-22 00:00:00,44.76882844153219,7.030135143962689,-76.77799156714362,4.640198875311696
sz002509,2014-07-02,10.59,10.95,10.58,10.89,0.021575999999999998,7994792.0,86478035.69,2516666750.0,4970644550.0,0.03459468158825558,44.33,2014-03-31 00:00:00,2014-04-22 00:00:00,45.01687140296251,7.069085806757925,-77.2033822030826,4.665908028549
sz002509,2014-07-01,10.37,10.8,10.37,10.66,0.027964999999999997,6522704.0,69263844.05,2463514010.0,4865663070.0,0.028224732783232682,43.39,2014-03-31 00:00:00,2014-04-22 00:00:00,44.066101203398,6.919784535617443,-75.572822974583,4.5673626128149065
sz002509,2014-06-30,10.39,10.53,10.27,10.37,-0.001925,4793185.0,49839926.26,2396495330.0,4733295130.0,0.020740840938755344,42.21,2014-03-31 00:00:00,2014-04-22 00:00:00,42.86731669210334,6.731537100599188,-73.51692224402875,4.443111013327211
sz002509,2014-06-27,10.24,10.42,10.2,10.39,0.011685,2793659.0,28845269.75,2401117310.0,4742423950.0,0.012088587629231661,42.29,2014-03-31 00:00:00,2014-04-22 00:00:00,42.94999543331245,6.744520302180885,-73.65871527092526,4.451680498286412
sz002509,2014-06-26,10.2,10.4,10.2,10.27,0.0,3270001.0,33641673.39,2373385450.0,4687651010.0,0.014149791922757426,41.8,2014-03-31 00:00:00,2014-04-22 00:00:00,42.4539213621952,6.66662083769245,-72.80795432464183,4.400263420221129
sz002509,2014-06-25,10.4,10.4,10.05,10.27,-0.013449000000000001,4591486.0,46746443.93,2373385450.0,4687651010.0,0.019868058608010764,41.8,2014-03-31 00:00:00,2014-04-22 00:00:00,42.4539213621952,6.66662083769245,-72.80795432464183,4.400263420221129
sz002509,2014-06-24,10.4,10.46,10.25,10.41,0.000962,4590167.0,47623230.06,2405739290.0,4164000000.0,0.0198623511153613,42.37,2014-03-31 00:00:00,2014-04-22 00:00:00,43.03266771023009,6.757502488662472,-73.8004972116412,4.460249313234824
sz002509,2014-06-23,9.99,10.49,9.99,10.4,0.023622,8461703.0,87588913.15,2403428300.0,4160000000.0,0.036615076555435416,42.33,2014-03-31 00:00:00,2014-04-22 00:00:00,42.99131006994282,6.751008018948244,-73.7295693659112,4.455962677139417
sz002509,2014-06-20,9.75,10.18,9.67,10.16,0.036735000000000004,5051231.0,50767368.86,2347964570.0,4064000000.0,0.02185744521690121,41.36,2014-03-31 00:00:00,2014-04-22 00:00:00,41.99920485290743,6.595215830597861,-72.02812108953422,4.353132970119259
sz002509,2014-06-19,9.99,10.0,9.61,9.8,-0.017051,3653818.0,36026603.31,2264768980.0,3920000000.0,0.015810626477231245,39.89,2014-03-31 00:00:00,2014-04-22 00:00:00,40.51103208911383,6.361525202291676,-69.4759230560695,4.198886861270488
sz002509,2014-06-18,9.95,10.01,9.82,9.97,0.008089,4370292.0,43460271.2,2304055780.0,3988000000.0,0.018910918571598125,40.58,2014-03-31 00:00:00,2014-04-22 00:00:00,41.21376804810203,6.471877180089382,-70.68110660478776,4.271724027666226
sz002509,2014-06-17,9.7,10.23,9.7,9.89,0.021694,8345200.0,83286934.4,2285567870.0,3956000000.0,0.0361109504046362,40.26,2014-03-31 00:00:00,2014-04-22 00:00:00,40.88306493583606,6.419946234994511,-70.11395482421469,4.237447316324477
sz002509,2014-06-16,9.63,9.9,9.6,9.68,-0.002062,3816547.0,37151270.39,2237037110.0,3872000000.0,0.01651477965870669,39.4,2014-03-31 00:00:00,2014-04-22 00:00:00,40.01497996057142,6.283629183487924,-68.62519974103272,4.147472057508879
sz002509,2014-06-13,9.64,9.79,9.51,9.7,0.010417000000000001,3230881.0,31374157.91,2241659090.0,3880000000.0,0.01398051373636836,39.48,2014-03-31 00:00:00,2014-04-22 00:00:00,40.09766133825088,6.296612799079624,-68.76699728944354,4.1560418157329195
sz002509,2014-06-12,9.51,9.8,9.5,9.6,0.007345,4489903.0,43469307.78,2218549200.0,3840000000.0,0.019428493539832246,39.08,2014-03-31 00:00:00,2014-04-22 00:00:00,39.68427029459212,6.231697209250859,-68.05803672092169,4.1131946668879475
sz002509,2014-06-11,9.33,9.63,9.33,9.53,0.021436,5355835.0,50892193.43,2202372280.0,3812000000.0,0.023175513065393283,38.79,2014-03-31 00:00:00,2014-04-22 00:00:00,39.394914646513485,6.186259135897691,-67.56179533419207,4.083203536909349
sz002509,2014-06-10,9.17,9.38,9.06,9.33,0.021906000000000002,3015254.0,27961206.67,2156152500.0,3732000000.0,0.013047462932236936,37.98,2014-03-31 00:00:00,2014-04-22 00:00:00,38.56816740991456,6.05643342891546,-66.14393396570325,3.997512851426178
sz002509,2014-06-09,9.16,9.26,9.06,9.13,-0.002186,2559112.0,23459788.93,2109932730.0,3652000000.0,0.011073667054778566,37.16,2014-03-31 00:00:00,2014-04-22 00:00:00,37.74140420930551,5.926605215074048,-64.72604521913293,3.9118205113055193
sz002509,2014-06-06,9.1,9.21,9.09,9.15,-0.001092,2768012.0,25341531.0,2114554710.0,3660000000.0,0.011977609129820056,37.24,2014-03-31 00:00:00,2014-04-22 00:00:00,37.82408766494107,5.939589156971187,-64.86784633121296,3.920390484905523
sz002509,2014-06-05,8.9,9.19,8.9,9.16,0.01891,2381054.0,21676934.18,2116865700.0000002,3664000000.0,0.010303182974715872,37.28,2014-03-31 00:00:00,2014-04-22 00:00:00,37.86543672184132,5.946082278819658,-64.9387594565395,3.9246762313501575
sz002509,2014-06-04,9.3,9.3,8.98,8.99,-0.013172,2080884.0,18925457.0,2077578890.0,3596000000.0,0.009004301713905073,36.59,2014-03-31 00:00:00,2014-04-22 00:00:00,37.16269024922842,5.835728650047265,-63.73355787708386,3.8518379752384
sz002509,2014-06-03,9.15,9.25,9.04,9.11,0.0022,2326293.0,21318922.3,2105310750.0,3644000000.0,0.010066223824677662,37.08,2014-03-31 00:00:00,2014-04-22 00:00:00,37.65873105468067,5.9136228907644135,-64.58426177315992,3.9032516053845248
sz002509,2014-05-30,9.14,9.16,9.06,9.09,-0.001099,1451574.0,13222194.74,2100688770.0,3636000000.0,0.006281181605021861,37.0,2014-03-31 00:00:00,2014-04-22 00:00:00,37.57606371450875,5.900641479509493,-64.44248829890233,3.894683302119861
sz002509,2014-05-29,9.19,9.2,9.02,9.1,-0.004376,1854614.0,16878823.09,2102999759.9999998,3640000000.0,0.008025197016665375,37.04,2014-03-31 00:00:00,2014-04-22 00:00:00,37.61740524287066,5.907133419137124,-64.51338851287798,3.8989682682466635
sz002509,2014-05-28,9.05,9.16,9.02,9.14,0.006608,2103002.0,19150473.61,2112243720.0000002,3656000000.0,0.009100009671232447,37.2,2014-03-31 00:00:00,2014-04-22 00:00:00,37.782742524156376,5.933096650077865,-64.79693992197656,3.916105144358376
sz002509,2014-05-27,9.1,9.15,9.05,9.08,-0.002198,1438051.0,13078896.45,2098377790.0,3632000000.0,0.006222665500095672,36.96,2014-03-31 00:00:00,2014-04-22 00:00:00,37.53471313972904,5.894148119305494,-64.37157257043114,3.890397398350079
sz002509,2014-05-26,9.14,9.18,9.03,9.1,0.0011,2004073.0,18209803.98,2102999759.9999998,3640000000.0,0.008671928854618606,37.04,2014-03-31 00:00:00,2014-04-22 00:00:00,37.61739617652505,5.9071319954314525,-64.51337296420647,3.898967328538206
sz002509,2014-05-23,9.05,9.1,8.98,9.09,0.01,1725863.0,15630536.39,2100688770.0,3636000000.0,0.007468071850548332,37.0,2014-03-31 00:00:00,2014-04-22 00:00:00,37.5760625077665,5.900641290012438,-64.44248622935417,3.894683177043458
sz002509,2014-05-22,8.94,9.1,8.93,9.0,0.004464,2811690.0,25432994.88,2079889880.0,3600000000.0,0.012166610474589164,36.63,2014-03-31 00:00:00,2014-04-22 00:00:00,37.20402228491732,5.842219099022215,-63.80444181124175,3.8561219574687695
sz002509,2014-05-21,8.91,8.98,8.8,8.96,0.005612,1266530.0,11251274.37,2070645920.0,3584000000.0,0.0054804680464151986,36.47,2014-03-31 00:00:00,2014-04-22 00:00:00,37.038681610209345,5.816255335205857,-63.52088458246562,3.838984729635676
sz002509,2014-05-20,9.05,9.15,8.89,8.91,-0.008898999999999999,2545581.0,22914206.84,2059090980.0,3564000000.0,0.0110151163451748,36.27,2014-03-31 00:00:00,2014-04-22 00:00:00,36.83198053544444,5.783796668303339,-63.16639477498839,3.8175605796626098
sz002509,2014-05-19,9.02,9.04,8.86,8.99,0.005593,1107952.0,9909507.0,2077578890.0,3596000000.0,0.004794276899877434,36.59,2014-03-31 00:00:00,2014-04-22 00:00:00,37.162691325550504,5.83572881906419,-63.73355972296304,3.851838086797016
sz002509,2014-05-16,9.07,9.07,8.83,8.94,-0.004454,1119783.0,9966705.55,2066023940.0,3576000000.0,0.004845471451797407,36.39,2014-03-31 00:00:00,2014-04-22 00:00:00,36.95599643747571,5.803271123669507,-63.379080525583454,3.830414578061916
sz002509,2014-05-15,9.21,9.21,8.93,8.98,-0.02072,2553886.0,23009384.5,2075267900.0,3592000000.0,0.011051053350750522,36.55,2014-03-31 00:00:00,2014-04-22 00:00:00,37.12133486295531,5.829234534285214,-63.662633896960514,3.84755157276702
sz002509,2014-05-14,9.19,9.28,9.13,9.17,-0.002176,1149099.0,10561653.8,2119176680.0000002,3668000000.0,0.004972326247946442,37.33,2014-03-31 00:00:00,2014-04-22 00:00:00,37.906762992152714,5.9525718224463,-65.0096335031457,3.9289596160107627
sz002509,2014-05-13,9.28,9.3,9.1,9.19,-0.009698,1724573.0,15861098.13,2123798660.0000002,3676000000.0,0.007462489815301041,37.41,2014-03-31 00:00:00,2014-04-22 00:00:00,37.98942798745341,5.965552865481588,-65.1514029559779,3.937527676234249
sz002509,2014-05-12,9.18,9.36,9.08,9.28,0.020902,1707164.0,15700865.45,2144597560.0,3712000000.0,0.007387158418663872,37.77,2014-03-31 00:00:00,2014-04-22 00:00:00,38.36145740133152,6.023973359118318,-65.78942883683754,3.976087775480862
sz002509,2014-05-09,9.15,9.2,9.03,9.09,-0.011956999999999999,1221324.0,11120749.35,2100688770.0,3636000000.0,0.005284854814547326,37.0,2014-03-31 00:00:00,2014-04-22 00:00:00,37.57604295155806,5.900638219063454,-64.44245269069661,3.8946811500818512
sz002509,2014-05-08,9.3,9.44,9.19,9.2,-0.009687999999999999,1365009.0,12700008.05,2126109650.0,3680000000.0,0.005906601665629051,37.45,2014-03-31 00:00:00,2014-04-22 00:00:00,38.03077695156796,5.972045972759742,-65.2223159221781,3.9418134130618316
sz002509,2014-05-07,9.28,9.45,9.1,9.29,-0.002148,2002897.0,18727532.01,2146908549.9999998,3716000000.0,0.008666840108303635,37.81,2014-03-31 00:00:00,2014-04-22 00:00:00,38.402823505691096,6.03046915796208,-65.86037119834769,3.980375288860311
sz002509,2014-05-06,9.3,9.39,9.26,9.31,0.0032329999999999998,793537.0,7403617.74,2151530530.0,3724000000.0,0.0034337553508943237,37.9,2014-03-31 00:00:00,2014-04-22 00:00:00,38.485490338939144,6.04345048961377,-66.00214380323705,3.988943539583336
sz002509,2014-05-05,9.21,9.33,9.17,9.28,0.005417,1349834.0,12507623.42,2144597560.0,3712000000.0,0.005840937131346917,37.77,2014-03-31 00:00:00,2014-04-22 00:00:00,38.36146771382036,6.023974978508253,-65.78944652262939,3.9760888443495537
sz002509,2014-04-30,9.1,9.27,9.05,9.23,0.021018000000000002,1113067.0,10254562.49,2133042620.0,3692000000.0,0.0048164102834475945,37.57,2014-03-31 00:00:00,2014-04-22 00:00:00,38.15478325293918,5.991518920515818,-65.43498520775896,3.954666416372066
sz002509,2014-04-29,8.96,9.15,8.96,9.04,0.013377000000000002,1245347.0,11280667.21,2089133830.0,3616000000.0,0.005388805981855168,36.8,2014-03-31 00:00:00,2014-04-22 00:00:00,37.369354167056,5.868181482124525,-64.08798396086941,3.87325827396977
sz002509,2014-04-28,9.23,9.39,8.94,8.97,-0.034446,2123260.0,19403172.68,2072956910.0,3588000000.0,0.009187669125259338,36.31,2014-03-31 00:00:00,2014-04-22 00:00:00,36.87606307135055,5.790719033611899,-63.24199578327652,3.8221296456992513
sz002509,2014-04-25,9.39,9.46,9.29,9.29,-0.01065,1313826.0,12323700.96,2146908549.9999998,3716000000.0,0.005685125032456552,37.61,2014-03-31 00:00:00,2014-04-22 00:00:00,38.19161131469658,5.997302101810876,-65.49814488187766,3.958483570778279
sz002509,2014-04-24,9.6,9.66,9.34,9.39,0.0,2333284.0,22107733.11,2170018440.0,3756000000.0,0.010096474922120938,38.01,2014-03-31 00:00:00,2014-04-22 00:00:00,38.602730393386146,6.061860920615431,-66.20320905834909,4.0010952350313636
sz002509,2014-04-23,9.26,9.44,9.24,9.39,0.018438,2967859.0,27639244.74,2170018440.0,3756000000.0,0.012842377509934893,38.01,2014-03-31 00:00:00,2014-04-22 00:00:00,38.602730393386146,6.061860920615431,-66.20320905834909,4.0010952350313636
sz002509,2014-04-22,9.43,9.48,9.18,9.22,-0.022269,5306548.0,49113446.2,2130731630.0,3688000000.0,0.022962240702269952,37.32,2014-03-31 00:00:00,2014-04-22 00:00:00,37.90385904039927,5.952115809323131,-65.00465326151331,3.9286586272619086
sz002509,2014-04-21,9.52,9.63,9.42,9.43,-0.024819,4320236.0,41121391.97,2179262390.0,3772000000.0,0.018694318622182984,38.17,2013-12-31 00:00:00,2014-03-25 00:00:00,41.41788645800755,6.589957147051514,229.37401218036482,4.156876676746218
sz002509,2014-04-18,9.7,9.8,9.55,9.67,-0.011247,4757556.0,45890448.65,2234726120.0,3868000000.0,0.02058666881291028,39.14,2013-12-31 00:00:00,2014-03-25 00:00:00,42.4719990012188,6.7576759053463045,235.21173216086535,4.262671931411931
sz002509,2014-04-17,9.71,9.9,9.65,9.78,-0.005086,2023329.0,19785287.53,2260147000.0,3912000000.0,0.008755252476940659,39.59,2013-12-31 00:00:00,2014-03-25 00:00:00,42.95511518166701,6.834544021961304,237.88725006231624,4.311159542789687
sz002509,2014-04-16,9.74,9.9,9.65,9.83,0.011317,1241170.0,12170176.11,2271701940.0,3932000000.0,0.005370731470168133,39.79,2013-12-31 00:00:00,2014-03-25 00:00:00,43.1747017145874,6.8694822084736,239.10332959664476,4.333198188777811
sz002509,2014-04-15,9.97,9.99,9.72,9.72,-0.025075,2669186.0,26126639.87,2246281070.0,3888000000.0,0.011549973984333136,39.35,2013-12-31 00:00:00,2014-03-25 00:00:00,42.69156131518347,6.792610238405564,236.42767756958972,4.284708146681813
sz002509,2014-04-14,9.95,10.03,9.93,9.97,0.00201,2026318.0,20234085.06,2304055780.0,3988000000.0,0.008768186358752131,40.36,2013-12-31 00:00:00,2014-03-25 00:00:00,43.78958516314944,6.967315679057942,242.50858021857036,4.394910528175821
sz002509,2014-04-11,10.07,10.09,9.92,9.95,-0.014851,1758461.0,17556428.46,2299433810.0,3980000000.0,0.0076091283314652135,40.28,2013-12-31 00:00:00,2014-03-25 00:00:00,43.70174465639009,6.9533394667298145,242.02211576588093,4.386094478274488
sz002509,2014-04-10,10.01,10.2,10.0,10.1,0.01,2805193.0,28431718.96,2334098640.0,4040000000.0,0.012138496983143779,40.88,2013-12-31 00:00:00,2014-03-25 00:00:00,44.36054308169636,7.058160203918203,245.6705693919203,4.452214313037407
sz002509,2014-04-09,10.02,10.12,9.97,10.0,-0.006951000000000001,2694826.0,27050237.03,2310988750.0,4000000000.0,0.011660922191854028,40.48,2013-12-31 00:00:00,2014-03-25 00:00:00,43.921329783857786,6.988277429621983,243.2381875167528,4.408132983205354
sz002509,2014-04-08,9.89,10.1,9.87,10.07,0.008008,2756649.0,27588033.74,2327165670.0,4028000000.0,0.01192843972728422,40.76,2013-12-31 00:00:00,2014-03-25 00:00:00,44.228763921878766,7.037192957872153,244.94077081468566,4.438988391514773
sz002509,2014-04-04,9.63,10.06,9.55,9.99,0.035233,4225272.0,41191923.2,2308677760.0,3996000000.0,0.018283394942046827,40.44,2013-12-31 00:00:00,2014-03-25 00:00:00,43.877393752707086,6.981286813073064,242.99486791244283,4.403723374729935
sz002509,2014-04-03,9.82,9.85,9.6,9.65,-0.015306,2815319.0,27339646.97,2230104140.0,3860000000.0,0.012182313759571784,39.06,2013-12-31 00:00:00,2014-03-25 00:00:00,42.38407561651057,6.743686506393308,234.72480872657925,4.2538475635242845
sz002509,2014-04-02,9.83,10.0,9.7,9.8,-0.003052,3273221.0,32122281.47,2264768980.0,3920000000.0,0.014163725343853836,39.67,2013-12-31 00:00:00,2014-03-25 00:00:00,43.04289009226275,6.848509797351572,238.37335124066897,4.3199690091787755
sz002509,2014-04-01,9.74,9.91,9.71,9.83,0.002039,1501704.0,14753657.05,2271701940.0,3932000000.0,0.006498101736005032,39.79,2013-12-31 00:00:00,2014-03-25 00:00:00,43.17465915199463,6.869475436383414,239.1030938832005,4.3331939170135
sz002509,2014-03-31,9.83,9.89,9.72,9.81,0.0,1534747.0,15033932.34,2267079960.0,3924000000.0,0.0066410838327907945,39.71,2013-12-31 00:00:00,2014-03-25 00:00:00,43.08680515628098,6.8554970778416955,238.6165547281099,4.324376513302876
sz002509,2014-03-28,10.08,10.17,9.8,9.81,-0.030632,2955744.0,29306282.39,2267079960.0,3924000000.0,0.012789954104662458,39.71,2013-12-31 00:00:00,2014-03-25 00:00:00,43.08680515628098,6.8554970778416955,238.6165547281099,4.324376513302876
sz002509,2014-03-27,10.46,10.5,10.09,10.12,-0.033429,3216747.0,32946708.73,2338720620.0,4048000000.0,0.013919353753335445,40.97,2013-12-31 00:00:00,2014-03-25 00:00:00,44.44834691910707,7.0721305818241325,246.15683076820142,4.461026682645678
sz002509,2014-03-26,10.34,10.54,10.29,10.47,0.0019140000000000001,3872853.0,40325974.49,2419605220.0,4188000000.0,0.01675842429782822,42.38,2013-12-31 00:00:00,2014-03-25 00:00:00,45.98559952565003,7.316721256714854,254.67020091457476,4.61531194567774
sz002509,2014-03-25,10.05,10.45,10.0,10.45,0.030572000000000002,6166829.0,63643207.68,2414983240.0,4180000000.0,0.026684807572411973,42.3,2013-12-31 00:00:00,2014-03-25 00:00:00,45.8977512297962,7.302743805071946,254.18369332554968,4.606495114029488
sz002509,2014-03-24,10.24,10.47,10.1,10.14,-0.009766,4095030.0,41812258.3,2343342590.0,4056000000.0,0.01771981799724811,41.05,2013-09-30 00:00:00,2013-10-29 00:00:00,49.65786604776546,7.6319723768928265,100.64552785331622,4.6115581102966114
sz002509,2014-03-21,9.79,10.3,9.7,10.24,0.029146,5459566.0,55106710.75,2366452480.0,4096000000.0,0.023624372900993135,41.45,2013-09-30 00:00:00,2013-10-29 00:00:00,50.14760758342519,7.707241295383543,101.63812578977921,4.6570387507363025
sz002509,2014-03-20,9.86,10.11,9.75,9.95,0.007084999999999999,3668918.0,36652341.74,2299433810.0,3980000000.0,0.015875966484114625,40.28,2013-09-30 00:00:00,2013-10-29 00:00:00,48.72739881749062,7.488967838755185,98.75967626534936,4.5251487648363815
sz002509,2014-03-19,9.98,9.98,9.66,9.88,-0.008032,2831095.0,27724662.62,2283256890.0,3952000000.0,0.012250578865000163,39.99,2013-09-30 00:00:00,2013-10-29 00:00:00,48.3845939692187,7.436281782327395,98.06488654418379,4.493313637713183
sz002509,2014-03-18,9.77,10.11,9.7,9.96,0.020492,3809913.0,37870717.02,2301744800.0,3984000000.0,0.01648607329535403,40.32,2013-09-30 00:00:00,2013-10-29 00:00:00,48.776365738833015,7.496493619075813,98.85892140087566,4.5296961572482015
sz002509,2014-03-17,9.66,9.76,9.49,9.76,0.010352,2302515.0,22197567.21,2255525020.0,3904000000.0,0.009963332794242292,39.51,2013-09-30 00:00:00,2013-10-29 00:00:00,47.79691142981328,7.345960202604051,96.87378382277925,4.438737547426341
sz002509,2014-03-14,9.57,9.74,9.53,9.66,0.009404000000000001,1283672.0,12354485.1,2232415130.0,3864000000.0,0.005554644095249435,39.1,2013-09-30 00:00:00,2013-10-29 00:00:00,47.307187425583635,7.270693978538223,95.88122141865335,4.393258535071284
sz002509,2014-03-13,9.65,9.65,9.49,9.57,0.007368,1188859.0,11369226.21,2211616230.0,3828000000.0,0.005144373818417855,38.74,2013-09-30 00:00:00,2013-10-29 00:00:00,46.8664552801293,7.202957367454679,94.98795469272298,4.352329230983118
sz002509,2014-03-12,9.66,9.77,9.36,9.5,-0.018595,2002988.0,19160990.53,2195439310.0,3800000000.0,0.008667233894067426,38.46,2013-09-30 00:00:00,2013-10-29 00:00:00,46.52366888776426,7.1502741475356375,94.2932023776048,4.320495817797585
sz002509,2014-03-11,9.67,9.79,9.6,9.68,-0.001032,1910862.0,18525484.42,2237037110.0,3872000000.0,0.008268590662762854,39.18,2013-09-30 00:00:00,2013-10-29 00:00:00,47.40516798647271,7.285752719351986,96.07980637718862,4.4023576584565856
sz002509,2014-03-10,10.1,10.11,9.58,9.69,-0.04626,3129405.0,30509851.71,2239348100.0,3876000000.0,0.013541411650113709,39.23,2013-09-30 00:00:00,2013-10-29 00:00:00,47.45414065963346,7.293279383675941,96.17906317038046,4.4069055850203265
sz002509,2014-03-07,10.32,10.4,10.08,10.16,-0.015503999999999999,2818457.0,28781060.67,2347964570.0,4064000000.0,0.012195892342617419,41.13,2013-09-30 00:00:00,2013-10-29 00:00:00,49.755846100230094,7.647031039566276,100.84411178138743,4.620657186466255
sz002509,2014-03-06,10.2,10.36,10.13,10.32,0.016749,3493169.0,35806036.99,2384940390.0,4128000000.0,0.015115473842094645,41.78,2013-09-30 00:00:00,2013-10-29 00:00:00,50.53940909889943,7.767457703806085,102.43222093475994,4.693424032668751
sz002509,2014-03-05,10.32,10.45,10.12,10.15,-0.018375,3843212.0,39233950.7,2345653580.0,4060000000.0,0.016630163180361868,41.09,2013-09-30 00:00:00,2013-10-29 00:00:00,49.7068687541364,7.639503657054087,100.74484551719249,4.616108825943032
sz002509,2014-03-04,10.1,10.4,10.04,10.34,0.041289,6231790.0,63960832.0,2389562370.0,4136000000.0,0.02696590363531712,41.86,2013-09-30 00:00:00,2013-10-29 00:00:00,50.637329687137566,7.782507227356769,102.63068434197632,4.702517586596748
sz002509,2014-03-03,9.65,10.0,9.57,9.93,0.021605000000000003,2821184.0,27765421.11,2294811830.0,3972000000.0,0.012207692479953793,40.2,2013-09-30 00:00:00,2013-10-29 00:00:00,48.629467599424906,7.47391668149454,98.56119131382,4.516054223752241
sz002509,2014-02-28,9.65,9.75,9.56,9.72,0.011446,1668865.0,16124856.86,2246281070.0,3888000000.0,0.007221432801372448,39.35,2013-09-30 00:00:00,2013-10-29 00:00:00,47.60104697943422,7.315857578510813,96.47680983728544,4.420548278201693
sz002509,2014-02-27,9.91,9.99,9.6,9.61,-0.034171,2965004.0,29098872.85,2220860190.0,3844000000.0,0.012830023505441825,38.9,2013-09-30 00:00:00,2013-10-29 00:00:00,47.062371080051946,7.233067883516087,95.38503275240144,4.37052326886625
sz002509,2014-02-26,9.83,9.99,9.55,9.95,0.012208,2403132.0,23431999.95,2299433810.0,3980000000.0,0.010398717847851423,40.28,2013-09-30 00:00:00,2013-10-29 00:00:00,48.72743630606655,7.4889736004159,98.75975224641365,4.5251522462736675
sz002509,2014-02-25,10.24,10.37,9.65,9.83,-0.040039,5076446.0,50842034.9,2271701940.0,3932000000.0,0.021966554371124936,39.79,2013-09-30 00:00:00,2013-10-29 00:00:00,48.13974628343833,7.398650870587763,97.5686343581691,4.470575461045227
sz002509,2014-02-24,10.13,10.33,9.9,10.24,0.000978,3354431.0,34002136.28,2366452480.0,4096000000.0,0.01451513340339714,41.45,2013-09-30 00:00:00,2013-10-29 00:00:00,50.14760629175386,7.707241096865148,101.63812317184669,4.657038630783154
sz002509,2014-02-21,10.3,10.44,10.1,10.23,-0.006795999999999999,3364735.0,34503735.08,2364141490.0,4092000000.0,0.014559720387124546,41.41,2013-09-30 00:00:00,2013-10-29 00:00:00,50.098609851319274,7.6997107797225794,101.53881820763962,4.652488497033056
sz002509,2014-02-20,10.74,10.74,10.25,10.3,-0.037383,6852111.0,71467353.37,2380318410.0,4120000000.0,0.029650127060102015,41.69,2013-09-30 00:00:00,2013-10-29 00:00:00,50.44140967144643,7.752396063369237,102.23359773786616,4.684323157209452
sz002509,2014-02-19,10.57,10.99,10.51,10.7,0.012299,8823311.0,95198378.01,2472757960.0,4280000000.0,0.03817980943836492,43.31,2013-09-30 00:00:00,2013-10-29 00:00:00,52.400289701352065,8.053458502570843,106.20381495222519,4.86623772196985
sz002509,2014-02-18,10.45,10.75,10.35,10.57,0.011483,6975810.0,73891163.66,2442715110.0,4228000000.0,0.03018539141062586,42.79,2013-09-30 00:00:00,2013-10-29 00:00:00,51.76364858737594,7.955612425351446,104.91348401235723,4.807115014407651
sz002509,2014-02-17,10.54,10.81,10.37,10.45,-0.006654,9111070.0,96647006.62,2414983240.0,4180000000.0,0.03942498644421234,42.3,2013-09-30 00:00:00,2013-10-29 00:00:00,51.175994640914325,7.865295240109272,103.7224392425352,4.752541579450818
sz002509,2014-02-14,10.34,10.52,10.24,10.52,0.005736,8013467.0,83150085.36,2431160170.0,4208000000.0,0.034675491101024414,42.58,2013-09-30 00:00:00,2013-10-29 00:00:00,51.51880074104524,7.917981488936657,104.41723150094248,4.784376822829929
sz002509,2014-02-13,9.83,10.55,9.7,10.46,0.06409,11520689.0,117124713.47,2417294230.0,4184000000.0,0.049851774535530996,42.34,2013-09-30 00:00:00,2013-10-29 00:00:00,51.22497428852626,7.872822976344346,103.82171017139933,4.757090153708258
sz002509,2014-02-12,9.67,9.85,9.65,9.83,0.012358,4346005.0,42406181.1,2271701940.0,3932000000.0,0.0188058250062506,39.79,2013-09-30 00:00:00,2013-10-29 00:00:00,48.13970086038423,7.39864388946832,97.56854229566984,4.4705712427597835
sz002509,2014-02-11,10.1,10.11,9.61,9.71,-0.034791,7541738.0,74226221.9,2243970080.0,3884000000.0,0.032634247948617925,39.31,2013-09-30 00:00:00,2013-10-29 00:00:00,47.552052594422356,7.308327577268437,96.3775090389663,4.415998335331754
sz002509,2014-02-10,9.93,10.26,9.85,10.06,0.018219,6128550.0,61558772.32,2324854680.0,4024000000.0,0.026519168501318975,40.72,2013-09-30 00:00:00,2013-10-29 00:00:00,49.26606837941041,7.57175655973829,99.85144050559649,4.575173185633114
sz002509,2014-02-07,9.79,9.96,9.72,9.88,0.003046,3257174.0,32131360.15,2283256890.0,3952000000.0,0.014094287533278835,39.99,2013-09-30 00:00:00,2013-10-29 00:00:00,48.38455025825527,7.436275064341062,98.06479795171421,4.493309578423811
sz002509,2014-01-30,9.71,9.85,9.66,9.85,0.005102000000000001,2640130.0,25779351.04,2276323920.0,3940000000.0,0.011424244270121274,39.87,2013-09-30 00:00:00,2013-10-29 00:00:00,48.23761847238837,7.413692955598308,97.7669996707172,4.479664520294992
sz002509,2014-01-29,9.86,9.94,9.59,9.8,-0.006085,6361711.0,61829199.4,2264768980.0,3920000000.0,0.027528091540709818,39.67,2013-09-30 00:00:00,2013-10-29 00:00:00,47.992759413858856,7.376060295968277,97.2707244346516,4.456925287478278
sz002509,2014-01-28,10.08,10.14,9.73,9.86,-0.029528,5280845.0,52199026.62,2278634910.0,3944000000.0,0.022851019911741807,39.91,2013-09-30 00:00:00,2013-10-29 00:00:00,48.28658327307552,7.421218409993085,97.86624050814366,4.48421171576873
sz002509,2014-01-27,10.0,10.36,9.95,10.16,0.0,7920658.0,80458473.44,2347964570.0,4064000000.0,0.034273892505967414,41.13,2013-09-30 00:00:00,2013-10-29 00:00:00,49.755771699828045,7.647019604886164,100.84396098820332,4.620650277152489
sz002509,2014-01-24,9.7,10.36,9.69,10.16,0.040984,9545590.0,96311646.51,2347964570.0,4064000000.0,0.04130522054683304,41.13,2013-09-30 00:00:00,2013-10-29 00:00:00,49.755771699828045,7.647019604886164,100.84396098820332,4.620650277152489
sz002509,2014-01-23,9.7,9.86,9.61,9.76,0.004115,4394976.0,42857168.72,2255525020.0,3904000000.0,0.019017729965150196,39.51,2013-09-30 00:00:00,2013-10-29 00:00:00,47.79686498527166,7.345953064491061,96.87368968995038,4.438733234278805
sz002509,2014-01-22,9.56,9.76,9.55,9.72,0.0030960000000000002,4781101.0,46103491.02,2246281070.0,3888000000.0,0.020688551553345907,39.35,2013-09-30 00:00:00,2013-10-29 00:00:00,47.60098692407907,7.315848348536832,96.4766881183434,4.420542701063928
sz002509,2014-01-21,9.27,9.8,9.24,9.69,0.036364,5259015.0,50552703.71,2239348100.0,3876000000.0,0.022756558192091707,39.23,2013-09-30 00:00:00,2013-10-29 00:00:00,47.45406912606478,7.2932683896026225,96.17891818763448,4.406898941939682
sz002509,2014-01-20,9.23,9.43,9.13,9.35,0.013000999999999999,3098084.0,28817711.42,2160774480.0,3740000000.0,0.013405880932099863,37.85,2013-09-30 00:00:00,2013-10-29 00:00:00,45.78899800269478,7.037361766331735,92.80418674098529,4.25226941686481
sz002509,2014-01-17,9.59,9.59,9.21,9.23,-0.037538999999999996,4080185.0,38140404.41,2133042620.0,3692000000.0,0.017655581373240446,37.36,2013-09-30 00:00:00,2013-10-29 00:00:00,45.20133544063113,6.94704325694815,91.61312450924062,4.197695181806147
sz002509,2014-01-16,9.66,9.71,9.49,9.59,-0.007245999999999999,4649644.0,44700525.81,2216238210.0,3836000000.0,0.020119717167045865,38.82,2013-09-30 00:00:00,2013-10-29 00:00:00,46.964329402054865,7.2179997495463715,95.18632392298558,4.361418469741784
sz002509,2014-01-15,9.5,9.73,9.42,9.66,0.021141999999999998,8801286.0,84539401.96,2232415130.0,3864000000.0,0.03808450391572109,39.1,2013-09-30 00:00:00,2013-10-29 00:00:00,47.307116770171525,7.2706831194297585,95.8810782157368,4.393251973542069
sz002509,2014-01-14,9.28,9.64,9.28,9.46,0.036145,9968138.0,94759081.06,2186195360.0,3784000000.0,0.043133649995488056,38.29,2013-09-30 00:00:00,2013-10-29 00:00:00,46.32765743664595,7.120148930736135,93.8959304540767,4.302292897111341
sz002509,2014-01-13,8.9,9.19,8.88,9.13,0.032805,4626151.0,42054092.06,2109932730.0,3652000000.0,0.020018059357750237,36.96,2013-09-30 00:00:00,2013-10-29 00:00:00,44.7115581667102,6.871768845804529,90.62045413921477,4.152211222474982
sz002509,2014-01-10,8.77,8.94,8.75,8.84,0.006834000000000001,2652564.0,23545937.95,2042914060.0,3536000000.0,0.011478048058468011,35.78,2013-09-30 00:00:00,2013-10-29 00:00:00,43.29138430459787,6.653500753583232,87.74207535712432,4.020324477975012
sz002509,2014-01-09,8.51,8.93,8.51,8.78,0.024503999999999998,2578275.0,22664343.56,2029048120.0,3512000000.0,0.01115658829224809,35.54,2013-09-30 00:00:00,2013-10-29 00:00:00,42.99753912223651,6.608339362380722,87.14651606632704,3.993036069476212
sz002509,2014-01-08,8.66,8.69,8.51,8.57,-0.0058,1375030.0,11803718.42,1980517360.0,3428000000.0,0.005949964053836923,34.69,2013-09-30 00:00:00,2013-10-29 00:00:00,41.96912761905908,6.450281660570111,85.06215306755955,3.8975309705732837
sz002509,2014-01-07,8.71,8.73,8.51,8.62,-0.009195,1302108.0,11183713.52,1992072300.0,3448000000.0,0.00563441947363055,34.89,2013-09-30 00:00:00,2013-10-29 00:00:00,42.21396863715458,6.4879115475458775,85.55839173964952,3.9202685280358924
sz002509,2014-01-06,8.84,8.93,8.58,8.7,-0.025756,2219390.0,19398589.55,2010560210.0,3480000000.0,0.009603638281491704,35.22,2013-09-30 00:00:00,2013-10-29 00:00:00,42.60572830895542,6.548121524967957,86.3524020767452,3.9566499240878796
sz002509,2014-01-03,9.08,9.09,8.92,8.93,-0.017602,1826694.0,16383835.57,2063712950.0,3572000000.0,0.007904382932713583,36.15,2013-09-30 00:00:00,2013-10-29 00:00:00,43.73209207237142,6.721233618034042,88.63529267487938,4.061251518190391
sz002509,2014-01-02,9.01,9.15,8.89,9.09,0.007761,1897977.0,17161438.63,2100688770.0,3636000000.0,0.008212835321626439,36.8,2013-09-30 00:00:00,2013-10-29 00:00:00,44.51565666091689,6.841660526623674,90.2234050505797,4.134018512039308
sz002509,2013-12-31,8.88,9.08,8.8,9.02,0.014622999999999999,2282108.0,20478533.43,2084511850.0,3608000000.0,0.009875028611614753,36.51,2013-09-30 00:00:00,2013-10-29 00:00:00,44.172831317065146,6.788971320207542,89.52857378940017,4.102181481560914
sz002509,2013-12-30,9.12,9.18,8.88,8.89,-0.024149,3393028.0,30669994.88,2054479000.0,3556000000.0,0.014682077022933795,35.99,2013-09-30 00:00:00,2013-10-29 00:00:00,43.536201443358905,6.691126970517662,88.23826563107693,4.043059817844573
sz002509,2013-12-27,9.06,9.21,9.05,9.11,0.003304,2937875.0,26864164.39,2105321000.0,3644000000.0,0.012712570315880571,36.88,2013-09-30 00:00:00,2013-10-29 00:00:00,44.613574657769384,6.856709651901431,90.42186320562968,4.143111825314083
sz002509,2013-12-26,9.3,9.3,9.07,9.08,-0.022605,4086587.0,37332352.2,2098388000.0,3632000000.0,0.017683197749891823,36.76,2013-09-30 00:00:00,2013-10-29 00:00:00,44.46665682362413,6.8341296874142134,90.1240932016913,4.129468062834477
sz002509,2013-12-25,9.22,9.32,9.1,9.29,0.004324000000000001,6673526.0,61777837.65,2146919000.0,3716000000.0,0.028877221981826046,37.61,2013-09-30 00:00:00,2013-10-29 00:00:00,45.49507294760474,6.9921880994011785,92.20846556580636,4.224973590855773
sz002509,2013-12-24,9.18,9.27,9.11,9.25,-0.00108,6510002.0,60091560.74,2137675000.0,3700000000.0,0.028169632193855473,37.44,2013-09-30 00:00:00,2013-10-29 00:00:00,45.29919921021975,6.962084047977722,91.81147275760247,4.206783459178285
sz002509,2013-12-23,9.06,9.3,8.82,9.26,0.022075,7088957.0,64657262.97,2139986000.0,3704000000.0,0.030674846386845523,37.48,2013-09-30 00:00:00,2013-10-29 00:00:00,45.34817523947838,6.969611228104074,91.91073635286357,4.21133169741149
sz002509,2013-12-20,9.18,9.21,8.92,9.06,-0.015216999999999998,5743068.0,51996384.68,2093766000.0,3624000000.0,0.024851008221549113,36.67,2013-09-30 00:00:00,2013-10-29 00:00:00,44.36873540540408,6.819080036302692,89.92562811228487,4.120374431828868
sz002509,2013-12-19,9.18,9.21,9.04,9.2,0.002179,4329946.0,39459335.84,2126120000.0,3680000000.0,0.01873624405019472,37.24,2013-09-30 00:00:00,2013-10-29 00:00:00,45.054327100898455,6.9244493825570625,91.31517107046412,4.184043014378667
sz002509,2013-12-18,9.06,9.27,9.06,9.18,0.014365000000000001,6699425.0,61530239.49,2121498000.0,3672000000.0,0.02898929035049762,37.16,2013-09-30 00:00:00,2013-10-29 00:00:00,44.956367176820166,6.909393813437583,91.11662793818682,4.174945807464203
sz002509,2013-12-17,8.9,9.06,8.88,9.05,0.012304,3127459.0,28141969.83,2091455000.0,3620000000.0,0.013532925140631763,36.63,2013-09-30 00:00:00,2013-10-29 00:00:00,44.31971447833883,6.811545955782764,89.82627351908516,4.115822024088176
sz002509,2013-12-16,8.98,8.98,8.8,8.94,0.00112,3457065.0,30770519.12,2066034000.0,3576000000.0,0.014959173517957594,36.19,2013-09-30 00:00:00,2013-10-29 00:00:00,43.781032652581466,6.728755349956894,88.73448442274767,4.065796464390318
sz002509,2013-12-13,8.93,8.99,8.82,8.93,-0.003348,2115956.0,18913770.84,2063723000.0,3572000000.0,0.009156019039376894,36.15,2013-09-30 00:00:00,2013-10-29 00:00:00,43.73205275349755,6.721227575072812,88.63521298420537,4.061247866779525
sz002509,2013-12-12,8.74,9.0,8.7,8.96,0.005612,4297744.0,37937155.0,2070656000.0,3584000000.0,0.018596901774123757,36.27,2013-09-30 00:00:00,2013-10-29 00:00:00,43.87895950993682,6.743805837015139,88.93296053608017,4.074890600510033
sz002509,2013-12-11,9.09,9.1,8.8,8.91,-0.013288999999999999,2892411.0,25953106.52,2059101000.0,3564000000.0,0.012515841627001298,36.07,2013-09-30 00:00:00,2013-10-29 00:00:00,43.63408502477777,6.706170806449346,88.43665403364336,4.052149935074396
sz002509,2013-12-10,8.95,9.06,8.89,9.03,0.014606999999999998,2904763.0,26103308.94,2086833000.0,3612000000.0,0.012569290350497619,36.55,2013-09-30 00:00:00,2013-10-29 00:00:00,44.22174783171341,6.796489353467576,89.62771676168946,4.106724192873491
sz002509,2013-12-09,8.95,8.96,8.86,8.9,0.0,1513591.0,13458467.67,2056790000.0,3560000000.0,0.006549506707053223,36.03,2013-09-30 00:00:00,2013-10-29 00:00:00,43.58510027203972,6.698642285601791,88.33737275781603,4.047600886721155
sz002509,2013-12-06,8.85,8.97,8.85,8.9,0.003382,1282217.0,11421338.95,2056790000.0,3560000000.0,0.0055483210731285156,36.03,2013-09-30 00:00:00,2013-10-29 00:00:00,43.58510027203972,6.698642285601791,88.33737275781603,4.047600886721155
sz002509,2013-12-05,8.87,8.98,8.81,8.87,0.0,1858368.0,16531183.21,2049857000.0,3548000000.0,0.00804140199048031,35.91,2013-09-30 00:00:00,2013-10-29 00:00:00,43.43819230566197,6.67606383770268,88.03962275366314,4.033958040627752
sz002509,2013-12-04,8.74,8.9,8.64,8.87,0.014874,2527009.0,22335656.97,2049857000.0,3548000000.0,0.010934699264387709,35.91,2013-09-30 00:00:00,2013-10-29 00:00:00,43.43819230566197,6.67606383770268,88.03962275366314,4.033958040627752
sz002509,2013-12-03,8.55,8.75,8.51,8.74,0.027027,1652796.0,14359902.84,2019814000.0,3496000000.0,0.0071518649935093034,35.38,2013-09-30 00:00:00,2013-10-29 00:00:00,42.80156187434299,6.578219402312681,86.74931346518201,3.974836325127801
sz002509,2013-12-02,8.89,8.95,8.41,8.51,-0.058628,4942963.0,43125309.13,1966661000.0,3404000000.0,0.021388848983124188,34.45,2013-09-30 00:00:00,2013-10-29 00:00:00,41.675206079628865,6.405108533965204,84.46643901784668,3.870235471051687
sz002509,2013-11-29,9.01,9.13,9.01,9.04,0.0011070000000000001,2851936.0,25802484.13,2089144000.0,3616000000.0,0.012340700995240154,36.59,2013-09-30 00:00:00,2013-10-29 00:00:00,44.27070921976526,6.804014283370659,89.72695068245783,4.111271071427328
sz002509,2013-11-28,9.08,9.18,9.03,9.03,-0.008782,5222964.0,47387672.54,2086833000.0,3612000000.0,0.022600450021635653,36.55,2013-09-30 00:00:00,2013-10-29 00:00:00,44.22175573616533,6.796490568311538,89.62773278226786,4.106724926933214
sz002509,2013-11-27,8.96,9.12,8.81,9.11,0.008859,4744594.0,42401126.02,2105321000.0,3644000000.0,0.02053048031155344,36.88,2013-09-30 00:00:00,2013-10-29 00:00:00,44.61355194938482,6.856706161824682,90.42181718074917,4.143109716463193
sz002509,2013-11-26,9.07,9.12,9.01,9.03,-0.006601,2560233.0,23181466.65,2086833000.0,3612000000.0,0.011078463868455212,36.55,2013-09-30 00:00:00,2013-10-29 00:00:00,44.2217911020121,6.796496003727659,89.62780446102893,4.10672821123982
sz002509,2013-11-25,9.3,9.33,8.98,9.09,0.00442,4348632.0,39686262.2,2100699000.0,3636000000.0,0.01881710082215491,36.8,2013-09-30 00:00:00,2013-10-29 00:00:00,44.51563883395503,6.841657786778182,90.223368919265,4.13401685650964
sz002509,2013-11-22,9.09,9.22,9.0,9.05,-0.018438,4859151.0,44166919.68,1367455000.0,3620000000.0,0.032158510919920585,36.63,2013-09-30 00:00:00,2013-10-29 00:00:00,44.31974555858608,6.811550732540352,89.82633651188247,4.115824910405647
sz002509,2013-11-21,9.03,9.44,8.97,9.22,0.0,6520458.0,59638987.63,1393142000.0,3688000000.0,0.04315326273990735,37.32,2013-09-30 00:00:00,2013-10-29 00:00:00,45.152262983475396,6.9395012567116,91.51366547592761,4.193137988640194
sz002509,2013-11-20,9.8,9.8,9.14,9.22,0.027870999999999996,8343957.0,77447914.73,1393142000.0,3688000000.0,0.05522142289874255,37.32,2013-09-30 00:00:00,2013-10-29 00:00:00,45.152262983475396,6.9395012567116,91.51366547592761,4.193137988640194
sz002509,2013-11-19,8.93,8.97,8.79,8.97,0.004479,4214410.0,37507721.23,1355367000.0,3588000000.0,0.027891528788881535,36.31,2013-09-30 00:00:00,2013-10-29 00:00:00,43.927947167957264,6.751334804378761,89.0322477002733,4.079439918667026
sz002509,2013-11-18,8.82,8.99,8.82,8.93,0.015927,3122828.0,27835316.28,1349323000.0,3572000000.0,0.0206672931833223,36.15,2013-09-30 00:00:00,2013-10-29 00:00:00,43.732071220958595,6.7212304133573335,88.63525041367048,4.061249581790188
sz002509,2013-11-15,8.75,8.85,8.64,8.79,0.010345,3475822.0,30513250.03,1328169000.0,3516000000.0,0.02300345466578425,35.58,2013-09-30 00:00:00,2013-10-29 00:00:00,43.04647009180639,6.615859617233654,87.24568833555018,3.9975801231684835
sz002509,2013-11-14,8.46,8.82,8.42,8.7,0.032027999999999994,2883888.0,25010513.65,1314570000.0,3480000000.0,0.01908595632031767,35.22,2013-09-30 00:00:00,2013-10-29 00:00:00,42.6057139806763,6.548119322838885,86.3523730364877,3.9566485934690463
sz002509,2013-11-13,8.9,8.96,8.4,8.43,-0.060201,5124479.0,44292458.3,1273773000.0,3372000000.0,0.03391448709463931,34.12,2013-09-30 00:00:00,2013-10-29 00:00:00,41.28348647582847,6.344904714638446,83.67250988973916,3.8338577959794176
sz002509,2013-11-12,9.13,9.13,8.93,8.97,-0.016447,2804016.0,25194689.42,1355367000.0,3588000000.0,0.01855735274652548,36.31,2013-09-30 00:00:00,2013-10-29 00:00:00,43.92799574784445,6.751342270675374,89.03234616097608,4.079444430116885
sz002509,2013-11-11,9.08,9.13,8.9,9.12,0.012209000000000001,1444964.0,13031229.56,1378032000.0,3648000000.0,0.009562964923891462,36.92,2013-09-30 00:00:00,2013-10-29 00:00:00,44.6625608867488,6.864238399634156,90.52114747347227,4.147661010760868
sz002509,2013-11-08,9.24,9.24,9.0,9.01,-0.026998,1951184.0,17653525.96,1361411000.0,3604000000.0,0.012913196558570483,36.47,2013-09-30 00:00:00,2013-10-29 00:00:00,44.12385276830063,6.7814437528555445,89.42930508765708,4.097633009349718
sz002509,2013-11-07,9.41,9.47,9.25,9.26,-0.008565000000000001,1641016.0,15355985.75,1399186000.0,3704000000.0,0.010860463269358042,37.48,2013-09-30 00:00:00,2013-10-29 00:00:00,45.3481624583512,6.969609263758496,91.9107104483414,4.211330510471425
sz002509,2013-11-06,9.44,9.54,9.34,9.34,-0.016842,2040459.0,19281669.59,1411274000.0,3736000000.0,0.013504030443414958,37.81,2013-09-30 00:00:00,2013-10-29 00:00:00,45.739924915250306,7.029819669225411,92.70472643021618,4.247712165166073
sz002509,2013-11-05,9.31,9.56,9.22,9.5,0.018221,2304347.0,21707631.75,1435450000.0,3800000000.0,0.015250476505625414,38.46,2013-09-30 00:00:00,2013-10-29 00:00:00,46.52347325175639,7.150244080021127,94.29280586662183,4.320477649743045
sz002509,2013-11-04,9.21,9.47,9.21,9.33,0.018559,1884246.0,17613854.09,1409763000.0,3732000000.0,0.012470191925876903,37.77,2013-09-30 00:00:00,2013-10-29 00:00:00,45.690938658460574,7.022290917218488,92.60544210600824,4.243162977136637
sz002509,2013-11-01,9.25,9.35,9.02,9.16,-0.009729999999999999,2079170.0,18978997.44,1384076000.0,3664000000.0,0.013760225016545334,37.08,2013-09-30 00:00:00,2013-10-29 00:00:00,44.85841140126451,6.894338881909136,90.91809321404872,4.165848985809008
sz002509,2013-10-31,9.28,9.42,9.2,9.25,-0.005376,2122700.0,19746132.56,1397675000.0,3700000000.0,0.014048312375909993,37.44,2013-09-30 00:00:00,2013-10-29 00:00:00,45.299172348212615,6.962079919526126,91.81141831424634,4.206780964594513
sz002509,2013-10-30,9.08,9.45,9.08,9.3,0.023102,3023324.0,28004470.84,1405230000.0,3720000000.0,0.020008762409000663,37.65,2013-09-30 00:00:00,2013-10-29 00:00:00,45.544016983516,6.999710362434574,92.30766431761785,4.229518857974987
sz002509,2013-10-29,9.32,9.38,8.88,9.09,-0.022581,6368509.0,57863568.55,1373499000.0,3636000000.0,0.042147643944407676,36.8,2013-09-30 00:00:00,2013-10-29 00:00:00,44.51561719507537,6.841654461074824,90.22332506203473,4.134014846980054
sz002509,2013-10-28,10.26,10.37,9.26,9.3,-0.091797,8777849.0,84917501.25,1405230000.0,3720000000.0,0.058092978160158834,37.65,2013-06-30 00:00:00,2013-08-27 00:00:00,25.242199624162694,7.563842306018035,64.49739825877916,4.329840838801057
sz002509,2013-10-25,10.18,10.41,10.1,10.24,0.005894,5561850.0,57102582.01,1547264000.0,4096000000.0,0.03680906684315023,41.45,2013-06-30 00:00:00,2013-08-27 00:00:00,27.79356556206343,8.32836084665877,71.01649990010951,4.767481321688055
sz002509,2013-10-24,10.72,10.8,10.16,10.18,-0.050373,9233403.0,96346333.64,1538198000.0,4072000000.0,0.061107895433487755,41.21,2013-06-30 00:00:00,2013-08-27 00:00:00,27.630710156401594,8.27956111345606,70.60038125300429,4.739546435000164
sz002509,2013-10-23,10.6,11.18,10.51,10.72,-0.002791,13890860.0,151286745.51,1619792000.0,4288000000.0,0.09193156849768365,43.39,2013-06-30 00:00:00,2013-08-27 00:00:00,29.09638221786195,8.71875074471983,74.34538113701936,4.990955854246102
sz002509,2013-10-22,10.31,11.2,10.31,10.75,0.05599199999999999,20553840.0,222400862.25,1624325000.0,4300000000.0,0.13602806088682992,43.52,2013-06-30 00:00:00,2013-08-27 00:00:00,29.177817506522658,8.743152884420248,74.55345984344241,5.004924598801357
sz002509,2013-10-21,10.01,10.2,9.94,10.18,0.016983,4813460.0,48626287.29,1538198000.0,4072000000.0,0.031856121773659825,41.21,2013-06-30 00:00:00,2013-08-27 00:00:00,27.630718326012563,8.27956356148555,70.60040212751841,4.73954783634853
sz002509,2013-10-18,9.99,10.1,9.83,10.01,0.002002,2788725.0,27795947.41,1512511000.0,4004000000.0,0.01845615486432826,40.52,2013-06-30 00:00:00,2013-08-27 00:00:00,27.16930206897516,8.141299865863589,69.42141818252459,4.66040025875411
sz002509,2013-10-17,10.13,10.24,9.95,9.99,-0.007944,3967054.0,40025601.21,1509489000.0,3996000000.0,0.026254493712772997,40.44,2013-06-30 00:00:00,2013-08-27 00:00:00,27.115017803332886,8.125033548699092,69.28271418871877,4.651088779018514
sz002509,2013-10-16,9.92,10.09,9.77,10.07,0.015121,5385025.0,53448638.15,1521577000.0,4028000000.0,0.03563881535407015,40.76,2013-06-30 00:00:00,2013-08-27 00:00:00,27.33214435811374,8.190095668691175,69.83750331505355,4.688332895540689
sz002509,2013-10-15,10.19,10.24,9.88,9.92,-0.023622,5066465.0,50572581.06,1498912000.0,3968000000.0,0.033530542686962275,40.16,2013-06-30 00:00:00,2013-08-27 00:00:00,26.92501126280881,8.068097959446385,68.79722054321954,4.618496608326189
sz002509,2013-10-14,10.17,10.3,10.06,10.16,0.001972,5458196.0,55339523.06,1535176000.0,4064000000.0,0.03612307081403044,41.13,2013-06-30 00:00:00,2013-08-27 00:00:00,27.576421491275724,8.263293477983307,70.46166601789423,4.73023420061307
sz002509,2013-10-11,10.2,10.34,10.07,10.14,0.0,6872964.0,70002271.05,1532154000.0,4056000000.0,0.04548619457313038,41.05,2013-06-30 00:00:00,2013-08-27 00:00:00,27.522147815783004,8.247030334164338,70.32298908342173,4.720924537425269
sz002509,2013-10-10,10.03,10.31,10.01,10.14,0.011976,8115825.0,82667572.29,1532154000.0,4056000000.0,0.053711614824619454,41.05,2013-06-30 00:00:00,2013-08-27 00:00:00,27.522147815783004,8.247030334164338,70.32298908342173,4.720924537425269
sz002509,2013-10-09,9.89,10.03,9.73,10.02,0.013144999999999999,5068996.0,50277951.13,1514022000.0,4008000000.0,0.0335472931833223,40.56,2013-06-30 00:00:00,2013-08-27 00:00:00,27.196443211877554,8.149432727816011,69.49076765004479,4.665055828819328
sz002509,2013-10-08,9.88,9.93,9.64,9.89,0.003043,3595606.0,35212721.13,1494379000.0,3956000000.0,0.023796201191264063,40.03,2013-06-30 00:00:00,2013-08-27 00:00:00,26.84358429630266,8.043698313485248,68.58916310108108,4.604529291285382
sz002509,2013-09-30,9.9,10.04,9.7,9.86,-0.009045000000000001,3558170.0,34968011.22,1489846000.0,3944000000.0,0.02354844473858372,39.91,2013-06-30 00:00:00,2013-08-27 00:00:00,26.762147082729914,8.019295596983628,68.3810794762349,4.590560216546431
sz002509,2013-09-27,9.8,10.05,9.73,9.95,0.009128,5487979.0,54719235.32,1503445000.0,3980000000.0,0.03632017868960953,40.28,2013-06-30 00:00:00,2013-08-27 00:00:00,27.00642015301392,8.092492188831608,69.00523179784642,4.632460824705896
sz002509,2013-09-26,9.85,10.07,9.7,9.86,-0.005045,7055835.0,69708581.75,1489846000.0,3944000000.0,0.04669645929847783,39.91,2013-06-30 00:00:00,2013-08-27 00:00:00,26.76213538125383,8.019292090628351,68.38104957730476,4.590558209370759
sz002509,2013-09-25,9.46,10.26,9.46,9.91,0.054255,14428373.0,143623762.35,1497401000.0,3964000000.0,0.09548890138980808,40.12,2013-06-30 00:00:00,2013-08-27 00:00:00,26.897834958620066,8.059954561390567,68.72778123362842,4.6138350069809775
sz002509,2013-09-24,9.26,9.4,9.18,9.4,0.015119,3647795.0,33972190.12,1420340000.0,3760000000.0,0.024141594970218398,38.05,2013-06-30 00:00:00,2013-08-27 00:00:00,25.51359486900235,7.645166075940421,65.19085158109607,4.376393763350402
sz002509,2013-09-23,9.14,9.32,9.02,9.26,0.023204,3063999.0,28234690.34,1399186000.0,3704000000.0,0.020277954996690932,37.48,2013-06-30 00:00:00,2013-08-27 00:00:00,25.13359997104019,7.5313003460091075,64.21991075045985,4.311212540943871
sz002509,2013-09-18,8.89,9.06,8.81,9.05,0.016854,1804058.0,16093259.15,1367455000.0,3620000000.0,0.011939497021839841,36.63,2013-06-30 00:00:00,2013-08-27 00:00:00,24.563625602558425,7.3605071383703615,62.763545442023144,4.213443791212574
sz002509,2013-09-17,9.15,9.19,8.88,8.9,-0.031556,3717976.0,33463415.68,1344790000.0,3560000000.0,0.02460606221045665,36.03,2013-06-30 00:00:00,2013-08-27 00:00:00,24.156492084958533,7.2385093025846015,61.723261591165645,4.143607431561045
sz002509,2013-09-16,9.29,9.29,9.14,9.19,-0.002172,1464345.0,13440608.63,1388609000.0,3676000000.0,0.009691230972865651,37.2,2013-06-30 00:00:00,2013-08-27 00:00:00,24.943612728209928,7.474370539323493,63.73446641330386,4.278623680420391
sz002509,2013-09-13,9.15,9.23,9.12,9.21,0.0065569999999999995,1737201.0,15927867.48,1391631000.0,3684000000.0,0.011497028457974852,37.28,2013-06-30 00:00:00,2013-08-27 00:00:00,24.997908184787285,7.490640209859308,63.87319900153519,4.287937079757624
sz002509,2013-09-12,9.23,9.32,9.12,9.15,-0.005435,2079464.0,19137186.5,1382565000.0,3660000000.0,0.013762170747849106,37.04,2013-06-30 00:00:00,2013-08-27 00:00:00,24.83506466577381,7.441844038498871,63.45711072650153,4.260004232008346
sz002509,2013-09-11,9.41,9.45,9.15,9.2,-0.026455000000000003,4033071.0,37406988.67,1390120000.0,3680000000.0,0.026691403044341495,37.24,2013-06-30 00:00:00,2013-08-27 00:00:00,24.970780859746533,7.4825114884385355,63.80388484061025,4.283283879895579
sz002509,2013-09-10,9.48,9.48,9.33,9.45,-0.001057,3019477.0,28406085.57,1427895000.0,3780000000.0,0.019983302448709463,38.25,2013-06-30 00:00:00,2013-08-27 00:00:00,25.649333990464264,7.6858403961178325,65.53768427818976,4.399677344031944
sz002509,2013-09-09,9.33,9.47,9.3,9.46,0.013934,3676809.0,34611346.53,1429406000.0,3784000000.0,0.02433361350099272,38.29,2013-06-30 00:00:00,2013-08-27 00:00:00,25.67647402350711,7.693972925500086,65.60703090986148,4.404332723720916
sz002509,2013-09-06,9.32,9.39,9.2,9.33,0.001073,2370162.0,22050566.19,1409763000.0,3732000000.0,0.01568604897418928,37.77,2013-06-30 00:00:00,2013-08-27 00:00:00,25.32361477522907,7.5882384114746,64.70542551079409,4.34380612911779
sz002509,2013-09-05,9.21,9.35,9.12,9.32,0.009751000000000001,2020222.0,18752583.41,1408252000.0,3728000000.0,0.013370099272005295,37.73,2013-06-30 00:00:00,2013-08-27 00:00:00,25.296471661136668,7.580104958853749,64.63607100660398,4.339150220930731
sz002509,2013-09-04,9.39,9.44,9.2,9.23,-0.017039,2523210.0,23540659.13,1394653000.0,3692000000.0,0.01669894109861019,37.36,2013-06-30 00:00:00,2013-08-27 00:00:00,25.052187778112295,7.5069051269607545,64.01189105690808,4.2972477580420625
sz002509,2013-09-03,9.29,9.44,9.29,9.39,0.011853,2634164.0,24683670.92,1418829000.0,3756000000.0,0.017433249503639975,38.01,2013-06-30 00:00:00,2013-08-27 00:00:00,25.486451423924546,7.637032524139569,65.12149623119136,4.37173779838881
sz002509,2013-09-02,9.06,9.33,9.06,9.28,0.011996,2014458.0,18620483.14,1402208000.0,3712000000.0,0.01333195234943746,37.57,2013-06-30 00:00:00,2013-08-27 00:00:00,25.187899254066103,7.5475711631428375,64.35865311580967,4.3205265966388495
sz002509,2013-08-30,9.3,9.37,9.06,9.17,-0.016094,3694831.0,34199356.71,1385587000.0,3668000000.0,0.024452885506287228,37.12,2013-06-30 00:00:00,2013-08-27 00:00:00,24.88932688870915,7.458103750551226,63.595758398066465,4.269311930717958
sz002509,2013-08-29,9.29,9.36,9.16,9.32,0.003229,3459643.0,32053329.04,1408252000.0,3728000000.0,0.022896379880873594,37.73,2013-06-30 00:00:00,2013-08-27 00:00:00,25.29644792155872,7.58009784527305,64.63601034861712,4.3391461488373455
sz002509,2013-08-28,9.7,9.7,9.28,9.29,-0.052041,11797520.0,110905210.36,1403719000.0,3716000000.0,0.07807756452680344,37.61,2013-06-30 00:00:00,2013-08-27 00:00:00,25.215028594227956,7.55570048839602,64.42797242565467,4.325180142158317
sz002509,2013-08-27,10.02,10.03,9.65,9.8,-0.029702999999999997,10133242.0,99035895.79,1480780000.0,3920000000.0,0.06706315023163469,39.67,2013-06-30 00:00:00,2013-08-27 00:00:00,26.599281819390878,7.970492909921231,67.96493564136706,4.562623638953074
sz002509,2013-08-26,9.8,10.11,9.8,10.1,0.030612,4146484.0,41430617.81,1526110000.0,4040000000.0,0.02744198544010589,40.88,2013-03-31 00:00:00,2013-04-16 00:00:00,28.176825650425954,8.946453984813067,60.08041772709597,4.767988891244196
sz002509,2013-08-23,10.0,10.03,9.68,9.8,-0.014085,3415969.0,33635342.21,1480780000.0,3920000000.0,0.022607339510258107,39.67,2013-03-31 00:00:00,2013-04-16 00:00:00,27.33989673167589,8.680719790583717,58.29586471639761,4.626366558165629
sz002509,2013-08-22,9.73,9.97,9.71,9.94,0.019487,3435764.0,33763138.48,1501934000.0,3976000000.0,0.022738345466578425,40.24,2013-03-31 00:00:00,2013-04-16 00:00:00,27.73048055022582,8.80473447567358,59.128692348120886,4.6924598552264944
sz002509,2013-08-21,9.8,9.86,9.7,9.75,-0.008138,3804799.0,37095739.76,1473225000.0,3900000000.0,0.025180668431502316,39.47,2013-03-31 00:00:00,2013-04-16 00:00:00,27.200425851654625,8.636436242613765,57.998476045423715,4.602765758883139
sz002509,2013-08-20,9.99,10.08,9.8,9.83,-0.006067,4760055.0,47280203.29,1485313000.0,3932000000.0,0.03150268034414295,39.79,2013-03-31 00:00:00,2013-04-16 00:00:00,27.4235991011397,8.70729621924599,58.4743402261844,4.640530395239598
sz002509,2013-08-19,9.83,9.98,9.75,9.89,0.004061,4093121.0,40429690.19,1494379000.0,3956000000.0,0.027088821972203837,40.03,2013-03-31 00:00:00,2013-04-16 00:00:00,27.590993659672932,8.760445844182644,58.831269538474324,4.668856346694997
sz002509,2013-08-16,10.0,10.27,9.81,9.85,-0.024752,5378229.0,54041229.88,1488335000.0,3940000000.0,0.03559383851753806,39.87,2013-03-31 00:00:00,2013-04-16 00:00:00,27.479399817016027,8.725013564098838,58.59332205759841,4.649972807125261
sz002509,2013-08-15,10.44,10.53,10.1,10.1,-0.033493,5987416.0,61701861.95,1526110000.0,4040000000.0,0.03962551952349438,40.88,2013-03-31 00:00:00,2013-04-16 00:00:00,28.176832782037007,8.946456249178503,60.08043293357013,4.767990098031742
sz002509,2013-08-14,10.41,10.54,10.15,10.45,0.0077150000000000005,6548804.0,67912953.03,1578995000.0,4180000000.0,0.04334086035737922,42.3,2013-03-31 00:00:00,2013-04-16 00:00:00,29.153263020378542,9.256483656278231,62.16243952042782,4.933218381275813
sz002509,2013-08-13,10.5,10.51,10.32,10.37,-0.011439,4778808.0,49624514.12,1566907000.0,4148000000.0,0.031626790205162146,41.98,2013-03-31 00:00:00,2013-04-16 00:00:00,28.930067549236192,9.185616624023888,61.686527957237736,4.895449984644283
sz002509,2013-08-12,10.42,10.53,10.35,10.49,0.009625,5574183.0,58141343.09,1585039000.0,4196000000.0,0.036890688285903375,42.46,2013-03-31 00:00:00,2013-04-16 00:00:00,29.26482791576462,9.29190674528318,62.400325278093845,4.952097022484482
sz002509,2013-08-09,10.33,10.56,10.17,10.39,0.005808,6369267.0,66040944.76,1569929000.0,4156000000.0,0.042152660489741894,42.06,2013-03-31 00:00:00,2013-04-16 00:00:00,28.985839213336263,9.20332474461625,61.80544784260874,4.904887480484817
sz002509,2013-08-08,10.21,10.39,10.0,10.33,0.004864,5976423.0,61165121.26,1560863000.0,4132000000.0,0.03955276637988087,41.82,2013-03-31 00:00:00,2013-04-16 00:00:00,28.81846158843065,9.150180496293775,61.448554637275436,4.876564394481666
sz002509,2013-08-07,10.48,10.59,10.26,10.28,-0.022813999999999997,8647286.0,90034089.63,1553308000.0,4112000000.0,0.057228894771674386,41.61,2013-03-31 00:00:00,2013-04-16 00:00:00,28.678967092492766,9.105889450008931,61.151115610943805,4.852959598992168
sz002509,2013-08-06,10.01,10.66,10.01,10.52,0.052,12667284.0,131601846.08,1589572000.0,4208000000.0,0.08383377895433487,42.58,2013-03-31 00:00:00,2013-04-16 00:00:00,29.348524326477012,9.318481281975929,62.57878808225231,4.966259851238319
sz002509,2013-08-05,9.86,10.04,9.82,10.0,0.008065000000000001,4330036.0,43102106.5,1511000000.0,4000000000.0,0.02865675711449371,40.48,2013-03-31 00:00:00,2013-04-16 00:00:00,27.897836812240502,8.857871941041758,59.48554000214097,4.720779326272166
sz002509,2013-08-02,10.08,10.08,9.85,9.92,-0.011951999999999999,5954716.0,59326678.62,1498912000.0,3968000000.0,0.03940910655195235,40.16,2013-03-31 00:00:00,2013-04-16 00:00:00,27.67464083391498,8.787004747751146,59.00962735750272,4.683010843816784
sz002509,2013-08-01,9.78,10.04,9.73,10.04,0.029744,7726878.0,76458710.08,1517044000.0,4016000000.0,0.05113751158173395,40.64,2013-03-31 00:00:00,2013-04-16 00:00:00,28.009409293794413,8.893297438738953,59.72344193551601,4.739659251186971
sz002509,2013-07-31,9.78,9.95,9.65,9.75,-0.0030670000000000003,5812805.0,56891793.1,1473225000.0,3900000000.0,0.03846992058239576,39.47,2013-03-31 00:00:00,2013-04-16 00:00:00,27.200361734367387,8.636415884665462,57.998339330470486,4.602754909168658
sz002509,2013-07-30,10.22,10.35,9.61,9.78,-0.046784,10264411.0,101714659.67,1477758000.0,3912000000.0,0.06793124420913302,39.59,2013-03-31 00:00:00,2013-04-16 00:00:00,27.284041890846616,8.662985260459294,58.17676747632037,4.6169149874351225
sz002509,2013-07-29,10.37,10.7,10.18,10.26,-0.021925999999999998,13449370.0,140460423.66,1550286000.0,4104000000.0,0.08900972865651886,41.53,2013-03-31 00:00:00,2013-04-16 00:00:00,28.62314720991529,9.088166019516345,61.03209291107196,4.84351394378097
sz002509,2013-07-26,10.2,10.5,9.97,10.49,0.012548,12416713.0,127213901.02,1585039000.0,4196000000.0,0.08217546657842488,42.46,2013-03-31 00:00:00,2013-04-16 00:00:00,29.26480737645137,9.291900223823909,62.40028148286527,4.952093546890083
sz002509,2013-07-25,9.86,10.58,9.76,10.36,0.047523,17042697.0,173143208.43,1565396000.0,4144000000.0,0.11279084712111184,41.94,2013-03-31 00:00:00,2013-04-16 00:00:00,28.902143282542028,9.176750360302828,61.62698606176227,4.890724732941137
sz002509,2013-07-24,9.78,9.98,9.61,9.89,0.0010119999999999999,11003255.0,107789757.74,1494379000.0,3956000000.0,0.072821012574454,40.03,2013-03-31 00:00:00,2013-04-16 00:00:00,27.59093908443254,8.760428515939822,58.831153169679595,4.668847111654005
sz002509,2013-07-23,9.46,9.88,9.36,9.88,0.044397000000000006,12776310.0,122564800.65,1492868000.0,3952000000.0,0.08455532759761747,39.99,2013-03-31 00:00:00,2013-04-16 00:00:00,27.563045282606545,8.751571925151568,58.77167623333146,4.664127015114708
sz002509,2013-07-22,9.28,9.48,9.1,9.46,0.017204,5824437.0,54261550.54,1429406000.0,3784000000.0,0.03854690271343481,38.29,2013-03-31 00:00:00,2013-04-16 00:00:00,26.391348579713025,8.379545254488061,56.27331008546698,4.465856389011753
sz002509,2013-07-19,9.25,9.65,9.2,9.3,0.013072,12110764.0,114866242.26,1405230000.0,3720000000.0,0.08015065519523494,37.65,2013-03-31 00:00:00,2013-04-16 00:00:00,25.94499095531774,8.237821768778005,55.32155800160733,4.390325233691328
sz002509,2013-07-18,9.28,9.42,9.1,9.18,-0.015021000000000001,4998858.0,46117481.19,1387098000.0,3672000000.0,0.03308311052283256,37.16,2013-03-31 00:00:00,2013-04-16 00:00:00,25.610214234839912,8.131526454958784,54.607725809821346,4.333675428490105
sz002509,2013-07-17,9.56,9.68,9.28,9.32,-0.016878,8126749.0,76981712.64,1408252000.0,3728000000.0,0.053783911317008604,37.73,2013-03-31 00:00:00,2013-04-16 00:00:00,26.00077182847544,8.255532813348085,55.44049752311607,4.39976428785802
sz002509,2013-07-16,9.25,9.48,9.12,9.48,0.01826,8887332.0,82708929.7,1432428000.0,3792000000.0,0.05881755129053607,38.37,2013-03-31 00:00:00,2013-04-16 00:00:00,26.44714677168799,8.397261797974295,56.39228653525816,4.4752983738112055
sz002509,2013-07-15,9.17,9.39,9.17,9.31,0.013058000000000002,5429578.0,50403926.52,1406741000.0,3724000000.0,0.0359336730641959,37.69,2013-03-31 00:00:00,2013-04-16 00:00:00,25.97288194732975,8.24667746741922,55.381028946691565,4.3950448547632295
sz002509,2013-07-12,9.25,9.45,9.1,9.19,-0.0010869999999999999,7456253.0,69075234.16,1388609000.0,3676000000.0,0.04934647915287889,37.2,2013-03-31 00:00:00,2013-04-16 00:00:00,25.63809964220188,8.140380380411802,54.66718484695997,4.338394104546067
sz002509,2013-07-11,8.6,9.32,8.6,9.2,0.059908,8414534.0,76664575.05,1390120000.0,3680000000.0,0.05568851091992058,37.24,2013-03-31 00:00:00,2013-04-16 00:00:00,25.665998582661228,8.149238602773016,54.72667274022859,4.343115070627839
sz002509,2013-07-10,8.29,8.89,8.25,8.68,0.047045,6681086.0,57974237.0,1311548000.0,3472000000.0,0.044216320317670414,35.14,2013-03-31 00:00:00,2013-04-16 00:00:00,24.215307916027832,7.688628260917944,51.63341793837634,4.09763401222355
sz002509,2013-07-09,8.2,8.48,8.1,8.29,0.001208,4255791.0,35456813.3,1252619000.0,3316000000.0,0.02816539377895433,33.56,2013-03-31 00:00:00,2013-04-16 00:00:00,23.12728480249448,7.343168880915284,49.313465933533266,3.913522353120974
sz002509,2013-07-08,8.99,8.99,8.25,8.28,-0.09011,7596690.0,65279389.61,1251108000.0,3312000000.0,0.05027590999338186,33.52,2013-03-31 00:00:00,2013-04-16 00:00:00,23.099380750547816,7.3343090356002785,49.25396714122666,3.9088005220902886
sz002509,2013-07-05,9.36,9.47,9.01,9.1,-0.027777999999999997,4663626.0,43041560.97,1375010000.0,3640000000.0,0.030864500330906684,36.84,2013-03-31 00:00:00,2013-04-16 00:00:00,25.38700364939478,8.060654623746034,54.13178201895467,4.295904474266438
sz002509,2013-07-04,9.36,9.6,9.25,9.36,-0.003195,5680028.0,53618810.56,1414296000.0,3744000000.0,0.03759118464592985,37.89,2013-03-31 00:00:00,2013-04-16 00:00:00,26.112352579343792,8.290960936644135,55.67841708884871,4.418645612078762
sz002509,2013-07-03,9.2,9.48,9.05,9.39,0.008593,6342980.0,58975411.33,1418829000.0,3756000000.0,0.04197868960953011,38.01,2013-03-31 00:00:00,2013-04-16 00:00:00,26.19604895575744,8.317535462446653,55.85687981987321,4.4328084350286785
sz002509,2013-07-02,8.87,9.33,8.87,9.31,0.050789999999999995,8390151.0,76475959.22,1406741000.0,3724000000.0,0.055527140966247515,37.69,2013-03-31 00:00:00,2013-04-16 00:00:00,25.97286413425181,8.246671811569833,55.38099096451512,4.3950418404933185
sz002509,2013-07-01,8.63,8.88,8.61,8.86,0.010262,3262152.0,28548084.74,1338746000.0,3544000000.0,0.02158935804103243,35.87,2013-03-31 00:00:00,2013-04-16 00:00:00,24.71746413103647,7.848068416686333,52.70414732202926,4.182607219799692
sz002509,2013-06-28,8.58,8.92,8.35,8.77,0.013872999999999998,3643314.0,31833598.57,1325147000.0,3508000000.0,0.024111939113170087,35.5,2013-03-31 00:00:00,2013-04-16 00:00:00,24.46639003648209,7.768349612958156,52.1687911868696,4.1401212950696875
sz002509,2013-06-27,8.8,9.09,8.63,8.65,-0.013683,6563961.0,58251239.37,1307015000.0,3460000000.0,0.04344117140966248,35.01,2013-03-31 00:00:00,2013-04-16 00:00:00,24.131612180699246,7.662053938667028,51.45495657431414,4.083471297755919
sz002509,2013-06-26,8.51,8.82,8.32,8.77,0.016222,4909491.0,42485312.91,1325147000.0,3508000000.0,0.032491667769688946,35.5,2013-03-31 00:00:00,2013-04-16 00:00:00,24.466385736734996,7.768348247740867,52.168782018675685,4.140120567480759
sz002509,2013-06-25,8.54,8.69,7.67,8.63,0.012911,8578272.0,70822187.64,1303993000.0,3452000000.0,0.056772150893448045,34.93,2013-03-31 00:00:00,2013-04-16 00:00:00,24.07582766042754,7.644341736097887,51.33600927619721,4.074031626436703
sz002509,2013-06-24,9.04,9.14,8.25,8.52,-0.058564,5141492.0,44475144.61,1287372000.0,3408000000.0,0.03402708140304434,34.49,2013-03-31 00:00:00,2013-04-16 00:00:00,23.768946788441966,7.546903662906107,50.68165838479118,4.022102264104846
sz002509,2013-06-21,8.98,9.19,8.76,9.05,-0.018438,3792920.0,34117222.24,1367455000.0,3620000000.0,0.02510205162144275,36.63,2013-03-31 00:00:00,2013-04-16 00:00:00,25.247543952474697,8.016374626534473,53.83441719329958,4.272305567351201
sz002509,2013-06-20,9.48,9.62,9.22,9.22,-0.027426,5417529.0,51046424.73,1393142000.0,3688000000.0,0.03585393117140966,37.32,2013-03-31 00:00:00,2013-04-16 00:00:00,25.72180254785199,8.166956979319158,54.84566150003726,4.352558032351702
sz002509,2013-06-19,9.2,9.5,9.06,9.48,0.025974,3951128.0,36551347.63,1432428000.0,3792000000.0,0.026149093315684976,38.37,2013-03-31 00:00:00,2013-04-16 00:00:00,26.44714186051857,8.39726023862365,56.392276063350714,4.475297542759421
sz002509,2013-06-18,9.3,9.39,9.07,9.24,-0.0032359999999999997,3856680.0,35627539.51,1396164000.0,3696000000.0,0.02552402382528127,37.4,2013-03-31 00:00:00,2013-04-16 00:00:00,25.777594617912904,8.184671579029928,54.96462489629437,4.361998981221183
sz002509,2013-06-17,9.3,9.57,9.26,9.27,-0.024211,8174451.0,76960265.99,1400697000.0,3708000000.0,0.05409960953011251,37.52,2013-03-31 00:00:00,2013-04-16 00:00:00,25.861281725576873,8.211243161901843,55.14306786390196,4.376160235744051
sz002509,2013-06-14,9.26,9.6,9.26,9.5,0.030369,5860273.0,55308198.82,1435450000.0,3800000000.0,0.038784070152217076,38.46,2013-03-31 00:00:00,2013-04-16 00:00:00,26.50294451523523,8.414978199079762,56.51126202888325,4.4847402827292076
sz002509,2013-06-13,9.31,9.39,8.79,9.22,-0.038582,6577129.0,60031400.58,1393142000.0,3688000000.0,0.04352831899404368,37.32,2013-03-31 00:00:00,2013-04-16 00:00:00,25.721799195468066,8.16695591490016,54.845654351871275,4.352557465072423
sz002509,2013-06-07,10.0,10.1,9.38,9.59,-0.051434,12403223.0,120492405.68,1449049000.0,3836000000.0,0.0820861879549967,38.82,2013-03-31 00:00:00,2013-04-16 00:00:00,26.75402290727661,8.494698367307622,57.0466273274177,4.527226934665695
sz002509,2013-06-06,10.48,10.48,9.92,10.11,-0.048023,10675798.0,108454208.57,1527621000.0,4044000000.0,0.07065385837193912,40.93,2013-03-31 00:00:00,2013-04-16 00:00:00,28.20470363398711,8.955305553127168,60.13986093473487,4.772706311069231
sz002509,2013-06-05,10.1,11.08,10.09,10.62,0.039139,17135639.0,183772963.96,1604682000.0,4248000000.0,0.11340594970218398,42.99,2013-03-31 00:00:00,2013-04-16 00:00:00,29.62750532206882,9.407060835636962,63.173649084730904,5.01346808911269
sz002509,2013-06-04,11.02,11.19,10.02,10.22,-0.058932000000000005,13082576.0,137278031.2,1544242000.0,4088000000.0,0.08658223692918597,41.37,2013-03-31 00:00:00,2013-04-16 00:00:00,28.511590193485965,9.052745432167361,60.79422395341806,4.824636635823205
sz002509,2013-06-03,10.68,11.26,10.4,10.86,0.045236,16195502.0,175690943.64,1640946000.0,4344000000.0,0.10718399735274653,43.96,2013-03-31 00:00:00,2013-04-16 00:00:00,30.2970563163193,9.619650686419432,64.60130825128266,5.126767285491808
sz002509,2013-05-31,10.4,10.67,10.38,10.39,-0.018886,5197323.0,54769683.95,1569929000.0,4156000000.0,0.03439657842488418,42.06,2013-03-31 00:00:00,2013-04-16 00:00:00,28.98585230160394,9.20332890028609,61.80547575024459,4.904889695238021
sz002509,2013-05-30,10.45,10.8,10.35,10.59,-0.000942,6598839.0,69735710.28,1600149000.0,4236000000.0,0.04367199867637326,42.87,2013-03-31 00:00:00,2013-04-16 00:00:00,29.54381682618324,9.38048881198932,62.995203157069,4.999306599679569
sz002509,2013-05-29,21.3,21.42,20.72,21.25,-0.00047000000000000004,3442767.0,72528801.21,1605437500.0,4250000000.0,0.04556938451356717,42.91,2013-03-31 00:00:00,2013-04-16 00:00:00,29.571673342471847,9.389333564206803,63.05460059082555,5.004020386884014
sz002509,2013-05-28,21.8,21.85,21.13,21.26,-0.029224,3608143.0,77087793.69,1606193000.0,4252000000.0,0.04775834546657842,42.93,2013-03-31 00:00:00,2013-04-16 00:00:00,29.585578564397114,9.393748626061052,63.08425018841411,5.00637338237373
sz002509,2013-05-27,21.69,22.26,21.37,21.9,0.011547,4801530.0,104385135.22,1654545000.0,4380000000.0,0.06355433487756453,44.22,2013-03-31 00:00:00,2013-04-16 00:00:00,30.476215485752753,9.676535705519145,64.9833228143404,5.15708400534596
sz002509,2013-05-24,21.15,21.74,21.13,21.65,0.026066000000000002,3734747.0,80293608.82,1635657500.0,4330000000.0,0.04943410986101919,43.72,2013-03-31 00:00:00,2013-04-16 00:00:00,30.12832373162369,9.566076223367913,64.24152591460445,5.098214917691378
sz002509,2013-05-23,20.91,21.68,20.9,21.1,0.001424,4570939.0,97005845.06,1594105000.0,4220000000.0,0.06050217074784911,42.61,2013-03-31 00:00:00,2013-04-16 00:00:00,29.362949100373363,9.323061307331024,62.609545501560774,4.968700763587701
sz002509,2013-05-22,21.43,21.43,20.71,21.07,-0.02,3502703.0,73688967.42,1591838500.0,4214000000.0,0.04636271343481138,42.55,2013-03-31 00:00:00,2013-04-16 00:00:00,29.3211957176714,9.309804146226798,62.52051628636899,4.961635394785526
sz002509,2013-05-21,21.57,21.57,21.0,21.5,0.009864,3921103.0,83538373.48,1624325000.0,4300000000.0,0.051900767703507614,43.41,2013-03-31 00:00:00,2013-04-16 00:00:00,29.919587467011635,9.49980014921102,63.79644519017244,5.062893259985231
sz002509,2013-05-20,20.4,21.56,20.4,21.29,0.043627,6348074.0,134042825.81,1608459500.0,4258000000.0,0.08402480476505625,42.99,2013-03-31 00:00:00,2013-04-16 00:00:00,29.62734335218567,9.407009408406497,63.1733037222561,5.013440681106793
sz002509,2013-05-17,19.85,20.62,19.68,20.4,0.026673000000000002,4131004.0,83708900.88,1541220000.0,4080000000.0,0.054679073461283915,41.19,2013-03-31 00:00:00,2013-04-16 00:00:00,28.38882412220618,9.013765845849615,60.53245433690015,4.803862568817014
sz002509,2013-05-16,20.05,20.2,19.74,19.87,-0.008978,3242877.0,64629214.88,1501178500.0,3974000000.0,0.04292358702845798,40.12,2013-03-31 00:00:00,2013-04-16 00:00:00,27.651281490996823,8.779587897850256,58.959819082512304,4.679058053359749
sz002509,2013-05-15,19.88,20.13,19.63,20.05,0.005013,3661147.0,72677335.99,1514777500.0,4010000000.0,0.04845992058239577,40.49,2013-03-31 00:00:00,2013-04-16 00:00:00,27.901783705101224,8.859125123206402,59.49395581784492,4.721447206378617
sz002509,2013-05-14,20.46,20.46,19.51,19.95,-0.023017,3330645.0,66294513.93,1507222500.0,3990000000.0,0.044085307743216416,40.28,2013-03-31 00:00:00,2013-04-16 00:00:00,27.76260974246226,8.814935849791398,59.19720025297674,4.697896650469811
sz002509,2013-05-13,20.1,20.43,19.66,20.42,0.012897,3195621.0,63898538.84,1542731000.0,4084000000.0,0.04229809397749835,41.23,2013-03-31 00:00:00,2013-04-16 00:00:00,28.416676382764347,9.022609246825583,60.5918426963179,4.8085756358808815
sz002509,2013-05-10,20.4,20.89,20.1,20.16,-0.016585,4584043.0,94034294.69,1523088000.0,4032000000.0,0.06067561879549967,40.71,2013-03-31 00:00:00,2013-04-16 00:00:00,28.05485294434118,8.90772630072513,59.820339774249405,4.747349074862382
sz002509,2013-05-09,20.48,20.58,20.0,20.5,-0.000975,3928930.0,79675274.31,1548775000.0,4100000000.0,0.052004367968232955,41.39,2013-03-31 00:00:00,2013-04-16 00:00:00,28.527989652731737,9.057952441975292,60.82919192228043,4.8274116978715815
sz002509,2013-05-08,19.79,20.64,19.58,20.52,0.042152999999999996,4725848.0,95351558.52,1550286000.0,4104000000.0,0.06255258769027135,41.43,2013-03-31 00:00:00,2013-04-16 00:00:00,28.55583158853055,9.066792564725898,60.88855826659034,4.83212301781395
sz002509,2013-05-07,19.8,19.95,19.32,19.69,-0.012042,3097721.0,60943399.32,1487579500.0,3938000000.0,0.041002263401720716,39.76,2013-03-31 00:00:00,2013-04-16 00:00:00,27.40080543694693,8.700058978600934,58.425738127309856,4.636673327058455
sz002509,2013-05-06,19.36,20.1,19.17,19.93,0.030507,4320927.0,84814069.43,1505711500.0,3986000000.0,0.0571929450694904,40.24,2013-03-31 00:00:00,2013-04-16 00:00:00,27.734787751045012,8.806102059602669,59.13787643534427,4.693188705449478
sz002509,2013-05-03,18.94,19.37,18.94,19.34,0.022739,2783827.0,53460482.62,1461137000.0,3868000000.0,0.03684747849106552,39.05,2013-03-31 00:00:00,2013-04-16 00:00:00,26.913730572470644,8.545407318536087,57.38716615738104,4.554252135550246
sz002509,2013-05-02,18.1,18.93,18.1,18.91,0.029956,2115760.0,39437914.4,1428650500.0,3782000000.0,0.028004765056254138,38.18,2013-03-31 00:00:00,2013-04-16 00:00:00,26.31534592156029,8.355413569381913,56.11125238930074,4.452995471523279
sz002509,2013-04-26,19.2,19.63,18.2,18.36,-0.044248,4295302.0,81124680.68,1387098000.0,3672000000.0,0.0568537657180675,37.07,2013-03-31 00:00:00,2013-04-16 00:00:00,25.549970990566866,8.112398558173274,54.47927133712579,4.32348126669807
sz002509,2013-04-25,19.5,20.0,19.03,19.21,-0.009283,5609531.0,109785344.8,1451315500.0,3842000000.0,0.07424925215089345,38.79,2013-03-31 00:00:00,2013-04-16 00:00:00,26.732845958540356,8.487974451712654,57.00147249194957,4.523643441706708
sz002509,2013-04-24,18.13,19.47,18.13,19.39,0.06832,5360122.0,101577131.31,1464914500.0,3878000000.0,0.07094800794176043,39.15,2013-03-31 00:00:00,2013-04-16 00:00:00,26.983332231646735,8.567506615625506,57.53557523687347,4.566029897242814
sz002509,2013-04-23,19.03,19.05,18.1,18.15,-0.046744,3293139.0,60926265.75,1371232500.0,3630000000.0,0.04358886829913964,36.65,2013-03-31 00:00:00,2013-04-16 00:00:00,25.257724494202797,8.019607061204045,53.856124791142605,4.274028284823661
sz002509,2013-04-22,18.96,19.29,18.52,19.04,0.012766,3553588.0,67298142.47,1438472000.0,3808000000.0,0.04703624090006618,38.45,2013-03-31 00:00:00,2013-04-16 00:00:00,26.4962659497583,8.412857680627287,56.49702156728371,4.483610158051626
sz002509,2013-04-19,18.66,18.97,18.38,18.8,0.015119,2625089.0,49224599.34,1420340000.0,3760000000.0,0.03474637988087359,37.96,2013-03-31 00:00:00,2013-04-16 00:00:00,26.162278304917713,8.30681290705581,55.78487189270147,4.427093877610055
sz002509,2013-04-18,18.08,18.67,18.08,18.52,0.017582,2875412.0,53041097.75,1399186000.0,3704000000.0,0.038059722038385174,37.4,2013-03-31 00:00:00,2013-04-16 00:00:00,25.772622032409714,8.183092728099671,54.95402203357584,4.361157536811009
sz002509,2013-04-17,17.71,18.56,17.63,18.2,0.030577999999999998,3985719.0,72818865.56,1375010000.0,3640000000.0,0.05275604235605559,36.75,2013-03-31 00:00:00,2013-04-16 00:00:00,25.327317142411825,8.041703497211696,54.0045146568786,4.285804521710299
sz002509,2013-04-16,17.4,17.85,17.3,17.66,0.014943000000000001,2099116.0,37062279.79,1334213000.0,3532000000.0,0.027784460622104566,35.66,2013-03-31 00:00:00,2013-04-16 00:00:00,24.575837192732454,7.803100296349908,52.402161366610386,4.158641579492575
sz002509,2013-04-15,18.35,18.47,17.33,17.4,-0.053319000000000005,4384865.0,77850492.88,1314570000.0,3480000000.0,0.05803924553275976,35.13,2012-09-30 00:00:00,2012-10-23 00:00:00,25.32994511032212,8.650266481353965,196.57821954243045,4.322435331386577
sz002509,2013-04-12,18.05,18.95,18.05,18.38,0.009890000000000001,2982246.0,55530242.8,1388609000.0,3676000000.0,0.039473805426869624,37.11,2012-09-30 00:00:00,2012-10-23 00:00:00,26.75657915424744,9.13746708907643,207.64990481738877,4.565883683507514
sz002509,2013-04-11,18.28,18.42,18.08,18.2,-0.001098,1033578.0,18896984.27,1375010000.0,3640000000.0,0.01368071475843812,36.75,2012-09-30 00:00:00,2012-10-23 00:00:00,26.494548073797585,9.047982541738635,205.61635902661558,4.5211693189431665
sz002509,2013-04-10,18.4,18.5,17.95,18.22,-0.011931,1316885.0,23984743.43,1376521000.0,3644000000.0,0.017430641958967572,36.79,2012-09-30 00:00:00,2012-10-23 00:00:00,26.523671064626548,9.057928146843873,205.84237395321625,4.526139019586673
sz002509,2013-04-09,17.92,18.55,17.92,18.44,0.029018000000000002,2394032.0,43809409.92,1393142000.0,3688000000.0,0.03168804765056254,37.23,2012-09-30 00:00:00,2012-10-23 00:00:00,26.843946186578616,9.16730324182205,208.32793454021555,4.580792454359638
sz002509,2013-04-08,17.25,18.11,16.7,17.92,0.009577,2371914.0,41668816.98,1353856000.0,3584000000.0,0.031395287888815356,36.18,2012-09-30 00:00:00,2012-10-23 00:00:00,26.086954928464436,8.908788030745868,202.45314906077013,4.451615476463617
sz002509,2013-04-03,17.4,18.18,17.33,17.75,0.013706,3167945.0,56340928.9,1341012500.0,3550000000.0,0.04193176704169424,35.84,2012-09-30 00:00:00,2012-10-23 00:00:00,25.8394901314753,8.824277921095536,200.53264789190933,4.409386779278468
sz002509,2013-04-02,18.95,19.11,17.4,17.51,-0.067625,4855782.0,88201877.67,1322880500.0,3502000000.0,0.06427242885506287,35.36,2012-09-30 00:00:00,2012-10-23 00:00:00,25.490122512321424,8.704967634694414,197.8213090303395,4.349768847455246
sz002509,2013-04-01,18.9,19.03,18.09,18.78,-0.007923999999999999,2879211.0,53374485.58,1418829000.0,3756000000.0,0.038110006618133685,37.92,2012-09-30 00:00:00,2012-10-23 00:00:00,27.338916758087063,9.33633745509523,212.16925489244082,4.665256841351652
sz002509,2013-03-29,18.64,19.23,18.64,18.93,0.015013,2591834.0,49023805.79,1430161500.0,3786000000.0,0.03430620780939775,38.22,2012-09-30 00:00:00,2012-10-23 00:00:00,27.557280649957324,9.410909501988991,213.8639125353711,4.7025196067152635
sz002509,2013-03-28,19.17,19.26,18.59,18.65,-0.037668,3709451.0,70166707.64,1409007500.0,3730000000.0,0.04909928524156188,37.66,2012-09-30 00:00:00,2012-10-23 00:00:00,27.149682467079067,9.271713270656624,210.70066347462657,4.632964904602467
sz002509,2013-03-27,19.25,19.48,19.03,19.38,0.010428,3841505.0,73912975.7,1464159000.0,3876000000.0,0.05084718729318332,39.13,2012-09-30 00:00:00,2012-10-23 00:00:00,28.21238664730994,9.634630533596123,218.94799661096852,4.814310346743605
sz002509,2013-03-26,18.9,19.36,18.72,19.18,0.006296,4715300.0,89977146.18,1449049000.0,3836000000.0,0.06241297154202515,38.73,2012-09-30 00:00:00,2012-10-23 00:00:00,27.92122412216401,9.535197494127361,216.68837028562993,4.764624838923313
sz002509,2013-03-25,18.13,19.08,17.82,19.06,0.047827999999999996,6208591.0,115371675.9,1439983000.0,3812000000.0,0.08217857048312376,38.49,2012-09-30 00:00:00,2012-10-23 00:00:00,27.74653195696297,9.475539497451406,215.33263600931525,4.734814447163967
sz002509,2013-03-22,18.6,18.88,18.0,18.19,-0.009798999999999999,3618971.0,66591299.4,1374254500.0,3638000000.0,0.047901667769688946,36.73,2012-09-30 00:00:00,2012-10-23 00:00:00,26.480044393701032,9.043029483323032,205.5038002509145,4.518694334531972
sz002509,2013-03-21,18.35,18.7,18.06,18.37,0.000545,4986618.0,91685549.08,1387853500.0,3674000000.0,0.06600420913302449,37.09,2012-09-30 00:00:00,2012-10-23 00:00:00,26.742090134933246,9.132519037370225,207.53745981968765,4.5634112008894885
sz002509,2013-03-20,18.3,18.46,17.85,18.36,-0.0037979999999999997,6330268.0,115018027.8,1387098000.0,3672000000.0,0.08378911978821972,37.07,2012-09-30 00:00:00,2012-10-23 00:00:00,26.727523634552412,9.127544525603769,207.4244135143223,4.560925496493899
sz002509,2013-03-19,17.7,18.49,17.4,18.43,0.044193,5633341.0,100971396.16,1392386500.0,3686000000.0,0.07456440767703508,37.21,2012-09-30 00:00:00,2012-10-23 00:00:00,26.829421778467026,9.162343104715477,208.21521490051447,4.578313932810714
sz002509,2013-03-18,17.25,17.79,17.18,17.65,0.027956,4464552.0,78169653.24,1333457500.0,3530000000.0,0.05909400397088021,35.64,2012-09-30 00:00:00,2012-10-23 00:00:00,25.693929932940588,8.77456859480525,199.40299820101694,4.384547619846823
sz002509,2013-03-15,17.5,17.78,17.11,17.17,-0.017735,5125068.0,89380485.57,1297193500.0,3434000000.0,0.0678367703507611,34.67,2012-09-30 00:00:00,2012-10-23 00:00:00,24.995165097475557,8.535937914468372,193.980090783085,4.265306705585475
sz002509,2013-03-14,16.61,17.56,16.55,17.48,0.06068,7156450.0,123240322.29,1320614000.0,3496000000.0,0.0947246856386499,35.3,2012-09-30 00:00:00,2012-10-23 00:00:00,25.446458030649122,8.690056058668864,197.48244189000425,4.342317710175437
sz002509,2013-03-13,16.37,16.62,16.05,16.48,0.00672,2263890.0,36941316.0,1245064000.0,3296000000.0,0.02996545334215751,33.28,2012-09-30 00:00:00,2012-10-23 00:00:00,23.99070221994298,8.192910263857963,186.18475118792117,4.093899866289019
sz002509,2013-03-12,16.81,17.24,16.16,16.37,-0.035357,5338452.0,89162492.88,1236753500.0,3274000000.0,0.07066117802779616,33.05,2012-09-30 00:00:00,2012-10-23 00:00:00,23.830560851024096,8.138221415942825,184.9419413421022,4.066572499095099
sz002509,2013-03-11,16.2,17.12,16.15,16.97,0.034756,4900131.0,82425974.43,1282083500.0,3394000000.0,0.06485944407677036,34.27,2012-09-30 00:00:00,2012-10-23 00:00:00,24.704020918644616,8.436511140331529,191.7206068380761,4.215624328477063
sz002509,2013-03-08,16.5,16.75,16.25,16.4,-0.008464,3255835.0,53654863.63,1239020000.0,3280000000.0,0.04309510258107214,33.12,2012-09-30 00:00:00,2012-10-23 00:00:00,23.87424757009828,8.15314058612033,185.2809810603428,4.0740274310823645
sz002509,2013-03-07,16.77,16.86,16.3,16.54,-0.018397999999999998,3417342.0,56476043.08,1249597000.0,3308000000.0,0.04523285241561879,33.4,2012-09-30 00:00:00,2012-10-23 00:00:00,24.07804413566253,8.222737839191245,186.8625859881465,4.1088043511101615
sz002509,2013-03-06,16.27,16.98,16.17,16.85,0.036923000000000004,4880792.0,81214543.04,1273017500.0,3370000000.0,0.06460346790205163,34.02,2012-09-30 00:00:00,2012-10-23 00:00:00,24.52933483801228,8.37685522155746,190.36491978230129,4.18581497502059
sz002509,2013-03-05,15.7,16.28,15.5,16.25,0.031745999999999996,4424035.0,70801854.74,1227687500.0,3250000000.0,0.05855771012574454,32.81,2012-09-30 00:00:00,2012-10-23 00:00:00,23.655888468104454,8.078570174986433,183.58636059022825,4.036765483088512
sz002509,2013-03-04,15.55,15.99,15.5,15.75,-0.021738999999999998,4508841.0,71103546.9,1189912500.0,3150000000.0,0.05968022501654533,31.8,2012-09-30 00:00:00,2012-10-23 00:00:00,22.928015682255566,7.829999025909897,177.93755497014598,3.9125574347644787
sz002509,2013-03-01,15.79,16.16,15.78,16.1,0.009404000000000001,3382575.0,53888552.33,1216355000.0,3220000000.0,0.04477266710787558,32.51,2012-09-30 00:00:00,2012-10-23 00:00:00,23.437524016858042,8.003997937063726,181.89169860614496,3.9995026222700067
sz002509,2013-02-28,15.74,16.03,15.25,15.95,0.003776,4863733.0,76221828.63,1205022500.0,3190000000.0,0.06437767041694242,32.21,2012-09-30 00:00:00,2012-10-23 00:00:00,23.219170933400346,7.929429581281355,180.19712484411093,3.962241701310879
sz002509,2013-02-27,17.01,17.29,15.8,15.89,-0.076163,8005503.0,130586547.54,1200489500.0,3178000000.0,0.10596297816015883,32.09,2012-09-30 00:00:00,2012-10-23 00:00:00,23.13182516159018,7.899600689079391,179.51926011790573,3.9473365584661106
sz002509,2013-02-26,17.0,17.79,16.85,17.2,0.016548,5433925.0,94330955.54,1299460000.0,3440000000.0,0.07192488418266049,34.73,2012-09-30 00:00:00,2012-10-23 00:00:00,25.03885984387958,8.55085982600761,194.31919279906057,4.272763007398611
sz002509,2013-02-25,17.0,17.29,16.81,16.92,-0.006459,3471307.0,59128324.15,1278306000.0,3384000000.0,0.04594714758438121,34.17,2012-09-30 00:00:00,2012-10-23 00:00:00,24.631261724856657,8.411663616482064,191.15594423387836,4.203208316182425
sz002509,2013-02-22,16.65,17.16,16.49,17.03,0.013087,5259588.0,88956269.67,1286616500.0,3406000000.0,0.06961731303772337,34.39,2012-09-30 00:00:00,2012-10-23 00:00:00,24.791389308399612,8.466347756642218,192.39864709546802,4.230533330967142
sz002509,2013-02-21,16.43,17.18,16.26,16.81,0.01571,7436337.0,124345765.12,1269995500.0,3362000000.0,0.09842934480476506,33.94,2012-09-30 00:00:00,2012-10-23 00:00:00,24.47113555736043,8.356979959906914,189.913252361809,4.175883543039385
sz002509,2013-02-20,15.79,16.55,15.68,16.55,0.048796,3748489.0,60900143.34,1250352500.0,3310000000.0,0.04961600264725347,33.42,2012-09-30 00:00:00,2012-10-23 00:00:00,24.09264018013058,8.227722440368723,186.9758615764431,4.1112950970645015
sz002509,2013-02-19,16.32,16.45,15.7,15.78,-0.033088,2839237.0,45270772.93,1192179000.0,3156000000.0,0.03758090006618134,31.86,2012-09-30 00:00:00,2012-10-23 00:00:00,22.97171249712106,7.844921643836095,178.27667303883985,3.9200140895507816
sz002509,2013-02-18,16.39,16.45,16.2,16.32,0.0006129999999999999,2625463.0,42805918.57,1232976000.0,3264000000.0,0.03475133024487095,32.95,2012-09-30 00:00:00,2012-10-23 00:00:00,23.75781094569212,8.113377064134168,184.37735082286687,4.0541580718315435
sz002509,2013-02-08,16.32,16.61,16.17,16.31,0.0006129999999999999,3274026.0,53604261.57,1232220500.0,3262000000.0,0.04333588352084712,32.93,2012-09-30 00:00:00,2012-10-23 00:00:00,23.7432563295621,8.108406610881696,184.26439674766056,4.051674395427147
sz002509,2013-02-07,15.76,16.39,15.53,16.3,0.034263999999999996,3746464.0,59936435.33,1231465000.0,3260000000.0,0.049589199205823956,32.91,2012-09-30 00:00:00,2012-10-23 00:00:00,23.728710629945944,8.103439202650472,184.1515118708837,4.049192240583669
sz002509,2013-02-06,15.58,15.87,15.55,15.76,0.001907,2177863.0,34137883.92,1190668000.0,3152000000.0,0.028826776968894772,31.82,2012-09-30 00:00:00,2012-10-23 00:00:00,22.942605205195132,7.8349813999621665,178.05077994678695,3.9150470678508276
sz002509,2013-02-05,15.45,15.84,15.29,15.73,0.012227,1747852.0,27328077.9,1188401500.0,3146000000.0,0.023135036399735274,31.76,2012-09-30 00:00:00,2012-10-23 00:00:00,22.89893693246492,7.820068529276836,177.71188338517143,3.9075952836449166
sz002509,2013-02-04,16.17,16.35,15.5,15.54,-0.044868,4228250.0,67050923.55,1174047000.0,3108000000.0,0.05596624751819987,31.38,2012-09-30 00:00:00,2012-10-23 00:00:00,22.622333658818544,7.725607526055751,175.56524710877244,3.8603942432329075
sz002509,2013-02-01,16.2,16.75,15.97,16.27,0.003083,3650949.0,59843763.93,1229198500.0,3254000000.0,0.04832493712772998,32.85,2012-09-30 00:00:00,2012-10-23 00:00:00,23.685033753259805,8.088523393683545,183.81254853650853,4.041738988153373
sz002509,2013-01-31,16.24,16.25,15.94,16.22,-0.003686,1926642.0,30994757.89,1225421000.0,3244000000.0,0.025501548643282593,32.75,2012-09-30 00:00:00,2012-10-23 00:00:00,23.61223722589238,8.06366312028371,183.24759619743182,4.029316605059973
sz002509,2013-01-30,16.28,16.4,15.92,16.28,-0.004281,3344937.0,53901214.22,1229954000.0,3256000000.0,0.044274480476505625,32.87,2012-09-30 00:00:00,2012-10-23 00:00:00,23.699593929115093,8.093495745601997,183.92554575909983,4.044223613298591
sz002509,2013-01-29,16.25,16.86,16.16,16.35,0.0030670000000000003,4493942.0,74189499.77,1235242500.0,3270000000.0,0.05948301786896095,33.01,2012-09-30 00:00:00,2012-10-23 00:00:00,23.801488099669783,8.128292967797139,184.71631630921965,4.0616113715803275
sz002509,2013-01-28,15.35,16.47,15.16,16.3,0.073074,5413575.0,86092851.58,1231465000.0,3260000000.0,0.07165552614162807,32.91,2012-09-30 00:00:00,2012-10-23 00:00:00,23.72871213953782,8.103439718181475,184.1515235863802,4.049192498188383
sz002509,2013-01-25,15.08,15.74,15.07,15.19,0.003966,2718492.0,41789848.26,1147604500.0,3038000000.0,0.03598268696227664,30.67,2012-09-30 00:00:00,2012-10-23 00:00:00,22.11283857360985,7.5516131396170945,171.6112062974037,3.7734513166737638
sz002509,2013-01-24,15.86,15.9,14.93,15.13,-0.047229,4782050.0,73555571.0,1143071500.0,3026000000.0,0.06329649238914627,30.55,2012-09-30 00:00:00,2012-10-23 00:00:00,22.02548549812429,7.521781753183967,170.93328488953182,3.758544927491333
sz002509,2013-01-23,15.2,15.9,15.1,15.88,0.032510000000000004,3867182.0,60089450.88,1199734000.0,3176000000.0,0.051187054930509596,32.07,2012-09-30 00:00:00,2012-10-23 00:00:00,23.117292086056658,7.894637592017355,179.40647321290405,3.9448565578626273
sz002509,2013-01-22,16.0,16.0,15.2,15.38,-0.040549,4843940.0,76003900.12,1161959000.0,3076000000.0,0.06411568497683653,31.06,2012-09-30 00:00:00,2012-10-23 00:00:00,22.389412292429768,7.6460640497596675,173.75761320752733,3.8206473136944217
sz002509,2013-01-21,16.42,16.45,15.98,16.03,-0.020171,6099643.0,98291508.89,1211066500.0,3206000000.0,0.08073650562541364,32.37,2012-09-30 00:00:00,2012-10-23 00:00:00,23.335649545865053,7.9692074423390755,181.10108093850272,3.9821182256253023
sz002509,2013-01-18,16.11,16.44,15.82,16.36,0.009877,4429289.0,71557044.39,1235998000.0,3272000000.0,0.058627253474520184,33.03,2012-09-30 00:00:00,2012-10-23 00:00:00,23.816042948172644,8.13326350040576,184.8292721878029,4.06409508763805
sz002509,2013-01-17,16.41,16.49,15.88,16.2,0.006211,5237587.0,84592397.28,1223910000.0,3240000000.0,0.06932610191925877,32.71,2012-09-30 00:00:00,2012-10-23 00:00:00,23.583112545560148,8.05371693820709,183.02156815909552,4.024346616110725
sz002509,2013-01-16,15.94,16.96,15.7,16.1,0.014493,7559464.0,122446083.19,1216355000.0,3220000000.0,0.10005908669755129,32.51,2012-09-30 00:00:00,2012-10-23 00:00:00,23.437541972369758,8.004004068934934,181.89183795356593,3.9995056862931575
sz002509,2013-01-15,15.88,16.1,15.58,15.87,0.0031609999999999997,5967411.0,94366992.21,1198978500.0,3174000000.0,0.07898624751819987,32.05,2012-09-30 00:00:00,2012-10-23 00:00:00,23.102714333533847,7.8896592376043335,179.2933395829896,3.942368933342228
sz002509,2013-01-14,14.9,16.25,14.76,15.82,0.061745,7552337.0,117410122.99,1195201000.0,3164000000.0,0.09996475181998676,31.94,2012-09-30 00:00:00,2012-10-23 00:00:00,23.02991676663452,7.864798609200652,178.728379176413,3.929946372857626
sz002509,2013-01-11,15.38,15.38,14.76,14.9,-0.031208999999999997,5391877.0,81226102.46,1125695000.0,2980000000.0,0.07136832561217736,30.09,2012-09-30 00:00:00,2012-10-23 00:00:00,21.69062888606447,7.407427027394197,168.33456166632573,3.7014032303967768
sz002509,2013-01-10,15.25,15.8,15.13,15.38,0.009186,7058832.0,109338315.57,1161959000.0,3076000000.0,0.09343258769027134,31.06,2012-09-30 00:00:00,2012-10-23 00:00:00,22.38937901576756,7.646052685660991,173.7573549571845,3.820641635189403
sz002509,2013-01-09,15.62,15.65,15.05,15.24,-0.023703000000000002,8751350.0,134000228.06,1151382000.0,3048000000.0,0.11583520847121112,30.77,2012-09-30 00:00:00,2012-10-23 00:00:00,22.185582257153357,7.576455366662828,172.17574853117716,3.7858646822185444
sz002509,2013-01-08,14.31,15.61,14.2,15.61,0.10007,15529464.0,236554559.08,1179335500.0,3122000000.0,0.20555213765718067,31.52,2012-09-30 00:00:00,2012-10-23 00:00:00,22.72421430891763,7.760400130967143,176.3559127306313,3.8777796943128418
sz002509,2013-01-07,13.95,14.22,13.72,14.19,0.017204,3591000.0,50343174.37,1072054500.0,2838000000.0,0.04753143613500993,28.65,2012-09-30 00:00:00,2012-10-23 00:00:00,20.65706210415485,7.05446028976987,160.31335526887497,3.525029947469562
sz002509,2013-01-04,14.31,14.48,13.8,13.95,-0.020365,4443663.0,62206262.01,1053922500.0,2790000000.0,0.05881751158173395,28.17,2012-09-30 00:00:00,2012-10-23 00:00:00,20.307688628981847,6.935148003517358,157.60197096047102,3.465411016344373
