code,date,open,high,low,close,change,volume,money,traded_market_value,market_value,turnover,adjust_price,report_type,report_date,PE_TTM,PS_TTM,PC_TTM,PB
sz002517,2014-12-31,14.55,14.92,14.33,14.41,-0.013013999999999998,5884056.0,87204658.88,2547688000.0,2547688000.0,0.033280859728506786,29.52,2014-09-30 00:00:00,2014-10-27 00:00:00,-122.00162647326204,7.134800454348547,2939.012463315603,4.0839643103592
sz002517,2014-12-30,14.79,14.92,14.52,14.6,-0.01151,2138500.0,31323695.84,2581280000.0,2581280000.0,0.012095588235294118,29.91,2014-09-30 00:00:00,2014-10-27 00:00:00,-123.61029079770333,7.228877060412757,2977.765098304943,4.1378138194049345
sz002517,2014-12-29,15.18,15.42,14.63,14.77,-0.018605,1836251.0,27253617.83,2611336000.0,2611336000.0,0.010386035067873303,30.26,2014-09-30 00:00:00,2014-10-27 00:00:00,-125.04961182986509,7.313050269009052,3012.4382627087207,4.185994617451805
sz002517,2014-12-26,15.0,15.58,14.8,15.05,0.0,2392093.0,36289539.69,2660840000.0,2660840000.0,0.01352993778280543,30.84,2014-09-30 00:00:00,2014-10-27 00:00:00,-127.42026587649733,7.451688941770697,3069.5471881441426,4.265351481770139
sz002517,2014-12-25,13.77,15.05,13.5,15.05,0.100146,3393190.0,49641346.01,2660840000.0,2660840000.0,0.019192251131221718,30.84,2014-09-30 00:00:00,2014-10-27 00:00:00,-127.42026587649733,7.451688941770697,3069.5471881441426,4.265351481770139
sz002517,2014-12-24,13.48,13.7,13.21,13.68,0.019374000000000002,1571402.0,21257501.04,2418624000.0,2418624000.0,0.008888020361990951,28.03,2014-09-30 00:00:00,2014-10-27 00:00:00,-115.82123270592933,6.773363664250651,2790.1271178044935,3.877077662210415
sz002517,2014-12-23,14.05,14.05,13.21,13.42,-0.046198,3123296.0,42034689.05,2372656000.0,2372656000.0,0.017665701357466063,27.5,2014-09-30 00:00:00,2014-10-27 00:00:00,-113.61995960847474,6.644630591177184,2737.0985701072364,3.803390769443222
sz002517,2014-12-22,15.2,15.7,13.95,14.07,-0.092258,4205053.0,60084599.05,2487576000.0,2487576000.0,0.023784236425339368,28.83,2014-09-30 00:00:00,2014-10-27 00:00:00,-119.12321384152554,6.966467454646964,2869.6716615264345,3.9876103944458303
sz002517,2014-12-19,15.88,16.04,15.49,15.5,-0.027604000000000004,1755602.0,27509999.7,2740400000.0,2740400000.0,0.00992987556561086,31.76,2014-09-30 00:00:00,2014-10-27 00:00:00,-131.23025467756867,7.674501625623761,3161.3296085522475,4.392889603484063
sz002517,2014-12-18,15.77,16.06,15.6,15.94,0.005044,2098771.0,33175123.49,2818192000.0,2818192000.0,0.011870876696832578,32.66,2014-09-30 00:00:00,2014-10-27 00:00:00,-134.95556818165505,7.892362397237092,3251.072205718912,4.517593247487713
sz002517,2014-12-17,16.04,16.26,15.6,15.86,-0.022195,1977180.0,31507806.91,2804048000.0,2804048000.0,0.011183144796380091,32.49,2014-09-30 00:00:00,2014-10-27 00:00:00,-134.27826859486257,7.852753110547491,3234.756095970835,4.494920866636399
sz002517,2014-12-16,16.26,16.6,16.01,16.22,-0.00246,1957748.0,32017388.67,2867696000.0,2867696000.0,0.011073235294117648,33.23,2014-09-30 00:00:00,2014-10-27 00:00:00,-137.3262241396419,8.031001181777032,3308.1811771987614,4.596950175788014
sz002517,2014-12-15,16.8,16.8,16.06,16.26,-0.032143,3427256.0,56021147.14,2874768000.0,2874768000.0,0.019384932126696834,33.31,2014-09-30 00:00:00,2014-10-27 00:00:00,-137.66487974381167,8.05080616494279,3316.339372054014,4.608286560727403
sz002517,2014-12-12,16.1,16.97,16.05,16.8,0.046729,5358811.0,88756016.58,2970240000.0,2970240000.0,0.030310016968325793,34.42,2014-09-30 00:00:00,2014-10-27 00:00:00,-142.2367971134286,8.318177339155257,3426.476609720252,4.761329990615765
sz002517,2014-12-11,15.63,16.22,15.45,16.05,0.005009,3327502.0,52994828.16,2837640000.0,2837640000.0,0.018820712669683257,32.88,2014-09-30 00:00:00,2014-10-27 00:00:00,-135.8869364596076,7.946829923652881,3273.508816245897,4.548770494192637
sz002517,2014-12-10,14.8,16.3,14.79,15.97,0.057615999999999994,4779209.0,74884739.93,2823496000.0,2823496000.0,0.02703172511312217,32.72,2014-09-30 00:00:00,2014-10-27 00:00:00,-135.2096712164842,7.907222645421962,3257.1935338349176,4.526099262984348
sz002517,2014-12-09,14.9,15.48,14.21,15.1,0.008011,5167092.0,75669633.6,2669680000.0,2669680000.0,0.029225633484162895,30.94,2014-09-30 00:00:00,2014-10-27 00:00:00,-127.8438215916592,7.4764589845671425,3079.7506219978877,4.279529869994732
sz002517,2014-12-08,15.18,15.24,14.4,14.98,-0.027904,4257670.0,62945649.48,2648464000.0,2648464000.0,0.024081843891402714,30.69,2014-09-30 00:00:00,2014-10-27 00:00:00,-126.82780405338748,7.417041068566852,3055.274815451307,4.245519017148356
sz002517,2014-12-05,16.12,16.8,15.3,15.41,-0.042857,5952931.0,94987865.39,2724488000.0,2724488000.0,0.0336704242081448,31.57,2014-09-30 00:00:00,2014-10-27 00:00:00,-130.46839412299556,7.629947112802494,3142.9764297469665,4.367386572054979
sz002517,2014-12-04,16.4,16.4,16.0,16.1,-0.025424000000000002,5108446.0,82481318.71,2846480000.0,2846480000.0,0.028893925339366522,32.99,2014-09-30 00:00:00,2014-10-27 00:00:00,-136.31024217175028,7.971585345974942,3283.7062275406774,4.5629405136484085
sz002517,2014-12-03,15.28,16.73,15.21,16.52,0.086128,7156243.0,115545146.72,2920736000.0,2920736000.0,0.04047648755656109,33.85,2014-09-30 00:00:00,2014-10-27 00:00:00,-139.86620045204302,8.1795420223512,3369.369066692261,4.681975047249685
sz002517,2014-12-02,15.04,15.68,14.77,15.21,0.007285,5499648.0,83448062.18,2689128000.0,2689128000.0,0.03110660633484163,31.16,2014-09-30 00:00:00,2014-10-27 00:00:00,-128.77506191907676,7.530919028283222,3102.1841502035318,4.310702833597591
sz002517,2014-12-01,14.25,15.19,13.98,15.1,0.056683000000000004,4084795.0,59591402.24,2669680000.0,2669680000.0,0.02310404411764706,30.94,2014-09-30 00:00:00,2014-10-27 00:00:00,-127.84372041584733,7.476453067685137,3079.7481846781516,4.279526483167715
sz002517,2014-11-28,14.42,14.58,14.25,14.29,-0.015162,2280314.0,32771085.99,2526472000.0,2526472000.0,0.012897703619909502,29.28,2014-09-30 00:00:00,2014-10-27 00:00:00,-120.98587789890378,7.0753982676783265,2914.5431360948855,4.049962460991343
sz002517,2014-11-27,14.26,14.64,14.25,14.51,0.018246000000000002,2380133.0,34460253.33,2565368000.0,2565368000.0,0.0134622907239819,29.73,2014-09-30 00:00:00,2014-10-27 00:00:00,-122.84850696145332,7.184327034170418,2959.4137676398404,4.112313356096477
sz002517,2014-11-26,14.32,14.69,14.18,14.25,-0.009040000000000001,2603730.0,37461921.35,2519400000.0,2519400000.0,0.01472697963800905,29.2,2014-09-30 00:00:00,2014-10-27 00:00:00,-120.64717854178,7.055590725787694,2906.38388723338,4.038624611436211
sz002517,2014-11-25,14.3,14.48,14.15,14.38,-0.002082,2615966.0,37391700.37,2542384000.0,2542384000.0,0.01479618778280543,29.46,2014-09-30 00:00:00,2014-10-27 00:00:00,-121.74777845904981,7.119955120073156,2932.897278632215,4.07546683159382
sz002517,2014-11-24,14.58,14.95,14.12,14.41,-0.016382,4123345.0,59328625.81,2547688000.0,2547688000.0,0.0233220871040724,29.52,2014-09-30 00:00:00,2014-10-27 00:00:00,-122.00178617787213,7.134809794064398,2939.0163105908655,4.083969656418484
sz002517,2014-11-21,13.93,14.82,13.93,14.65,0.047925999999999996,3635215.0,52962982.99,2590120000.0,2590120000.0,0.020561170814479637,30.02,2014-09-30 00:00:00,2014-10-27 00:00:00,-124.03370635538609,7.253638906632859,2987.9651557727348,4.151987515904024
sz002517,2014-11-20,13.53,14.17,13.5,13.98,0.024927,2666386.0,37240454.78,2471664000.0,2471664000.0,0.015081368778280544,28.64,2014-09-30 00:00:00,2014-10-27 00:00:00,-118.36113080063488,6.921899930560803,2851.3131230380154,3.9620999153604592
sz002517,2014-11-19,13.22,13.87,13.14,13.64,0.033333,2818424.0,37945597.15,2411552000.0,2411552000.0,0.01594131221719457,27.95,2014-09-30 00:00:00,2014-10-27 00:00:00,-115.48249855905338,6.753554087813868,2781.9670308597742,3.865738648079775
sz002517,2014-11-18,13.2,13.3,13.05,13.2,-0.0030210000000000002,2131070.0,28040421.72,2333760000.0,2333760000.0,0.01205356334841629,27.04,2014-09-30 00:00:00,2014-10-27 00:00:00,-111.75729272079124,6.535699612626199,2692.227027356887,3.741038608154172
sz002517,2014-11-17,13.03,13.43,12.82,13.24,0.00303,3633764.0,47975991.32,2340832000.0,2340832000.0,0.020552963800904978,27.13,2014-09-30 00:00:00,2014-10-27 00:00:00,-112.09593453903364,6.555503789574502,2700.3848901099086,3.7523745316141777
sz002517,2014-11-14,14.28,14.28,13.08,13.2,-0.076277,11554674.0,153904075.65,2333760000.0,2333760000.0,0.06535449095022625,27.04,2014-09-30 00:00:00,2014-10-27 00:00:00,-111.75730989006674,6.535700616705882,2692.227440963788,3.7410391828900207
sz002517,2014-11-13,15.76,15.78,14.2,14.29,-0.07268,13557839.0,201701366.61,2526472000.0,2526472000.0,0.07668460972850678,29.28,2014-09-30 00:00:00,2014-10-27 00:00:00,-120.98573911233856,7.075390151274659,2914.5397927341724,4.049957815156731
sz002517,2014-11-12,14.02,15.41,14.01,15.41,0.09992899999999999,9930828.0,149230971.66,2724488000.0,2724488000.0,0.05616984162895928,31.57,2014-09-30 00:00:00,2014-10-27 00:00:00,-130.46816537154226,7.629933735144998,3142.9709191370534,4.367378914675333
sz002517,2014-11-11,13.53,14.01,13.16,14.01,0.033948,5142344.0,69601466.06,2476968000.0,2476968000.0,0.029085656108597285,28.7,2014-09-30 00:00:00,2014-10-27 00:00:00,-118.61507912923676,6.936751131341203,2857.430724289525,3.9706007521170306
sz002517,2014-11-10,13.16,13.57,13.16,13.55,0.026514999999999997,3149719.0,42285498.69,2395640000.0,2395640000.0,0.017815152714932128,27.76,2014-09-30 00:00:00,2014-10-27 00:00:00,-114.72054603252461,6.708994196363069,2763.611636455146,3.8402325379197313
sz002517,2014-11-07,13.19,13.56,13.1,13.2,0.000758,3284767.0,43906419.57,2333760000.0,2333760000.0,0.01857899886877828,27.04,2014-09-30 00:00:00,2014-10-27 00:00:00,-111.75730119143373,6.535700107999462,2692.2272314141983,3.741038891706143
sz002517,2014-11-06,13.1,13.3,13.01,13.19,0.007639,2855752.0,37670120.27,2331992000.0,2331992000.0,0.016152443438914026,27.02,2014-09-30 00:00:00,2014-10-27 00:00:00,-111.67265332021701,6.530749799651327,2690.1880688580036,3.738205332064438
sz002517,2014-11-05,12.83,13.13,12.68,13.09,0.020265000000000002,2188865.0,28296458.24,2314312000.0,2314312000.0,0.01238045814479638,26.82,2014-09-30 00:00:00,2014-10-27 00:00:00,-110.82605310058166,6.481239610268485,2669.793516187845,3.709865668224868
sz002517,2014-11-04,12.86,12.98,12.76,12.83,-0.004654999999999999,1872635.0,24065162.83,2268344000.0,2268344000.0,0.010591826923076923,26.29,2014-09-30 00:00:00,2014-10-27 00:00:00,-108.62477209409481,6.35250607466539,2616.764777962436,3.636178510705422
sz002517,2014-11-03,12.88,13.07,12.77,12.89,-0.0038640000000000002,2177682.0,28098809.05,2278952000.0,2278952000.0,0.012317205882352942,26.41,2014-09-30 00:00:00,2014-10-27 00:00:00,-109.13278520924383,6.382215286825563,2629.002785930944,3.653184082609971
sz002517,2014-10-31,12.95,13.08,12.7,12.94,0.0,2318313.0,29883154.87,2287792000.0,2287792000.0,0.013112630090497738,26.51,2014-09-30 00:00:00,2014-10-27 00:00:00,-109.55611001835477,6.406971825961078,2639.200657270638,3.6673547413304726
sz002517,2014-10-30,13.2,13.23,12.82,12.94,-0.010703,2791645.0,36264637.65,2287792000.0,2287792000.0,0.015789847285067875,26.51,2014-09-30 00:00:00,2014-10-27 00:00:00,-109.55611001835477,6.406971825961078,2639.200657270638,3.6673547413304726
sz002517,2014-10-29,12.94,13.22,12.76,13.08,0.017107,2995462.0,38912098.89,2312544000.0,2312544000.0,0.016942658371040725,26.8,2014-09-30 00:00:00,2014-10-27 00:00:00,-110.74137495449273,6.476287531409757,2667.753624311646,3.707031095141776
sz002517,2014-10-28,12.62,12.95,12.55,12.86,0.0288,2745245.0,35099225.0,2273648000.0,2273648000.0,0.015527403846153845,26.35,2014-09-30 00:00:00,2014-10-27 00:00:00,-108.87878556975099,6.367361085323133,2622.883948602896,3.644681528238204
sz002517,2014-10-27,12.3,12.65,11.99,12.5,0.011327,1967460.0,24494688.78,2210000000.0,2210000000.0,0.01112816742081448,25.61,2014-09-30 00:00:00,2014-10-27 00:00:00,-105.83085689128207,6.189114585267432,2549.4595145829085,3.5426531184274928
sz002517,2014-10-24,12.21,12.62,12.21,12.36,0.014778,1897458.0,23599591.52,2185248000.0,2185248000.0,0.01073222850678733,25.32,2014-06-30 00:00:00,2014-08-21 00:00:00,-177.3261316772719,6.014571254584148,154.86569558292973,3.4267206413212534
sz002517,2014-10-23,12.26,12.45,12.06,12.18,-0.0073349999999999995,2298651.0,28125254.4,2153424000.0,2153424000.0,0.01300141968325792,24.96,2014-06-30 00:00:00,2014-08-21 00:00:00,-174.74376826978107,5.926982310006867,152.61041881370087,3.376818024554389
sz002517,2014-10-22,12.53,12.7,12.26,12.27,-0.023866,1650001.0,20650590.43,2169336000.0,2169336000.0,0.009332584841628959,25.14,2014-06-30 00:00:00,2014-08-21 00:00:00,-176.0349848839045,5.97077796639034,153.73808768688417,3.4017700075598403
sz002517,2014-10-21,12.87,12.87,12.52,12.57,-0.014118,2111400.0,26729020.89,2222376000.0,2222376000.0,0.011942307692307693,25.75,2014-06-30 00:00:00,2014-08-21 00:00:00,-180.338954368872,6.116760574255522,157.49690891505077,3.4849416243669826
sz002517,2014-10-20,12.38,12.77,12.3,12.75,0.021634999999999998,2158542.0,27214829.95,2254200000.0,2254200000.0,0.012208947963800905,26.12,2014-06-30 00:00:00,2014-08-21 00:00:00,-182.92143924817776,6.204353638929934,159.75229177026333,3.5348465885034743
sz002517,2014-10-17,12.62,12.72,12.11,12.48,-0.009524,3038814.0,37781591.44,2206464000.0,2206464000.0,0.017187861990950227,25.57,2014-06-30 00:00:00,2014-08-21 00:00:00,-179.04774136377253,6.072965040283402,156.36924319376618,3.459989711103744
sz002517,2014-10-16,13.1,13.26,12.6,12.6,-0.045455,3969910.0,51557530.95,2227680000.0,2227680000.0,0.022454242081447962,25.82,2014-06-30 00:00:00,2014-08-21 00:00:00,-180.76938902484514,6.131360114009226,157.8728239692493,3.493259514721956
sz002517,2014-10-15,13.48,13.48,13.1,13.2,-0.019316,2670049.0,35413599.91,2333760000.0,2333760000.0,0.015102087104072398,27.04,2014-06-30 00:00:00,2014-08-21 00:00:00,-189.3775453486689,6.4233327019776185,165.39065624904987,3.6596069485691674
sz002517,2014-10-14,13.16,13.55,13.1,13.46,0.018154,4323034.0,57632466.81,2379728000.0,2379728000.0,0.024451549773755656,27.58,2014-06-30 00:00:00,2014-08-21 00:00:00,-193.10761198170755,6.549849596789199,168.6482661581609,3.731688238585689
sz002517,2014-10-13,13.29,13.41,12.88,13.22,-0.007508,3332204.0,43590988.43,2337296000.0,2337296000.0,0.01884730769230769,27.09,2014-06-30 00:00:00,2014-08-21 00:00:00,-189.6644436712988,6.433063757338476,165.64121553140382,3.665151085774538
sz002517,2014-10-10,13.62,13.63,13.25,13.32,-0.026316000000000003,5130106.0,68668062.55,2354976000.0,2354976000.0,0.02901643665158371,27.29,2014-06-30 00:00:00,2014-08-21 00:00:00,-191.0992165894524,6.481728575483204,166.8942576175967,3.6928772078510836
sz002517,2014-10-09,13.2,13.9,13.2,13.68,0.020134,6683070.0,90793492.54,2418624000.0,2418624000.0,0.03780016968325792,28.03,2014-06-30 00:00:00,2014-08-21 00:00:00,-196.2641027165409,6.656911868206938,171.4049502894129,3.79268551999528
sz002517,2014-10-08,13.18,13.55,13.18,13.41,0.012075,4595191.0,61422117.44,2370888000.0,2370888000.0,0.02599089932126697,27.48,2014-06-30 00:00:00,2014-08-21 00:00:00,-192.3905121450132,6.52552690941282,168.02199543335766,3.7178307163522435
sz002517,2014-09-30,13.19,13.4,13.19,13.25,0.0,5542903.0,73723048.56,2342600000.0,2342600000.0,0.031351261312217195,27.15,2014-06-30 00:00:00,2014-08-21 00:00:00,-190.095113647717,6.4476712787222485,166.01733609995077,3.673473523555313
sz002517,2014-09-29,13.4,13.58,13.06,13.25,-0.045389,12556410.0,166898784.31,2342600000.0,2342600000.0,0.0710204185520362,27.15,2014-06-30 00:00:00,2014-08-21 00:00:00,-190.095113647717,6.4476712787222485,166.01733609995077,3.673473523555313
sz002517,2014-09-26,15.36,15.95,13.88,13.88,-0.09987,16283150.0,239372374.51,2453984000.0,2453984000.0,0.09209926470588235,28.44,2014-06-30 00:00:00,2014-08-21 00:00:00,-199.13358807694127,6.754239453266564,173.9109816458754,3.848136595487914
sz002517,2014-09-25,14.04,15.42,13.91,15.42,0.099857,15456371.0,226502615.69,2726256000.0,2726256000.0,0.0874229128959276,31.59,2014-06-30 00:00:00,2014-08-21 00:00:00,-221.22758721178192,7.503626646447251,193.206516443042,4.275089815346576
sz002517,2014-09-24,13.9,14.44,13.86,14.02,0.002144,7495815.0,105558311.4,2478736000.0,2478736000.0,0.04239714366515837,28.72,2014-06-30 00:00:00,2014-08-21 00:00:00,-201.14213685213795,6.822365677035514,175.6651241416311,3.886950590255438
sz002517,2014-09-23,14.0,14.11,13.65,13.99,-0.014094,7153339.0,99564214.15,2473432000.0,2473432000.0,0.04046006221719457,28.66,2014-06-30 00:00:00,2014-08-21 00:00:00,-200.711810729933,6.807769818544555,175.28930387412498,3.8786347972501343
sz002517,2014-09-22,13.65,14.2,13.6,14.19,0.020863,10306977.0,143670782.49,2508792000.0,2508792000.0,0.05829738122171946,29.07,2014-06-30 00:00:00,2014-08-21 00:00:00,-203.58108250678362,6.905090159249011,177.7951486999014,3.93408174536937
sz002517,2014-09-19,13.9,14.06,13.56,13.9,-0.021127,9618133.0,132808652.25,2457520000.0,2457520000.0,0.05440120475113122,28.48,2014-06-30 00:00:00,2014-08-21 00:00:00,-199.42057113127186,6.7639733825684845,174.1616149276655,3.8536823700823417
sz002517,2014-09-18,13.72,14.45,13.38,14.2,0.021583,13676911.0,190337147.78,2510560000.0,2510560000.0,0.07735809389140272,29.09,2014-06-30 00:00:00,2014-08-21 00:00:00,-203.72466206675622,6.909960109808406,177.92054222321536,3.9368563338475386
sz002517,2014-09-17,13.57,15.19,13.57,13.9,-0.0064329999999999995,19504414.0,280617324.88,2457520000.0,2457520000.0,0.11031908371040725,28.48,2014-06-30 00:00:00,2014-08-21 00:00:00,-199.42056794871903,6.763973274622234,174.16161214822034,3.853682308581426
sz002517,2014-09-16,12.6,13.99,12.42,13.99,0.099843,19819417.0,267917687.39,2473432000.0,2473432000.0,0.11210077488687782,28.66,2014-06-30 00:00:00,2014-08-21 00:00:00,-200.71174661469132,6.807767643875284,175.2892478798313,3.8786335582617233
sz002517,2014-09-15,11.6,12.72,11.21,12.72,0.100346,17933950.0,214980786.01,2248896000.0,2248896000.0,0.10143636877828054,26.06,2014-06-30 00:00:00,2014-08-21 00:00:00,-182.49127067653413,6.189763124259812,159.3766090976906,3.5265338400678314
sz002517,2014-09-12,10.78,11.56,10.61,11.56,0.099905,25769820.0,285738133.57,2043808000.0,2043808000.0,0.14575690045248868,23.68,2014-06-30 00:00:00,2014-08-21 00:00:00,-165.848988115133,5.625287976927087,144.8422669757427,3.2049317578905465
sz002517,2014-09-11,10.51,10.51,10.25,10.51,0.100524,12265672.0,128793537.63,1858168000.0,1858168000.0,0.06937597285067873,21.53,2014-06-30 00:00:00,2014-08-21 00:00:00,-150.7848297035953,5.114339853830183,131.6861610554936,2.9138259739618846
sz002517,2014-07-22,9.55,9.55,9.55,9.55,0.10023,410720.0,3922376.0,1688440000.0,1688440000.0,0.002323076923076923,19.57,2014-03-31 00:00:00,2014-04-24 00:00:00,-289.77137102625466,4.843965924286123,61.61605163435709,2.623115530832961
sz002517,2014-07-21,8.68,8.68,8.68,8.68,0.100127,706455.0,6132029.4,1534624000.0,1534624000.0,0.003995786199095023,17.78,2014-03-31 00:00:00,2014-04-24 00:00:00,-263.37345012066083,4.402684824342295,56.00288270121437,2.384151978070913
sz002517,2014-07-18,7.89,7.89,7.89,7.89,0.100418,155057.0,1223399.73,1394952000.0,1394952000.0,0.0008770192307692308,16.17,2014-03-31 00:00:00,2014-04-24 00:00:00,-239.40276906271805,4.001978702770039,50.90583423660575,2.1671606806040695
sz002517,2014-01-13,7.18,7.27,7.12,7.17,0.002797,1916572.0,13758940.75,1267656000.0,1267656000.0,0.010840339366515838,14.69,2013-09-30 00:00:00,2013-10-24 00:00:00,-432.7606988543645,3.881196742935259,-124.15763491348957,1.9757157811978299
sz002517,2014-01-10,7.21,7.26,7.08,7.15,-0.017856999999999998,2540764.0,18200813.94,1264120000.0,1264120000.0,0.014370837104072397,14.65,2013-09-30 00:00:00,2013-10-24 00:00:00,-431.55364331401523,3.87037131436897,-123.8113346105838,1.970205117484227
sz002517,2014-01-09,7.41,7.54,7.28,7.28,-0.018868,3136263.0,23329416.58,1287104000.0,1287104000.0,0.017739044117647058,14.92,2013-09-30 00:00:00,2013-10-24 00:00:00,-439.4000092797233,3.940741128704242,-126.06243144896803,2.006026736925506
sz002517,2014-01-08,7.43,7.58,7.4,7.42,0.00406,3104468.0,23188174.77,1311856000.0,1311856000.0,0.01755920814479638,15.2,2013-09-30 00:00:00,2013-10-24 00:00:00,-447.85004390818284,4.016524920912009,-128.48671886042655,2.0446043314513296
sz002517,2014-01-07,7.4,7.44,7.29,7.39,-0.001351,2268262.0,16735440.89,1306552000.0,1306552000.0,0.012829536199095022,15.14,2013-09-30 00:00:00,2013-10-24 00:00:00,-446.0391250604375,4.000283768810639,-127.96717214153193,2.03633680402698
sz002517,2014-01-06,7.8,7.8,7.29,7.4,-0.047619,5848101.0,43618001.81,1308320000.0,1308320000.0,0.0330774943438914,15.16,2013-09-30 00:00:00,2013-10-24 00:00:00,-446.64253913080324,4.005695463381667,-128.14028967288,2.0390916168012785
sz002517,2014-01-03,7.83,7.86,7.73,7.77,-0.007663,3167544.0,24620742.16,1373736000.0,1373736000.0,0.017915972850678735,15.92,2013-09-30 00:00:00,2013-10-24 00:00:00,-468.97464263861133,4.2059800262517495,-134.54729742915916,2.1410460905890383
sz002517,2014-01-02,7.86,7.86,7.76,7.83,-0.008860999999999999,3576920.0,27946095.04,1384344000.0,1384344000.0,0.020231447963800903,16.04,2013-09-30 00:00:00,2013-10-24 00:00:00,-472.59614691240097,4.238459340175513,-135.58629520934835,2.157579623241941
sz002517,2013-12-31,8.39,8.49,7.75,7.9,-0.058403,12807499.0,101856256.79,1396720000.0,1396720000.0,0.0724406052036199,16.19,2013-09-30 00:00:00,2013-10-24 00:00:00,-476.82126009813055,4.276352096099048,-136.79846642029864,2.1768688581944016
sz002517,2013-12-30,8.12,8.5,8.07,8.39,0.035802,3613102.0,29863606.05,1483352000.0,1483352000.0,0.020436097285067872,17.19,2013-09-30 00:00:00,2013-10-24 00:00:00,-506.3963246464576,4.541594860751519,-145.28345610733533,2.3118901804003213
sz002517,2013-12-27,8.08,8.14,8.0,8.1,0.002475,2377599.0,19219725.05,1432080000.0,1432080000.0,0.013447958144796381,16.6,2013-09-30 00:00:00,2013-10-24 00:00:00,-488.89297823952614,4.384616809729581,-140.26180303507365,2.2319808036674207
sz002517,2013-12-26,8.28,8.33,8.06,8.08,-0.024155000000000003,3862027.0,31677406.9,1428544000.0,1428544000.0,0.02184404411764706,16.55,2013-09-30 00:00:00,2013-10-24 00:00:00,-487.6859554996645,4.373791675333131,-139.9155121425209,2.2264702897004125
sz002517,2013-12-25,8.2,8.28,8.11,8.28,0.009756,4288395.0,35256463.22,1463904000.0,1463904000.0,0.024255627828054297,16.96,2013-09-30 00:00:00,2013-10-24 00:00:00,-499.7576003357751,4.482055731528194,-143.37882772624843,2.2815819005071627
sz002517,2013-12-24,8.09,8.24,8.03,8.2,0.012346,4124363.0,33552047.34,1449760000.0,1449760000.0,0.02332784502262443,16.8,2013-09-30 00:00:00,2013-10-24 00:00:00,-494.92907230635427,4.4387512740980934,-141.9935387620855,2.259537849249881
sz002517,2013-12-23,8.16,8.19,7.72,8.1,-0.00978,2740440.0,21962368.72,1432080000.0,1432080000.0,0.015500226244343891,16.6,2013-09-30 00:00:00,2013-10-24 00:00:00,-488.89319689745827,4.3846187707543605,-140.26186576732218,2.2319818019233355
sz002517,2013-12-20,8.15,8.21,8.09,8.18,0.008631,3810097.0,31075919.59,1446224000.0,1446224000.0,0.021550322398190044,16.76,2013-09-30 00:00:00,2013-10-24 00:00:00,-493.7217960629539,4.427923866165458,-141.64717514019324,2.254026177943624
sz002517,2013-12-19,8.03,8.23,8.03,8.11,0.012484,3666721.0,29768995.44,1433848000.0,1433848000.0,0.0207393721719457,16.62,2013-09-30 00:00:00,2013-10-24 00:00:00,-489.4969479055808,4.39003348713797,-140.43507996501518,2.2347381529455506
sz002517,2013-12-18,8.16,8.17,8.0,8.01,-0.019584,4411922.0,35700884.38,1416168000.0,1416168000.0,0.02495430995475113,16.41,2013-09-30 00:00:00,2013-10-24 00:00:00,-483.4614155933139,4.335904060842413,-138.7035054035572,2.207183671984496
sz002517,2013-12-17,8.5,8.5,8.05,8.17,-0.037691,6371547.0,52474554.22,1444456000.0,1444456000.0,0.03603816176470588,16.74,2013-09-30 00:00:00,2013-10-24 00:00:00,-493.11865125958155,4.422514586504518,-141.47413486066853,2.2512725944746887
sz002517,2013-12-16,8.85,8.87,8.42,8.49,-0.039593,4622843.0,39870317.43,1501032000.0,1501032000.0,0.026147302036199097,17.39,2013-09-30 00:00:00,2013-10-24 00:00:00,-512.4327541980608,4.595732333901604,-147.01528808383642,2.3394487575972884
sz002517,2013-12-13,8.87,8.91,8.83,8.84,-0.006742000000000001,2202037.0,19513306.71,1562912000.0,1562912000.0,0.01245496040723982,18.11,2013-09-30 00:00:00,2013-10-24 00:00:00,-533.5579126329367,4.785192458927938,-153.0760272299519,2.43589307199686
sz002517,2013-12-12,8.92,8.94,8.84,8.9,-0.002242,3044825.0,27067126.87,1573520000.0,1573520000.0,0.017221860859728506,18.23,2013-09-30 00:00:00,2013-10-24 00:00:00,-537.1795773433856,4.817673211721363,-154.11507103889613,2.4524273371036123
sz002517,2013-12-11,8.96,9.0,8.8,8.92,-0.005574,2243446.0,19931099.78,1577056000.0,1577056000.0,0.012689174208144796,18.28,2013-09-30 00:00:00,2013-10-24 00:00:00,-538.3866401906932,4.828498705819811,-154.46137343814445,2.4579380341762356
sz002517,2013-12-10,8.88,8.98,8.88,8.97,0.010135,3885959.0,34763778.22,1585896000.0,1585896000.0,0.021979406108597284,18.38,2013-09-30 00:00:00,2013-10-24 00:00:00,-541.4044284750129,4.8555636174233285,-155.327167067378,2.471715375680277
sz002517,2013-12-09,8.8,8.91,8.78,8.88,0.00339,3161824.0,28015573.82,1569984000.0,1569984000.0,0.017883619909502265,18.19,2013-09-30 00:00:00,2013-10-24 00:00:00,-535.9723487207284,4.806846230873426,-153.76872107923992,2.4469158832040048
sz002517,2013-12-06,8.94,9.03,8.78,8.85,-0.003378,6449549.0,57338320.58,391170000.0,1564680000.0,0.14591739819004526,18.13,2013-09-30 00:00:00,2013-10-24 00:00:00,-534.1615410964115,4.790606076274854,-153.24920626998465,2.4386488635565478
sz002517,2013-12-05,8.98,9.09,8.84,8.88,-0.045161,10146999.0,90591770.49,392496000.0,1569984000.0,0.229570113122172,18.19,2013-09-30 00:00:00,2013-10-24 00:00:00,-535.9720546971785,4.8068435939351675,-153.76863672484117,2.4469145408756257
sz002517,2013-12-04,9.15,9.99,9.15,9.3,-0.069069,15521938.0,144558126.57,411060000.0,1644240000.0,0.35117506787330316,19.05,2013-09-30 00:00:00,2013-10-24 00:00:00,-561.3219136390308,5.034192773792406,-161.04142868571682,2.562646206193532
sz002517,2013-12-03,9.99,9.99,9.99,9.99,-0.1,1190000.0,11888100.0,441558000.0,1766232000.0,0.026923076923076925,20.47,2013-09-30 00:00:00,2013-10-24 00:00:00,-602.9683334629858,5.407696997728517,-172.98965088252174,2.7527778172534076
sz002517,2013-12-02,12.29,12.29,11.1,11.1,-0.099757,1000000.0,11455495.28,490620000.0,1962480000.0,0.02262443438914027,22.74,2013-09-30 00:00:00,2013-10-24 00:00:00,-669.964814958873,6.008552219698352,-192.21072320280192,3.0586420191704526
sz002517,2013-11-29,12.39,12.41,12.26,12.33,-0.005645000000000001,686441.0,8447692.07,544986000.0,2179944000.0,0.015530339366515837,25.26,2013-09-30 00:00:00,2013-10-24 00:00:00,-744.2044147623176,6.674367053893618,-213.50982257324068,3.397573787488992
sz002517,2013-11-28,12.39,12.5,12.24,12.4,0.00895,1499473.0,18531205.31,548080000.0,2192320000.0,0.03392472850678733,25.41,2013-09-30 00:00:00,2013-10-24 00:00:00,-748.4292981503764,6.7122577488860795,-214.72192785598773,3.416861973328431
sz002517,2013-11-27,12.26,12.29,12.18,12.29,0.000814,721300.0,8834472.2,543218000.0,2172872000.0,0.01631900452488688,25.18,2013-09-30 00:00:00,2013-10-24 00:00:00,-741.7902751874487,6.65271594121223,-212.81721379254446,3.3865523299751534
sz002517,2013-11-26,11.85,12.53,11.85,12.28,0.009868,1036451.0,12646855.68,542776000.0,2171104000.0,0.023449117647058825,25.16,2013-09-30 00:00:00,2013-10-24 00:00:00,-741.1869490109538,6.64730503491381,-212.64412147766163,3.3837979184695186
sz002517,2013-11-25,12.36,12.36,11.99,12.16,-0.020145,911537.0,11094266.62,537472000.0,2149888000.0,0.020623009049773756,24.91,2013-09-30 00:00:00,2013-10-24 00:00:00,-733.9443858117633,6.582350401155209,-210.56625368628536,3.3507328863470462
sz002517,2013-11-22,12.6,12.6,12.38,12.41,-0.013513999999999998,1578746.0,19674664.62,548522000.0,2194088000.0,0.03571823529411765,25.43,2013-09-30 00:00:00,2013-10-24 00:00:00,-749.0336690752849,6.717678024968194,-214.89531990578743,3.41962115450454
sz002517,2013-11-21,12.55,12.68,12.41,12.58,0.0,943703.0,11824986.15,556036000.0,2224144000.0,0.02135074660633484,25.77,2013-09-30 00:00:00,2013-10-24 00:00:00,-759.2947787148372,6.809704369821969,-217.8391988388963,3.466466989399282
sz002517,2013-11-20,12.5,12.62,12.42,12.58,0.007206000000000001,1430188.0,17884610.68,556036000.0,2224144000.0,0.03235719457013575,25.77,2013-09-30 00:00:00,2013-10-24 00:00:00,-759.2947787148372,6.809704369821969,-217.8391988388963,3.466466989399282
sz002517,2013-11-19,12.5,12.55,12.42,12.49,-0.0008,525253.0,6548975.68,552058000.0,2208232000.0,0.011883552036199094,25.59,2013-09-30 00:00:00,2013-10-24 00:00:00,-753.8624459294693,6.760984713973077,-216.28068025696456,3.4416663417406976
sz002517,2013-11-18,12.6,12.6,12.41,12.5,-0.008723,655922.0,8193724.38,552500000.0,2210000000.0,0.014839864253393665,25.61,2013-09-30 00:00:00,2013-10-24 00:00:00,-754.4660187444649,6.7663978322388685,-216.45384333162988,3.4444218792440933
sz002517,2013-11-15,12.5,12.61,12.42,12.61,0.007994,1631349.0,20415401.34,557362000.0,2229448000.0,0.036908348416289594,25.84,2013-09-30 00:00:00,2013-10-24 00:00:00,-761.1051388708354,6.825940511319106,-218.3585852709484,3.474731966185127
sz002517,2013-11-14,12.53,12.63,12.44,12.51,-0.000799,606502.0,7606580.22,552942000.0,2211768000.0,0.013721764705882353,25.63,2013-09-30 00:00:00,2013-10-24 00:00:00,-755.0691163546958,6.771806688650036,-216.62687007159602,3.4471752472585413
sz002517,2013-11-13,12.49,12.8,12.29,12.52,0.000799,600002.0,7531731.42,553384000.0,2213536000.0,0.013574705882352942,25.65,2013-09-30 00:00:00,2013-10-24 00:00:00,-755.6728990009974,6.77722168877937,-216.80009334617958,3.449931742720975
sz002517,2013-11-12,12.55,12.59,12.42,12.51,0.0,810171.0,10143839.25,552942000.0,2211768000.0,0.018329660633484162,25.63,2013-09-30 00:00:00,2013-10-24 00:00:00,-755.0695983918824,6.771811011780957,-216.62700836649475,3.4471774479400707
sz002517,2013-11-11,12.57,12.57,12.38,12.51,-0.007143000000000001,482612.0,6041864.89,552942000.0,2211768000.0,0.010918823529411766,25.63,2013-09-30 00:00:00,2013-10-24 00:00:00,-755.0695983918824,6.771811011780957,-216.62700836649475,3.4471774479400707
sz002517,2013-11-08,12.67,12.68,12.1,12.6,-0.007092,1014000.0,12535589.33,556920000.0,2227680000.0,0.022941176470588236,25.82,2013-09-30 00:00:00,2013-10-24 00:00:00,-760.5018632007252,6.820530057985145,-218.18550744618284,3.4719777852601843
sz002517,2013-11-07,12.59,12.72,12.46,12.69,0.006344,389066.0,4894542.99,560898000.0,2243592000.0,0.008802398190045248,26.0,2013-09-30 00:00:00,2013-10-24 00:00:00,-765.9338661796716,6.869246755978547,-219.74393140772648,3.4967769272280864
sz002517,2013-11-06,12.7,12.77,12.6,12.61,-0.008648000000000001,615399.0,7805948.31,557362000.0,2229448000.0,0.013923054298642533,25.84,2013-09-30 00:00:00,2013-10-24 00:00:00,-761.1054134368283,6.825942973753056,-218.35866404303744,3.474733219682421
sz002517,2013-11-05,12.59,12.77,12.46,12.72,0.008723,2444974.0,30953130.8,562224000.0,2248896000.0,0.05531615384615385,26.06,2013-09-30 00:00:00,2013-10-24 00:00:00,-767.7448710819449,6.885488679856455,-220.2635028153849,3.505044847523807
sz002517,2013-11-04,12.53,12.67,12.47,12.61,0.003981,1095118.0,13766053.8,557362000.0,2229448000.0,0.024776425339366515,25.84,2013-09-30 00:00:00,2013-10-24 00:00:00,-761.1057456625307,6.825945953305769,-218.35875935750934,3.4747347364180325
sz002517,2013-11-01,12.49,12.58,12.44,12.56,0.000797,578610.0,7235031.9,555152000.0,2220608000.0,0.013090723981900452,25.73,2013-09-30 00:00:00,2013-10-24 00:00:00,-758.0877981381427,6.7988796135641705,-217.4929200428189,3.460956667923031
sz002517,2013-10-31,12.57,12.64,12.28,12.55,-0.003968,1228449.0,15255684.63,554710000.0,2218840000.0,0.027792963800904978,25.71,2013-09-30 00:00:00,2013-10-24 00:00:00,-757.4840833237339,6.793465221782411,-217.31971622898442,3.4582004821387673
sz002517,2013-10-30,12.66,12.76,12.48,12.6,0.0,984892.0,12400813.8,556920000.0,2227680000.0,0.02228262443438914,25.82,2013-09-30 00:00:00,2013-10-24 00:00:00,-760.5017542847356,6.820529081176519,-218.18547619854021,3.4719772880176207
sz002517,2013-10-29,12.57,13.16,12.42,12.6,-0.009434,1276568.0,16190976.33,556920000.0,2227680000.0,0.02888162895927602,25.82,2013-09-30 00:00:00,2013-10-24 00:00:00,-760.5017542847356,6.820529081176519,-218.18547619854021,3.4719772880176207
sz002517,2013-10-28,12.28,12.75,12.1,12.72,0.034145999999999996,1986750.0,24725552.32,562224000.0,2248896000.0,0.04494909502262443,26.06,2013-09-30 00:00:00,2013-10-24 00:00:00,-767.744657382482,6.885486763301507,-220.26344150570506,3.505043871905175
sz002517,2013-10-25,12.45,12.46,12.1,12.3,-0.008864,926201.0,11377022.86,543660000.0,2174640000.0,0.02095477375565611,25.2,2013-09-30 00:00:00,2013-10-24 00:00:00,-742.3948430709803,6.658137983709752,-212.99066234913158,3.389312410341648
sz002517,2013-10-24,12.6,12.61,12.2,12.41,-0.012729,1367211.0,16914361.12,548522000.0,2194088000.0,0.03093237556561086,25.43,2013-09-30 00:00:00,2013-10-24 00:00:00,-749.0342829550942,6.71768353052432,-214.8954960259052,3.4196239570973592
sz002517,2013-10-23,12.7,12.95,12.55,12.57,-0.014118,1013034.0,12837794.72,555594000.0,2222376000.0,0.022919321266968325,25.75,2013-06-30 00:00:00,2013-08-27 00:00:00,328.7998458339052,6.844953640742389,-435.37053568267504,3.4352224040209793
sz002517,2013-10-22,12.79,12.86,12.72,12.75,-0.0023469999999999997,1077340.0,13764954.21,563550000.0,2254200000.0,0.02437420814479638,26.12,2013-06-30 00:00:00,2013-08-27 00:00:00,333.50831624261843,6.942974555517179,-441.60511672053553,3.484415380360914
sz002517,2013-10-21,12.68,12.84,12.63,12.78,0.00314,1403945.0,17863227.86,564876000.0,2259504000.0,0.03176346153846154,26.18,2013-06-30 00:00:00,2013-08-27 00:00:00,334.29290168286815,6.959308051514084,-442.6440021936841,3.4926125419969813
sz002517,2013-10-18,12.77,12.89,12.72,12.74,-0.003909,1461802.0,18723852.24,563108000.0,2252432000.0,0.03307244343891403,26.1,2013-06-30 00:00:00,2013-08-27 00:00:00,333.2465076488508,6.937524225446183,-441.2584506586161,3.481680066587896
sz002517,2013-10-17,12.5,12.87,12.44,12.79,0.016693,1773620.0,22504803.7,565318000.0,2261272000.0,0.040127149321266965,26.2,2013-06-30 00:00:00,2013-08-27 00:00:00,334.55428033066335,6.964749430971851,-442.99009895543287,3.495343363796978
sz002517,2013-10-16,12.74,12.75,12.53,12.58,-0.013333000000000001,877669.0,11078114.23,556036000.0,2224144000.0,0.01985676470588235,25.77,2013-06-30 00:00:00,2013-08-27 00:00:00,329.06126070570303,6.8503957743112736,-435.7166804093594,3.43795360428072
sz002517,2013-10-15,12.7,12.76,12.62,12.75,0.000785,1107950.0,14070684.87,563550000.0,2254200000.0,0.025066742081447962,26.12,2013-06-30 00:00:00,2013-08-27 00:00:00,333.50792182742816,6.942966344583607,-441.6045944673932,3.484411259605034
sz002517,2013-10-14,12.61,12.82,12.61,12.74,0.00394,1600500.0,20408127.62,563108000.0,2252432000.0,0.036210407239819005,26.1,2013-06-30 00:00:00,2013-08-27 00:00:00,333.24632346350927,6.937520391076612,-441.25820677507477,3.481678142263357
sz002517,2013-10-11,12.8,12.8,12.61,12.69,-0.008594,910952.0,11558366.85,560898000.0,2243592000.0,0.02060977375565611,26.0,2013-06-30 00:00:00,2013-08-27 00:00:00,331.9384858293417,6.910293833373122,-439.52647247352905,3.4680141664475537
sz002517,2013-10-10,12.58,12.83,12.53,12.8,0.008668,1182510.0,15003373.0,565760000.0,2263040000.0,0.02675361990950226,26.23,2013-06-30 00:00:00,2013-08-27 00:00:00,334.81589361910426,6.970195695177477,-443.33650640961326,3.4980766370665033
sz002517,2013-10-09,12.83,12.88,12.38,12.69,-0.018561,2491390.0,31236289.4,560898000.0,2243592000.0,0.05636628959276018,26.0,2013-06-30 00:00:00,2013-08-27 00:00:00,331.93864940605266,6.91029723871232,-439.5266890687653,3.4680158754580335
sz002517,2013-10-08,12.83,13.03,12.25,12.93,0.006226,1223248.0,15646047.53,571506000.0,2286024000.0,0.02767529411764706,26.49,2013-06-30 00:00:00,2013-08-27 00:00:00,338.2162818127797,7.040984960565375,-447.8390292914438,3.5336030822680105
sz002517,2013-09-30,12.49,12.85,12.09,12.85,0.016614,1887333.0,23628577.84,567970000.0,2271880000.0,0.042699841628959276,26.33,2013-06-30 00:00:00,2013-08-27 00:00:00,336.1235764259517,6.9974190296865455,-445.0680357011683,3.511738995283376
sz002517,2013-09-27,12.59,12.7,12.49,12.64,0.001585,1638893.0,20610570.24,558688000.0,2234752000.0,0.037079027149321264,25.9,2013-06-30 00:00:00,2013-08-27 00:00:00,330.63048160457333,6.88306380758729,-437.79451758599464,3.4543484501328687
sz002517,2013-09-26,12.85,12.86,12.5,12.62,-0.019425,1303550.0,16456639.63,557804000.0,2231216000.0,0.0294920814479638,25.86,2013-06-30 00:00:00,2013-08-27 00:00:00,330.1072615949454,6.8721714158931,-437.1017113734677,3.448881972206921
sz002517,2013-09-25,13.12,13.13,12.7,12.87,-0.022779,1549512.0,19955835.48,568854000.0,2275416000.0,0.03505683257918552,26.37,2013-06-30 00:00:00,2013-08-27 00:00:00,336.64662223179806,7.008307794807232,-445.76061124693956,3.5172036531697435
sz002517,2013-09-24,13.28,13.29,13.03,13.17,-0.000759,1078372.0,14162944.29,582114000.0,2328456000.0,0.024397556561085974,26.98,2013-06-30 00:00:00,2013-08-27 00:00:00,344.4938475859586,7.171671295241538,-456.1512812832916,3.5991895929065616
sz002517,2013-09-23,13.22,13.31,13.16,13.18,-0.006781999999999999,1021625.0,13539965.42,582556000.0,2330224000.0,0.02311368778280543,27.0,2013-06-30 00:00:00,2013-08-27 00:00:00,344.7555170233793,7.17711872835636,-456.4977630854734,3.601923452807242
sz002517,2013-09-18,13.06,13.32,13.06,13.27,0.014525999999999999,1067771.0,14099356.94,586534000.0,2346136000.0,0.024157714932126696,27.19,2013-06-30 00:00:00,2013-08-27 00:00:00,347.10961442843296,7.226126317038515,-459.6148711415555,3.626518501282943
sz002517,2013-09-17,13.2,13.21,12.99,13.08,-0.01059,1378681.0,18008846.79,578136000.0,2312544000.0,0.0311918778280543,26.8,2013-06-30 00:00:00,2013-08-27 00:00:00,342.1396932443653,7.122662521254768,-453.0340978363842,3.5745939495714683
sz002517,2013-09-16,13.25,13.31,12.85,13.22,-0.005267,1354891.0,17919295.81,584324000.0,2337296000.0,0.03065364253393665,27.09,2013-06-30 00:00:00,2013-08-27 00:00:00,345.80173360322345,7.198898860184118,-457.8830796498764,3.612854074217431
sz002517,2013-09-13,13.3,13.32,13.17,13.29,-0.001503,1127167.0,14944028.67,587418000.0,2349672000.0,0.025501515837104072,27.23,2013-06-30 00:00:00,2013-08-27 00:00:00,347.6327151137274,7.237016224639293,-460.3075193543155,3.6319837325367015
sz002517,2013-09-12,13.29,13.39,13.2,13.31,0.000752,1459025.0,19390335.17,588302000.0,2353208000.0,0.03300961538461539,27.27,2013-06-30 00:00:00,2013-08-27 00:00:00,348.1559935720663,7.247909833118471,-461.0004029599644,3.6374508211208463
sz002517,2013-09-11,13.62,13.67,13.29,13.3,-0.025641000000000004,1762773.0,23748773.41,587860000.0,2351440000.0,0.039881742081447964,27.25,2013-06-30 00:00:00,2013-08-27 00:00:00,347.8943770005618,7.2424635005660445,-460.65399115861305,3.634717513550656
sz002517,2013-09-10,13.65,13.79,13.55,13.65,-0.0029219999999999997,1318470.0,17977174.47,603330000.0,2413320000.0,0.029829638009049773,27.97,2013-06-30 00:00:00,2013-08-27 00:00:00,357.04948278874815,7.433054449711087,-472.77645216866995,3.7303678762659924
sz002517,2013-09-09,13.55,13.73,13.55,13.69,0.000731,1048346.0,14307285.36,605098000.0,2420392000.0,0.023718235294117648,28.05,2013-06-30 00:00:00,2013-08-27 00:00:00,358.0958388298088,7.454837484841795,-474.1619533964945,3.7412999547337242
sz002517,2013-09-06,13.38,13.7,13.36,13.68,0.020896,1518831.0,20583558.92,604656000.0,2418624000.0,0.03436269230769231,28.03,2013-06-30 00:00:00,2013-08-27 00:00:00,357.8342619842983,7.449391979304922,-473.81559419713636,3.7385670622112475
sz002517,2013-09-05,13.48,13.5,13.3,13.4,-0.005935,983409.0,13147505.89,592280000.0,2369120000.0,0.022249072398190045,27.45,2013-06-30 00:00:00,2013-08-27 00:00:00,350.5100049214594,7.296915630294293,-464.11739706800336,3.662044970507522
sz002517,2013-09-04,13.45,13.82,13.31,13.48,0.00223,1465326.0,19787120.19,595816000.0,2383264000.0,0.03315217194570136,27.62,2013-06-30 00:00:00,2013-08-27 00:00:00,352.60270195757766,7.340481387328085,-466.88837960093497,3.6839089702459322
sz002517,2013-09-03,13.66,13.92,13.41,13.45,-0.020393,1888999.0,25802894.79,594490000.0,2377960000.0,0.042737533936651584,27.56,2013-06-30 00:00:00,2013-08-27 00:00:00,351.81814748867794,7.324148536092599,-465.84953513757813,3.675712132191146
sz002517,2013-09-02,13.7,13.73,13.59,13.73,0.0021899999999999997,884456.0,12086954.13,606866000.0,2427464000.0,0.02001031674208145,28.13,2013-06-30 00:00:00,2013-08-27 00:00:00,359.14213300709156,7.4766192320926645,-475.54737270923766,3.7522313868634525
sz002517,2013-08-30,13.51,13.75,13.41,13.7,0.014063999999999998,1462243.0,19898255.51,605540000.0,2422160000.0,0.03308242081447964,28.07,2013-06-30 00:00:00,2013-08-27 00:00:00,358.3573304533987,7.4602812162291245,-474.5081997517813,3.744031956877891
sz002517,2013-08-29,13.51,13.69,13.46,13.51,-0.008804000000000001,912129.0,12326559.76,597142000.0,2388568000.0,0.020636402714932126,27.68,2013-06-30 00:00:00,2013-08-27 00:00:00,353.3872915845535,7.3568149704842325,-467.9272706178123,3.6921061756239153
sz002517,2013-08-28,13.7,13.7,13.49,13.63,-0.011603,601433.0,8156958.55,602446000.0,2409784000.0,0.013607081447963802,27.93,2013-06-30 00:00:00,2013-08-27 00:00:00,356.52614778969394,7.422159664167563,-472.0834936963147,3.7249001969579325
sz002517,2013-08-27,13.65,14.5,13.56,13.79,0.009517,988482.0,13627478.98,609518000.0,2438072000.0,0.022363846153846154,28.25,2013-06-30 00:00:00,2013-08-27 00:00:00,360.71148312843314,7.50928995552148,-477.62538099196445,3.768627582801175
sz002517,2013-08-26,13.6,13.67,13.55,13.66,0.0058909999999999995,730939.0,9954922.18,603772000.0,2415088000.0,0.0165370814479638,27.99,2013-03-31 00:00:00,2013-04-19 00:00:00,42.126370805330986,7.280108005732963,46.86837891423733,3.7361493648827846
sz002517,2013-08-23,13.5,13.64,13.36,13.58,0.001475,1091058.0,14757026.8,600236000.0,2400944000.0,0.024684570135746608,27.82,2013-03-31 00:00:00,2013-04-19 00:00:00,41.87965774157536,7.237472057840225,46.593894283016084,3.7142686085100514
sz002517,2013-08-22,13.52,13.56,13.31,13.56,0.002959,649325.0,8723251.55,599352000.0,2397408000.0,0.014690610859728507,27.78,2013-03-31 00:00:00,2013-04-19 00:00:00,41.817976226641065,7.2268125093888775,46.525269510488116,3.708798131266434
sz002517,2013-08-21,13.44,13.55,13.21,13.52,0.005952000000000001,801794.0,10773897.16,597584000.0,2390336000.0,0.018140135746606334,27.7,2013-03-31 00:00:00,2013-04-19 00:00:00,41.694601899620096,7.20549146015827,46.38800739660157,3.6978561748450676
sz002517,2013-08-20,13.11,13.48,13.1,13.44,0.025954,1304945.0,17367809.9,594048000.0,2376192000.0,0.02952364253393665,27.54,2013-03-31 00:00:00,2013-04-19 00:00:00,41.447903975159946,7.16285812857698,46.1135396088497,3.675976761162628
sz002517,2013-08-19,13.25,13.33,13.02,13.1,-0.009077,1147654.0,15075662.33,579020000.0,2316080000.0,0.02596502262443439,26.84,2013-03-31 00:00:00,2013-04-19 00:00:00,40.399378505430015,6.981656222966118,44.9469855459891,3.58298399456762
sz002517,2013-08-16,13.41,13.54,13.22,13.22,-0.0171,974190.0,12954040.78,584324000.0,2337296000.0,0.02204049773755656,27.09,2013-03-31 00:00:00,2013-04-19 00:00:00,40.769442737155174,7.045609217836419,45.3587065251176,3.6158046534065913
sz002517,2013-08-15,13.28,13.7,13.28,13.45,0.011278,811194.0,10975825.56,594490000.0,2377960000.0,0.018352805429864255,27.56,2013-03-31 00:00:00,2013-04-19 00:00:00,41.47872900310832,7.168185184491218,46.14783449498178,3.6787106047477782
sz002517,2013-08-14,13.31,13.45,13.26,13.3,-0.00968,739699.0,9871886.25,587860000.0,2351440000.0,0.016735271493212668,27.25,2013-03-31 00:00:00,2013-04-19 00:00:00,41.016148876083854,7.088243969008738,45.633183452010016,3.637684795622745
sz002517,2013-08-13,13.58,13.66,13.25,13.43,-0.010317,807003.0,10832756.76,593606000.0,2374424000.0,0.018257986425339368,27.52,2013-03-31 00:00:00,2013-04-19 00:00:00,41.417066075696596,7.157528848259894,46.079230402304326,3.6732417760145664
sz002517,2013-08-12,13.43,13.75,13.33,13.57,0.013443,1030094.0,13897946.15,599794000.0,2399176000.0,0.02330529411764706,27.8,2013-03-31 00:00:00,2013-04-19 00:00:00,41.84882035530225,7.232142866210589,46.55958564742885,3.711533668876364
sz002517,2013-08-09,13.25,13.45,13.21,13.39,0.002996,571306.0,7602421.48,591838000.0,2367352000.0,0.012925475113122172,27.43,2013-03-31 00:00:00,2013-04-19 00:00:00,41.29370902488078,7.136210784632771,45.941987509340784,3.662301351804062
sz002517,2013-08-08,13.46,13.5,13.19,13.35,-0.008909,1144402.0,15291118.16,590070000.0,2360280000.0,0.025891447963800905,27.35,2013-03-31 00:00:00,2013-04-19 00:00:00,41.17036261847582,7.114894560529424,45.804756458989644,3.6513618716366385
sz002517,2013-08-07,13.15,13.51,13.1,13.47,0.023556,1762435.0,23584758.86,595374000.0,2381496000.0,0.039874095022624435,27.6,2013-03-31 00:00:00,2013-04-19 00:00:00,41.54044645595191,7.178850943585832,46.21649925081517,3.6841842692917592
sz002517,2013-08-06,13.24,13.25,12.98,13.16,-0.00303,1291936.0,16961647.74,581672000.0,2326688000.0,0.029229321266968325,26.96,2013-03-31 00:00:00,2013-04-19 00:00:00,40.58443940141224,7.01363769406445,45.15287805534349,3.5993968764696405
sz002517,2013-08-05,12.6,13.25,12.5,13.2,0.047619,3274838.0,42518516.73,583440000.0,2333760000.0,0.07409135746606335,27.04,2013-03-31 00:00:00,2013-04-19 00:00:00,40.70778398689252,7.034953603483002,45.29010707979527,3.610336195140917
sz002517,2013-08-02,12.58,12.75,12.56,12.6,0.0,637124.0,8086449.24,556920000.0,2227680000.0,0.014414570135746606,25.82,2013-03-31 00:00:00,2013-04-19 00:00:00,38.8574319355534,6.715183290378469,43.2314678139622,3.446230161099519
sz002517,2013-08-01,12.5,12.7,12.5,12.6,0.0,607959.0,7673219.26,556920000.0,2227680000.0,0.01375472850678733,25.82,2013-03-31 00:00:00,2013-04-19 00:00:00,38.8574319355534,6.715183290378469,43.2314678139622,3.446230161099519
sz002517,2013-07-31,12.66,12.8,12.51,12.6,-0.011765000000000001,941749.0,11876121.73,556920000.0,2227680000.0,0.02130653846153846,25.82,2013-03-31 00:00:00,2013-04-19 00:00:00,38.8574319355534,6.715183290378469,43.2314678139622,3.446230161099519
sz002517,2013-07-30,12.53,12.94,12.18,12.75,0.017558,1603390.0,20279905.5,563550000.0,2254200000.0,0.03627579185520362,26.12,2013-03-31 00:00:00,2013-04-19 00:00:00,39.32003211336717,6.795127970956776,43.74614116476567,3.487257748510748
sz002517,2013-07-29,12.6,12.65,12.38,12.53,-0.007918000000000001,514338.0,6464141.62,553826000.0,2215304000.0,0.011636606334841629,25.67,2013-03-31 00:00:00,2013-04-19 00:00:00,38.64156354071922,6.677877792673024,42.99129992075702,3.427084990251905
sz002517,2013-07-26,12.47,12.71,12.47,12.63,-0.007075,1221784.0,15409631.9,558246000.0,2232984000.0,0.027642171945701358,25.88,2013-03-31 00:00:00,2013-04-19 00:00:00,38.94996939841588,6.731175238209164,43.334421873148614,3.454437224193066
sz002517,2013-07-25,12.0,12.8,11.94,12.72,0.060884,3200717.0,39850401.31,562224000.0,2248896000.0,0.07241441176470588,26.06,2013-03-31 00:00:00,2013-04-19 00:00:00,39.22750398913904,6.779137636990875,43.64319749542877,3.479051513652155
sz002517,2013-07-24,12.0,12.08,11.98,11.99,-0.000833,700799.0,8428258.24,529958000.0,2119832000.0,0.015855180995475112,24.57,2013-03-31 00:00:00,2013-04-19 00:00:00,36.97624244416831,6.390083776351492,41.138519852716016,3.2793891826553665
sz002517,2013-07-23,11.8,12.0,11.75,12.0,0.016949000000000002,1238615.0,14737312.85,530400000.0,2121600000.0,0.028022963800904976,24.59,2013-03-31 00:00:00,2013-04-19 00:00:00,37.007069332922626,6.395411153842643,41.17281680911802,3.2821231912736977
sz002517,2013-07-22,11.72,11.9,11.66,11.8,0.002549,1216417.0,14300636.15,521560000.0,2086240000.0,0.027520746606334842,24.18,2013-03-31 00:00:00,2013-04-19 00:00:00,36.39029030258412,6.288821911268551,40.48660926862409,3.2274216221990453
sz002517,2013-07-19,11.78,11.94,11.51,11.77,0.001702,1817997.0,21394028.73,520234000.0,2080936000.0,0.041131153846153845,24.12,2013-03-31 00:00:00,2013-04-19 00:00:00,36.29776729375235,6.272832461324635,40.3836712905046,3.2192158410202847
sz002517,2013-07-18,12.2,12.3,11.3,11.75,-0.040816000000000005,1858308.0,22298022.36,519350000.0,2077400000.0,0.04204316742081448,24.07,2013-03-31 00:00:00,2013-04-19 00:00:00,36.236093462678866,6.262174240766849,40.315055066780936,3.2137460452512667
sz002517,2013-07-17,12.1,12.38,11.79,12.25,-0.000816,2280230.0,27457000.97,541450000.0,2165800000.0,0.051588914027149324,25.1,2013-03-31 00:00:00,2013-04-19 00:00:00,37.7780420260126,6.528647517855645,42.03057501666097,3.350500055517259
sz002517,2013-07-16,12.76,12.8,12.03,12.26,-0.039185000000000005,3066121.0,38112904.4,541892000.0,2167568000.0,0.06936925339366516,25.12,2013-03-31 00:00:00,2013-04-19 00:00:00,37.8088940835848,6.5339792449195,42.06489997504061,3.353236296335069
sz002517,2013-07-15,12.9,12.91,12.63,12.76,-0.010853,1743285.0,22203843.4,563992000.0,2255968000.0,0.039440837104072396,26.14,2013-03-31 00:00:00,2013-04-19 00:00:00,39.35085743206008,6.800455077116303,43.78043637437031,3.489991617881766
sz002517,2013-07-12,13.0,13.05,12.8,12.9,-0.006928,1621543.0,20968850.0,570180000.0,2280720000.0,0.03668649321266968,26.43,2013-03-31 00:00:00,2013-04-19 00:00:00,39.78261818724627,6.875070214150478,44.26079882400727,3.528284085056889
sz002517,2013-07-11,12.38,13.0,12.21,12.99,0.050970999999999995,4026095.0,50942505.63,574158000.0,2296632000.0,0.0910881221719457,26.61,2013-03-31 00:00:00,2013-04-19 00:00:00,40.06015494067527,6.9230329866822125,44.569576852440974,3.552898566324384
sz002517,2013-07-10,12.1,12.55,12.06,12.36,0.021488,1555768.0,19141859.99,546312000.0,2185248000.0,0.03519837104072398,25.32,2013-03-31 00:00:00,2013-04-19 00:00:00,38.11727910729722,6.587273090011249,42.40799874824422,3.380586682529189
sz002517,2013-07-09,11.68,12.22,11.68,12.1,0.018519,1572439.0,18850750.8,534820000.0,2139280000.0,0.03557554298642534,24.79,2013-03-31 00:00:00,2013-04-19 00:00:00,37.31544482881563,6.448703352375406,41.51590498199119,3.309472732454213
sz002517,2013-07-08,11.65,12.0,11.61,11.88,0.0,935493.0,11046970.88,525096000.0,2100384000.0,0.021165,24.34,2013-03-31 00:00:00,2013-04-19 00:00:00,36.636964876271946,6.331451207464373,40.76105107709448,3.249298964922807
sz002517,2013-07-05,12.45,12.45,11.85,11.88,-0.016556,1191779.0,14321675.49,525096000.0,2100384000.0,0.026963325791855203,24.34,2013-03-31 00:00:00,2013-04-19 00:00:00,36.636964876271946,6.331451207464373,40.76105107709448,3.249298964922807
sz002517,2013-07-04,11.82,12.26,11.64,12.08,0.016835,2054537.0,24751783.16,533936000.0,2135744000.0,0.046482737556561085,24.75,2013-03-31 00:00:00,2013-04-19 00:00:00,37.253737758603386,6.438039387564898,41.44725177752316,3.303999988736326
sz002517,2013-07-03,11.83,12.0,11.72,11.88,0.001686,1382887.0,16419825.05,525096000.0,2100384000.0,0.03128703619909502,24.34,2013-03-31 00:00:00,2013-04-19 00:00:00,36.63695462745026,6.331449436304708,40.76103967460124,3.249298055964169
sz002517,2013-07-02,11.32,11.88,11.18,11.86,0.047702999999999995,2016980.0,23468711.48,524212000.0,2096848000.0,0.045633031674208145,24.3,2013-03-31 00:00:00,2013-04-19 00:00:00,36.57528869071771,6.320792580014803,40.69243223385496,3.2438289603370407
sz002517,2013-07-01,11.17,11.36,11.09,11.32,0.0053289999999999995,832561.0,9348249.13,500344000.0,2001376000.0,0.018836221719457015,23.19,2013-03-31 00:00:00,2013-04-19 00:00:00,34.909978009720035,6.033000363666805,38.839663753807095,3.096134076486409
sz002517,2013-06-28,11.15,11.36,11.08,11.26,0.007156,788424.0,8864264.74,497692000.0,1990768000.0,0.01783764705882353,23.07,2013-03-31 00:00:00,2013-04-19 00:00:00,34.72492886380482,6.001020923167247,38.63378431718084,3.0797222366871035
sz002517,2013-06-27,11.31,11.54,11.11,11.18,-0.010619,2067233.0,23391908.58,494156000.0,1976624000.0,0.04676997737556561,22.91,2013-03-31 00:00:00,2013-04-19 00:00:00,34.478202844251356,5.958382736306239,38.35928527177602,3.057840331276489
sz002517,2013-06-26,11.29,11.48,11.1,11.3,0.008929000000000001,1810535.0,20422133.44,499460000.0,1997840000.0,0.04096233031674208,23.15,2013-03-31 00:00:00,2013-04-19 00:00:00,34.84825647981046,6.022333899990236,38.770994461967646,3.0906600503511683
sz002517,2013-06-25,10.9,11.44,10.7,11.2,0.019108,2633802.0,29125464.32,495040000.0,1980160000.0,0.05958828054298643,22.95,2013-03-31 00:00:00,2013-04-19 00:00:00,34.5398501577519,5.96903637420496,38.42787199294266,3.063307775226174
sz002517,2013-06-24,11.23,11.32,10.78,10.99,-0.016995,1351490.0,14770017.62,485758000.0,1943032000.0,0.030576696832579187,22.52,2013-03-31 00:00:00,2013-04-19 00:00:00,33.892237287659306,5.85711855289622,37.70735976259893,3.0058715810553682
sz002517,2013-06-21,10.96,11.33,10.3,11.18,0.0,1338389.0,14609836.76,494156000.0,1976624000.0,0.030280294117647058,22.91,2013-03-31 00:00:00,2013-04-19 00:00:00,34.478194198055256,5.9583812421058076,38.35927565230993,3.0578395644532512
sz002517,2013-06-20,11.6,11.79,11.18,11.18,-0.040343000000000004,1199393.0,13680118.47,494156000.0,1976624000.0,0.027135588235294116,22.91,2013-03-31 00:00:00,2013-04-19 00:00:00,34.478194198055256,5.9583812421058076,38.35927565230993,3.0578395644532512
sz002517,2013-06-19,11.95,11.99,11.61,11.65,-0.029167000000000002,2888781.0,34115417.89,514930000.0,2059720000.0,0.06535703619909503,23.87,2013-03-31 00:00:00,2013-04-19 00:00:00,35.92762226301195,6.208865503097261,39.97186041711772,3.1863880161904214
sz002517,2013-06-18,11.69,12.06,11.58,12.0,0.024765000000000002,1420588.0,16801374.58,530400000.0,2121600000.0,0.03214,24.59,2013-03-31 00:00:00,2013-04-19 00:00:00,37.00700559520737,6.395400138950016,41.17274589668637,3.282117538433924
sz002517,2013-06-17,11.62,12.11,11.49,11.71,0.002568,2018501.0,23810587.23,517582000.0,2070328000.0,0.045667443438914025,23.99,2013-03-31 00:00:00,2013-04-19 00:00:00,36.112675194027275,6.24084559772242,40.177744064918656,3.2028001916868
sz002517,2013-06-14,11.03,11.98,10.9,11.68,0.06666699999999999,2740624.0,31407649.58,516256000.0,2065024000.0,0.06200506787330317,23.93,2013-03-31 00:00:00,2013-04-19 00:00:00,36.02017538364209,6.224860156839657,40.074831896608174,3.1945964679570866
sz002517,2013-06-13,10.7,10.95,10.45,10.95,0.01577,1730263.0,18581348.46,483990000.0,1935960000.0,0.03914622171945702,22.43,2013-03-31 00:00:00,2013-04-19 00:00:00,33.768903869382,5.835804573348249,37.57014316240043,2.9949332527931274
sz002517,2013-06-07,10.45,10.85,10.32,10.78,0.029608,1252662.0,13289528.16,476476000.0,1905904000.0,0.028340769230769232,22.09,2013-03-31 00:00:00,2013-04-19 00:00:00,33.24463596028826,5.745202726353652,36.98686037429775,2.948436410597997
sz002517,2013-06-06,10.45,10.55,10.42,10.47,-0.0009539999999999999,608076.0,6375128.19,462774000.0,1851096000.0,0.013757375565610859,21.45,2013-03-31 00:00:00,2013-04-19 00:00:00,32.28863408237722,5.579990371436169,35.92324493816845,2.8636494768863456
sz002517,2013-06-05,10.37,10.6,10.37,10.48,0.0009550000000000001,702036.0,7376627.38,463216000.0,1852864000.0,0.01588316742081448,21.47,2013-03-31 00:00:00,2013-04-19 00:00:00,32.31946685375571,5.585318765538494,35.95754843937962,2.8663840072292426
sz002517,2013-06-04,10.68,10.73,10.33,10.47,-0.019663,2013041.0,21097656.52,462774000.0,1851096000.0,0.04554391402714932,21.45,2013-03-31 00:00:00,2013-04-19 00:00:00,32.28863121094925,5.579989875207669,35.923241743514566,2.8636492222220205
sz002517,2013-06-03,10.66,10.95,10.63,10.68,-0.000935,1352587.0,14551713.43,472056000.0,1888224000.0,0.030601515837104073,21.88,2013-03-31 00:00:00,2013-04-19 00:00:00,32.936256828977434,5.691909899562773,36.643768156781356,2.921086546995595
sz002517,2013-05-31,10.7,10.83,10.6,10.69,-0.000935,1269309.0,13618383.02,472498000.0,1889992000.0,0.02871739819004525,21.9,2013-03-31 00:00:00,2013-04-19 00:00:00,32.96708104975896,5.69723681598572,36.67806214488683,2.9238203189938545
sz002517,2013-05-30,10.71,10.75,10.6,10.7,-0.0065,1690832.0,18047158.59,472940000.0,1891760000.0,0.03825411764705882,21.92,2013-03-31 00:00:00,2013-04-19 00:00:00,32.99793411815944,5.702568717736804,36.7123882278799,2.9265566494611006
sz002517,2013-05-29,10.5,10.78,10.47,10.77,0.016996999999999998,1754283.0,18657864.91,476034000.0,1904136000.0,0.03968966063348416,22.07,2013-03-31 00:00:00,2013-04-19 00:00:00,33.21382397399038,5.739877924244392,36.952579997866025,2.9457037236649226
sz002517,2013-05-28,10.22,10.62,10.15,10.59,0.036204,3414326.0,35595081.92,468078000.0,1872312000.0,0.07724719457013575,21.7,2013-03-31 00:00:00,2013-04-19 00:00:00,32.658723648142896,5.643947744432277,36.33499410309571,2.8964723825782404
sz002517,2013-05-27,9.73,10.3,9.56,10.22,0.056877,3800036.0,38095320.11,451724000.0,1806896000.0,0.08597366515837104,20.94,2013-03-31 00:00:00,2013-04-19 00:00:00,31.517658345405827,5.446753481391963,35.06548334410571,2.795272342683719
sz002517,2013-05-24,9.7,9.82,9.52,9.67,-0.006166,1617532.0,15625261.35,427414000.0,1709656000.0,0.03659574660633484,19.81,2013-03-31 00:00:00,2013-04-19 00:00:00,29.82150084201457,5.15363044270238,33.17839573016133,2.6448416823184906
sz002517,2013-05-23,9.65,9.96,9.64,9.73,-0.001027,3226751.0,31535944.81,430066000.0,1720264000.0,0.07300341628959275,19.94,2013-03-31 00:00:00,2013-04-19 00:00:00,30.006521050813888,5.185604882407304,33.38424297232871,2.6612509557114072
sz002517,2013-05-22,9.79,9.97,9.6,9.74,-0.005107,2277372.0,22219921.61,430508000.0,1722032000.0,0.051524253393665155,19.96,2013-03-31 00:00:00,2013-04-19 00:00:00,30.037369429217694,5.190935973652246,33.41856383738971,2.6639868702271308
sz002517,2013-05-21,9.39,9.79,9.31,9.79,0.042599,4295272.0,41214543.35,432718000.0,1730872000.0,0.09717809954751129,20.06,2013-03-31 00:00:00,2013-04-19 00:00:00,30.19155771446547,5.217582165772847,33.59010852160957,2.6776616884701476
sz002517,2013-05-20,8.97,9.4,8.91,9.39,0.031868,6345168.0,58010821.57,415038000.0,1660152000.0,0.1435558371040724,19.24,2013-03-31 00:00:00,2013-04-19 00:00:00,28.957976858279615,5.004399741197571,32.21766807910766,2.5682565286079764
sz002517,2013-05-17,9.14,9.18,9.04,9.1,0.0,2237226.0,20399324.25,402220000.0,1608880000.0,0.05061597285067873,18.64,2013-03-31 00:00:00,2013-04-19 00:00:00,28.06364463117338,4.849844884420848,31.22266421587612,2.48893901992113
sz002517,2013-05-16,8.83,9.17,8.82,9.1,0.011111,4415839.0,39980415.36,402220000.0,1608880000.0,0.09990585972850678,18.64,2013-03-31 00:00:00,2013-04-19 00:00:00,28.06364463117338,4.849844884420848,31.22266421587612,2.48893901992113
sz002517,2013-05-15,8.3,9.0,8.03,9.0,0.070155,6656071.0,58208216.49,397800000.0,1591200000.0,0.15058984162895928,18.44,2013-03-31 00:00:00,2013-04-19 00:00:00,27.755255981957845,4.7965504127844,30.879561409060052,2.4615883121844484
sz002517,2013-05-14,8.38,8.43,8.27,8.41,-0.001188,1329231.0,11131092.15,371722000.0,1486888000.0,0.030073099547511313,17.23,2013-03-31 00:00:00,2013-04-19 00:00:00,25.93573452626755,4.4821081177814435,28.855223223794734,2.3002166155224697
sz002517,2013-05-13,8.18,8.45,8.07,8.42,0.033129,2264476.0,18773360.91,372164000.0,1488656000.0,0.0512324886877828,17.25,2013-03-31 00:00:00,2013-04-19 00:00:00,25.966582826665626,4.487439195545751,28.889544002069194,2.302952523119936
sz002517,2013-05-10,8.15,8.18,8.02,8.15,-0.001225,1355221.0,11006438.98,360230000.0,1440920000.0,0.030661108597285068,16.7,2013-03-31 00:00:00,2013-04-19 00:00:00,25.13392115279469,4.3435419928641545,27.96315271574914,2.229104519493631
sz002517,2013-05-09,7.88,8.76,7.88,8.16,0.017456,3965057.0,32733570.06,360672000.0,1442688000.0,0.08970717194570135,16.72,2013-03-31 00:00:00,2013-04-19 00:00:00,25.16474796905679,4.348869357827494,27.997449591498732,2.2318385216826933
sz002517,2013-05-08,7.69,8.02,7.58,8.02,0.048366,3784283.0,29801735.32,354484000.0,1417936000.0,0.08561726244343891,16.43,2013-03-31 00:00:00,2013-04-19 00:00:00,24.733008571433842,4.274257911720501,27.51711090356608,2.1935479486903544
sz002517,2013-05-07,7.57,7.74,7.5,7.65,0.011904999999999999,1022368.0,7814882.62,338130000.0,1352520000.0,0.02313049773755656,15.67,2013-03-31 00:00:00,2013-04-19 00:00:00,23.591959841728787,4.0770665127641506,26.24761858317237,2.0923493786429117
sz002517,2013-05-06,7.5,7.6,7.44,7.56,0.008,920995.0,6950251.84,334152000.0,1336608000.0,0.020836990950226245,15.49,2013-03-31 00:00:00,2013-04-19 00:00:00,23.314401887260946,4.029100076355142,25.93881696717811,2.0677330170746377
sz002517,2013-05-03,7.46,7.66,7.45,7.5,0.004016,1083691.0,8173003.06,331500000.0,1326000000.0,0.02451789592760181,15.37,2013-03-31 00:00:00,2013-04-19 00:00:00,23.129366951647764,3.997123091622165,25.732953340454475,2.0513224375740453
sz002517,2013-05-02,7.39,7.49,7.39,7.47,0.009459,469749.0,3497846.11,330174000.0,1320696000.0,0.010627805429864254,15.3,2013-03-31 00:00:00,2013-04-19 00:00:00,23.036850958199636,3.9811348540483076,25.63002316741414,2.043117278583255
sz002517,2013-04-26,7.47,7.53,7.27,7.4,-0.009370999999999999,689549.0,5123654.62,327080000.0,1308320000.0,0.015600656108597285,15.16,2013-03-31 00:00:00,2013-04-19 00:00:00,22.820987239897445,3.9438301645220926,25.389860477160678,2.023972522492994
sz002517,2013-04-25,7.61,7.62,7.47,7.47,-0.01321,788025.0,5921991.2,330174000.0,1320696000.0,0.017828619909502262,15.3,2013-03-31 00:00:00,2013-04-19 00:00:00,23.03686570845134,3.9811374031267937,25.63003957804655,2.0431185867696118
sz002517,2013-04-24,7.47,7.6,7.45,7.57,0.010681,791785.0,5976166.2,334594000.0,1338376000.0,0.01791368778280543,15.51,2013-03-31 00:00:00,2013-04-19 00:00:00,23.34525654744306,4.0344322531914525,25.973144821133722,2.0704694887155437
sz002517,2013-04-23,7.6,7.6,7.45,7.49,-0.01706,1013637.0,7594839.35,331058000.0,1324232000.0,0.02293296380090498,15.35,2013-03-31 00:00:00,2013-04-19 00:00:00,23.098541030694218,3.9917958813824073,25.698657460794973,2.0485885147890817
sz002517,2013-04-22,7.68,7.68,7.51,7.62,-0.023077,1451689.0,11003544.03,336804000.0,1347216000.0,0.03284364253393665,15.61,2013-03-31 00:00:00,2013-04-19 00:00:00,23.499441502730804,4.06107786984191,26.1446858005524,2.084144011627446
sz002517,2013-04-19,7.58,7.84,7.4,7.8,0.014303999999999999,2449140.0,18649348.54,344760000.0,1379040000.0,0.05541040723981901,15.98,2013-03-31 00:00:00,2013-04-19 00:00:00,24.05454831417707,4.157009170468819,26.76227891098111,2.1333759279159628
sz002517,2013-04-18,7.64,7.74,7.58,7.69,0.001302,637180.0,4900872.74,339898000.0,1359592000.0,0.014415837104072397,15.76,2012-09-30 00:00:00,2012-10-23 00:00:00,20.11496390087639,3.9445034532310834,20.511729386842195,2.1093769264155324
sz002517,2013-04-17,7.57,7.68,7.57,7.68,0.003922,477356.0,3637934.56,339456000.0,1357824000.0,0.010799909502262443,15.74,2012-09-30 00:00:00,2012-10-23 00:00:00,20.08880827250559,3.9393743877781966,20.485057841532523,2.1066340888318735
sz002517,2013-04-16,7.5,7.68,7.42,7.65,0.011904999999999999,528107.0,4004743.31,338130000.0,1352520000.0,0.011948122171945701,15.67,2012-09-30 00:00:00,2012-10-23 00:00:00,20.010327767003403,3.9239845204888395,20.405029316553,2.0984041477643416
sz002517,2013-04-15,7.72,7.75,7.5,7.56,-0.020725,621092.0,4693218.83,334152000.0,1336608000.0,0.01405185520361991,15.49,2012-09-30 00:00:00,2012-10-23 00:00:00,19.774907493295718,3.8778190842903624,20.16496540342522,2.073716552210278
sz002517,2013-04-12,7.92,7.99,7.72,7.72,-0.025253,448200.0,3514979.6,341224000.0,1364896000.0,0.01014027149321267,15.82,2012-09-30 00:00:00,2012-10-23 00:00:00,20.193416040740058,3.959887758076498,20.591728986674042,2.1176038928904326
sz002517,2013-04-11,8.1,8.22,7.91,7.92,-0.022222,786535.0,6320932.94,350064000.0,1400256000.0,0.017794909502262445,16.23,2012-09-30 00:00:00,2012-10-23 00:00:00,20.716571623959915,4.062477502445761,21.125203757153436,2.1724651554612966
sz002517,2013-04-10,8.13,8.44,8.04,8.1,-0.0036899999999999997,3209978.0,26293310.21,358020000.0,1432080000.0,0.0726239366515837,16.6,2012-09-30 00:00:00,2012-10-23 00:00:00,21.187397981914007,4.154805592318257,21.605317114062128,2.2218388585765854
sz002517,2013-04-09,7.68,8.24,7.68,8.13,0.059974,1376581.0,10971281.78,359346000.0,1437384000.0,0.03114436651583711,16.66,2012-09-30 00:00:00,2012-10-23 00:00:00,21.265869038666686,4.1701936067270795,21.68533600391658,2.2300678087910244
sz002517,2013-04-08,7.66,7.69,7.35,7.67,0.003927,587953.0,4433586.0,339014000.0,1356056000.0,0.01330210407239819,15.71,2012-09-30 00:00:00,2012-10-23 00:00:00,20.06263270482737,3.9342414122677343,20.458365963614746,2.1038891602916903
sz002517,2013-04-03,7.8,7.87,7.64,7.64,-0.026751999999999998,681874.0,5262315.92,337688000.0,1350752000.0,0.015427013574660633,15.65,2012-09-30 00:00:00,2012-10-23 00:00:00,19.98415492842345,3.918852080148989,20.37834022156466,2.0956595054139298
sz002517,2013-04-02,8.02,8.11,7.83,7.85,-0.021197,771627.0,6133986.41,346970000.0,1387880000.0,0.01745762443438914,16.08,2012-09-30 00:00:00,2012-10-23 00:00:00,20.533466216651306,4.026570904999537,20.938486615502587,2.1532636136050933
sz002517,2013-04-01,7.97,8.14,7.95,8.02,0.008805,478573.0,3840736.27,354484000.0,1417936000.0,0.010827443438914027,16.43,2012-09-30 00:00:00,2012-10-23 00:00:00,20.978139846987908,4.113770498250963,21.391931385071956,2.1998947833272817
sz002517,2013-03-29,7.96,8.07,7.91,7.95,0.001259,497957.0,3969963.63,351390000.0,1405560000.0,0.011265995475113122,16.29,2012-09-30 00:00:00,2012-10-23 00:00:00,20.79503952397927,4.077864897825608,21.20521942800834,2.1806937746415627
sz002517,2013-03-28,8.33,8.33,7.83,7.94,-0.052506,1632095.0,13086274.97,350948000.0,1403792000.0,0.03692522624434389,16.27,2012-09-30 00:00:00,2012-10-23 00:00:00,20.768891489593873,4.072737321537792,21.178555626474612,2.1779517334092007
sz002517,2013-03-27,8.33,8.47,8.31,8.38,0.003593,797523.0,6684999.32,370396000.0,1481584000.0,0.01804350678733032,17.17,2012-09-30 00:00:00,2012-10-23 00:00:00,21.919813201554703,4.298430725194874,22.352179144643248,2.298644353852584
sz002517,2013-03-26,8.54,8.54,8.27,8.35,-0.022248,1305991.0,10921276.26,369070000.0,1476280000.0,0.029547307692307692,17.11,2012-09-30 00:00:00,2012-10-23 00:00:00,21.84133727671945,4.283041756164973,22.272155290683823,2.2904148931415267
sz002517,2013-03-25,8.57,8.59,8.51,8.54,0.001172,838824.0,7167083.49,377468000.0,1509872000.0,0.018977918552036194,17.5,2012-09-30 00:00:00,2012-10-23 00:00:00,22.338320225087195,4.380499100144999,22.778941173921226,2.3425315347261138
sz002517,2013-03-22,8.53,8.57,8.46,8.53,0.001174,887355.0,7553924.78,377026000.0,1508104000.0,0.020075904977375564,17.48,2012-09-30 00:00:00,2012-10-23 00:00:00,22.312170361423608,4.375371165139457,22.752275507026994,2.3397893016645632
sz002517,2013-03-21,8.44,8.57,8.4,8.52,0.009479000000000001,979914.0,8335917.7,376584000.0,1506336000.0,0.02217,17.46,2012-09-30 00:00:00,2012-10-23 00:00:00,22.286006589687315,4.370240502789182,22.725595657724824,2.337045610118284
sz002517,2013-03-20,8.23,8.45,8.23,8.44,0.025516,929612.0,7799557.07,373048000.0,1492192000.0,0.021031945701357465,17.29,2012-09-30 00:00:00,2012-10-23 00:00:00,22.0767411602295,4.329203978279074,22.512202490319087,2.3151007699202104
sz002517,2013-03-19,8.22,8.29,8.12,8.23,0.001217,633053.0,5190781.19,363766000.0,1455064000.0,0.014322466063348416,16.86,2012-09-30 00:00:00,2012-10-23 00:00:00,21.52744682699197,4.221488478267599,21.95207338580684,2.2574984397320086
sz002517,2013-03-18,8.3,8.44,8.21,8.22,-0.014388,620869.0,5144439.67,363324000.0,1453296000.0,0.014046809954751131,16.84,2012-09-30 00:00:00,2012-10-23 00:00:00,21.50127976951247,4.216357171589773,21.925390185950537,2.2547544036227993
sz002517,2013-03-15,8.37,8.51,8.26,8.34,-0.009501,986846.0,8282838.81,368628000.0,1474512000.0,0.02232683257918552,17.09,2012-09-30 00:00:00,2012-10-23 00:00:00,21.815156237457003,4.277907707687988,22.245457833255415,2.287669390817887
sz002517,2013-03-14,8.35,8.5,8.31,8.42,0.001189,923036.0,7749757.01,372164000.0,1488656000.0,0.020883167420814478,17.25,2012-09-30 00:00:00,2012-10-23 00:00:00,22.024410158371694,4.318941975396228,22.45883926511326,2.3096130241604356
sz002517,2013-03-13,8.57,8.58,8.27,8.41,-0.019814,1221697.0,10272570.26,371722000.0,1486888000.0,0.0276402036199095,17.23,2012-09-30 00:00:00,2012-10-23 00:00:00,21.99825423408736,4.3138128519153,22.432167418053186,2.3068701555454916
sz002517,2013-03-12,8.91,9.04,8.46,8.58,-0.037037,1959414.0,17166550.98,379236000.0,1516944000.0,0.0443306334841629,17.58,2012-09-30 00:00:00,2012-10-23 00:00:00,22.4429386199021,4.401014554294083,22.885623155251338,2.35350245315225
sz002517,2013-03-11,8.96,8.96,8.73,8.91,-0.00558,1130662.0,10017677.75,393822000.0,1575288000.0,0.02558058823529412,18.26,2012-09-30 00:00:00,2012-10-23 00:00:00,23.306127670431888,4.5702841690636955,23.7658385163826,2.4440216842726565
sz002517,2013-03-08,9.0,9.11,8.89,8.96,-0.005549,1351692.0,12126017.28,396032000.0,1584128000.0,0.030581266968325797,18.36,2012-09-30 00:00:00,2012-10-23 00:00:00,23.436905603700538,4.595929455424967,23.899196030231295,2.457735850317428
sz002517,2013-03-07,9.18,9.27,9.0,9.01,-0.025945999999999997,2573211.0,23455557.75,398242000.0,1592968000.0,0.058217443438914024,18.46,2012-09-30 00:00:00,2012-10-23 00:00:00,23.567682674863352,4.62157457272904,24.032552664969206,2.471449925956561
sz002517,2013-03-06,9.23,9.3,9.03,9.25,0.001082,4066773.0,37336770.77,408850000.0,1635400000.0,0.09200843891402714,18.95,2012-09-30 00:00:00,2012-10-23 00:00:00,24.19545802888069,4.744680041074766,24.67271081990239,2.5372822512474267
sz002517,2013-03-05,9.01,9.5,9.01,9.24,0.022124,6406849.0,58881700.07,408408000.0,1633632000.0,0.14495133484162895,18.93,2012-09-30 00:00:00,2012-10-23 00:00:00,24.16930683888102,4.739551845977418,24.646043800510242,2.5345398790982423
sz002517,2013-03-04,9.01,9.09,8.82,9.04,-0.005501,2953477.0,26267515.99,399568000.0,1598272000.0,0.06682074660633483,18.52,2012-09-30 00:00:00,2012-10-23 00:00:00,23.646159212464458,4.636963661921077,24.112577143781227,2.4796794509259565
sz002517,2013-03-01,9.08,9.09,8.91,9.09,0.001101,3775592.0,34035399.76,401778000.0,1607112000.0,0.0854206334841629,18.62,2012-09-30 00:00:00,2012-10-23 00:00:00,23.776956248789045,4.662612694352711,24.245954137491566,2.493395620232857
sz002517,2013-02-28,8.61,9.08,8.6,9.08,0.054588,5222171.0,46688551.92,401336000.0,1605344000.0,0.11814866515837104,18.6,2012-09-30 00:00:00,2012-10-23 00:00:00,23.750806610710654,4.657484803583964,24.21928870063217,2.490653410827536
sz002517,2013-02-27,8.53,8.64,8.51,8.61,0.009379,1019985.0,8752300.57,380562000.0,1522248000.0,0.02307658371040724,17.64,2012-09-30 00:00:00,2012-10-23 00:00:00,22.52140799128252,4.416402238204839,22.965640326489744,2.3617312266283474
sz002517,2013-02-26,8.7,8.7,8.51,8.53,-0.020666,1451027.0,12497174.26,377026000.0,1508104000.0,0.03282866515837104,17.48,2012-09-30 00:00:00,2012-10-23 00:00:00,22.31214240764125,4.37536568345967,22.752247001859303,2.3397863702616633
sz002517,2013-02-25,8.59,8.76,8.58,8.71,0.016336,1455326.0,12624769.52,384982000.0,1539928000.0,0.032925927601809964,17.85,2012-09-30 00:00:00,2012-10-23 00:00:00,22.78297537677774,4.467695069771568,23.232367100355244,2.3891607666655736
sz002517,2013-02-22,8.5,8.7,8.5,8.57,0.002339,1003769.0,8645228.81,378794000.0,1515176000.0,0.02270970588235294,17.56,2012-09-30 00:00:00,2012-10-23 00:00:00,22.416774941336076,4.395883910214308,22.85894340095721,2.35075877137637
sz002517,2013-02-21,8.78,8.78,8.41,8.55,-0.023972999999999998,1238503.0,10644782.22,377910000.0,1511640000.0,0.028020429864253394,17.52,2012-09-30 00:00:00,2012-10-23 00:00:00,22.364464458966548,4.3856259311613215,22.805601099984344,2.345273177414397
sz002517,2013-02-20,8.6,8.82,8.56,8.76,0.016241,1312070.0,11405453.75,387192000.0,1548768000.0,0.029684841628959277,17.95,2012-09-30 00:00:00,2012-10-23 00:00:00,22.913776421109816,4.493344888165308,23.365748181130588,2.4028773562764116
sz002517,2013-02-19,8.87,8.93,8.62,8.62,-0.031461,1726690.0,15051671.65,381004000.0,1524016000.0,0.039065384615384606,17.66,2012-09-30 00:00:00,2012-10-23 00:00:00,22.547581155562327,4.421534742413766,22.99232975360233,2.3644759031336187
sz002517,2013-02-18,8.91,8.97,8.84,8.9,-0.002242,1349603.0,12003455.09,393380000.0,1573520000.0,0.030534004524886877,18.23,2012-09-30 00:00:00,2012-10-23 00:00:00,23.279993015833462,4.5651592165248545,23.739188358550695,2.4412810461257815
sz002517,2013-02-08,8.87,8.99,8.85,8.92,0.006772,1531831.0,13684639.33,394264000.0,1577056000.0,0.03465680995475113,18.28,2012-09-30 00:00:00,2012-10-23 00:00:00,23.332304041494492,4.575417302116199,23.792531213531433,2.4467666970605912
sz002517,2013-02-07,8.96,8.98,8.77,8.86,-0.007839,1253217.0,11102861.91,391612000.0,1566448000.0,0.028353325791855205,18.15,2012-09-30 00:00:00,2012-10-23 00:00:00,23.175360500187224,4.544640993309507,23.63249197785738,2.430308646903759
sz002517,2013-02-06,8.87,9.05,8.8,8.93,0.005631000000000001,2333981.0,20852995.71,394706000.0,1578824000.0,0.052805,18.3,2012-09-30 00:00:00,2012-10-23 00:00:00,23.358467527132415,4.580547908363165,23.81921077109197,2.4495103586048628
sz002517,2013-02-05,8.78,8.88,8.66,8.88,0.013699000000000001,1787222.0,15700831.82,392496000.0,1569984000.0,0.04043488687782806,18.19,2012-09-30 00:00:00,2012-10-23 00:00:00,23.227672503266522,4.554899270570583,23.685835829535854,2.4357944003365675
sz002517,2013-02-04,8.69,8.87,8.65,8.76,-0.0034130000000000002,1608408.0,14065794.2,387192000.0,1548768000.0,0.036389321266968325,17.95,2012-09-30 00:00:00,2012-10-23 00:00:00,22.913776676574134,4.493344938261341,23.365748441633915,2.402877383065947
sz002517,2013-02-01,8.56,8.88,8.48,8.79,0.028069999999999998,2294581.0,19895612.84,388518000.0,1554072000.0,0.051913597285067864,18.01,2012-09-30 00:00:00,2012-10-23 00:00:00,22.992249223172827,4.508733244825932,23.44576885072143,2.411106489514661
sz002517,2013-01-31,8.53,8.59,8.45,8.55,0.008255,1615962.0,13789439.27,377910000.0,1511640000.0,0.036560226244343894,17.52,2012-09-30 00:00:00,2012-10-23 00:00:00,22.364478316819696,4.385628648658099,22.805615231182145,2.3452746306327983
sz002517,2013-01-30,8.6,8.63,8.45,8.48,-0.010502,1777316.0,15123470.98,374816000.0,1499264000.0,0.04021076923076923,17.37,2012-09-30 00:00:00,2012-10-23 00:00:00,22.181371098402387,4.349721696057148,22.618896242698668,2.326072898852769
sz002517,2013-01-29,8.69,8.69,8.5,8.57,-0.001166,1842207.0,15825592.63,378794000.0,1515176000.0,0.041678891402714933,17.56,2012-09-30 00:00:00,2012-10-23 00:00:00,22.41679225061838,4.395887304529315,22.858961051663233,2.3507605865325334
sz002517,2013-01-28,8.25,8.58,8.23,8.58,0.042526999999999995,1621062.0,13574032.23,379236000.0,1516944000.0,0.03667561085972851,17.58,2012-09-30 00:00:00,2012-10-23 00:00:00,22.442960742844537,4.401018892558037,22.88564571456642,2.3535047730979657
sz002517,2013-01-25,8.34,8.35,8.2,8.23,-0.013189,1144175.0,9456278.4,363766000.0,1455064000.0,0.02588631221719457,16.86,2012-09-30 00:00:00,2012-10-23 00:00:00,21.527462351425466,4.221491522577389,21.952089216458106,2.257500067718117
sz002517,2013-01-24,8.79,8.91,8.18,8.34,-0.049031,3192012.0,27245832.79,368628000.0,1474512000.0,0.07221746606334842,17.09,2012-09-30 00:00:00,2012-10-23 00:00:00,21.815182797339574,4.2779129160268665,22.245484917028797,2.287672176048014
sz002517,2013-01-23,8.99,8.99,8.66,8.77,-0.025556,2091833.0,18397069.31,387634000.0,1550536000.0,0.04732653846153846,17.97,2012-09-30 00:00:00,2012-10-23 00:00:00,22.939951562395386,4.49847778006104,23.392439624245164,2.4056222401024794
sz002517,2013-01-22,8.95,9.23,8.85,9.0,0.006711,3815451.0,34544950.77,397800000.0,1591200000.0,0.08632242081447963,18.44,2012-09-30 00:00:00,2012-10-23 00:00:00,23.54158018561907,4.616455927750636,24.005935306949567,2.468712660863507
sz002517,2013-01-21,8.9,8.95,8.79,8.94,0.006756999999999999,1923777.0,17100324.2,395148000.0,1580592000.0,0.043524366515837104,18.32,2012-09-30 00:00:00,2012-10-23 00:00:00,23.384645827470912,4.585681419742742,23.84590543557145,2.4522555737083507
sz002517,2013-01-18,8.88,8.98,8.76,8.88,0.0056630000000000005,1867364.0,16542253.17,392496000.0,1569984000.0,0.04224805429864254,18.19,2012-09-30 00:00:00,2012-10-23 00:00:00,23.227696283682075,4.55490393386164,23.68586007901753,2.4357968940949513
sz002517,2013-01-17,9.08,9.08,8.78,8.83,-0.031798,2702839.0,24011478.34,390286000.0,1561144000.0,0.0611502036199095,18.09,2012-09-30 00:00:00,2012-10-23 00:00:00,23.09689854720923,4.529254764132358,23.552482371348585,2.4220806513662643
sz002517,2013-01-16,8.88,9.18,8.76,9.12,0.024719,4597693.0,41419236.93,403104000.0,1612416000.0,0.10402020361990949,18.69,2012-09-30 00:00:00,2012-10-23 00:00:00,23.85545428248364,4.6780059988849,24.326000536405196,2.501627399412792
sz002517,2013-01-15,8.71,8.96,8.68,8.9,0.022989,4054357.0,35801589.58,393380000.0,1573520000.0,0.09172753393665159,18.23,2012-09-30 00:00:00,2012-10-23 00:00:00,23.279996059879483,4.56515981345608,23.739191462640196,2.4412813653428818
sz002517,2013-01-14,8.37,8.74,8.33,8.7,0.033254,2099437.0,18018897.38,384540000.0,1538160000.0,0.04749857466063349,17.83,2012-09-30 00:00:00,2012-10-23 00:00:00,22.75683908612848,4.462569796406491,23.205715274201577,2.386419956952501
sz002517,2013-01-11,8.78,8.85,8.38,8.42,-0.047511000000000005,2561421.0,22072983.74,372164000.0,1488656000.0,0.057950701357466064,17.25,2012-09-30 00:00:00,2012-10-23 00:00:00,22.024438411202357,4.318947515718779,22.45886807522795,2.309615986923352
sz002517,2013-01-10,8.58,8.84,8.51,8.84,0.030302999999999997,3444911.0,29990564.86,390728000.0,1562912000.0,0.0779391628959276,18.11,2012-09-30 00:00:00,2012-10-23 00:00:00,23.12303702321219,4.534380466040846,23.57913642596182,2.424821690248761
sz002517,2013-01-09,8.6,8.8,8.49,8.58,-0.0034840000000000006,2503549.0,21635337.49,379236000.0,1516944000.0,0.05664138009049774,17.58,2012-09-30 00:00:00,2012-10-23 00:00:00,22.442948359086788,4.4010164641283644,22.88563308654039,2.353503474462135
sz002517,2013-01-08,8.51,8.67,8.37,8.61,0.015330000000000002,2396960.0,20472783.88,380562000.0,1522248000.0,0.05422986425339366,17.64,2012-09-30 00:00:00,2012-10-23 00:00:00,22.52141296184586,4.4164032129221855,22.96564539509691,2.36173174787172
sz002517,2013-01-07,8.42,8.51,8.31,8.48,0.0059310000000000005,1520600.0,12774015.98,374816000.0,1499264000.0,0.034402714932126696,17.37,2012-09-30 00:00:00,2012-10-23 00:00:00,22.181372521097437,4.3497219750447496,22.618897693456226,2.3260730480451874
sz002517,2013-01-04,8.88,8.9,8.35,8.43,-0.028801999999999998,2605935.0,22348952.67,372606000.0,1490424000.0,0.05895780542986425,17.27,2012-09-30 00:00:00,2012-10-23 00:00:00,22.050590469025646,4.324075880994571,22.485535979561448,2.312358450077776
