code,date,open,high,low,close,change,volume,money,traded_market_value,market_value,turnover,adjust_price,report_type,report_date,PE_TTM,PS_TTM,PC_TTM,PB
sz000037,2014-12-31,7.39,7.67,7.22,7.59,0.025675999999999997,11654368.0,87258045.01,2572205550.0,2572344170.0,0.03438941849728922,44.55,2014-09-30 00:00:00,2014-10-25 00:00:00,28.19269642618042,3.942834853495244,16.28381158571319,2.9965110394310206
sz000037,2014-12-30,7.98,8.1,7.17,7.4,-0.071518,17278664.0,130592426.95,2507815690.0,2507950840.0,0.05098545084866265,43.43,2014-09-30 00:00:00,2014-10-25 00:00:00,27.48694171081357,3.8441328972260673,15.876174918505638,2.921498640341609
sz000037,2014-12-29,8.49,8.56,7.85,7.97,-0.05903200000000001,17020971.0,140012846.17,2700985280.0,2701130830.0,0.05022505671337831,46.78,2014-09-30 00:00:00,2014-10-25 00:00:00,29.604172951994293,4.140234164179883,17.099065914584923,3.1465323402517322
sz000037,2014-12-26,8.17,8.7,7.93,8.47,0.024184,20298711.0,167985029.34,2870432280.0,2870586970.0,0.05989693028744785,49.71,2014-09-30 00:00:00,2014-10-25 00:00:00,31.461402462139297,4.399973393547797,18.171782584088852,3.3439312922987092
sz000037,2014-12-25,8.05,8.29,7.8,8.27,0.023515,16025396.0,128982227.95,2802653480.0,2802804510.0,0.04728733889713686,48.54,2014-09-30 00:00:00,2014-10-25 00:00:00,30.7185061103662,4.2960770657887615,17.742693289573797,3.2649712281179055
sz000037,2014-12-24,8.16,8.38,7.85,8.08,-0.009804,14692721.0,119406674.54,2738263620.0,2738411180.0,0.04335491470320889,47.42,2014-09-30 00:00:00,2014-10-25 00:00:00,30.012756149510466,4.197375774452511,17.335059368522984,3.189959334370191
sz000037,2014-12-23,8.73,8.9,8.16,8.16,-0.10033099999999999,18441551.0,154206807.44,2765375140.0,2765524160.0,0.05441686879415572,47.89,2014-09-30 00:00:00,2014-10-25 00:00:00,30.30991455177608,4.238934286194361,17.50669500636539,3.221543345327785
sz000037,2014-12-22,8.76,9.43,8.35,9.07,0.011148,31193751.0,280003129.25,3073768690.0,3073934330.0,0.09204574257342701,53.23,2014-09-30 00:00:00,2014-10-25 00:00:00,33.69007329559658,4.71165982844175,19.459039942873865,3.5808095480980056
sz000037,2014-12-19,8.28,9.4,8.18,8.97,0.044237,40459837.0,357913700.75,3039879290.0,3040043110.0,0.11938787802656467,52.65,2014-09-30 00:00:00,2014-10-25 00:00:00,33.318637128883786,4.659713344081925,19.244502231991625,3.5413307924240622
sz000037,2014-12-18,8.22,8.59,7.9,8.59,0.099872,38631107.0,317435695.53,2911099560.0,2911256440.0,0.11399170735678996,50.42,2014-09-30 00:00:00,2014-10-25 00:00:00,31.907160088067922,4.462313961372681,18.42924760566004,3.3913094368654457
sz000037,2014-12-17,7.18,7.81,7.18,7.81,0.1,26050101.0,201075314.63,2646762230.0,2646904870.0,0.07686798855747612,45.84,2014-09-30 00:00:00,2014-10-25 00:00:00,29.009884866664414,4.057121157164362,16.75581122681552,3.0833673708080993
sz000037,2014-12-16,6.99,7.22,6.81,7.1,0.009956999999999999,12630631.0,88636164.79,2406147490.0,2406277150.0,0.037270150924954316,41.67,2014-09-30 00:00:00,2014-10-25 00:00:00,26.372622606058556,3.6882919610585105,15.232555660741383,2.8030612461891806
sz000037,2014-12-15,6.95,7.27,6.8,7.03,-0.008463,18420527.0,129587566.75,2382424900.0,2382553290.0,0.05435483183961014,41.26,2014-09-30 00:00:00,2014-10-25 00:00:00,26.11261925612532,3.6519296970648365,15.082380399107471,2.775426326258624
sz000037,2014-12-12,6.76,7.36,6.53,7.09,0.059791,28999425.0,200539628.67,2402758550.0,2402888030.0,0.08557077998952495,41.61,2014-09-30 00:00:00,2014-10-25 00:00:00,26.33549656354258,3.6830997704219173,15.211112040304569,2.7991152385222375
sz000037,2014-12-11,6.09,6.69,6.0,6.69,0.100329,16997595.0,110104792.93,2267200940.0,2267323120.0,0.05015607948274757,39.27,2014-09-30 00:00:00,2014-10-25 00:00:00,24.849707690990567,3.4753076506801035,14.352935664017311,2.6411955173446824
sz000037,2014-12-10,5.85,6.09,5.85,6.08,0.028765,4011801.0,24133481.79,2060475590.0,2060586630.0,0.011837922370145621,35.69,2014-09-30 00:00:00,2014-10-25 00:00:00,22.583888719638004,3.1584259350431587,13.044221922731577,2.400368905431632
sz000037,2014-12-09,6.1,6.15,5.9,5.91,-0.035889,8242312.0,49572561.82,2002863610.0,2002971550.0,0.024321208731731863,34.69,2014-09-30 00:00:00,2014-10-25 00:00:00,21.952427152593653,3.0701141028739887,12.679496214132069,2.333252886161205
sz000037,2014-12-08,6.06,6.19,5.92,6.13,0.008223999999999999,4993714.0,30449064.5,2077420290.0,2077532250.0,0.014735326773957714,35.98,2014-09-30 00:00:00,2014-10-25 00:00:00,22.76960552529081,3.1843989985323145,13.151490040184239,2.420108147465598
sz000037,2014-12-05,6.25,6.35,5.97,6.08,-0.025641000000000004,7604229.0,46981591.64,2060475590.0,2060586630.0,0.022438369347534955,35.69,2014-09-30 00:00:00,2014-10-25 00:00:00,22.58387573127679,3.1584241185811033,13.04421442078768,2.400367524940487
sz000037,2014-12-04,6.24,6.3,6.15,6.24,-0.0016,10615621.0,65916851.98,2114698630.0,2114812600.0,0.031324309809573195,36.62,2014-09-30 00:00:00,2014-10-25 00:00:00,23.17818764056861,3.2415404574505944,13.387482869032544,2.4635350265564204
sz000037,2014-12-03,6.33,6.38,6.18,6.25,-0.011076,5570390.0,34790989.97,2118087580.0,2118201720.0000002,0.016436967870799752,36.68,2014-09-30 00:00:00,2014-10-25 00:00:00,23.21533217204388,3.246735233824714,13.408937168502149,2.467482999355389
sz000037,2014-12-02,6.13,6.32,6.07,6.32,0.036066,6759096.0,41606136.21,2141810160.0000002,2141925580.0,0.019944571894270964,37.09,2014-09-30 00:00:00,2014-10-25 00:00:00,23.47534509430844,3.283098836538211,13.559117959016211,2.495118936698259
sz000037,2014-12-01,6.14,6.19,6.01,6.1,-0.012944999999999998,6277623.0,38185238.44,2067253470.0,2067364880.0,0.018523853439220493,35.8,2014-09-30 00:00:00,2014-10-25 00:00:00,22.65815603861959,3.1688124468308114,13.08711796257788,2.4082625399330344
sz000037,2014-11-28,6.32,6.32,6.14,6.18,-0.022152,5261844.0,32610026.53,2094364990.0,2094477860.0,0.015526518097497418,36.27,2014-09-30 00:00:00,2014-10-25 00:00:00,22.95531255970497,3.21037069548385,13.258752513869926,2.4398463509460306
sz000037,2014-11-27,6.41,6.44,6.26,6.32,-0.0125,5714223.0,36041704.53,2141810160.0000002,2141925580.0,0.016861386706653776,37.09,2014-09-30 00:00:00,2014-10-25 00:00:00,23.475338252678295,3.2830978797153025,13.559114007360984,2.4951182095233926
sz000037,2014-11-26,6.14,6.48,6.12,6.4,0.042345,9314428.0,58946392.48,2168921680.0,2169038560.0,0.027484781838687692,37.56,2014-09-30 00:00:00,2014-10-25 00:00:00,23.772494433091946,3.3246560807243575,13.73074836188454,2.5267019843274863
sz000037,2014-11-25,6.13,6.16,6.05,6.14,0.00491,4782250.0,29150572.72,2080809230.0,2080921370.0,0.014111344075497013,36.04,2014-09-30 00:00:00,2014-10-25 00:00:00,22.80674290478867,3.189592774680511,13.172940208745224,2.4240553601038872
sz000037,2014-11-24,6.17,6.18,6.08,6.11,-0.001634,4543873.0,27825488.86,2070642410.0,2070754000.0,0.01340794716457102,35.86,2014-09-30 00:00:00,2014-10-25 00:00:00,22.69530893790356,3.17400839346858,13.108577095207755,2.4122114021194805
sz000037,2014-11-21,6.08,6.15,6.04,6.12,0.003279,3601797.0,21967146.43,2074031350.0,2074143120.0,0.010628092791364991,35.92,2014-09-30 00:00:00,2014-10-25 00:00:00,22.73245376735943,3.1792032115161977,13.130031566787887,2.4161594065898484
sz000037,2014-11-20,6.1,6.22,6.07,6.1,-0.004894,3567927.0,21989346.52,2067253470.0,2067364880.0,0.010528150038611375,35.8,2014-09-30 00:00:00,2014-10-25 00:00:00,22.65815766836486,3.168812674755674,13.087118903901992,2.408262713153418
sz000037,2014-11-19,6.07,6.17,6.06,6.13,0.008223999999999999,4288654.0,26206275.38,2077420290.0,2077532250.0,0.012654853303661532,35.98,2014-09-30 00:00:00,2014-10-25 00:00:00,22.769592051866695,3.1843971142327288,13.151482258072999,2.4201067154186773
sz000037,2014-11-18,6.04,6.12,6.02,6.08,0.008292,3612414.0,21894201.04,2060475590.0,2060586630.0,0.010659421167906191,35.69,2014-09-30 00:00:00,2014-10-25 00:00:00,22.583862367754282,3.1584222496515935,13.04420670215448,2.4003661045746547
sz000037,2014-11-17,5.89,6.1,5.82,6.03,0.02901,5844609.0,35122580.39,2043530890.0,2043641020.0,0.01724612651683479,35.39,2014-09-30 00:00:00,2014-10-25 00:00:00,22.39813701562075,3.1324479909109595,12.936933648342423,2.3806259541627375
sz000037,2014-11-14,5.97,6.0,5.84,5.86,-0.016779,4619397.0,27206279.06,1985918910.0,1986025930.0,0.013630801481214557,34.39,2014-09-30 00:00:00,2014-10-25 00:00:00,21.766685470132217,3.044137560287033,12.572213728090517,2.3135110000512507
sz000037,2014-11-13,6.09,6.1,5.92,5.96,-0.021346,5557533.0,33353309.86,2019808310.0,2019917160.0,0.01639902980694242,34.98,2014-09-30 00:00:00,2014-10-25 00:00:00,22.138141343738813,3.096086800716251,12.786762821471997,2.3529918503075615
sz000037,2014-11-12,5.86,6.18,5.86,6.09,-0.004902,10906267.0,65991782.12,2063864530.0,2063975750.0,0.03218194075460951,35.74,2014-09-30 00:00:00,2014-10-25 00:00:00,22.621009410617866,3.1636173772510525,13.065662452176152,2.404314344301011
sz000037,2014-11-11,6.35,6.35,5.82,6.12,-0.03622,16251276.0,99113102.25,2074031350.0,2074143120.0,0.04795386006098703,35.92,2014-09-30 00:00:00,2014-10-25 00:00:00,22.732443850372388,3.179201824595218,13.130025838838135,2.416158352545187
sz000037,2014-11-10,6.48,6.56,6.28,6.35,-0.030534,16561973.0,105632019.61,2151976980.0,2152092950.0,0.0488706568552606,37.27,2014-09-30 00:00:00,2014-10-25 00:00:00,23.58675615843075,3.298680014728691,13.623467844153371,2.5069604604216598
sz000037,2014-11-07,6.73,6.74,6.44,6.55,-0.035345999999999995,29460770.0,194878089.17,2219755780.0,2219875400.0,0.08693210543188674,38.44,2014-09-30 00:00:00,2014-10-25 00:00:00,24.329637303867027,3.4025742158349974,14.052548355644625,2.585918908369824
sz000037,2014-11-06,6.5,6.85,6.3,6.79,0.038225999999999996,24894110.0,163348741.56,2301090340.0,2301214350.0,0.07345691907950037,39.85,2014-09-30 00:00:00,2014-10-25 00:00:00,25.221102388905273,3.527248335501638,14.567449422948147,2.680669865433434
sz000037,2014-11-05,6.5,6.57,6.36,6.54,-0.009091,19729223.0,127520543.9,2216366840.0,2216486280.0,0.058216499223567156,38.38,2014-09-30 00:00:00,2014-10-25 00:00:00,24.292497383908003,3.397380084395534,14.03109671973939,2.5819714257140873
sz000037,2014-11-04,6.38,6.75,6.34,6.6,0.015385,25627358.0,166676022.0,2236700480.0,2236821020.0,0.07562056891944692,38.74,2014-09-30 00:00:00,2014-10-25 00:00:00,24.515366581500423,3.4285490235687983,14.159823676785043,2.6056594760104987
sz000037,2014-11-03,5.91,6.5,5.85,6.5,0.09983099999999999,29068254.0,184293445.2,2202811080.0,2202929790.0,0.08577387898375743,38.15,2014-09-30 00:00:00,2014-10-25 00:00:00,24.143912487874474,3.376600032075319,13.945275611502082,2.5661788149426066
sz000037,2014-10-31,5.92,6.02,5.79,5.91,0.0,11229693.0,66679194.52,2002863610.0,2002971550.0,0.03313629809770222,34.69,2014-09-30 00:00:00,2014-10-25 00:00:00,21.95238403706976,3.070108073036056,12.67947131104877,2.3332483035508242
sz000037,2014-10-30,5.51,5.99,5.48,5.91,0.068716,14620087.0,84886982.56,2002863610.0,2002971550.0,0.04314058817514788,34.69,2014-09-30 00:00:00,2014-10-25 00:00:00,21.95238403706976,3.070108073036056,12.67947131104877,2.3332483035508242
sz000037,2014-10-29,5.29,5.57,5.21,5.53,0.045369,9397103.0,51011657.68,1874083890.0,1874184880.0,0.02772873715381012,32.46,2014-09-30 00:00:00,2014-10-25 00:00:00,20.540895838622948,2.8727071298979863,11.864210240184269,2.1832257620834947
sz000037,2014-10-28,5.1,5.32,5.1,5.29,0.033202999999999996,2294010.0,12047708.5,1792749320.0,1792845930.0,0.006769107518055007,31.05,2014-09-30 00:00:00,2014-10-25 00:00:00,19.64942124610826,2.7480316805816765,11.349303681460105,2.0884737945007887
sz000037,2014-10-27,5.07,5.14,5.01,5.12,0.009862000000000001,1756802.0,8950462.82,1735137340.0,1735230850.0,0.005183927538554383,30.05,2014-09-30 00:00:00,2014-10-25 00:00:00,19.017967665703893,2.6597209653685443,10.984582585861737,2.021358624104642
sz000037,2014-10-24,5.09,5.14,5.03,5.07,0.0,1697600.0,8633126.27,1718192640.0,1718285230.0,0.005009235751353236,29.76,2014-06-30 00:00:00,2014-08-12 00:00:00,38.495244927532696,2.8498350997274353,8.328431948847973,2.0028839196908113
sz000037,2014-10-23,5.2,5.2,5.02,5.07,-0.025,2896465.0,14781063.51,1718192640.0,1718285230.0,0.008546816700367195,29.76,2014-06-30 00:00:00,2014-08-12 00:00:00,38.495244927532696,2.8498350997274353,8.328431948847973,2.0028839196908113
sz000037,2014-10-22,5.4,5.4,5.18,5.2,-0.031657,2292955.0,12088174.99,1762248860.0,1762343830.0,0.0067659944464370375,30.52,2014-06-30 00:00:00,2014-08-12 00:00:00,39.482302489777126,2.9229077945922417,8.54198148599792,2.0542399176316013
sz000037,2014-10-21,5.34,5.45,5.29,5.37,0.005618,3780573.0,20368119.1,1819860840.0,1819958920.0,0.011155620563822891,31.52,2014-06-30 00:00:00,2014-08-12 00:00:00,40.773055094916906,3.0184632868645114,8.821235332932568,2.1213969818872047
sz000037,2014-10-20,5.16,5.35,5.14,5.34,0.034884,2621981.0,13684909.82,1809694020.0,1809791550.0,0.007736876170923082,31.34,2014-06-30 00:00:00,2014-08-12 00:00:00,40.54527175817946,3.00160029639934,8.77195449259318,2.1095455549594426
sz000037,2014-10-17,5.3,5.34,5.01,5.16,-0.026414999999999998,3353260.0,17475157.48,1748693100.0,1748787340.0,0.009894716002482082,30.29,2014-06-30 00:00:00,2014-08-12 00:00:00,39.178566639526224,2.9004219761822,8.476268347557001,2.038436728135175
sz000037,2014-10-16,5.32,5.41,5.3,5.3,-0.016697999999999998,2900153.0,15506485.01,1796138260.0,1796235060.0,0.008557699171777566,31.11,2014-06-30 00:00:00,2014-08-12 00:00:00,40.2415471063402,2.9791153070170555,8.70624377692446,2.093742948109487
sz000037,2014-10-15,5.42,5.45,5.28,5.39,-0.005535,3217500.0,17203641.87,1826638720.0,1826737160.0,0.009494118793233508,31.64,2014-06-30 00:00:00,2014-08-12 00:00:00,40.924911274806924,3.029705326559953,8.854089361075701,2.1292979655380413
sz000037,2014-10-14,5.37,5.5,5.33,5.42,0.013084,4096334.0,22221499.79,1836805550.0,1836904530.0,0.012087360188997686,31.81,2014-06-30 00:00:00,2014-08-12 00:00:00,41.15269142182673,3.0465680808876665,8.903369511320863,2.141149226506756
sz000037,2014-10-13,5.46,5.46,5.22,5.35,-0.025501,6031464.0,32027203.35,1813082960.0,1813180670.0,0.017797493612757793,31.4,2014-06-30 00:00:00,2014-08-12 00:00:00,40.62120359400279,3.007221593557559,8.788382317084132,2.1134962416806067
sz000037,2014-10-10,5.6,5.6,5.48,5.49,-0.02139,5278399.0,29152437.95,1860528130.0,1860628390.0,0.015575368113353921,32.22,2014-06-30 00:00:00,2014-08-12 00:00:00,41.68419217875318,3.08591552537002,9.01835950276412,2.168802884026158
sz000037,2014-10-09,5.62,5.64,5.55,5.61,-0.001779,4413126.0,24659476.6,1901195410.0,1901297860.0,0.013022142137403962,32.93,2014-06-30 00:00:00,2014-08-12 00:00:00,42.595305769155416,3.1533660246370054,9.215478589799941,2.216207563816186
sz000037,2014-10-08,5.64,5.65,5.55,5.62,-0.0017760000000000002,4291627.0,24018458.26,1904584350.0,1904686990.0,0.012663625919219594,32.99,2014-06-30 00:00:00,2014-08-12 00:00:00,42.67121786573856,3.1589858604828045,9.231902143713608,2.2201572235168228
sz000037,2014-09-30,5.57,5.65,5.55,5.63,0.007156,3639278.0,20454000.75,1907973290.0,1908076110.0,0.010738690760183545,33.04,2014-06-30 00:00:00,2014-08-12 00:00:00,42.74713678066102,3.164606201095951,9.248327172772452,2.22410723797146
sz000037,2014-09-29,5.7,5.71,5.53,5.59,-0.017575,6859657.0,38402940.36,1894417530.0,1894519620.0,0.020241304793035778,32.81,2014-06-30 00:00:00,2014-08-12 00:00:00,42.44341172634728,3.142121181918145,9.182616370028528,2.2083046101810044
sz000037,2014-09-26,5.7,5.96,5.62,5.69,-0.0052450000000000005,7949412.0,46274851.94,1928306930.0,1928410840.0,0.023456926683347038,33.4,2014-06-30 00:00:00,2014-08-12 00:00:00,43.202699164157345,3.1983318644356005,9.346887925315956,2.247809868622037
sz000037,2014-09-25,5.55,5.8,5.55,5.72,0.030631,8409617.0,47957150.3,1938473750.0,1938578210.0,0.024814888125258335,33.57,2014-06-30 00:00:00,2014-08-12 00:00:00,43.430492095196655,3.2151955651749433,9.39617084137899,2.2596617947354245
sz000037,2014-09-24,5.52,5.6,5.47,5.55,0.005435,3920973.0,21721361.8,1880861770.0,1880963130.0,0.011569909334698212,32.57,2014-06-30 00:00:00,2014-08-12 00:00:00,42.13971061921934,3.1196379355704833,9.116910748249362,2.1925032283478996
sz000037,2014-09-23,5.46,5.6,5.41,5.52,0.005464,4504582.0,24851238.24,1870694950.0,1870795760.0,0.013292008213311314,32.4,2014-06-30 00:00:00,2014-08-12 00:00:00,41.91191933761937,3.102774356940511,9.067628189041917,2.180651388053827
sz000037,2014-09-22,5.5,5.64,5.34,5.49,-0.0036299999999999995,6700219.0,36787011.32,1860528130.0,1860628390.0,0.01977083910577584,32.22,2014-06-30 00:00:00,2014-08-12 00:00:00,41.684157103207454,3.085912928698105,9.018351914182825,2.1688010590670843
sz000037,2014-09-19,5.53,5.57,5.36,5.51,-0.007206999999999999,6265044.0,34357091.64,1867306010.0,1867406640.0,0.01848673557260173,32.34,2014-06-30 00:00:00,2014-08-12 00:00:00,41.83602186256858,3.0971556035389516,9.051207798491347,2.1767024891025266
sz000037,2014-09-18,5.62,5.8,5.42,5.55,-0.028020999999999997,11730293.0,65374334.66,1880861770.0,1880963130.0,0.034613456017025646,32.57,2014-06-30 00:00:00,2014-08-12 00:00:00,42.139722845113305,3.119638840663614,9.116913393316983,2.1925038644536436
sz000037,2014-09-17,5.37,5.86,5.2,5.71,0.065299,17897145.0,100204335.15,1935084810.0,1935189090.0,0.05281044914512042,33.51,2014-06-30 00:00:00,2014-08-12 00:00:00,43.354560998862425,3.20957432276172,9.37974317687623,2.255711146489424
sz000037,2014-09-16,5.16,5.74,5.13,5.36,0.02682,22422161.0,122961149.75,1816471900.0,1816569790.0,0.06616275372055026,31.46,2014-06-30 00:00:00,2014-08-12 00:00:00,40.69708222655088,3.012838952032922,8.804798631066237,2.1174441602680787
sz000037,2014-09-15,4.95,5.29,4.92,5.22,0.054545,15246499.0,78415502.25,1769026740.0,1769122080.0,0.04498898913195625,30.64,2014-06-30 00:00:00,2014-08-12 00:00:00,39.634095777790534,2.934145178349586,8.574821907506902,2.062137629056776
sz000037,2014-09-12,4.78,4.97,4.77,4.95,0.029106,9800927.0,47640147.11,1677525360.0,1677615760.0,0.028920330986829314,29.05,2014-06-30 00:00:00,2014-08-12 00:00:00,37.58407254103953,2.7823802477367834,8.13130014129971,1.9554761807763308
sz000037,2014-09-11,4.81,4.88,4.74,4.81,-0.0061979999999999995,9333463.0,44977019.62,1630080200.0,1630168040.0,0.027540949844062884,28.23,2014-06-30 00:00:00,2014-08-12 00:00:00,36.52108970411166,2.703686741440418,7.901324199158986,1.90016983748645
sz000037,2014-09-10,4.78,4.9,4.72,4.84,0.018947,10134092.0,48899994.47,1640247020.0,1640335410.0,0.029903425936417795,28.41,2014-06-30 00:00:00,2014-08-12 00:00:00,36.74885913301811,2.7205487022972568,7.9506020305443,1.9120205407983182
sz000037,2014-09-09,4.75,4.76,4.68,4.75,0.004228,6570496.0,31033540.07,1609746560.0,1609833310.0,0.019388055719777406,27.88,2014-06-30 00:00:00,2014-08-12 00:00:00,36.065525619112776,2.6699609521371146,7.802763078496036,1.8764671183077413
sz000037,2014-09-05,4.71,4.79,4.7,4.73,0.006383,9466531.0,44843318.75,1602968680.0,1603055060.0,0.02793360356236031,27.76,2014-06-30 00:00:00,2014-08-12 00:00:00,35.91368256921016,2.6587198844655946,7.769911891020802,1.8685668178020745
sz000037,2014-09-04,4.65,4.72,4.63,4.7,0.004274,7310139.0,34147712.47,1592801860.0,1592887690.0,0.021570575827931295,27.59,2014-06-30 00:00:00,2014-08-12 00:00:00,35.685899472874794,2.6418569117975905,7.720631102692315,1.856715403382285
sz000037,2014-09-03,4.64,4.73,4.6,4.68,0.008621,8369767.0,38865612.24,1586023980.0,1586109450.0,0.02469729969656575,27.47,2014-06-30 00:00:00,2014-08-12 00:00:00,35.53402704130028,2.630613668976385,7.687773558503271,1.848813574166298
sz000037,2014-09-02,4.6,4.64,4.55,4.64,0.008695999999999999,8056785.0,37108496.13,1572468220.0,1572552960.0,0.02377376020992017,27.23,2014-06-30 00:00:00,2014-08-12 00:00:00,35.230306568374324,2.608128988962539,7.622063746940894,1.833011184742632
sz000037,2014-09-01,4.51,4.61,4.46,4.6,0.019956,7512221.0,34159389.87,1558912460.0,1558996470.0,0.022166874334945012,27.0,2014-06-30 00:00:00,2014-08-12 00:00:00,34.92658498534178,2.5856442267665765,7.55635369520737,1.817208737560803
sz000037,2014-08-29,4.46,4.56,4.44,4.51,0.008948999999999999,6190499.0,27872585.8,1528411990.0,1528494360.0,0.018266770133097424,26.47,2014-06-30 00:00:00,2014-08-12 00:00:00,34.2432271444472,2.535054675659123,7.40850948002401,1.7816540493519357
sz000037,2014-08-28,4.56,4.6,4.44,4.47,-0.019737,7926127.0,35675346.6,1514856230.0,1514937870.0,0.023388217963100033,26.24,2014-06-30 00:00:00,2014-08-12 00:00:00,33.93950253625029,2.512569689507718,7.3427987737972975,1.765851444772665
sz000037,2014-08-27,4.69,4.77,4.53,4.56,-0.023555,11652385.0,54037507.06,1545356690.0,1545439970.0,0.03438356720091593,26.76,2014-06-30 00:00:00,2014-08-12 00:00:00,34.62285380173514,2.5631587538321026,7.490641566393201,1.8014057908670071
sz000037,2014-08-26,4.76,4.82,4.65,4.67,-0.035124,12444950.0,58686096.68,1582635040.0,1582720320.0,0.03672224804273258,27.41,2014-06-30 00:00:00,2014-08-12 00:00:00,35.458068607791674,2.6249904027693343,7.671339979612985,1.8448615035839266
sz000037,2014-08-25,4.9,4.9,4.72,4.84,-0.028112,24248254.0,116745065.19,1640247020.0,1640335410.0,0.07155114316866736,28.41,2014-06-30 00:00:00,2014-08-12 00:00:00,36.748834676986135,2.7205468917968054,7.950596739490862,1.9120192683660147
sz000037,2014-08-22,4.66,4.98,4.63,4.98,0.099338,38705510.0,189324407.02,1687692180.0,1687783130.0,0.11421125373704108,29.23,2014-06-30 00:00:00,2014-08-12 00:00:00,37.81179999854524,2.7992391014158065,8.180568892188052,1.9673247003420298
sz000037,2014-08-21,4.53,4.53,4.53,4.53,0.09951499999999999,7720232.0,34972650.96,1535189870.0,1535272610.0,0.02278066813976567,26.59,2014-06-30 00:00:00,2014-08-12 00:00:00,34.395063209445354,2.546295226232339,7.44135915631776,1.7895539864373196
sz000037,2014-01-08,4.17,4.25,4.09,4.12,-0.014353999999999999,2338169.0,9770450.39,1396243330.0,1396318570.0,0.00689941077820583,24.18,2013-09-30 00:00:00,2013-10-25 00:00:00,-12.314844535054506,2.1093346277411436,3.9592173523724967,1.8366461849383142
sz000037,2014-01-07,4.13,4.21,4.11,4.18,0.002398,968310.0,4035025.49,1416576970.0,1416653310.0,0.0028572650026916645,24.53,2013-09-30 00:00:00,2013-10-25 00:00:00,-12.494186082076634,2.140052947753193,4.016875584512591,1.8633933328378691
sz000037,2014-01-06,4.2,4.26,4.14,4.17,-0.011848000000000001,1513126.0,6347465.93,1413188030.0,1413264190.0,0.004464894469846309,24.47,2013-09-30 00:00:00,2013-10-25 00:00:00,-12.464296698593408,2.134933377513915,4.007266160260286,1.8589356052564643
sz000037,2014-01-03,4.11,4.23,4.06,4.22,0.026764,2724760.0,11363597.77,1430132730.0,1430209800.0,0.00804015386739663,24.77,2013-09-30 00:00:00,2013-10-25 00:00:00,-12.613744341552119,2.1605313529840706,4.055313514783442,1.8812243513715143
sz000037,2014-01-02,4.12,4.15,4.06,4.11,-0.004843,953221.0,3910216.98,1392854390.0,1392929450.0,0.002812740756052756,24.12,2013-09-30 00:00:00,2013-10-25 00:00:00,-12.284949941322562,2.1042141650701334,3.9496062530274156,1.8321876802960702
sz000037,2013-12-31,4.15,4.21,4.12,4.13,-0.002415,1382979.0,5745157.17,1399632270.0,1399707700.0,0.004080859946162859,24.24,2013-09-30 00:00:00,2013-10-25 00:00:00,-12.344735495326427,2.114454468058943,3.968827283561705,1.8411041476833003
sz000037,2013-12-30,4.1,4.22,4.1,4.14,0.007298999999999999,2428382.0,10065771.78,1403021210.0,1403096820.0,0.00716560905020103,24.3,2013-09-30 00:00:00,2013-10-25 00:00:00,-12.374620203116955,2.1195732374273297,3.978435204580767,1.8455611779279963
sz000037,2013-12-27,4.05,4.14,4.05,4.11,0.024938,1924762.0,7926156.11,1392854390.0,1392929450.0,0.0056795397112543835,24.12,2013-09-30 00:00:00,2013-10-25 00:00:00,-12.284952336016373,2.1042145752426338,3.9496070229204707,1.8321880374427022
sz000037,2013-12-26,4.11,4.14,4.01,4.01,-0.024331000000000002,784900.0,3189542.0,1358964990.0,1359038220.0,0.0023160633446487828,23.54,2013-09-30 00:00:00,2013-10-25 00:00:00,-11.986044361723707,2.0530164509878976,3.853508234566843,1.787608652857736
sz000037,2013-12-25,4.06,4.14,4.02,4.11,0.014815,1530558.0,6257606.26,1392854390.0,1392929450.0,0.004516332378433327,24.12,2013-09-30 00:00:00,2013-10-25 00:00:00,-12.2849494672104,2.104214083862352,3.9496061006005543,1.832187609586587
sz000037,2013-12-24,3.92,4.05,3.92,4.05,0.022727,849600.0,3407605.85,1372520750.0,1372594710.0,0.002506978491946296,23.77,2013-09-30 00:00:00,2013-10-25 00:00:00,-12.105604930169934,2.073495251708294,3.891946907170819,1.8054400157532033
sz000037,2013-12-23,3.98,4.09,3.95,3.96,0.005076,1334595.0,5354690.82,1342020290.0,1342092610.0,0.003938089639464393,23.24,2013-09-30 00:00:00,2013-10-25 00:00:00,-11.836594643702506,2.0274181200929413,3.805460212911968,1.7653195972661357
sz000037,2013-12-20,3.97,4.03,3.91,3.94,-0.01005,741921.0,2930771.49,1335242410.0,1335314360.0,0.002189241981910985,23.12,2013-09-30 00:00:00,2013-10-25 00:00:00,-11.77681552808196,2.017178919895551,3.786241252315216,1.7564040901047637
sz000037,2013-12-19,4.04,4.07,3.97,3.98,-0.014851,706559.0,2836274.04,1348798170.0,1348870850.0,0.0020848966750896467,23.36,2013-09-30 00:00:00,2013-10-25 00:00:00,-11.896374087662974,2.037657376529675,3.824679279069868,1.7742351533963976
sz000037,2013-12-18,3.97,4.11,3.97,4.04,0.004975,1085087.0,4389405.81,1369131810.0,1369205590.0,0.003201847658480742,23.71,2013-09-30 00:00:00,2013-10-25 00:00:00,-12.075710463760277,2.0683748108455418,3.8823358487597996,1.8009815300999112
sz000037,2013-12-17,3.93,4.27,3.93,4.02,0.022900999999999998,1772582.0,7196920.06,1362353930.0,1362427350.0,0.005230490758007356,23.59,2013-09-30 00:00:00,2013-10-25 00:00:00,-12.015931206010377,2.058135586303681,3.863116842468519,1.7920660017412486
sz000037,2013-12-16,4.02,4.02,3.91,3.93,-0.022387999999999998,1076229.0,4248456.38,1331853470.0,1331925240.0,0.003175709689745374,23.07,2013-09-30 00:00:00,2013-10-25 00:00:00,-11.746915103231277,2.012057458447769,3.776628278267906,1.7519447158046075
sz000037,2013-12-13,4.05,4.05,3.99,4.02,-0.0024809999999999997,631731.0,2536006.61,1362353930.0,1362427350.0,0.0018640960796435621,23.59,2013-09-30 00:00:00,2013-10-25 00:00:00,-12.015927692408928,2.058134984480314,3.8631157128471276,1.7920654777197984
sz000037,2013-12-12,4.0,4.08,4.0,4.03,0.004988,668355.0,2698026.39,1365742870.0,1365816470.0,0.0019721652656330547,23.65,2013-09-30 00:00:00,2013-10-25 00:00:00,-12.045813355343533,2.063253917449506,3.8727239409446104,1.7965226504154788
sz000037,2013-12-11,4.08,4.08,3.99,4.01,-0.017157,1091279.0,4386084.0,1358964990.0,1359038220.0,0.003220118856777907,23.54,2013-09-30 00:00:00,2013-10-25 00:00:00,-11.986027052406135,2.0530134861804386,3.8535026696285044,1.7876060713316768
sz000037,2013-12-10,4.06,4.16,4.05,4.08,0.004926,1742596.0,7158409.94,1382687570.0,1382762080.0,0.0051420088198232666,23.95,2013-09-30 00:00:00,2013-10-25 00:00:00,-12.195261147921014,2.0888519185469483,3.920771343570137,1.818811418844797
sz000037,2013-12-09,4.08,4.1,4.05,4.06,-0.002457,696399.0,2831418.95,1375909690.0,1375983840.0,0.002054916801988654,23.83,2013-09-30 00:00:00,2013-10-25 00:00:00,-12.135481764747867,2.0786126725221044,3.901552296955335,1.8098958717804066
sz000037,2013-12-06,4.05,4.07,4.04,4.07,0.002463,655539.0,2661006.94,1379298630.0,1379372960.0,0.0019343481331522822,23.89,2013-09-30 00:00:00,2013-10-25 00:00:00,-12.165372083958152,2.083732403036365,3.911162022043496,1.8143537389169255
sz000037,2013-12-05,4.06,4.08,4.03,4.06,0.0,835904.0,3389387.12,1375909690.0,1375983840.0,0.0024665646769302134,23.83,2013-09-30 00:00:00,2013-10-25 00:00:00,-12.135482390829537,2.078612779759816,3.901552498240329,1.809895965154749
sz000037,2013-12-04,4.0,4.09,3.99,4.06,0.00995,1160357.0,4701386.42,1375909690.0,1375983840.0,0.0034239524979288428,23.83,2013-09-30 00:00:00,2013-10-25 00:00:00,-12.135482390829537,2.078612779759816,3.901552498240329,1.809895965154749
sz000037,2013-12-03,3.97,4.03,3.94,4.02,0.015152,1107058.0,4427940.95,1362353930.0,1362427350.0,0.0032666791367497285,23.59,2013-09-30 00:00:00,2013-10-25 00:00:00,-12.015923947551398,2.058134343046503,3.8631145088770027,1.792064919208623
sz000037,2013-12-02,4.1,4.1,3.91,3.96,-0.041162,2437654.0,9698804.16,1342020290.0,1342092610.0,0.007192968624937854,23.24,2013-09-30 00:00:00,2013-10-25 00:00:00,-11.836576145790383,2.0274149516983693,3.80545426584098,1.7653168384720939
sz000037,2013-11-29,4.13,4.15,4.09,4.13,0.002427,1503892.0,6201564.77,1399632270.0,1399707700.0,0.004437647011382497,24.24,2013-09-30 00:00:00,2013-10-25 00:00:00,-12.344709060123174,2.1144499401341723,3.9688187846549474,1.8411002051150394
sz000037,2013-11-28,4.07,4.16,4.04,4.12,0.002433,1593786.0,6551848.73,1396243330.0,1396318570.0,0.004702903984508202,24.18,2013-09-30 00:00:00,2013-10-25 00:00:00,-12.314820989581458,2.1093305947806393,3.9592097825127883,1.8366426733468262
sz000037,2013-11-27,4.16,4.23,4.01,4.11,-0.019093000000000002,2795858.0,11454705.49,1392854390.0,1392929450.0,0.008249948065281973,24.12,2013-09-30 00:00:00,2013-10-25 00:00:00,-12.284931750632174,2.1042110492976986,3.949600404728086,1.832184967321334
sz000037,2013-11-26,4.02,4.41,3.96,4.19,0.039702,4438009.0,18551572.97,1419965910.0,1420042430.0,0.013095566294264066,24.59,2013-09-30 00:00:00,2013-10-25 00:00:00,-12.524053504187627,2.1451687563629362,4.026477948192934,1.8678477850819029
sz000037,2013-11-25,3.92,4.1,3.9,4.03,0.022843000000000002,2478591.0,9924486.56,1365742870.0,1365816470.0,0.007313764508248907,23.65,2013-09-30 00:00:00,2013-10-25 00:00:00,-12.045810726715569,2.0632534672078506,3.872723095841822,1.7965222583797118
sz000037,2013-11-22,3.97,3.97,3.91,3.94,-0.0075569999999999995,714694.0,2815968.16,1335242410.0,1335314360.0,0.0021089012294029813,23.12,2013-09-30 00:00:00,2013-10-25 00:00:00,-11.776793434295948,2.0171751355856675,3.7862341491722806,1.756400795019091
sz000037,2013-11-21,3.97,3.98,3.93,3.97,0.0,1024366.0,4051554.38,1345409230.0,1345481730.0,0.0030226736440629298,23.3,2013-09-30 00:00:00,2013-10-25 00:00:00,-11.866468335507378,2.0325350026003184,3.8150645922962636,1.7697749845775437
sz000037,2013-11-20,3.99,3.99,3.95,3.97,0.0,1129710.0,4474758.95,1345409230.0,1345481730.0,0.0033335200918756893,23.3,2013-09-30 00:00:00,2013-10-25 00:00:00,-11.866468335507378,2.0325350026003184,3.8150645922962636,1.7697749845775437
sz000037,2013-11-19,3.97,3.98,3.93,3.97,0.0,761801.0,3010207.92,1345409230.0,1345481730.0,0.0022479033907029165,23.3,2013-09-30 00:00:00,2013-10-25 00:00:00,-11.866468335507378,2.0325350026003184,3.8150645922962636,1.7697749845775437
sz000037,2013-11-18,3.91,3.97,3.91,3.97,0.015345,695625.0,2747042.51,1345409230.0,1345481730.0,0.002052632900400126,23.3,2013-09-30 00:00:00,2013-10-25 00:00:00,-11.866468335507378,2.0325350026003184,3.8150645922962636,1.7697749845775437
sz000037,2013-11-15,3.84,3.94,3.84,3.91,0.015584,895355.0,3498367.6,1325075590.0,1325147000.0,0.002641991201422705,22.95,2013-09-30 00:00:00,2013-10-25 00:00:00,-11.687129335848779,2.0018171189106346,3.757407179132476,1.7430282165939102
sz000037,2013-11-14,3.86,3.9,3.83,3.85,-0.005168,456311.0,1759359.66,1304741950.0,1304812260.0,0.0013464711163766905,22.6,2013-09-30 00:00:00,2013-10-25 00:00:00,-11.507791906773617,1.971099504236611,3.6997502709106045,1.7162816828484004
sz000037,2013-11-13,3.94,3.94,3.87,3.87,-0.017766,534704.0,2078221.49,1311519830.0,1311590500.0,0.0015777912256195168,22.71,2013-09-30 00:00:00,2013-10-25 00:00:00,-11.567573124681974,1.981339064522061,3.7189699073920064,1.72519750354673
sz000037,2013-11-12,3.94,3.95,3.91,3.94,0.0,381619.0,1500252.43,1335242410.0,1335314360.0,0.0011260718269126876,23.12,2013-09-30 00:00:00,2013-10-25 00:00:00,-11.776799749023118,2.017176217196779,3.7862361793544164,1.7564017368027676
sz000037,2013-11-11,3.91,3.95,3.85,3.94,0.007673,529381.0,2061759.28,1335242410.0,1335314360.0,0.0015620842510537093,23.12,2013-09-30 00:00:00,2013-10-25 00:00:00,-11.776799749023118,2.017176217196779,3.7862361793544164,1.7564017368027676
sz000037,2013-11-08,4.04,4.06,3.89,3.91,-0.032178,1219582.0,4817146.94,1325075590.0,1325147000.0,0.0035987121459236902,22.95,2013-09-30 00:00:00,2013-10-25 00:00:00,-11.687124443170669,2.0018162808736353,3.7574056061385157,1.743027486895816
sz000037,2013-11-07,4.04,4.11,4.03,4.04,-0.004926,1182615.0,4800866.09,1369131810.0,1369205590.0,0.003489630848617855,23.71,2013-09-30 00:00:00,2013-10-25 00:00:00,-12.075696195344463,2.068372366895602,3.882331261470101,1.8009794020964764
sz000037,2013-11-06,4.02,4.08,4.01,4.06,0.0,698940.0,2831770.98,1375909690.0,1375983840.0,0.0020624147214196886,23.83,2013-09-30 00:00:00,2013-10-25 00:00:00,-12.135475547893387,2.0786116076750094,3.9015502982392274,1.8098949445935444
sz000037,2013-11-05,4.05,4.06,3.97,4.06,0.0024690000000000003,820699.0,3304129.66,1375909690.0,1375983840.0,0.0024216981421215224,23.83,2013-09-30 00:00:00,2013-10-25 00:00:00,-12.135475547893387,2.0786116076750094,3.9015502982392274,1.8098949445935444
sz000037,2013-11-04,4.01,4.09,4.0,4.05,0.0125,902052.0,3655289.58,1372520750.0,1372594710.0,0.00266175254545332,23.77,2013-09-30 00:00:00,2013-10-25 00:00:00,-12.105586853950982,2.0734921555429735,3.8919410956740084,1.8054373198508327
sz000037,2013-11-01,4.0,4.04,3.95,4.0,0.002506,708065.0,2827841.17,1355576050.0,1355649100.0,0.002089340542716139,23.48,2013-09-30 00:00:00,2013-10-25 00:00:00,-11.95613516439603,2.0478934869560232,3.8438924401718597,1.7831479702230446
sz000037,2013-10-31,4.1,4.1,3.99,3.99,-0.022059,1146188.0,4619051.34,1352187110.0,1352259980.0,0.0033821429639275293,23.42,2013-09-30 00:00:00,2013-10-25 00:00:00,-11.926247986940758,2.0427742945738214,3.8342837251566175,1.7786905716504886
sz000037,2013-10-30,3.87,4.15,3.87,4.08,0.043477999999999996,1724568.0,6969812.41,1382687570.0,1382762080.0,0.005088812247006748,23.95,2013-09-30 00:00:00,2013-10-25 00:00:00,-12.195263300077162,2.0888522871766515,3.9207720354874356,1.8188117398191597
sz000037,2013-10-29,3.94,4.02,3.82,3.91,-0.015113,1465623.0,5738517.63,1325075590.0,1325147000.0,0.004324723791795154,22.95,2013-09-30 00:00:00,2013-10-25 00:00:00,-11.687130251023177,2.001817275665277,3.757407473360661,1.7430283530837831
sz000037,2013-10-28,3.99,4.04,3.95,3.97,-0.005013,753768.0,3000893.99,1345409230.0,1345481730.0,0.002224199814654163,23.3,2013-09-30 00:00:00,2013-10-25 00:00:00,-11.866468184698524,2.032534976769189,3.8150645438112805,1.7697749620857854
sz000037,2013-10-25,4.0,4.05,3.98,3.99,-0.004988,743500.0,2979802.35,1352187110.0,1352259980.0,0.002193901256757284,23.42,2013-09-30 00:00:00,2013-10-25 00:00:00,-11.926254498499503,2.042775409899013,3.834285818620023,1.7786915427897907
sz000037,2013-10-24,4.05,4.07,4.01,4.01,-0.007426,745123.0,3010283.76,1358964990.0,1359038220.0,0.0021986903650843864,23.54,2013-06-30 00:00:00,2013-08-13 00:00:00,-12.070212350704704,2.148361223326673,4.935338677020003,1.6699637637998563
sz000037,2013-10-23,4.14,4.16,4.02,4.04,-0.021792,1140254.0,4656601.36,1369131810.0,1369205590.0,0.0033646330662640872,23.71,2013-06-30 00:00:00,2013-08-13 00:00:00,-12.160516345083293,2.1644343125315326,4.972262699828933,1.682457694640255
sz000037,2013-10-22,4.12,4.15,4.09,4.13,0.002427,967578.0,3985318.71,1399632270.0,1399707700.0,0.002855105034124428,24.24,2013-06-30 00:00:00,2013-08-13 00:00:00,-12.43142189093045,2.212652434381576,5.083032136139689,1.7199385965359668
sz000037,2013-10-21,4.07,4.15,4.05,4.12,0.012284999999999999,1122264.0,4616142.56,1396243330.0,1396318570.0,0.003311548625267202,24.18,2013-06-30 00:00:00,2013-08-13 00:00:00,-12.401323877878838,2.2072953286190176,5.070725485386656,1.7157744120379506
sz000037,2013-10-18,4.07,4.1,4.03,4.07,-0.007317000000000001,804994.0,3277429.36,1379298630.0,1379372960.0,0.002375356219994216,23.89,2013-06-30 00:00:00,2013-08-13 00:00:00,-12.25082252318155,2.180507790413784,5.009187615529871,1.6949519276072949
sz000037,2013-10-17,4.1,4.17,4.04,4.1,-0.004854,1473238.0,6030883.9,1389465450.0,1389540330.0,0.004347193951458095,24.06,2013-06-30 00:00:00,2013-08-13 00:00:00,-12.341122516635776,2.196580167499377,5.04611000241756,1.7074453049032723
sz000037,2013-10-16,4.26,4.28,4.02,4.12,-0.035129,3165863.0,13130890.42,1396243330.0,1396318570.0,0.009341749593174423,24.18,2013-06-30 00:00:00,2013-08-13 00:00:00,-12.401318516715914,2.207294374392679,5.070723293283157,1.715773670298903
sz000037,2013-10-15,4.18,4.3,4.14,4.27,0.021531,3022880.0,12820806.35,1447077430.0,1447155410.0,0.008919838933566949,25.06,2013-06-30 00:00:00,2013-08-13 00:00:00,-12.852825420927685,2.2876574945175876,5.255338064138271,1.778241516533198
sz000037,2013-10-14,4.16,4.21,4.13,4.18,0.004808,2158228.0,9029114.09,1416576970.0,1416653310.0,0.006368445365873766,24.53,2013-06-30 00:00:00,2013-08-13 00:00:00,-12.58192401496155,2.239440109519523,5.144570320566161,1.7407611874071351
sz000037,2013-10-11,4.14,4.17,4.07,4.16,0.007264,1519991.0,6271863.92,1409799090.0,1409875060.0,0.004485151540280821,24.42,2013-06-30 00:00:00,2013-08-13 00:00:00,-12.521719587186357,2.2287244025918613,5.119953583735561,1.7324316560050628
sz000037,2013-10-10,4.06,4.2,4.04,4.13,0.017241,2148816.0,8838987.06,1399632270.0,1399707700.0,0.006340672668257356,24.24,2013-06-30 00:00:00,2013-08-13 00:00:00,-12.431417768515859,2.212651700638424,5.083030450542818,1.7199380261828705
sz000037,2013-10-09,4.06,4.06,4.02,4.06,0.0,667745.0,2700514.15,1375909690.0,1375983840.0,0.0019703652933791022,23.83,2013-06-30 00:00:00,2013-08-13 00:00:00,-12.220720329318084,2.1751499405140216,4.996879255302153,1.6907871646766797
sz000037,2013-10-08,4.05,4.07,3.99,4.06,0.00495,1100451.0,4424268.24,1375909690.0,1375983840.0,0.003247183367100205,23.83,2013-06-30 00:00:00,2013-08-13 00:00:00,-12.220720329318084,2.1751499405140216,4.996879255302153,1.6907871646766797
sz000037,2013-09-30,4.03,4.06,3.99,4.04,0.012531,387734.0,1565858.68,1369131810.0,1369205590.0,0.0011441158174536898,23.71,2013-06-30 00:00:00,2013-08-13 00:00:00,-12.160525726969583,2.1644359824011357,4.9722665359492035,1.6824589926629978
sz000037,2013-09-27,3.98,4.02,3.97,3.99,0.002513,486082.0,1941116.36,1352187110.0,1352259980.0,0.001434318642484323,23.42,2013-06-30 00:00:00,2013-08-13 00:00:00,-12.010028065283517,2.1376491015101124,4.910730176112341,1.661637019175707
sz000037,2013-09-26,4.08,4.08,3.93,3.98,-0.017284,1069330.0,4277344.95,1348798170.0,1348870850.0,0.003155352294109355,23.36,2013-06-30 00:00:00,2013-08-13 00:00:00,-11.97992251999078,2.1322906550938616,4.898420445532716,1.6574717925610012
sz000037,2013-09-25,4.05,4.1,4.03,4.05,-0.004914,1049600.0,4267247.0,1372520750.0,1372594710.0,0.003097133504174709,23.77,2013-06-30 00:00:00,2013-08-13 00:00:00,-12.190625287459223,2.169793363590154,4.9845738194277045,1.6866233912554605
sz000037,2013-09-24,4.11,4.11,4.05,4.07,-0.009732,992975.0,4051640.25,1379298630.0,1379372960.0,0.002930045866862059,23.89,2013-06-30 00:00:00,2013-08-13 00:00:00,-12.25082584566482,2.180508381778212,5.009188974046168,1.6949523872865868
sz000037,2013-09-23,4.07,4.15,4.07,4.11,0.009828,1114252.0,4576944.7,1392854390.0,1392929450.0,0.003287907015176224,24.12,2013-06-30 00:00:00,2013-08-13 00:00:00,-12.371222583850857,2.20193763887979,5.058417493088909,1.711609773603294
sz000037,2013-09-18,4.08,4.09,4.03,4.07,0.0,1078447.0,4385575.27,1379298630.0,1379372960.0,0.0031822545129331424,23.89,2013-06-30 00:00:00,2013-08-13 00:00:00,-12.250821510050086,2.180507610087847,5.009187201274781,1.6949517874363695
sz000037,2013-09-17,4.11,4.18,4.06,4.07,-0.021634999999999998,974210.0,4024544.71,1379298630.0,1379372960.0,0.002874674572829816,23.89,2013-06-30 00:00:00,2013-08-13 00:00:00,-12.250821510050086,2.180507610087847,5.009187201274781,1.6949517874363695
sz000037,2013-09-16,4.24,4.24,4.14,4.16,-0.018868,1291809.0,5416691.2,1409799090.0,1409875060.0,0.003811837784630716,24.42,2013-06-30 00:00:00,2013-08-13 00:00:00,-12.521729119551583,2.228726099245012,5.119957481384534,1.7324329748471883
sz000037,2013-09-13,4.23,4.3,4.21,4.24,0.009524,2089311.0,8896098.68,1436910610.0,1436988050.0,0.006165086803833956,24.89,2013-06-30 00:00:00,2013-08-13 00:00:00,-12.762532584353158,2.2715863912756005,5.218418603597207,1.7657491294211056
sz000037,2013-09-12,4.2,4.26,4.15,4.2,0.0,1611590.0,6766042.95,1423354850.0,1423431560.0,0.004755439586972989,24.65,2013-06-30 00:00:00,2013-08-13 00:00:00,-12.642128948250022,2.2501559064228287,5.169187264093974,1.7490907887490592
sz000037,2013-09-11,4.14,4.3,4.12,4.2,0.014493,2865904.0,12015971.8,1423354850.0,1423431560.0,0.008456638061829768,24.65,2013-06-30 00:00:00,2013-08-13 00:00:00,-12.642128948250022,2.2501559064228287,5.169187264093974,1.7490907887490592
sz000037,2013-09-10,4.09,4.16,4.09,4.14,0.012225,1842475.0,7629431.77,1403021210.0,1403096820.0,0.005436729285083295,24.3,2013-06-30 00:00:00,2013-08-13 00:00:00,-12.461524079762029,2.2180102833857194,5.09534049430994,1.7241033587703996
sz000037,2013-09-09,4.05,4.12,4.05,4.09,0.009877,1781312.0,7284829.14,1386076510.0,1386151200.0,0.005256251027585771,24.01,2013-06-30 00:00:00,2013-08-13 00:00:00,-12.311021837794987,2.1912225872565085,5.033802261661132,1.703280751582306
sz000037,2013-09-06,4.08,4.08,4.01,4.05,-0.007353,1162670.0,4701537.8,1372520750.0,1372594710.0,0.003430777640338042,23.77,2013-06-30 00:00:00,2013-08-13 00:00:00,-12.19061513213489,2.1697915560573304,4.984569667059586,1.686621986224368
sz000037,2013-09-05,4.1,4.11,4.07,4.08,-0.007298999999999999,820849.0,3356082.93,1382687570.0,1382762080.0,0.0024221407588122025,23.95,2013-06-30 00:00:00,2013-08-13 00:00:00,-12.280916712723547,2.185864215634894,5.021492702904039,1.6991155831069535
sz000037,2013-09-04,4.12,4.16,4.1,4.11,-0.002427,1001224.0,4123238.4,1392854390.0,1392929450.0,0.002954386811388088,24.12,2013-06-30 00:00:00,2013-08-13 00:00:00,-12.371214205207357,2.2019361475760517,5.058414067180389,1.7116086143833376
sz000037,2013-09-03,4.08,4.14,4.07,4.12,0.009804,923438.0,3799208.96,1396243330.0,1396318570.0,0.002724857822597441,24.18,2013-06-30 00:00:00,2013-08-13 00:00:00,-12.401312189892225,2.2072932482896506,5.070720706334663,1.7157727949566974
sz000037,2013-09-02,4.11,4.15,4.0,4.08,0.002457,1147625.0,4654488.59,1382687570.0,1382762080.0,0.003386383230450246,23.95,2013-06-30 00:00:00,2013-08-13 00:00:00,-12.280910146812873,2.1858630469770874,5.021490018196268,1.6991146746860752
sz000037,2013-08-30,4.06,4.18,4.06,4.07,-0.00489,1680225.0,6942622.11,1379298630.0,1379372960.0,0.004957966027994968,23.89,2013-06-30 00:00:00,2013-08-13 00:00:00,-12.25080990687169,2.1805055448533825,5.009182456899665,1.6949501820886834
sz000037,2013-08-29,4.07,4.1,4.03,4.09,0.004914,1657496.0,6734167.17,1386076510.0,1386151200.0,0.004890897862485239,24.01,2013-06-30 00:00:00,2013-08-13 00:00:00,-12.311010749436434,2.1912206136541514,5.033797727788551,1.703279217462073
sz000037,2013-08-28,4.14,4.14,4.04,4.07,-0.016908000000000003,1074449.0,4385993.48,1379298630.0,1379372960.0,0.0031704573142365845,23.89,2013-06-30 00:00:00,2013-08-13 00:00:00,-12.250810267780558,2.1805056090910777,5.009182604470184,1.6949502320219172
sz000037,2013-08-27,4.08,4.18,4.08,4.14,0.014706,815404.0,3370298.4,1403021210.0,1403096820.0,0.002406073789860953,24.3,2013-06-30 00:00:00,2013-08-13 00:00:00,-12.461509469897589,2.21800768299516,5.095334520543535,1.724101337435273
sz000037,2013-08-26,4.02,4.08,4.02,4.08,0.012407,821435.0,3335165.67,1382687570.0,1382762080.0,0.002423869912998495,23.95,2013-06-30 00:00:00,2013-08-13 00:00:00,-12.28090645950412,2.1858623906778516,5.021488510508004,1.69911416453167
sz000037,2013-08-23,4.02,4.06,4.01,4.03,-0.0049380000000000005,817822.0,3293779.0,1365742870.0,1365816470.0,0.002413208761617039,23.65,2013-06-30 00:00:00,2013-08-13 00:00:00,-12.130404530494276,2.1590747502514813,4.9599504058229575,1.6782916006424984
sz000037,2013-08-22,4.02,4.09,4.0,4.05,0.002475,738549.0,2984929.55,1372520750.0,1372594710.0,0.0021792919706314093,23.77,2013-06-30 00:00:00,2013-08-13 00:00:00,-12.190601721796508,2.169789169168837,4.984564183762377,1.686620130848629
sz000037,2013-08-21,4.06,4.11,4.04,4.04,-0.012225,807300.0,3283535.0,1369131810.0,1369205590.0,0.002382160706645184,23.71,2013-06-30 00:00:00,2013-08-13 00:00:00,-12.160504473225275,2.164432199475136,4.97225784559453,1.682456052119633
sz000037,2013-08-20,4.04,4.11,4.04,4.09,0.002451,789711.0,3225003.87,1386076510.0,1386151200.0,0.0023302595251397775,24.01,2013-06-30 00:00:00,2013-08-13 00:00:00,-12.311006528030447,2.1912198622916517,5.033796001715502,1.7032786334131083
sz000037,2013-08-19,4.08,4.11,4.01,4.08,0.012407,709264.0,2877520.09,1382687570.0,1382762080.0,0.002092878523526468,23.95,2013-06-30 00:00:00,2013-08-13 00:00:00,-12.280906027357394,2.1858623137606243,5.0214883338093355,1.6991141047423846
sz000037,2013-08-16,4.14,4.19,4.0,4.03,-0.033573,1959475.0,8022208.82,1365742870.0,1365816470.0,0.005781969961886018,23.65,2013-06-30 00:00:00,2013-08-13 00:00:00,-12.13040410364349,2.159074674276871,4.959950231289724,1.678291541585928
sz000037,2013-08-15,4.2,4.38,4.13,4.17,-0.007143000000000001,2424756.0,10161214.8,1413188030.0,1413264190.0,0.00715490954165526,24.47,2013-06-30 00:00:00,2013-08-13 00:00:00,-12.551805882537934,2.2340794227364,5.132255443287205,1.736594219310851
sz000037,2013-08-14,4.28,4.47,4.18,4.2,-0.023256,4287286.0,18309149.32,1423354850.0,1423431560.0,0.01265081662524282,24.65,2013-06-30 00:00:00,2013-08-13 00:00:00,-12.642108463291224,2.250152260331951,5.169178888084795,1.749087954570347
sz000037,2013-08-13,4.16,4.34,4.11,4.3,0.016548,6048245.0,25669932.55,1457244250.0,1457322780.0,0.017847010547476855,25.24,2013-06-30 00:00:00,2013-08-13 00:00:00,-12.943113511105492,2.3037277529546647,5.292255583945019,1.790733246961688
sz000037,2013-08-12,4.29,4.29,4.1,4.23,0.009547,6735575.0,28321571.97,1433521670.0,1433598920.0,0.019875166763262116,24.83,2013-03-31 00:00:00,2013-04-24 00:00:00,-12.723320444699931,2.4439989155363047,21.652309147445433,1.717444389064105
sz000037,2013-08-09,3.8,4.19,3.76,4.19,0.099738,4333379.0,17410380.69,1419965910.0,1420042430.0,0.012786826699240972,24.59,2013-03-31 00:00:00,2013-04-24 00:00:00,-12.60299960744763,2.4208867101148384,21.44754939338677,1.7012030039850596
sz000037,2013-08-08,3.83,3.9,3.8,3.81,-0.01039,935198.0,3578460.49,1291186190.0,1291255770.0,0.0027595589292974086,22.36,2013-03-31 00:00:00,2013-04-24 00:00:00,-11.460001934504065,2.2013304169855354,19.5024172970169,1.546916632857153
sz000037,2013-08-07,3.88,3.88,3.82,3.85,-0.012821,1186994.0,4569315.88,1304741950.0,1304812260.0,0.003502552286296919,22.6,2013-03-31 00:00:00,2013-04-24 00:00:00,-11.580321474625423,2.224442373243536,19.707174843642346,1.5631578428443056
sz000037,2013-08-06,3.79,3.97,3.75,3.9,0.029024,1724218.0,6658320.68,1321686650.0,1321757870.0,0.005087779467243616,22.89,2013-03-31 00:00:00,2013-04-24 00:00:00,-11.73072104919718,2.253332347267857,19.963122031204417,1.5834593754975597
sz000037,2013-08-05,3.72,3.79,3.72,3.79,0.013368999999999999,428798.0,1619793.75,1284408310.0,1284477520.0,0.0012652864415055056,22.24,2013-03-31 00:00:00,2013-04-24 00:00:00,-11.399851751948624,2.189776280502551,19.400054839541564,1.5387973220231597
sz000037,2013-08-02,3.78,3.8,3.74,3.74,-0.007958,722128.0,2714351.97,1267463600.0,1267531910.0,0.0021308373037300637,21.95,2013-03-31 00:00:00,2013-04-24 00:00:00,-11.249457751271871,2.1608873771573345,19.144117137529925,1.518496541756418
sz000037,2013-08-01,3.71,3.78,3.71,3.77,0.02168,851706.0,3191722.31,1277630430.0,1277699280.0,0.002513192817425302,22.13,2013-03-31 00:00:00,2013-04-24 00:00:00,-11.33969907652284,2.178221665168748,19.297688139746025,1.530677674691614
sz000037,2013-07-31,3.7,3.83,3.66,3.69,0.008197,528086.0,1962729.37,1250518900.0,1250586290.0,0.001558263005861007,21.66,2013-03-31 00:00:00,2013-04-24 00:00:00,-11.099071212632957,2.1319999071810622,18.888192134274945,1.4981967687452176
sz000037,2013-07-30,3.6,3.68,3.6,3.66,0.0,491667.0,1798777.12,1240352080.0,1240418930.0,0.0014507987280514738,21.48,2013-03-31 00:00:00,2013-04-24 00:00:00,-11.008831818219017,2.114665990060536,18.734624417921246,1.486015896442082
sz000037,2013-07-29,3.73,3.73,3.65,3.66,-0.016128999999999998,775175.0,2858210.49,1240352080.0,1240418930.0,0.00228736706758294,21.48,2013-03-31 00:00:00,2013-04-24 00:00:00,-11.008831818219017,2.114665990060536,18.734624417921246,1.486015896442082
sz000037,2013-07-26,3.75,3.75,3.63,3.72,-0.0053479999999999995,1229570.0,4523635.43,1260685720.0,1260753660.0,0.0036281845089829365,21.83,2013-03-31 00:00:00,2013-04-24 00:00:00,-11.189304104114274,2.1493325751653782,19.041748784059337,1.5103767632566483
sz000037,2013-07-25,3.66,4.03,3.66,3.74,0.019074,2172023.0,8264477.93,1267463600.0,1267531910.0,0.00640915133184101,21.95,2013-03-31 00:00:00,2013-04-24 00:00:00,-11.249466249617228,2.160889009588659,19.144131599855367,1.518497688896869
sz000037,2013-07-24,3.62,3.67,3.6,3.67,0.0054789999999999995,795793.0,2889102.79,1243741020.0,1243808050.0,0.0023482061482542403,21.54,2013-03-31 00:00:00,2013-04-24 00:00:00,-11.038910078774679,2.1204436670827222,18.785811040076936,1.4900759796608183
sz000037,2013-07-23,3.55,3.66,3.55,3.65,0.031073000000000003,911822.0,3290463.94,1236963140.0,1237029800.0,0.0026905816288107015,21.42,2013-03-31 00:00:00,2013-04-24 00:00:00,-10.978757466615095,2.1088890639016054,18.683444447946634,1.4819563408691958
sz000037,2013-07-22,3.51,3.58,3.49,3.54,-0.002817,1176407.0,4141221.71,1199684800.0,1199749450.0,0.003471312448069693,20.78,2013-03-31 00:00:00,2013-04-24 00:00:00,-10.647895412463614,2.04533438844932,18.120389582451132,1.4372952650968418
sz000037,2013-07-19,3.64,3.64,3.55,3.55,-0.019337,664000.0,2391316.91,1203073740.0,1203138580.0,0.0019593146468312073,20.84,2013-03-31 00:00:00,2013-04-24 00:00:00,-10.67797526879581,2.0511123720012474,18.171578920269532,1.4413555637198407
sz000037,2013-07-18,3.68,3.68,3.6,3.62,-0.016304,631048.0,2287379.72,1226796320.0,1226862440.0,0.001862080707904308,21.25,2013-03-31 00:00:00,2013-04-24 00:00:00,-10.888526709782884,2.0915568059580587,18.529891430868233,1.4697766345011902
sz000037,2013-07-17,3.74,3.74,3.67,3.68,-0.016043,1042201.0,3866809.78,1247129960.0,1247197170.0,0.0030753007328923445,21.6,2013-03-31 00:00:00,2013-04-24 00:00:00,-11.068995614278073,2.1262227415360626,18.83701004260283,1.494137044880929
sz000037,2013-07-16,3.72,3.74,3.68,3.74,0.002681,1177900.0,4368901.04,1267463600.0,1267531910.0,0.0034757179614467826,21.95,2013-03-31 00:00:00,2013-04-24 00:00:00,-11.249470875534271,2.160889898172443,19.144139472154606,1.5184983133215466
sz000037,2013-07-15,3.74,3.75,3.67,3.73,-0.0026739999999999997,1155739.0,4275636.46,1264074660.0,1264142790.0,0.003410325834709795,21.89,2013-03-31 00:00:00,2013-04-24 00:00:00,-11.219391686422973,2.1551120427857353,19.092951269800277,1.5144381047626783
sz000037,2013-07-12,3.72,3.78,3.68,3.74,0.005376,702745.0,2622185.81,1267463600.0,1267531910.0,0.002073642430441395,21.95,2013-03-31 00:00:00,2013-04-24 00:00:00,-11.249472776627673,2.1608902633499327,19.144142707399862,1.5184985699386941
sz000037,2013-07-11,3.61,3.76,3.61,3.72,0.021978,1171667.0,4352569.68,1260685720.0,1260753660.0,0.0034573257798144966,21.83,2013-03-31 00:00:00,2013-04-24 00:00:00,-11.18931899769606,2.1493354360457504,19.041774129678707,1.5103787736515433
sz000037,2013-07-10,3.5,3.64,3.46,3.64,0.037037,494600.0,1765616.54,1233574200.0,1233640680.0,0.0014594533510833803,21.36,2013-03-31 00:00:00,2013-04-24 00:00:00,-10.948688717072246,2.1031132138321476,18.63227401145495,1.4778975414847906
sz000037,2013-07-09,3.55,3.56,3.44,3.51,-0.016807,611725.0,2136388.87,1189517980.0,1189582090.0,0.0018050628793353756,20.6,2013-03-31 00:00:00,2013-04-24 00:00:00,-10.557664497093397,2.028002100052503,17.96683629557571,1.4251155373287459
sz000037,2013-07-08,3.7,3.7,3.57,3.57,-0.042894999999999996,601443.0,2179750.09,1209851620.0,1209916820.0,0.001774723011074697,20.95,2013-03-31 00:00:00,2013-04-24 00:00:00,-10.73814042318588,2.062669384396047,18.27396685653347,1.4494768955116093
sz000037,2013-07-05,3.76,3.76,3.69,3.73,0.002688,741227.0,2757805.69,1264074660.0,1264142790.0,0.0021871941567122312,21.89,2013-03-31 00:00:00,2013-04-24 00:00:00,-11.219396433187457,2.1551129545828798,19.09295934775544,1.5144387454998243
sz000037,2013-07-04,3.66,3.74,3.65,3.72,0.013624,716690.0,2654340.21,1260685720.0,1260753660.0,0.002114790988510602,21.83,2013-03-31 00:00:00,2013-04-24 00:00:00,-11.189319542257868,2.1493355406496137,19.041775056403825,1.5103788471586617
sz000037,2013-07-03,3.7,3.72,3.64,3.67,-0.010782,405120.0,1484710.8,1243741020.0,1243808050.0,0.001195417997872258,21.54,2013-03-31 00:00:00,2013-04-24 00:00:00,-11.038925224992568,2.1204465764914935,18.78583681562771,1.4900780241575393
sz000037,2013-07-02,3.71,3.74,3.66,3.71,0.0,466413.0,1729053.77,1257296780.0,1257364540.0,0.001376279854944033,21.77,2013-03-31 00:00:00,2013-04-24 00:00:00,-11.1592441959129,2.1435584234127294,18.99059339359748,1.5063191573116737
sz000037,2013-07-01,3.64,3.72,3.63,3.71,0.019231,314972.0,1157831.62,1257296780.0,1257364540.0,0.0009294115268473049,21.77,2013-03-31 00:00:00,2013-04-24 00:00:00,-11.1592441959129,2.1435584234127294,18.99059339359748,1.5063191573116737
sz000037,2013-06-28,3.7,3.75,3.62,3.64,-0.026737999999999998,834722.0,3073624.18,1233574200.0,1233640680.0,0.002463076870446869,21.36,2013-03-31 00:00:00,2013-04-24 00:00:00,-10.94868993968286,2.103113448681142,18.632276092070864,1.477897706517633
sz000037,2013-06-27,3.67,3.79,3.63,3.74,0.016304,1252290.0,4627657.74,1267463600.0,1267531910.0,0.003695226119314196,21.95,2013-03-31 00:00:00,2013-04-24 00:00:00,-11.249478495700911,2.160891361916054,19.1441524400119,1.5184993419219421
sz000037,2013-06-26,3.65,3.74,3.6,3.68,0.013774000000000002,601525.0,2195697.27,1247129960.0,1247197170.0,0.0017749649763846586,21.6,2013-03-31 00:00:00,2013-04-24 00:00:00,-11.069009366981641,2.126225383267264,18.837033446696953,1.4941389012755455
sz000037,2013-06-25,3.68,3.74,3.38,3.63,-0.032,1635303.0,5850706.33,1230185260.0,1230251560.0,0.004825411328696947,21.31,2013-03-31 00:00:00,2013-04-24 00:00:00,-10.918616345439558,2.097336668002202,18.581097410958414,1.4738382531762952
sz000037,2013-06-24,4.06,4.09,3.65,3.75,-0.07635499999999999,2226158.0,8408272.64,1270852550.0,1270921030.0,0.006568891489417872,22.01,2013-03-31 00:00:00,2013-04-24 00:00:00,-11.279562340330122,2.1666701115725227,19.195348565039684,1.5225601789011314
sz000037,2013-06-21,4.05,4.1,3.98,4.06,0.0,661816.0,2677352.39,1375909690.0,1375983840.0,0.0019528701480400212,23.83,2013-03-31 00:00:00,2013-04-24 00:00:00,-12.212010393961014,2.3457823206670554,20.78217125090233,1.6484257251445429
sz000037,2013-06-20,4.15,4.15,4.05,4.06,-0.021687,364100.0,1491320.0,1375909690.0,1375983840.0,0.0010743771998582262,23.83,2013-03-31 00:00:00,2013-04-24 00:00:00,-12.212010393961014,2.3457823206670554,20.78217125090233,1.6484257251445429
sz000037,2013-06-19,4.17,4.17,4.05,4.15,-0.002404,565510.0,2317954.47,1406410150.0,1406485940.0,0.0016686928062912517,24.36,2013-03-31 00:00:00,2013-04-24 00:00:00,-12.482723212265416,2.3977830414878016,21.242865270013105,1.6849676178733628
sz000037,2013-06-18,4.17,4.2,4.15,4.16,0.0,538702.0,2246788.3,1409799090.0,1409875060.0,0.0015895884285185627,24.42,2013-03-31 00:00:00,2013-04-24 00:00:00,-12.512803993064741,2.403561202618897,21.2940561810724,1.6890280412846106
sz000037,2013-06-17,4.14,4.21,4.13,4.16,0.0024100000000000002,596542.0,2487057.76,1409799090.0,1409875060.0,0.0017602612582194247,24.42,2013-03-31 00:00:00,2013-04-24 00:00:00,-12.512803993064741,2.403561202618897,21.2940561810724,1.6890280412846106
sz000037,2013-06-14,4.16,4.18,4.11,4.15,0.004843,756174.0,3132177.62,1406410150.0,1406485940.0,0.0022312993830427065,24.36,2013-03-31 00:00:00,2013-04-24 00:00:00,-12.482720636331182,2.397782546681395,21.24286088633633,1.6849672701635166
sz000037,2013-06-13,4.14,4.21,4.01,4.13,-0.002415,655083.0,2699050.85,1399632270.0,1399707700.0,0.0019330025807421545,24.24,2013-03-31 00:00:00,2013-04-24 00:00:00,-12.42255818703139,2.386226053902346,21.140477553544514,1.6768463035155907
sz000037,2013-06-07,4.25,4.25,4.12,4.14,-0.018956999999999998,767541.0,3200602.33,1403021210.0,1403096820.0,0.002264840842997662,24.3,2013-03-31 00:00:00,2013-04-24 00:00:00,-12.452631291600603,2.392002740520703,21.191655401338743,1.6809056907587727
sz000037,2013-06-06,4.25,4.26,4.21,4.22,-0.01171,557700.0,2360655.0,1430132730.0,1430209800.0,0.0016456472540139684,24.77,2013-03-31 00:00:00,2013-04-24 00:00:00,-12.69325737159391,2.4382241558430193,21.60114837100794,1.7133863559077154
sz000037,2013-06-05,4.2,4.3,4.16,4.27,0.016666999999999998,1440896.0,6114278.75,1447077430.0,1447155410.0,0.00425175999047957,25.06,2013-03-31 00:00:00,2013-04-24 00:00:00,-12.843656590265924,2.467114061503222,21.85709495290648,1.7336878405202072
sz000037,2013-06-04,4.37,4.38,4.1,4.2,-0.04328,2227333.0,9482064.53,1423354850.0,1423431560.0,0.006572358677809683,24.65,2013-03-31 00:00:00,2013-04-24 00:00:00,-12.633100700884288,2.4266687730625884,21.498774872112975,1.7052661692768698
sz000037,2013-06-03,4.45,4.49,4.38,4.39,-0.013483000000000002,1747781.0,7743618.51,1487744710.0,1487824890.0,0.005157308601688794,25.77,2013-03-31 00:00:00,2013-04-24 00:00:00,-13.204595598382273,2.536446162997103,22.471334217025852,1.7824088231424762
sz000037,2013-05-31,4.43,4.47,4.4,4.45,0.0067870000000000005,1661249.0,7368627.48,1508078350.0,1508159620.0,0.004901972135598923,26.12,2013-03-31 00:00:00,2013-04-24 00:00:00,-13.385066449318433,2.571112472463326,22.778456141177347,1.8067694962605574
sz000037,2013-05-30,4.47,4.47,4.41,4.42,-0.015590000000000001,1472431.0,6523180.9,1497911530.0,1497992260.0,0.004344812687302033,25.94,2013-03-31 00:00:00,2013-04-24 00:00:00,-13.294834408190047,2.55377996782172,22.624900938507697,1.7945896165331467
sz000037,2013-05-29,4.5,4.51,4.46,4.49,-0.002222,1732467.0,7754802.95,1521634110.0,1521716110.0,0.005112120436101423,26.35,2013-03-31 00:00:00,2013-04-24 00:00:00,-13.50538333437292,2.5942239187144787,22.98320916945957,1.8230103478562254
sz000037,2013-05-28,4.44,4.5,4.38,4.5,0.013513999999999998,2160499.0,9598174.11,1525023050.0,1525105240.0,0.006375146592046592,26.41,2013-03-31 00:00:00,2013-04-24 00:00:00,-13.535459124547662,2.600001121205797,23.03439158756714,1.8270700976131213
sz000037,2013-05-27,4.46,4.47,4.41,4.44,-0.004484,1958923.0,8677998.49,1504689410.0,1504770500.0,0.0057803411535939505,26.06,2013-03-31 00:00:00,2013-04-24 00:00:00,-13.354979925829996,2.56533320822978,22.727255457316957,1.8027082976782967
sz000037,2013-05-24,4.37,4.47,4.37,4.46,0.018265,1974902.0,8729893.92,1511467290.0,1511548750.0,0.0058274915893151745,26.18,2013-03-31 00:00:00,2013-04-24 00:00:00,-13.41513338392351,2.5768879739047694,22.829623489041825,1.810828050657445
sz000037,2013-05-23,4.45,4.47,4.37,4.38,-0.020134,2521401.0,11133055.48,1484355770.0,1484435760.0,0.007440087210359278,25.71,2013-03-31 00:00:00,2013-04-24 00:00:00,-13.174501120949373,2.5306653709051865,22.4201199972913,1.7783465509051624
sz000037,2013-05-22,4.51,4.6,4.45,4.47,-0.011062,3418283.0,15452418.5,1514856230.0,1514937870.0,0.010086584262851134,26.24,2013-03-31 00:00:00,2013-04-24 00:00:00,-13.445206917016584,2.5826647428374763,22.880802066089956,1.8148874957444818
sz000037,2013-05-21,4.51,4.58,4.44,4.52,-0.002208,3130761.0,14076156.25,1531800930.0,1531883480.0,0.009238171516190422,26.53,2013-03-31 00:00:00,2013-04-24 00:00:00,-13.59560146037121,2.6115537504246737,23.136740691620663,1.8351883492640406
sz000037,2013-05-20,4.55,4.6,4.46,4.53,0.002212,3623758.0,16341615.28,1535189870.0,1535272610.0,0.010692894775289263,26.59,2013-03-31 00:00:00,2013-04-24 00:00:00,-13.625686977216905,2.617332821294091,23.187939662395234,1.8392494119656608
sz000037,2013-05-17,4.5,4.55,4.44,4.52,0.0,3351330.0,15110813.4,1531800930.0,1531883480.0,0.009889021023116886,26.53,2013-03-31 00:00:00,2013-04-24 00:00:00,-13.595613480198702,2.6115560592909395,23.136761146738642,1.8351899717481535
sz000037,2013-05-16,4.58,4.6,4.45,4.52,-0.021644999999999998,3868920.0,17438548.79,1531800930.0,1531883480.0,0.011416312692798795,26.53,2013-03-31 00:00:00,2013-04-24 00:00:00,-13.595613480198702,2.6115560592909395,23.136761146738642,1.8351899717481535
sz000037,2013-05-15,4.63,4.67,4.48,4.62,0.0,3915576.0,17918942.67,1565690340.0,1565774710.0,0.011553983988941263,27.12,2013-03-31 00:00:00,2013-04-24 00:00:00,-13.896401081610158,2.6693337891572484,23.648635870148002,1.875791478295868
sz000037,2013-05-14,4.45,4.8,4.43,4.62,0.038202,7859432.0,36458305.62,1565690340.0,1565774710.0,0.023191415896453703,27.12,2013-03-31 00:00:00,2013-04-24 00:00:00,-13.896401081610158,2.6693337891572484,23.648635870148002,1.875791478295868
sz000037,2013-05-13,4.45,4.49,4.41,4.45,-0.01766,2909281.0,12930402.73,1508078350.0,1508159620.0,0.008584633848765219,26.12,2013-03-31 00:00:00,2013-04-24 00:00:00,-13.385064834791454,2.571112162331847,22.77845339360548,1.8067692783252853
sz000037,2013-05-10,4.5,4.63,4.41,4.53,-0.008753,7867749.0,35539971.21,1535189870.0,1535272610.0,0.02321595762614041,26.59,2013-03-31 00:00:00,2013-04-24 00:00:00,-13.625694601453116,2.617334285819418,23.187952637178046,1.839250441115383
sz000037,2013-05-09,4.26,4.57,4.26,4.57,0.10120499999999999,9129436.0,41375267.65,1548745630.0,1548829100.0,0.026938912182757863,26.82,2013-03-31 00:00:00,2013-04-24 00:00:00,-13.746013457244374,2.6404461106257244,23.392709019223304,1.855491558728937
sz000037,2013-05-08,4.15,4.16,4.07,4.15,0.004843,898892.0,3708539.68,1406410150.0,1406485940.0,0.0026524280985884526,24.36,2013-03-31 00:00:00,2013-04-24 00:00:00,-12.482701637973289,2.3977788973222287,21.242828555285627,1.6849647056896193
sz000037,2013-05-07,4.09,4.13,4.09,4.13,0.00978,562562.0,2313862.83,1399632270.0,1399707700.0,0.0016599939211175804,24.24,2013-03-31 00:00:00,2013-04-24 00:00:00,-12.422539280239093,2.3862224221318447,21.140445378318432,1.6768437514015817
sz000037,2013-05-06,4.02,4.11,4.02,4.09,0.012376,857386.0,3493721.02,1386076510.0,1386151200.0,0.0025299532274737128,24.01,2013-03-31 00:00:00,2013-04-24 00:00:00,-12.302223534075832,2.3631111946481855,20.935694288180034,1.6606030535379803
sz000037,2013-05-03,3.98,4.05,3.97,4.04,0.012531,797186.0,3197779.06,1369131810.0,1369205590.0,0.0023523165676794843,23.71,2013-03-31 00:00:00,2013-04-24 00:00:00,-12.151832455605263,2.33422285262411,20.679761559124312,1.64030266772225
sz000037,2013-05-02,3.99,4.04,3.96,3.99,0.0,767373.0,3055249.64,1352187110.0,1352259980.0,0.002264345109753339,23.42,2013-03-31 00:00:00,2013-04-24 00:00:00,-12.001442381127355,2.3053347034551135,20.42383053864456,1.6200024174294416
sz000037,2013-04-26,4.08,4.08,3.98,3.99,-0.007462999999999999,571002.0,2292141.27,1352187110.0,1352259980.0,0.0016848984605392372,23.42,2013-03-31 00:00:00,2013-04-24 00:00:00,-12.001442381127355,2.3053347034551135,20.42383053864456,1.6200024174294416
sz000037,2013-04-25,4.1,4.14,4.02,4.02,-0.019512,634362.0,2581615.34,1362353930.0,1362427350.0,0.0018718595688273164,23.59,2013-03-31 00:00:00,2013-04-24 00:00:00,-12.091682608434096,2.322668780564466,20.577399672399675,1.6321834021597597
sz000037,2013-04-24,4.08,4.13,4.05,4.1,0.004902,1304284.0,5330282.52,1389465450.0,1389540330.0,0.0038486487015564146,24.06,2013-03-31 00:00:00,2013-04-24 00:00:00,-12.332310653913252,2.3688905734332963,20.986895986895988,1.6646643326177981
sz000037,2013-04-23,4.18,4.21,4.08,4.08,-0.021583,568700.0,2353058.0,1382687570.0,1382762080.0,0.0016781057777209931,23.95,2012-12-31 00:00:00,2013-04-23 00:00:00,-12.028372808801938,1.9434031465983304,23.190251000363773,1.5877333588615954
sz000037,2013-04-22,4.16,4.17,4.12,4.17,0.0,499328.0,2070882.13,1413188030.0,1413264190.0,0.001473404611274552,24.47,2012-09-30 00:00:00,2012-10-25 00:00:00,-64.96529100780705,1.4976746847637055,23.635123442511095,1.6176729746498597
sz000037,2013-04-19,4.08,4.19,4.08,4.17,0.017072999999999998,536540.0,2234201.8,1413188030.0,1413264190.0,0.001583208852964881,24.47,2012-09-30 00:00:00,2012-10-25 00:00:00,-64.96529100780705,1.4976746847637055,23.635123442511095,1.6176729746498597
sz000037,2013-04-18,4.11,4.15,4.08,4.1,-0.012048,808259.0,3314295.71,1389465450.0,1389540330.0,0.0023849905012031784,24.06,2012-09-30 00:00:00,2012-10-25 00:00:00,-63.87475727681991,1.4725341099052927,23.238374671740473,1.5905180598146447
sz000037,2013-04-17,4.24,4.28,3.96,4.15,-0.014252,639027.0,2661466.53,1406410150.0,1406485940.0,0.001885624936651659,24.36,2012-09-30 00:00:00,2012-10-25 00:00:00,-64.65370511605818,1.4904915521252982,23.521764895197816,1.6099143073900801
sz000037,2013-04-16,4.12,4.22,4.12,4.21,0.021845,492249.0,2055581.34,1426743790.0,1426820680.0,0.0014525160750831093,24.71,2012-09-30 00:00:00,2012-10-25 00:00:00,-65.5884720192769,1.512041162777199,23.861843894380527,1.633190538951213
sz000037,2013-04-15,4.17,4.2,4.1,4.12,-0.021378,434040.0,1790269.92,1396243330.0,1396318570.0,0.0012807544083308173,24.18,2012-09-30 00:00:00,2012-10-25 00:00:00,-64.18632181913786,1.4797167503654656,23.351725451884125,1.5982761954613598
sz000037,2013-04-12,4.2,4.25,4.18,4.21,-0.004728,268500.0,1131700.0,1426743790.0,1426820680.0,0.0007922831050135498,24.71,2012-09-30 00:00:00,2012-10-25 00:00:00,-65.58847217734514,1.5120411664212183,23.86184395188758,1.6331905428872024
sz000037,2013-04-11,4.25,4.29,4.22,4.23,-0.004706,476527.0,2022294.9,1433521670.0,1433598920.0,0.0014061239897405948,24.83,2012-09-30 00:00:00,2012-10-25 00:00:00,-65.90004760240933,1.5192240577663376,23.975198691300044,1.6409489495205354
sz000037,2013-04-10,4.28,4.28,4.24,4.25,-0.0023469999999999997,338503.0,1439323.8,1440299550.0,1440377170.0,0.0009988462122341147,24.94,2012-09-30 00:00:00,2012-10-25 00:00:00,-66.21163957826465,1.5264073306644446,24.08855945208154,1.6487077682780522
sz000037,2013-04-09,4.25,4.28,4.22,4.26,0.002353,600700.0,2556265.0,1443688490.0,1443766290.0,0.0017725305824111681,25.0,2012-09-30 00:00:00,2012-10-25 00:00:00,-66.36740387515965,1.5299982365255702,24.145228302908468,1.6525863885319365
sz000037,2013-04-08,4.12,4.27,4.03,4.25,0.031553,669095.0,2764390.17,1440299550.0,1440377170.0,0.001974348842919516,24.94,2012-09-30 00:00:00,2012-10-25 00:00:00,-66.21160796162593,1.5264066017915543,24.088547949583095,1.64870698100563
sz000037,2013-04-03,4.21,4.25,4.1,4.12,-0.021378,984112.0,4106171.2,1396243330.0,1396318570.0,0.0029038931487679874,24.18,2012-09-30 00:00:00,2012-10-25 00:00:00,-64.1863364864684,1.4797170884981716,23.351730788028433,1.5982765606862956
sz000037,2013-04-02,4.27,4.31,4.2,4.21,-0.014052,841096.0,3567095.34,1426743790.0,1426820680.0,0.002481885104262483,24.71,2012-09-30 00:00:00,2012-10-25 00:00:00,-65.58848716508356,1.5120415119404345,23.861849404599976,1.6331909160904778
sz000037,2013-04-01,4.2,4.31,4.2,4.27,0.009456,1342127.0,5712436.89,1447077430.0,1447155410.0,0.00396031488791861,25.06,2012-09-30 00:00:00,2012-10-25 00:00:00,-66.52327218583896,1.533591540264227,24.201934995151845,1.656467598788656
sz000037,2013-03-29,4.21,4.28,4.2,4.23,-0.0070420000000000005,936414.0,3953386.54,1433521670.0,1433598920.0,0.00276314708238767,24.83,2012-09-30 00:00:00,2012-10-25 00:00:00,-65.90012064501967,1.5192257416511736,23.975225265045577,1.6409507683233902
sz000037,2013-03-28,4.44,4.44,4.22,4.26,-0.044843,1912547.0,8191108.9,1443688490.0,1443766290.0,0.005643496000996725,25.0,2012-09-30 00:00:00,2012-10-25 00:00:00,-66.3674804422943,1.5300000016628836,24.145256158916666,1.6525882950974664
sz000037,2013-03-27,4.49,4.55,4.42,4.46,-0.006682,1660469.0,7433480.6,1511467290.0,1511548750.0,0.004899670531407927,26.18,2012-09-30 00:00:00,2012-10-25 00:00:00,-69.48332100617417,1.6018309049327846,25.278834954794515,1.7301745106798843
sz000037,2013-03-26,4.64,4.67,4.48,4.49,-0.032327999999999996,1985272.0,9025855.95,1521634110.0,1521716110.0,0.005858091128096491,26.35,2012-09-30 00:00:00,2012-10-25 00:00:00,-69.95073179603527,1.6126063405000055,25.448884400357706,1.7418133071985853
sz000037,2013-03-25,4.64,4.68,4.6,4.64,0.0,1941375.0,8997907.34,1572468220.0,1572552960.0,0.005728560924430002,27.23,2012-09-30 00:00:00,2012-10-25 00:00:00,-72.28764684318165,1.6664803161608535,26.299081093963352,1.8000038310487285
sz000037,2013-03-22,4.52,4.67,4.44,4.64,0.022026,4284663.0,19702231.42,1572468220.0,1572552960.0,0.01264307670396035,27.23,2012-09-30 00:00:00,2012-10-25 00:00:00,-72.28764684318165,1.6664803161608535,26.299081093963352,1.8000038310487285
sz000037,2013-03-21,4.53,4.55,4.5,4.54,0.002208,1725001.0,7808918.53,1538578810.0,1538661730.0,0.005090089951258331,26.65,2012-09-30 00:00:00,2012-10-25 00:00:00,-70.72975329706057,1.630565480879012,25.732301422824218,1.76121138899473
sz000037,2013-03-20,4.48,4.53,4.45,4.53,0.011161,1917880.0,8631924.85,1535189870.0,1535272610.0,0.00565923249610812,26.59,2012-09-30 00:00:00,2012-10-25 00:00:00,-70.57392606830177,1.6269731242207328,25.675609676658162,1.7573312017013738
sz000037,2013-03-19,4.45,4.5,4.44,4.48,-0.002227,1176102.0,5261251.24,1518245170.0,1518326990.0,0.0034704124630938232,26.29,2012-09-30 00:00:00,2012-10-25 00:00:00,-69.79494469060985,1.609014908823355,25.3922072515239,1.737934118999223
sz000037,2013-03-18,4.53,4.57,4.44,4.49,-0.017505,1025485.0,4598182.43,1521634110.0,1521716110.0,0.0030259755743777326,26.35,2012-09-30 00:00:00,2012-10-25 00:00:00,-69.95072495508484,1.6126061827924338,25.4488819115409,1.7418131368549992
sz000037,2013-03-15,4.59,4.62,4.49,4.57,0.002193,1722753.0,7860816.51,1548745630.0,1548829100.0,0.005083456609979264,26.82,2012-09-30 00:00:00,2012-10-25 00:00:00,-71.19702894679855,1.6413378009989201,25.90230170284928,1.7728468204469228
sz000037,2013-03-14,4.58,4.62,4.52,4.56,-0.002188,1854302.0,8476901.24,1545356690.0,1545439970.0,0.005471628119719079,26.76,2012-09-30 00:00:00,2012-10-25 00:00:00,-71.0412355173091,1.6377462235307174,25.84562225324791,1.768967474774742
sz000037,2013-03-13,4.4,4.57,4.36,4.57,0.038636000000000004,1079776.0,4822311.13,1548745630.0,1548829100.0,0.0031861761056268486,26.82,2012-09-30 00:00:00,2012-10-25 00:00:00,-71.19701458522155,1.6413374699148908,25.902296477941643,1.7728464628354255
sz000037,2013-03-12,4.49,4.54,4.37,4.4,-0.028698,1477407.0,6579912.45,1491133650.0,1491214010.0,0.004359495743389602,25.82,2012-09-30 00:00:00,2012-10-25 00:00:00,-68.54857195901313,1.5802817059247813,24.938762451851897,1.7068987237448208
sz000037,2013-03-11,4.53,4.56,4.48,4.53,0.0,801147.0,3616227.94,1535189870.0,1535272610.0,0.0023640045970339816,26.59,2012-09-30 00:00:00,2012-10-25 00:00:00,-70.57390179265886,1.6269725645831896,25.675600844898803,1.757330597223954
sz000037,2013-03-08,4.59,4.61,4.52,4.53,-0.008753,1489121.0,6780031.95,1535189870.0,1535272610.0,0.004394061126784273,26.59,2012-09-30 00:00:00,2012-10-25 00:00:00,-70.57390179265886,1.6269725645831896,25.675600844898803,1.757330597223954
sz000037,2013-03-07,4.53,4.59,4.5,4.57,0.011062,2163947.0,9861527.66,1548745630.0,1548829100.0,0.006385320867701173,26.82,2012-09-30 00:00:00,2012-10-25 00:00:00,-71.19708992073505,1.6413392066590766,25.902323885871837,1.7728483387328828
sz000037,2013-03-06,4.5,4.56,4.47,4.52,0.006682,1436305.0,6491945.99,1531800930.0,1531883480.0,0.004238212990248021,26.53,2012-09-30 00:00:00,2012-10-25 00:00:00,-70.41812462612091,1.623381362032276,25.618927311947083,1.7534516565085851
sz000037,2013-03-05,4.4,4.5,4.37,4.49,0.020455,824057.0,3678499.14,1521634110.0,1521716110.0,0.0024316068532401654,26.35,2012-09-30 00:00:00,2012-10-25 00:00:00,-69.95071395547045,1.6126059292132726,25.448877909754106,1.7418128629582978
sz000037,2013-03-04,4.51,4.58,4.37,4.4,-0.028698,1391256.0,6214624.76,1491133650.0,1491214010.0,0.0041052835203605,25.82,2012-09-30 00:00:00,2012-10-25 00:00:00,-68.54855329776467,1.5802812757184517,24.938755662674108,1.7068982590690405
sz000037,2013-03-01,4.47,4.54,4.45,4.53,0.011161,1434469.0,6451372.96,1535189870.0,1535272610.0,0.004232795367520241,26.59,2012-09-30 00:00:00,2012-10-25 00:00:00,-70.57388258004686,1.6269721216660233,25.675593855128586,1.7573301188189054
sz000037,2013-02-28,4.4,4.54,4.38,4.48,0.015872999999999998,1376918.0,6156806.52,1518245170.0,1518326990.0,0.004062975309844062,26.29,2012-09-30 00:00:00,2012-10-25 00:00:00,-69.79490168236994,1.6090139173346514,25.39219160462932,1.737933048069403
sz000037,2013-02-27,4.45,4.45,4.37,4.41,0.002273,509007.0,2239063.58,1494522590.0,1494603130.0,0.0015019651660133154,25.88,2012-09-30 00:00:00,2012-10-25 00:00:00,-68.70435741708849,1.5838730996243144,24.99543900136072,1.7107778709242225
sz000037,2013-02-26,4.44,4.48,4.38,4.4,-0.01566,606910.0,2691308.72,1491133650.0,1491214010.0,0.0017908548975472457,25.82,2012-09-30 00:00:00,2012-10-25 00:00:00,-68.54854657073321,1.5802811206371064,24.938753215302338,1.706898091562102
sz000037,2013-02-25,4.41,4.49,4.38,4.47,0.013605,973037.0,4330797.21,1514856230.0,1514937870.0,0.0028712133229963346,26.24,2012-09-30 00:00:00,2012-10-25 00:00:00,-69.63909479522646,1.6054220296209707,25.335507258977934,1.734053367293925
sz000037,2013-02-22,4.42,4.45,4.38,4.41,0.0,843657.0,3727493.86,1494522590.0,1494603130.0,0.0024894420431610877,25.88,2012-09-30 00:00:00,2012-10-25 00:00:00,-68.70437181666078,1.5838734315842666,24.995444240091487,1.7107782294818246
sz000037,2013-02-21,4.46,4.46,4.37,4.41,-0.011211,1147203.0,5054901.94,1494522590.0,1494603130.0,0.0033851380125341566,25.88,2012-09-30 00:00:00,2012-10-25 00:00:00,-68.70437181666078,1.5838734315842666,24.995444240091487,1.7107782294818246
sz000037,2013-02-20,4.42,4.46,4.38,4.46,0.00905,1044250.0,4626233.2,1511467290.0,1511548750.0,0.003081346867916672,26.18,2012-09-30 00:00:00,2012-10-25 00:00:00,-69.48334964958224,1.6018315652624235,25.278845375597303,1.7301752239171595
sz000037,2013-02-19,4.55,4.59,4.4,4.42,-0.028571,1360162.0,6081525.45,1497911530.0,1497992260.0,0.004013532120952431,25.94,2012-09-30 00:00:00,2012-10-25 00:00:00,-68.86016515493012,1.5874650069495302,25.052123656505927,1.7146575728825724
sz000037,2013-02-18,4.53,4.63,4.51,4.55,0.0,1070071.0,4871739.29,1541967750.0,1542050850.0,0.0031575388330916778,26.71,2012-09-30 00:00:00,2012-10-25 00:00:00,-70.88543285709004,1.6341544332622664,25.78893944540046,1.765087899252104
sz000037,2013-02-08,4.45,4.57,4.42,4.55,0.022472,2124781.0,9555241.91,1541967750.0,1542050850.0,0.006269750810287699,26.71,2012-09-30 00:00:00,2012-10-25 00:00:00,-70.88543285709004,1.6341544332622664,25.78893944540046,1.765087899252104
sz000037,2013-02-07,4.4,4.47,4.38,4.45,0.0067870000000000005,1194623.0,5302447.08,1508078350.0,1508159620.0,0.003525063767409697,26.12,2012-09-30 00:00:00,2012-10-25 00:00:00,-69.32750516110957,1.5982388107080352,25.22214735014793,1.7262946068470373
sz000037,2013-02-06,4.47,4.53,4.32,4.42,-0.015590000000000001,3795903.0,16704344.22,1497911530.0,1497992260.0,0.011200855941071501,25.94,2012-09-30 00:00:00,2012-10-25 00:00:00,-68.8601513141405,1.5874646878714516,25.052118621066754,1.7146572282389791
sz000037,2013-02-05,4.5,4.53,4.38,4.49,-0.002222,1633914.0,7285012.98,1521634110.0,1521716110.0,0.004821312700462531,26.35,2012-09-30 00:00:00,2012-10-25 00:00:00,-69.95068245359201,1.6126052029860034,25.44886644900677,1.741812078543472
sz000037,2013-02-04,4.57,4.61,4.48,4.5,-0.017467,1558954.0,7053859.43,1525023050.0,1525105240.0,0.0046001226014255985,26.41,2012-09-30 00:00:00,2012-10-25 00:00:00,-70.10645900550223,1.6161963913676223,25.505539758349823,1.7456910039542584
sz000037,2013-02-01,4.67,4.67,4.54,4.58,-0.019272,1645523.0,7566966.01,1552134570.0,1552218220.0,0.004855568251404902,26.88,2012-09-30 00:00:00,2012-10-25 00:00:00,-71.35277797845185,1.644928354943419,25.95896500000491,1.776725060587541
sz000037,2013-01-31,4.62,4.68,4.53,4.67,0.0,2534445.0,11696509.76,1582635040.0,1582720320.0,0.007478577088751934,27.41,2012-09-30 00:00:00,2012-10-25 00:00:00,-72.75491061584032,1.6772523624729987,26.46907705296974,1.8116389667548403
sz000037,2013-01-30,4.7,4.7,4.59,4.67,-0.004264,1827759.0,8504696.47,1582635040.0,1582720320.0,0.005393305666984348,27.41,2012-09-30 00:00:00,2012-10-25 00:00:00,-72.75491061584032,1.6772523624729987,26.46907705296974,1.8116389667548403
sz000037,2013-01-29,4.69,4.75,4.65,4.69,0.002137,2086520.0,9773333.59,1589412920.0,1589498570.0,0.006156851172444226,27.53,2012-09-30 00:00:00,2012-10-25 00:00:00,-73.06646602697937,1.6844347924279117,26.582424511085012,1.8193968750299685
sz000037,2013-01-28,4.61,4.68,4.56,4.68,0.010799,3194538.0,14814185.07,1586023980.0,1586109450.0,0.009426363049063104,27.47,2012-09-30 00:00:00,2012-10-25 00:00:00,-72.9106559552031,1.6808428312974286,26.52573900682742,1.8155171149553087
sz000037,2013-01-25,4.44,4.75,4.41,4.63,0.035794,3591217.0,16528350.43,1569079280.0,1569163830.0,0.010596873543572636,27.17,2012-09-30 00:00:00,2012-10-25 00:00:00,-72.13170566571898,1.6628853325907806,26.242347891942327,1.7961208063673473
sz000037,2013-01-24,4.58,4.68,4.4,4.47,-0.028261,3155514.0,14316064.66,1514856230.0,1514937870.0,0.009311212048155883,26.24,2012-09-30 00:00:00,2012-10-25 00:00:00,-69.63904566517954,1.6054208970034394,25.335489384899244,1.7340521439276027
sz000037,2013-01-23,4.36,4.61,4.35,4.6,0.047836000000000004,3902077.0,17637940.74,1558912460.0,1558996470.0,0.011514151474547839,27.0,2012-09-30 00:00:00,2012-10-25 00:00:00,-71.66435191463916,1.6521112119647758,26.072319197746765,1.7844834301469865
sz000037,2013-01-22,4.54,4.54,4.33,4.39,-0.028761000000000002,2187972.0,9735626.53,1487744710.0,1487824890.0,0.006456213230292716,25.77,2012-09-30 00:00:00,2012-10-25 00:00:00,-68.39271786294722,1.5766887298821342,24.8820609310491,1.703017867440121
sz000037,2013-01-21,4.49,4.56,4.46,4.52,0.008929000000000001,2293708.0,10328701.57,1531800930.0,1531883480.0,0.006768216389580074,26.53,2012-09-30 00:00:00,2012-10-25 00:00:00,-70.41801025591766,1.6233787254034633,25.618885702745775,1.7534488086249842
sz000037,2013-01-18,4.37,4.49,4.37,4.48,0.015872999999999998,3118273.0,13806646.87,1518245170.0,1518326990.0,0.00920132223440566,26.29,2012-09-30 00:00:00,2012-10-25 00:00:00,-69.79481237621049,1.6090118585187494,25.392159114016717,1.7379308242948555
sz000037,2013-01-17,4.42,4.49,4.35,4.41,-0.002262,2002178.0,8864112.53,1494522590.0,1494603130.0,0.005907976927936567,25.88,2012-09-30 00:00:00,2012-10-25 00:00:00,-68.7042695063364,1.5838710729773793,24.99540701841344,1.7107756818961184
sz000037,2013-01-16,4.4,4.42,4.3,4.42,0.004545,1805851.0,7886460.88,1497911530.0,1497992260.0,0.005328660111188276,25.94,2012-09-30 00:00:00,2012-10-25 00:00:00,-68.86003089622366,1.5874619118219204,25.05207481163736,1.714654229763844
sz000037,2013-01-15,4.4,4.43,4.35,4.4,0.0068650000000000004,2432624.0,10691103.41,1491133650.0,1491214010.0,0.007178126253136331,25.82,2012-09-30 00:00:00,2012-10-25 00:00:00,-68.54847806342539,1.5802795413066817,24.93872829155226,1.706896385690879
sz000037,2013-01-14,4.26,4.39,4.25,4.37,0.013921000000000001,1960490.0,8499410.32,1480966830.0,1481046640.0,0.005784965015050337,25.65,2012-09-30 00:00:00,2012-10-25 00:00:00,-68.08110130298044,1.569504890235217,24.768691226283824,1.695258436524141
sz000037,2013-01-11,4.31,4.46,4.31,4.31,-0.002315,3727038.0,16236790.42,1460633190.0,1460711910.0,0.010997650806497145,25.3,2012-09-30 00:00:00,2012-10-25 00:00:00,-67.14635686900698,1.5479557975771454,24.42862040167214,1.671982764460092
sz000037,2013-01-10,4.26,4.32,4.2,4.32,0.01171,2037093.0,8709638.56,1464022130.0,1464101030.0,0.006011003235313117,25.36,2012-09-30 00:00:00,2012-10-25 00:00:00,-67.30216137258452,1.5515476303413855,24.4853038801547,1.6758623858834119
sz000037,2013-01-09,4.21,4.29,4.2,4.27,0.004706,2279986.0,9650815.21,1447077430.0,1447155410.0,0.006727725841180454,25.06,2012-09-30 00:00:00,2012-10-25 00:00:00,-66.52317499341166,1.5335892996425708,24.20189963542388,1.6564651786415194
sz000037,2013-01-08,4.21,4.29,4.15,4.25,0.007109000000000001,1834096.0,7733250.06,1440299550.0,1440377170.0,0.005412004745818326,24.94,2012-09-30 00:00:00,2012-10-25 00:00:00,-66.21158328248427,1.5264060328519693,24.088538971026228,1.6487063664808603
sz000037,2013-01-07,4.21,4.23,4.16,4.22,0.004762,1462428.0,6112972.44,1430132730.0,1430209800.0,0.0043152960774487,24.77,2012-09-30 00:00:00,2012-10-25 00:00:00,-65.74420770987477,1.515631409164221,23.918502337906055,1.6370684468919057
sz000037,2013-01-04,4.2,4.29,4.19,4.2,-0.002375,1136450.0,4813388.54,1423354850.0,1423431560.0,0.00335340832259784,24.65,2012-09-30 00:00:00,2012-10-25 00:00:00,-65.43261758493531,1.508448178936127,23.80514225050913,1.6293096742232547
