code,date,open,high,low,close,change,volume,money,traded_market_value,market_value,turnover,adjust_price,report_type,report_date,PE_TTM,PS_TTM,PC_TTM,PB
sz002143,2014-12-31,14.97,14.98,14.54,14.79,-0.000676,1098991.0,16148483.01,1330796490.0,16359904740.0,0.012213796032780338,29.35,2014-09-30 00:00:00,2014-10-15 00:00:00,-2974.652182849603,0.8929592500726309,21.792709010217436,6.843289585144168
sz002143,2014-12-30,15.35,15.7,14.68,14.8,-0.041451,1571385.0,23569417.67,1331696290.0,16370966200.0,0.01746381526676777,29.37,2014-09-30 00:00:00,2014-10-15 00:00:00,-2976.664407989404,0.8935632988626621,21.80745084699,6.847918778238258
sz002143,2014-12-29,14.72,15.98,14.6,15.44,0.054645000000000006,3369623.0,52357656.55,1389283160.0,17078899879.999998,0.03744879418246169,30.64,2014-09-30 00:00:00,2014-10-15 00:00:00,-3105.3857528299586,0.9322040906230794,22.750481036431108,7.14404665618373
sz002143,2014-12-26,14.89,14.89,14.57,14.64,-0.014805,1488628.0,21841433.75,1317299570.0,16193982780.0,0.016544083378088405,29.05,2014-09-30 00:00:00,2014-10-15 00:00:00,-2944.4844026472974,0.8839032002456556,21.571695723614212,6.7738875699251695
sz002143,2014-12-25,14.73,15.15,14.58,14.86,0.006093,1097405.0,16333074.55,1337095060.0,16437334980.0,0.012196169732315068,29.49,2014-09-30 00:00:00,2014-10-15 00:00:00,-2988.732588621843,0.8971860395613613,21.895863989985948,6.875682042565348
sz002143,2014-12-24,14.49,14.8,14.48,14.77,0.020028,1375732.0,20159017.63,1328996900.0,16337781810.0,0.01528939731913596,29.31,2014-09-30 00:00:00,2014-10-15 00:00:00,-2970.632524649156,0.8917525910242508,21.763260444100048,6.834042223298789
sz002143,2014-12-23,14.26,14.75,14.25,14.48,0.004161,1701835.0,24500882.36,1302902860.0,16016999370.0,0.018913590227286784,28.73,2014-09-30 00:00:00,2014-10-15 00:00:00,-2912.304882463184,0.874243247267968,21.335944154572278,6.699857477734719
sz002143,2014-12-22,15.6,15.72,14.19,14.42,-0.084444,2399503.0,35199719.45,1297504090.0,15950630580.0,0.026667224810058208,28.61,2014-09-30 00:00:00,2014-10-15 00:00:00,-2900.23699632149,0.8706205949722882,21.247533169055835,6.67209489089371
sz002143,2014-12-19,16.42,16.46,15.52,15.75,-0.040219,2094789.0,33300296.51,1417176790.0,17421805250.0,0.023280741670910373,31.25,2014-09-30 00:00:00,2014-10-15 00:00:00,-3167.7330456263626,0.9509200911492997,23.207245836470772,7.287478746132088
sz002143,2014-12-18,16.35,16.71,16.3,16.41,-0.005455,1226252.0,20203399.09,1476563250.0,18151861850.0,0.01362812959079132,32.56,2014-09-30 00:00:00,2014-10-15 00:00:00,-3300.4748433511004,0.9907677805137836,24.17973041399108,7.592855814120188
sz002143,2014-12-17,16.75,17.14,16.36,16.5,-0.023669,1721745.0,28628248.58,1484661400.0,18251415020.0,0.01913486300647407,32.74,2014-09-30 00:00:00,2014-10-15 00:00:00,-3318.577684620706,0.9962020627661728,24.312354306734314,7.634502022653763
sz002143,2014-12-16,17.2,17.2,16.81,16.9,-0.019153,1230636.0,20903424.04,1520653200.0,18693873570.0,0.013676851763439553,33.53,2014-09-30 00:00:00,2014-10-15 00:00:00,-3399.0293093435594,1.0203527930242644,24.901753920273265,7.819583750443
sz002143,2014-12-15,17.02,17.3,16.64,17.23,0.01115,1567516.0,26729208.01,1550346420.0,19058901870.0,0.017420816619810688,34.19,2014-09-30 00:00:00,2014-10-15 00:00:00,-3465.402156853779,1.0402772226700638,25.388010485094274,7.972276767368406
sz002143,2014-12-12,17.09,17.09,16.62,17.04,0.0053100000000000005,1612327.0,27131245.48,1533250320.0,18848734060.0,0.017918830162057295,33.81,2014-09-30 00:00:00,2014-10-15 00:00:00,-3427.188999509251,1.0288060353756256,25.108055664435813,7.884366085514915
sz002143,2014-12-11,16.7,17.25,16.5,16.95,0.009529000000000001,1631807.0,27735024.81,1525152170.0,18749180890.0,0.01813532393295549,33.63,2014-09-30 00:00:00,2014-10-15 00:00:00,-3409.086748872737,1.0233719304250686,24.975436098751445,7.842721235753066
sz002143,2014-12-10,16.6,16.87,16.0,16.79,0.03642,1869342.0,31037992.08,1510755450.0,18572197470.0,0.020775203677074274,33.32,2014-09-30 00:00:00,2014-10-15 00:00:00,-3376.908190723335,1.013712266240067,24.73969157770747,7.7686933567565335
sz002143,2014-12-09,17.33,17.33,16.2,16.2,-0.072696,4343094.0,72507994.89,1457667560.0,17919571110.0,0.04826760554374963,32.15,2014-09-30 00:00:00,2014-10-15 00:00:00,-3258.2429813428294,0.9780902204126389,23.87033401295563,7.4956999640652775
sz002143,2014-12-08,18.1,18.18,17.32,17.47,-0.045355,3329133.0,58948758.18,1571941500.0,19324377000.0,0.03699880276078976,34.67,2014-09-30 00:00:00,2014-10-15 00:00:00,-3513.672950125125,1.0547676063218092,25.7416489230669,8.083325386351484
sz002143,2014-12-05,17.7,18.5,17.3,18.3,0.033315,5031719.0,90049547.02,1646624470.0,20242478480.0,0.05592073929279091,36.31,2014-09-30 00:00:00,2014-10-15 00:00:00,-3680.6068749379356,1.1048794120555905,26.96462970325818,8.46736261788569
sz002143,2014-12-04,17.7,17.98,17.6,17.71,-0.0011279999999999999,2865340.0,51049993.7,1593536570.0,19589852120.0,0.031844372043498194,35.14,2014-09-30 00:00:00,2014-10-15 00:00:00,-3561.940816631846,1.0692571113896445,26.09526591916132,8.19436727221195
sz002143,2014-12-03,17.92,18.08,17.6,17.73,-0.021523,3160316.0,56113232.84,1595336160.0,19611975050.0,0.03512263063102638,35.18,2014-09-30 00:00:00,2014-10-15 00:00:00,-3565.963223147556,1.0704645954533158,26.124734619812468,8.203620956651053
sz002143,2014-12-02,18.5,18.55,18.04,18.12,-0.024758000000000002,3534773.0,64324588.72,1630428160.0,20043372130.0,0.03928421278003442,35.96,2014-09-30 00:00:00,2014-10-15 00:00:00,-3644.4016805173305,1.0940109940788754,26.699385493795425,8.38407132375217
sz002143,2014-12-01,17.7,18.58,17.63,18.58,0.050905,6010381.0,109309029.43,1671818720.0,20552199460.0,0.06679724161720117,36.87,2014-09-30 00:00:00,2014-10-15 00:00:00,-3736.920354657952,1.1217841254569383,27.377189962896825,8.596913713470267
sz002143,2014-11-28,17.57,17.74,17.33,17.68,-0.003944,2491800.0,43610775.62,1590837190.0,19556667730.0,0.027692980951746545,35.08,2014-09-30 00:00:00,2014-10-15 00:00:00,-3555.9069132394957,1.0674457971528715,26.051060717093197,8.180486070073192
sz002143,2014-11-27,17.32,17.84,17.32,17.75,0.018944,2733481.0,48114503.43,1597135750.0,19634097980.0,0.030378937889280856,35.22,2014-09-30 00:00:00,2014-10-15 00:00:00,-3569.986941737709,1.0716724733879135,26.154212932900556,8.212877659562505
sz002143,2014-11-26,17.39,17.76,17.25,17.42,-0.006842,1794108.0,31346067.1,1567442520.0,19269069680.0,0.019939079718215125,34.57,2014-09-30 00:00:00,2014-10-15 00:00:00,-3503.614469232567,1.0517481563146878,25.66795911541807,8.06018550534917
sz002143,2014-11-25,17.21,17.74,16.98,17.54,0.015634000000000002,2938492.0,50925865.87,1578240060.0,19401807240.0,0.03265735738579592,34.8,2014-09-30 00:00:00,2014-10-15 00:00:00,-3527.7513439277204,1.0589937918384464,25.844789162870434,8.115713215167345
sz002143,2014-11-24,17.25,17.47,17.14,17.27,0.0017399999999999998,1385211.0,23918073.9,1553945600.0,19103147720.0,0.015394743528988402,34.27,2014-09-30 00:00:00,2014-10-15 00:00:00,-3473.447466240517,1.042692339798044,25.446951522763552,7.990785278129076
sz002143,2014-11-21,17.05,17.43,17.05,17.24,-0.002315,1430596.0,24568621.75,1551246220.0,19069963330.0,0.015899136269933986,34.21,2014-09-30 00:00:00,2014-10-15 00:00:00,-3467.414165592386,1.040881206498736,25.40275073648207,7.976905462624109
sz002143,2014-11-20,17.58,17.7,17.18,17.28,-0.0068969999999999995,1170235.0,20269010.65,1554845400.0,19114209190.0,0.013005576502975796,34.29,2014-09-30 00:00:00,2014-10-15 00:00:00,-3475.4598551570743,1.0432964377521323,25.461694559387052,7.995414847997224
sz002143,2014-11-19,16.91,17.78,16.91,17.4,0.020528,2077617.0,36266579.43,1565642930.0,19246946750.0,0.023089898154491712,34.53,2014-09-30 00:00:00,2014-10-15 00:00:00,-3499.5965727191183,1.0505420261061866,25.638523455660746,8.050942196325279
sz002143,2014-11-18,16.97,17.35,16.68,17.05,0.0017629999999999998,1513160.0,25823143.37,1534150120.0,18859795520.0,0.016816723255218338,33.83,2014-09-30 00:00:00,2014-10-15 00:00:00,-3429.201915791745,1.0294102916394126,25.122802564614336,7.888996868606522
sz002143,2014-11-17,16.68,17.1,16.2,17.02,0.023452,1912257.0,31959315.49,1531450730.0,18826611130.0,0.021252145761163337,33.77,2014-09-30 00:00:00,2014-10-15 00:00:00,-3423.1668725953596,1.027598635245475,25.078589012185855,7.875113044309406
sz002143,2014-11-14,17.0,17.19,16.48,16.63,-0.040945999999999996,2114842.0,35373952.63,1496358740.0,18395214050.0,0.023503603460758343,33.0,2014-09-30 00:00:00,2014-10-15 00:00:00,-3344.7263502297706,1.0040516167299247,24.50392300976094,7.694657926614443
sz002143,2014-11-13,17.14,17.38,16.15,17.34,0.013441999999999999,3894216.0,64764221.46,1560244170.0,19180577970.0,0.04327893462982784,34.41,2014-09-30 00:00:00,2014-10-15 00:00:00,-3487.5266150078837,1.046918751947153,25.550097293542326,8.023174843767341
sz002143,2014-11-12,16.95,17.38,16.88,17.11,-0.005233,1900298.0,32475727.51,1539548890.0,18926164310.0,0.021119237583939278,33.95,2014-09-30 00:00:00,2014-10-15 00:00:00,-3441.2690760871205,1.033032726043674,25.211208232481315,7.916757785613131
sz002143,2014-11-11,18.58,18.65,17.1,17.2,-0.07824199999999999,4447707.0,78590591.85,1547647040.0,19025717480.0,0.04943023727167145,34.13,2014-09-30 00:00:00,2014-10-15 00:00:00,-3459.371969604059,1.038467023980162,25.343832507995657,7.95840411434349
sz002143,2014-11-10,18.73,18.95,18.55,18.66,-0.002139,1350157.0,25276798.81,1679017080.0,20640691170.0,0.015005165772345806,37.03,2014-09-30 00:00:00,2014-10-15 00:00:00,-3753.01540057592,1.1266156886950394,27.495104472101847,8.633940919789673
sz002143,2014-11-07,19.04,19.15,18.5,18.7,-0.017856999999999998,1742743.0,32820395.36,1682616260.0,20684937030.0,0.019368227251054856,37.11,2014-09-30 00:00:00,2014-10-15 00:00:00,-3761.0603085759644,1.1290306853309624,27.55404256915728,8.652448507146461
sz002143,2014-11-06,18.68,19.13,18.56,19.04,0.025862,1855738.0,35073801.16,1713209280.0,3972696000.0,0.02062401361729724,37.78,2014-09-30 00:00:00,2014-10-15 00:00:00,-3829.4426662675032,1.1495583487648564,28.055021080593434,8.809764471310656
sz002143,2014-11-05,19.22,19.55,18.5,18.56,-0.034339,2476817.0,46753968.03,1670019130.0,3872544000.0,0.027526465232766525,36.83,2014-09-30 00:00:00,2014-10-15 00:00:00,-3732.902345800413,1.1205779615239249,27.347753480091317,8.587670145994935
sz002143,2014-11-04,19.5,20.44,19.2,19.22,-0.0072310000000000004,5925238.0,117386947.16,1729405590.0,4010253000.0,0.06585099239791402,38.14,2014-09-30 00:00:00,2014-10-15 00:00:00,-3865.6447198348205,1.1604258238905005,28.320242279735137,8.893048539803237
sz002143,2014-11-03,18.75,19.36,18.55,19.36,0.032533,4479881.0,85513076.5,1742002710.0,4039464000.0,0.049787807827233514,38.42,2014-09-30 00:00:00,2014-10-15 00:00:00,-3893.8007933716913,1.1688779805679876,28.526517527979962,8.957822554696246
sz002143,2014-10-31,18.6,18.88,18.39,18.75,0.004285,2022158.0,37655104.76,1687115230.0,3912187500.0,0.0224735464571676,37.21,2014-09-30 00:00:00,2014-10-15 00:00:00,-3771.1151056399085,1.1320490294915395,27.627705388573503,8.675579913374436
sz002143,2014-10-30,18.58,18.98,18.51,18.67,0.005927,2273088.0,42631633.96,1679916870.0,3895495500.0,0.025262293460985366,37.05,2014-09-30 00:00:00,2014-10-15 00:00:00,-3755.02482426792,1.1272188965199514,27.509825785084413,8.638563668056811
sz002143,2014-10-29,18.39,18.94,18.39,18.56,0.0,2055498.0,38385867.73,1670019130.0,3872544000.0,0.022844075372956955,36.83,2014-09-30 00:00:00,2014-10-15 00:00:00,-3732.8999264041227,1.1205772352466445,27.347735755262967,8.587664580090614
sz002143,2014-10-28,18.05,18.9,18.05,18.56,0.018102,2497582.0,46129998.87,1670019130.0,3872544000.0,0.027757240074249928,36.83,2014-09-30 00:00:00,2014-10-15 00:00:00,-3732.8999264041227,1.1205772352466445,27.347735755262967,8.587664580090614
sz002143,2014-10-27,17.85,18.3,17.61,18.23,0.013904,1401487.0,25251931.87,1640325900.0,3803689500.0,0.015575629214901746,36.17,2014-09-30 00:00:00,2014-10-15 00:00:00,-3666.5284287862346,1.100653210824303,26.861489079937932,8.434974668638914
sz002143,2014-10-24,17.61,18.04,17.57,17.98,0.012387,1285063.0,22910253.66,1617831030.0,3751527000.0,0.01428173419321794,35.68,2014-09-30 00:00:00,2014-10-15 00:00:00,-3616.2481149953396,1.0855595902810355,26.493128619610864,8.319303078633592
sz002143,2014-10-23,18.11,18.28,17.41,17.76,-0.023102,1853223.0,32936191.9,1598035550.0,3705624000.0,0.02059606275968016,35.24,2014-09-30 00:00:00,2014-10-15 00:00:00,-3572.001729571142,1.0722772914715772,26.168973544317407,8.217512748221374
sz002143,2014-10-22,18.11,18.36,18.1,18.18,-0.00055,1182299.0,21540283.84,1635826930.0,3793257000.0,0.013139651527805572,36.07,2014-09-30 00:00:00,2014-10-15 00:00:00,-3656.4735822687135,1.0976348518182832,26.78782589821804,8.411843148641285
sz002143,2014-10-21,18.3,18.45,18.1,18.19,-0.009798999999999999,1787448.0,32608117.25,1636726720.0,3795343500.0,0.019865062824904578,36.09,2014-09-30 00:00:00,2014-10-15 00:00:00,-3658.485749430901,1.0982388832040455,26.802567310238672,8.41647220835588
sz002143,2014-10-20,18.11,18.46,17.9,18.37,0.014357,3004760.0,54745143.88,1652923030.0,3832900500.0,0.033393836372405075,36.45,2014-09-30 00:00:00,2014-10-15 00:00:00,-3694.690016906568,1.1091070229216546,27.067804728775943,8.499761370020714
sz002143,2014-10-17,19.21,19.37,18.05,18.11,-0.057262,3901709.0,71919500.49,1629528360.0,3778651500.0,0.04336220941254437,35.94,2014-09-30 00:00:00,2014-10-15 00:00:00,-3642.3961355879323,1.0934089506176372,26.68469259715854,8.37945749871171
sz002143,2014-10-16,19.23,19.63,19.1,19.21,-0.009794,1708478.0,33115495.1,1728505790.0,4008166500.0,0.018987418248682872,38.12,2014-09-30 00:00:00,2014-10-15 00:00:00,-3863.635639581657,1.1598227191623094,28.305523482832495,8.888426581628947
sz002143,2014-10-15,19.94,19.94,19.25,19.4,-0.018219,2208999.0,42947569.9,1745601890.0,4047810000.0,0.02455003104974869,38.5,2014-09-30 00:00:00,2014-10-15 00:00:00,-3901.850362027353,1.1712943762836314,28.585489769636315,8.976340864051467
sz002143,2014-10-14,19.39,19.96,19.39,19.76,0.008678,1861660.0,36623445.55,1777994510.0,4122924000.0,0.020689828564206314,39.21,2014-06-30 00:00:00,2014-08-15 00:00:00,1209.7455869944806,1.2637489999342444,28.459108604088044,8.744470276729004
sz002143,2014-10-13,19.5,19.94,19.22,19.59,-0.01952,2445767.0,47676516.65,1762697990.0,4087453500.0,0.027181386602704416,38.87,2014-06-30 00:00:00,2014-08-15 00:00:00,1199.3377341376342,1.2528765373431805,28.214265210590543,8.669238623950362
sz002143,2014-10-10,20.32,20.55,19.7,19.98,-0.017216,2900082.0,58253922.02,1797789990.0,4168827000.0,0.032230482248930534,39.65,2014-06-30 00:00:00,2014-08-15 00:00:00,1223.2148887663536,1.2778195754560833,28.77597218769434,8.841831168356686
sz002143,2014-10-09,20.62,20.78,20.03,20.33,-0.020713,3778669.0,77156942.99,1829282810.0,4241854500.0,0.04199478634470959,40.34,2014-06-30 00:00:00,2014-08-15 00:00:00,1244.6426567448734,1.3002038855497071,29.280057660375363,8.996718677101669
sz002143,2014-10-08,19.45,21.0,19.01,20.76,0.067352,7209785.0,145604947.83,1867973980.0,4331574000.0,0.08012699224000969,41.19,2014-06-30 00:00:00,2014-08-15 00:00:00,1270.9682215171583,1.3277046315837004,29.899363169709556,9.187009198632953
sz002143,2014-09-30,19.4,19.54,19.27,19.45,-0.005115,2418980.0,46914633.68,1750100870.0,4058242500.0,0.02688368528152323,38.59,2014-06-30 00:00:00,2014-08-15 00:00:00,1190.7676394639802,1.2439238710225868,28.012654840867448,8.607290939289898
sz002143,2014-09-29,19.37,19.6,18.92,19.55,0.014003999999999999,4518908.0,86675441.48,1759098810.0,4079107500.0,0.05022154008506208,38.79,2014-06-30 00:00:00,2014-08-15 00:00:00,1196.889730435156,1.2503192540068317,28.156676239834198,8.65154358472577
sz002143,2014-09-26,20.43,20.58,19.03,19.28,-0.057213,6295179.0,123576240.76,1734804360.0,4022772000.0,0.06996238533779106,38.26,2014-06-30 00:00:00,2014-08-15 00:00:00,1180.3599694233515,1.2330515994087123,27.76781574809784,8.532060607971735
sz002143,2014-09-25,20.32,20.79,20.24,20.45,0.008383,4039924.0,82916128.98,1840080350.0,4266892500.0,0.04489828164297281,40.58,2014-06-30 00:00:00,2014-08-15 00:00:00,1251.9900777411563,1.3078792976660818,29.45290478983889,9.04982844266174
sz002143,2014-09-24,20.22,20.37,20.02,20.28,0.004458,2657656.0,53800750.91,1824783830.0,4231422000.0,0.029536245769998963,40.24,2014-06-30 00:00:00,2014-08-15 00:00:00,1241.5818967011107,1.2970064922416202,29.208053675874037,8.974594417658508
sz002143,2014-09-23,20.37,20.69,19.92,20.19,-0.014159999999999999,3051733.0,61726584.15,1816685680.0,4212643500.0,0.03391587766024556,40.06,2014-06-30 00:00:00,2014-08-15 00:00:00,1236.0714899986965,1.2912500992989455,29.078422070284706,8.934763243120678
sz002143,2014-09-22,20.5,21.0,20.3,20.48,0.004907,4557520.0,94359738.77,1842779730.0,4273152000.0,0.0506506600221829,40.64,2014-06-30 00:00:00,2014-08-15 00:00:00,1253.8256613636051,1.3097968223027523,29.49608665735282,9.063096692283409
sz002143,2014-09-19,19.86,20.38,19.86,20.38,0.023606,2682407.0,54173876.24,1833781780.0,4252287000.0,0.029811319567151547,40.44,2014-06-30 00:00:00,2014-08-15 00:00:00,1247.7031818502658,1.303401033431703,29.352056117981885,9.018841238326939
sz002143,2014-09-18,20.38,20.38,19.79,19.91,-0.027357,3171930.0,63532978.17,1791491430.0,4154221500.0,0.03525170438576979,39.51,2014-06-30 00:00:00,2014-08-15 00:00:00,1218.929140558248,1.2733425101373996,28.675150514926532,8.810852259880207
sz002143,2014-09-17,19.99,20.5,19.61,20.47,0.018408,4336291.0,87314796.07,1841879940.0,4271065500.0,0.04819199929502462,40.62,2014-06-30 00:00:00,2014-08-15 00:00:00,1253.2132967165217,1.309157121510564,29.4816808581633,9.058670303369485
sz002143,2014-09-16,20.92,20.92,19.92,20.1,-0.035970999999999996,6369222.0,129731331.69,1808587530.0,4193865000.0,0.07078527307992664,39.88,2014-06-30 00:00:00,2014-08-15 00:00:00,1230.561127481836,1.2854937525142809,28.948791504154816,8.894932387971702
sz002143,2014-09-15,21.74,21.74,20.58,20.85,-0.048813999999999996,8991458.0,188048278.05,1876072140.0,4350352500.0,0.09992787340256543,41.37,2014-06-30 00:00:00,2014-08-15 00:00:00,1276.4772921580534,1.333459628822661,30.0289633446243,9.226830715644137
sz002143,2014-09-12,23.18,23.18,21.11,21.92,-0.062447,11288009.0,249694147.73,1972350180.0,4573608000.0,0.12545092640699332,43.5,2014-06-30 00:00:00,2014-08-15 00:00:00,1341.9849452767949,1.401891563608654,31.570022418984614,9.700343272129887
sz002143,2014-09-03,21.5,23.65,21.4,23.38,0.070023,9336634.0,209353356.8,2103720220.0000002,4878237000.0,0.10376403708283984,46.39,2014-06-30 00:00:00,2014-08-15 00:00:00,1431.369688195542,1.4952664687848622,33.672786945361615,10.346447904417017
sz002143,2014-09-02,20.47,21.97,20.47,21.85,0.071078,6932592.0,147374629.26,1966051620.0,4559002500.0,0.07704636727696905,43.36,2014-06-30 00:00:00,2014-08-15 00:00:00,1337.6999262591012,1.3974152600316652,31.46921790032702,9.669369634500397
sz002143,2014-09-01,20.02,20.6,19.81,20.4,0.005917,3939499.0,79888446.28,1835581370.0,4256460000.0,0.043782193975960865,40.48,2014-06-30 00:00:00,2014-08-15 00:00:00,1248.9285806067355,1.3046811343633844,29.38088346537509,9.027698855265813
sz002143,2014-08-29,20.25,20.88,19.8,20.28,-0.008313,4862623.0,99275459.2,1824783830.0,4231422000.0,0.05404146662128194,40.24,2014-06-30 00:00:00,2014-08-15 00:00:00,1241.5821390897415,1.2970067454505536,29.208059378035255,8.974596169729525
sz002143,2014-08-28,20.03,20.8,19.66,20.45,0.005903,5936884.0,120204476.02,1840080350.0,4266892500.0,0.06598042188755507,40.58,2014-06-30 00:00:00,2014-08-15 00:00:00,1251.9899313893814,1.307879144781119,29.4529013469323,9.049827384779192
sz002143,2014-08-27,19.06,20.87,18.85,20.33,0.065514,8019268.0,159092206.25,1829282810.0,4241854500.0,0.08912329878615105,40.34,2014-06-30 00:00:00,2014-08-15 00:00:00,1244.642804911986,1.3002040403310449,29.28006114598754,8.996719748106122
sz002143,2014-08-26,19.5,19.6,18.78,19.08,-0.033435,4451117.0,85422263.09,1716808460.0,3981042000.0,0.04946813482035148,37.86,2014-06-30 00:00:00,2014-08-15 00:00:00,1168.1149237945122,1.2202599311985058,27.479752632051323,8.443549074067652
sz002143,2014-08-25,19.3,20.29,19.3,19.74,0.028125,5977661.0,118653328.07,1776194920.0,4118751000.0,0.06643360298542009,39.17,2014-06-30 00:00:00,2014-08-15 00:00:00,1208.521851913231,1.2624706369447536,28.430320394439406,8.735624685424833
sz002143,2014-08-22,18.77,19.28,18.6,19.2,0.019108,3761015.0,71513316.41,1727606000.0,4006080000.0,0.041798586020192104,38.1,2014-06-30 00:00:00,2014-08-15 00:00:00,1175.4619836238114,1.2279349660252923,27.65259126510824,8.496656228984639
sz002143,2014-08-21,18.8,19.16,18.47,18.84,0.020585,3261643.0,61300351.51,1695213380.0,3930966000.0,0.036248742987151264,37.38,2014-06-30 00:00:00,2014-08-15 00:00:00,1153.422388622022,1.2049115167629854,27.13411264076844,8.337346217461388
sz002143,2014-08-20,18.64,18.77,18.34,18.46,-0.023280000000000002,3215578.0,59428675.51,1661021180.0,3851679000.0,0.03573679288063022,36.63,2014-06-30 00:00:00,2014-08-15 00:00:00,1130.1580844535456,1.1806086869422785,26.58682289154596,8.169183573598856
sz002143,2014-08-19,18.58,19.48,18.41,18.9,0.017223,5474898.0,104179495.8,1700612150.0,3943485000.0,0.06084607369175858,37.5,2014-06-30 00:00:00,2014-08-15 00:00:00,1157.0952621565502,1.208748348495248,27.22051651603936,8.363895050371504
sz002143,2014-08-18,18.6,18.6,18.15,18.58,0.004867,3212160.0,59008361.9,1671818720.0,3876717000.0,0.035698806387333665,36.87,2014-06-30 00:00:00,2014-08-15 00:00:00,1137.5040302436632,1.1882825579988339,26.759635316975093,8.222282675845417
sz002143,2014-08-15,18.43,18.75,18.34,18.49,0.002711,3346696.0,61943993.57,1663720570.0,3857938500.0,0.03719399168094676,36.69,2014-06-30 00:00:00,2014-08-15 00:00:00,1131.9946124647972,1.1825271981255567,26.630026975684437,8.182458649597825
sz002143,2014-08-14,18.69,18.7,18.28,18.44,-0.013904,2733804.0,50361862.21,1659221590.0,3847506000.0,0.03038252760440515,36.59,2014-03-31 00:00:00,2014-04-29 00:00:00,-249.85055315716437,1.0942304367102893,14.58213513581522,8.375743655141987
sz002143,2014-08-13,19.27,19.3,18.0,18.7,-0.037075,5472692.0,101836321.69,1682616260.0,3901755000.0,0.060821556782055586,37.11,2014-03-31 00:00:00,2014-04-29 00:00:00,-253.37345771320884,1.1096591373560885,14.787743927381532,8.49384203479376
sz002143,2014-08-12,19.06,19.99,19.03,19.42,0.015159,6425194.0,126408188.53,1747401480.0,4051983000.0,0.07140732619729726,38.54,2014-03-31 00:00:00,2014-04-29 00:00:00,-263.12896405556904,1.1523837654605378,15.357108733682821,8.8208760129748
sz002143,2014-08-11,19.05,19.2,18.72,19.13,0.0,3346777.0,63600451.26,1721307430.0,3991474500.0,0.037194892030414345,37.96,2014-03-31 00:00:00,2014-04-29 00:00:00,-259.19975496997915,1.135175637964632,15.127786616365341,8.68915708078715
sz002143,2014-08-08,18.35,19.47,18.13,19.13,0.044784,5383496.0,101718805.99,1721307430.0,3991474500.0,0.0598302643008983,37.96,2014-03-31 00:00:00,2014-04-29 00:00:00,-259.19975496997915,1.135175637964632,15.127786616365341,8.68915708078715
sz002143,2014-08-07,18.11,18.48,18.02,18.31,0.011044,3238813.0,59166302.46,1647524260.0,3820381500.0,0.0359950183859508,36.33,2014-03-31 00:00:00,2014-04-29 00:00:00,-248.08932274037426,1.0865170580374814,14.479343688614433,8.316701902773348
sz002143,2014-08-06,18.2,18.2,17.93,18.11,0.0022140000000000003,2625994.0,47382728.89,1629528360.0,3778651500.0,0.029184365554705657,35.94,2014-03-31 00:00:00,2014-04-29 00:00:00,-245.37935316403068,1.0746486384741727,14.32118057039499,8.22585555403459
sz002143,2014-08-05,18.2,18.48,17.95,18.07,-0.007143000000000001,3844062.0,69933609.62,1625929190.0,3770305500.0,0.04272154086857866,35.86,2014-03-31 00:00:00,2014-04-29 00:00:00,-244.83728341854203,1.0722746224600461,14.289543521039409,8.207683742229293
sz002143,2014-08-04,18.04,18.58,17.91,18.2,0.011673000000000001,3655227.0,66563665.47,1637626520.0,3797430000.0,0.04062289575036926,36.11,2014-03-31 00:00:00,2014-04-29 00:00:00,-246.59873820554427,1.0799889837711234,14.392348063255243,8.266733016163752
sz002143,2014-08-01,18.48,18.67,17.83,17.99,-0.026514999999999997,4339947.0,78626685.5,1618730830.0,3753613500.0,0.048232630825966294,35.7,2014-03-31 00:00:00,2014-04-29 00:00:00,-243.75340471233716,1.067527732549078,14.226284642621916,8.171348860910346
sz002143,2014-07-31,17.81,18.8,17.6,18.48,0.026667000000000003,8627390.0,157560850.55,1662820770.0,3855852000.0,0.09588175110417944,36.67,2014-03-31 00:00:00,2014-04-29 00:00:00,-250.39256353445313,1.0966041927190227,14.613768720239054,8.393913476746272
sz002143,2014-07-30,17.1,18.2,17.02,18.0,0.052632000000000005,7230706.0,128625892.78,1619630620.0,3755700000.0,0.08035950073603819,35.72,2014-03-31 00:00:00,2014-04-29 00:00:00,-243.88878140083702,1.068120620141704,14.234185690432295,8.17588709556874
sz002143,2014-07-29,17.03,17.16,16.88,17.1,0.0047,4002042.0,68184675.55,1538649090.0,3567915000.0,0.04447727467216063,33.93,2014-03-31 00:00:00,2014-04-29 00:00:00,-231.69424965309528,1.0147141832489455,13.522470996922282,7.767089633954449
sz002143,2014-07-28,17.19,17.28,16.75,17.02,0.001766,3595745.0,61231534.03,1531450730.0,3551223000.0,0.03996183403170927,33.77,2014-03-31 00:00:00,2014-04-29 00:00:00,-230.610380863039,1.0099673367661444,13.459212697245228,7.7307550850546916
sz002143,2014-07-25,16.45,17.05,16.45,16.99,0.004137,2820523.0,47583378.22,1528751350.0,3544963500.0,0.03134629171055188,33.71,2014-03-31 00:00:00,2014-04-29 00:00:00,-230.20384088004488,1.0081868787382928,13.435485629623315,7.7171266394094955
sz002143,2014-07-24,16.61,17.14,16.2,16.92,0.005945000000000001,4884939.0,81836882.12,1522452780.0,3530358000.0,0.05428947877122337,33.57,2014-03-31 00:00:00,2014-04-29 00:00:00,-229.25541124372953,1.004033193417126,13.380132023442332,7.6853324191913
sz002143,2014-07-23,17.97,18.0,16.61,16.82,-0.059284,7570317.0,129219751.57,1513454840.0,3509493000.0,0.08413381659937735,33.38,2014-03-31 00:00:00,2014-04-29 00:00:00,-227.90054251845729,0.9980994919375572,13.301057238161462,7.639913135600157
sz002143,2014-07-22,17.4,18.4,17.4,17.88,0.009029,7005375.0,126143586.11,1608833080.0,3730662000.0,0.07785525208121652,35.48,2014-03-31 00:00:00,2014-04-29 00:00:00,-242.26285352694893,1.0609998043379267,14.139290963650518,8.121381092274563
sz002143,2014-07-21,18.02,18.9,17.7,17.72,0.029036000000000003,12662833.0,231785105.18,1594436370.0,3697278000.0,0.14073023231400572,35.16,2014-03-31 00:00:00,2014-04-29 00:00:00,-240.09503545185416,1.0515057588413483,14.012769666333199,8.048709296040613
sz002143,2014-07-18,16.57,17.77,16.51,17.22,0.031138,7276916.0,126072455.96,1549446630.0,3592953000.0,0.08087306209443303,34.17,2014-03-31 00:00:00,2014-04-29 00:00:00,-233.3203458886318,1.0218357363992594,13.61737554986725,7.821601281238568
sz002143,2014-07-17,16.17,16.76,16.0,16.7,0.029593,3425460.0,56625064.43,1502657300.0,3484455000.0,0.0380693468830185,33.14,2014-03-31 00:00:00,2014-04-29 00:00:00,-226.27460717055513,0.990978643401038,13.20616207517059,7.585406881754498
sz002143,2014-07-16,16.9,16.98,16.06,16.22,-0.045321,4898782.0,80486000.7,1459467150.0,3384303000.0,0.05444332477096179,32.19,2014-03-31 00:00:00,2014-04-29 00:00:00,-219.77092615291198,0.9624955136651453,12.82658494683879,7.36738389028917
sz002143,2014-07-15,16.56,17.2,16.26,16.99,0.029073,6998563.0,117485360.81,1528751350.0,3544963500.0,0.07777954562067925,33.71,2014-03-31 00:00:00,2014-04-29 00:00:00,-230.20400171462023,1.0081875831197136,13.43549501648071,7.717132031069259
sz002143,2014-07-14,17.06,17.06,16.05,16.51,-0.042899,7450599.0,122341574.69,1485561200.0,3444811500.0,0.08280331331351411,32.76,2014-03-31 00:00:00,2014-04-29 00:00:00,-223.7003611158978,0.9797046304000921,13.055920247135736,7.499110394567986
sz002143,2014-07-11,17.0,17.78,16.77,17.25,-0.0046159999999999994,8606688.0,147904224.46,1552146010.0,3599212500.0,0.09565167648113208,34.23,2014-03-31 00:00:00,2014-04-29 00:00:00,-233.72701639210263,1.0236167660467308,13.641110235111798,7.8352341023235645
sz002143,2014-07-10,19.05,19.55,17.33,17.33,-0.09974,11539512.0,212451982.56,1559344370.0,3615904500.0,0.12824604161042374,34.39,2014-03-31 00:00:00,2014-04-29 00:00:00,-234.81090352276368,1.0283636928529398,13.704369605209443,7.871569266055677
sz002143,2014-07-09,18.01,19.86,18.0,19.25,0.066482,13365391.0,254949176.13,1732104970.0,4016512500.0,0.14853821287170604,38.2,2014-03-31 00:00:00,2014-04-29 00:00:00,-260.825654280723,1.1422963286749825,15.22267967610406,8.743662126558634
sz002143,2014-07-08,17.65,18.2,17.45,18.05,0.009507999999999999,7918341.0,141549106.88,1624129600.0,3766132500.0,0.08800163179711767,35.82,2014-03-31 00:00:00,2014-04-29 00:00:00,-244.56639144469668,1.0710882402843955,14.27373333643143,8.198602626728473
sz002143,2014-07-07,17.05,17.94,16.9,17.88,0.045614,7774176.0,136362215.26,1608833080.0,3730662000.0,0.08639943360687237,35.48,2014-03-31 00:00:00,2014-04-29 00:00:00,-242.26295526602726,1.0610002499082676,14.139296901492042,8.121384502875136
sz002143,2014-07-04,17.0,17.56,16.72,17.1,-0.005236,6574669.0,112997542.57,1538649090.0,3567915000.0,0.07306853825910364,33.93,2014-03-31 00:00:00,2014-04-29 00:00:00,-231.6944448582625,1.0147150381577406,13.522482389765289,7.7670961778200525
sz002143,2014-07-03,17.21,18.2,17.18,17.19,-0.0149,9750330.0,171810607.16,1546747240.0,3586693500.0,0.10836170795430028,34.11,2014-03-31 00:00:00,2014-04-29 00:00:00,-232.91398247047792,1.0200560516441493,13.593658787174936,7.807978754579027
sz002143,2014-07-02,17.35,17.85,17.05,17.45,-0.005131,6888639.0,120084049.21,1570141910.0,3640942500.0,0.07655788931205589,34.63,2014-03-31 00:00:00,2014-04-29 00:00:00,-236.43689216371732,1.0354847747884979,13.799267878565564,7.926077306445059
sz002143,2014-07-01,18.25,18.49,17.01,17.54,-0.052404,13580853.0,240782741.47,1578240060.0,3659721000.0,0.1509327811765214,34.8,2014-03-31 00:00:00,2014-04-29 00:00:00,-237.65630667325783,1.0408252491418448,13.870437091280928,7.966955756431309
sz002143,2014-06-30,16.78,18.51,16.51,18.51,0.09982200000000001,18943086.0,338887251.98,1951194350.0,3862111500.0,0.17970353484264653,36.73,2014-03-31 00:00:00,2014-04-29 00:00:00,-250.79918728367136,1.0983850176043852,14.637500676745079,8.407544730487793
sz002143,2014-06-27,15.8,17.44,15.63,16.83,0.061829999999999996,15049029.0,253280820.92,1774100540.0,3511579500.0,0.1427625731233924,33.4,2014-03-31 00:00:00,2014-04-29 00:00:00,-228.03616156402705,0.9986934409426117,13.308972430761592,7.64445949479806
sz002143,2014-06-26,15.6,16.15,15.35,15.85,0.010198,8333486.0,131183350.11,1670795810.0,3307102500.0,0.07905559273577542,31.45,2014-03-31 00:00:00,2014-04-29 00:00:00,-214.75769338220525,0.9405398613173591,12.533995489637315,7.199325216652438
sz002143,2014-06-25,15.35,15.97,15.22,15.69,0.021484,6964436.0,109133403.42,1653929730.0,3273718500.0,0.06606810365516556,31.13,2014-03-31 00:00:00,2014-04-29 00:00:00,-212.58970358504496,0.9310450637571637,12.407464170031336,7.126647663777238
sz002143,2014-06-24,15.45,15.71,15.17,15.36,-0.009032,5407244.0,83253359.97,1619143450.0,3204864000.0,0.05129580571752305,30.48,2014-03-31 00:00:00,2014-04-29 00:00:00,-208.1184860311517,0.9114631886130019,12.146508579704955,6.976758973980246
sz002143,2014-06-23,14.89,15.57,14.68,15.5,0.040967,7518442.0,113330534.39,1633901270.0,3234075000.0,0.07132367979614827,30.76,2014-03-31 00:00:00,2014-04-29 00:00:00,-210.01534462379382,0.9197705562772985,12.257215752380455,7.040347391621371
sz002143,2014-06-20,14.96,15.04,14.43,14.89,-0.0020109999999999998,6399940.0,94052374.7,1569599350.0,3106798500.0,0.06071301354705582,29.55,2014-03-31 00:00:00,2014-04-29 00:00:00,-201.75024244168532,0.8835732124815663,11.774836044159379,6.763276253350368
sz002143,2014-06-19,15.5,15.68,14.83,14.92,-0.065748,9862081.0,149576042.25,1572761740.0,3113058000.0,0.09355660477854706,29.61,2014-03-31 00:00:00,2014-04-29 00:00:00,-202.1567797257137,0.8853536586891901,11.798562954260397,6.776904608518096
sz002143,2014-06-18,15.69,16.3,15.61,15.97,0.034326,16980468.0,270184456.27,1683445370.0,3332140500.0,0.16108516426642347,31.69,2014-03-31 00:00:00,2014-04-29 00:00:00,-216.3835664528561,0.9476604371081787,12.628887017914222,7.253829382776914
sz002143,2014-06-17,15.51,16.49,15.26,15.44,-0.060256,28655457.0,448307267.29,1627576490.0,3221556000.0,0.271839915849362,30.64,2014-03-31 00:00:00,2014-04-29 00:00:00,-209.20248205387477,0.9162105923163284,12.209774305116781,7.013097788102506
sz002143,2014-06-16,16.43,16.43,16.43,16.43,-0.100219,606400.0,9963152.0,1731935340.0,3428119500.0,0.00575261198838982,32.6,2014-03-31 00:00:00,2014-04-29 00:00:00,-222.6164594334997,0.9749576398639717,12.992660027748812,7.462774743017785
sz002143,2014-06-12,16.45,18.26,16.38,18.26,0.1,15480523.0,272121607.21,1924841110.0,3809949000.0,0.14685593969883573,36.23,2014-03-31 00:00:00,2014-04-29 00:00:00,-247.4118251368941,1.083549930331905,14.439802605021457,8.29399014095406
sz002143,2014-06-11,15.87,17.0,15.61,16.6,0.055308,19996490.0,325517557.53,1749855550.0,3463590000.0,0.1896966489605385,32.94,2014-03-31 00:00:00,2014-04-29 00:00:00,-224.9198410335401,0.9850453912108227,13.127093277292236,7.539991037230964
sz002143,2014-06-10,14.36,15.73,14.33,15.73,0.1,17039299.0,264367813.75,1658146250.0,3282064500.0,0.1616432647421782,31.21,2014-03-31 00:00:00,2014-04-29 00:00:00,-213.13193971195147,0.9334198084453285,12.439110929977064,7.144825053189177
sz002143,2014-06-09,14.25,14.54,14.16,14.3,-0.004871,3278263.0,46967967.78,1507405690.0,2983695000.0,0.03109923308037931,28.38,2014-03-31 00:00:00,2014-04-29 00:00:00,-193.7563088290468,0.8485634622230258,11.308282663615511,6.495295502899252
sz002143,2014-06-06,14.45,14.75,14.25,14.37,-0.016427,5118821.0,74130685.48,1514784590.0,2998300500.0,0.04855968185549075,28.51,2014-03-31 00:00:00,2014-04-29 00:00:00,-194.70471549823867,0.8527170469587618,11.363634929356405,6.52708895319024
sz002143,2014-06-05,14.08,14.67,13.88,14.61,0.037642,6837438.0,98023582.96,1540083710.0,3048376500.0,0.0648633373182033,28.99,2014-03-31 00:00:00,2014-04-29 00:00:00,-197.95654770742863,0.8669585754781414,11.553423009127341,6.636100170694235
sz002143,2014-06-04,14.22,14.44,13.78,14.08,-0.008451,5297857.0,74753690.54,1484214830.0,2937792000.0,0.05025810620690268,27.94,2014-03-31 00:00:00,2014-04-29 00:00:00,-190.77538082250777,0.8355083694358374,11.134305482167587,6.395365810842501
sz002143,2014-06-03,14.25,14.35,13.95,14.2,0.0,6287424.0,89048721.16,1496864390.0,2962830000.0,0.059645630824312686,28.18,2014-03-31 00:00:00,2014-04-29 00:00:00,-192.40136475606127,0.8426294307551493,11.229203480783692,6.4498736934256415
sz002143,2014-05-30,14.36,14.58,14.07,14.2,-0.011142,8202275.0,116890451.11,1496864390.0,2962830000.0,0.07781085967313311,28.18,2014-03-31 00:00:00,2014-04-29 00:00:00,-192.40136475606127,0.8426294307551493,11.229203480783692,6.4498736934256415
sz002143,2014-05-29,15.45,15.85,14.21,14.36,-0.077714,13168097.0,200186176.76,1513730460.0,2996214000.0,0.12491911731762337,28.49,2014-03-31 00:00:00,2014-04-29 00:00:00,-194.569255399725,0.8521237940686622,11.355729013451567,6.522547922376763
sz002143,2014-05-28,15.45,15.72,15.31,15.57,0.003222,6510462.0,100815180.29,1641280180.0,3248680500.0,0.06176148020016912,30.9,2014-03-31 00:00:00,2014-04-29 00:00:00,-210.964121107471,0.9239257606302842,12.312589601762976,7.072153239208622
sz002143,2014-05-27,15.87,15.95,15.4,15.52,-0.034825999999999996,9395457.0,146172705.05,1636009530.0,3238248000.0,0.08912997752525317,30.8,2014-03-31 00:00:00,2014-04-29 00:00:00,-210.28657775394777,0.920958432560574,12.273045848040589,7.049439943709987
sz002143,2014-05-26,15.6,16.53,15.15,16.08,0.050980000000000004,15430950.0,245283164.59,1695040800.0,3355092000.0,0.14638566576096573,31.91,2014-03-31 00:00:00,2014-04-29 00:00:00,-217.87426697564143,0.9541890193484014,12.715889412728263,7.303802157652389
sz002143,2014-05-23,15.77,15.87,15.2,15.3,-0.039548,11069463.0,171730121.64,1612818670.0,3192345000.0,0.10501043114784875,30.36,2014-03-31 00:00:00,2014-04-29 00:00:00,-207.30581645287393,0.907904069866602,12.099078396095324,6.949515840122923
sz002143,2014-05-22,15.6,16.0,15.32,15.93,0.012715,12479801.0,195974498.87,1679228850.0,3323794500.0,0.11838959885068673,31.61,2014-03-31 00:00:00,2014-04-29 00:00:00,-215.8419332281821,0.945288332854325,12.597275445410416,7.235672204465111
sz002143,2014-05-21,15.5,15.73,15.14,15.73,-0.007571,12994740.0,200777758.13,1658146250.0,3282064500.0,0.1232745665227057,31.21,2014-03-31 00:00:00,2014-04-29 00:00:00,-213.13196035230257,0.9334198988405671,12.439112134618737,7.14482574511596
sz002143,2014-05-20,14.81,16.34,14.81,15.85,0.06734,24271187.0,388936283.24,1670795810.0,3307102500.0,0.2302485508088508,31.45,2014-03-31 00:00:00,2014-04-29 00:00:00,-214.7578923553247,0.940540732728051,12.53400710239094,7.199331886831159
sz002143,2014-05-19,14.3,14.86,13.85,14.85,0.020619,8478908.0,121593756.46,1565382830.0,3098452500.0,0.08043513790169782,29.47,2014-03-31 00:00:00,2014-04-29 00:00:00,-201.20851121041537,0.8812006790039268,11.743218751654526,6.7451157895620515
sz002143,2014-05-16,14.68,15.06,14.3,14.55,-0.02349,10457688.0,153185266.62,1533758930.0,3035857500.0,0.09920682932877854,28.87,2014-03-31 00:00:00,2014-04-29 00:00:00,-197.14360717409278,0.8633982700732857,11.505977011651288,6.608847953606636
sz002143,2014-05-15,13.97,15.2,13.82,14.9,0.07040199999999999,17442930.0,255613881.0,1570653480.0,3108885000.0,0.16547230837956695,29.57,2014-03-31 00:00:00,2014-04-29 00:00:00,-201.88590713263844,0.884167361392393,11.782753900780625,6.767824142719108
sz002143,2014-05-14,14.15,14.37,13.72,13.92,-0.041322000000000005,9301200.0,129304329.51,1467348750.0,2904408000.0,0.08823580897179352,27.62,2014-03-31 00:00:00,2014-04-29 00:00:00,-188.60755784521928,0.8260143024699066,11.00778389874143,6.322693850272241
sz002143,2014-05-13,14.56,14.94,14.33,14.52,-0.008874,8998001.0,131528875.74,1530596540.0,3029598000.0,0.08535951252052353,28.81,2014-03-31 00:00:00,2014-04-29 00:00:00,-196.73712951086736,0.8616180849773404,11.482253581224802,6.595221597107936
sz002143,2014-05-12,14.3,14.84,14.05,14.65,0.025192,8377036.0,121236372.66,1544300230.0,3056722500.0,0.07946872960059069,29.07,2014-03-31 00:00:00,2014-04-29 00:00:00,-198.49860614176944,0.8693325419546459,11.585059398325543,6.65427160331576
sz002143,2014-05-09,14.02,14.65,13.71,14.29,-0.000699,8216300.0,116873250.23,1506351560.0,2981608500.0,0.07794390772895007,28.36,2014-03-31 00:00:00,2014-04-29 00:00:00,-193.6209082218447,0.847970469877492,11.300380219827643,6.4907564664138615
sz002143,2014-05-08,14.8,15.2,14.18,14.3,-0.037037,12015473.0,176935396.02,1507405690.0,2983695000.0,0.11398475210744362,28.38,2014-03-31 00:00:00,2014-04-29 00:00:00,-193.75634390623517,0.8485636158449676,11.308284710840521,6.495296678792337
sz002143,2014-05-07,15.18,15.28,14.75,14.85,-0.045016,14953220.0,224663749.06,1565382830.0,3098452500.0,0.14185368124933373,29.47,2014-03-31 00:00:00,2014-04-29 00:00:00,-201.20850324076326,0.8812006441005185,11.743218286518298,6.74511552239529
sz002143,2014-05-06,14.3,15.86,14.11,15.55,0.07537999999999999,25065053.0,372083456.98,1639171920.0,3244507500.0,0.2377795577110667,30.86,2014-03-31 00:00:00,2014-04-29 00:00:00,-210.69306212540027,0.9227386470354669,12.296769669982215,7.063066525088681
sz002143,2014-05-05,13.21,14.69,13.21,14.46,0.083146,23196410.0,333804889.48,1524271760.0,3017079000.0,0.2200526818131171,28.69,2014-03-31 00:00:00,2014-04-29 00:00:00,-195.92428920511847,0.8580582185231891,11.434813433374451,6.567972739951164
sz002143,2014-04-30,12.8,14.11,12.8,13.35,0.020641999999999997,13230891.0,179208777.76,1407263350.0,2785477500.0,0.1255148120286086,26.49,2014-03-31 00:00:00,2014-04-29 00:00:00,-180.8844691344643,0.7921907282334875,10.557037955524416,6.063792637327898
sz002143,2014-04-29,13.28,13.35,12.51,13.08,-0.034686,10554945.0,136375276.19,1378801840.0,2729142000.0,0.10012945776167517,25.95,2014-03-31 00:00:00,2014-04-29 00:00:00,-177.22616660343616,0.7761690467700598,10.343526873795529,5.941155309430631
sz002143,2014-04-28,13.3,14.35,12.91,13.55,0.024962,15253796.0,208373439.27,1428345950.0,2827207500.0,0.1447050945886044,26.89,2013-12-31 00:00:00,2014-03-13 00:00:00,-116.85356007320895,0.8028549823658582,12.712286708198908,6.041377571448421
sz002143,2014-04-25,13.32,13.93,12.96,13.22,-0.030792,15008145.0,200844572.71,1393559660.0,2758353000.0,0.14237472753767857,26.23,2013-12-31 00:00:00,2014-03-13 00:00:00,-114.00769986907707,0.7833021930236032,12.402690741899612,5.894245417340761
sz002143,2014-04-24,14.75,14.89,13.64,13.64,-0.10026399999999999,23600892.0,335476842.23,1437833120.0,2845986000.0,0.22388979805945772,27.07,2013-12-31 00:00:00,2014-03-13 00:00:00,-117.62975529409277,0.8081879153118867,12.79672757746491,6.081507186631519
sz002143,2014-04-23,13.66,15.16,13.66,15.16,0.100145,25082491.0,360412039.15,1598060850.0,3163134000.0,0.23794498410996054,30.08,2013-12-31 00:00:00,2014-03-13 00:00:00,-130.7380779407435,0.8982500592528107,14.22275820625707,6.759212909821903
sz002143,2014-04-22,13.1,14.35,12.85,13.78,0.055938999999999996,27821318.0,382156289.25,1452590930.0,2875197000.0,0.26392685932577037,27.34,2013-12-31 00:00:00,2014-03-13 00:00:00,-118.83713323311336,0.816483335608316,12.92807603202948,6.143929127362215
sz002143,2014-04-21,13.05,13.05,12.86,13.05,0.100337,15923678.0,207772654.54,1375639450.0,2722882500.0,0.15105992918420597,25.9,2013-12-31 00:00:00,2014-03-13 00:00:00,-112.54166503284127,0.7732296426292768,12.243203472955805,5.818450807633978
sz002143,2014-04-15,11.86,11.86,11.86,11.86,0.100186,276195.0,3275672.7,1250198000.0,2474589000.0,0.0026201231324958123,23.53,2013-12-31 00:00:00,2014-03-13 00:00:00,-102.27926992625103,0.7027207506693649,11.126776135816398,5.287880719846719
sz002143,2014-04-14,10.78,10.78,10.78,10.78,0.1,278472.0,3001928.16,1136351980.0,2249247000.0,0.0026417238785468563,21.39,2013-12-31 00:00:00,2014-03-13 00:00:00,-92.9654348685141,0.6387290427885511,10.113540924731272,4.806351580411603
sz002143,2014-04-11,9.8,9.8,9.8,9.8,0.099888,207078.0,2029364.4,1033047250.0,2044770000.0,0.001964444898333547,19.45,2013-12-31 00:00:00,2014-03-13 00:00:00,-84.51403169864916,0.5806627661714101,9.194128113392065,4.369410527646911
sz002143,2014-04-10,8.91,8.91,8.91,8.91,0.1,194933.0,1736853.03,939229700.0,1859071500.0,0.0018492313754558656,17.68,2013-12-31 00:00:00,2014-03-13 00:00:00,-76.83876149085104,0.5279289947443833,8.359149398295159,3.9725958712586293
sz002143,2014-04-09,8.1,8.1,8.1,8.1,0.100543,78881.0,638936.1,853845180.0,1690065000.0,0.0007483043940120385,16.07,2013-12-31 00:00:00,2014-03-13 00:00:00,-69.85341953713731,0.4799354497676211,7.599226725722872,3.6114507920532994
sz002143,2014-04-08,7.36,7.36,7.36,7.36,0.100149,192975.0,1420296.0,775839570.0,1535664000.0,0.0018306568199402359,14.6,2013-12-31 00:00:00,2014-03-13 00:00:00,-63.471776693084514,0.43608968460807174,6.904979383561452,3.281517207463315
sz002143,2013-10-08,6.14,6.69,6.07,6.69,0.100329,5472179.0,35727181.41,705212870.0,1395868500.0,0.05191181140809299,13.28,2013-06-30 00:00:00,2013-08-26 00:00:00,-66.19298896094001,0.4167161146410453,10.84293451331427,2.9863187214722715
sz002143,2013-09-30,6.06,6.14,5.91,6.08,0.011647,1905908.0,11507552.29,640910950.0,1268592000.0,0.01808039110581587,12.06,2013-06-30 00:00:00,2013-08-26 00:00:00,-60.157451962949274,0.37871955991439404,9.85426587258381,2.7140234615940066
sz002143,2013-09-27,6.07,6.33,6.01,6.01,-0.025932,3131947.0,19306913.39,633532040.0,1253986500.0,0.029711206823888496,11.93,2013-06-30 00:00:00,2013-08-26 00:00:00,-59.46486468397503,0.37435939602884616,9.740814604880764,2.6827771560574063
sz002143,2013-09-26,6.42,6.52,6.05,6.17,-0.059451,7689335.0,47994416.33,650398120.0,1287370500.0,0.07294485560628619,12.24,2013-06-30 00:00:00,2013-08-26 00:00:00,-61.047960392883276,0.3843257308820802,10.000138188381884,2.754199045710778
sz002143,2013-09-25,5.91,6.56,5.91,6.56,0.10067100000000001,12418849.0,81055451.07,691509180.0,1368744000.0,0.11781137806442424,13.02,2013-06-30 00:00:00,2013-08-26 00:00:00,-64.90673042327755,0.40861850991503923,10.63223520346296,2.928288739566762
sz002143,2013-09-24,5.65,5.99,5.64,5.96,0.045614,3454791.0,20337639.97,628261390.0,1243554000.0,0.032773865603932785,11.83,2013-06-30 00:00:00,2013-08-26 00:00:00,-58.97014677708194,0.37124491325295145,9.659775903483386,2.6604577930796416
sz002143,2013-09-23,5.52,5.74,5.52,5.7,0.030741,1403192.0,7959159.48,600854010.0,1189305000.0,0.01331137725118952,11.31,2013-06-30 00:00:00,2013-08-26 00:00:00,-56.397625488069146,0.35504967727378495,9.238376593545404,2.544397639166692
sz002143,2013-09-18,5.54,5.61,5.49,5.53,-0.003604,984873.0,5470556.94,582933810.0,1153834500.0,0.009342995030602189,10.97,2013-06-30 00:00:00,2013-08-26 00:00:00,-54.71561283394097,0.3444606135525656,8.962849632978028,2.468513078616929
sz002143,2013-09-17,5.52,5.57,5.46,5.55,-0.008929000000000001,998517.0,5499610.44,585042070.0,1158007500.0,0.009472428794736077,11.01,2013-06-30 00:00:00,2013-08-26 00:00:00,-54.91352116421681,0.3457065399224461,8.99526858094375,2.47744177878768
sz002143,2013-09-16,5.64,5.64,5.47,5.6,-0.0017829999999999999,1589577.0,8809168.19,590312720.0,1168440000.0,0.015079517852842473,11.11,2013-06-30 00:00:00,2013-08-26 00:00:00,-55.40826153143096,0.3488211640966652,9.076310961519154,2.499762155070303
sz002143,2013-09-13,5.57,5.85,5.46,5.61,0.001786,3966861.0,22516930.91,591366850.0,1170526500.0,0.037631615992678655,11.13,2013-06-30 00:00:00,2013-08-26 00:00:00,-55.50723092416874,0.3494442231465354,9.092522929903168,2.5042271921539125
sz002143,2013-09-12,5.51,5.64,5.41,5.6,0.016334,2875833.0,15942510.23,590312720.0,1168440000.0,0.027281581870707443,11.11,2013-06-30 00:00:00,2013-08-26 00:00:00,-55.40827175082177,0.34882122843255486,9.076312635536102,2.499762616121519
sz002143,2013-09-11,5.35,5.51,5.35,5.51,0.02037,2548418.0,13885683.26,580825550.0,1149661500.0,0.024175560424296073,10.93,2013-06-30 00:00:00,2013-08-26 00:00:00,-54.517778359104156,0.3432151521375402,8.930442783116673,2.4595877104588837
sz002143,2013-09-10,5.26,5.53,5.23,5.4,0.022727,2645321.0,14273227.3,569230120.0,1126710000.0,0.02509483054059051,10.72,2013-06-30 00:00:00,2013-08-26 00:00:00,-53.429421052269426,0.33636342908703726,8.7521612582854,2.4104861084301614
sz002143,2013-09-09,5.28,5.34,5.26,5.28,0.0,761373.0,4037207.14,556580560.0,1101672000.0,0.00722276293659987,10.48,2013-06-30 00:00:00,2013-08-26 00:00:00,-52.242114515671766,0.3288887739221096,8.557671067924677,2.356920378977148
sz002143,2013-09-06,5.22,5.3,5.19,5.28,0.007634,1031236.0,5432299.04,556580560.0,1101672000.0,0.009782817567325745,10.48,2013-06-30 00:00:00,2013-08-26 00:00:00,-52.242114515671766,0.3288887739221096,8.557671067924677,2.356920378977148
sz002143,2013-09-05,5.28,5.28,5.2,5.24,-0.0038020000000000003,650407.0,3394266.22,552364040.0,1093326000.0,0.006170084279925246,10.4,2013-06-30 00:00:00,2013-08-26 00:00:00,-51.846319710998,0.326397058775418,8.492836752158697,2.3390639646708506
sz002143,2013-09-04,5.25,5.32,5.21,5.26,0.001905,1232669.0,6480934.66,554472300.0,1097499000.0,0.011693711191704256,10.44,2013-06-30 00:00:00,2013-08-26 00:00:00,-52.044191727947656,0.32764275653576697,8.525249751714716,2.347991026553808
sz002143,2013-09-03,5.22,5.29,5.2,5.25,0.0019079999999999998,1055261.0,5535510.54,553418170.0,1095412500.0,0.01001073067405792,10.42,2013-06-30 00:00:00,2013-08-26 00:00:00,-51.945236053266186,0.3270197838475374,8.509040030456696,2.343526608364873
sz002143,2013-09-02,5.09,5.24,5.05,5.24,0.02947,1889006.0,9753575.86,552364040.0,1093326000.0,0.017920050407336435,10.4,2013-06-30 00:00:00,2013-08-26 00:00:00,-51.84631328751361,0.32639701833655127,8.492835699941207,2.339063674873215
sz002143,2013-08-30,5.14,5.19,5.07,5.09,-0.013566,1442717.0,7428020.2,536552089.99999994,1062028500.0,0.013686331051287118,10.1,2013-06-30 00:00:00,2013-08-26 00:00:00,-50.36214099246564,0.31705345307444727,8.249716553120738,2.272104747951096
sz002143,2013-08-29,5.08,5.23,5.06,5.16,0.015747999999999998,1956796.0,10040718.13,543931000.0,1076634000.0,0.018563140104167625,10.24,2013-06-30 00:00:00,2013-08-26 00:00:00,-51.054749727265715,0.32141375203454786,8.363171335457555,2.303352021474417
sz002143,2013-08-28,5.11,5.11,5.06,5.08,-0.011673000000000001,1008934.0,5132161.07,535497959.99999994,1059942000.0,0.009571249757888901,10.08,2013-06-30 00:00:00,2013-08-26 00:00:00,-50.263204778415236,0.31643060290007746,8.233510019667825,2.2676412077350063
sz002143,2013-08-27,5.1,5.14,5.07,5.14,0.005871,1083057.0,5535013.53,541822740.0,1072461000.0,0.010274417386025546,10.2,2013-06-30 00:00:00,2013-08-26 00:00:00,-50.8568568686429,0.3201679230660272,8.330754921870822,2.2944240193124408
sz002143,2013-08-26,5.02,5.12,5.01,5.11,0.01996,1326458.0,6745338.57,538660350.0,1066201500.0,0.01258344034417978,10.14,2013-06-30 00:00:00,2013-08-26 00:00:00,-50.560018997110866,0.3182991885301666,8.282130533508594,2.2810320799709314
sz002143,2013-08-23,5.08,5.14,4.9,5.01,-0.01378,1029760.0,5219226.2,528119050.00000006,1045336500.0,0.009768815572928111,9.94,2013-03-31 00:00:00,2013-04-24 00:00:00,797.0080794648861,0.35721756545513467,-20.408882102958167,2.1861430566583966
sz002143,2013-08-22,5.06,5.1,5.04,5.08,0.001972,706441.0,3582807.17,535497959.99999994,1059942000.0,0.0067016507028336775,10.08,2013-03-31 00:00:00,2013-04-24 00:00:00,808.144308029533,0.36220880275712786,-20.694046057632338,2.2166890315126406
sz002143,2013-08-21,5.06,5.08,5.02,5.07,0.0019760000000000003,684559.0,3461600.93,534443829.99999994,1057855500.0,0.0064940671688547705,10.06,2013-03-31 00:00:00,2013-04-24 00:00:00,806.5537839675491,0.36149593277769027,-20.65331771509817,2.212326324001709
sz002143,2013-08-20,5.02,5.06,4.99,5.06,0.00998,1225610.0,6153337.75,533389699.99999994,1055769000.0,0.011626746073274382,10.04,2013-03-31 00:00:00,2013-04-24 00:00:00,804.9631767303299,0.3607830255192642,-20.61258724270658,2.207963388346337
sz002143,2013-08-19,4.9,5.03,4.86,5.01,0.016227000000000002,699047.0,3485603.89,528119050.00000006,1045336500.0,0.006631507554972689,9.94,2013-03-31 00:00:00,2013-04-24 00:00:00,797.0090266444186,0.35721798997927107,-20.408906357261113,2.1861456547123077
sz002143,2013-08-16,4.96,5.08,4.92,4.93,-0.008048,1154101.0,5759035.85,519686020.0,1028644500.0,0.010948375963625112,9.78,2013-03-31 00:00:00,2013-04-24 00:00:00,784.2824749238297,0.35151397274356133,-20.08301920462762,2.151237523419775
sz002143,2013-08-15,5.05,5.07,4.96,4.97,-0.00996,903566.0,4540111.9,523902540.0,1036990500.0,0.008571676365607999,9.86,2013-03-31 00:00:00,2013-04-24 00:00:00,790.6455906372785,0.3543659095838925,-20.245958680084946,2.168691149793312
sz002143,2013-08-14,5.12,5.12,5.0,5.02,-0.013752,1234765.0,6239956.27,529173180.00000006,1047423000.0,0.01171359497093182,9.96,2013-03-31 00:00:00,2013-04-24 00:00:00,798.599643082379,0.35793090136145256,-20.449637065254883,2.190508615604735
sz002143,2013-08-13,5.08,5.15,5.06,5.09,0.0,1084348.0,5530111.79,536552089.99999994,1062028500.0,0.010286664469054628,10.1,2013-03-31 00:00:00,2013-04-24 00:00:00,809.73512045893,0.3629218019823133,-20.73478178435331,2.2210525299972574
sz002143,2013-08-12,5.03,5.1,5.02,5.09,0.013944,1191043.0,6047410.96,536552089.99999994,1062028500.0,0.011298826307805456,10.1,2013-03-31 00:00:00,2013-04-24 00:00:00,809.73512045893,0.3629218019823133,-20.73478178435331,2.2210525299972574
sz002143,2013-08-09,4.99,5.05,4.96,5.02,0.006012,858360.0,4296487.89,529173180.00000006,1047423000.0,0.008142829914395888,9.96,2013-03-31 00:00:00,2013-04-24 00:00:00,798.599449731869,0.35793081470210714,-20.449632114153555,2.190508085256442
sz002143,2013-08-08,5.02,5.03,4.92,4.99,-0.002,848300.0,4235848.46,526010800.00000006,1041163500.0,0.008047395604805071,9.9,2013-03-31 00:00:00,2013-04-24 00:00:00,793.826962036108,0.35579179443397013,-20.327423643210572,2.1774174515377966
sz002143,2013-08-07,4.99,5.08,4.96,5.0,0.004016,1061931.0,5320152.55,527064930.00000006,1043250000.0,0.01007400549302341,9.92,2013-03-31 00:00:00,2013-04-24 00:00:00,795.4177976313707,0.35650480404205426,-20.368159963136847,2.1817810135649265
sz002143,2013-08-06,5.0,5.03,4.95,4.98,-0.011904999999999999,1258033.0,6288583.78,524956670.00000006,1039077000.0,0.011934326579753716,9.88,2013-03-31 00:00:00,2013-04-24 00:00:00,792.2361771439605,0.3550788075509297,-20.28668862163237,2.173054028586124
sz002143,2013-08-05,5.03,5.05,4.91,5.04,0.0019879999999999997,1610933.0,8012467.94,531281439.99999994,1051596000.0,0.015282111718414256,10.0,2013-03-31 00:00:00,2013-04-24 00:00:00,801.7813845267515,0.3593569520652667,-20.531111504088546,2.1992359323608808
sz002143,2013-08-02,4.9,5.14,4.86,5.03,0.018219,3365882.0,16872417.56,530227310.00000006,1049509500.0,0.03193043085615488,9.98,2013-03-31 00:00:00,2013-04-24 00:00:00,800.1906056028131,0.3586439678571666,-20.490376635337494,2.1948725257796307
sz002143,2013-08-01,4.78,4.95,4.74,4.94,0.033473,2357744.0,11466354.78,520740150.0,1030731000.0,0.02236673196794985,9.8,2013-03-31 00:00:00,2013-04-24 00:00:00,785.8727892553694,0.3522267487221969,-20.123742176621622,2.1555996556532833
sz002143,2013-07-31,4.69,4.84,4.68,4.78,0.021368,1484572.0,7068264.94,503874070.0,997347000.0,0.014083388256117248,9.49,2013-03-31 00:00:00,2013-04-24 00:00:00,760.4192748677222,0.3408185300653204,-19.47195734830191,2.0857822658678873
sz002143,2013-07-30,4.68,4.72,4.6,4.68,0.0,489118.0,2281169.32,493332770.0,976482000.0,0.004640016595694626,9.29,2013-03-31 00:00:00,2013-04-24 00:00:00,744.5105729450327,0.33368827892132946,-19.064585289828848,2.042145696622459
sz002143,2013-07-29,4.85,4.85,4.67,4.68,-0.025,893754.0,4222271.24,493332770.0,976482000.0,0.008478594924882042,9.29,2013-03-31 00:00:00,2013-04-24 00:00:00,744.5105729450327,0.33368827892132946,-19.064585289828848,2.042145696622459
sz002143,2013-07-26,4.72,4.84,4.67,4.8,0.012657999999999999,612642.0,2913549.07,505982330.0,1001520000.0,0.005811826669915528,9.52,2013-03-31 00:00:00,2013-04-24 00:00:00,763.600587635931,0.342244388637261,-19.55342081008087,2.0945084067922655
sz002143,2013-07-25,4.78,4.78,4.7,4.74,-0.004202,655702.0,3105986.04,499657550.0,989001000.0,0.006220315253917408,9.41,2013-03-31 00:00:00,2013-04-24 00:00:00,754.0557499530255,0.3379664098217374,-19.309007394481522,2.0683275170810536
sz002143,2013-07-24,4.74,4.8,4.66,4.76,-0.004184,746082.0,3529493.91,501765810.0,993174000.0,0.007077704875906152,9.45,2013-03-31 00:00:00,2013-04-24 00:00:00,757.2376626113182,0.33939253726331786,-19.39048621756774,2.0770553034662185
sz002143,2013-07-23,4.7,4.8,4.65,4.78,0.027957,872646.0,4146808.14,503874070.0,997347000.0,0.008278353914897825,9.49,2013-03-31 00:00:00,2013-04-24 00:00:00,760.419256781693,0.34081852195919515,-19.471956885175317,2.0857822162590463
sz002143,2013-07-22,4.57,4.68,4.54,4.65,0.008676999999999999,701312.0,3248104.27,490170380.0,970222500.0,0.006652994413901551,9.23,2013-03-31 00:00:00,2013-04-24 00:00:00,739.738390595806,0.3315493955089514,-18.94238463785481,2.029055900450161
sz002143,2013-07-19,4.68,4.75,4.61,4.61,-0.014957,575800.0,2686059.0,485953860.0,961876500.0,0.005462325168072541,9.15,2013-03-31 00:00:00,2013-04-24 00:00:00,733.3748966178529,0.3286972891311603,-18.77943547622758,2.0116012365208693
sz002143,2013-07-18,4.73,4.75,4.63,4.68,-0.010570999999999999,644094.0,3020269.96,493332770.0,976482000.0,0.006110196004210301,9.29,2013-03-31 00:00:00,2013-04-24 00:00:00,744.5105407762431,0.3336882645033367,-19.064584466086842,2.0421456083854914
sz002143,2013-07-17,4.82,4.84,4.7,4.73,-0.020704,609068.0,2911642.44,498603420.0,986914500.0,0.005777921940447179,9.39,2013-03-31 00:00:00,2013-04-24 00:00:00,752.4648466703959,0.3372533698762991,-19.26826934129366,2.0639637693917314
sz002143,2013-07-16,4.8,4.83,4.73,4.83,0.008351,945146.0,4525442.11,509144720.0,1007779500.0,0.008966124955592195,9.58,2013-03-31 00:00:00,2013-04-24 00:00:00,768.3732463630975,0.3443834855613615,-19.675633660602777,2.1075995096393036
sz002143,2013-07-15,4.73,4.81,4.72,4.79,0.012685,790543.0,3773135.06,504928200.0,999433500.0,0.007499484025649587,9.5,2013-03-31 00:00:00,2013-04-24 00:00:00,762.0097033305836,0.34153135719740596,-19.512683242841806,2.090144711156436
sz002143,2013-07-12,4.85,4.88,4.7,4.73,-0.024742,734509.0,3517236.15,498603420.0,986914500.0,0.00696791764886009,9.39,2013-03-31 00:00:00,2013-04-24 00:00:00,752.4646887537424,0.33725329909834345,-19.268265297542477,2.0639633362362786
sz002143,2013-07-11,4.63,5.09,4.63,4.85,0.043011,1767418.0,8515964.7,511252980.0,1011952500.0,0.016766606035235238,9.62,2013-03-31 00:00:00,2013-04-24 00:00:00,771.5544899439353,0.34580931312364876,-19.757095350709736,2.1163254607870723
sz002143,2013-07-10,4.53,4.67,4.51,4.65,0.031042,744837.0,3416380.39,490170380.0,970222500.0,0.0070658942100907856,9.23,2013-03-31 00:00:00,2013-04-24 00:00:00,739.73763454454,0.331549056648155,-18.942365277748497,2.0290538266490694
sz002143,2013-07-09,4.5,4.53,4.45,4.51,0.004454,301917.0,1355646.61,475412560.0,941011500.0,0.002864134826391629,8.95,2013-03-31 00:00:00,2013-04-24 00:00:00,717.4660533174595,0.32156697462194067,-18.372059797514066,1.9679642794852867
sz002143,2013-07-08,4.47,4.56,4.39,4.49,-0.036481,575362.0,2588497.63,473304300.0,936838500.0,0.0054581701032507,8.91,2013-03-31 00:00:00,2013-04-24 00:00:00,714.2846295773221,0.32014106631258443,-18.290593494091382,1.9592378341718855
sz002143,2013-07-05,4.65,4.71,4.63,4.66,0.002151,625155.0,2920148.63,491224510.0,972309000.0,0.005930531235096555,9.25,2013-03-31 00:00:00,2013-04-24 00:00:00,741.3290548264456,0.3322623283117245,-18.983116569669495,2.033418992434903
sz002143,2013-07-04,4.61,4.67,4.53,4.65,0.00432,635134.0,2938965.89,490170380.0,970222500.0,0.006025196993747358,9.23,2013-03-31 00:00:00,2013-04-24 00:00:00,739.7378786494706,0.33154916605553897,-18.942371528511664,2.0290544962135475
sz002143,2013-07-03,4.61,4.64,4.5,4.63,-0.006437999999999999,592384.0,2709185.35,488062120.0,966049500.0,0.005619649236453752,9.19,2013-03-31 00:00:00,2013-04-24 00:00:00,736.5559569155952,0.33012303454629893,-18.860892473028184,2.02032668493463
sz002143,2013-07-02,4.56,4.67,4.56,4.66,0.013043,651997.0,3018431.24,491224510.0,972309000.0,0.006185167796289318,9.25,2013-03-31 00:00:00,2013-04-24 00:00:00,741.3286306396532,0.33226213819197886,-18.98310570757354,2.0334178289171985
sz002143,2013-07-01,4.59,4.62,4.51,4.6,0.008772,487523.0,2227775.6,484899730.0,959790000.0,0.00462488564388353,9.13,2013-03-31 00:00:00,2013-04-24 00:00:00,731.7839722890867,0.32798423975288205,-18.73869688411404,2.0072374311033183
sz002143,2013-06-28,4.58,4.68,4.48,4.56,-0.002188,660008.0,3019347.09,479201250.0,951444000.0,0.006280527189776738,9.05,2013-03-31 00:00:00,2013-04-24 00:00:00,725.4205829355758,0.3251321802675749,-18.575750401591282,1.9897830541522943
sz002143,2013-06-27,4.71,4.74,4.57,4.57,-0.029724,898347.0,4192194.07,480252130.0,953530500.0,0.008548521773344349,9.07,2013-03-31 00:00:00,2013-04-24 00:00:00,727.0112836241454,0.3258451294107255,-18.616483266979433,1.994146246138846
sz002143,2013-06-26,4.8,4.83,4.6,4.71,-0.026860000000000002,1216208.0,5692132.53,494964450.0,982741500.0,0.011573234562603436,9.35,2013-03-31 00:00:00,2013-04-24 00:00:00,749.2829706435544,0.3358272588528682,-19.186791456224242,2.0552360834843344
sz002143,2013-06-25,4.7,4.92,4.38,4.84,0.018947,2641220.0,12532689.64,508625890.0,1009866000.0,0.025133413479994107,9.6,2013-03-31 00:00:00,2013-04-24 00:00:00,769.9642093055002,0.34509655224620117,-19.716373241490682,2.1119634209716325
sz002143,2013-06-24,4.89,4.89,4.51,4.75,-0.022634,1514580.0,7101009.19,499167970.0,991087500.0,0.01441249325352346,9.43,2013-03-31 00:00:00,2013-04-24 00:00:00,755.6469662362224,0.33867959005345827,-19.34975346263415,2.072692123311254
sz002143,2013-06-21,4.88,4.9,4.81,4.86,-0.012195000000000001,605122.0,2932057.03,510727650.0,1014039000.0,0.005758241050783133,9.64,2013-03-31 00:00:00,2013-04-24 00:00:00,773.1463609704272,0.34652278681011855,-19.797858184788662,2.1206918629369698
sz002143,2013-06-20,5.01,5.04,4.89,4.92,-0.031495999999999996,680969.0,3376189.05,517032930.0,1026558000.0,0.006479988576356248,9.76,2013-03-31 00:00:00,2013-04-24 00:00:00,782.691281143978,0.35080080259779867,-20.04227371271522,2.146872978914836
sz002143,2013-06-19,5.09,5.09,4.9,5.08,-0.005871,939288.0,4695331.0,533847010.0,1059942000.0,0.008938109515683154,10.08,2013-03-31 00:00:00,2013-04-24 00:00:00,808.1446035782794,0.36220893522153613,-20.694053625710602,2.216689842184272
sz002143,2013-06-18,5.12,5.18,5.06,5.11,-0.00969,924909.0,4720914.16,536999650.0,1066201500.0,0.008801281322995276,10.14,2013-03-31 00:00:00,2013-04-24 00:00:00,812.9172406984197,0.3643480224614071,-20.816265922944208,2.2297808857645953
sz002143,2013-06-17,5.25,5.29,5.14,5.16,-0.003861,1627295.0,8451887.65,542254050.0,1076634000.0,0.015485070512613046,10.24,2013-03-31 00:00:00,2013-04-24 00:00:00,820.871485391867,0.367913100404325,-21.019949230992527,2.251598878901148
sz002143,2013-06-14,5.15,5.23,5.08,5.18,0.007781999999999999,1865390.0,9646409.64,544355810.0,1080807000.0,0.017750743213340553,10.28,2013-03-31 00:00:00,2013-04-24 00:00:00,824.0531546218622,0.3693391187417871,-21.101421820642027,2.260325997577796
sz002143,2013-06-13,5.17,5.18,4.99,5.14,-0.009634,1038498.0,5265696.07,540152290.0,1072461000.0,0.00988217548795359,10.2,2013-03-31 00:00:00,2013-04-24 00:00:00,817.6898918832269,0.3664871160050359,-20.9384785803299,2.242871967923416
sz002143,2013-06-07,5.14,5.21,5.03,5.19,0.0077670000000000005,1069637.0,5486449.58,545406690.0,1082893500.0,0.010178489064738096,10.3,2013-03-31 00:00:00,2013-04-24 00:00:00,825.644147601217,0.3700521988891338,-21.14216217068225,2.2646899912995964
sz002143,2013-06-06,5.24,5.28,5.11,5.15,-0.02277,1248845.0,6506502.8,541203170.0,1074547500.0,0.011883802805515719,10.22,2013-03-31 00:00:00,2013-04-24 00:00:00,819.2807936767298,0.36720015528305033,-20.97921659538589,2.247235711528157
sz002143,2013-06-05,5.25,5.3,5.22,5.27,0.0,767041.0,4028585.59,553813730.0,1099585500.0,0.007299035489784624,10.46,2013-03-31 00:00:00,2013-04-24 00:00:00,838.3704897278326,0.37575612218520754,-21.468043956270165,2.2995975476890367
sz002143,2013-06-04,5.41,5.42,5.23,5.27,-0.018622,1215854.0,6473077.03,553813730.0,1099585500.0,0.011569865882523352,10.46,2013-03-31 00:00:00,2013-04-24 00:00:00,838.3704897278326,0.37575612218520754,-21.468043956270165,2.2995975476890367
sz002143,2013-06-03,5.39,5.4,5.32,5.37,-0.003711,1056022.0,5659343.79,564322530.0,1120450500.0,0.010048930954431325,10.66,2013-03-31 00:00:00,2013-04-24 00:00:00,854.2788708610063,0.38288622955192353,-21.87540780032787,2.343233237028991
sz002143,2013-05-31,5.42,5.48,5.38,5.39,-0.016423,2260161.0,12252388.55,566424290.0,1124623500.0,0.02150731881572381,10.7,2013-03-31 00:00:00,2013-04-24 00:00:00,857.4609082916767,0.3843124129162557,-21.956889818444115,2.351961365656943
sz002143,2013-05-30,5.5,5.69,5.46,5.48,0.009208,4527266.0,25099353.45,575882210.0,1143402000.0,0.04308071555118885,10.87,2013-03-31 00:00:00,2013-04-24 00:00:00,871.7781203623881,0.3907293612154978,-22.323508803524394,2.391232578290203
sz002143,2013-05-29,5.39,5.44,5.36,5.43,0.009294,1796118.0,9707091.83,570627810.0,1132969500.0,0.017091562256666037,10.77,2013-03-31 00:00:00,2013-04-24 00:00:00,863.8240287060627,0.3871643518635383,-22.119829414277724,2.3694150049248552
sz002143,2013-05-28,5.39,5.42,5.32,5.38,0.0,1438676.0,7704575.67,565373410.0,1122537000.0,0.013690203223388238,10.68,2013-03-31 00:00:00,2013-04-24 00:00:00,855.8695768587377,0.3835991810746307,-21.916140801667034,2.347596443578239
sz002143,2013-05-27,5.39,5.41,5.33,5.38,0.0,1277751.0,6847446.25,565373410.0,1122537000.0,0.012158867499622947,10.68,2013-03-31 00:00:00,2013-04-24 00:00:00,855.8695768587377,0.3835991810746307,-21.916140801667034,2.347596443578239
sz002143,2013-05-24,5.32,5.43,5.29,5.38,0.022813999999999997,2754260.0,14735772.68,565373410.0,1122537000.0,0.02620908330301561,10.68,2013-03-31 00:00:00,2013-04-24 00:00:00,855.8695768587377,0.3835991810746307,-21.916140801667034,2.347596443578239
sz002143,2013-05-23,5.27,5.31,5.23,5.26,-0.005671,1682422.0,8867742.8,552762850.0,1097499000.0,0.016009649924918073,10.44,2013-03-31 00:00:00,2013-04-24 00:00:00,836.7792940444086,0.3750429511862673,-21.427298415613237,2.295232997962718
sz002143,2013-05-22,5.31,5.35,5.25,5.29,-0.001887,2233799.0,11863290.37,555915490.0,1103758500.0,0.021256462398628252,10.5,2013-03-31 00:00:00,2013-04-24 00:00:00,841.5517339275115,0.3771819500248582,-21.5495056622237,2.308323500534247
sz002143,2013-05-21,5.28,5.32,5.24,5.3,0.003788,1736972.0,9181535.94,556966370.0,1105845000.0,0.01652873871002301,10.52,2013-03-31 00:00:00,2013-04-24 00:00:00,843.1427442859791,0.37789503796149154,-21.590246457288607,2.3126875419258615
sz002143,2013-05-20,5.24,5.28,5.17,5.28,0.009559999999999999,2206515.0,11588775.24,554864610.0,1101672000.0,0.020996832362402785,10.48,2013-03-31 00:00:00,2013-04-24 00:00:00,839.9609721235751,0.3764689734899118,-21.508771231862315,2.3039601409120865
sz002143,2013-05-17,5.2,5.25,5.12,5.23,-0.00381,3009098.0,15578877.68,549610210.0,1091239500.0,0.028634079668934827,10.38,2013-03-31 00:00:00,2013-04-24 00:00:00,832.0069853436895,0.3729040111433811,-21.305094528172983,2.28214285521622
sz002143,2013-05-16,5.37,5.49,5.2,5.25,0.009615,5163239.0,27320194.41,551711970.0,1095412500.0,0.049132529696609625,10.42,2013-03-31 00:00:00,2013-04-24 00:00:00,835.1890556456996,0.37433020924058774,-21.386577388021344,2.290871074008191
sz002143,2013-05-15,5.23,5.24,5.13,5.2,-0.005736,1340179.0,6935610.57,546457570.0,1084980000.0,0.012752922061268178,10.32,2013-03-31 00:00:00,2013-04-24 00:00:00,827.2351893005746,0.37076530087269677,-21.182903768289243,2.269054118657301
sz002143,2013-05-14,5.12,5.26,5.07,5.23,0.021484,2424874.0,12531247.2,549610210.0,1091239500.0,0.023074700559147183,10.38,2013-03-31 00:00:00,2013-04-24 00:00:00,832.0075848070276,0.37290427982175434,-21.30510987855262,2.28214449950647
sz002143,2013-05-13,5.13,5.15,5.06,5.12,0.003922,724501.0,3696023.14,538050530.0,1068288000.0,0.006894231885618624,10.16,2013-03-31 00:00:00,2013-04-24 00:00:00,814.5086803190529,0.36506130279255894,-20.857017710069485,2.2341461045953435
sz002143,2013-05-10,5.13,5.14,5.07,5.1,-0.007781999999999999,919780.0,4689947.55,535948770.0,1064115000.0,0.00875247460685468,10.12,2013-03-31 00:00:00,2013-04-24 00:00:00,811.3266571696338,0.36363512582905744,-20.77553605765138,2.2254180151399647
sz002143,2013-05-09,5.09,5.16,5.03,5.14,0.013807,1503527.0,7641607.14,540152290.0,1072461000.0,0.014307314664906815,10.2,2013-03-31 00:00:00,2013-04-24 00:00:00,817.6899201280705,0.36648712866432326,-20.938479303591933,2.2428720453972466
sz002143,2013-05-08,5.07,5.1,5.04,5.07,0.0,1155704.0,5866482.6,532796130.0,1057855500.0,0.01099748843896445,10.06,2013-03-31 00:00:00,2013-04-24 00:00:00,806.5538313782313,0.36149595402707146,-20.653318929137335,2.21232645404623
sz002143,2013-05-07,5.06,5.12,4.98,5.07,-0.0019690000000000003,1638118.0,8256036.14,532796130.0,1057855500.0,0.015588060408772114,10.06,2013-03-31 00:00:00,2013-04-24 00:00:00,806.5538313782313,0.36149595402707146,-20.653318929137335,2.21232645404623
sz002143,2013-05-06,4.99,5.09,4.93,5.08,0.018036,1990164.0,9933405.18,533847010.0,1059942000.0,0.018938072014302375,10.08,2013-03-31 00:00:00,2013-04-24 00:00:00,808.1450690191299,0.3622091438312752,-20.69406554419385,2.2166911188592637
sz002143,2013-05-03,4.85,5.08,4.85,4.99,0.024641,1143029.0,5697589.88,524389089.99999994,1041163500.0,0.010876875241626406,9.9,2013-03-31 00:00:00,2013-04-24 00:00:00,793.8275945242898,0.355792077914018,-20.32743983925308,2.177419186413117
sz002143,2013-05-02,4.83,4.93,4.82,4.87,0.004124,601609.0,2927082.69,511778530.0,1016125500.0,0.005724811922063241,9.66,2013-03-31 00:00:00,2013-04-24 00:00:00,774.7372928901829,0.34723583959066445,-19.838596971283682,2.1250556891761283
sz002143,2013-04-26,4.98,5.02,4.81,4.85,-0.014228,841469.0,4113076.33,509676770.0,1011952500.0,0.008007280084591652,9.62,2013-03-31 00:00:00,2013-04-24 00:00:00,771.5553984270697,0.3458097203041302,-19.757118614119054,2.1163279526991965
sz002143,2013-04-25,5.07,5.08,4.92,4.92,-0.029586,1495931.0,7475516.75,517032930.0,1026558000.0,0.014235032418534735,9.76,2013-03-31 00:00:00,2013-04-24 00:00:00,782.6915335666561,0.35080091573318195,-20.04228017646987,2.146873671294373
sz002143,2013-04-24,5.02,5.12,5.01,5.07,0.005952000000000001,915871.0,4640035.34,532796130.0,1057855500.0,0.008715277211191455,10.06,2013-03-31 00:00:00,2013-04-24 00:00:00,806.554247534203,0.36149614054741785,-20.65332958558911,2.212327595535898
sz002143,2013-04-23,5.21,5.29,5.03,5.04,-0.045455,2621250.0,13400453.07,529643490.0,1051596000.0,0.024943382198467125,10.0,2012-09-30 00:00:00,2012-10-29 00:00:00,21.374336802560148,0.3766062981708509,-4.028596030138214,2.139238182769004
sz002143,2013-04-22,5.46,5.64,5.2,5.28,0.005714,4286934.0,23042675.26,554864610.0,1101672000.0,0.04079375601193956,10.48,2012-09-30 00:00:00,2012-10-29 00:00:00,22.392173027526358,0.39454011929332916,-4.220435946066675,2.2411077348569255
sz002143,2013-04-19,5.15,5.26,5.1,5.25,0.019417,1044011.0,5434417.76,551711970.0,1095412500.0,0.009934636274068877,10.42,2012-09-30 00:00:00,2012-10-29 00:00:00,22.264951096958338,0.3922985255185164,-4.196457388548509,2.228374801242625
sz002143,2013-04-18,5.25,5.26,5.1,5.15,-0.020913,1075578.0,5544543.39,541203170.0,1074547500.0,0.010235022644083921,10.22,2012-09-30 00:00:00,2012-10-29 00:00:00,21.8408669827542,0.384826352237128,-4.116526787907705,2.185930587034182
sz002143,2013-04-17,5.29,5.29,5.2,5.26,0.001905,497708.0,2605855.8,552762850.0,1097499000.0,0.004736107138893288,10.44,2012-09-30 00:00:00,2012-10-29 00:00:00,22.307381246767857,0.39304612586739285,-4.204454545824533,2.232621398337617
sz002143,2013-04-16,5.38,5.38,5.1,5.25,-0.024163999999999998,1155110.0,6040309.21,551711970.0,1095412500.0,0.010991836011823344,10.42,2012-09-30 00:00:00,2012-10-29 00:00:00,22.26496648561276,0.392298796659756,-4.196460288974037,2.228376341407236
sz002143,2013-04-15,5.65,5.71,5.38,5.38,-0.051146,1727200.0,9605582.43,565373410.0,1122537000.0,0.01643574995859816,10.68,2012-09-30 00:00:00,2012-10-29 00:00:00,22.816299547887926,0.40201303975233127,-4.300374539342714,2.2835561932611994
sz002143,2013-04-12,5.55,5.67,5.51,5.67,0.021622,1007132.0,5640111.83,595848930.0,1183045500.0,0.009583701761451513,11.25,2012-09-30 00:00:00,2012-10-29 00:00:00,24.046164686967572,0.4236827159418955,-4.532177278425042,2.406646537044898
sz002143,2013-04-11,5.45,5.76,5.45,5.55,0.005435,1905905.0,10706951.21,583238370.0,1158007500.0,0.018136277196577448,11.01,2012-09-30 00:00:00,2012-10-29 00:00:00,23.537242431121854,0.4147157323764519,-4.436256539527381,2.355711346314878
sz002143,2013-04-10,5.6,5.78,5.52,5.52,-0.008976999999999999,4038383.0,22930675.7,580085730.0,1151748000.0,0.03842858565060719,10.95,2012-09-30 00:00:00,2012-10-29 00:00:00,23.410009032032754,0.41247393653140363,-4.412275820443272,2.3429772648802536
sz002143,2013-04-09,5.29,5.58,5.25,5.57,0.046992,2976137.0,16248324.8,585340130.0,1162180500.0,0.028320428141497836,11.05,2012-09-30 00:00:00,2012-10-29 00:00:00,23.622064303283327,0.4162102559995112,-4.452243611342291,2.3642006945149134
sz002143,2013-04-08,4.98,5.4,4.83,5.32,0.059761,2060525.0,10542522.7,559068130.0,1110018000.0,0.019607615622804327,10.56,2012-09-30 00:00:00,2012-10-29 00:00:00,22.561838393496156,0.39752954750323904,-4.252414164905072,2.2580885952470635
sz002143,2013-04-03,5.23,5.28,4.99,5.02,-0.034615,1109897.0,5613110.97,527541730.0,1047423000.0,0.01056159659634888,9.96,2012-09-30 00:00:00,2012-10-29 00:00:00,21.289553393167097,0.37511245224464673,-4.01261620771577,2.130752684092983
sz002143,2013-04-02,5.19,5.31,5.16,5.2,-0.003831,670699.0,3504001.0,546457570.0,1084980000.0,0.006382260931987821,10.32,2012-09-30 00:00:00,2012-10-29 00:00:00,22.05291504753761,0.38856254473049273,-4.156493220544933,2.2071532954137294
sz002143,2013-04-01,5.24,5.34,5.15,5.22,-0.005714,595019.0,3134789.82,548559330.0,1089153000.0,0.005662102547777284,10.36,2012-09-30 00:00:00,2012-10-29 00:00:00,22.13772467075126,0.3900568525325449,-4.17247798370049,2.21564141768488
sz002143,2013-03-29,5.23,5.28,5.2,5.25,0.007678,519134.0,2718366.68,551711970.0,1095412500.0,0.004939993417217321,10.42,2012-09-30 00:00:00,2012-10-29 00:00:00,22.26494657548357,0.392298445852144,-4.196456536349189,2.2283743487134284
sz002143,2013-03-28,5.39,5.39,5.21,5.21,-0.035185,927521.0,4868611.88,547508450.0,1087066500.0,0.008826136674237631,10.34,2012-09-30 00:00:00,2012-10-29 00:00:00,22.095298870753922,0.3893093288254224,-4.164481646269134,2.2113952559383336
sz002143,2013-03-27,5.5,5.5,5.38,5.4,-0.0036899999999999997,922365.0,5019839.0,567475170.0,1126710000.0,0.008777073012727588,10.72,2012-09-30 00:00:00,2012-10-29 00:00:00,22.90107312879041,0.4035067125049076,-4.316352509309177,2.292040708258406
sz002143,2013-03-26,5.41,5.47,5.28,5.42,-0.003676,1208806.0,6498730.85,569576930.0,1130883000.0,0.011502798261158506,10.75,2012-09-30 00:00:00,2012-10-29 00:00:00,22.985891066827005,0.4050011668104381,-4.332338839627402,2.30052966271382
sz002143,2013-03-25,5.39,5.46,5.37,5.44,0.0055450000000000004,952774.0,5172331.27,571678690.0,1135056000.0,0.009066440031200045,10.79,2012-09-30 00:00:00,2012-10-29 00:00:00,23.070698956189958,0.40649544406281296,-4.348323275989941,2.309017611453523
sz002143,2013-03-22,5.39,5.46,5.38,5.41,0.003711,1158127.0,6265730.9,568526050.0,1128796500.0,0.01102054526789054,10.74,2012-09-30 00:00:00,2012-10-29 00:00:00,22.943477374150298,0.4042538564289147,-4.324344784161765,2.2962847127214823
sz002143,2013-03-21,5.37,5.41,5.32,5.39,0.0037240000000000003,736537.0,3962692.54,566424290.0,1124623500.0,0.007008764454645827,10.7,2012-09-30 00:00:00,2012-10-29 00:00:00,22.858648927978567,0.4027592169747215,-4.308356473289388,2.287794706565418
sz002143,2013-03-20,5.2,5.39,5.2,5.37,0.022857,936992.0,4983845.68,564322530.0,1120450500.0,0.008916261131732594,10.66,2012-09-30 00:00:00,2012-10-29 00:00:00,22.773839150980315,0.4012649064630531,-4.292371681148789,2.279306568902824
sz002143,2013-03-19,5.2,5.26,5.1,5.25,0.009615,731901.0,3788529.96,551711970.0,1095412500.0,0.006964649054106983,10.42,2012-09-30 00:00:00,2012-10-29 00:00:00,22.26492965388155,0.3922981477010502,-4.196453346996491,2.2283726551246406
sz002143,2013-03-18,5.45,5.45,5.16,5.2,-0.045872,1089705.0,5771150.69,546457570.0,1084980000.0,0.010369452837847959,10.32,2012-09-30 00:00:00,2012-10-29 00:00:00,22.052891105898336,0.388562122889468,-4.156488708068413,2.207150899228558
sz002143,2013-03-15,5.55,5.55,5.38,5.45,0.001838,952130.0,5191039.96,572729570.0,1137142500.0,0.009060311832685712,10.81,2012-09-30 00:00:00,2012-10-29 00:00:00,23.113136922822033,0.4072431821406227,-4.356321906566429,2.313264990890696
sz002143,2013-03-14,5.42,5.51,5.42,5.44,-0.007298999999999999,661601.0,3611805.42,571678690.0,1135056000.0,0.006295685851085337,10.79,2012-09-30 00:00:00,2012-10-29 00:00:00,23.07073291572293,0.4064960424146645,-4.3483296766208,2.309021010273813
sz002143,2013-03-13,5.58,5.6,5.39,5.48,-0.01083,1069320.0,5835995.5,575882210.0,1143402000.0,0.010175472515464579,10.87,2012-09-30 00:00:00,2012-10-29 00:00:00,23.240364335004127,0.409484872499035,-4.380301497249222,2.3259984731291827
sz002143,2013-03-12,5.88,5.88,5.48,5.54,-0.052990999999999996,2375471.0,13351387.17,582187490.0,1155921000.0,0.022604589700132512,10.99,2012-09-30 00:00:00,2012-10-29 00:00:00,23.494813161543647,0.4139681475368592,-4.428259548155749,2.3514648373173292
sz002143,2013-03-11,5.76,5.94,5.73,5.85,0.012111,1759013.0,10277391.08,614764760.0,1220602500.0,0.016738477413702112,11.61,2012-09-30 00:00:00,2012-10-29 00:00:00,24.809493005392394,0.43713222106322025,-4.67604800815594,2.4830438119567284
sz002143,2013-03-08,5.8,5.83,5.72,5.78,-0.001727,1186483.0,6853533.3,607408610.0,1205997000.0,0.011290376242773377,11.47,2012-09-30 00:00:00,2012-10-29 00:00:00,24.512620656620065,0.4319014624514705,-4.620094049126963,2.453331513990786
sz002143,2013-03-07,5.85,5.94,5.7,5.79,-0.016978,2582520.0,15058298.93,608459490.0,1208083500.0,0.02457483373297374,11.49,2012-09-30 00:00:00,2012-10-29 00:00:00,24.555027188574737,0.43264864666425973,-4.628086754952768,2.457575747306384
sz002143,2013-03-06,5.72,5.95,5.7,5.89,0.031524,3568691.0,20722282.35,618968280.0,1228948500.0,0.03395907459102751,11.69,2012-09-30 00:00:00,2012-10-29 00:00:00,24.97912273435868,0.4401210213649946,-4.70801951019689,2.5000211056379045
sz002143,2013-03-05,5.66,5.72,5.57,5.71,0.019643,1204440.0,6816832.26,600052450.0,1191391500.0,0.01146125209554598,11.33,2012-09-30 00:00:00,2012-10-29 00:00:00,24.215745570979134,0.4266706556173144,-4.564139574257982,2.4236189421069256
sz002143,2013-03-04,5.71,5.78,5.56,5.6,-0.022688,2183697.0,12424619.73,588492770.0,1168440000.0,0.020779699978302195,11.11,2012-09-30 00:00:00,2012-10-29 00:00:00,23.749239264114134,0.41845102218846625,-4.476213316090024,2.3769289271901295
sz002143,2013-03-01,5.61,5.76,5.61,5.73,0.014159,1239826.0,7071551.26,602154210.0,1195564500.0,0.011797979424572985,11.37,2012-09-30 00:00:00,2012-10-29 00:00:00,24.30057061011646,0.4281652350410783,-4.580127242978726,2.4321086072719154
sz002143,2013-02-28,5.58,5.66,5.55,5.65,0.00713,1281099.0,7194931.83,593747170.0,1178872500.0,0.012190726483799494,11.21,2012-09-30 00:00:00,2012-10-29 00:00:00,23.961302527627772,0.42218748247669075,-4.516182613356214,2.3981531567258334
sz002143,2013-02-27,5.61,5.69,5.61,5.61,-0.0070799999999999995,814407.0,4590376.09,589543650.0,1170526500.0,0.0077497624985020195,11.13,2012-09-30 00:00:00,2012-10-29 00:00:00,23.791667935249443,0.4191985964837615,-4.48421019466823,2.381175376292865
sz002143,2013-02-26,5.67,5.76,5.64,5.65,-0.010508,1501462.0,8585527.0,593747170.0,1178872500.0,0.01428766439425724,11.21,2012-09-30 00:00:00,2012-10-29 00:00:00,23.96131403864304,0.42218768529565476,-4.516184782931385,2.3981543087991635
sz002143,2013-02-25,5.66,5.74,5.62,5.71,0.008834,1254688.0,7129459.08,600052450.0,1191391500.0,0.011939403763787649,11.33,2012-09-30 00:00:00,2012-10-29 00:00:00,24.215773385376576,0.42667114569461373,-4.564144816664899,2.4236217258948667
sz002143,2013-02-22,5.6,5.74,5.6,5.66,0.007117,1311729.0,7436726.75,594798050.0,1180959000.0,0.012482196503502324,11.23,2012-09-30 00:00:00,2012-10-29 00:00:00,24.003724483291183,0.422934938448361,-4.52417822621452,2.4023989337144336
sz002143,2013-02-21,5.73,5.74,5.59,5.62,-0.019197,1519181.0,8604983.38,590594530.0,1172613000.0,0.01445627547549416,11.15,2012-09-30 00:00:00,2012-10-29 00:00:00,23.83409721342325,0.4199461814748048,-4.492207187659944,2.385421886150699
sz002143,2013-02-20,5.61,5.74,5.6,5.73,0.010582,1537533.0,8717223.43,602154210.0,1195564500.0,0.014630910062058688,11.37,2012-09-30 00:00:00,2012-10-29 00:00:00,24.300595750036702,0.42816567799528016,-4.580131981305057,2.432111123386347
sz002143,2013-02-19,5.82,5.85,5.65,5.67,-0.015625,2150351.0,12374209.93,595848930.0,1183045500.0,0.020462384937067854,11.25,2012-09-30 00:00:00,2012-10-29 00:00:00,24.046139501828357,0.4236822721909555,-4.532172531575921,2.406644016404752
sz002143,2013-02-18,5.69,6.04,5.69,5.76,0.026737999999999998,3342727.0,19409560.79,605306850.0,1201824000.0,0.03180883798027397,11.43,2012-09-30 00:00:00,2012-10-29 00:00:00,24.427824255825627,0.4304073876225579,-4.604111778108872,2.444844715077843
sz002143,2013-02-08,5.58,5.65,5.54,5.61,0.008993000000000001,1006957.0,5637973.73,589543650.0,1170526500.0,0.009582036495516491,11.13,2012-09-30 00:00:00,2012-10-29 00:00:00,23.791682255673436,0.4191988488032565,-4.484212893755634,2.381176809544249
sz002143,2013-02-07,5.59,5.6,5.51,5.56,-0.001795,768304.0,4263196.17,584289250.0,1160094000.0,0.007311053968560948,11.03,2012-09-30 00:00:00,2012-10-29 00:00:00,23.57963063735173,0.4154625936981292,-4.444245791353987,2.3599537455108694
sz002143,2013-02-06,5.56,5.6,5.51,5.57,0.0,960955.0,5336465.73,585340130.0,1162180500.0,0.009144289064889503,11.05,2012-09-30 00:00:00,2012-10-29 00:00:00,23.622032185124027,0.416209690091844,-4.452237557770185,2.364197479987447
sz002143,2013-02-05,5.5,5.57,5.44,5.57,0.007233,1106025.0,6075998.66,585340130.0,1162180500.0,0.01052475122455725,11.05,2012-09-30 00:00:00,2012-10-29 00:00:00,23.622032185124027,0.416209690091844,-4.452237557770185,2.364197479987447
sz002143,2013-02-04,5.68,5.73,5.52,5.53,-0.029825,1970532.0,10999285.4,581136610.0,1153834500.0,0.01875125705812959,10.97,2012-09-30 00:00:00,2012-10-29 00:00:00,23.452400968915857,0.4132208635855299,-4.420265775416596,2.3472200374565237
sz002143,2013-02-01,5.7,5.84,5.66,5.7,-0.022298,3539479.0,20272554.1,599001570.0,1189305000.0,0.03368109753034537,11.31,2012-09-30 00:00:00,2012-10-29 00:00:00,24.17337178232366,0.425924048326879,-4.556153039829511,2.4193779858855606
sz002143,2013-01-31,5.66,5.85,5.57,5.83,0.024605000000000002,4378190.0,25219948.58,612663010.0,1216429500.0,0.04166213282567851,11.57,2012-09-30 00:00:00,2012-10-29 00:00:00,24.72468275847207,0.4356379022717342,-4.660063127445287,2.4745556272622546
sz002143,2013-01-30,5.51,5.81,5.46,5.69,0.027076,4349122.0,24740635.86,597950690.0,1187218500.0,0.04138552658915738,11.29,2012-09-30 00:00:00,2012-10-29 00:00:00,24.13094095624369,0.42517643606241834,-4.5481557550912655,2.4151313211064305
sz002143,2013-01-29,5.49,5.58,5.39,5.54,0.018382,1868368.0,10278274.64,582187490.0,1155921000.0,0.01777908130592088,10.99,2012-09-30 00:00:00,2012-10-29 00:00:00,23.494795863445052,0.41396784275206344,-4.4282562878416645,2.351463106047099
sz002143,2013-01-28,5.36,5.45,5.32,5.44,0.022556,984648.0,5323238.78,571678690.0,1135056000.0,0.00936974775113622,10.79,2012-09-30 00:00:00,2012-10-29 00:00:00,23.07071007092138,0.40649563989943216,-4.348325370874255,2.309018723865013
sz002143,2013-01-25,5.31,5.41,5.28,5.32,0.001883,1091080.0,5826325.12,559068130.0,1110018000.0,0.010382537097938314,10.56,2012-09-30 00:00:00,2012-10-29 00:00:00,22.561805975341574,0.3975289763097885,-4.2524080547904015,2.258085350694742
sz002143,2013-01-24,5.47,5.53,5.26,5.31,-0.027473,1510758.0,8152750.09,558017250.0,1107931500.0,0.014376123641339044,10.54,2012-09-30 00:00:00,2012-10-29 00:00:00,22.519401941485754,0.3967818361123889,-4.2444158198017155,2.253841367399928
sz002143,2013-01-23,5.6,5.63,5.4,5.46,-0.023256,2000495.0,10991099.63,573780450.0,1139229000.0,0.019036380030027163,10.83,2012-09-30 00:00:00,2012-10-29 00:00:00,23.15555448998923,0.40799056078894347,-4.36431669228897,2.317510328659181
sz002143,2013-01-22,5.85,5.85,5.54,5.59,-0.036206999999999996,2822779.0,15902674.06,587441890.0,1166353500.0,0.026861098737783237,11.09,2012-09-30 00:00:00,2012-10-29 00:00:00,23.706881731537873,0.41770470132290904,-4.468229845577725,2.372689597949085
sz002143,2013-01-21,5.61,5.86,5.6,5.8,0.030195,2905318.0,16740169.83,609510370.0,1210170000.0,0.02764652617805338,11.51,2012-09-30 00:00:00,2012-10-29 00:00:00,24.59748279094979,0.4333966954760089,-4.636088709481937,2.4618248918067316
sz002143,2013-01-18,5.51,5.65,5.49,5.63,0.016245,1639359.0,9127277.79,591645410.0,1174699500.0,0.015599869472493668,11.17,2012-09-30 00:00:00,2012-10-29 00:00:00,23.876530939239455,0.42069384483132694,-4.50020501893519,2.38966884114826
sz002143,2013-01-17,5.62,5.62,5.5,5.54,-0.014235,1213623.0,6730108.16,582187490.0,1155921000.0,0.011548636024453222,10.99,2012-09-30 00:00:00,2012-10-29 00:00:00,23.494856987477874,0.4139689197303081,-4.428267808387927,2.3514692236107035
sz002143,2013-01-16,5.6,5.72,5.47,5.62,-0.0053100000000000005,2094111.0,11730284.75,590594530.0,1172613000.0,0.019927214395297564,11.15,2012-09-30 00:00:00,2012-10-29 00:00:00,23.834135912187865,0.41994686332980785,-4.492214481532542,2.385425759294257
sz002143,2013-01-15,5.45,5.74,5.45,5.65,0.032907,3695593.0,20842597.1,593747170.0,1178872500.0,0.03516665258379253,11.21,2012-09-30 00:00:00,2012-10-29 00:00:00,23.961370791088548,0.4221886852484773,-4.51619547952884,2.398159988834971
sz002143,2013-01-14,5.28,5.5,5.28,5.47,0.030132,1644050.0,8926096.61,574831330.0,1141315500.0,0.015644508276888805,10.85,2012-09-30 00:00:00,2012-10-29 00:00:00,23.197994389706473,0.4087383329268533,-4.372315687209826,2.3217579015680703
sz002143,2013-01-11,5.48,5.49,5.31,5.31,-0.031022000000000004,1518856.0,8178028.17,558017250.0,1107931500.0,0.01445318287203487,10.54,2012-09-30 00:00:00,2012-10-29 00:00:00,22.519438663886252,0.3967824831447361,-4.244422741172808,2.2538450427402217
sz002143,2013-01-10,5.44,5.53,5.39,5.48,0.01107,1787474.0,9729437.18,575882210.0,1143402000.0,0.017009307372075275,10.87,2012-09-30 00:00:00,2012-10-29 00:00:00,23.240402428007915,0.409485543680802,-4.380308676949124,2.3260022856455174
sz002143,2013-01-09,5.41,5.53,5.35,5.42,-0.010948999999999999,2754124.0,15002325.54,569576930.0,1130883000.0,0.026207789139212505,10.76,2012-09-30 00:00:00,2012-10-29 00:00:00,22.985947983826954,0.4050021696626366,-4.332349567239779,2.3005353592189635
sz002143,2013-01-08,5.2,5.48,5.16,5.48,0.04381,3611010.0,19266597.97,575882210.0,1143402000.0,0.034361774780297526,10.87,2012-09-30 00:00:00,2012-10-29 00:00:00,23.240407202284768,0.4094856278014345,-4.38030957679612,2.3260027634762652
sz002143,2013-01-07,5.19,5.25,5.15,5.25,0.011561,1387873.0,7222689.61,551711970.0,1095412500.0,0.013206770282689354,10.42,2012-09-30 00:00:00,2012-10-29 00:00:00,22.264978494443213,0.3922990082500019,-4.196462552376506,2.228377543304112
sz002143,2013-01-04,5.2,5.22,5.15,5.19,0.003868,1344084.0,6966006.7,545406690.0,1082893500.0,0.012790081397791435,10.3,2012-09-30 00:00:00,2012-10-29 00:00:00,22.0105149313222,0.3878154735601728,-4.148501723945967,2.2029097042136976
