code,date,open,high,low,close,change,volume,money,traded_market_value,market_value,turnover,adjust_price,report_type,report_date,PE_TTM,PS_TTM,PC_TTM,PB
sz000070,2014-09-12,10.83,11.06,10.8,11.01,0.012879,3726648.0,40900033.41,2846810980.0,2983710000.0,0.014412756859607165,15.69,2014-06-30 00:00:00,2014-08-29 00:00:00,64.98251701369396,1.7994510209861279,47.919723961325424,2.870832687798601
sz000070,2014-09-11,10.99,11.15,10.85,10.87,-0.010919,4480807.0,49205873.62,2810611750.0,2945770000.0,0.01732945579908004,15.49,2014-06-30 00:00:00,2014-08-29 00:00:00,64.15624868685596,1.7765705686327073,47.310413150361924,2.8343293599715276
sz000070,2014-09-10,10.9,11.05,10.77,10.99,0.006409999999999999,3594472.0,39268375.23,2841639660.0,2978290000.0,0.01390156811085611,15.66,2014-06-30 00:00:00,2014-08-29 00:00:00,64.86450420830646,1.7961830918122046,47.83269838401699,2.8656190544268134
sz000070,2014-09-09,10.81,10.97,10.81,10.92,0.006451999999999999,3666673.0,39923520.7,2823540040.0,2959320000.0,0.014180804448588586,15.56,2014-06-30 00:00:00,2014-08-29 00:00:00,64.45137092070473,1.7847428898880224,47.528043624384686,2.8473674292056055
sz000070,2014-09-05,10.89,10.91,10.73,10.85,-0.006409999999999999,3275879.0,35457715.94,2805440430.0,2940350000.0,0.012669414317237882,15.46,2014-06-30 00:00:00,2014-08-29 00:00:00,64.0381964770349,1.7733015482984011,47.223358515244335,2.8291139857694216
sz000070,2014-09-04,10.69,10.95,10.67,10.92,0.021515,5383035.0,58283399.87,2823540040.0,2959320000.0,0.02081880949703125,15.56,2014-06-30 00:00:00,2014-08-29 00:00:00,64.4513294991243,1.7847417428701993,47.52801307908125,2.847365599260683
sz000070,2014-09-03,10.74,10.78,10.61,10.69,0.002814,3762619.0,40282159.07,2764069880.0,2896990000.0,0.014551874176929274,15.23,2014-06-30 00:00:00,2014-08-29 00:00:00,63.09386499378305,1.7471517724851804,46.52698499687351,2.7873948001357616
sz000070,2014-09-02,10.52,10.74,10.48,10.66,0.016206,4767069.0,50702443.25,2756312900.0,2888860000.0,0.018436569933696568,15.19,2014-06-30 00:00:00,2014-08-29 00:00:00,62.916817070546536,1.7422490835640314,46.39642545564134,2.7795730814844646
sz000070,2014-09-01,10.23,10.51,10.2,10.49,0.025415,2758776.0,28709969.87,2712356690.0,2842790000.0,0.01066952600544584,14.95,2014-06-30 00:00:00,2014-08-29 00:00:00,61.91344773652836,1.714464472325524,45.65651595802558,2.735245689834999
sz000070,2014-08-29,10.18,10.24,10.13,10.23,0.00689,1407494.0,14341648.14,2645129550.0,2772330000.0,0.005443462540426423,14.58,2014-06-30 00:00:00,2014-08-29 00:00:00,60.37891754706959,1.6719713211972949,44.524915237270356,2.667452387408999
sz000070,2014-08-28,10.21,10.27,10.07,10.16,-0.004897,1951222.0,19829073.46,2627029930.0,2753360000.0,0.007546322671702488,14.48,2014-03-31 00:00:00,2014-04-22 00:00:00,59.500097100246315,1.7501146382194317,47.52838279336807,2.68056166510548
sz000070,2014-08-27,10.15,10.27,10.12,10.21,0.008893,1710648.0,17451588.54,2639958230.0,2766910000.0,0.0066159062221223105,14.55,2014-03-31 00:00:00,2014-04-22 00:00:00,59.79290294597275,1.7587271249503134,47.76227465234058,2.6937529734163
sz000070,2014-08-26,10.47,10.53,10.05,10.12,-0.035272000000000005,4160249.0,42682929.21,2616687290.0,2742520000.0,0.016089702442052215,14.42,2014-03-31 00:00:00,2014-04-22 00:00:00,59.26585172656837,1.7432246283305695,47.34126874935258,2.6700085870516492
sz000070,2014-08-25,10.64,10.73,10.42,10.49,-0.014098,3092265.0,32689723.01,2712356690.0,2842790000.0,0.011959289856526946,14.95,2014-03-31 00:00:00,2014-04-22 00:00:00,61.43270613744845,1.8069597112663562,49.07214131791819,2.7676283750981097
sz000070,2014-08-22,10.6,10.68,10.55,10.64,0.003774,2657904.0,28214896.63,2751141580.0,2883440000.0,0.010279405017025697,15.16,2014-03-31 00:00:00,2014-04-22 00:00:00,62.311168997981994,1.832798504583981,49.77385309890657,2.8072043419103614
sz000070,2014-08-21,10.55,10.64,10.38,10.6,0.009524,3136569.0,32948707.51,2740798940.0,2872600000.0,0.012130634945444047,15.11,2014-03-31 00:00:00,2014-04-22 00:00:00,62.076890812057286,1.8259075295673937,49.58671284463093,2.796649785619434
sz000070,2014-08-20,10.55,10.73,10.45,10.5,-0.002849,4730400.0,50230518.92,2714942350.0,2845500000.0,0.018294753109582604,14.96,2014-03-31 00:00:00,2014-04-22 00:00:00,61.49124816453823,1.808681645574938,49.11890439913358,2.7702657743841987
sz000070,2014-08-19,10.46,10.53,10.38,10.53,0.005731,3483836.0,36403952.91,2722699330.0,2853630000.0,0.013473684984525999,15.01,2014-03-31 00:00:00,2014-04-22 00:00:00,61.66693726881708,1.813849302237011,49.25924398524755,2.778180811516208
sz000070,2014-08-18,10.31,10.48,10.29,10.47,0.016505000000000002,4374233.0,45547094.46,2707185370.0,2837370000.0,0.0169172824356686,14.92,2014-03-31 00:00:00,2014-04-22 00:00:00,61.31553792099188,1.8035133671299892,48.97854792707747,2.7623497848989524
sz000070,2014-08-15,10.11,10.3,10.08,10.3,0.021825,3733426.0,38025015.19,2663229160.0,2791300000.0,0.01443897069676122,14.68,2014-03-31 00:00:00,2014-04-22 00:00:00,60.319957030208286,1.7742297058351795,48.18328284374151,2.7174974888455563
sz000070,2014-08-14,10.25,10.29,10.04,10.08,-0.015625,3756872.0,38226740.65,2606344660.0,2731680000.0,0.014529647725101714,14.36,2014-03-31 00:00:00,2014-04-22 00:00:00,59.0315925233854,1.7363342116655782,47.154143658397,2.6594548859594904
sz000070,2014-08-13,10.33,10.34,10.12,10.24,-0.008712000000000001,2783374.0,28416653.63,2647715210.0,2775040000.0,0.010764658393906345,14.59,2014-03-31 00:00:00,2014-04-22 00:00:00,59.9686019285185,1.7638950721682063,47.9026221291652,2.7016684555778947
sz000070,2014-08-12,10.33,10.37,10.27,10.33,0.0009689999999999999,2401919.0,24768416.68,2670986140.0,2799430000.0,0.009289386754361818,14.72,2014-03-31 00:00:00,2014-04-22 00:00:00,60.495639943708085,1.779397180403885,48.32361748469184,2.725412247074407
sz000070,2014-08-11,10.23,10.32,10.16,10.32,0.010773999999999999,3039653.0,31199749.01,2668400480.0,2796720000.0,0.011755813715038756,14.71,2014-03-31 00:00:00,2014-04-22 00:00:00,60.43707641666035,1.7776746137032067,48.276837229416536,2.7227738791854765
sz000070,2014-08-08,10.18,10.27,10.14,10.21,-0.000978,2634898.0,26862960.53,2639958230.0,2766910000.0,0.010190429634184024,14.55,2014-03-31 00:00:00,2014-04-22 00:00:00,59.7928680562226,1.7587260987156443,47.76224678258101,2.6937514015848016
sz000070,2014-08-07,10.23,10.43,10.17,10.22,0.002944,4681562.0,48280410.73,2642543890.0,2769620000.0,0.018105872837555784,14.56,2014-03-31 00:00:00,2014-04-22 00:00:00,59.851402728090676,1.7604478166803579,47.80900398848175,2.6963884695079807
sz000070,2014-08-06,10.2,10.23,10.12,10.19,-0.00098,2320168.0,23603672.37,2634786910.0,2761490000.0,0.008973215947850598,14.52,2014-03-31 00:00:00,2014-04-22 00:00:00,59.67571741601792,1.7552802715608826,47.66866743156322,2.6884736032201006
sz000070,2014-08-05,10.23,10.23,10.11,10.2,0.00295,2293732.0,23340647.17,2637372570.0,2764200000.0,0.008870975100798898,14.54,2014-03-31 00:00:00,2014-04-22 00:00:00,59.73425698786603,1.7570021336518613,47.71542855154374,2.6911108918941573
sz000070,2014-08-04,10.06,10.22,10.06,10.17,0.010934000000000001,2623010.0,26597493.77,2629615590.0,2756070000.0,0.01014445297687028,14.49,2014-03-31 00:00:00,2014-04-22 00:00:00,59.558559238113595,1.7518342226949113,47.5750820594683,2.6831954652716057
sz000070,2014-08-01,10.11,10.28,10.05,10.06,-0.002973,4099763.0,41665027.16,2601173340.0,2726260000.0,0.015855773679427303,14.34,2014-03-31 00:00:00,2014-04-22 00:00:00,58.91438930544783,1.7328868380081306,47.06052230854666,2.654174718895206
sz000070,2014-07-31,10.01,10.13,10.0,10.09,0.002982,2314459.0,23308124.54,2608930310.0,2734390000.0,0.008951136494711505,14.38,2014-03-31 00:00:00,2014-04-22 00:00:00,59.0900640659158,1.7380540727664653,47.20085043689554,2.6620891098186967
sz000070,2014-07-30,10.11,10.16,9.93,10.06,-0.00396,2945837.0,29522088.28,2601173340.0,2726260000.0,0.011392981684181033,14.34,2014-03-31 00:00:00,2014-04-22 00:00:00,58.91438138063873,1.7328866049106215,47.060515978248404,2.654174361871595
sz000070,2014-07-29,10.06,10.2,9.96,10.1,0.007984,3781128.0,38220557.26,2611515970.0,2737100000.0,0.014623457500817044,14.39,2014-03-31 00:00:00,2014-04-22 00:00:00,59.14860987574668,1.7397761183392448,47.2476165397458,2.6647266795225044
sz000070,2014-07-28,9.94,10.04,9.87,10.02,0.016227000000000002,3376588.0,33605433.98,2590830700.0,2715420000.0,0.013058904914165174,14.28,2014-03-31 00:00:00,2014-04-22 00:00:00,58.680107894318446,1.7259957681265228,46.873379477993495,2.6436200173043467
sz000070,2014-07-25,9.7,9.89,9.63,9.86,0.016495,1479830.0,14515035.95,2549460150.0,2672060000.0,0.005723220972879297,14.05,2014-03-31 00:00:00,2014-04-22 00:00:00,57.743110441189266,1.6984352591758758,46.12491055442681,2.601406986140249
sz000070,2014-07-24,9.72,9.81,9.61,9.7,-0.005128,1412843.0,13694612.34,2508089600.0,2628700000.0,0.005464149725751424,13.82,2014-03-31 00:00:00,2014-04-22 00:00:00,56.80609392194676,1.6708741894213706,45.37642640094326,2.5591930960213762
sz000070,2014-07-23,9.86,9.94,9.72,9.75,-0.011156000000000001,1943640.0,19127739.27,2521017900.0,2642250000.0,0.007516999383463323,13.89,2014-03-31 00:00:00,2014-04-22 00:00:00,57.09889706610173,1.6794865966891928,45.610316101913874,2.5723842826226653
sz000070,2014-07-22,9.89,9.95,9.81,9.86,-0.0030329999999999997,1669305.0,16493582.04,2549460150.0,2672060000.0,0.006456012775881199,14.05,2014-03-31 00:00:00,2014-04-22 00:00:00,57.743078853794664,1.6984343300755151,46.124885322572496,2.6014055630844353
sz000070,2014-07-21,9.66,9.94,9.64,9.89,0.020640000000000002,2355021.0,23115216.94,2557217130.0,2680190000.0,0.00910800941256013,14.09,2014-03-31 00:00:00,2014-04-22 00:00:00,57.91874641166123,1.7036013529791008,46.26520769751907,2.6093196295207717
sz000070,2014-07-18,9.7,9.77,9.67,9.69,-0.0051329999999999995,1334213.0,12973744.08,2505540280.0,2625990000.0,0.005159974506576282,13.81,2014-03-31 00:00:00,2014-04-22 00:00:00,56.74747845632273,1.6691500950179308,45.329604657390526,2.556552388227751
sz000070,2014-07-17,9.66,9.75,9.57,9.74,0.009326000000000001,1679126.0,16259386.48,2518468760.0,2639540000.0,0.006493901175093393,13.88,2014-03-31 00:00:00,2014-04-22 00:00:00,57.04026614243183,1.6777620476083042,45.563482010550686,2.5697428784226948
sz000070,2014-07-16,9.8,9.81,9.6,9.65,-0.016309999999999998,2615905.0,25341630.58,2495197490.0,2615150000.0,0.010116827766606964,13.75,2014-03-31 00:00:00,2014-04-22 00:00:00,56.513223817113435,1.6622598125960337,45.142483212114506,2.5459988927489183
sz000070,2014-07-15,10.02,10.04,9.76,9.81,-0.018018,3645112.0,35833000.65,2536568640.0,2658510000.0,0.014097213123316073,13.98,2014-03-31 00:00:00,2014-04-22 00:00:00,57.45023718561075,1.6898207896756434,45.89096484879841,2.5882126409223623
sz000070,2014-07-14,9.98,10.04,9.95,9.99,-0.001998,3860628.0,38576520.4,2583111180.0,2707290000.0,0.01493070604881978,14.24,2014-03-31 00:00:00,2014-04-22 00:00:00,58.50436890453262,1.720826644149937,46.7330000435837,2.6357027327612546
sz000070,2014-07-11,9.95,10.1,9.91,10.01,0.002002,5919944.0,59308188.29,2588282580.0,2712710000.0,0.022894965139393705,14.26,2014-03-31 00:00:00,2014-04-22 00:00:00,58.62149465084501,1.7242717390846283,46.82655950948365,2.640979409621679
sz000070,2014-07-10,9.78,10.0,9.75,9.99,0.016277,4235096.0,41797798.25,2583111180.0,2707290000.0,0.016378934583837775,14.24,2014-03-31 00:00:00,2014-04-22 00:00:00,58.5043689042986,1.7208266441430538,46.73300004339677,2.635702732750712
sz000070,2014-07-09,9.93,10.11,9.78,9.83,-0.011066,11798663.0,117928546.48,2541740030.0,2663930000.0,0.04563049561366825,14.01,2014-03-31 00:00:00,2014-04-22 00:00:00,57.567345226054115,1.693265363816217,45.9845101713379,2.5934885201088993
sz000070,2014-07-08,9.73,9.95,9.67,9.94,0.019487,5909824.0,57995944.29,2570182700.0,2693740000.0,0.022855826770602727,14.16,2014-03-31 00:00:00,2014-04-22 00:00:00,58.2115138381875,1.7122127096613293,46.499068867424825,2.622509206993489
sz000070,2014-07-07,9.55,9.76,9.52,9.75,0.019874,3767600.0,36359357.47,2521054460.0,2642250000.0,0.014570926801795468,13.89,2014-03-31 00:00:00,2014-04-22 00:00:00,57.098828958277544,1.6794845933899396,45.61026169772133,2.5723812142709903
sz000070,2014-07-04,9.53,9.58,9.49,9.56,0.002096,1702678.0,16239206.32,2471926220.0,2590760000.0,0.006584986860975164,13.62,2014-03-31 00:00:00,2014-04-22 00:00:00,55.986160014156205,1.6467569458481535,44.72146725744683,2.5222539394778085
sz000070,2014-07-03,9.55,9.6,9.46,9.54,-0.001047,2647226.0,25291780.73,2466754820.0,2585340000.0,0.010237959539083822,13.59,2014-03-31 00:00:00,2014-04-22 00:00:00,55.86905846760809,1.6433125627166991,44.6279271221987,2.516978352850234
sz000070,2014-07-02,9.51,9.59,9.44,9.55,0.003151,2133579.0,20301539.29,2469340520.0,2588050000.0,0.008251466043249476,13.61,2014-03-31 00:00:00,2014-04-22 00:00:00,55.92761468017824,1.6450349142719418,44.674701534705534,2.519616391211833
sz000070,2014-07-01,9.46,9.55,9.4,9.52,0.006342,1851930.0,17529472.66,2461583430.0,2579920000.0,0.0071622084326428866,13.57,2014-03-31 00:00:00,2014-04-22 00:00:00,55.75194031624177,1.6398676911770431,44.53437372310404,2.511702018152634
sz000070,2014-06-30,9.42,9.54,9.42,9.46,0.004246,1772055.0,16806016.56,2446069250.0,2563660000.0,0.006853297509872217,13.48,2014-03-31 00:00:00,2014-04-22 00:00:00,55.40058977588312,1.6295331916754374,44.25371665209644,2.4958731903792493
sz000070,2014-06-27,9.39,9.47,9.36,9.42,0.003184,1874772.0,17634550.49,2435726460.0,2552820000.0,0.00725054825737698,13.42,2014-03-31 00:00:00,2014-04-22 00:00:00,55.16635343918036,1.622643447596941,44.06660982677197,2.485320519453649
sz000070,2014-06-26,9.26,9.47,9.25,9.42,0.018378,1861166.0,17515949.79,2435726460.0,2552820000.0,0.007197928013640743,13.38,2014-03-31 00:00:00,2014-04-22 00:00:00,54.99126126331795,1.617493348774443,43.92674706411981,2.4774323747723734
sz000070,2014-06-25,9.26,9.29,9.17,9.25,-0.00108,708706.0,6538295.46,2391769610.0,2506750000.0,0.002740870388431769,13.14,2014-03-31 00:00:00,2014-04-22 00:00:00,53.998870029908296,1.5883035069241902,43.13402986329223,2.4327237771950823
sz000070,2014-06-24,9.16,9.28,9.12,9.26,0.010917,1008964.0,9294046.8,2394355310.0,2509460000.0,0.0039020969865997037,13.15,2014-03-31 00:00:00,2014-04-22 00:00:00,54.05725186191916,1.590020729311847,43.18066498147221,2.435353959471311
sz000070,2014-06-23,9.18,9.27,9.12,9.16,0.001093,982709.0,9038793.35,2368498340.0,2482360000.0,0.003800557630958694,13.01,2014-03-31 00:00:00,2014-04-22 00:00:00,53.47348186044864,1.5728499266624725,42.714352396361136,2.4090543135304983
sz000070,2014-06-20,9.1,9.18,9.05,9.15,0.00882,841957.0,7673688.5,2365912650.0,2479650000.0,0.0032562092053567576,13.0,2014-03-31 00:00:00,2014-04-22 00:00:00,53.41509915706996,1.5711326786447137,42.667716582136855,2.4064240919979447
sz000070,2014-06-19,9.31,9.37,9.05,9.07,-0.023681,1885974.0,17390336.67,2345227070.0,2457970000.0,0.007293871198578652,12.88,2014-03-31 00:00:00,2014-04-22 00:00:00,52.94809694204116,1.557396442026044,42.29467752635441,2.3853849963303113
sz000070,2014-06-18,9.5,9.55,9.29,9.29,-0.019007,2571614.0,24141918.01,2402112400.0,2517590000.0,0.009945535462870097,13.2,2014-03-31 00:00:00,2014-04-22 00:00:00,54.232373785659355,1.5951717031278139,43.32055150658177,2.4432434443356232
sz000070,2014-06-17,9.59,9.59,9.44,9.47,-0.014568000000000001,1949750.0,18508187.74,2448654950.0,2566370000.0,0.007540520357921398,13.45,2014-03-31 00:00:00,2014-04-22 00:00:00,55.283140435924985,1.6260785786726448,44.159898701195395,2.4905819351775427
sz000070,2014-06-16,9.64,9.71,9.57,9.61,-0.003112,2069371.0,19931132.1,2484854700.0,2604310000.0,0.00800314614371617,13.65,2014-03-31 00:00:00,2014-04-22 00:00:00,56.10041122667519,1.6501174902709115,44.812730559993376,2.5274011146152575
sz000070,2014-06-13,9.5,9.7,9.47,9.64,0.011542,2267379.0,21843243.19,2492611790.0,2612440000.0,0.008768928096901924,13.69,2014-03-31 00:00:00,2014-04-22 00:00:00,56.27554070936272,1.65526868642306,44.95262312315263,2.5352909400206016
sz000070,2014-06-12,9.72,9.72,9.49,9.53,-0.028542,3366121.0,32329885.06,2464169130.0,2582630000.0,0.013018235128203234,13.54,2014-03-31 00:00:00,2014-04-22 00:00:00,55.6334197782818,1.6363815703382163,44.43970010454596,2.5063625039994406
sz000070,2014-06-11,9.67,9.83,9.62,9.81,0.013430000000000001,4879136.0,47472340.15,2536568640.0,2658510000.0,0.01886971375629717,13.94,2014-03-31 00:00:00,2014-04-22 00:00:00,57.267961948207535,1.6844594108424824,45.745364292173164,2.5800008893842454
sz000070,2014-06-10,9.65,9.74,9.52,9.68,-0.001032,3994019.0,38628544.06,2502954580.0,2623280000.0,0.015446586298022235,13.75,2014-03-31 00:00:00,2014-04-22 00:00:00,56.50904546757796,1.6621369121128073,45.139145567205595,2.5458106523235404
sz000070,2014-06-09,9.6,9.75,9.6,9.69,0.001033,5174965.0,50097041.78,2505540280.0,2625990000.0,0.020013811492186426,13.76,2014-03-31 00:00:00,2014-04-22 00:00:00,56.56742304816367,1.6638540094505605,45.185777289368225,2.5484406430671855
sz000070,2014-06-06,9.62,9.75,9.58,9.68,0.00207,5820797.0,56335290.89,2502954580.0,2623280000.0,0.02251152114793869,13.75,2014-03-31 00:00:00,2014-04-22 00:00:00,56.50904920033972,1.6621370219069305,45.13914854891719,2.5458108204896197
sz000070,2014-06-05,9.41,9.7,9.39,9.66,0.024390000000000002,3654910.0,34982433.03,2497783190.0,2617860000.0,0.014135106177890483,13.72,2014-03-31 00:00:00,2014-04-22 00:00:00,56.39231710393457,1.6587035056502346,45.04590352861296,2.5405518781019487
sz000070,2014-06-04,9.42,9.46,9.29,9.43,0.002125,1825100.0,17152358.63,2438312160.0,2555530000.0,0.007058445297668531,13.4,2014-03-31 00:00:00,2014-04-22 00:00:00,55.04965599423518,1.6192109505659316,43.9733924858823,2.4800631381621736
sz000070,2014-06-03,9.3,9.5,9.28,9.41,0.011828,2336729.0,22035287.23,2433140760.0,2550110000.0,0.0090371343292116,13.37,2014-03-31 00:00:00,2014-04-22 00:00:00,54.93292353173026,1.6157774235409075,43.880147173139385,2.474804179281201
sz000070,2014-05-30,9.27,9.38,9.26,9.3,-0.001074,1230801.0,11471219.95,2404698100.0,2520300000.0,0.004760035906378435,13.21,2014-03-31 00:00:00,2014-04-22 00:00:00,54.29077227723513,1.5968894155339717,43.36719993233967,2.4458743771482916
sz000070,2014-05-29,9.5,9.5,9.28,9.31,-0.017932,1720289.0,16098756.5,2407283800.0,2523010000.0,0.006653096153432346,13.22,2014-03-31 00:00:00,2014-04-22 00:00:00,54.34914325709325,1.5986063187202775,43.413826381873804,2.44850407052003
sz000070,2014-05-28,9.1,9.5,9.09,9.48,0.039474,3659835.0,34234670.5,2451240640.0,2569080000.0,0.014154153302549684,13.47,2014-03-31 00:00:00,2014-04-22 00:00:00,55.34152752873859,1.627795955799677,44.20653802167855,2.4932123544602107
sz000070,2014-05-27,9.2,9.25,9.1,9.12,-0.009772,1329065.0,12209735.23,2358155550.0,2471520000.0,0.005140064996984613,12.95,2014-03-31 00:00:00,2014-04-22 00:00:00,53.239934359819095,1.5659804437625926,42.527795809879365,2.398532675622681
sz000070,2014-05-26,9.22,9.25,9.15,9.21,-0.001085,1561577.0,14348860.06,2381426830.0,2495910000.0,0.006039288710793605,13.08,2014-03-31 00:00:00,2014-04-22 00:00:00,53.76532915633479,1.5814342189501736,42.94747857047,2.4222024378453053
sz000070,2014-05-23,9.1,9.25,9.09,9.22,0.012075,1009269.0,9271270.59,2384012520.0,2498620000.0,0.003903276556618084,13.1,2014-03-31 00:00:00,2014-04-22 00:00:00,53.823727901107496,1.5831519388037758,42.99412719848035,2.4248333820648456
sz000070,2014-05-22,9.12,9.28,9.11,9.11,-0.0010960000000000002,970410.0,8904912.11,2355569860.0,2468810000.0,0.003752992110367722,12.94,2014-03-31 00:00:00,2014-04-22 00:00:00,53.18156055737717,1.5642634575538135,42.481167105679276,2.395902855089638
sz000070,2014-05-21,9.08,9.14,8.91,9.12,0.004405,817810.0,7421256.47,2358155550.0,2471520000.0,0.0031628224016011152,12.95,2014-03-31 00:00:00,2014-04-22 00:00:00,53.23991150038158,1.5659797713832493,42.52777754987393,2.3985316457734056
sz000070,2014-05-20,9.0,9.18,9.0,9.08,0.012263,984207.0,8947458.21,2347812770.0,2460680000.0,0.0038063510319862517,12.9,2014-03-31 00:00:00,2014-04-22 00:00:00,53.00641822808686,1.559111883536272,42.341264280717375,2.388012450927072
sz000070,2014-05-19,9.03,9.05,8.82,8.97,-0.005543,768539.0,6868150.96,2319370100.0,2430870000.0,0.0029722702857987175,12.74,2014-03-31 00:00:00,2014-04-22 00:00:00,52.364275122262555,1.5402241152114344,41.82832354903555,2.359083015903053
sz000070,2014-05-16,9.17,9.17,8.9,9.02,-0.012048,1866685.0,16815259.79,2332298590.0,2444420000.0,0.0072192723402538265,12.81,2014-03-31 00:00:00,2014-04-22 00:00:00,52.656148151466134,1.5488091644097577,42.06147027879089,2.3722322995394
sz000070,2014-05-15,9.47,9.47,9.11,9.13,-0.03692,2106841.0,19453163.49,2360741250.0,2474230000.0,0.008148058720963173,12.97,2014-03-31 00:00:00,2014-04-22 00:00:00,53.2982858999892,1.5676967751568474,42.574406731087024,2.401161493209589
sz000070,2014-05-14,9.55,9.56,9.42,9.48,-0.002105,1027831.0,9745087.23,2451240640.0,2569080000.0,0.003975063778315947,13.47,2014-03-31 00:00:00,2014-04-22 00:00:00,55.341493853043566,1.6277949652747925,44.206511121700196,2.4932108373235753
sz000070,2014-05-13,9.66,9.66,9.45,9.5,-0.015544,1712475.0,16298558.24,2456412040.0,2574500000.0,0.0066228760627634765,13.49,2014-03-31 00:00:00,2014-04-22 00:00:00,55.45823343442303,1.6312287016918539,44.29976212096483,2.498470116919691
sz000070,2014-05-12,9.58,9.81,9.56,9.65,0.008359,3790088.0,36374693.03,2495197490.0,2615150000.0,0.014657897559844051,13.71,2014-03-31 00:00:00,2014-04-22 00:00:00,56.3338873798555,1.656984874582362,44.999230154486156,2.5379195382218107
sz000070,2014-05-09,9.54,9.9,9.33,9.57,-0.006231,3143544.0,30077615.34,2474511910.0,2593470000.0,0.01215743434429459,13.59,2014-03-31 00:00:00,2014-04-22 00:00:00,55.86689599622307,1.643248956554523,44.62619975076947,2.5168809305235644
sz000070,2014-05-08,9.5,9.64,9.44,9.63,0.013684,4511119.0,43085662.43,2490026100.0,2609730000.0,0.017446433983161865,13.68,2014-03-31 00:00:00,2014-04-22 00:00:00,56.217185277688344,1.6535522405654863,44.90600909343064,2.5326619471160443
sz000070,2014-05-07,9.46,9.51,9.25,9.5,0.005291,1857116.0,17461526.53,2456412040.0,2574500000.0,0.007182264910246898,13.49,2014-03-31 00:00:00,2014-04-22 00:00:00,55.458293982827335,1.6312304826410264,44.29981048673022,2.498472844709046
sz000070,2014-05-06,9.4,9.5,9.36,9.45,0.004251,1642759.0,15507005.09,2443483550.0,2560950000.0,0.006353254373249208,13.42,2014-03-31 00:00:00,2014-04-22 00:00:00,55.1664085153725,1.6226450675884163,44.0666538213614,2.485323000712277
sz000070,2014-05-05,9.42,9.42,9.25,9.41,0.00213,1369205.0,12815424.96,2433140760.0,2550110000.0,0.005295303609972816,13.37,2014-03-31 00:00:00,2014-04-22 00:00:00,54.932888805062184,1.615776402103076,43.88011943364896,2.474802614796776
sz000070,2014-04-30,9.22,9.44,9.2,9.39,0.022876,1520757.0,14176029.35,2427969370.0,2544690000.0,0.005881420254490279,13.34,2014-03-31 00:00:00,2014-04-22 00:00:00,54.81613044720963,1.612342113401531,43.78685343583064,2.4695424892945788
sz000070,2014-04-29,9.01,9.18,9.01,9.18,0.012128,1556829.0,14214726.6,2373669740.0,2487780000.0,0.006020926154621661,13.04,2014-03-31 00:00:00,2014-04-22 00:00:00,53.59020100892936,1.5762830620735369,42.80758707392748,2.414312672596267
sz000070,2014-04-28,10.06,10.06,9.07,9.07,-0.100198,4574549.0,42661817.76,2345227070.0,2457970000.0,0.01769174505989307,12.88,2014-03-31 00:00:00,2014-04-22 00:00:00,52.948047093776054,1.5573949758069503,42.2946377078072,2.385382750597026
sz000070,2014-04-25,10.25,10.34,10.08,10.08,-0.015625,2037286.0,20745063.73,2606382460.0,2731680000.0,0.007879059652665096,14.32,2014-03-31 00:00:00,2014-04-22 00:00:00,58.84410914154009,1.730819642329035,47.00438286179315,2.651008500311209
sz000070,2014-04-24,10.24,10.36,10.18,10.24,0.001957,2202114.0,22598695.68,2647753610.0,2775040000.0,0.00851652029661476,14.55,2014-03-31 00:00:00,2014-04-22 00:00:00,59.77814261997724,1.7582929699850514,47.75048417705971,2.693088000316149
sz000070,2014-04-23,10.47,10.49,10.18,10.22,-0.022945,3254604.0,33521969.22,2642582210.0,2769620000.0,0.012586951033776923,14.52,2014-03-31 00:00:00,2014-04-22 00:00:00,59.66138528896673,1.754858711486672,47.65721899947773,2.687827921074606
sz000070,2014-04-22,10.41,10.5,10.24,10.46,0.0,2446218.0,25373561.2,2704638940.0,2834660000.0,0.009460575273681448,14.86,2014-03-31 00:00:00,2014-04-22 00:00:00,61.062463514302394,1.796069526778607,48.77639334477356,2.750948432866733
sz000070,2014-04-21,10.68,10.72,10.43,10.46,-0.026976999999999998,3635687.0,38387297.12,2704638940.0,2834660000.0,0.014060762587408434,14.86,2013-12-31 00:00:00,2014-04-09 00:00:00,46.117872512754275,1.803274801224675,196.81992030516122,2.7757035760999047
sz000070,2014-04-18,10.66,10.82,10.55,10.75,0.001864,3090322.0,33045194.86,2779624150.0,2913250000.0,0.011951601981872262,15.27,2013-12-31 00:00:00,2014-04-09 00:00:00,47.39648755759553,1.853270478934902,202.27673991792716,2.852659778956823
sz000070,2014-04-17,11.0,11.13,10.72,10.73,-0.035939,11138202.0,121346805.44,2774452750.0,2907830000.0,0.04307620933894081,15.24,2013-12-31 00:00:00,2014-04-09 00:00:00,47.30830487730423,1.8498224099627312,201.9003975768439,2.8473523142430737
sz000070,2014-04-16,10.88,11.16,10.75,11.13,0.012739,14057898.0,154854228.74,2877880630.0,3016230000.0,0.0543679272548563,15.81,2013-12-31 00:00:00,2014-04-09 00:00:00,49.071899887355904,1.9187814982275302,209.42699432592323,2.9534980818050656
sz000070,2014-04-15,10.93,11.04,10.87,10.99,-0.000909,5050583.0,55274107.14,2841680870.0,2978290000.0,0.019532772928861644,15.61,2013-12-31 00:00:00,2014-04-09 00:00:00,48.454636275838,1.8946456078293914,206.79266259709877,2.916346740675599
sz000070,2014-04-14,10.54,11.1,10.4,11.0,0.043643,6749457.0,72683874.09,2844266570.0,2981000000.0,0.026103048069787634,15.63,2013-12-31 00:00:00,2014-04-09 00:00:00,48.49872161378494,1.896369407620919,206.9808081517087,2.9190001117772044
sz000070,2014-04-11,10.68,10.68,10.44,10.54,-0.014032,1511573.0,15930503.93,2725324510.0,2856340000.0,0.005845901785839074,14.97,2013-12-31 00:00:00,2014-04-09 00:00:00,46.47060499977955,1.8170671461610137,198.32529720575778,2.796933541236998
sz000070,2014-04-10,10.68,10.74,10.6,10.69,0.0,2023193.0,21589600.56,2764109960.0,2896990000.0,0.00782455599921213,15.19,2013-12-31 00:00:00,2014-04-09 00:00:00,47.13196067192805,1.84292709921723,201.14780317997926,2.836738658087279
sz000070,2014-04-09,10.68,10.76,10.57,10.69,-0.002799,2312865.0,24620780.36,2764109960.0,2896990000.0,0.008944841995359692,15.19,2013-12-31 00:00:00,2014-04-09 00:00:00,47.13196067192805,1.84292709921723,201.14780317997926,2.836738658087279
sz000070,2014-04-08,10.52,10.83,10.51,10.72,0.012276,3693716.0,39628356.57,2771867060.0,2905120000.0,0.014285185639458482,15.23,2013-09-30 00:00:00,2013-10-30 00:00:00,47.31751281701092,1.913558651663237,17.86524999540884,2.8661194642227654
sz000070,2014-04-04,10.23,10.61,10.16,10.59,0.028155,2643042.0,27621465.72,2738253000.0,2869890000.0,0.010221778184849975,15.04,2013-09-30 00:00:00,2013-10-30 00:00:00,46.74368731157404,1.8903526821373196,17.64859583296338,2.831361668381712
sz000070,2014-04-03,10.24,10.4,10.19,10.3,0.0058590000000000005,1369758.0,14050372.6,2663267790.0,2791300000.0,0.005297442282362451,14.63,2013-09-30 00:00:00,2013-10-30 00:00:00,45.46365802002037,1.8385872578913875,17.165306624938246,2.753827650871427
sz000070,2014-04-02,10.44,10.46,10.0,10.24,-0.018216999999999997,4530202.0,46221078.07,2647753610.0,2775040000.0,0.017520236137077726,14.55,2013-09-30 00:00:00,2013-10-30 00:00:00,45.198838028014244,1.8278777223163365,17.06532090972815,2.737786957089838
sz000070,2014-04-01,10.32,10.45,10.3,10.43,0.009681,1793986.0,18613737.17,2696881850.0,2826530000.0,0.0069381140964703365,14.82,2013-09-30 00:00:00,2013-10-30 00:00:00,46.03750322425041,1.8617940240525006,17.381968224880804,2.788586639909061
sz000070,2014-03-31,10.53,10.64,10.2,10.33,-0.025472,2395196.0,24798328.74,2671024880.0,2799430000.0,0.009263251295510208,14.67,2013-09-30 00:00:00,2013-10-30 00:00:00,45.59608750115176,1.8439428136733291,17.21530683936887,2.7618491780166816
sz000070,2014-03-28,10.45,10.81,10.43,10.6,0.01145,3999266.0,42645265.76,2740838690.0,2872600000.0,0.015466878716601889,15.06,2013-09-30 00:00:00,2013-10-30 00:00:00,46.787868076804116,1.892139388168764,17.665276769234822,2.834037788567062
sz000070,2014-03-27,10.76,10.76,10.42,10.48,-0.027829000000000003,2742214.0,28981497.78,2709810330.0,2840080000.0,0.010605318904367746,14.89,2013-09-30 00:00:00,2013-10-30 00:00:00,46.25821155450503,1.8707196481969093,17.465299094601633,2.8019553992456983
sz000070,2014-03-26,10.84,10.93,10.68,10.78,-0.006451999999999999,2321939.0,25043401.68,2787381240.0,2921380000.0,0.008979935023168914,15.31,2013-09-30 00:00:00,2013-10-30 00:00:00,47.58238165354144,1.9242701625505283,17.965254152409027,2.882163116618063
sz000070,2014-03-25,10.47,10.93,10.43,10.85,0.031369,4353544.0,46821384.52,2805481110.0,2940350000.0,0.016837023864331065,15.41,2013-09-30 00:00:00,2013-10-30 00:00:00,47.89137681676319,1.9367661779305358,18.081918691808575,2.900879591743995
sz000070,2014-03-24,10.45,10.65,10.4,10.52,0.006698999999999999,2285998.0,24127419.02,2720153120.0,2850920000.0,0.008840935748499335,14.94,2013-09-30 00:00:00,2013-10-30 00:00:00,46.43476468340933,1.8778596001339345,17.531958679976395,2.8126495868539725
sz000070,2014-03-21,10.13,10.54,10.04,10.45,0.019512,3228959.0,33262224.08,2702053240.0,2831950000.0,0.012487770799808518,14.84,2013-09-30 00:00:00,2013-10-30 00:00:00,46.12576816248881,1.865363529847486,17.415293627962672,2.793933029489423
sz000070,2014-03-20,10.82,10.9,10.25,10.25,-0.05268,3590641.0,38129223.13,2650339300.0,2777750000.0,0.013886550393755245,14.56,2013-09-30 00:00:00,2013-10-30 00:00:00,45.24298700014204,1.8296631426089012,17.0819898421624,2.740461151501329
sz000070,2014-03-19,10.92,11.0,10.68,10.82,-0.014572,5706697.0,61754556.38,2797724020.0,2932220000.0,0.02207024749353226,15.37,2013-09-30 00:00:00,2013-10-30 00:00:00,47.758927289766966,1.931409811477538,18.031910908840096,2.892856850379311
sz000070,2014-03-18,10.6,11.08,10.46,10.98,0.04771,6651600.0,71945800.04,2839095170.0,2975580000.0,0.02572459309280569,15.6,2013-09-30 00:00:00,2013-10-30 00:00:00,48.46516162496597,1.9599705016272506,18.298557488563446,2.9356349224695375
sz000070,2014-03-17,10.31,10.49,10.3,10.48,0.016489,2252387.0,23433731.23,2709810330.0,2840080000.0,0.008710947588719244,14.89,2013-09-30 00:00:00,2013-10-30 00:00:00,46.25818368152063,1.8707185209907806,17.465288570848276,2.8019537109214743
sz000070,2014-03-14,10.61,10.61,10.2,10.31,-0.032833,3432341.0,35566169.66,2665853480.0,2794010000.0,0.013274336333743293,14.65,2013-09-30 00:00:00,2013-10-30 00:00:00,45.507805477010216,1.840372616910543,17.181974985315414,2.7565017535078833
sz000070,2014-03-13,10.69,10.76,10.51,10.66,0.003766,2617687.0,27867365.74,2756352870.0,2888860000.0,0.010123719543934881,15.14,2013-09-30 00:00:00,2013-10-30 00:00:00,47.05268632719087,1.902848853311313,17.76526182687727,2.8500783768551687
sz000070,2014-03-12,10.93,11.08,10.51,10.62,-0.045822,5854552.0,63400229.28,2746010090.0,2878020000.0,0.02264206619867154,15.09,2013-09-30 00:00:00,2013-10-30 00:00:00,46.876150743490896,1.8957096109166016,17.698608865888342,2.839385251996152
sz000070,2014-03-11,10.68,11.15,10.68,11.13,0.030556,9609864.0,105080918.62,2877880630.0,3016230000.0,0.03716547003549623,15.81,2013-09-30 00:00:00,2013-10-30 00:00:00,49.12726005367016,1.9867462998692083,18.548540068926698,2.9757395915606435
sz000070,2014-03-10,10.72,10.93,10.6,10.8,-0.001848,8302967.0,89517924.43,2792552630.0,2926800000.0,0.032111138259908106,15.34,2013-09-30 00:00:00,2013-10-30 00:00:00,47.67063609708756,1.9278392439316334,17.99857559310382,2.887508870513241
sz000070,2014-03-07,10.26,10.84,10.26,10.82,0.051505999999999996,6418505.0,68294009.06,2797724020.0,2932220000.0,0.024823114647312496,15.37,2013-09-30 00:00:00,2013-10-30 00:00:00,47.75889453418674,1.931408486815268,18.03189854160871,2.892854866306175
sz000070,2014-03-06,10.4,10.43,10.13,10.29,-0.012476000000000001,2448094.0,25153858.41,2660682090.0,2788590000.0,0.009467830581743795,14.62,2013-09-30 00:00:00,2013-10-30 00:00:00,45.419516896895246,1.836802155018866,17.148640655981715,2.751153931890236
sz000070,2014-03-05,10.45,10.6,10.38,10.42,-0.0028710000000000003,2112701.0,22210431.25,2694296150.0,2823820000.0,0.008170721848821259,14.8,2013-09-30 00:00:00,2013-10-30 00:00:00,45.99332967795744,1.8600076099607363,17.365290014198862,2.785910956989639
sz000070,2014-03-04,10.55,10.55,10.31,10.45,-0.012287000000000001,2238773.0,23347101.71,2702053240.0,2831950000.0,0.00865829640351572,14.84,2013-09-30 00:00:00,2013-10-30 00:00:00,46.12575672551639,1.8653630673270318,17.415289309807314,2.7939323367283855
sz000070,2014-03-03,10.3,10.58,10.25,10.58,0.024201,3232407.0,33746712.49,2735667300.0,2867180000.0,0.012501105693663847,15.03,2013-09-30 00:00:00,2013-10-30 00:00:00,46.69955414732457,1.8885679011281942,17.63193286896833,2.828688431486055
sz000070,2014-02-28,10.05,10.38,10.05,10.33,0.024802,2351874.0,24084205.01,2671024880.0,2799430000.0,0.009095706521460781,14.67,2013-09-30 00:00:00,2013-10-30 00:00:00,45.596083334545256,1.843942645172378,17.215305266220533,2.7618489256367216
sz000070,2014-02-27,10.24,10.49,10.06,10.08,-0.013699000000000001,3098371.0,31939754.9,2606382460.0,2731680000.0,0.011982730915093711,14.32,2013-09-30 00:00:00,2013-10-30 00:00:00,44.492578404945796,1.7993160095046439,16.79866478229017,2.695007353261139
sz000070,2014-02-26,10.3,10.48,9.97,10.22,-0.023878,4762649.0,48545264.87,2642582210.0,2769620000.0,0.018419208528615654,14.52,2013-09-30 00:00:00,2013-10-30 00:00:00,45.11054779924768,1.8243071937518505,17.031985957927827,2.7324390356099597
sz000070,2014-02-25,11.25,11.32,10.44,10.47,-0.065179,6546075.0,71495085.06,2707224630.0,2837370000.0,0.025316482603809646,14.87,2013-09-30 00:00:00,2013-10-30 00:00:00,46.214046808951835,1.8689335900142097,17.448624206736273,2.799280249405258
sz000070,2014-02-24,11.35,11.37,10.94,11.2,-0.015816999999999998,4089013.0,45570956.84,2895980510.0,3035200000.0,0.015813968858512793,15.91,2013-09-30 00:00:00,2013-10-30 00:00:00,49.43625229744714,1.999242197184498,18.6652035060576,2.994455889849777
sz000070,2014-02-21,11.3,11.42,11.16,11.38,0.011556,3721637.0,42094653.7,2942523050.0,3083980000.0,0.014393168155471205,16.17,2013-09-30 00:00:00,2013-10-30 00:00:00,50.230752103467694,2.0313724146672905,18.965175689945468,3.0425803837800256
sz000070,2014-02-20,11.63,11.69,11.2,11.25,-0.032674,5367313.0,61022393.33,2908908990.0,3048750000.0,0.02075770381870902,15.98,2013-09-30 00:00:00,2013-10-30 00:00:00,49.656916773236176,2.008166047818698,18.7485178180402,3.0078219928308725
sz000070,2014-02-19,11.76,11.79,11.5,11.63,-0.014407,4927139.0,57271387.55,3007165470.0,3151730000.0,0.01905536198179344,16.52,2013-09-30 00:00:00,2013-10-30 00:00:00,51.33421077613564,2.075997179667142,19.38179870906003,3.109419154277744
sz000070,2014-02-18,11.97,11.99,11.67,11.8,-0.015847,7420331.0,87201249.34,3051122320.0,3197800000.0,0.028697605869829567,16.76,2013-09-30 00:00:00,2013-10-30 00:00:00,52.08459351490487,2.1063432671164892,19.665114006552425,3.1548713863407545
sz000070,2014-02-17,11.78,12.16,11.62,11.99,0.014381999999999999,8404624.0,100350355.19,3100250560.0,3249290000.0,0.032504289511361306,17.03,2013-09-30 00:00:00,2013-10-30 00:00:00,52.92326855164275,2.140259966810536,19.981765037095276,3.2056716652194877
sz000070,2014-02-14,11.55,11.91,11.48,11.82,0.014591999999999999,7592924.0,89071097.76,3056293710.0,3203220000.0,0.02936509713917515,16.79,2013-09-30 00:00:00,2013-10-30 00:00:00,52.17291765000044,2.109915166880461,19.698461760062063,3.160221361597
sz000070,2014-02-13,11.15,12.0,11.1,11.65,0.044843,12961022.0,150060617.99,3012336870.0,3157150000.0,0.05012583678929641,16.55,2013-09-30 00:00:00,2013-10-30 00:00:00,51.42255965944976,2.0795700802691734,19.415155806533132,3.1147706285846923
sz000070,2014-02-12,11.15,11.19,10.92,11.15,-0.004464,5572505.0,61596873.08,2883052020.0,3021650000.0,0.0215512693905537,15.84,2013-09-30 00:00:00,2013-10-30 00:00:00,49.21558517351388,1.9903182394571948,18.581888194238882,2.981089626465117
sz000070,2014-02-11,11.29,11.39,11.06,11.2,-0.011474,5323196.0,59764285.15,2660780510.0,3035200000.0,0.022406882106934853,15.91,2013-09-30 00:00:00,2013-10-30 00:00:00,49.43626867688751,1.9992428595823704,18.665209690296365,2.994456881986304
sz000070,2014-02-10,11.03,11.45,11.03,11.33,0.030937,5921463.0,66642840.68,2691112430.0,3070430000.0,0.024930276060595506,16.09,2013-09-30 00:00:00,2013-10-30 00:00:00,50.010084385122404,2.022448432901482,18.881860153699918,3.0292140843906017
sz000070,2014-02-07,10.72,11.05,10.55,10.99,0.016651,3117360.0,33928974.04,2610355310.0,2978290000.0,0.013124568241248354,15.61,2013-09-30 00:00:00,2013-10-30 00:00:00,48.509350605441846,1.9617575398899079,18.315241526591745,2.9383115402692908
sz000070,2014-01-30,11.02,11.04,10.8,10.81,-0.019056,2373163.0,25847544.43,2567601530.0,2929510000.0,0.009991383682498429,15.36,2013-09-30 00:00:00,2013-10-30 00:00:00,47.714850627641,1.9296273154601804,18.01526927784633,2.8901870359339545
sz000070,2014-01-29,11.08,11.08,10.7,11.02,0.006393,3070404.0,33565651.0,2617480940.0,2986420000.0,0.012926876204875058,15.65,2013-09-30 00:00:00,2013-10-30 00:00:00,48.64176816173094,1.967112613421541,18.365237238666353,2.9463323451022223
sz000070,2014-01-28,11.0,11.03,10.65,10.95,-0.009946,3127739.0,33983920.6,2600854470.0,2967450000.0,0.013168265447009034,15.55,2013-09-30 00:00:00,2013-10-30 00:00:00,48.33277672015896,1.9546167485480734,18.248574104416818,2.9276160954043027
sz000070,2014-01-27,10.81,11.16,10.75,11.06,0.021237,5169919.0,56916025.22,2626981770.0,2997260000.0,0.021766159473577164,15.71,2013-09-30 00:00:00,2013-10-30 00:00:00,48.81832376835906,1.9742526655597306,18.431897759533133,2.957026682791345
sz000070,2014-01-24,10.77,10.92,10.69,10.83,0.004638000000000001,3993109.0,43244077.31,2572351950.0,2934930000.0,0.016811607163630934,15.38,2013-09-30 00:00:00,2013-10-30 00:00:00,47.8031287236548,1.9331973533662905,18.048599648791743,2.895534222507944
sz000070,2014-01-23,10.73,10.89,10.58,10.78,0.007476999999999999,4581321.0,49306350.51,2560475910.0,2921380000.0,0.019288070700887786,15.31,2013-09-30 00:00:00,2013-10-30 00:00:00,47.58244136062423,1.924272577153453,17.965276695478117,2.882166733199366
sz000070,2014-01-22,10.15,10.7,10.1,10.7,0.054187,4349095.0,45464734.77,2541474230.0,2899700000.0,0.01831036331224181,15.2,2013-09-30 00:00:00,2013-10-30 00:00:00,47.22930782600917,1.9099915701831935,17.831947226068802,2.8607767057703213
sz000070,2014-01-21,10.13,10.17,10.01,10.15,0.013986000000000002,2293627.0,23157182.35,2410837700.0,2750650000.0,0.009656524804635335,14.42,2013-09-30 00:00:00,2013-10-30 00:00:00,44.801641289457336,1.811814763588617,16.915354890611248,2.7137279304054416
sz000070,2014-01-20,10.23,10.37,9.9,10.01,-0.06009400000000001,4854428.0,48987443.75,2377584770.0,2712710000.0,0.02043789348465586,14.22,2013-09-30 00:00:00,2013-10-30 00:00:00,44.18368822592949,1.786824239771177,16.68203988083785,2.676297237245328
sz000070,2014-01-17,10.87,11.22,10.6,10.65,-0.004673,7316884.0,79866151.84,2529598180.0,2886150000.0,0.0308052145262059,15.13,2013-09-30 00:00:00,2013-10-30 00:00:00,47.008624507056545,1.901066957516153,17.74862579964151,2.8474094614198955
sz000070,2014-01-16,10.48,10.8,10.48,10.7,0.021968,4602343.0,49150922.98,2541474230.0,2899700000.0,0.019376576602155828,15.2,2013-09-30 00:00:00,2013-10-30 00:00:00,47.22932715284177,1.909992351776002,17.831954523128083,2.860777876436483
sz000070,2014-01-15,10.51,10.61,10.41,10.47,-0.02058,3660470.0,38360753.19,2486844410.0,2837370000.0,0.01541114544435854,14.87,2013-09-30 00:00:00,2013-10-30 00:00:00,46.21409589423717,1.8689355750630177,17.448642739428323,2.7992832226023543
sz000070,2014-01-14,10.55,10.73,10.27,10.69,-0.008348999999999999,5980227.0,62823981.87,2539099020.0,2896990000.0,0.025177681581713185,15.19,2013-09-30 00:00:00,2013-10-30 00:00:00,47.18516662334562,1.9082064640940737,17.815281227081663,2.8581029819713244
sz000070,2014-01-13,10.36,10.92,10.25,10.78,0.030593000000000002,10334570.0,110153524.05,2560475910.0,2921380000.0,0.04351013972242371,15.31,2013-09-30 00:00:00,2013-10-30 00:00:00,47.58243235104449,1.9242722127987302,17.965273293811695,2.8821661874705153
sz000070,2014-01-10,10.3,10.65,10.21,10.46,0.011604999999999999,4274684.0,44500377.65,2484469200.0,2834660000.0,0.017997081485252465,14.86,2013-09-30 00:00:00,2013-10-30 00:00:00,46.169954920171676,1.8671504782185888,17.431976826750905,2.7966095126500132
sz000070,2014-01-09,10.04,10.45,10.04,10.34,0.021738999999999998,4968644.0,51265213.54,2455966690.0,2802140000.0,0.020918760490192152,14.69,2013-09-30 00:00:00,2013-10-30 00:00:00,45.64029924740553,1.8457307726025363,17.231999472868267,2.7645271747866147
sz000070,2014-01-08,9.85,10.25,9.78,10.12,0.03055,3311657.0,33367996.58,2403712070.0,2742520000.0,0.013942588739424186,14.38,2013-09-30 00:00:00,2013-10-30 00:00:00,44.66923475310772,1.8064601357122871,16.865363339236605,2.705707793073001
sz000070,2014-01-07,9.75,9.86,9.46,9.82,0.002041,1026628.0,10010887.93,2332455790.0,2661220000.0,0.004322262828398561,13.95,2013-09-30 00:00:00,2013-10-30 00:00:00,43.345043669019184,1.752908772706115,16.365400358290817,2.6254988045926937
sz000070,2014-01-06,10.12,10.12,9.69,9.8,-0.035433,1534187.0,15089931.25,2327705370.0,2655800000.0,0.006459164804006102,13.92,2013-09-30 00:00:00,2013-10-30 00:00:00,43.25675662873993,1.7493383730866454,16.33206661033912,2.6201510762460756
sz000070,2014-01-03,10.2,10.24,10.0,10.16,-0.00878,2022091.0,20500908.6,2413212910.0,2753360000.0,0.008513316199688323,14.43,2013-09-30 00:00:00,2013-10-30 00:00:00,44.84577704684064,1.8135996494661806,16.93201883367264,2.716401324372569
sz000070,2014-01-02,10.15,10.27,10.08,10.25,0.006876,1334808.0,13597169.85,2434589800.0,2777750000.0,0.005619748345285929,14.56,2013-09-30 00:00:00,2013-10-30 00:00:00,45.24301068061644,1.8296641002665206,17.081998782987267,2.740462585876565
sz000070,2013-12-31,10.06,10.23,9.96,10.18,0.011928,1737926.0,17618280.18,2417963330.0,2758780000.0,0.007316937548428412,14.46,2013-09-30 00:00:00,2013-10-30 00:00:00,44.93404419274711,1.8171692445410559,16.96534507028399,2.7217478476759447
sz000070,2013-12-30,9.96,10.14,9.96,10.06,0.014112999999999999,1517088.0,15263550.75,2389460820.0,2726260000.0,0.006387175362850269,14.29,2013-09-30 00:00:00,2013-10-30 00:00:00,44.40438864498967,1.795749543980457,16.765367763599773,2.6896655173845816
sz000070,2013-12-27,9.7,9.98,9.67,9.92,0.029046,1671376.0,16518816.18,2356207880.0,2688320000.0,0.007036751748746379,14.09,2013-09-30 00:00:00,2013-10-30 00:00:00,43.78643074784533,1.7707588246876402,16.532050928841038,2.652234531442336
sz000070,2013-12-26,10.07,10.18,9.6,9.64,-0.04175,1957739.0,19352345.81,2289702020.0,2612440000.0,0.008242384290686,13.69,2013-09-30 00:00:00,2013-10-30 00:00:00,42.55050867293137,1.7207771321084195,16.065414888004078,2.577372179127402
sz000070,2013-12-25,9.8,10.07,9.78,10.06,0.018219,1463826.0,14524862.63,2389460820.0,2726260000.0,0.006162934096571628,14.29,2013-09-30 00:00:00,2013-10-30 00:00:00,44.40439204062756,1.7957496813028115,16.765369045660393,2.6896657230653807
sz000070,2013-12-24,9.73,9.99,9.73,9.88,0.015416,1484641.0,14653933.19,2346707050.0,2677480000.0,0.006250568463583898,14.03,2013-09-30 00:00:00,2013-10-30 00:00:00,43.60986392969251,1.7636183191462858,16.46538617493918,2.6415395146480094
sz000070,2013-12-23,10.04,10.14,9.6,9.73,-0.034722,2148705.0,21046933.0,2311078900.0,2636830000.0,0.009046380740181567,13.82,2013-09-30 00:00:00,2013-10-30 00:00:00,42.94778093874087,1.7368431452195805,16.21540942327005,2.6014357806534556
sz000070,2013-12-20,10.74,10.75,10.08,10.08,-0.055295000000000004,3072598.0,31527909.87,2394211240.0,2731680000.0,0.012936113289652754,14.32,2013-09-30 00:00:00,2013-10-30 00:00:00,44.49265490225705,1.7993191031180455,16.798693664695612,2.6950119868612523
sz000070,2013-12-19,10.75,10.95,10.65,10.67,-0.000936,1756431.0,18903887.55,2534348600.0,2891570000.0,0.0073948464587705095,15.16,2013-09-30 00:00:00,2013-10-30 00:00:00,47.09687669934747,1.9046359478546695,17.781946390350015,2.8527550789518976
sz000070,2013-12-18,10.71,10.8,10.62,10.68,-0.0037310000000000004,1788017.0,19128911.38,2536723810.0,2894280000.0,0.007527828407933775,15.17,2013-09-30 00:00:00,2013-10-30 00:00:00,47.14100067598019,1.906420357309111,17.798605885458805,2.855427759334635
sz000070,2013-12-17,10.71,10.77,10.48,10.72,0.009415999999999999,2099625.0,22337112.86,2546224650.0,2905120000.0,0.008839746327960496,15.23,2013-09-30 00:00:00,2013-10-30 00:00:00,47.31754242677449,1.913559849106126,17.86526117490237,2.8661212577472903
sz000070,2013-12-16,11.06,11.11,10.59,10.62,-0.034545,3405673.0,36699546.47,2522472550.0,2878020000.0,0.01433841064395329,15.09,2013-09-30 00:00:00,2013-10-30 00:00:00,46.87615653682375,1.895709845203688,17.6986110532252,2.839385602910287
sz000070,2013-12-13,11.09,11.29,10.96,11.0,-0.019608,4468143.0,49635639.86,2612730520.0,2981000000.0,0.01881157380134251,15.63,2013-09-30 00:00:00,2013-10-30 00:00:00,48.5534349470703,1.9635403464725836,18.331886057066566,2.9409818198779716
sz000070,2013-12-12,10.53,11.5,10.53,11.22,0.065527,7667543.0,85004262.24,2664985130.0,3040620000.0,0.0322815431469218,15.94,2013-09-30 00:00:00,2013-10-30 00:00:00,49.52451156993356,2.002811473851871,18.69852676997218,2.999801936243841
sz000070,2013-12-11,10.75,10.81,10.46,10.53,-0.027701,3692449.0,39164592.71,2501095670.0,2853630000.0,0.015545781969227908,14.96,2013-09-30 00:00:00,2013-10-30 00:00:00,46.4788893851902,1.8796440389139564,17.548618448872887,2.8153223111604313
sz000070,2013-12-10,11.17,11.17,10.8,10.83,-0.015455000000000002,4465536.0,48884806.35,2572351950.0,2934930000.0,0.018800597981936337,15.38,2013-09-30 00:00:00,2013-10-30 00:00:00,47.80308257561738,1.9331954871021737,18.048582225090108,2.8955314272260195
sz000070,2013-12-09,10.83,11.2,10.8,11.0,0.012891,5262114.0,57953258.12,2612730520.0,2981000000.0,0.022154314636321542,15.63,2013-09-30 00:00:00,2013-10-30 00:00:00,48.553476555787064,1.963542029162886,18.33190176689751,2.9409843402038702
sz000070,2013-12-06,10.75,11.17,10.6,10.86,-0.027752999999999996,9927291.0,108170808.86,2579477580.0,2943060000.0,0.04179543218204672,15.43,2013-09-30 00:00:00,2013-10-30 00:00:00,47.93553951588776,1.9385521533539998,18.098592807022186,2.9035546176280276
sz000070,2013-12-05,10.45,11.17,10.41,11.17,0.100493,14219428.0,157030568.17,2653109080.0,3027070000.0,0.05986599343288215,15.87,2013-09-30 00:00:00,2013-10-30 00:00:00,49.30386981485957,1.9938885420618424,18.615221036446695,2.986437209503375
sz000070,2013-12-04,9.73,10.22,9.68,10.15,0.043164999999999995,3738784.0,37627633.31,2410837700.0,2750650000.0,0.015740859536085738,14.42,2013-09-30 00:00:00,2013-10-30 00:00:00,44.80162055993047,1.811813925269713,16.915347063949245,2.7137266747751916
sz000070,2013-12-03,9.49,9.74,9.46,9.73,0.02529,1914076.0,18365757.14,2311078900.0,2636830000.0,0.008058556321897968,13.82,2013-09-30 00:00:00,2013-10-30 00:00:00,42.94777965128285,1.7368430931537324,16.21540893717604,2.6014357026694643
sz000070,2013-12-02,10.2,10.2,9.46,9.49,-0.09099600000000001,4162128.0,40746619.31,2254073870.0,2571790000.0,0.01752320331897552,13.48,2013-09-30 00:00:00,2013-10-30 00:00:00,41.888421472249654,1.6940017879368103,15.815436546904817,2.537268190140803
sz000070,2013-11-29,10.39,10.49,10.32,10.44,0.0019190000000000001,2367950.0,24656315.69,2479718780.0,2829240000.0,0.009969436130979335,14.83,2013-09-30 00:00:00,2013-10-30 00:00:00,46.081669027033605,1.8635801249904405,17.398643511915036,2.7912618537881055
sz000070,2013-11-28,10.5,10.74,10.41,10.42,0.001923,3922919.0,41516275.3,2474968360.0,2823820000.0,0.016516096383551344,14.8,2013-09-30 00:00:00,2013-10-30 00:00:00,45.9934076777001,1.860010764333684,17.365319463863884,2.785915681595125
sz000070,2013-11-27,10.22,10.43,10.12,10.4,0.023622,2729759.0,28039275.28,2470217940.0,2818400000.0,0.011492708048262334,14.77,2013-09-30 00:00:00,2013-10-30 00:00:00,45.90513210865516,1.8564408286202476,17.331990047003497,2.780568648084858
sz000070,2013-11-26,10.16,10.25,10.03,10.16,-0.003922,1402479.0,14230600.31,2413212910.0,2753360000.0,0.0059046537423007575,14.43,2013-09-30 00:00:00,2013-10-30 00:00:00,44.8457849759532,1.813599970125933,16.932021827396735,2.716401804655291
sz000070,2013-11-25,10.25,10.33,10.12,10.2,-0.003906,1672941.0,17121199.73,2422713750.0,2764200000.0,0.007043340634030743,14.49,2013-09-30 00:00:00,2013-10-30 00:00:00,45.02236268239354,1.8207409159984789,16.998690692291902,2.727097480975677
sz000070,2013-11-22,10.4,10.48,10.15,10.24,-0.018216999999999997,2475516.0,25417968.73,2432214590.0,2775040000.0,0.010422305640391706,14.55,2013-09-30 00:00:00,2013-10-30 00:00:00,45.19890962338247,1.8278806176911804,17.065347941350815,2.7377912937691393
sz000070,2013-11-21,10.4,10.54,10.16,10.43,-0.0038200000000000005,3112240.0,32257935.26,2477343570.0,2826530000.0,0.01310301227213309,14.82,2013-09-30 00:00:00,2013-10-30 00:00:00,46.0375761480719,1.8617969731510737,17.381995758075682,2.78859105705552
sz000070,2013-11-20,10.25,10.5,10.25,10.47,0.021463,3220906.0,33468472.02,2486844410.0,2837370000.0,0.01356051294741033,14.87,2013-09-30 00:00:00,2013-10-30 00:00:00,46.21411406379559,1.8689363098547185,17.448649599545945,2.799284323170029
sz000070,2013-11-19,10.29,10.3,10.17,10.25,-0.0058200000000000005,2390121.0,24481539.49,2434589800.0,2777750000.0,0.010062779466996864,14.56,2013-09-30 00:00:00,2013-10-30 00:00:00,45.243062219381024,1.8296661845360223,17.082018242017526,2.7404657076859658
sz000070,2013-11-18,10.1,10.34,10.1,10.31,0.017769,3715225.0,38085109.61,2448841060.0,2794010000.0,0.015641672453009264,14.65,2013-09-30 00:00:00,2013-10-30 00:00:00,45.50791830390978,1.8403771797220043,17.182017584358494,2.756508587666183
sz000070,2013-11-15,9.87,10.22,9.87,10.13,0.027382999999999998,3234198.0,32687167.97,2406087280.0,2745230000.0,0.013616474353332688,14.39,2013-09-30 00:00:00,2013-10-30 00:00:00,44.713405796315065,1.8082464485772356,16.8820406048509,2.7083833243753577
sz000070,2013-11-14,9.7,9.86,9.59,9.86,0.015447999999999998,1267607.0,12357775.5,2341956630.0,2672060000.0,0.00533682172414952,14.01,2013-09-30 00:00:00,2013-10-30 00:00:00,43.521652388948496,1.7600509727893452,16.432080932671557,2.6361963594641513
sz000070,2013-11-13,10.02,10.02,9.7,9.71,-0.031904,1604778.0,15769785.16,2306328480.0,2631410000.0,0.006756363854987388,13.79,2013-09-30 00:00:00,2013-10-30 00:00:00,42.859557937923455,1.733275335407963,16.182099854125035,2.5960919313092856
sz000070,2013-11-12,9.78,10.15,9.75,10.03,0.023469,2516633.0,25195214.72,2382335190.0,2718130000.0,0.01059541457304335,14.25,2013-09-30 00:00:00,2013-10-30 00:00:00,44.2720122156516,1.790396133656128,16.715387579460128,2.6816472036960026
sz000070,2013-11-11,9.65,9.84,9.55,9.8,0.014493,1335511.0,13007379.28,2327705370.0,2655800000.0,0.005622708083540659,13.92,2013-09-30 00:00:00,2013-10-30 00:00:00,43.2568179550642,1.7493408531730108,16.332089764770725,2.620154790908179
sz000070,2013-11-08,9.61,9.7,9.5,9.66,-0.005149,1827932.0,17540448.49,2294452430.0,2617860000.0,0.007695876754350493,13.72,2013-09-30 00:00:00,2013-10-30 00:00:00,42.638853057698974,1.7243498507855755,16.098770287001216,2.582723380948098
sz000070,2013-11-07,9.95,9.97,9.7,9.71,-0.029,1956603.0,19238052.43,2306328480.0,2631410000.0,0.008237601579632752,13.79,2013-09-30 00:00:00,2013-10-30 00:00:00,42.85953681274781,1.7332744810887013,16.182091878081458,2.596090651713772
sz000070,2013-11-06,9.99,10.33,9.91,10.0,-0.018646,3471984.0,35171641.48,2375209560.0,2710000000.0,0.014617590205388024,14.2,2013-09-30 00:00:00,2013-10-30 00:00:00,44.13958477111,1.7850406602355318,16.665388133966488,2.6736257999111968
sz000070,2013-11-05,9.73,10.3,9.72,10.19,0.0659,5646724.0,56234397.17,2420338540.0,2761490000.0,0.023773582335304216,14.47,2013-09-30 00:00:00,2013-10-30 00:00:00,44.978249205801376,1.818956931174206,16.982035161589486,2.7244254366020795
sz000070,2013-11-04,9.48,9.6,9.48,9.56,0.007376000000000001,1802382.0,17185956.48,2270700340.0,2590760000.0,0.007588307279682708,13.58,2013-09-30 00:00:00,2013-10-30 00:00:00,42.19743803902934,1.7064986688940857,15.93210916745425,2.555985961724439
sz000070,2013-11-01,9.66,9.66,9.46,9.49,-0.019628,1628237.0,15522023.37,2254073870.0,2571790000.0,0.006855129876466737,13.48,2013-09-30 00:00:00,2013-10-30 00:00:00,41.88846869394281,1.6940036976204373,15.815454375977042,2.537271050456273
sz000070,2013-10-31,9.88,9.88,9.61,9.68,-0.020243,1503288.0,14551052.47,2299202850.0,2623280000.0,0.006329075244491803,13.75,2013-09-30 00:00:00,2013-10-30 00:00:00,42.72711653733768,1.7279192975936046,16.132095139372648,2.588069682178064
sz000070,2013-10-30,9.62,9.9,9.52,9.88,0.027027,2175463.0,21220044.96,2346707050.0,2677480000.0,0.009159036037327284,14.03,2013-09-30 00:00:00,2013-10-30 00:00:00,43.609911985663466,1.7636202625687845,16.46540431900221,2.6415424254974083
sz000070,2013-10-29,9.95,10.05,9.22,9.62,-0.033166,3133708.0,30260682.11,2284951600.0,2607020000.0,0.013193395851360703,13.67,2013-06-30 00:00:00,2013-08-24 00:00:00,40.000412753912556,1.6883819789033125,17.801670932059032,2.5966087205915094
sz000070,2013-10-28,10.18,10.26,9.81,9.95,-0.02451,3150057.0,31449991.23,2363333510.0,2696450000.0,0.013262227703951949,14.13,2013-06-30 00:00:00,2013-08-24 00:00:00,41.372575596133935,1.7462997566317617,18.41233441527608,2.685682051511955
sz000070,2013-10-25,10.67,10.67,10.15,10.2,-0.034091,2898940.0,30107044.25,2422713750.0,2764200000.0,0.0122049862473435,14.49,2013-06-30 00:00:00,2013-08-24 00:00:00,42.412096070829975,1.790176994773664,18.874959676958326,2.7531620534418138
sz000070,2013-10-24,10.55,10.67,10.46,10.56,0.0,1856277.0,19639062.71,2508221300.0,2861760000.0,0.00781521356189743,15.0,2013-06-30 00:00:00,2013-08-24 00:00:00,43.90899771182376,1.8533598866701357,19.54113656354618,2.850332747124019
sz000070,2013-10-23,10.96,11.0,10.45,10.56,-0.032081,3435483.0,36691263.11,2508221300.0,2861760000.0,0.014463915317201079,15.0,2013-06-30 00:00:00,2013-08-24 00:00:00,43.90899771182376,1.8533598866701357,19.54113656354618,2.850332747124019
sz000070,2013-10-22,11.27,11.27,10.88,10.91,-0.035367,4014250.0,44405922.27,2591353630.0,2956610000.0,0.016900614023876007,15.5,2013-06-30 00:00:00,2013-08-24 00:00:00,45.364330808490955,1.9147882071435065,20.188813902347384,2.9448050375331185
sz000070,2013-10-21,11.09,11.34,11.06,11.31,0.023528999999999998,3253965.0,36443705.65,2686362010.0,3065010000.0,0.01369969647166057,16.07,2013-06-30 00:00:00,2013-08-24 00:00:00,47.02755432220436,1.9849913979135136,20.929010206314096,3.0527724404339462
sz000070,2013-10-18,10.82,11.06,10.67,11.05,0.021256999999999998,2986119.0,32614555.72,2624606560.0,2994550000.0,0.012572023347377444,15.7,2013-06-30 00:00:00,2013-08-24 00:00:00,45.946479603610996,1.9393601919569585,20.447891761067932,2.982594963536887
sz000070,2013-10-17,11.13,11.2,10.72,10.82,-0.019039,3755334.0,41235627.13,2569976740.0,2932220000.0,0.0158105376004298,15.37,2013-06-30 00:00:00,2013-08-24 00:00:00,44.99012452655012,1.8989932915583037,20.02227819350852,2.9205136058180132
sz000070,2013-10-16,11.76,11.83,10.97,11.03,-0.071549,5127077.0,57649068.7,2619856140.0,2989130000.0,0.021585788031093952,15.67,2013-06-30 00:00:00,2013-08-24 00:00:00,45.863316203753385,1.9358499385381314,20.410880956030383,2.9771964490107288
sz000070,2013-10-15,12.07,12.17,11.64,11.88,-0.012469,4824034.0,57153373.73,2821748960.0,3219480000.0,0.02030993002297412,16.88,2013-06-30 00:00:00,2013-08-24 00:00:00,49.397670101872244,2.0850318848685947,21.98379985161348,3.2066274353850974
sz000070,2013-10-14,11.81,12.2,11.8,12.03,0.019492,6749901.0,81302597.89,2857377100.0,3260130000.0,0.028418128300251304,17.09,2013-06-30 00:00:00,2013-08-24 00:00:00,50.021386773551654,2.111358412919285,22.26137696093943,3.2471157213141635
sz000070,2013-10-11,11.62,11.96,11.62,11.8,0.007686,5011422.0,59180924.25,2802747280.0,3197800000.0,0.021098862541755817,16.76,2013-06-30 00:00:00,2013-08-24 00:00:00,49.065011568066886,2.070990662917693,21.835754435482993,3.1850330569677476
sz000070,2013-10-10,11.91,11.98,11.65,11.71,-0.024166999999999998,5534988.0,65187511.28,2781370390.0,3173410000.0,0.023303156499052256,16.63,2013-06-30 00:00:00,2013-08-24 00:00:00,48.69077427697406,2.055194438463661,21.669204926418537,3.1607396123075513
sz000070,2013-10-09,11.76,12.2,11.7,12.0,0.016949000000000002,9253580.0,110955848.27,2850251470.0,3252000000.0,0.03895900455407887,17.05,2013-06-30 00:00:00,2013-08-24 00:00:00,49.89662603844517,2.106092372838038,22.205853795084344,3.2390169345651887
sz000070,2013-10-08,11.29,11.99,11.2,11.8,0.037819,8400243.0,97867677.09,2802747280.0,3197800000.0,0.035366323645134354,16.76,2013-06-30 00:00:00,2013-08-24 00:00:00,49.065022964224525,2.0709911439394086,21.83575950719686,3.1850337967441713
sz000070,2013-09-30,11.2,11.45,11.15,11.37,0.020646,3900229.0,44253437.69,2700613270.0,3081270000.0,0.01642056795862519,16.15,2013-06-30 00:00:00,2013-08-24 00:00:00,47.27705212973025,1.9955224792949529,21.04004600724872,3.0689684778792556
sz000070,2013-09-27,10.88,11.2,10.88,11.14,0.023897,3132392.0,34599064.24,2645983450.0,3018940000.0,0.013187855305746529,15.82,2013-06-30 00:00:00,2013-08-24 00:00:00,46.32071465496387,1.9551563218735517,20.61444027336483,3.006888262805376
sz000070,2013-09-26,11.1,11.31,10.83,10.88,-0.025962,3545330.0,39297803.25,2584228000.0,2948480000.0,0.014926388228902404,15.46,2013-06-30 00:00:00,2013-08-24 00:00:00,45.23962337516749,1.9095244168832917,20.133314457767558,2.9367097108453057
sz000070,2013-09-25,11.39,11.49,11.16,11.17,-0.026155,4878090.0,55155360.75,2653109080.0,3027070000.0,0.020537514160556113,15.87,2013-06-30 00:00:00,2013-08-24 00:00:00,46.44543988547418,1.9604208633372537,20.66994763835452,3.014984744789532
sz000070,2013-09-24,11.31,11.57,11.2,11.47,0.008795,5869621.0,67149894.03,2724365370.0,3108370000.0,0.024712013157765254,16.29,2013-06-30 00:00:00,2013-08-24 00:00:00,47.69284627992563,2.013072781949133,21.22508986374066,3.0959595672715183
sz000070,2013-09-23,11.3,11.5,11.12,11.37,0.025248,5548145.0,62859825.08,2700613270.0,3081270000.0,0.023358549463840854,16.15,2013-06-30 00:00:00,2013-08-24 00:00:00,47.27704467203508,1.9955221645122478,21.040042688297085,3.068967993766343
sz000070,2013-09-18,10.9,11.15,10.85,11.09,0.016499,3076751.0,33927159.95,2634107400.0,3005390000.0,0.012953598091710308,15.75,2013-06-30 00:00:00,2013-08-24 00:00:00,46.11278897596979,1.9463799632013403,20.521905615321447,2.993390861300235
sz000070,2013-09-17,11.25,11.34,10.9,10.91,-0.029358999999999996,3992326.0,44133392.7,2591353630.0,2956610000.0,0.016808310589396476,15.5,2013-06-30 00:00:00,2013-08-24 00:00:00,45.36432301061762,1.9147878780021825,20.18881043200382,2.9448045313376943
sz000070,2013-09-16,11.15,11.47,11.1,11.24,-0.0017760000000000002,5487419.0,61895187.83,2669735550.0,3046040000.0,0.023102883564628713,15.97,2013-06-30 00:00:00,2013-08-24 00:00:00,46.73645870163904,1.9727045097025393,20.799461831927374,3.0338760997502625
sz000070,2013-09-13,11.13,11.3,10.78,11.26,0.010772,7185351.0,79570500.03,2674485960.0,3051460000.0,0.030251440265552935,15.99,2013-06-30 00:00:00,2013-08-24 00:00:00,46.81961032958438,1.9762142662393805,20.83646739802627,3.0392738501080543
sz000070,2013-09-12,11.01,11.26,11.0,11.14,0.004509,5758598.0,64061487.63,2645983450.0,3018940000.0,0.024244589179119775,15.82,2013-06-30 00:00:00,2013-08-24 00:00:00,46.320644348660615,1.9551533543067878,20.61440898444582,3.0068836989034664
sz000070,2013-09-11,11.85,11.88,10.96,11.09,-0.07196699999999999,11879363.0,133795203.41,2634107400.0,3005390000.0,0.05001395754402421,15.75,2013-06-30 00:00:00,2013-08-24 00:00:00,46.11272208478033,1.9463771397835037,20.521875846255053,2.993386519088894
sz000070,2013-09-10,12.35,12.43,11.83,11.95,-0.033953,10960751.0,132062566.26,2838375420.0,3238450000.0,0.046146458825379766,16.97,2013-06-30 00:00:00,2013-08-24 00:00:00,49.6886663349044,2.097314578019859,22.11330399485261,3.225517324371972
sz000070,2013-09-09,11.99,12.57,11.81,12.37,0.032554,12922131.0,157846330.42,2938134230.0,3352270000.0,0.05440417215724007,17.57,2013-06-30 00:00:00,2013-08-24 00:00:00,51.435040256741544,2.1710274738391186,22.890505322052253,3.3388823984464233
sz000070,2013-09-06,11.95,12.15,11.81,11.98,-0.011551,7614319.0,90947013.17,2845501050.0,3246580000.0,0.03205746194330169,17.02,2013-06-30 00:00:00,2013-08-24 00:00:00,49.81341436548747,2.1025800818544296,22.168821506722413,3.2336152864125496
sz000070,2013-09-05,11.59,12.2,11.56,12.12,0.035897000000000005,11848817.0,142296327.21,2878753990.0,3284520000.0,0.04988535405903163,17.22,2013-06-30 00:00:00,2013-08-24 00:00:00,50.39553316912402,2.1271508007539386,22.42788601811769,3.271403265532718
sz000070,2013-09-04,11.87,12.17,11.56,11.7,-0.021738999999999998,10042067.0,118664139.89,2778995190.0,3170700000.0,0.04227865680472804,16.62,2013-06-30 00:00:00,2013-08-24 00:00:00,48.64917377801463,2.053438518263822,21.650691157632167,3.158039134713893
sz000070,2013-09-03,11.78,12.11,11.62,11.96,0.014419,9169490.0,109077431.53,2840750630.0,3241160000.0,0.03860497265823013,16.99,2013-06-30 00:00:00,2013-08-24 00:00:00,49.73025989793585,2.099070205460324,22.131814676893146,3.2282173517229995
sz000070,2013-09-02,11.5,11.97,11.48,11.79,0.013758000000000001,9029602.0,105695430.61,2800372070.0,3195090000.0,0.03801602248518354,16.75,2013-06-30 00:00:00,2013-08-24 00:00:00,49.02339161424999,2.0692339215455586,21.817232008561696,3.182331316470807
sz000070,2013-08-30,12.26,12.39,11.37,11.63,-0.0696,16825197.0,199518607.35,2762368720.0,3151730000.0,0.0708366843619631,16.52,2013-06-30 00:00:00,2013-08-24 00:00:00,48.3580811340083,2.0411517556907652,21.521144107924865,3.139142987252191
sz000070,2013-08-29,12.25,12.8,12.25,12.5,0.02459,14434770.0,180856403.67,2969011950.0,3387500000.0,0.06077261662756191,17.76,2013-06-30 00:00:00,2013-08-24 00:00:00,51.97558161436834,2.1938432455833676,23.131066324080898,3.373971396444746
sz000070,2013-08-28,12.6,12.8,12.17,12.2,-0.06226,18594019.0,232471214.91,2897755660.0,3306200000.0,0.07828369897826375,17.33,2013-06-30 00:00:00,2013-08-24 00:00:00,50.728175772131635,2.1411913502799833,22.575924344450858,3.29299660980953
sz000070,2013-08-27,12.5,13.68,12.3,13.01,0.026835,29289812.0,376653808.75,3090147640.0,3525710000.0,0.1233146433482382,18.48,2013-06-30 00:00:00,2013-08-24 00:00:00,54.09620552832515,2.283352901955748,24.074822812774176,3.511630739660812
sz000070,2013-08-26,12.5,12.97,12.43,12.67,0.002373,20029999.0,254668249.68,3009390510.0,3433570000.0,0.08432939709443027,18.0,2013-06-30 00:00:00,2013-08-24 00:00:00,52.682471408089086,2.2236804374176455,23.445658565177634,3.4198588280111335
sz000070,2013-08-23,12.78,12.82,12.34,12.64,-0.025443,22110495.0,278568111.66,3002264880.0,3425440000.0,0.09308860742493848,17.96,2013-03-31 00:00:00,2013-04-20 00:00:00,56.45503268855397,2.1823002630148194,28.54981025694339,3.4219125351915816
sz000070,2013-08-22,13.05,13.13,12.51,12.97,0.019653999999999998,35011439.0,449814209.47,3080646800.0,3514870000.0,0.1474035789594575,18.42,2013-03-31 00:00:00,2013-04-20 00:00:00,57.928918153123895,2.239274114305083,29.295167195908896,3.5112492498556587
sz000070,2013-08-21,12.37,12.72,12.15,12.72,0.100346,41137166.0,516698196.14,3021266560.0,3447120000.0,0.1731938381233068,18.07,2013-03-31 00:00:00,2013-04-20 00:00:00,56.81232864591704,2.196111734279553,28.730497988444018,3.4435693380849375
sz000070,2013-08-20,11.56,11.56,11.56,11.56,0.099905,5017967.0,58007698.52,2745742250.0,3132760000.0,0.021126418009556433,16.42,2013-03-31 00:00:00,2013-04-20 00:00:00,51.631331095779906,1.9958374313893565,26.110421620512106,3.1295331996344213
sz000070,2013-08-19,9.66,10.51,9.66,10.51,0.100524,7276561.0,75218075.92,2496345250.0,2848210000.0,0.03063544840602477,14.93,2013-03-31 00:00:00,2013-04-20 00:00:00,46.941627773107605,1.814554376413742,23.73879709657844,2.8452759098598714
sz000070,2013-08-16,9.24,9.79,9.2,9.55,0.040305,11134476.0,106947912.45,2268325130.0,2588050000.0,0.046877867900709635,13.57,2013-03-31 00:00:00,2013-04-20 00:00:00,42.65388830512338,1.648809454781306,21.57044925560773,2.585382881118332
sz000070,2013-08-15,9.38,9.56,9.16,9.18,-0.018182,4709637.0,44290441.61,2180442380.0,2487780000.0,0.01982830092487929,13.04,2013-03-31 00:00:00,2013-04-20 00:00:00,41.00132971111681,1.5849288956424372,20.7347357319322,2.4852162405432368
sz000070,2013-08-14,9.26,9.46,9.2,9.35,0.0141,5285243.0,49406451.59,2220820940.0,2533850000.0,0.022251691327262072,13.28,2013-03-31 00:00:00,2013-04-20 00:00:00,41.760621328104406,1.6142797296876175,21.11871623043395,2.531239232264266
sz000070,2013-08-13,8.97,9.23,8.94,9.22,0.03132,3717674.0,34042013.47,2189943210.0,2498620000.0,0.015651983176312598,13.1,2013-03-31 00:00:00,2013-04-20 00:00:00,41.17998355990968,1.5918348581871784,20.82508256624983,2.4960449977953516
sz000070,2013-08-12,8.84,8.97,8.82,8.94,0.013605,1678091.0,14923713.58,2123437350.0,2422740000.0,0.00706502291673451,12.7,2013-03-31 00:00:00,2013-04-20 00:00:00,39.929394911288135,1.5434926678307204,20.192648805656663,2.4202429874290727
sz000070,2013-08-09,9.0,9.09,8.8,8.82,-0.01891,2669032.0,23802168.85,2094934830.0,2390220000.0,0.011237037975066746,12.53,2013-03-31 00:00:00,2013-04-20 00:00:00,39.39344706398265,1.5227753097416845,19.921615230446438,2.3877575460155316
sz000070,2013-08-08,8.9,9.1,8.88,8.99,0.004469,2228060.0,20038323.77,2135313390.0000002,2436290000.0,0.00938047758881894,12.77,2013-03-31 00:00:00,2013-04-20 00:00:00,40.152735288284106,1.5521260126407206,20.305594013236746,2.4337803320954565
sz000070,2013-08-07,9.19,9.22,8.91,8.95,-0.027174,3081454.0,27807422.32,2125812560.0,2425450000.0,0.012973398416650619,12.71,2013-03-31 00:00:00,2013-04-20 00:00:00,39.97409107526873,1.5452204225722455,20.215252051817174,2.4229521588973446
sz000070,2013-08-06,9.27,9.27,9.11,9.2,0.002179,2367821.0,21746939.35,2185192800.0,2493200000.0,0.00996889299653559,13.07,2013-03-31 00:00:00,2013-04-20 00:00:00,41.09068947095239,1.5883831461867233,20.779925754263534,2.4906326094258833
sz000070,2013-08-05,9.15,9.23,9.1,9.18,0.002183,2929274.0,26893371.65,2180442380.0,2487780000.0,0.01233269705572316,13.04,2013-03-31 00:00:00,2013-04-20 00:00:00,41.00134753467434,1.5849295846218325,20.73474474546317,2.4852173208836783
sz000070,2013-08-02,9.23,9.24,8.96,9.16,0.003286,4387941.0,39988345.32,2175691960.0,2482360000.0,0.018473910966697694,13.01,2013-03-31 00:00:00,2013-04-20 00:00:00,40.91203655886633,1.5814772198508982,20.68957939364684,2.4798039089504393
sz000070,2013-08-01,8.88,9.16,8.84,9.13,0.028152999999999997,3363663.0,30437177.37,2168566330.0,2474230000.0,0.01416154201287447,12.97,2013-03-31 00:00:00,2013-04-20 00:00:00,40.77803991969023,1.5762975062453757,20.621816105922775,2.471681962023231
sz000070,2013-07-31,8.68,9.03,8.68,8.88,0.016018,2008935.0,17885822.1,2109186089.9999998,2406480000.0,0.008457927389422526,12.61,2013-03-31 00:00:00,2013-04-20 00:00:00,39.661451087231406,1.5331351523026007,20.057147239683953,2.4040020911510553
sz000070,2013-07-30,8.87,8.91,8.55,8.74,-0.005688,2223687.0,19457310.77,2075933160.0,2368540000.0,0.009362066541679984,12.42,2013-03-31 00:00:00,2013-04-20 00:00:00,39.036169720646086,1.5089645580123583,19.740936912223948,2.3661018713753643
sz000070,2013-07-29,9.07,9.07,8.72,8.79,-0.030871,2919206.0,25858576.13,2087809200.0,2382090000.0,0.012290309258144852,12.49,2013-03-31 00:00:00,2013-04-20 00:00:00,39.259477629402134,1.5175966477447307,19.85386570032741,2.3796372480422288
sz000070,2013-07-26,9.01,9.15,8.86,9.07,0.001104,2803574.0,25230639.44,2154315070.0,2457970000.0,0.011803480620873158,12.88,2013-03-31 00:00:00,2013-04-20 00:00:00,40.51006380925773,1.5659387426696865,20.486298212443764,2.4554391087690375
sz000070,2013-07-25,9.48,9.53,8.97,9.06,-0.044304,6878059.0,63262912.42,2151939860.0,2455260000.0,0.02895769333442246,12.87,2013-03-31 00:00:00,2013-04-20 00:00:00,40.46539001867711,1.5642118527842128,20.46370628070986,2.4527312934211007
sz000070,2013-07-24,9.3,9.62,9.21,9.48,0.013904,6576131.0,61955214.16,2251698660.0,2569080000.0,0.027686529724186098,13.47,2013-03-31 00:00:00,2013-04-20 00:00:00,42.341277999151515,1.636725331888187,21.412359453958015,2.56643461249299
sz000070,2013-07-23,9.22,10.01,9.13,9.35,0.024096,8975809.0,84856508.62,2220820940.0,2533850000.0,0.03778954558578685,13.28,2013-03-31 00:00:00,2013-04-20 00:00:00,41.76063808718727,1.6142803775191608,21.11872470565065,2.531240248083636
sz000070,2013-07-22,8.56,9.14,8.38,9.13,0.062864,5040987.0,44953224.5,2168566330.0,2474230000.0,0.02122333574643299,12.97,2013-03-31 00:00:00,2013-04-20 00:00:00,40.778050189813534,1.5762979032426268,20.62182129961513,2.4716825845268766
sz000070,2013-07-19,8.93,9.13,8.59,8.59,-0.040223,5113731.0,45531303.73,2040305010.0,2327890000.0,0.021529599287706497,12.2,2013-03-31 00:00:00,2013-04-20 00:00:00,38.36619754720598,1.483066416063228,19.402126047749412,2.325492804843213
sz000070,2013-07-18,8.74,9.06,8.58,8.95,0.018203,5505101.0,48822762.0,2125812560.0,2425450000.0,0.02317732752035297,12.71,2013-03-31 00:00:00,2013-04-20 00:00:00,39.974074756121446,1.5452197917466537,20.215243799079797,2.4229511697438184
sz000070,2013-07-17,8.6,8.98,8.54,8.79,0.022093,5302709.0,46777175.88,2087809200.0,2382090000.0,0.02232522594018649,12.49,2013-03-31 00:00:00,2013-04-20 00:00:00,39.25943525615369,1.5175950097835633,19.85384427180022,2.379634679669789
sz000070,2013-07-16,8.52,8.62,8.5,8.6,0.0023309999999999997,2100285.0,17977814.52,2042680220.0,2330600000.0,0.008842525042906618,12.22,2013-03-31 00:00:00,2013-04-20 00:00:00,38.41082490160258,1.4847915109325311,19.424694496293608,2.328197805551735
sz000070,2013-07-15,8.55,8.68,8.49,8.58,0.033735,3412511.0,29257093.05,2037929800.0,2325180000.0,0.01436719968469964,12.19,2013-03-31 00:00:00,2013-04-20 00:00:00,38.32149749095117,1.4813385108637076,19.379520833231343,2.3227833974522736
sz000070,2013-07-12,8.28,8.49,8.24,8.3,0.001206,2926592.0,24540640.12,1971423930.0,2249300000.0,0.012321405472642306,11.79,2013-03-31 00:00:00,2013-04-20 00:00:00,37.070910330937004,1.4329963780501846,18.74708782544012,2.24698147731505
sz000070,2013-07-11,8.14,8.36,8.1,8.29,0.024722,2153746.0,17752769.64,1969048730.0,2246590000.0,0.009067604101397734,11.78,2013-03-31 00:00:00,2013-04-20 00:00:00,37.02625666539853,1.4312702661092567,18.724506071118345,2.24427488180759
sz000070,2013-07-10,7.84,8.1,7.84,8.09,0.033206,1499886.0,11965123.34,1921544530.0,2192390000.0,0.006314752299807489,11.49,2013-03-31 00:00:00,2013-04-20 00:00:00,36.132977202986304,1.396740058385842,18.27276673197057,2.1901304761755775
sz000070,2013-07-09,7.72,7.86,7.65,7.83,0.010323,1365966.0,10633936.74,1859789090.0,2121930000.0,0.0057509283377934,11.12,2013-03-31 00:00:00,2013-04-20 00:00:00,34.971706709974875,1.3518505103395082,17.68550195408328,2.119742312932346
sz000070,2013-07-08,8.21,8.24,7.75,7.75,-0.062878,2052403.0,16226263.48,1840787410.0,2100250000.0,0.008640934397742323,11.01,2013-03-31 00:00:00,2013-04-20 00:00:00,34.61438244004628,1.33803794463702,17.504799904667397,2.0980837939276307
sz000070,2013-07-05,8.59,8.59,8.21,8.27,-0.030481,2307913.0,19341577.09,1964298310.0,2241170000.0,0.009716671043717387,11.75,2013-03-31 00:00:00,2013-04-20 00:00:00,36.93690089449002,1.427816169759135,18.679318066022777,2.238858754706037
sz000070,2013-07-04,8.55,8.72,8.4,8.53,-0.006984999999999999,2519882.0,21597212.84,2026053750.0,2311630000.0,0.010609093396460975,12.12,2013-03-31 00:00:00,2013-04-20 00:00:00,38.098171252435506,1.4727057125844205,19.26658277560602,2.3092469097625075
sz000070,2013-07-03,8.45,8.65,8.26,8.59,0.001166,3202062.0,27147742.03,2040305010.0,2327890000.0,0.013481176806991225,12.2,2013-03-31 00:00:00,2013-04-20 00:00:00,38.36615887215753,1.483064921058011,19.402106489434725,2.325490460630008
sz000070,2013-07-02,8.36,8.73,8.35,8.58,0.042526999999999995,4969694.0,42682314.2,2037929800.0,2325180000.0,0.020923181220471872,12.19,2013-03-31 00:00:00,2013-04-20 00:00:00,38.32147603110525,1.4813376813215897,19.379509980797113,2.3227820967052497
sz000070,2013-07-01,7.92,8.24,7.92,8.23,0.030038,2478130.0,20156231.75,1954797470.0,2230330000.0,0.010433310976200516,11.69,2013-03-31 00:00:00,2013-04-20 00:00:00,36.75825760973601,1.420910615573112,18.588976574033204,2.2280306377726906
sz000070,2013-06-28,7.81,8.07,7.65,7.99,0.020434,1711333.0,13496201.0,1897792440.0,2165290000.0,0.007204976888831953,11.35,2013-03-31 00:00:00,2013-04-20 00:00:00,35.68631216492597,1.3794739762737998,18.046884264496267,2.163056739433585
sz000070,2013-06-27,7.93,8.11,7.83,7.83,-0.01261,2105256.0,16812457.48,1859789090.0,2121930000.0,0.008863453694096033,11.12,2013-03-31 00:00:00,2013-04-20 00:00:00,34.971700438172356,1.3518502678995405,17.68549878237717,2.119741932779175
sz000070,2013-06-26,7.68,7.95,7.61,7.93,0.036601,2311446.0,18143292.52,1883541180.0,2149030000.0,0.009731545545502754,11.26,2013-03-31 00:00:00,2013-04-20 00:00:00,35.41832552301761,1.369114805598133,17.911361045156596,2.1468132478343667
sz000070,2013-06-25,7.63,7.75,7.01,7.65,0.001309,2154646.0,16143026.73,1817035310.0,2073150000.0,0.009071393279638578,10.87,2013-03-31 00:00:00,2013-04-20 00:00:00,34.167751645056875,1.3207731862096725,17.27893475421748,2.071012132763104
sz000070,2013-06-24,7.98,8.03,7.42,7.64,-0.045,1358917.0,10530532.49,1814660100.0,2070440000.0,0.005721250982484267,10.85,2013-03-31 00:00:00,2013-04-20 00:00:00,34.1230845274105,1.319046554270133,17.25634619704555,2.06830472188216
sz000070,2013-06-21,7.51,8.0,7.51,8.0,0.002506,1754136.0,13640916.86,1900167650.0,2168000000.0,0.007385184144146439,11.36,2013-03-31 00:00:00,2013-04-20 00:00:00,35.730978562733505,1.381200580387574,18.06947245763932,2.1657641066828903
sz000070,2013-06-20,8.12,8.25,7.98,7.98,-0.026124,1049581.0,8520735.68,1895417230.0,2162580000.0,0.004418898513442341,11.34,2013-03-31 00:00:00,2013-04-20 00:00:00,35.64166056136673,1.3777479440398104,18.024303552935667,2.1603502689090046
sz000070,2013-06-19,8.35,8.35,8.0,8.23,-0.020238,1563094.0,12787862.39,1954797470.0,2230330000.0,0.006580867745853999,11.64,2013-03-31 00:00:00,2013-04-20 00:00:00,36.59773991901097,1.4147057161690098,18.507801355548004,2.2183011686385177
sz000070,2013-06-18,8.24,8.44,8.19,8.4,0.016949000000000002,1549637.0,12901021.26,1995176030.0,2276400000.0,0.006524211700759055,11.88,2013-03-31 00:00:00,2013-04-20 00:00:00,37.35370418429268,1.4439279296084246,18.890099182809703,2.264122479376131
sz000070,2013-06-17,8.29,8.48,8.22,8.26,-0.003619,1543981.0,12860373.26,1961923100.0,2238460000.0,0.006500399052337984,11.68,2013-03-31 00:00:00,2013-04-20 00:00:00,36.73114795755999,1.4198626770943525,18.575266982719587,2.2263874386779783
sz000070,2013-06-14,8.08,8.35,8.08,8.29,0.020936,1339195.0,11061479.74,1969048730.0,2246590000.0,0.005638218283201147,11.72,2013-03-31 00:00:00,2013-04-20 00:00:00,36.864560803106436,1.425019823836818,18.642735040832356,2.234474000084283
sz000070,2013-06-13,8.39,8.4,7.81,8.12,-0.032181,1825094.0,14686885.59,1928670160.0,2200520000.0,0.007683928329144677,11.48,2013-03-31 00:00:00,2013-04-20 00:00:00,36.108591334918586,1.3957974092762113,18.260434582414923,2.188652373982584
sz000070,2013-06-07,8.52,8.65,8.35,8.39,-0.016413,1238479.0,10481553.97,1992800820.0,2273690000.0,0.005214188345225591,11.87,2013-03-31 00:00:00,2013-04-20 00:00:00,37.309239986938245,1.4422091416641039,18.867613244227403,2.2614273681159225
sz000070,2013-06-06,8.89,8.91,8.5,8.53,-0.036157999999999996,1606820.0,13977737.44,2026053750.0,2311630000.0,0.0067649609986901865,12.06,2013-03-31 00:00:00,2013-04-20 00:00:00,37.931814864306105,1.4662751151287114,19.18245487610898,2.2991635392862277
sz000070,2013-06-05,8.8,8.88,8.76,8.85,0.005682,1195132.0,10534044.9,2102060460.0,2398350000.0,0.005031690763071581,12.52,2013-03-31 00:00:00,2013-04-20 00:00:00,39.35480593739026,1.5212816157925382,19.9020740703445,2.385415388918752
sz000070,2013-06-04,9.25,9.33,8.71,8.8,-0.054779999999999995,3380654.0,30344845.75,2090184410.0,2384800000.0,0.01423307678388052,12.45,2013-03-31 00:00:00,2013-04-20 00:00:00,39.13245532622663,1.5126865309238287,19.789629396115767,2.37193803699256
sz000070,2013-06-03,9.36,9.44,9.24,9.31,-0.004278,2155485.0,20127237.84,2211320100.0,2523010000.0,0.009074925584043669,13.17,2013-03-31 00:00:00,2013-04-20 00:00:00,41.40036745543539,1.6003539185838525,20.93653265495416,2.509403141059817
sz000070,2013-05-31,9.41,9.57,9.34,9.35,-0.007431,3221551.0,30412988.29,2220820940.0,2533850000.0,0.013563228492433074,13.22,2013-03-31 00:00:00,2013-04-20 00:00:00,41.578239162572885,1.6072296470137777,21.026483953306407,2.5201844903093606
sz000070,2013-05-30,9.3,9.43,9.24,9.42,0.007487000000000001,2559998.0,23906644.1,2237447410.0,2552820000.0,0.010777987921512758,13.32,2013-03-31 00:00:00,2013-04-20 00:00:00,41.8895201870831,1.6192623858026771,21.183901525542712,2.5390521871117886
sz000070,2013-05-29,9.36,9.42,9.23,9.35,-0.001068,3072853.0,28550644.62,2220820940.0,2533850000.0,0.012937186889997534,13.22,2013-03-31 00:00:00,2013-04-20 00:00:00,41.57822402381677,1.607229061816854,21.0264762975033,2.520183572702961
sz000070,2013-05-28,9.44,9.52,9.23,9.36,-0.010570999999999999,2900795.0,27055832.59,2223196150.0,2536560000.0,0.012212796068399092,13.24,2013-03-31 00:00:00,2013-04-20 00:00:00,41.62267704289858,1.6089474176589136,21.048956583134085,2.5228780064138103
sz000070,2013-05-27,9.5,9.5,9.35,9.46,-0.009424,4574283.0,43129506.64,2246948240.0,2563660000.0,0.019258439695967366,13.38,2013-03-31 00:00:00,2013-04-20 00:00:00,42.06737122410864,1.626137315218084,21.273842370836196,2.549832283482504
sz000070,2013-05-24,9.45,9.87,9.42,9.55,0.035792000000000004,7164509.0,69080902.6,2268325130.0,2588050000.0,0.030163692164359174,13.51,2013-03-31 00:00:00,2013-04-20 00:00:00,42.46758575223772,1.6416078273833443,21.476234403858154,2.5740905124720403
sz000070,2013-05-23,9.35,9.47,9.2,9.22,-0.017058,3803037.0,35553310.14,2189943210.0,2498620000.0,0.01601137462372826,13.04,2013-03-31 00:00:00,2013-04-20 00:00:00,41.00010982150636,1.5848817401402446,20.734118822947224,2.4851422992956502
sz000070,2013-05-22,9.46,9.5,9.14,9.38,-0.011590999999999999,5246915.0,48817067.4,2227946570.0,2541980000.0,0.022090324500017074,13.27,2013-03-31 00:00:00,2013-04-20 00:00:00,41.71162675061841,1.6123858174136871,21.093939238477166,2.5282695207811345
sz000070,2013-05-21,9.38,9.55,9.22,9.49,0.008502,5385390.0,50530649.99,2254073870.0,2571790000.0,0.022673325741538363,13.42,2013-03-31 00:00:00,2013-04-20 00:00:00,42.20077594459217,1.631294147881785,21.341306320032665,2.557918352403848
sz000070,2013-05-20,9.13,9.48,9.1,9.41,0.025054,6590062.0,61462613.71,2235072200.0,2550110000.0,0.027745181305552456,13.31,2013-03-31 00:00:00,2013-04-20 00:00:00,41.84500967235779,1.6175418074349728,21.161392163855563,2.5363542684137936
sz000070,2013-05-17,9.16,9.2,9.0,9.18,0.003279,4093850.0,37432065.76,2180442380.0,2487780000.0,0.017235742317575024,12.98,2013-03-31 00:00:00,2013-04-20 00:00:00,40.822249044789636,1.5780064342317315,20.64417305220561,2.474361612572405
sz000070,2013-05-16,8.99,9.23,8.94,9.15,0.02349,4035151.0,36816486.29,2173316750.0,2479650000.0,0.01698861044990336,12.94,2013-03-31 00:00:00,2013-04-20 00:00:00,40.68883037000638,1.5728490621569187,20.57670204619613,2.466274697838193
sz000070,2013-05-15,9.0,9.08,8.8,8.94,-0.008869,3654386.0,32493547.78,2123437350.0,2422740000.0,0.015385530842245004,12.64,2013-03-31 00:00:00,2013-04-20 00:00:00,39.75498575463012,1.536750786189331,20.104448549762214,2.409671513974922
sz000070,2013-05-14,9.19,9.33,8.91,9.02,-0.022752,4025005.0,36634381.15,2142439020.0,2444420000.0,0.016945894264005702,12.76,2013-03-31 00:00:00,2013-04-20 00:00:00,40.11072779948374,1.5505021901134475,20.284350453938192,2.4312341294691846
sz000070,2013-05-13,9.0,9.36,8.86,9.23,0.026695999999999998,4482309.0,41232827.86,2192318420.0,2501330000.0,0.01887121491685501,13.05,2013-03-31 00:00:00,2013-04-20 00:00:00,41.04457394590088,1.5866005252642599,20.756604724633046,2.4878374061335347
sz000070,2013-05-10,8.95,9.03,8.82,8.99,-0.0022199999999999998,2670893.0,23834540.72,2135313390.0000002,2436290000.0,0.011244873086287346,12.71,2013-03-31 00:00:00,2013-04-20 00:00:00,39.97733890645418,1.5453459692686637,20.21689450882544,2.4231490198983288
sz000070,2013-05-09,9.15,9.16,8.8,9.01,-0.017447999999999998,4129925.0,37027365.87,2140063810.0,2441710000.0,0.017387623712958353,12.74,2013-03-31 00:00:00,2013-04-20 00:00:00,40.06628606151074,1.5487842703488384,20.26187587326409,2.42854037954091
sz000070,2013-05-08,8.95,9.24,8.86,9.17,0.022297,4679064.0,42555722.38,2178067170.0,2485070000.0,0.019699583865450763,12.97,2013-03-31 00:00:00,2013-04-20 00:00:00,40.77777670953878,1.5762873317125592,20.621682998216983,2.4716660080493553
sz000070,2013-05-07,8.99,9.07,8.8,8.97,-0.014286000000000002,3940984.0,35067971.97,2130562980.0,2430870000.0,0.016592152783955722,12.69,2013-03-31 00:00:00,2013-04-20 00:00:00,39.88838538070519,1.5419074219258777,20.17190992267118,2.4177572741085567
sz000070,2013-05-06,9.0,9.2,8.88,9.1,0.019037000000000002,6275214.0,56907081.51,2161440700.0,2466100000.0,0.026419622523069914,12.87,2013-03-31 00:00:00,2013-04-20 00:00:00,40.46648965187183,1.564254359708676,20.46426237495986,2.45279794555881
sz000070,2013-05-03,8.32,9.11,8.31,8.93,0.078502,6445962.0,56964674.37,2121062140.0000002,2420030000.0,0.027138498007418112,12.63,2013-03-31 00:00:00,2013-04-20 00:00:00,39.71052047361562,1.5350319563555357,20.081962063163417,2.4069763370307555
sz000070,2013-05-02,8.11,8.37,8.0,8.28,0.015951,2813148.0,23230887.94,1966673520.0,2243880000.0,0.01184378861215358,11.71,2013-03-31 00:00:00,2013-04-20 00:00:00,36.820071241050655,1.42330005540605,18.620236275095845,2.2317773513917967
sz000070,2013-04-26,8.73,8.73,8.08,8.15,-0.065367,5534984.0,46808678.47,1935795790.0,2208650000.0,0.023303139635405447,11.53,2013-03-31 00:00:00,2013-04-20 00:00:00,36.24197549000951,1.4009534469733775,18.327888131510125,2.19673719637246
sz000070,2013-04-25,8.6,8.75,8.46,8.72,0.0,7787486.0,67079815.91,2071182740.0,2363120000.0,0.03278652173395381,12.33,2013-03-31 00:00:00,2013-04-20 00:00:00,38.776691482121336,1.4989342843376785,19.60971646786506,2.3503741001788505
sz000070,2013-04-24,8.21,8.75,8.13,8.72,0.063415,11572872.0,97470661.33,2071182740.0,2363120000.0,0.0487235828548861,12.33,2013-03-31 00:00:00,2013-04-20 00:00:00,38.776691482121336,1.4989342843376785,19.60971646786506,2.3503741001788505
sz000070,2013-04-23,8.02,8.22,8.02,8.2,0.00861,5398947.0,44073078.57,1947671840.0,2222200000.0,0.02273040277668131,11.6,2013-03-31 00:00:00,2013-04-20 00:00:00,36.46430742665971,1.4095478099685246,18.44032336187195,2.210213416379166
sz000070,2013-04-22,7.98,8.27,7.93,8.13,0.011193999999999999,3465089.0,28168548.68,1931045370.0,2203230000.0,0.014588561205063764,11.5,2013-03-31 00:00:00,2013-04-20 00:00:00,36.15302983973955,1.3975152040615546,18.282907528055393,2.1913459279396057
sz000070,2013-04-19,7.9,8.13,7.87,8.04,-0.00495,4187191.0,33619862.58,1909668490.0,2178840000.0,0.01762872237578785,11.37,2012-12-31 00:00:00,2013-04-09 00:00:00,42.6636663047833,1.2483810008466494,24.671690741385532,2.3739380269538217
sz000070,2013-04-18,7.7,8.33,7.65,8.08,0.067371,5519354.0,44645839.75,1919169320.0,2189680000.0,0.023237334952811772,11.43,2012-12-31 00:00:00,2013-04-09 00:00:00,42.875902019781215,1.2545912274223903,24.79442313590828,2.3857474769647973
sz000070,2013-04-17,7.51,7.63,7.49,7.57,0.0066489999999999995,918573.0,6934354.28,1798033640.0,2051470000.0,0.00386733454553164,10.71,2012-12-31 00:00:00,2013-04-09 00:00:00,40.16963363233704,1.175403142321077,23.229433004932943,2.2351623540126138
sz000070,2013-04-16,7.35,7.52,7.2,7.52,0.018969999999999997,1020305.0,7547771.17,1786157590.0,2037920000.0,0.004295642021149992,10.64,2012-12-31 00:00:00,2013-04-09 00:00:00,39.904309875971705,1.167639507237455,23.076000676435324,2.2203989215830084
sz000070,2013-04-15,7.6,7.6,7.0,7.38,-0.028947000000000004,1753266.0,12870371.26,1752904660.0,1999980000.0,0.0073815212973419786,10.44,2012-12-31 00:00:00,2013-04-09 00:00:00,39.16141778067235,1.1459017510205944,22.64639849694822,2.1790621132938246
sz000070,2013-04-12,7.81,7.95,7.58,7.6,-0.009126,1566611.0,12155824.75,1805159270.0,2059600000.0,0.006595674851449534,10.75,2012-12-31 00:00:00,2013-04-09 00:00:00,40.32881601794377,1.1800609760956349,23.321485538841053,2.244019753086417
sz000070,2013-04-11,7.94,8.01,7.6,7.67,-0.030341000000000003,2650823.0,20523069.81,1821785730.0,2078570000.0,0.01116037527091619,10.85,2012-12-31 00:00:00,2013-04-09 00:00:00,40.70024646720347,1.190929397779773,23.536277608294345,2.2646872892884637
sz000070,2013-04-10,8.45,8.45,7.88,7.91,-0.008772,2449109.0,19840032.22,1878790760.0,2143610000.0,0.010311128094966787,11.19,2012-12-31 00:00:00,2013-04-09 00:00:00,41.973772704841046,1.2281940329329928,24.272736712900453,2.33555021846697
sz000070,2013-04-09,8.1,8.19,7.95,7.98,-0.025641000000000004,2864451.0,23053792.93,1895417230.0,2162580000.0,0.012059782204259059,11.29,2012-12-31 00:00:00,2013-04-09 00:00:00,42.34522501870513,1.2390630943970438,24.487541426291887,2.356218971283065
sz000070,2013-04-08,8.04,8.2,7.8,8.19,0.012361,2313050.0,18507788.8,1945296630.0,2219490000.0,0.009738298626467058,11.58,2012-09-30 00:00:00,2012-10-24 00:00:00,40.726620669704396,1.3311828373362344,99.87197410908537,2.441798223663777
sz000070,2013-04-03,8.03,8.2,7.91,8.09,-0.002466,2800938.0,22615647.63,1921544530.0,2192390000.0,0.011792382672495235,11.44,2012-09-30 00:00:00,2012-10-24 00:00:00,40.22934572717083,1.3149289999676343,98.65253018348727,2.4119836932317393
sz000070,2013-04-02,7.81,8.16,7.81,8.11,0.039744,4417998.0,35587339.34,1926294950.0,2197810000.0,0.018600455646732603,11.47,2012-09-30 00:00:00,2012-10-24 00:00:00,40.328796539437086,1.3181796309375262,98.89640872740905,2.4179463489281963
sz000070,2013-04-01,7.86,8.07,7.8,7.8,-0.011406999999999999,3177149.0,25240094.45,1852663460.0,2113800000.0,0.013376289183141767,11.03,2012-09-30 00:00:00,2012-10-24 00:00:00,38.78723660770063,1.2677924863596484,95.11611389669866,2.3255208483320855
sz000070,2013-03-29,7.65,7.98,7.51,7.89,0.063342,3637454.0,28446796.06,1874040340.0,2138190000.0,0.01531424454822568,11.16,2012-09-30 00:00:00,2012-10-24 00:00:00,39.234787832506015,1.2824210634301962,96.21362269073182,2.3523541521456104
sz000070,2013-03-28,7.74,7.74,7.4,7.42,-0.041344,1135218.0,8537955.18,1762405490.0,2010820000.0,0.00477944355472928,10.49,2012-09-30 00:00:00,2012-10-24 00:00:00,36.89761885875478,1.206028787944233,90.48229327039829,2.2122272534571294
sz000070,2013-03-27,7.78,7.84,7.73,7.74,-0.002577,1044357.0,8130672.19,1838412200.0,2097540000.0,0.00439690466588505,10.95,2012-09-30 00:00:00,2012-10-24 00:00:00,38.48890411029064,1.2580412451851686,94.38452716135745,2.3076340767252583
sz000070,2013-03-26,7.89,7.9,7.7,7.76,-0.016477000000000002,1009318.0,7845672.35,1843162620.0,2102960000.0,0.004249385048835246,10.97,2012-09-30 00:00:00,2012-10-24 00:00:00,38.58834627865073,1.2612915936219327,94.62838450823519,2.313596214169173
sz000070,2013-03-25,7.82,7.9,7.76,7.89,0.008951,1458585.0,11427990.1,1874040340.0,2138190000.0,0.006140868691225718,11.16,2012-09-30 00:00:00,2012-10-24 00:00:00,39.234818381116376,1.2824220619364595,96.21369760365052,2.3523559837128083
sz000070,2013-03-22,7.84,7.86,7.74,7.82,-0.0025510000000000003,1080249.0,8416677.61,1857413880.0,2119220000.0,0.004548015534372986,11.06,2012-09-30 00:00:00,2012-10-24 00:00:00,38.88674314324123,1.2710449386902434,95.36012908818222,2.33148684496354
sz000070,2013-03-21,7.8,7.9,7.75,7.84,0.007712,2236259.0,17478167.69,1862164300.0,2124640000.0,0.009414996603683145,11.09,2012-09-30 00:00:00,2012-10-24 00:00:00,38.986196931613776,1.2742956669365983,95.60401493026933,2.337449679094911
sz000070,2013-03-20,7.61,7.81,7.52,7.78,0.022338999999999998,1255073.0,9693619.36,1847913040.0,2108380000.0,0.005284051645633715,11.0,2012-09-30 00:00:00,2012-10-24 00:00:00,38.687836337776844,1.2645435074074722,94.87235929538335,2.3195612229435705
sz000070,2013-03-19,7.66,7.7,7.45,7.61,-0.001312,873572.0,6604753.92,1807534480.0,2062310000.0,0.003677873364827873,10.76,2012-09-30 00:00:00,2012-10-24 00:00:00,37.8424733261441,1.2369121273936257,92.79931538891044,2.268876784455616
sz000070,2013-03-18,7.68,7.72,7.59,7.62,0.0026320000000000002,789209.0,6027218.86,1809909680.0,2065020000.0,0.0033226920914639236,10.78,2012-09-30 00:00:00,2012-10-24 00:00:00,37.89218787663825,1.2385370880531514,92.92122804009907,2.271857461445032
sz000070,2013-03-15,7.52,7.76,7.45,7.6,0.018767,1561697.0,11905685.8,1805159270.0,2059600000.0,0.006574986150668024,10.75,2012-09-30 00:00:00,2012-10-24 00:00:00,37.79271744432479,1.235285815786003,92.6773013828594,2.265893629412419
sz000070,2013-03-14,7.38,7.56,7.37,7.46,0.0,880569.0,6607090.61,1771906330.0,2021660000.0,0.0037073318317001553,10.55,2012-09-30 00:00:00,2012-10-24 00:00:00,37.09652692355052,1.2125302603892771,90.97006615139613,2.2241529509813516
sz000070,2013-03-13,7.4,7.55,7.3,7.46,-0.005333,1023420.0,7625012.59,1771906330.0,2021660000.0,0.004308756659839914,10.55,2012-09-30 00:00:00,2012-10-24 00:00:00,37.09652692355052,1.2125302603892771,90.97006615139613,2.2241529509813516
sz000070,2013-03-12,7.84,7.91,7.42,7.5,-0.043367,2005458.0,15281065.79,1781407170.0,2032500000.0,0.008443288683967742,10.61,2012-09-30 00:00:00,2012-10-24 00:00:00,37.29542341663141,1.2190313546033769,91.45781065562255,2.2360779547138403
sz000070,2013-03-11,7.9,8.0,7.77,7.84,-0.018772999999999998,1810795.0,14245416.15,1862164300.0,2124640000.0,0.007623727294095371,11.09,2012-09-30 00:00:00,2012-10-24 00:00:00,38.986135139213694,1.2742936472015673,95.60386339967633,2.3374459742804614
sz000070,2013-03-08,7.95,8.01,7.76,7.99,0.005031,2844669.0,22521021.22,1897792440.0,2165290000.0,0.011976496918704135,11.3,2012-09-30 00:00:00,2012-10-24 00:00:00,39.73202443391152,1.2986736475877318,97.432972594187,2.3821663838036065
sz000070,2013-03-07,8.12,8.18,7.76,7.95,-0.031669,4619769.0,36687294.05,1888291600.0,2154450000.0,0.019449942768373276,11.24,2012-09-30 00:00:00,2012-10-24 00:00:00,39.53313324057816,1.2921727266002059,96.9452410862819,2.370241697821864
sz000070,2013-03-06,7.97,8.55,7.9,8.21,0.02625,4131586.0,33944038.15,1950047050.0,2224910000.0,0.017394616740144808,11.61,2012-09-30 00:00:00,2012-10-24 00:00:00,40.82605352981384,1.3344328815252287,100.11580862977836,2.4477598030238257
sz000070,2013-03-05,7.81,8.04,7.76,8.0,0.015228,4764250.0,38062475.21,1900167650.0,2168000000.0,0.02005823012511554,11.31,2012-09-30 00:00:00,2012-10-24 00:00:00,39.78178175864929,1.3003000063583223,97.55499013863907,2.3851496253581734
sz000070,2013-03-04,7.93,8.05,7.75,7.88,-0.021118,3879336.0,30679127.58,1871665130.0,2135480000.0,0.016332605224097966,11.14,2012-09-30 00:00:00,2012-10-24 00:00:00,39.185071489999565,1.2807960441972859,96.09170564507583,2.3493733677146147
sz000070,2013-03-01,7.76,8.08,7.56,8.05,0.029412,7671724.0,59554158.93,1912043700.0,2181550000.0,0.03229914577789201,11.39,2012-09-30 00:00:00,2012-10-24 00:00:00,40.030434199422984,1.3084274143331738,98.16474881045502,2.4000577880833593
sz000070,2013-02-28,7.53,7.86,7.47,7.82,0.034392,7256499.0,55764964.93,1857413880.0,2119220000.0,0.03055098424267186,11.06,2012-09-30 00:00:00,2012-10-24 00:00:00,38.88669861962265,1.2710434833994302,95.36001990500893,2.331484175513167
sz000070,2013-02-27,7.35,7.61,7.31,7.56,0.021622,4587386.0,34308934.82,1795658430.0,2048760000.0,0.01931360529407589,10.69,2012-09-30 00:00:00,2012-10-24 00:00:00,37.59377355936884,1.2287831725297857,92.18944066176935,2.253965784260867
sz000070,2013-02-26,7.4,7.4,7.22,7.4,0.0,2889416.0,21217660.25,1757655070.0,2005400000.0,0.012164888757155294,10.47,2012-09-30 00:00:00,2012-10-24 00:00:00,36.798124511187936,1.202776733987508,90.23830796690886,2.2062619875657212
sz000070,2013-02-25,7.24,7.41,7.2,7.4,0.023513,3560594.0,26089757.14,1757655070.0,2005400000.0,0.014990652062352599,10.47,2012-09-30 00:00:00,2012-10-24 00:00:00,36.798124511187936,1.202776733987508,90.23830796690886,2.2062619875657212
sz000070,2013-02-22,7.18,7.24,7.01,7.23,0.001385,1344619.0,9678809.98,1717276510.0,1959330000.0,0.0056610541828234755,10.23,2012-09-30 00:00:00,2012-10-24 00:00:00,35.952767098403186,1.175145536976578,88.16527779022726,2.1555778847613283
sz000070,2013-02-21,7.26,7.29,7.0,7.22,-0.006878,1981829.0,14246919.63,1714901300.0,1956620000.0,0.008343806946790464,10.21,2012-09-30 00:00:00,2012-10-24 00:00:00,35.90304138608346,1.173520211483673,88.04333776741937,2.1525965385554287
sz000070,2013-02-20,7.16,7.28,7.16,7.27,0.009722,1942078.0,14030307.72,1726777350.0,1970170000.0,0.00817644907144514,10.28,2012-09-30 00:00:00,2012-10-24 00:00:00,36.151692728671264,1.1816475835634224,88.6530937462058,2.1675046354379717
sz000070,2013-02-19,7.21,7.21,7.1,7.2,0.0,1266236.0,9055457.27,1710150880.0,1951200000.0,0.005331049620604236,10.18,2012-09-30 00:00:00,2012-10-24 00:00:00,35.80361003194074,1.1702702165184302,87.79950693973768,2.1466350494868607
sz000070,2013-02-18,7.16,7.25,7.16,7.2,0.001391,1214810.0,8756487.2,1710150880.0,1951200000.0,0.0051145381979395875,10.18,2012-09-30 00:00:00,2012-10-24 00:00:00,35.80361003194074,1.1702702165184302,87.79950693973768,2.1466350494868607
sz000070,2013-02-08,7.14,7.23,7.12,7.19,0.0027890000000000002,1404139.0,10070885.5,1707775670.0,1948490000.0,0.005911642604675356,10.17,2012-09-30 00:00:00,2012-10-24 00:00:00,35.753876389882414,1.168644631835547,87.67754747120522,2.1436532278469254
sz000070,2013-02-07,7.42,7.42,7.11,7.17,-0.02449,2583699.0,18596810.57,1703025250.0,1943070000.0,0.010877772851576923,10.14,2012-09-30 00:00:00,2012-10-24 00:00:00,35.65443616741151,1.1653943470017591,87.4336948961399,2.1376912070704064
sz000070,2013-02-06,7.28,7.41,7.26,7.35,0.018006,2855029.0,20949229.74,1745779030.0,1837500000.0,0.012020114109172225,10.4,2012-09-30 00:00:00,2012-10-24 00:00:00,36.54953426147503,1.1946513587782384,89.62870180330279,2.191357553557018
sz000070,2013-02-05,7.2,7.25,7.15,7.22,-0.008242,1058697.0,7608055.87,1716287000.0,1805000000.0,0.0044536795652475375,10.21,2012-09-30 00:00:00,2012-10-24 00:00:00,35.90306369655487,1.1735209407196405,88.04339247833784,2.1525978761981928
sz000070,2013-02-04,7.22,7.28,7.13,7.28,0.013928,1161008.0,8364464.31,1730549770.0,1820000000.0,0.0048840769485641545,10.3,2012-09-30 00:00:00,2012-10-24 00:00:00,36.2014359315023,1.183273480747965,88.77507666017097,2.1704870303019415
sz000070,2013-02-01,7.16,7.2,7.11,7.18,-0.001391,1257258.0,9004873.72,1706778490.0,1795000000.0,0.005288977153678566,10.15,2012-09-30 00:00:00,2012-10-24 00:00:00,35.70414855049106,1.1670192368175698,87.55560223227977,2.1406717541106874
sz000070,2013-01-31,7.13,7.24,7.13,7.19,0.0070030000000000005,1302314.0,9373391.29,1709155610.0,1797500000.0,0.005478516763023117,10.17,2012-09-30 00:00:00,2012-10-24 00:00:00,35.75388220063214,1.1686448217646446,87.67756172063316,2.143653576235231
sz000070,2013-01-30,7.17,7.22,7.12,7.14,0.002809,928167.0,6651359.03,1697269970.0,1785000000.0,0.0039045717517761772,10.1,2012-09-30 00:00:00,2012-10-24 00:00:00,35.50523901183228,1.160517716198109,87.06782573699697,2.128745968219788
sz000070,2013-01-29,7.07,7.17,7.02,7.12,0.007072,1163267.0,8280550.45,1692515710.0,1780000000.0,0.004893580007006257,10.07,2012-09-30 00:00:00,2012-10-24 00:00:00,35.40578416411528,1.1572669533262159,86.82393729712933,2.1227830705745436
sz000070,2013-01-28,6.9,7.07,6.84,7.07,0.029112,1137166.0,7929300.7,1680630070.0,1767500000.0,0.004783779466709173,10.0,2012-09-30 00:00:00,2012-10-24 00:00:00,35.15715277965754,1.1491402335942373,86.21423026072549,2.1078761702981947
sz000070,2013-01-25,6.9,6.99,6.83,6.87,-0.0043479999999999994,776271.0,5331394.94,1633087490.0,1717500000.0,0.003265582403059128,9.72,2012-09-30 00:00:00,2012-10-24 00:00:00,34.16261085251901,1.1166328189684285,83.77536192438285,2.0482475865583094
sz000070,2013-01-24,7.18,7.25,6.8,6.9,-0.041667,1880883.0,13328418.91,1640218880.0,1725000000.0,0.00791241514059392,9.76,2012-09-30 00:00:00,2012-10-24 00:00:00,34.311798552625824,1.1215091407122453,84.14120789631603,2.05719225849826
sz000070,2013-01-23,7.12,7.23,7.05,7.2,0.011236,1529389.0,10947446.38,1711532740.0,1800000000.0,0.006433765795213477,10.18,2012-09-30 00:00:00,2012-10-24 00:00:00,35.8036283344368,1.1702708147504524,87.79955182208693,2.1466361468281483
sz000070,2013-01-22,7.21,7.21,7.04,7.12,-0.015213999999999998,2314739.0,16460292.66,1692515710.0,1780000000.0,0.009737541331300257,10.07,2012-09-30 00:00:00,2012-10-24 00:00:00,35.405808668240454,1.157267754263547,86.82399738744164,2.1227845397396337
sz000070,2013-01-21,7.2,7.23,7.1,7.23,0.002774,2206631.0,15838720.1,1718664130.0,1807500000.0,0.009282757376218703,10.23,2012-09-30 00:00:00,2012-10-24 00:00:00,35.952794483512605,1.1751464320812308,88.16534494544156,2.155579526658211
sz000070,2013-01-18,7.19,7.26,7.1,7.21,0.002782,2025944.0,14538086.4,1713909870.0,1802500000.0,0.008522651334051773,10.2,2012-09-30 00:00:00,2012-10-24 00:00:00,35.85333732577092,1.1718955937042952,87.92145084080917,2.149616490513527
sz000070,2013-01-17,7.15,7.25,7.11,7.19,0.0027890000000000002,1206100.0,8653929.47,1709155610.0,1797500000.0,0.0050737679759890325,10.17,2012-09-30 00:00:00,2012-10-24 00:00:00,35.75387005926604,1.1686444249141839,87.67753194693279,2.143652848289585
sz000070,2013-01-16,7.39,7.39,7.1,7.17,-0.028455,2114099.0,15267219.58,1704401360.0,1792500000.0,0.008893497849591014,10.14,2012-09-30 00:00:00,2012-10-24 00:00:00,35.65442985440212,1.1653941406558945,87.43367941504424,2.137690828568707
sz000070,2013-01-15,7.23,7.46,7.22,7.38,0.022161,3603337.0,26587309.93,1754321060.0,1845000000.0,0.015158358219789028,10.44,2012-09-30 00:00:00,2012-10-24 00:00:00,36.698691109935325,1.1995266721108075,89.99447211919596,2.2003003757609862
sz000070,2013-01-14,7.11,7.25,7.06,7.22,0.018336,2689610.0,19352825.57,1716287000.0,1805000000.0,0.011314532010089222,10.21,2012-09-30 00:00:00,2012-10-24 00:00:00,35.903043757231316,1.1735202889865761,88.04334358207362,2.15259668071956
sz000070,2013-01-11,7.22,7.24,7.05,7.09,-0.019364,2325432.0,16612810.97,1685384330.0,1772500000.0,0.009782524132047674,10.03,2012-09-30 00:00:00,2012-10-24 00:00:00,35.25657912244222,1.1523900647591523,86.45804879928984,2.1138373589066477
sz000070,2013-01-10,7.32,7.32,7.1,7.23,-0.009589,2097655.0,15062531.92,1718664130.0,1807500000.0,0.008824321974998104,10.23,2012-09-30 00:00:00,2012-10-24 00:00:00,35.95276853230171,1.1751455838447216,88.1652813065091,2.1555779707319003
sz000070,2013-01-09,7.18,7.34,7.03,7.3,0.001372,5058520.0,36423789.55,1735304030.0,1825000000.0,0.021279957495402117,10.32,2012-09-30 00:00:00,2012-10-24 00:00:00,36.30085745443226,1.1865231543719945,89.01888337923255,2.176447929932018
sz000070,2013-01-08,6.67,7.3,6.6,7.29,0.092954,7012865.0,49044331.82,1732926900.0,1822500000.0,0.02950140934969617,10.31,2012-09-30 00:00:00,2012-10-24 00:00:00,36.25112091653478,1.1848974750362449,88.89691680937011,2.1734659346696517
sz000070,2013-01-07,6.6,6.67,6.51,6.67,0.016768,1113141.0,7363976.41,1585544920.0,1667500000.0,0.004682712155515594,9.43,2012-09-30 00:00:00,2012-10-24 00:00:00,33.1680207186531,1.0841238286663895,81.33637537295267,1.9886161125442168
sz000070,2013-01-04,6.69,6.69,6.47,6.56,-0.009063,1260490.0,8286570.24,1559396500.0,1640000000.0,0.005302573399388801,9.28,2012-09-30 00:00:00,2012-10-24 00:00:00,32.621031266378466,1.0662450319703114,79.99501889610282,1.9558209075661477
