code,date,open,high,low,close,change,volume,money,traded_market_value,market_value,turnover,adjust_price,report_type,report_date,PE_TTM,PS_TTM,PC_TTM,PB
sz002506,2014-04-28,1.98,2.0,1.91,1.91,-0.049751,25135402.0,48508140.52,903980940.0,1611123200.0,0.053107997852255596,6.22,2013-09-30 00:00:00,2013-10-28 00:00:00,-0.7269986378562721,-78.51367132475956,1.9750381123179435,2.7932337748647638
sz002506,2014-04-25,2.03,2.08,1.95,2.01,-0.019512,28090429.0,56132715.3,951309780.0,1695475200.0,0.05935160499453711,6.54,2013-09-30 00:00:00,2013-10-28 00:00:00,-0.765061197492733,-82.62431354809061,2.0784427158754637,2.939475626772313
sz002506,2014-04-24,2.05,2.07,1.99,2.05,-0.009662,20221303.0,40970549.86,970241320.0,1729216000.0,0.042725114149951886,6.67,2013-09-30 00:00:00,2013-10-28 00:00:00,-0.7802861406694758,-84.26856172445824,2.119804338120878,2.997972057559412
sz002506,2014-04-23,2.09,2.12,2.05,2.07,-0.014286000000000002,15622596.0,32650980.86,979707090.0,1746086400.0,0.03300861456458378,6.74,2013-09-30 00:00:00,2013-10-28 00:00:00,-0.787898819059226,-85.09070814657039,2.140485711061151,3.0272210675137297
sz002506,2014-04-22,2.18,2.2,2.1,2.1,-0.049774,20475577.0,43518473.77,993905740.0,1771392000.0,0.04326236379317017,6.84,2013-09-30 00:00:00,2013-10-28 00:00:00,-0.7993178742101928,-86.32393183679079,2.171507872528087,3.071094726780516
sz002506,2014-04-21,2.08,2.21,2.07,2.21,0.052381,30088665.0,65979166.0,1045967470.0,1864179200.0,0.06357363068853375,7.2,2013-09-30 00:00:00,2013-10-28 00:00:00,-0.8411871220217009,-90.84568495998928,2.2852541106306155,3.231962424497452
sz002506,2014-04-18,2.07,2.1,2.05,2.1,0.009615,12675621.0,26429687.46,993905740.0,1771392000.0,0.026782020697455677,6.84,2013-09-30 00:00:00,2013-10-28 00:00:00,-0.7993180435808903,-86.32395012831788,2.1715083326576736,3.0710953775272
sz002506,2014-04-17,2.06,2.11,2.03,2.08,0.004831,14953317.0,31022562.48,984439970.0,1754521600.0,0.031594510897398856,6.77,2013-09-30 00:00:00,2013-10-28 00:00:00,-0.7917057923870885,-85.50184984208622,2.1508281202811705,3.0418480089214204
sz002506,2014-04-16,2.15,2.17,2.06,2.07,-0.046083,25086008.0,52604936.2,979707090.0,1746086400.0,0.053003634545504816,6.74,2013-09-30 00:00:00,2013-10-28 00:00:00,-0.7878994501434454,-85.09077630177235,2.140487425528442,3.027223492230455
sz002506,2014-04-15,2.19,2.2,2.15,2.17,-0.013636,12536178.0,27215113.46,1027035930.0,1830438400.0,0.026487394905453793,7.07,2013-09-30 00:00:00,2013-10-28 00:00:00,-0.8259622694044088,-89.20144656377059,2.243892734408174,3.173466341652843
sz002506,2014-04-14,2.21,2.22,2.13,2.2,-0.009009,22194615.0,48514862.43,1041234590.0,1855744000.0,0.046894478409519616,7.16,2013-09-30 00:00:00,2013-10-28 00:00:00,-0.837380793910168,-90.4346129459009,2.2749134542706084,3.2173379621040947
sz002506,2014-04-11,2.2,2.25,2.18,2.22,-0.017699,22274379.0,49418221.99,1050700350.0000001,1872614400.0,0.047063010286424664,7.23,2013-09-30 00:00:00,2013-10-28 00:00:00,-0.8449933389003209,-91.25674496125686,2.295594464804028,3.2465864595178915
sz002506,2014-04-10,2.22,2.38,2.22,2.26,-0.034187999999999996,51121061.0,115398701.3,1069631889.9999999,1906355200.0,0.10801248442583364,7.36,2013-09-30 00:00:00,2013-10-28 00:00:00,-0.8602183433594397,-92.9009997559372,2.3369562535353503,3.305083125760731
sz002506,2014-04-09,2.34,2.34,2.34,2.34,-0.048780000000000004,1597600.0,3738384.0,1107494970.0,1973836800.0,0.0033755313579437746,7.62,2013-09-30 00:00:00,2013-10-28 00:00:00,-0.8906685186759324,-96.18952731581011,2.4196802830523434,3.4220770975725405
sz002506,2014-04-08,2.46,2.46,2.46,2.46,-0.050193,1637900.0,4029234.0,1164289580.0,2075059200.0,0.0034606802888332983,8.01,2013-09-30 00:00:00,2013-10-28 00:00:00,-0.9363433471499047,-101.12227173084051,2.543765146919055,3.5975663858755498
sz002506,2014-02-19,2.49,2.63,2.47,2.59,0.031873,16598298.0,42176023.13,1225817080.0,2184716800.0,0.035070152408057484,8.43,2013-09-30 00:00:00,2013-10-28 00:00:00,-0.9858248540491962,-106.46612599279698,2.678191618843676,3.787681482528082
sz002506,2014-02-18,2.39,2.51,2.39,2.51,0.050209,24766839.0,61257634.67,1187954000.0,2117235200.0000002,0.05232927023268577,8.17,2013-09-30 00:00:00,2013-10-28 00:00:00,-0.955374211796603,-103.1775480052264,2.595466320800792,3.67068571668033
sz002506,2014-02-17,2.38,2.44,2.37,2.39,0.0,14009854.0,33589316.91,1131159390.0,2016012800.0,0.029601090134609587,7.78,2013-09-30 00:00:00,2013-10-28 00:00:00,-0.9096991282655195,-98.24477604479337,2.4713807640201066,3.495195448411059
sz002506,2014-02-14,2.3,2.42,2.29,2.39,0.03913,19124014.0,45597828.1,1131159390.0,2016012800.0,0.04040667819589952,7.78,2013-09-30 00:00:00,2013-10-28 00:00:00,-0.9096991282655195,-98.24477604479337,2.4713807640201066,3.495195448411059
sz002506,2014-02-13,2.33,2.33,2.29,2.3,-0.012875999999999999,9155941.0,21150271.01,1088563430.0,1940096000.0,0.0193453718172399,7.49,2013-09-30 00:00:00,2013-10-28 00:00:00,-0.8754430420308522,-94.54522152646287,2.378317211532827,3.3635786171230344
sz002506,2014-02-12,2.32,2.34,2.31,2.33,0.0043100000000000005,10630285.0,24682599.35,1102762080.0,1965401600.0,0.02246047855580961,7.59,2013-09-30 00:00:00,2013-10-28 00:00:00,-0.886862280757891,-95.77846504234816,2.4093398717211083,3.407452981715605
sz002506,2014-02-11,2.34,2.36,2.31,2.32,-0.008546999999999999,10728027.0,25029755.91,1098029200.0,1956966400.0,0.022666995231092214,7.55,2013-09-30 00:00:00,2013-10-28 00:00:00,-0.8830563080701087,-95.3674314129583,2.3990001809412513,3.392829884911636
sz002506,2014-02-10,2.31,2.35,2.29,2.34,0.012987,10114767.0,23524727.26,1107494970.0,1973836800.0,0.021371252620677815,7.62,2013-09-30 00:00:00,2013-10-28 00:00:00,-0.8906688547718435,-96.18956361315996,2.4196811961245275,3.422078388901577
sz002506,2014-02-07,2.29,2.32,2.26,2.31,-0.008584,7375779.0,16903934.53,1093296310.0,1948531200.0,0.015584109572271401,7.52,2013-09-30 00:00:00,2013-10-28 00:00:00,-0.8792500345728459,-94.9563652970472,2.388659672951901,3.378205632354193
sz002506,2014-01-30,2.26,2.38,2.26,2.33,0.02193,13306127.0,31023998.27,1102762080.0,1965401600.0,0.028114202031683935,7.59,2013-09-30 00:00:00,2013-10-28 00:00:00,-0.8868628654095213,-95.77852818296982,2.4093414600449266,3.4074552280316164
sz002506,2014-01-29,2.27,2.31,2.23,2.28,0.0,14258460.0,32303781.09,1079097660.0,1923225600.0,0.030126363910380455,7.42,2013-09-30 00:00:00,2013-10-28 00:00:00,-0.8678313244640252,-93.72317887034319,2.357638448861396,3.33433329878917
sz002506,2014-01-28,2.17,2.28,2.16,2.28,0.050691,14981808.0,33886662.94,1079097660.0,1923225600.0,0.0316547088425713,7.42,2013-09-30 00:00:00,2013-10-28 00:00:00,-0.8678313244640252,-93.72317887034319,2.357638448861396,3.33433329878917
sz002506,2014-01-27,2.18,2.2,2.15,2.17,-0.03125,8674429.0,18892610.41,1027035930.0,1830438400.0,0.01832799649959666,7.07,2013-09-30 00:00:00,2013-10-28 00:00:00,-0.8259624613364207,-89.20146729185193,2.2438932558301117,3.1734670790833555
sz002506,2014-01-24,2.2,2.25,2.19,2.24,0.013575,7432134.0,16536600.75,1060166120.0000001,1889484800.0,0.01570318070530305,7.29,2013-09-30 00:00:00,2013-10-28 00:00:00,-0.8526064117021116,-92.07893397868585,2.316276909243986,3.2758369848602373
sz002506,2014-01-23,2.22,2.24,2.18,2.21,-0.008969,9294099.0,20537679.76,1045967470.0,1864179200.0,0.019637282591589582,7.2,2013-09-30 00:00:00,2013-10-28 00:00:00,-0.8411872941835697,-90.8457035529545,2.2852545783429807,3.231963085968219
sz002506,2014-01-22,2.18,2.25,2.17,2.23,0.022936,8829292.0,19574133.52,1055433240.0,1881049600.0,0.01865520282457657,7.26,2013-09-30 00:00:00,2013-10-28 00:00:00,-0.8488001830251222,-91.66787270322978,2.3059365230179285,3.2612129045087586
sz002506,2014-01-21,2.15,2.21,2.14,2.18,0.004608,8666326.0,18888942.79,1031768820.0,1838873600.0,0.018310875763816938,7.1,2013-09-30 00:00:00,2013-10-28 00:00:00,-0.8297686101819879,-89.61251994575395,2.2542334251780445,3.188090852710979
sz002506,2014-01-20,2.1,2.21,2.05,2.17,0.033333,13946642.0,30212530.08,1027035930.0,1830438400.0,0.029467531033700055,7.07,2013-09-30 00:00:00,2013-10-28 00:00:00,-0.8259625746380559,-89.20147952808853,2.2438935636368065,3.1734675144046034
sz002506,2014-01-17,2.15,2.16,2.1,2.1,-0.027777999999999997,7197690.0,15261525.38,993905740.0,1771392000.0,0.01520782946680638,6.84,2013-09-30 00:00:00,2013-10-28 00:00:00,-0.7993188784622729,-86.3240402930019,2.171510600780974,3.0710985852620625
sz002506,2014-01-16,2.13,2.17,2.12,2.16,0.009346,8511242.0,18284098.73,1022303050.0,1822003200.0,0.017983202456453594,7.03,2013-09-30 00:00:00,2013-10-28 00:00:00,-0.8221567486255945,-88.79046173919319,2.233554271329978,3.1588449811484027
sz002506,2014-01-15,2.12,2.15,2.1,2.14,0.009434,7549052.0,16063567.16,1012837280.0,1805132800.0,0.015950213917876325,6.97,2013-09-30 00:00:00,2013-10-28 00:00:00,-0.8145440202126868,-87.96830991473013,2.21287276249173,3.1295957789978885
sz002506,2014-01-14,2.16,2.17,2.08,2.12,-0.027523000000000002,11235664.0,23755500.03,1003371510.0,1788262400.0,0.0237395694840887,6.9,2013-09-30 00:00:00,2013-10-28 00:00:00,-0.8069314291104588,-87.14617291940844,2.1921916266855788,3.100347104414839
sz002506,2014-01-13,2.25,2.27,2.16,2.18,0.009259,19535681.0,43480498.03,1031768820.0,1838873600.0,0.041276479531529166,7.1,2013-09-30 00:00:00,2013-10-28 00:00:00,-0.829769165862492,-89.61257995758092,2.254234934795968,3.188092987715739
sz002506,2014-01-10,2.01,2.16,1.98,2.16,0.048544,19017018.0,39309163.32,1022303050.0,1822003200.0,0.040180608753930654,7.03,2013-09-30 00:00:00,2013-10-28 00:00:00,-0.8221568159040367,-88.79046900506306,2.2335544541054064,3.158845239641895
sz002506,2014-01-09,2.16,2.16,2.06,2.06,-0.050691,18332260.0,38675313.54,974974200.0,1737651200.0,0.03873379993029559,6.71,2013-09-30 00:00:00,2013-10-28 00:00:00,-0.7840937680288446,-84.67977405341414,2.1301485241491123,3.012601511850619
sz002506,2014-01-08,2.19,2.23,2.17,2.17,-0.013636,7867380.0,17254930.42,1027035930.0,1830438400.0,0.016622801696918234,7.07,2013-09-30 00:00:00,2013-10-28 00:00:00,-0.8259626402244629,-89.20148661122367,2.2438937418154805,3.173467766397052
sz002506,2014-01-07,2.22,2.23,2.16,2.2,-0.009009,8608701.0,18921348.33,1041234590.0,1855744000.0,0.018189121243081256,7.16,2013-09-30 00:00:00,2013-10-28 00:00:00,-0.8373811698566279,-90.43465354699045,2.2749144756048283,3.217339406544696
sz002506,2014-01-06,2.31,2.31,2.21,2.22,-0.043102999999999995,9652825.0,21791241.82,1050700350.0000001,1872614400.0,0.02039522638400187,7.23,2013-09-30 00:00:00,2013-10-28 00:00:00,-0.8449937182644724,-91.25678593144684,2.295595495423095,3.2465879170897574
sz002506,2014-01-03,2.34,2.35,2.28,2.32,-0.012766,8376208.0,19306741.88,1098029200.0,1956966400.0,0.017697892332917922,7.55,2013-09-30 00:00:00,2013-10-28 00:00:00,-0.8830560846825443,-95.36740728777167,2.3989995740639745,3.3928290266243466
sz002506,2014-01-02,2.32,2.37,2.32,2.35,0.008584,8315360.0,19550118.1,1112227850.0,1982272000.0,0.01756932808326999,7.65,2013-09-30 00:00:00,2013-10-28 00:00:00,-0.8944749519187388,-96.60061068376056,2.430021225022613,3.4367019638954357
sz002506,2013-12-31,2.32,2.35,2.3,2.33,0.0,6160203.0,14333836.67,1102762080.0,1965401600.0,0.013015747685121709,7.59,2013-09-30 00:00:00,2013-10-28 00:00:00,-0.8868621274169916,-95.77844848199116,2.4093394551396945,3.4074523925577207
sz002506,2013-12-30,2.31,2.36,2.3,2.33,0.0043100000000000005,6264117.0,14595032.52,1102762080.0,1965401600.0,0.013235305125834576,7.59,2013-09-30 00:00:00,2013-10-28 00:00:00,-0.8868621274169916,-95.77844848199116,2.4093394551396945,3.4074523925577207
sz002506,2013-12-27,2.27,2.34,2.25,2.32,0.017544,7576596.0,17473217.99,1098029200.0,1956966400.0,0.016008410996720304,7.55,2013-09-30 00:00:00,2013-10-28 00:00:00,-0.8830561553872724,-95.36741492367014,2.398999766147598,3.392829298282125
sz002506,2013-12-26,2.35,2.37,2.28,2.28,-0.033898000000000005,11279489.0,26164135.24,1079097660.0,1923225600.0,0.023832166330524707,7.42,2013-09-30 00:00:00,2013-10-28 00:00:00,-0.8678309295590877,-93.72313622179496,2.3576373760226566,3.3343317815073594
sz002506,2013-12-25,2.35,2.38,2.33,2.36,0.0,8451865.0,19878136.32,1116960740.0,1990707200.0,0.017857746190792702,7.68,2013-09-30 00:00:00,2013-10-28 00:00:00,-0.8982808539461544,-97.01163668204285,2.440360723839363,3.4513247892120704
sz002506,2013-12-24,2.32,2.41,2.31,2.36,0.008546999999999999,10127215.0,23965079.82,1116960740.0,1990707200.0,0.02139755368662286,7.68,2013-09-30 00:00:00,2013-10-28 00:00:00,-0.8982808539461544,-97.01163668204285,2.440360723839363,3.4513247892120704
sz002506,2013-12-23,2.44,2.44,2.34,2.34,-0.048780000000000004,16823273.0,39709053.73,1107494970.0,1973836800.0,0.03554549671679321,7.62,2013-09-30 00:00:00,2013-10-28 00:00:00,-0.8906683118844777,-96.18950498295355,2.419679721261739,3.4220763030499026
sz002506,2013-12-20,2.58,2.58,2.46,2.46,-0.050193,18313027.0,45457104.13,1164289580.0,2075059200.0,0.038693162932884786,8.01,2013-09-30 00:00:00,2013-10-28 00:00:00,-0.9363431297538716,-101.12224825272129,2.543764556318979,3.5975655506085897
sz002506,2013-12-19,2.64,2.66,2.59,2.59,-0.018938999999999998,8806162.0,23175823.26,1225817080.0,2184716800.0,0.01860633201488757,8.43,2013-09-30 00:00:00,2013-10-28 00:00:00,-0.9858246251647669,-106.46610127396545,2.6781909970330595,3.7876806031210446
sz002506,2013-12-18,2.66,2.67,2.64,2.64,-0.014925,7951864.0,21075370.2,1249481500.0,2226892800.0,0.01680130594970794,8.6,2013-09-30 00:00:00,2013-10-28 00:00:00,-1.0048555850908014,-108.52138783823375,2.7298924297602896,3.8608003000027975
sz002506,2013-12-17,2.68,2.71,2.63,2.68,0.0,10164483.0,27160257.98,1268413040.0,2260633600.0,0.021476296427857602,8.73,2013-09-30 00:00:00,2013-10-28 00:00:00,-1.0200802833193428,-110.16560956093065,2.7712533865546174,3.9192957896635257
sz002506,2013-12-16,2.73,2.73,2.66,2.68,-0.021897999999999997,8487624.0,22821796.77,1268413040.0,2260633600.0,0.017933300591107138,8.73,2013-09-30 00:00:00,2013-10-28 00:00:00,-1.0200802833193428,-110.16560956093065,2.7712533865546174,3.9192957896635257
sz002506,2013-12-13,2.71,2.76,2.7,2.74,0.0036630000000000005,6603660.0,18011037.37,1296810350.0,2311244800.0,0.013952717450165323,8.92,2013-09-30 00:00:00,2013-10-28 00:00:00,-1.0429181039598556,-112.6320256588072,2.8332969225649443,4.007041995276081
sz002506,2013-12-12,2.71,2.74,2.7,2.73,0.003676,6897247.0,18750544.91,1292077460.0,2302809600.0,0.014573030559638428,8.89,2013-09-30 00:00:00,2013-10-28 00:00:00,-1.0391118372998263,-112.2209602812968,2.8229564331503143,3.9924177689882767
sz002506,2013-12-11,2.76,2.76,2.7,2.72,-0.014493,6868224.0,18733771.8,1287344580.0,2294374400.0,0.014511708496881232,8.86,2013-09-30 00:00:00,2013-10-28 00:00:00,-1.035306052251749,-111.809946916432,2.812617252131479,3.977795393123156
sz002506,2013-12-10,2.76,2.8,2.75,2.76,-0.007194,6855390.0,18955713.73,1306276120.0,2328115200.0,0.014484591818152504,8.99,2013-09-30 00:00:00,2013-10-28 00:00:00,-1.050531403888302,-113.45423920523345,2.853979984040173,4.036293393271845
sz002506,2013-12-09,2.79,2.8,2.72,2.78,-0.007143000000000001,10343612.0,28590509.82,1315741890.0,2344985600.0,0.0218547737808971,9.05,2013-09-30 00:00:00,2013-10-28 00:00:00,-1.0581436895912213,-114.27634321834624,2.8746602901676397,4.065540894466638
sz002506,2013-12-06,2.74,2.82,2.73,2.8,0.01083,10749058.0,29950045.9,1325207650.0,2361856000.0,0.022711431223627482,9.12,2013-09-30 00:00:00,2013-10-28 00:00:00,-1.0657563874668974,-115.09849174487992,2.8953417160453516,4.094789979288698
sz002506,2013-12-05,2.78,2.79,2.75,2.77,-0.003597,8215604.0,22804626.91,1311009000.0,2336550400.0,0.01735855595194236,9.02,2013-09-30 00:00:00,2013-10-28 00:00:00,-1.0543379079240796,-113.86533021861236,2.864321118333797,4.050918531591561
sz002506,2013-12-04,2.75,2.8,2.73,2.78,0.007245999999999999,10443005.0,28981662.65,1315741890.0,2344985600.0,0.022064778905838436,9.05,2013-09-30 00:00:00,2013-10-28 00:00:00,-1.0581440520794092,-114.2763823659828,2.874661274939755,4.065542287198615
sz002506,2013-12-03,2.72,2.77,2.66,2.76,-0.014286000000000002,17420199.0,47231867.12,1306276120.0,2328115200.0,0.03680672753935056,8.99,2013-09-30 00:00:00,2013-10-28 00:00:00,-1.050531897946886,-113.45429256207797,2.853981326249749,4.0362952915162875
sz002506,2013-12-02,2.86,2.87,2.8,2.8,-0.050847,18852775.0,53178472.51,1325207650.0,2361856000.0,0.039833583816091006,9.12,2013-09-30 00:00:00,2013-10-28 00:00:00,-1.0657573068322923,-115.09859103358374,2.895344213686474,4.0947935116233385
sz002506,2013-11-29,2.95,2.97,2.94,2.95,-0.003378,8792802.0,25958128.39,1396200920.0,2488384000.0,0.0185781040023953,9.61,2013-09-30 00:00:00,2013-10-28 00:00:00,-1.1228509068951922,-121.2645285149852,3.0504504686667735,4.314155369706821
sz002506,2013-11-28,2.94,2.98,2.93,2.96,0.00339,9864091.0,29143767.19,1400933810.0,2496819200.0,0.020841605186186492,9.64,2013-09-30 00:00:00,2013-10-28 00:00:00,-1.1266567534082048,-121.67554851787858,3.060789816667476,4.328777981729101
sz002506,2013-11-27,2.93,2.95,2.89,2.95,0.0068260000000000005,10667947.0,31200608.11,1396200920.0,2488384000.0,0.02254005365502839,9.61,2013-09-30 00:00:00,2013-10-28 00:00:00,-1.1228502909219795,-121.26446199172663,3.0504487952515733,4.314153003048767
sz002506,2013-11-26,2.97,2.98,2.92,2.93,-0.010135,8527800.0,25093627.83,1386735150.0,2471513600.0,0.01801818753927165,9.54,2013-09-30 00:00:00,2013-10-28 00:00:00,-1.1152376785283449,-120.44232269699692,3.029767601603031,4.284904246661058
sz002506,2013-11-25,2.98,3.0,2.95,2.96,-0.013333000000000001,8398446.0,25015356.4,1400933810.0,2496819200.0,0.017744878439331833,9.64,2013-09-30 00:00:00,2013-10-28 00:00:00,-1.126656340539715,-121.6755039293206,3.060788695027131,4.328776395428728
sz002506,2013-11-22,3.01,3.01,2.97,3.0,-0.006623,7772646.0,23251486.6,1419865340.0,2530560000.0,0.01642264047377901,9.77,2013-09-30 00:00:00,2013-10-28 00:00:00,-1.1418810404520623,-123.3197258338635,3.102149656395857,4.387271891558883
sz002506,2013-11-21,2.98,3.08,2.97,3.02,0.010033,12327280.0,37320546.72,1429331110.0,2547430400.0,0.026046019246023407,9.83,2013-09-30 00:00:00,2013-10-28 00:00:00,-1.1494941401422245,-124.14191775515592,3.122832173883488,4.416522520210236
sz002506,2013-11-20,3.0,3.02,2.95,2.99,-0.003333,8461428.0,25214005.15,1415132460.0,2522124800.0,0.017877951665386856,9.74,2013-09-30 00:00:00,2013-10-28 00:00:00,-1.1380758253861254,-122.90877402535949,3.0918120238482185,4.372651705647475
sz002506,2013-11-19,2.98,3.02,2.97,3.0,0.0033439999999999998,9805285.0,29369045.33,1419865340.0,2530560000.0,0.02071735549231732,9.77,2013-09-30 00:00:00,2013-10-28 00:00:00,-1.1418817171493845,-123.31979891514368,3.1021514947803217,4.387274491527737
sz002506,2013-11-18,2.96,3.0,2.94,2.99,0.0,15442743.0,45940624.88,1415132460.0,2522124800.0,0.03262860748032025,9.74,2013-09-30 00:00:00,2013-10-28 00:00:00,-1.1380759910353622,-122.90879191497997,3.091812473867708,4.372652342095769
sz002506,2013-11-15,2.91,3.06,2.89,2.99,0.027491,14770049.0,43913998.73,1400467390.0,2522124800.0,0.03153407699839409,9.74,2013-09-30 00:00:00,2013-10-28 00:00:00,-1.1380759910353622,-122.90879191497997,3.091812473867708,4.372652342095769
sz002506,2013-11-14,2.86,2.92,2.8,2.91,0.017483000000000002,8719624.0,24862047.74,1362996700.0,2454643200.0,0.01861641032586506,9.48,2013-09-30 00:00:00,2013-10-28 00:00:00,-1.1076262381231194,-119.62030997349854,3.0090895918968714,4.2556599932221
sz002506,2013-11-13,2.93,2.94,2.86,2.86,-0.030507999999999997,5798724.0,16816225.83,1339577510.0,2412467200.0,0.012380284467451232,9.31,2013-09-30 00:00:00,2013-10-28 00:00:00,-1.088594343220594,-117.56492243457487,2.9573856191178343,4.182536704025621
sz002506,2013-11-12,2.9,2.98,2.88,2.95,0.017241,7457749.0,21901075.99,1381732040.0,2488384000.0,0.01592230542037659,9.61,2013-09-30 00:00:00,2013-10-28 00:00:00,-1.1228502589197167,-121.2644585355783,3.050448708310986,4.31415288009145
sz002506,2013-11-11,2.9,2.92,2.84,2.9,-0.003436,5734420.0,16498492.0,1358312860.0,2446208000.0,0.012242995328778672,9.44,2013-09-30 00:00:00,2013-10-28 00:00:00,-1.1038193101926845,-119.20917318076866,2.9987473060081005,4.241033226237883
sz002506,2013-11-08,2.94,2.96,2.88,2.91,-0.02349,10450431.0,30418129.02,1362996700.0,2454643200.0,0.022311685868351697,9.48,2013-09-30 00:00:00,2013-10-28 00:00:00,-1.107625110070888,-119.62018814724257,3.009086527315958,4.255655659082491
sz002506,2013-11-07,2.97,3.01,2.93,2.98,-0.006667,9550109.0,28399813.63,1395783560.0,2513689600.0,0.020389497079332273,9.7,2013-09-30 00:00:00,2013-10-28 00:00:00,-1.1342690910189226,-122.49765813687785,3.0814702638129234,4.358025682361154
sz002506,2013-11-06,3.03,3.12,2.99,3.0,-0.009901,19340984.0,59027306.35,1405151230.0,2530560000.0,0.041293030074777075,9.77,2013-09-30 00:00:00,2013-10-28 00:00:00,-1.1418820184358343,-123.31983145317616,3.1021523132855986,4.387275649113795
sz002506,2013-11-05,2.94,3.03,2.93,3.03,0.048443,8575018.0,25737529.07,1419202740.0,2555865600.0,0.018307676421199695,9.87,2013-09-30 00:00:00,2013-10-28 00:00:00,-1.1533008501532014,-124.55303101323825,3.1331738677501937,4.431148449916418
sz002506,2013-11-04,2.86,2.91,2.85,2.89,0.010490000000000001,8475519.0,24430880.59,1353629020.0,2437772800.0,0.018095245852515783,9.41,2013-09-30 00:00:00,2013-10-28 00:00:00,-1.1000129240723637,-118.79809490190526,2.9884064920555464,4.226408540966384
sz002506,2013-11-01,2.94,2.96,2.79,2.86,-0.027211000000000003,17366824.0,49500549.24,1339577510.0,2412467200.0,0.037078195378183076,9.31,2013-09-30 00:00:00,2013-10-28 00:00:00,-1.088593577444966,-117.56483973310496,2.9573835387342244,4.182533761805049
sz002506,2013-10-31,2.93,2.97,2.92,2.94,-0.006756999999999999,10572577.0,31153670.98,1377048210.0,2479948800.0,0.022572467800528205,9.57,2013-09-30 00:00:00,2013-10-28 00:00:00,-1.1190438804766152,-120.85338108583154,3.040107915215144,4.299528224316937
sz002506,2013-10-30,2.92,2.97,2.91,2.96,0.013699000000000001,8553349.0,25199921.6,1386415880.0,2496819200.0,0.01826141304728852,9.64,2013-09-30 00:00:00,2013-10-28 00:00:00,-1.1266566997971446,-121.67554272804493,3.060789671022241,4.328777775747664
sz002506,2013-10-29,3.03,3.09,2.9,2.92,-0.042623,16584228.0,49104405.6,1367680530.0,2463078400.0,0.03540735186162224,9.51,2013-09-30 00:00:00,2013-10-28 00:00:00,-1.1114312037371494,-120.03123484194515,3.019426546758201,4.270279220703251
sz002506,2013-10-28,3.09,3.13,2.99,3.05,-0.031745999999999996,15122382.0,46156172.83,1428570420.0,2572736000.0,0.0322863083641337,9.93,2013-09-30 00:00:00,2013-10-28 00:00:00,-1.1609127895668576,-125.37509762814977,3.153853233113184,4.460394620617845
sz002506,2013-10-25,3.29,3.29,3.13,3.15,-0.039633999999999996,18339219.0,58674650.89,1475408790.0,2657088000.0,0.03915426032537057,10.26,2013-06-30 00:00:00,2013-08-29 00:00:00,-1.3634987561063037,3.054646997006453,2.840051997511579,3.83068620554829
sz002506,2013-10-24,3.28,3.35,3.25,3.28,-0.0060609999999999995,9974019.0,32883410.35,1536298680.0,2766745600.0,0.021294545615309645,10.68,2013-06-30 00:00:00,2013-08-29 00:00:00,-1.419769916996545,3.180711309028488,2.9572600420168764,3.988777409392138
sz002506,2013-10-23,3.41,3.48,3.28,3.3,-0.029412,18947979.0,63787512.61,1545666360.0,2783616000.0,0.04045396362252459,10.74,2013-06-30 00:00:00,2013-08-29 00:00:00,-1.4284276167818597,3.2001071585162553,2.975293294675907,4.013100813422291
sz002506,2013-10-22,3.33,3.51,3.32,3.4,0.017963999999999997,26382380.0,90980214.89,1592504730.0,2867968000.0,0.05632642108384821,11.07,2013-06-30 00:00:00,2013-08-29 00:00:00,-1.4717136589179545,3.2970809020060567,3.0654544406853437,4.134710931334706
sz002506,2013-10-21,3.32,3.35,3.27,3.34,0.009063,14164967.0,46894892.84,1564401700.0,2817356800.0,0.030242226008831363,10.88,2013-06-30 00:00:00,2013-08-29 00:00:00,-1.4457423434600383,3.2388973500104687,3.011358398416195,4.061745731022616
sz002506,2013-10-18,3.27,3.41,3.26,3.31,-0.017804,18888521.0,62911813.09,1550350190.0,2792051200.0,0.04032702089713035,10.78,2013-06-30 00:00:00,2013-08-29 00:00:00,-1.4327572643730253,3.2098068703445355,2.984311582543602,4.025264756534146
sz002506,2013-10-17,3.36,3.44,3.34,3.37,-0.011729999999999999,24212837.0,81836540.45,1578453220.0,2842662400.0,0.05169444343114584,10.97,2013-06-30 00:00:00,2013-08-29 00:00:00,-1.4587284659813575,3.2679901672828398,3.0384073876737454,4.098229636991137
sz002506,2013-10-16,3.27,3.44,3.25,3.41,0.039633999999999996,48477072.0,164905427.19,1597188570.0,2876403200.0,0.10349862165617676,11.1,2013-06-30 00:00:00,2013-08-29 00:00:00,-1.476042443847691,3.3067786812134736,3.074470931702617,4.146872450839484
sz002506,2013-10-15,3.29,3.3,3.24,3.28,-0.009063,9804088.0,32053308.03,1536298680.0,2766745600.0,0.020931742673892032,10.68,2013-06-30 00:00:00,2013-08-29 00:00:00,-1.419771230882879,3.180714252528749,2.957262778730416,3.988781100694556
sz002506,2013-10-14,3.44,3.44,3.3,3.31,-0.003012,19627687.0,65573070.78,1550350190.0,2792051200.0,0.04190514142485447,10.78,2013-06-30 00:00:00,2013-08-29 00:00:00,-1.4327563012410263,3.2098047126394,2.984309576421524,4.025262050659685
sz002506,2013-10-11,3.18,3.32,3.17,3.32,0.050633,12865519.0,41789941.15,1555034030.0,2800486400.0,0.02746790247413428,10.81,2013-06-30 00:00:00,2013-08-29 00:00:00,-1.437084800660616,3.2195018522182814,2.9933254727454335,4.037422768037012
sz002506,2013-10-10,3.23,3.23,3.16,3.16,-0.021672,8989868.0,28657821.85,1480092630.0,2665523200.0,0.019193381754762203,10.29,2013-06-30 00:00:00,2013-08-29 00:00:00,-1.3678275864746456,3.0643448780100018,2.849068583173605,3.8428478527107117
sz002506,2013-10-09,3.22,3.23,3.19,3.23,-0.0030859999999999998,8250112.0,26497222.42,1512879490.0,2724569600.0,0.01761400160167417,10.52,2013-06-30 00:00:00,2013-08-29 00:00:00,-1.3981278124255316,3.1322264905123856,2.912181377997568,3.927974925291631
sz002506,2013-10-08,3.19,3.24,3.16,3.24,0.018868,11356341.0,36406684.96,1517563330.0,2733004800.0,0.024245805175063105,10.55,2013-06-30 00:00:00,2013-08-29 00:00:00,-1.4024557909965472,3.141922463233926,2.921196189438174,3.940134179369165
sz002506,2013-09-30,3.18,3.22,3.16,3.18,0.015974000000000002,10202481.0,32547514.23,1489460310.0,2682393600.0,0.02178231226584346,10.35,2013-06-30 00:00:00,2013-08-29 00:00:00,-1.3764842854977748,3.0837384854897056,2.8670997513300778,3.867168445146147
sz002506,2013-09-27,3.09,3.15,3.09,3.13,0.012944999999999998,6396867.0,19996636.84,1466041120.0,2640217600.0,0.013657320682792308,10.19,2013-06-30 00:00:00,2013-08-29 00:00:00,-1.3548420387704558,3.0352533485007553,2.8220207912112696,3.806365561664125
sz002506,2013-09-26,3.22,3.22,3.09,3.09,-0.037383,10925564.0,34405709.72,1447305770.0,2606476800.0,0.023326095604524536,10.06,2013-06-30 00:00:00,2013-08-29 00:00:00,-1.3375277421483456,2.9964641204613827,2.7859565832412123,3.7577218522862794
sz002506,2013-09-25,3.22,3.25,3.17,3.21,-0.003106,10840867.0,34825085.46,1503511820.0,2707699200.0,0.02314526737142645,10.45,2013-06-30 00:00:00,2013-08-29 00:00:00,-1.389470310776088,3.1128310849085175,2.8941485380387135,3.9036520779149746
sz002506,2013-09-24,3.28,3.3,3.2,3.22,-0.024242,12955020.0,41896040.68,1508195660.0,2716134400.0,0.02765898716350901,10.48,2013-06-30 00:00:00,2013-08-29 00:00:00,-1.3937994518736074,3.12252966203881,2.903165770923201,3.915814598056538
sz002506,2013-09-23,3.26,3.33,3.22,3.3,0.018519,11410152.0,37339193.0,1545666360.0,2783616000.0,0.024360691656639274,10.74,2013-06-30 00:00:00,2013-08-29 00:00:00,-1.4284273886287453,3.20010664738471,2.975292819452365,4.01310017243675
sz002506,2013-09-18,3.24,3.25,3.16,3.24,-0.003077,11265198.0,36129489.8,1517563330.0,2733004800.0,0.024051214732501477,10.55,2013-06-30 00:00:00,2013-08-29 00:00:00,-1.4024553185838904,3.1419214048875967,2.9211952054427703,3.940132852147824
sz002506,2013-09-17,3.31,3.38,3.25,3.25,-0.012158,13952325.0,46276429.5,1522247170.0,2741440000.0,0.02978823488303808,10.58,2013-06-30 00:00:00,2013-08-29 00:00:00,-1.4067839929301365,3.1516189363547604,2.930211466124034,3.9522940609734394
sz002506,2013-09-16,3.32,3.33,3.27,3.29,0.0,8907170.0,29381718.31,1540982520.0,2775180800.0,0.019016821358882125,10.71,2013-06-30 00:00:00,2013-08-29 00:00:00,-1.4240981785853775,3.1904079157949963,2.966275442959536,4.000937458595038
sz002506,2013-09-13,3.32,3.33,3.28,3.29,-0.009036,9846223.0,32467417.35,1540982520.0,2775180800.0,0.021021700927535508,10.71,2013-06-30 00:00:00,2013-08-29 00:00:00,-1.4240981785853775,3.1904079157949963,2.966275442959536,4.000937458595038
sz002506,2013-09-12,3.27,3.37,3.27,3.32,0.009119,15838591.0,52689134.51,1555034030.0,2800486400.0,0.033815415679359764,10.81,2013-06-30 00:00:00,2013-08-29 00:00:00,-1.4370836665967457,3.2194993115743826,2.9933231105867986,4.037419581937425
sz002506,2013-09-11,3.32,3.35,3.27,3.29,-0.012012,15592470.0,51430145.9,1540982520.0,2775180800.0,0.03328994692295407,10.71,2013-06-30 00:00:00,2013-08-29 00:00:00,-1.4240973231073297,3.1904059992670657,2.966273661071487,4.000935055169335
sz002506,2013-09-10,3.32,3.4,3.27,3.33,-0.0059700000000000005,25142284.0,83653458.99,1559717870.0,2808921600.0,0.05367881418195203,10.84,2013-06-30 00:00:00,2013-08-29 00:00:00,-1.4414115587510472,3.229195090696512,3.002337742028736,4.049578593231228
sz002506,2013-09-09,3.3,3.48,3.27,3.35,-0.0029760000000000003,35480118.0,119410004.24,1569085540.0,2825792000.0,0.07575010556785833,10.91,2013-06-30 00:00:00,2013-08-29 00:00:00,-1.450068467502034,3.2485891680296484,3.020369347030508,4.0738997748873045
sz002506,2013-09-06,3.45,3.5,3.29,3.36,0.009009,62647353.0,212693423.19,1573769380.0,2834227200.0,0.13375219314535144,10.94,2013-06-30 00:00:00,2013-08-29 00:00:00,-1.4543967522366905,3.258285826649758,3.0293847961839515,4.086059889117318
sz002506,2013-09-05,3.26,3.33,3.21,3.33,0.050473000000000004,16651986.0,54798643.45,1559717870.0,2808921600.0,0.03555201517310307,10.84,2013-06-30 00:00:00,2013-08-29 00:00:00,-1.4414110798186048,3.2291940177439034,3.002336744453173,4.049577247692853
sz002506,2013-09-04,3.06,3.17,3.04,3.17,0.049669,24541672.0,77007992.36,1484776470.0,2673958400.0,0.052396506687636284,10.32,2013-06-30 00:00:00,2013-08-29 00:00:00,-1.3721543341129232,3.0740380930722666,2.85808083068596,3.855003648540089
sz002506,2013-09-03,3.01,3.03,2.97,3.02,0.006667,10973031.0,32922640.69,1414518910.0,2547430400.0,0.023427437686216582,9.83,2013-06-30 00:00:00,2013-08-29 00:00:00,-1.3072257388880906,2.928578526251863,2.722840086432923,3.672589786437524
sz002506,2013-09-02,2.96,3.02,2.95,3.0,0.020408000000000003,15542169.0,46369207.83,1405151230.0,2530560000.0,0.03318255430769541,9.77,2013-06-30 00:00:00,2013-08-29 00:00:00,-1.298568184800029,2.9091830031697308,2.7048071372488858,3.6482667917370137
sz002506,2013-08-30,2.97,2.99,2.91,2.94,-0.013423,14897247.0,44114302.34,1377048210.0,2479948800.0,0.03180564475662039,9.57,2013-06-30 00:00:00,2013-08-29 00:00:00,-1.2725970247195524,2.850999799266304,2.6507114186177345,3.5753020279505976
sz002506,2013-08-29,3.03,3.04,2.97,2.98,-0.016502,13156764.0,39439627.94,1395783560.0,2513689600.0,0.02808971092910709,9.7,2013-06-30 00:00:00,2013-08-29 00:00:00,-1.2899115068763536,2.8897894429591444,2.686776013040781,3.6239462585795104
sz002506,2013-08-28,3.03,3.05,2.99,3.03,-0.0065569999999999995,13102265.0,39614025.85,1419202740.0,2555865600.0,0.027973355625003936,9.87,2013-03-31 00:00:00,2013-04-27 00:00:00,-1.2943309689779128,2.173240586473435,5.637937616445969,3.02768887940017
sz002506,2013-08-27,3.04,3.06,3.02,3.05,-0.003268,10446861.0,31744145.13,1428570420.0,2572736000.0,0.02230406398166917,9.93,2013-03-31 00:00:00,2013-04-27 00:00:00,-1.3028739132269418,2.1875845785550205,5.675149572190825,3.0476724677713465
sz002506,2013-08-26,3.03,3.07,2.98,3.06,0.013244999999999998,14498427.0,43778489.93,1433254260.0,2581171200.0,0.030954163443407453,9.96,2013-03-31 00:00:00,2013-04-27 00:00:00,-1.307145665261015,2.1947570445766975,5.693756769312939,3.057664916719185
sz002506,2013-08-23,2.97,3.08,2.95,3.02,0.02027,17897440.0,54024116.63,1414518910.0,2547430400.0,0.03821106131412552,9.83,2013-03-31 00:00:00,2013-04-27 00:00:00,-1.29005883597848,2.1660674807935862,5.61932875988822,3.0176955393011413
sz002506,2013-08-22,2.97,3.0,2.96,2.96,-0.006711,8389097.0,24983919.97,1386415880.0,2496819200.0,0.017910734778946703,9.64,2013-03-31 00:00:00,2013-04-27 00:00:00,-1.2644288629269507,2.1230335899257904,5.507687925635587,2.957742106796379
sz002506,2013-08-21,2.96,3.02,2.93,2.98,0.010169,8795640.0,26210090.64,1395783560.0,2513689600.0,0.018778704629534397,9.7,2013-03-31 00:00:00,2013-04-27 00:00:00,-1.2729717765191708,2.137377530533199,5.544899747843363,2.977725623455388
sz002506,2013-08-20,2.97,3.01,2.93,2.95,-0.010067,10181627.0,30215853.04,1381732040.0,2488384000.0,0.02173778907956712,9.61,2013-03-31 00:00:00,2013-04-27 00:00:00,-1.260157237570318,2.1158613366013,5.489081280303952,2.9477499541714187
sz002506,2013-08-19,2.93,2.99,2.89,2.98,0.010169,8410911.0,24813038.75,1395783560.0,2513689600.0,0.017957307635862972,9.7,2013-03-31 00:00:00,2013-04-27 00:00:00,-1.2729722492030453,2.13737832419093,5.544901806792937,2.97772672915381
sz002506,2013-08-16,2.96,3.04,2.93,2.95,-0.013378,11918393.0,35439218.73,1381732040.0,2488384000.0,0.025445787122371426,9.61,2013-03-31 00:00:00,2013-04-27 00:00:00,-1.2601577054958577,2.115862122269571,5.489083318526837,2.947751048739181
sz002506,2013-08-15,3.05,3.06,2.98,2.99,-0.022876,16125141.0,48724010.18,1400467390.0,2522124800.0,0.03442720047197958,9.74,2013-03-31 00:00:00,2013-04-27 00:00:00,-1.2772446848903205,2.1445519380974383,5.5635119818196195,2.9877207772978718
sz002506,2013-08-14,3.07,3.15,3.03,3.06,-0.006494,18757317.0,58005402.5,1433254260.0,2581171200.0,0.040046899996655165,9.96,2013-03-31 00:00:00,2013-04-27 00:00:00,-1.3071469791861834,2.1947592507168365,5.693762492600345,3.057667990242663
sz002506,2013-08-13,3.01,3.09,2.98,3.08,0.019868,16413915.0,49744914.41,1442621930.0,2598041600.0,0.03504373332242357,10.03,2013-03-31 00:00:00,2013-04-27 00:00:00,-1.3156910770404844,2.20910517975416,5.730979473299955,3.077654277118269
sz002506,2013-08-12,2.97,3.02,2.95,3.02,0.016835,12317462.0,36912993.49,1414518910.0,2547430400.0,0.026297799892968557,9.83,2013-03-31 00:00:00,2013-04-27 00:00:00,-1.2900601617468972,2.1660697068190786,5.619334534763278,3.0176986405282538
sz002506,2013-08-09,2.95,2.98,2.92,2.97,0.003378,8973630.0,26507894.07,1391099720.0,2505254400.0,0.01915871358237352,9.67,2013-03-31 00:00:00,2013-04-27 00:00:00,-1.268701570802438,2.130207660848691,5.526299286278776,2.967736791640978
sz002506,2013-08-08,2.95,2.98,2.92,2.96,-0.006711,9816083.0,28957730.25,1386415880.0,2496819200.0,0.020957352046486945,9.64,2013-03-31 00:00:00,2013-04-27 00:00:00,-1.2644303251640339,2.1230360450883823,5.507694294950432,2.9577455272499273
sz002506,2013-08-07,2.93,3.07,2.91,2.98,0.017065,21632723.0,64924501.46,1395783560.0,2513689600.0,0.046185896142808845,9.7,2013-03-31 00:00:00,2013-04-27 00:00:00,-1.2729732486356276,2.137380002283708,5.544906160191477,2.97772906701869
sz002506,2013-08-06,2.94,2.94,2.89,2.93,-0.003401,12857409.0,37467077.04,1372364370.0,2471513600.0,0.027450587608886988,9.54,2013-03-31 00:00:00,2013-04-27 00:00:00,-1.2516144480791564,2.1015176043652155,5.451869998664271,2.9277667278086352
sz002506,2013-08-05,2.95,2.95,2.9,2.94,0.0034130000000000002,10297714.0,30129459.73,1377048210.0,2479948800.0,0.02198563488202058,9.57,2013-03-31 00:00:00,2013-04-27 00:00:00,-1.2558857153972225,2.1086892565266626,5.470475084426405,2.9377580429125807
sz002506,2013-08-02,2.89,3.0,2.88,2.93,0.020906,16631689.0,48970863.86,1372364370.0,2471513600.0,0.035508681101943794,9.54,2013-03-31 00:00:00,2013-04-27 00:00:00,-1.2516139569621105,2.1015167797573504,5.451867859422196,2.9277655789914823
sz002506,2013-08-01,2.84,2.88,2.82,2.87,0.010563,11832259.0,33760475.51,1344261350.0,2420902400.0,0.02526189072534147,9.34,2013-03-31 00:00:00,2013-04-27 00:00:00,-1.225983544970948,2.058482151889939,5.340225113205521,2.867811119722562
sz002506,2013-07-31,2.82,2.87,2.81,2.84,0.007092,11112588.0,31545455.67,1330209830.0,2395596800.0,0.023725392196207118,9.25,2013-03-31 00:00:00,2013-04-27 00:00:00,-1.2131688424877496,2.0369656833764336,5.284405933331737,2.837835067900331
sz002506,2013-07-30,2.89,2.91,2.78,2.82,-0.037543,21096279.0,59887443.86,1320842160.0,2378726400.0,0.04504058742340568,9.18,2013-03-31 00:00:00,2013-04-27 00:00:00,-1.2046256374668347,2.0226212534469874,5.2471928416984115,2.8178508695335984
sz002506,2013-07-29,2.86,2.93,2.83,2.93,0.050179,31709190.0,92622768.41,1372364370.0,2471513600.0,0.06769916847957806,9.54,2013-03-31 00:00:00,2013-04-27 00:00:00,-1.251615020169041,2.1015185649301604,5.451872490613515,2.9277680660368186
sz002506,2013-07-26,2.8,2.8,2.75,2.79,-0.007117,8294870.0,23024909.63,1306790650.0,2353420800.0,0.017709559905406423,9.08,2013-03-31 00:00:00,2013-04-27 00:00:00,-1.191811129501772,2.001105111538281,5.191374509120364,2.7878752727266676
sz002506,2013-07-25,2.83,2.85,2.75,2.81,-0.017483000000000002,13777829.0,38567964.15,1316158320.0,2370291200.0,0.029415685713250667,9.15,2013-03-31 00:00:00,2013-04-27 00:00:00,-1.2003540492704297,2.0154490625162094,5.228586358231902,2.8078588038335512
sz002506,2013-07-24,2.86,2.9,2.82,2.86,-0.006944,10007799.0,28578092.24,1339577510.0,2412467200.0,0.021366665927378847,9.31,2013-03-31 00:00:00,2013-04-27 00:00:00,-1.2217132622340678,2.0513121528850995,5.321624316151173,2.857822107743226
sz002506,2013-07-23,2.82,2.89,2.81,2.88,0.021277,8620295.0,24652057.94,1348945180.0,2429337600.0,0.018404342865882807,9.38,2013-03-31 00:00:00,2013-04-27 00:00:00,-1.230256161016164,2.065656068625636,5.358836073847973,2.877805589758509
sz002506,2013-07-22,2.77,2.84,2.75,2.82,0.018050999999999998,8255332.0,23097179.19,1320842160.0,2378726400.0,0.01762514624760312,9.18,2013-03-31 00:00:00,2013-04-27 00:00:00,-1.2046253474974606,2.022620766575215,5.247191578629473,2.817850191239506
sz002506,2013-07-19,2.84,2.89,2.77,2.77,-0.024648,10370968.0,29451767.46,1297422970.0,2336550400.0,0.022142032339692582,9.02,2013-03-31 00:00:00,2013-04-27 00:00:00,-1.1832662091559858,1.9867578015003324,5.154153945754656,2.7678870618854123
sz002506,2013-07-18,2.86,2.88,2.82,2.84,-0.013888999999999999,8611807.0,24521687.15,1330209830.0,2395596800.0,0.01838622097688152,9.25,2013-03-31 00:00:00,2013-04-27 00:00:00,-1.2131683834717986,2.0369649126677674,5.284403933917863,2.837833994173808
sz002506,2013-07-17,2.9,2.92,2.83,2.88,-0.010309,11905206.0,34346942.11,1348945180.0,2429337600.0,0.025417632820334476,9.38,2013-03-31 00:00:00,2013-04-27 00:00:00,-1.2302554007325732,2.0656547920748958,5.358832762151383,2.87780381130908
sz002506,2013-07-16,2.92,2.97,2.89,2.91,0.024648,17987005.0,52525400.07,1362996700.0,2454643200.0,0.03840228266876949,9.48,2013-03-31 00:00:00,2013-04-27 00:00:00,-1.2430702115433738,2.0871714424753742,5.414652413886135,2.907780116530392
sz002506,2013-07-15,2.82,2.9,2.82,2.84,0.0035340000000000002,13661716.0,39074081.79,1330209830.0,2395596800.0,0.02916778433369418,9.25,2013-03-31 00:00:00,2013-04-27 00:00:00,-1.2131680455564973,2.0369643452926023,5.284402462002693,2.8378332037249785
sz002506,2013-07-12,2.84,2.92,2.82,2.83,-0.013937,11316444.0,32377341.86,1325526000.0,2387161600.0,0.02416062492927336,9.21,2013-03-31 00:00:00,2013-04-27 00:00:00,-1.2088958077718317,2.02979106367358,5.265793149014078,2.827839618513153
sz002506,2013-07-11,2.8,2.89,2.78,2.87,0.021352,11954695.0,34053556.31,1344261350.0,2420902400.0,0.025523291769119154,9.34,2013-03-31 00:00:00,2013-04-27 00:00:00,-1.225982323413242,2.0584801008389726,5.340219792258788,2.867808262264331
sz002506,2013-07-10,2.73,2.81,2.71,2.81,0.029304000000000004,8787417.0,24323537.73,1316158320.0,2370291200.0,0.018761148559999986,9.15,2013-03-31 00:00:00,2013-04-27 00:00:00,-1.2003523989900073,2.0154462916202958,5.228579169824691,2.8078549435104945
sz002506,2013-07-09,2.7,2.78,2.67,2.73,-0.00365,8360557.0,22743153.02,1278687620.0,2302809600.0,0.01784980182259057,8.89,2013-03-31 00:00:00,2013-04-27 00:00:00,-1.1661786984117495,1.9580670935120197,5.079722967971261,2.7279160903974864
sz002506,2013-07-08,2.85,2.85,2.74,2.74,-0.048611,10354637.0,28604798.77,1283371460.0,2311244800.0,0.022107165590233714,8.92,2013-03-31 00:00:00,2013-04-27 00:00:00,-1.1704508439923214,1.9652402203161738,5.098331879330819,2.7379094599262173
sz002506,2013-07-05,2.92,2.93,2.88,2.88,-0.00346,10006979.0,29019474.88,1348945180.0,2429337600.0,0.021364915303674535,9.38,2013-03-31 00:00:00,2013-04-27 00:00:00,-1.230254758035169,2.0656537129567125,5.358829962644952,2.8778023079163386
sz002506,2013-07-04,2.89,2.93,2.86,2.89,-0.013652000000000001,14461383.0,41867296.26,1353629020.0,2437772800.0,0.030875074523742115,9.41,2013-03-31 00:00:00,2013-04-27 00:00:00,-1.2345262187520512,2.072825689843571,5.377435890827215,2.887794075417282
sz002506,2013-07-03,2.76,2.93,2.71,2.93,0.050179,21629070.0,61978545.21,1372364370.0,2471513600.0,0.04617809707490438,9.54,2013-03-31 00:00:00,2013-04-27 00:00:00,-1.2516132427419644,2.101515580549229,5.451864748371989,2.9277639082933025
sz002506,2013-07-02,2.76,2.79,2.72,2.79,0.00722,10916936.0,30056413.75,1306790650.0,2353420800.0,0.023307674752646876,9.08,2013-03-31 00:00:00,2013-04-27 00:00:00,-1.1918094370026104,2.0011022697551843,5.19136713681381,2.7878713136458666
sz002506,2013-07-01,2.71,2.78,2.65,2.77,0.010948999999999999,11510488.0,31460493.68,1297422970.0,2336550400.0,0.02457490926031624,9.02,2013-03-31 00:00:00,2013-04-27 00:00:00,-1.1832662546440802,1.9867578778769128,5.154154143894888,2.767887168290807
sz002506,2013-06-28,2.77,2.84,2.71,2.74,-0.038596,18846451.0,51971309.06,1251105220.0,2311244800.0,0.041274926292770166,8.92,2013-03-31 00:00:00,2013-04-27 00:00:00,-1.1704509867897195,1.965240460079502,5.09833250133774,2.737909793956774
sz002506,2013-06-27,3.01,3.03,2.85,2.85,-0.05,18413716.0,54052699.6,1301332070.0,2404032000.0,0.04032720918035932,9.28,2013-03-31 00:00:00,2013-04-27 00:00:00,-1.21743927296924,2.0441359304511963,5.303007373942422,2.8478244254827043
sz002506,2013-06-26,2.99,3.04,2.93,3.0,-0.003322,13226778.0,39434698.24,1369823230.0,2530560000.0,0.028967485096598924,9.77,2013-03-31 00:00:00,2013-04-27 00:00:00,-1.2815150241781474,2.1517220320538906,5.582113025202549,2.997709921560741
sz002506,2013-06-25,3.0,3.04,2.93,3.01,-0.022727,19009843.0,56382925.91,1374389310.0,2538995200.0,0.0416327651951833,9.8,2013-03-31 00:00:00,2013-04-27 00:00:00,-1.2857864066209423,2.1588938775149957,5.600718612433052,3.0077015059635523
sz002506,2013-06-24,3.19,3.26,3.08,3.08,-0.049382999999999996,11543499.0,36384428.47,1406351850.0,2598041600.0,0.02528099701365629,10.03,2013-03-31 00:00:00,2013-04-27 00:00:00,-1.3156880489084857,2.2091000953827598,5.730966283150208,3.077647193735581
sz002506,2013-06-21,3.16,3.24,3.05,3.24,0.018868,11776617.0,37209528.97,1479409090.0,2733004800.0,0.025791540242597808,10.55,2013-03-31 00:00:00,2013-04-27 00:00:00,-1.3840358934339336,2.3238592360359216,6.028680618114559,3.2375259370867355
sz002506,2013-06-20,3.3,3.3,3.17,3.18,-0.045045,10799972.0,35035350.98,1452012630.0,2682393600.0,0.023652625500922814,10.35,2013-03-31 00:00:00,2013-04-27 00:00:00,-1.3584054984884533,2.2808246367889873,5.917037946146663,3.1775715176909425
sz002506,2013-06-19,3.3,3.33,3.21,3.33,-0.011869,13401773.0,43957289.14,1520503790.0,2808921600.0,0.029350735186263497,10.84,2013-03-31 00:00:00,2013-04-27 00:00:00,-1.4224811624510614,2.3884105919011756,6.196143217373241,3.3274568096831185
sz002506,2013-06-18,3.42,3.45,3.33,3.37,0.0,20325686.0,68880472.28,1538768100.0,2842662400.0,0.04451454499219213,10.97,2013-03-31 00:00:00,2013-04-27 00:00:00,-1.4395673877765818,2.4170991416129803,6.270568596039636,3.3674247743296375
sz002506,2013-06-17,3.37,3.37,3.36,3.37,0.049844,12036691.0,40557332.67,1538768100.0,2842662400.0,0.026361118787164878,10.97,2013-03-31 00:00:00,2013-04-27 00:00:00,-1.4395673877765818,2.4170991416129803,6.270568596039636,3.3674247743296375
sz002506,2013-06-14,3.18,3.23,3.17,3.21,0.00627,10352904.0,33166141.3,1465710860.0,2707699200.0,0.022673518186254005,10.45,2013-03-31 00:00:00,2013-04-27 00:00:00,-1.3712202839436924,2.3023412446163243,5.972857487435882,3.207547763600723
sz002506,2013-06-13,3.3,3.32,3.19,3.19,-0.050595,18726402.0,60108074.64,1456578700.0,2690828800.0,0.041012011489664095,10.39,2013-03-31 00:00:00,2013-04-27 00:00:00,-1.3626763035206182,2.2879955127513734,5.935641018251446,3.187561751419324
sz002506,2013-06-07,3.33,3.43,3.33,3.36,0.0029850000000000002,13790627.0,46575846.26,1534202020.0,2834227200.0,0.03020235022243029,10.94,2013-03-31 00:00:00,2013-04-27 00:00:00,-1.4352950569257779,2.4099257037316772,6.251958877667008,3.3574309714182293
sz002506,2013-06-06,3.36,3.41,3.33,3.35,-0.005935,14242126.0,48029108.16,1529635940.0,2825792000.0,0.031191161800238558,10.91,2013-03-31 00:00:00,2013-04-27 00:00:00,-1.4310234519217913,2.4027534845802054,6.233352320988856,3.3474388664020194
sz002506,2013-06-05,3.44,3.45,3.33,3.37,-0.026012,19996125.0,67765497.06,1538768100.0,2842662400.0,0.04379278544310868,10.97,2013-03-31 00:00:00,2013-04-27 00:00:00,-1.4395672837508526,2.417098966949048,6.270568142917069,3.3674245309934654
sz002506,2013-06-04,3.57,3.58,3.41,3.46,-0.036212,30080335.0,104555204.51,1579862790.0,2918579200.0,0.06587784696163393,11.27,2013-03-31 00:00:00,2013-04-27 00:00:00,-1.4780133674653617,2.481651690728272,6.438034290891745,3.4573573093235908
sz002506,2013-06-03,3.63,3.63,3.55,3.59,-0.008287000000000001,13784192.0,49555810.57,1639221800.0,3028236800.0,0.030188257183988158,11.69,2013-03-31 00:00:00,2013-04-27 00:00:00,-1.5335461402978268,2.5748937429479013,6.6799278377524365,3.5872591371998728
sz002506,2013-05-31,3.6,3.72,3.58,3.62,0.011173,22734071.0,83254440.5,1652920030.0,3053542400.0,0.04978906149500772,11.79,2013-03-31 00:00:00,2013-04-27 00:00:00,-1.5463608325168943,2.5964101942274644,6.735746972917,3.61723516501233
sz002506,2013-05-30,3.61,3.65,3.52,3.58,-0.013774000000000002,16476174.0,59131613.11,1634655720.0,3019801600.0,0.03608386903634975,11.66,2013-03-31 00:00:00,2013-04-27 00:00:00,-1.5292742513070405,2.567721046969672,6.661320044064665,3.577266367883962
sz002506,2013-05-29,3.57,3.69,3.55,3.63,0.016807,21462155.0,78082418.32,1657486110.0,3061977600.0,0.04700348448168896,11.82,2013-03-31 00:00:00,2013-04-27 00:00:00,-1.5506326656436156,2.6035827964073874,6.75435452326816,3.627227803651457
sz002506,2013-05-28,3.58,3.62,3.51,3.57,-0.005571,16443563.0,58631615.53,1630089650.0,3011366400.0,0.0360124487079591,11.62,2013-03-31 00:00:00,2013-04-27 00:00:00,-1.5250019577398812,2.5605476716893047,6.6427104880947505,3.5672726521861637
sz002506,2013-05-27,3.48,3.62,3.47,3.59,0.028652999999999998,19285837.0,68027738.04,1639221800.0,3028236800.0,0.0422372096503353,11.69,2013-03-31 00:00:00,2013-04-27 00:00:00,-1.5335453388224611,2.574892397234297,6.679924346629826,3.5872572623949663
sz002506,2013-05-24,3.46,3.5,3.41,3.49,0.008671,15161805.0,52564145.37,1593561030.0,2943884800.0,0.03320531718198456,11.36,2013-03-31 00:00:00,2013-04-27 00:00:00,-1.4908286261960655,2.5031690932066475,6.493855893707427,3.4873346623156367
sz002506,2013-05-23,3.56,3.57,3.45,3.46,-0.046832,25322302.0,88496799.42,1579862790.0,2918579200.0,0.0554574520487314,11.27,2013-03-31 00:00:00,2013-04-27 00:00:00,-1.4780127774032021,2.481650699987059,6.438031720657604,3.457355929054802
sz002506,2013-05-22,3.6,3.68,3.55,3.63,0.025424000000000002,32007018.0,115500568.48,1657486110.0,3061977600.0,0.07009740512395606,11.82,2013-03-31 00:00:00,2013-04-27 00:00:00,-1.5506319740100403,2.603581635123146,6.754351510602123,3.6272261857876074
sz002506,2013-05-21,3.65,3.68,3.53,3.54,0.011429,34754958.0,125190265.36,1616391410.0,2986060800.0,0.07611556864187988,11.53,2013-03-31 00:00:00,2013-04-27 00:00:00,-1.5121861532498166,2.5390293528561316,6.586886508022166,3.53729402255809
sz002506,2013-05-20,3.47,3.51,3.44,3.5,0.008646,20382052.0,70906942.89,1598127100.0,2952320000.0,0.04463799030752936,11.4,2013-03-31 00:00:00,2013-04-27 00:00:00,-1.4950986705441676,2.5103386919458828,6.512455652371217,3.497323116657808
sz002506,2013-05-17,3.44,3.48,3.42,3.47,0.005797,18194478.0,62803746.69,1584428870.0,2927014400.0,0.0398470640464914,11.3,2013-03-31 00:00:00,2013-04-27 00:00:00,-1.4822828529971543,2.4888203511894984,6.456631615424259,3.4673444564870217
sz002506,2013-05-16,3.49,3.49,3.43,3.45,-0.014286000000000002,18101485.0,62530971.98,1575296720.0,2910144000.0,0.039643403339276934,11.23,2013-03-31 00:00:00,2013-04-27 00:00:00,-1.4737395846250825,2.4744758148905777,6.419418247841521,3.4473601099297584
sz002506,2013-05-15,3.45,3.51,3.43,3.5,0.002865,21587641.0,75025589.68,1598127100.0,2952320000.0,0.047278306900621354,11.4,2013-03-31 00:00:00,2013-04-27 00:00:00,-1.4950985626916962,2.510338510856676,6.512455182579857,3.4973228643701506
sz002506,2013-05-14,3.33,3.49,3.32,3.49,0.051204999999999994,28730279.0,98231489.99,1593561030.0,2943884800.0,0.06292113814429813,11.36,2013-03-31 00:00:00,2013-04-27 00:00:00,-1.4908273423558467,2.503166937580508,6.493850301466157,3.4873316591666383
sz002506,2013-05-13,3.34,3.35,3.29,3.32,-0.008955,10517654.0,34894255.51,1515937710.0,2800486400.0,0.02303433119293536,10.81,2013-03-31 00:00:00,2013-04-27 00:00:00,-1.4182080016322667,2.381235760465854,6.177529883767826,3.3174610653170773
sz002506,2013-05-10,3.25,3.35,3.24,3.35,0.024465,15748875.0,51871893.56,1529635940.0,2825792000.0,0.034491037945931106,10.91,2013-03-31 00:00:00,2013-04-27 00:00:00,-1.4310228109039111,2.4027524082820197,6.233349528798214,3.3474373669380073
sz002506,2013-05-09,3.33,3.34,3.23,3.27,-0.020958,21092599.0,69051979.98,1493107320.0,2758310400.0,0.04619413340629795,10.65,2013-03-31 00:00:00,2013-04-27 00:00:00,-1.3968489025041473,2.3453728612319793,6.084492421701292,3.267498027690558
sz002506,2013-05-08,3.39,3.39,3.33,3.34,-0.014749000000000002,14842442.0,49752343.88,1525069860.0,2817356800.0,0.03250589207762587,10.88,2013-03-31 00:00:00,2013-04-27 00:00:00,-1.426750744609677,2.395579414603234,6.214740962799647,3.3374441828752577
sz002506,2013-05-07,3.33,3.41,3.33,3.39,0.011940000000000001,16583993.0,55920869.48,1547900250.0,2859532800.0,0.03631999947671047,11.04,2013-03-31 00:00:00,2013-04-27 00:00:00,-1.44810890281733,2.4314407339888353,6.307774326338819,3.3874050195079812
sz002506,2013-05-06,3.28,3.4,3.28,3.35,-0.014706,26983204.0,89830226.82,1529635940.0,2825792000.0,0.059094933007392596,10.91,2013-03-31 00:00:00,2013-04-27 00:00:00,-1.4310224942361502,2.402751876582441,6.23334814943457,3.3474366261912576
sz002506,2013-05-03,3.4,3.4,3.4,3.4,-0.050279000000000004,4077300.0,13862820.0,1552466330.0,2867968000.0,0.008929546317439297,11.07,2013-03-31 00:00:00,2013-04-27 00:00:00,-1.4523812123448943,2.438614136067449,6.326383951830185,3.3973987725402344
sz002506,2013-04-26,3.43,3.59,3.41,3.58,0.046784,28473088.0,100545958.88,1634655720.0,3019801600.0,0.0623578737668382,11.66,2012-09-30 00:00:00,2012-10-18 00:00:00,-10.512038167679059,1.1173930131905496,-4.337061513188473,1.0565626394337915
sz002506,2013-04-25,3.36,3.48,3.35,3.42,0.00885,13942072.0,47927314.54,1561598480.0,2884838400.0,0.03053402449520827,11.14,2012-09-30 00:00:00,2012-10-18 00:00:00,-10.04222281547966,1.067453278986448,-4.143224880384563,1.0093416019291388
sz002506,2013-04-24,3.4,3.4,3.35,3.39,0.0,11863385.0,40088158.18,1547900250.0,2859532800.0,0.02598156770760907,11.04,2012-09-30 00:00:00,2012-10-18 00:00:00,-9.95412877581371,1.0580891896579747,-4.106879001223732,1.0004872894177912
sz002506,2013-04-23,3.42,3.43,3.34,3.39,-0.0058649999999999996,14772307.0,50062765.5,1547900250.0,2859532800.0,0.03235229190640676,11.04,2012-09-30 00:00:00,2012-10-18 00:00:00,-9.95412877581371,1.0580891896579747,-4.106879001223732,1.0004872894177912
sz002506,2013-04-22,3.38,3.41,3.3,3.41,0.002941,17704733.0,59468765.2,1557032410.0,2876403200.0,0.038774491232330864,11.1,2012-09-30 00:00:00,2012-10-18 00:00:00,-10.012854165494332,1.0643314938695194,-4.13110794934665,1.0063897653918141
sz002506,2013-04-19,3.38,3.45,3.36,3.4,0.0,19151993.0,65417715.6,1552466330.0,2867968000.0,0.04194408274220028,11.07,2012-09-30 00:00:00,2012-10-18 00:00:00,-9.983492713424152,1.0612104738658799,-4.118993988027861,1.0034386523153547
sz002506,2013-04-18,3.47,3.47,3.36,3.4,-0.025788,13240726.0,45197940.04,1552466330.0,2867968000.0,0.02899803205393833,11.07,2012-09-30 00:00:00,2012-10-18 00:00:00,-9.983492713424152,1.0612104738658799,-4.118993988027861,1.0034386523153547
sz002506,2013-04-17,3.43,3.54,3.42,3.49,0.011594,9350291.0,32653934.72,1593561030.0,2943884800.0,0.020477731932237325,11.36,2012-09-30 00:00:00,2012-10-18 00:00:00,-10.24776199987698,1.089301377796496,-4.228026331053057,1.0300003000531248
sz002506,2013-04-16,3.4,3.47,3.33,3.45,-0.008621,11456124.0,39043372.53,1575296720.0,2910144000.0,0.025089640128242,11.23,2012-09-30 00:00:00,2012-10-18 00:00:00,-10.130311172147106,1.0768167642319901,-4.179568414851271,1.0181953432435589
sz002506,2013-04-15,3.59,3.63,3.46,3.48,-0.043956,24848709.0,87179225.53,1588994950.0,2935449600.0,0.05442025307884081,11.33,2012-09-30 00:00:00,2012-10-18 00:00:00,-10.218404033318343,1.086180728290583,-4.215913807788213,1.0270495373046622
sz002506,2013-04-12,3.46,3.64,3.43,3.64,0.048991,32553075.0,116475337.58,1662052190.0,3070412800.0,0.07129330457426852,11.85,2012-09-30 00:00:00,2012-10-18 00:00:00,-10.688215221598945,1.136120019884632,-4.409748722640603,1.0742701562947545
sz002506,2013-04-11,3.51,3.54,3.45,3.47,-0.011396,19543207.0,68268408.75,1584428870.0,2927014400.0,0.04280086633993232,11.3,2012-09-30 00:00:00,2012-10-18 00:00:00,-10.189043777876973,1.083059835484415,-4.203800340175085,1.0240985445011008
sz002506,2013-04-10,3.4,3.51,3.4,3.51,0.050898,28229229.0,98798150.24,1602693180.0,2960755200.0,0.06182380696846791,11.43,2012-09-30 00:00:00,2012-10-18 00:00:00,-10.306496613281936,1.095544662457784,-4.252259084704376,1.0359037031016474
sz002506,2013-04-09,3.29,3.36,3.28,3.34,0.018293,11475482.0,38190834.22,1525069860.0,2817356800.0,0.02513203551213057,10.88,2012-09-30 00:00:00,2012-10-18 00:00:00,-9.80732346363009,1.0424842967231678,-4.046309998405531,0.9857319198453581
sz002506,2013-04-08,3.26,3.28,3.22,3.28,-0.020896,11075097.0,35993935.18,1497673400.0,2766745600.0,0.0242551668207501,10.68,2012-09-30 00:00:00,2012-10-18 00:00:00,-9.631141001293429,1.0237567151332359,-3.973620557546336,0.9680238593856172
sz002506,2013-04-03,3.46,3.48,3.31,3.35,-0.034582,16885431.0,56869835.51,1529635940.0,2825792000.0,0.036980167875762644,10.91,2012-09-30 00:00:00,2012-10-18 00:00:00,-9.836688442998323,1.0456056916662948,-4.058425415018564,0.9886833874497676
sz002506,2013-04-02,3.52,3.53,3.45,3.47,-0.011396,12193508.0,42549665.9,1584428870.0,2927014400.0,0.026704558065771676,11.3,2012-09-30 00:00:00,2012-10-18 00:00:00,-10.18904603290836,1.0830600751863906,-4.203801270556966,1.0240987711538085
sz002506,2013-04-01,3.5,3.54,3.48,3.51,0.0,9173697.0,32200243.47,1602693180.0,2960755200.0,0.02009097990296558,11.43,2012-09-30 00:00:00,2012-10-18 00:00:00,-10.306498894307891,1.0955449049228916,-4.252260025811108,1.0359039323670634
sz002506,2013-03-29,3.5,3.59,3.49,3.51,0.002857,9660216.0,34038011.25,1602693180.0,2960755200.0,0.021156487456944192,11.43,2012-09-30 00:00:00,2012-10-18 00:00:00,-10.306498894307891,1.0955449049228916,-4.252260025811108,1.0359039323670634
sz002506,2013-03-28,3.63,3.63,3.49,3.5,-0.043716000000000005,15784394.0,55800315.16,1598127100.0,2952320000.0,0.034568826847376534,11.4,2012-09-30 00:00:00,2012-10-18 00:00:00,-10.277137113574407,1.0924238499834886,-4.240145928892262,1.0329527862567278
sz002506,2013-03-27,3.71,3.73,3.64,3.66,-0.010811,10318901.0,37961861.03,1671184340.0,3087283200.0,0.02259904952196955,11.92,2012-09-30 00:00:00,2012-10-18 00:00:00,-10.746950815421368,1.1423634087608792,-4.433981880793009,1.0801736578848207
sz002506,2013-03-26,3.78,3.79,3.66,3.7,-0.026316000000000003,12060156.0,44820924.68,1689448650.0,3121024000.0,0.026412508719930613,12.05,2012-09-30 00:00:00,2012-10-18 00:00:00,-10.864405907689399,1.1548484756309252,-4.482441556459897,1.0919790433221768
sz002506,2013-03-25,3.8,3.86,3.76,3.8,0.0,15737673.0,59768142.66,1735109430.0,3205376000.0,0.03446650474373826,12.37,2012-09-30 00:00:00,2012-10-18 00:00:00,-11.1580409123385,1.1860608530395131,-4.603589620924137,1.1214922329237995
sz002506,2013-03-22,3.73,3.88,3.67,3.8,0.016043,22384224.0,84785342.17,1735109430.0,3205376000.0,0.04902287413653212,12.37,2012-09-30 00:00:00,2012-10-18 00:00:00,-11.1580409123385,1.1860608530395131,-4.603589620924137,1.1214922329237995
sz002506,2013-03-21,3.69,3.77,3.67,3.74,0.005376,15596396.0,58202456.22,1707712960.0,3154764800.0,0.03415709923522511,12.18,2012-09-30 00:00:00,2012-10-18 00:00:00,-10.981858949216223,1.1673333245143296,-4.530900386031042,1.103784222639986
sz002506,2013-03-20,3.65,3.74,3.61,3.72,0.00813,21709115.0,80016798.93,1698580810.0,3137894400.0,0.0475443425031983,12.11,2012-09-30 00:00:00,2012-10-18 00:00:00,-10.92313616917076,1.1610912976979058,-4.506672514592592,1.0978820089598182
sz002506,2013-03-19,3.51,3.77,3.47,3.69,0.010959,37078713.0,132066318.48,1684882580.0,3112588800.0,0.08120473948398231,12.01,2012-09-30 00:00:00,2012-10-18 00:00:00,-10.835047235148998,1.1517277510816122,-4.470328741920776,1.089028209615643
sz002506,2013-03-15,3.7,3.73,3.61,3.65,-0.018817,19391577.0,71117235.28,1666618270.0,3078848000.0,0.04246878683863222,11.88,2012-09-30 00:00:00,2012-10-18 00:00:00,-10.717593132015244,1.1392427893530916,-4.421869474351359,1.077222923595955
sz002506,2013-03-14,3.68,3.77,3.65,3.72,0.005405,12634532.0,47050655.88,1698580810.0,3137894400.0,0.027670428609163435,12.11,2012-09-30 00:00:00,2012-10-18 00:00:00,-10.923133739593169,1.1610910394422769,-4.506671512196357,1.09788176476351
sz002506,2013-03-13,3.8,3.82,3.66,3.7,-0.033943,20596921.0,76650247.22,1689448650.0,3121024000.0,0.04510856704641482,12.05,2012-09-30 00:00:00,2012-10-18 00:00:00,-10.86441159492261,1.1548490801639903,-4.482443902901176,1.0919796149447334
sz002506,2013-03-12,4.0,4.02,3.8,3.83,-0.0425,27138192.0,105402958.26,1748807660.0,3230681600.0,0.059434366475727814,12.47,2012-09-30 00:00:00,2012-10-18 00:00:00,-11.24613930122406,1.1954254046748698,-4.639937294487982,1.1303469825742514
sz002506,2013-03-11,4.06,4.06,3.96,4.0,-0.017199000000000002,16728953.0,67003679.83,1826430980.0,3374080000.0,0.036637470965368756,13.02,2012-09-30 00:00:00,2012-10-18 00:00:00,-11.745315197100846,1.2484860623236236,-4.845887513825569,1.180519041853004
sz002506,2013-03-08,4.06,4.16,4.02,4.07,0.0175,23731236.0,96786537.5,1858393520.0,3433126400.0,0.05197291611305232,13.25,2012-09-30 00:00:00,2012-10-18 00:00:00,-11.950858003910096,1.2703345461834323,-4.9306904590304335,1.2011781040648148
sz002506,2013-03-07,4.08,4.1,3.95,4.0,-0.029126,26865069.0,108310072.08,1826430980.0,3374080000.0,0.058836209622331305,13.02,2012-09-30 00:00:00,2012-10-18 00:00:00,-11.74531499155783,1.2484860404751177,-4.845887429022538,1.180519021193921
sz002506,2013-03-06,3.95,4.17,3.92,4.12,0.037783,39642759.0,159853461.36,1881223910.0,3475302400.0,0.0868201633052814,13.41,2012-09-30 00:00:00,2012-10-18 00:00:00,-12.097671779816775,1.2859403387824968,-4.991262953815364,1.2159343243241874
sz002506,2013-03-05,4.03,4.05,3.9,3.97,-0.031707,45206610.0,178085030.01,1812732740.0,3348774400.0,0.09900535127974795,12.93,2012-09-30 00:00:00,2012-10-18 00:00:00,-11.657226780373907,1.2391225706939666,-4.809543954579488,1.1716652945020176
sz002506,2013-03-04,4.19,4.27,4.1,4.1,-0.050926,37682259.0,156860257.61,1872091750.0,3458432000.0,0.08252654385128293,13.35,2012-09-30 00:00:00,2012-10-18 00:00:00,-12.038945629446777,1.2796979537123232,-4.9670336918468765,1.210031771893443
sz002506,2013-03-01,4.32,4.34,4.25,4.32,0.0,26889652.0,115634943.65,1972545450.0,3644006400.0,0.0588900482064938,14.07,2012-09-30 00:00:00,2012-10-18 00:00:00,-12.684938823997683,1.3483647784180404,-5.233557859394396,1.2749604055041472
sz002506,2013-02-28,4.21,4.37,4.19,4.32,0.01171,36442876.0,156535331.7,1972545450.0,3644006400.0,0.07981221640292244,14.07,2012-09-30 00:00:00,2012-10-18 00:00:00,-12.684938823997683,1.3483647784180404,-5.233557859394396,1.2749604055041472
sz002506,2013-02-27,4.12,4.33,4.12,4.27,0.036407999999999996,32968731.0,139852906.88,1949715070.0,3601830400.0,0.0722036176137265,13.9,2012-09-30 00:00:00,2012-10-18 00:00:00,-12.538117468442223,1.332758180128733,-5.172982237394506,1.2602034234159463
sz002506,2013-02-26,4.2,4.23,4.11,4.12,-0.026005,27918329.0,116413783.02,1881223910.0,3475302400.0,0.06114291598600828,13.41,2012-09-30 00:00:00,2012-10-18 00:00:00,-12.097665657195067,1.285939687969152,-4.9912604277413015,1.2159337089408289
sz002506,2013-02-25,4.27,4.32,4.2,4.23,-0.009368000000000001,19046624.0,80797720.31,1931450760.0,3568089600.0,0.04171331787925052,13.77,2012-09-30 00:00:00,2012-10-18 00:00:00,-12.420665051868918,1.3202733976757088,-5.12452366566697,1.2483983069120774
sz002506,2013-02-22,4.26,4.31,4.24,4.27,-0.0046619999999999995,17936363.0,76613330.79,1949715070.0,3601830400.0,0.03928177567504773,13.9,2012-09-30 00:00:00,2012-10-18 00:00:00,-12.538122180455426,1.3327586809993106,-5.172984181479067,1.2602038970193548
sz002506,2013-02-21,4.35,4.38,4.26,4.29,-0.025,23338656.0,100729997.69,1958847220.0,3618700800.0,0.05111314104425153,13.97,2012-09-30 00:00:00,2012-10-18 00:00:00,-12.596848689043748,1.339001104146843,-5.197213591241435,1.2661064854545439
sz002506,2013-02-20,4.36,4.42,4.25,4.4,0.004566,32647752.0,141191974.82,2009074070.0,3711488000.0,0.07150065343285229,14.33,2012-09-30 00:00:00,2012-10-18 00:00:00,-12.91984480927564,1.373334465791634,-5.330475478196344,1.2985707543123528
sz002506,2013-02-19,4.42,4.49,4.32,4.38,-0.002278,48865622.0,215173956.97,1999941920.0,3694617600.0,0.10701882000653298,14.26,2012-09-30 00:00:00,2012-10-18 00:00:00,-12.861120931104214,1.3670923222482483,-5.306247153692582,1.2926684302597862
sz002506,2013-02-18,4.21,4.39,4.18,4.39,0.050239,50402471.0,217922923.26,2004508000.0,3703052800.0,0.11038461691846578,14.29,2012-09-30 00:00:00,2012-10-18 00:00:00,-12.890485456975206,1.370213668986199,-5.318362383201515,1.2956198522832878
sz002506,2013-02-08,4.2,4.23,4.13,4.18,-0.0023870000000000002,37174735.0,155085338.02,1908620370.0,3525913600.0,0.0814150339912803,13.61,2012-09-30 00:00:00,2012-10-18 00:00:00,-12.273859052058823,1.3046684316486048,-5.063954379147523,1.2336428682264586
sz002506,2013-02-07,4.1,4.22,4.1,4.19,-0.009456,51291554.0,213813161.2,1913186450.0,3534348800.0,0.11233176529135465,13.64,2012-09-30 00:00:00,2012-10-18 00:00:00,-12.303226854560657,1.3077901266809921,-5.076070960530308,1.236594619583404
sz002506,2013-02-06,4.16,4.38,4.16,4.23,-0.034247,105232429.0,443045688.36,1931450760.0,3568089600.0,0.23046571203813657,13.77,2012-09-30 00:00:00,2012-10-18 00:00:00,-12.420676774136897,1.3202746437119321,-5.124528502045653,1.2483994851146483
sz002506,2013-02-05,4.38,4.38,4.38,4.38,-0.049892,1155300.0,5060214.0,1999941920.0,3694617600.0,0.002530180476441036,14.26,2012-09-30 00:00:00,2012-10-18 00:00:00,-12.861131960384174,1.3670934946222608,-5.30625170415795,1.2926695388102842
sz002506,2013-02-04,4.61,4.61,4.61,4.61,-0.049485,721200.0,3324732.0,2104961700.0000002,3888627200.0,0.0015794738688119597,15.01,2012-09-30 00:00:00,2012-10-18 00:00:00,-13.536494756789939,1.4388822056253194,-5.584893195466147,1.3605501046305097
sz002506,2013-02-01,4.85,4.85,4.85,4.85,-0.050881,3144100.0,15248885.0,2214547560.0,4091072000.0,0.00688577896245317,15.79,2012-09-30 00:00:00,2012-10-18 00:00:00,-14.241221608065036,1.5137922133004942,-5.875649721957199,1.4313820451339638
