code,date,open,high,low,close,change,volume,money,traded_market_value,market_value,turnover,adjust_price,report_type,report_date,PE_TTM,PS_TTM,PC_TTM,PB
sz000713,2014-12-31,10.63,10.63,10.12,10.32,-0.035514,12664283.0,130356374.66,3084375600.0,3084399990.0,0.04237337390426769,36.29,2014-09-30 00:00:00,2014-10-31 00:00:00,31.85360246369662,2.106413430734374,13.790826151235862,2.465115512984863
sz000713,2014-12-30,10.7,11.33,10.62,10.7,-0.008341,15815782.0,173689117.99,3197947570.0,3197972860.0,0.052917961816365856,37.62,2014-09-30 00:00:00,2014-10-31 00:00:00,33.02650579033457,2.183975123261897,14.298627612257578,2.5558852207132743
sz000713,2014-12-29,10.7,10.87,10.5,10.79,-0.002773,11906041.0,126817334.56,3224846200.0,3224871690.0,0.03983637495332335,37.94,2014-09-30 00:00:00,2014-10-31 00:00:00,33.30429693103634,2.2023448819220084,14.418895620629247,2.5773831737656536
sz000713,2014-12-26,10.92,11.03,10.76,10.82,-0.031334,14902787.0,161923152.94,3233812410.0,3233837970.0,0.04986317537819085,38.05,2014-09-30 00:00:00,2014-10-31 00:00:00,33.39690655290755,2.2084689663657406,14.45899040101125,2.584550131279692
sz000713,2014-12-25,10.62,11.5,10.46,11.17,0.035218,23076073.0,253478003.5,3338418170.0,3338444560.0,0.07721014033721246,39.28,2014-09-30 00:00:00,2014-10-31 00:00:00,34.47721562737574,2.279907590816381,14.926703735871031,2.668154070938478
sz000713,2014-12-24,11.12,11.27,10.53,10.79,-0.025294,23228483.0,252011670.57,3224846200.0,3224871690.0,0.077720088347159,37.94,2014-09-30 00:00:00,2014-10-31 00:00:00,33.3043046270213,2.202345390841717,14.41889895255978,2.5773837693495265
sz000713,2014-12-23,11.29,11.7,10.95,11.07,-0.016,42861114.0,485720227.12,3308530810.0,3308556970.0,0.14340882984855746,38.93,2014-09-30 00:00:00,2014-10-31 00:00:00,34.16856429222894,2.2594971107613135,14.793074991392052,2.644267881134954
sz000713,2014-12-22,10.18,11.25,9.85,11.25,0.099707,31717147.0,334765407.26,3362328060.0,3362354640.0,0.10612227521605969,39.56,2014-09-30 00:00:00,2014-10-31 00:00:00,34.7241507034847,2.296236901180197,15.033612796130136,2.6872641068444656
sz000713,2014-12-19,10.26,10.32,9.82,10.23,-0.002924,19404575.0,196163189.34,3057476980.0,3057501150.0,0.064925689890231,35.97,2014-09-30 00:00:00,2014-10-31 00:00:00,31.575820380778428,2.088044271046922,13.670562064377272,2.4436182609044645
sz000713,2014-12-18,9.58,10.53,9.57,10.26,0.067638,22909722.0,231412096.11,3066443190.0,3066467430.0,0.0766535471736556,36.08,2014-09-30 00:00:00,2014-10-31 00:00:00,31.66841883745916,2.0941676171594965,13.710652010857018,2.4507843543566032
sz000713,2014-12-17,9.76,9.77,9.55,9.61,-0.020387,7987100.0,76874295.5,2872175340.0,2872198050.0,0.02672400599331098,33.79,2014-09-30 00:00:00,2014-10-31 00:00:00,29.662131581546515,1.9614959538340675,12.842041975704328,2.295519974332689
sz000713,2014-12-16,9.84,9.87,9.72,9.81,-0.005071,7166614.0,70187189.71,2931950070.0,2931973250.0,0.023978745088247704,34.5,2014-09-30 00:00:00,2014-10-31 00:00:00,30.27943849412627,2.0023171944778886,13.10930130133464,2.3432926822456306
sz000713,2014-12-15,9.92,9.92,9.7,9.86,-0.007049,8653188.0,84960302.73,2946893750.0,2946917040.0,0.028952667085469234,34.67,2014-09-30 00:00:00,2014-10-31 00:00:00,30.433768132325294,2.0125226970747545,13.17611739263268,2.3552360844297744
sz000713,2014-12-12,10.04,10.3,9.86,9.93,0.007098999999999999,14694962.0,147507022.23,2967814900.0,2967838360.0,0.0491678145628287,34.92,2014-09-30 00:00:00,2014-10-31 00:00:00,30.649818704372414,2.0268096784984904,13.269655192081663,2.3719560022899158
sz000713,2014-12-11,9.7,9.89,9.63,9.86,0.021762,13598630.0,133046756.94,2946893750.0,2946917040.0,0.04549960167379635,34.67,2014-09-30 00:00:00,2014-10-31 00:00:00,30.433769375575206,2.0125227792883225,13.176117930890273,2.3552361806435274
sz000713,2014-12-10,9.4,9.69,9.35,9.65,0.026595999999999998,10326556.0,98432811.13,2884130290.0,2884153090.0,0.034551582411348,33.93,2014-09-30 00:00:00,2014-10-31 00:00:00,29.785575677677585,1.9696590588496368,12.895486356793727,2.3050731781408267
sz000713,2014-12-09,9.76,9.96,9.4,9.4,-0.040816000000000005,18108393.0,175277390.3,2809411890.0,2809434100.0,0.06058879967223319,33.05,2014-09-30 00:00:00,2014-10-31 00:00:00,29.013921423498225,1.9186311449193614,12.561403275284267,2.2453556979969007
sz000713,2014-12-08,9.6,9.96,9.59,9.8,0.022965,16432245.0,160710158.48,2928961330.0,2928984490.0,0.05498058282660906,34.46,2014-09-30 00:00:00,2014-10-31 00:00:00,30.248546080312252,2.0002743424821112,13.09592661604475,2.3409019520727004
sz000713,2014-12-05,10.0,10.01,9.3,9.58,-0.044864999999999995,17092398.0,164830965.97,2863209140.0,2863231770.0,0.05718938604673496,33.69,2014-09-30 00:00:00,2014-10-31 00:00:00,29.56948290538997,1.955369286810508,12.80193028700371,2.2883499944501526
sz000713,2014-12-04,9.86,10.22,9.7,10.03,0.014156,22292793.0,221296810.36,2997702260.0,2997725960.0,0.07458936692064941,35.27,2014-09-30 00:00:00,2014-10-31 00:00:00,30.958433002025863,2.047217709340049,13.403267901400023,2.395839325802272
sz000713,2014-12-03,9.8,9.93,9.6,9.89,-0.009018,25916509.0,252869746.49,2955859950.0,2955883320.0,0.08671394394379206,34.78,2014-09-30 00:00:00,2014-10-31 00:00:00,30.526302661548975,2.0186418157956463,13.216179662103288,2.3623972306058154
sz000713,2014-12-02,9.34,10.32,9.31,9.98,0.059448,42746201.0,421886971.06,2982758580.0,2982782160.0,0.14302434291547658,35.09,2014-09-30 00:00:00,2014-10-31 00:00:00,30.804093981070263,2.0370115862807254,13.336447747893793,2.383895197496842
sz000713,2014-12-01,9.42,9.42,9.21,9.42,0.100467,34281688.0,322533084.44,2815389360.0,2815411620.0,0.1147029627759906,33.12,2014-09-30 00:00:00,2014-10-31 00:00:00,29.075607279517506,1.9227103041213212,12.588109796699595,2.250129499038029
sz000713,2014-11-28,8.56,8.56,8.56,8.56,0.099871,428956.0,3671863.36,2558358060.0,2558378290.0,0.0014352421646561858,30.1,2014-09-30 00:00:00,2014-10-31 00:00:00,26.421153273580675,1.7471767023648332,11.438879854370548,2.044704201977914
sz000713,2014-06-18,7.94,7.95,7.79,7.81,-0.01761,1322160.0,10385224.46,2334202860.0,2334221310.0,0.004423809848300845,27.37,2014-03-31 00:00:00,2014-04-30 00:00:00,42.287582240858846,1.4528692346456897,10.377067091979425,1.787611611473876
sz000713,2014-06-17,7.95,8.0,7.92,7.95,-0.005006,1014553.0,8063903.51,2376045160.0,2376063950.0,0.0033945888259127198,27.86,2014-03-31 00:00:00,2014-04-30 00:00:00,43.045615530348286,1.478912890650037,10.563082983315613,1.819655749217598
sz000713,2014-06-16,8.01,8.05,7.93,7.99,-0.00125,1620744.0,12902730.3,2388000100.0,2388018980.0,0.005422840878440499,28.0,2014-03-31 00:00:00,2014-04-30 00:00:00,43.262186033632645,1.4863535766547709,10.61622781978144,1.828810775962064
sz000713,2014-06-13,7.97,8.02,7.94,8.0,0.0075569999999999995,1131264.0,9038192.14,2390988840.0,2391007740.0,0.0037850916945308703,28.03,2014-03-31 00:00:00,2014-04-30 00:00:00,43.31633144794257,1.4882138439597201,10.629514713172904,1.8310996505252204
sz000713,2014-06-12,7.93,8.06,7.9,7.94,-0.001258,2051517.0,16391600.93,2373056420.0,2373075190.0,0.006864162538537537,27.82,2014-03-31 00:00:00,2014-04-30 00:00:00,42.99144509734195,1.4770517637808285,10.549789950516848,1.8173658170458051
sz000713,2014-06-11,7.99,8.03,7.91,7.95,-0.003759,1340546.0,10673489.3,2376045160.0,2376063950.0,0.004485327501098506,27.86,2014-03-31 00:00:00,2014-04-30 00:00:00,43.045596457685726,1.4789122353729276,10.56307830302205,1.8196549429640538
sz000713,2014-06-10,7.91,7.99,7.9,7.98,0.00885,1075902.0,8548984.34,2385011370.0,2385030220.0,0.003599856196911967,27.96,2014-03-31 00:00:00,2014-04-30 00:00:00,43.20801538752743,1.4844924424641501,10.602934734689747,1.826520834781999
sz000713,2014-06-09,7.77,7.99,7.77,7.91,0.0076430000000000005,1351634.0,10714017.02,2364090220.0,2364108910.0,0.004522426787925208,27.72,2014-03-31 00:00:00,2014-04-30 00:00:00,42.82897892404959,1.471469933552213,10.509921925647763,1.8104979281181535
sz000713,2014-06-06,7.82,7.92,7.82,7.85,-0.0012720000000000001,1452187.0,11453990.98,2346157800.0,2346176350.0,0.004858866675549274,27.51,2014-03-31 00:00:00,2014-04-30 00:00:00,42.50411993538345,1.460308793443921,10.430203877412698,1.7967652513024488
sz000713,2014-06-05,7.73,7.88,7.71,7.86,0.014194,1230610.0,9571874.17,2349146540.0,2349165110.0,0.004117493070483377,27.54,2014-03-31 00:00:00,2014-04-30 00:00:00,42.55825403451535,1.462168671994698,10.443487994141243,1.799053647542122
sz000713,2014-06-04,7.83,7.83,7.71,7.75,-0.011479999999999999,1178498.0,9151703.9,2316270440.0,2316288750.0,0.003943131744149875,27.16,2014-03-31 00:00:00,2014-04-30 00:00:00,41.96263637382527,1.4417051096680693,10.297327724420812,1.773875262072268
sz000713,2014-06-03,7.89,7.93,7.8,7.84,-0.005076,1224619.0,9638863.32,2343169060.0,2343187590.0,0.0040974478213706015,27.47,2014-03-31 00:00:00,2014-04-30 00:00:00,42.44996193686043,1.458448093784718,10.416913895946278,1.7944758447702305
sz000713,2014-05-30,7.83,7.94,7.83,7.88,0.005102000000000001,970434.0,7651935.93,2355124010.0,2355142630.0,0.0032469712369838223,27.61,2014-03-31 00:00:00,2014-04-30 00:00:00,42.66653728009419,1.4658889460749946,10.47005992010071,1.8036310761125778
sz000713,2014-05-29,8.03,8.03,7.82,7.84,-0.024876,2417695.0,19154681.98,2343169060.0,2343187590.0,0.00808935604501367,27.47,2014-03-31 00:00:00,2014-04-30 00:00:00,42.449957596437166,1.4584479446613325,10.416912830837774,1.794475661288683
sz000713,2014-05-28,7.98,8.04,7.96,8.04,0.007519,1371278.0,10983557.67,2402943780.0,2402962780.0,0.004588153585515845,28.17,2014-03-31 00:00:00,2014-04-30 00:00:00,43.532881558075864,1.4956538293194843,10.682654545306828,1.8402538151954861
sz000713,2014-05-27,8.06,8.06,7.96,7.98,-0.012376,1208088.0,9669239.06,2385011370.0,2385030220.0,0.004042136805410701,27.96,2014-03-31 00:00:00,2014-04-30 00:00:00,43.20800060155279,1.4844919344642475,10.60293110631842,1.8265202097384627
sz000713,2014-05-26,8.08,8.08,7.99,8.08,-0.001236,1467982.0,11799326.02,2414898730.0,2414917820.0,0.004911715101195983,28.31,2014-03-31 00:00:00,2014-04-30 00:00:00,43.74944371699432,1.5030942286378701,10.73579733412556,1.8494084892008122
sz000713,2014-05-23,7.94,8.1,7.91,8.09,0.012516,1526793.0,12204564.63,2417887460.0,2417906580.0,0.005108490603611468,28.35,2014-03-31 00:00:00,2014-04-30 00:00:00,43.80358494799003,1.5049543522172104,10.749083200961948,1.85169718692385
sz000713,2014-05-22,8.08,8.14,7.96,7.99,-0.012361,1991998.0,16056005.7,2388000100.0,2388018980.0,0.006665018154731233,28.0,2014-03-31 00:00:00,2014-04-30 00:00:00,43.262116300374544,1.486351180837844,10.616210707743827,1.828807828146765
sz000713,2014-05-21,8.02,8.13,7.91,8.09,0.0074719999999999995,1395306.0,11205059.86,2417887460.0,2417906580.0,0.004668548775218844,28.35,2014-03-31 00:00:00,2014-04-30 00:00:00,43.803572257043854,1.5049539161959418,10.749080086695468,1.8516966504428893
sz000713,2014-05-20,8.1,8.16,7.99,8.03,-0.008642,1782048.0,14384884.34,2399955050.0,2399974020.0,0.005962547273541644,28.14,2014-03-31 00:00:00,2014-04-30 00:00:00,43.478699415014866,1.4937923001293751,10.669358638945267,1.8379633880076958
sz000713,2014-05-19,7.9,8.1,7.82,8.1,0.017588,2190363.0,17495841.33,2420876200.0,2420895340.0,0.0073287268056086464,28.38,2014-03-31 00:00:00,2014-04-30 00:00:00,43.85771781234919,1.5068141883450532,10.762367014686188,1.853985530966307
sz000713,2014-05-16,7.87,8.0,7.77,7.96,0.002519,2010368.0,15819117.31,2379033900.0,2379052710.0,0.006726482241383782,27.89,2014-03-31 00:00:00,2014-04-30 00:00:00,43.09968062943863,1.4807703985749177,10.57635016793259,1.8219412286370387
sz000713,2014-05-15,7.91,8.31,7.91,7.94,-0.001258,2901166.0,23596307.85,2373056420.0,2373075190.0,0.009706999734966268,27.82,2014-03-31 00:00:00,2014-04-30 00:00:00,42.99138532979288,1.4770497103545344,10.549775283992213,1.8173632905082482
sz000713,2014-05-14,8.03,8.08,7.93,7.95,-0.009963,762771.0,6076878.61,2376045160.0,2376063950.0,0.0025521524388871465,27.86,2014-03-31 00:00:00,2014-04-30 00:00:00,43.04553661485436,1.4789101793601693,10.563063618023685,1.8196524132441092
sz000713,2014-05-13,7.96,8.08,7.9,8.03,0.011335,1718479.0,13745052.04,2399955050.0,2399974020.0,0.0057498520107699515,28.14,2014-03-31 00:00:00,2014-04-30 00:00:00,43.478715052926674,1.4937928373991776,10.669362476375818,1.8379640490649434
sz000713,2014-05-12,7.75,7.95,7.75,7.94,0.021879,1394142.0,10985971.39,2373056420.0,2373075190.0,0.004664654150953562,27.82,2014-03-31 00:00:00,2014-04-30 00:00:00,42.991407449486736,1.4770504703181215,10.549780712005239,1.8173642255681286
sz000713,2014-05-09,7.8,7.85,7.66,7.77,-0.007663,1008878.0,7806640.56,2322247910.0,2322266270.0,0.0033756008676954735,27.23,2014-03-31 00:00:00,2014-04-30 00:00:00,42.07093740989563,1.4454259949740835,10.323904016038336,1.778453442695396
sz000713,2014-05-08,7.8,7.92,7.8,7.83,0.0,1002683.0,7864718.02,2340180330.0,2340198830.0,0.0033548730366432917,27.44,2014-03-31 00:00:00,2014-04-30 00:00:00,42.39581655213464,1.456587827496187,10.403627009814544,1.7921869714576761
sz000713,2014-05-07,8.01,8.01,7.82,7.83,-0.02974,1503796.0,11862057.56,2340180330.0,2340198830.0,0.005031545017729467,27.44,2014-03-31 00:00:00,2014-04-30 00:00:00,42.39581655213464,1.456587827496187,10.403627009814544,1.7921869714576761
sz000713,2014-05-06,7.82,8.1,7.82,8.07,0.024112,1901994.0,15182717.41,2411909990.0,2411929060.0,0.006363874126165048,28.28,2014-03-31 00:00:00,2014-04-30 00:00:00,43.69531522698518,1.50123454279903,10.722514593835204,1.8471203300740793
sz000713,2014-05-05,7.75,7.9,7.75,7.88,0.011553,1397172.0,10924928.21,2355124010.0,2355142630.0,0.004674792203405034,27.61,2014-03-31 00:00:00,2014-04-30 00:00:00,42.666539623581386,1.4658890265898945,10.470060495175531,1.8036311751781828
sz000713,2014-04-30,7.77,7.81,7.7,7.79,0.0038659999999999996,928843.0,7209166.2,2328225380.0,2328243790.0,0.003107812083897136,27.3,2014-03-31 00:00:00,2014-04-30 00:00:00,42.179242831153076,1.4491470309414283,10.350481383749079,1.7830318086923602
sz000713,2014-04-29,7.68,7.77,7.65,7.76,0.007792,954983.0,7380075.79,2319259170.0,2319277510.0,0.003195273808058286,27.19,2013-12-31 00:00:00,2014-04-09 00:00:00,41.58758777374362,1.36916472123167,11.53070923282676,1.7982068326472838
sz000713,2014-04-28,7.96,7.98,7.65,7.7,-0.027777999999999997,1508333.0,11681989.11,2301326760.0,2301344950.0,0.0050467253507276814,26.98,2013-12-31 00:00:00,2014-04-09 00:00:00,41.26604276849153,1.3585786761868222,11.441556623615547,1.784303539467751
sz000713,2014-04-25,8.24,8.36,7.46,7.92,-0.044632,1726619.0,14037058.16,2367078950.0,2367097670.0,0.005777087612561466,27.75,2013-12-31 00:00:00,2014-04-09 00:00:00,42.44508226361009,1.3973955291968523,11.768460931367061,1.8352840600889007
sz000713,2014-04-24,8.42,8.43,8.29,8.29,-0.014269,743229.0,6210200.54,2477662190.0,2477681770.0,0.0024867669349226337,29.05,2013-12-31 00:00:00,2014-04-09 00:00:00,44.42799242136024,1.462677763120444,12.318249021703743,1.921023166035392
sz000713,2014-04-23,8.3,8.45,8.3,8.41,0.010817,1461531.0,12271330.07,2513527020.0,2513546890.0,0.004890130725549152,29.47,2013-12-31 00:00:00,2014-04-09 00:00:00,45.071112120203416,1.4838508306225977,12.49656247161116,1.9488310360893508
sz000713,2014-04-22,8.29,8.32,8.2,8.32,0.003619,1280451.0,10562119.85,2486628390.0,2486648050.0,0.004284255887547395,29.15,2013-12-31 00:00:00,2014-04-09 00:00:00,44.588795123354096,1.4679717798796397,12.362833699483843,1.9279761184164401
sz000713,2014-04-21,8.43,8.44,8.28,8.29,-0.020095,1703168.0,14251261.8,2477662190.0,2477681770.0,0.005698622991054321,29.05,2013-12-31 00:00:00,2014-04-09 00:00:00,44.42801015460458,1.4626783469420561,12.318253938480481,1.9210239328036238
sz000713,2014-04-18,8.49,8.49,8.43,8.46,-0.0070420000000000005,1301993.0,11007028.26,2528470700.0,2528490690.0,0.004356333170085776,29.64,2013-12-31 00:00:00,2014-04-09 00:00:00,45.33909935616675,1.492673623404367,12.570865480307257,1.9604185434339285
sz000713,2014-04-17,8.69,8.7,8.51,8.52,-0.006993000000000001,4030712.0,34684760.78,2546403110.0,2546423250.0,0.01348634318939392,29.85,2013-12-31 00:00:00,2014-04-09 00:00:00,45.66064159427363,1.5032595773480522,12.66001732229083,1.9743217169647949
sz000713,2014-04-16,8.43,8.59,8.4,8.58,0.017794,2707287.0,23048928.83,2564335530.0,2564355810.0,0.009058300752086058,30.06,2013-12-31 00:00:00,2014-04-09 00:00:00,45.98219508449954,1.5138459017389125,12.749172284073355,1.9882253770263403
sz000713,2014-04-15,8.59,8.59,8.41,8.43,-0.015187,1864979.0,15806957.1,2519504490.0,2519524410.0,0.006240025779831017,29.54,2013-12-31 00:00:00,2014-04-09 00:00:00,45.17829254691964,1.4873794714243864,12.526279663736819,1.953465413459246
sz000713,2014-04-14,8.43,8.63,8.4,8.56,0.01182,3772903.0,32241111.2,2558358060.0,2558378290.0,0.012623741056793278,29.99,2013-12-31 00:00:00,2014-04-09 00:00:00,45.87499611288604,1.510316650393919,12.719449950129436,1.98359019779313
sz000713,2014-04-11,8.39,8.54,8.35,8.46,0.008343000000000001,3482159.0,29416976.28,2528470700.0,2528490690.0,0.011650941867746381,29.64,2013-12-31 00:00:00,2014-04-09 00:00:00,45.33908809164282,1.4926732525487922,12.570862357068881,1.9604180563668736
sz000713,2014-04-10,8.41,8.43,8.34,8.39,-0.00119,2679213.0,22491472.23,2507549550.0,2507569370.0,0.008964368050075023,29.4,2013-12-31 00:00:00,2014-04-09 00:00:00,44.963953824881834,1.4803229184402453,12.466851415707632,1.9441976156594272
sz000713,2014-04-09,8.3,8.4,8.27,8.4,0.014493,2522082.0,21017054.57,2510538280.0,2510558130.0,0.008438624086624163,29.43,2013-12-31 00:00:00,2014-04-09 00:00:00,45.01752467925014,1.4820866014960254,12.48170464423427,1.9465139672804908
sz000713,2014-04-08,8.25,8.28,8.17,8.28,0.003636,2176334.0,17920364.25,2474673450.0,2474693020.0,0.00728178722732084,29.01,2013-09-30 00:00:00,2013-10-29 00:00:00,-186.55426222219316,1.4248488037620408,18.2066189538917,2.201981877441938
sz000713,2014-04-04,8.21,8.25,8.14,8.25,0.00365,1343903.0,11014055.1,2465707240.0,2465726740.0,0.004496559676727883,28.91,2013-09-30 00:00:00,2013-10-29 00:00:00,-185.87840832950704,1.4196868224755197,18.14065951589191,2.194004477162973
sz000713,2014-04-03,8.17,8.24,8.15,8.22,0.002439,1203501.0,9861813.18,2456741030.0,2456760460.0,0.004026789189090883,28.8,2013-09-30 00:00:00,2013-10-29 00:00:00,-185.20241949833814,1.4145238105669506,18.07468690867525,2.186025484145841
sz000713,2014-04-02,8.22,8.25,8.17,8.2,0.0,1356994.0,11127895.81,2450763560.0,2450782940.0,0.004540360800859958,28.73,2013-09-30 00:00:00,2013-10-29 00:00:00,-184.75180983415262,1.4110821811271812,18.030710006968253,2.180706740405991
sz000713,2014-04-01,8.16,8.21,8.15,8.2,0.006135,847552.0,6936306.39,2450763560.0,2450782940.0,0.0028358208492376964,28.73,2013-09-30 00:00:00,2013-10-29 00:00:00,-184.75180983415262,1.4110821811271812,18.030710006968253,2.180706740405991
sz000713,2014-03-31,8.17,8.22,8.12,8.15,-0.001225,1086891.0,8879841.07,2435819880.0,2435839140.0,0.00363662425236467,28.56,2013-09-30 00:00:00,2013-10-29 00:00:00,-183.62526881000326,1.4024779787276869,17.92076610690241,2.1674096820068787
sz000713,2014-03-28,8.24,8.33,8.15,8.16,-0.012107,1442756.0,11855874.35,2438808620.0,2438827900.0,0.004827311525575959,28.59,2013-09-30 00:00:00,2013-10-29 00:00:00,-183.85048565493057,1.4041981214264343,17.942745970716537,2.170068015325653
sz000713,2014-03-27,8.42,8.42,8.26,8.26,-0.019002,1415620.0,11790126.71,2468695980.0,2468715500.0,0.004736517292825988,28.94,2013-09-30 00:00:00,2013-10-29 00:00:00,-186.10364245412265,1.4214070971516495,18.16264106610386,2.196663014441496
sz000713,2014-03-26,8.42,8.44,8.35,8.42,0.0,1551427.0,13029289.2,2516515750.0,2516535650.0,0.005190913404774041,29.5,2013-09-30 00:00:00,2013-10-29 00:00:00,-189.7084830490201,1.448939852223602,18.514452696237765,2.239212530954697
sz000713,2014-03-25,8.36,8.43,8.32,8.42,0.0035759999999999998,1674130.0,14039276.6,2516515750.0,2516535650.0,0.005601464882546433,29.5,2013-09-30 00:00:00,2013-10-29 00:00:00,-189.7084830490201,1.448939852223602,18.514452696237765,2.239212530954697
sz000713,2014-03-24,8.35,8.41,8.28,8.39,0.009627,1881991.0,15723600.24,2507549550.0,2507569370.0,0.006296946152071053,29.4,2013-09-30 00:00:00,2013-10-29 00:00:00,-189.03250281893955,1.4437769060077184,18.448480928437668,2.2312336394599876
sz000713,2014-03-21,8.19,8.33,8.1,8.31,0.015892,1694065.0,13920130.86,2483639660.0,2483659290.0,0.005668165304623941,29.12,2013-09-30 00:00:00,2013-10-29 00:00:00,-187.2300392312602,1.4300101978331783,18.272570888494137,2.2099583702297854
sz000713,2014-03-20,8.26,8.37,8.18,8.18,-0.009685,1596925.0,13215726.27,2444786090.0,2444805420.0,0.005343144970200644,28.66,2013-09-30 00:00:00,2013-10-29 00:00:00,-184.30112574098447,1.4076399832198485,17.986725841422256,2.175387118148175
sz000713,2014-03-19,8.4,8.4,8.22,8.26,-0.015494999999999998,1406048.0,11617873.87,2468695980.0,2468715500.0,0.0047044903763322045,28.94,2013-09-30 00:00:00,2013-10-29 00:00:00,-186.10353851146803,1.4214063032669892,18.162630921900863,2.1966617875607
sz000713,2014-03-18,8.4,8.45,8.3,8.39,0.003589,1840967.0,15442981.48,2507549550.0,2507569370.0,0.0061596841147166966,29.4,2013-09-30 00:00:00,2013-10-29 00:00:00,-189.03259862719645,1.4437776377641447,18.44849027877041,2.2312347703269158
sz000713,2014-03-17,8.24,8.37,8.18,8.36,0.013333000000000001,1600184.0,13264050.82,2498583340.0,2498603090.0,0.005354049242960212,29.29,2013-09-30 00:00:00,2013-10-29 00:00:00,-188.35658683703832,1.4386144505012954,18.38251543088895,2.223255506314752
sz000713,2014-03-14,8.2,8.26,8.19,8.25,0.00243,1210961.0,9963136.21,2465707240.0,2465726740.0,0.0040517495702368945,28.91,2013-09-30 00:00:00,2013-10-29 00:00:00,-185.87827183861404,1.4196857799966007,18.140646195168763,2.1940028661010267
sz000713,2014-03-13,8.21,8.28,8.18,8.23,0.0,1552515.0,12788312.09,2459729770.0,2459749220.0,0.005194553729371662,28.84,2013-09-30 00:00:00,2013-10-29 00:00:00,-185.42768256996902,1.4162443063322134,18.09667128394877,2.188684363098697
sz000713,2014-03-12,8.23,8.28,8.11,8.23,0.001217,1593028.0,13061906.65,2459729770.0,2459749220.0,0.005330106014043974,28.84,2013-09-30 00:00:00,2013-10-29 00:00:00,-185.42768256996902,1.4162443063322134,18.09667128394877,2.188684363098697
sz000713,2014-03-11,8.17,8.26,8.15,8.22,0.0061200000000000004,1600482.0,13127142.66,2456741030.0,2456760460.0,0.005355046331440152,28.8,2013-09-30 00:00:00,2013-10-29 00:00:00,-185.20229138135792,1.414522832045614,18.074674405197644,2.1860239719248646
sz000713,2014-03-10,8.6,8.63,8.09,8.17,-0.053301999999999995,3235127.0,26976185.27,2441797350.0,2441816660.0,0.01082439850710789,28.63,2013-09-30 00:00:00,2013-10-29 00:00:00,-184.0757478047926,1.405918610151487,17.964730256030737,2.172726883398466
sz000713,2014-03-07,8.73,8.78,8.62,8.63,-0.012586,1588016.0,13812392.27,2579279210.0,2579299600.0,0.005313336387494087,30.24,2013-09-30 00:00:00,2013-10-29 00:00:00,-194.43977678709854,1.4850761384850153,18.97619964976237,2.29505806856935
sz000713,2014-03-06,8.8,8.82,8.66,8.74,-0.00907,1901816.0,16594592.47,2612155310.0,2612175960.0,0.006363278544873352,30.63,2013-09-30 00:00:00,2013-10-29 00:00:00,-196.91818911530376,1.5040055523671079,19.218078384307262,2.3243118576092194
sz000713,2014-03-05,8.91,8.97,8.8,8.82,-0.010101,3239891.0,28706216.05,2636065200.0,2636086040.0,0.01084033832698827,30.91,2013-09-30 00:00:00,2013-10-29 00:00:00,-198.7205848196177,1.5177717420676615,19.393981799226246,2.3455863255822504
sz000713,2014-03-04,8.79,9.02,8.7,8.91,0.005643,3294371.0,29264471.83,2662963820.0,2662984870.0,0.011022622759478573,31.22,2013-09-30 00:00:00,2013-10-29 00:00:00,-200.74834384075314,1.5332591931779518,19.5918793727706,2.369520855746142
sz000713,2014-03-03,8.61,8.95,8.58,8.86,0.025463,2954448.0,25948136.21,2648020140.0,2648041080.0,0.009885275751716903,31.05,2013-09-30 00:00:00,2013-10-29 00:00:00,-199.6218775855379,1.5246555618424744,19.48194276972106,2.356224679877592
sz000713,2014-02-28,8.61,8.65,8.41,8.64,0.0034840000000000006,1910159.0,16280363.2,2582267950.0,2582288360.0,0.006391193353888779,30.27,2013-09-30 00:00:00,2013-10-29 00:00:00,-194.66511964404165,1.4867972436279753,18.998191811621734,2.2977178892632812
sz000713,2014-02-27,8.68,8.78,8.6,8.61,-0.011481,2279416.0,19796605.04,2573301740.0,2573322080.0,0.007626688877923814,30.17,2013-09-30 00:00:00,2013-10-29 00:00:00,-193.98926105851382,1.4816352264988533,18.93223191562769,2.2897404335926446
sz000713,2014-02-26,8.64,8.71,8.57,8.71,0.00927,2759175.0,23805060.91,2603189100.0,2603209680.0,0.009231912599050143,30.52,2013-09-30 00:00:00,2013-10-29 00:00:00,-196.24231912438083,1.4988434481267972,19.152117375212505,2.316334267315696
sz000713,2014-02-25,9.06,9.17,8.56,8.63,-0.048512,3864967.0,34294365.76,2579279210.0,2579299600.0,0.012931777637985926,30.24,2013-09-30 00:00:00,2013-10-29 00:00:00,-194.43986160728136,1.485076786317633,18.97620792772252,2.295059069739214
sz000713,2014-02-24,9.05,9.16,8.88,9.07,-0.004391,2695929.0,24357397.23,2710783600.0,2710805030.0,0.009020298053300898,31.78,2013-09-30 00:00:00,2013-10-29 00:00:00,-204.353456488449,1.5607940261123976,19.943717553686984,2.4120735834179876
sz000713,2014-02-21,9.01,9.19,9.01,9.11,-0.013000999999999999,3403637.0,30908485.75,2722738540.0,2722760070.0,0.011388215436212983,31.92,2013-09-30 00:00:00,2013-10-29 00:00:00,-205.25473000791374,1.5676776988882155,20.03167664583886,2.4227117105389637
sz000713,2014-02-20,9.15,9.5,8.97,9.23,0.006543000000000001,8113064.0,75469417.94,2758603370.0,2758625180.0,0.027145468440430424,32.34,2013-09-30 00:00:00,2013-10-29 00:00:00,-207.9583971289877,1.5883275453047223,20.29553894769788,2.4546242808138246
sz000713,2014-02-19,9.17,9.23,9.07,9.17,-0.003261,3658965.0,33421600.02,2740670960.0,2740692630.0,0.01224251635446234,32.13,2013-09-30 00:00:00,2013-10-29 00:00:00,-206.60657033925796,1.5780026738099837,20.163608457560066,2.438668075595205
sz000713,2014-02-18,9.26,9.43,9.18,9.2,-0.005405,4947858.0,45968287.54,2749637170.0,2749658910.0,0.016555018275374856,32.24,2013-09-30 00:00:00,2013-10-29 00:00:00,-207.28251863251862,1.5831653761014508,20.229577108510924,2.446646590125605
sz000713,2014-02-17,9.2,9.29,9.16,9.25,0.006529000000000001,4100420.0,37840707.84,2764580850.0,2764602700.0,0.013719578864911836,32.41,2013-09-30 00:00:00,2013-10-29 00:00:00,-208.4089691105612,1.5917688869353361,20.339512171799498,2.459942579769258
sz000713,2014-02-14,9.05,9.23,9.05,9.19,0.008782,2788468.0,25566325.36,2746648430.0,2746670150.0,0.00932992393205562,32.2,2013-09-30 00:00:00,2013-10-29 00:00:00,-207.0570933480915,1.5814436414006314,20.207576902205002,2.443985796503884
sz000713,2014-02-13,9.31,9.32,9.1,9.11,-0.024625,4309852.0,39658362.29,2722738540.0,2722760070.0,0.014420316583170707,31.92,2013-09-30 00:00:00,2013-10-29 00:00:00,-205.25454790836025,1.5676763080632201,20.03165887397376,2.42270956113797
sz000713,2014-02-12,9.13,9.37,9.06,9.34,0.017429,6754147.0,62432011.8,2791479470.0,2791501540.0,0.02259867344824141,32.73,2013-09-30 00:00:00,2013-10-29 00:00:00,-210.4365479004078,1.607254961489909,20.537392155810597,2.4838749825841036
sz000713,2014-02-11,9.12,9.24,9.06,9.18,-0.011840999999999999,7698040.0,70405556.77,2743659690.0,2743681390.0,0.025756841293972575,32.17,2013-09-30 00:00:00,2013-10-29 00:00:00,-206.83167857453233,1.579721986978855,20.185577721699108,2.441325126946553
sz000713,2014-02-10,8.99,9.41,8.97,9.29,0.026519,9933512.0,91230972.69,2776535790.0,2776557740.0,0.03323649808958522,32.55,2013-09-30 00:00:00,2013-10-29 00:00:00,-209.3101197019228,1.5986516208209964,20.427459266878213,2.470579255915852
sz000713,2014-02-07,8.66,9.09,8.66,9.05,0.022599,3535893.0,31596386.07,2704806130.0,2704827510.0,0.011830730230561848,31.71,2013-09-30 00:00:00,2013-10-29 00:00:00,-203.90282079720183,1.557352197885277,19.89973811188903,2.406754532469299
sz000713,2014-01-30,8.9,8.98,8.78,8.85,-0.014477,1795106.0,15895779.9,2645031400.0,2645052320.0,0.0060062379977795346,31.01,2013-09-30 00:00:00,2013-10-29 00:00:00,-199.3966557733792,1.5229353812054156,19.459962421133824,2.353566287928405
sz000713,2014-01-29,9.05,9.06,8.93,8.98,-0.013187,3122557.0,28028983.16,2683884970.0,2683906190.0,0.010447750992845272,31.47,2013-09-30 00:00:00,2013-10-29 00:00:00,-202.32572529852598,1.5453067875690527,19.74582269630828,2.3881393817581174
sz000713,2014-01-28,9.01,9.12,8.92,9.1,0.0011,8644121.0,78329895.91,2719749810.0,2719771310.0,0.028922329844744063,31.89,2013-09-30 00:00:00,2013-10-29 00:00:00,-205.02944863771148,1.5659570633636288,20.00969048473042,2.4200526156000346
sz000713,2014-01-27,8.9,9.19,8.82,9.09,0.007761,9134314.0,82839472.3,2716761070.0,2716782550.0,0.03056246468519957,31.85,2013-09-30 00:00:00,2013-10-29 00:00:00,-204.80416405724844,1.5642364033199765,19.987704010319064,2.4173934827689885
sz000713,2014-01-24,8.46,9.15,8.46,9.02,0.062426,8191063.0,71696117.96,2695839920.0,2695861230.0,0.027406444912352217,31.61,2013-09-30 00:00:00,2013-10-29 00:00:00,-203.22691993165887,1.5521898578333324,19.83377408960961,2.398776577749078
sz000713,2014-01-23,8.52,8.56,8.46,8.49,-0.00235,2205349.0,18730454.54,2537436910.0,2537456970.0,0.007378868391253913,29.75,2013-09-30 00:00:00,2013-10-29 00:00:00,-191.28571771743057,1.4609863254789814,18.668381693981143,2.2578293243473695
sz000713,2014-01-22,8.36,8.55,8.29,8.51,0.019162000000000002,3150925.0,26605548.2,2543414380.0,2543434490.0,0.010542667353323683,29.82,2013-09-30 00:00:00,2013-10-29 00:00:00,-191.7362980177723,1.4644277306459994,18.712355729946513,2.2631477214928775
sz000713,2014-01-21,8.34,8.35,8.2,8.35,0.006024,1886735.0,15653050.47,2495594600.0,2495614330.0,0.006312819097300499,29.26,2013-09-30 00:00:00,2013-10-29 00:00:00,-188.13132555744068,1.4368939684230768,18.360531230507533,2.2205966485140514
sz000713,2014-01-20,8.39,8.59,8.3,8.3,0.0060609999999999995,3607419.0,30379481.51,2480650920.0,2480670530.0,0.012070048816058327,29.08,2013-09-30 00:00:00,2013-10-29 00:00:00,-187.0048085904915,1.428289949765688,18.250589678285536,2.2072998740726377
sz000713,2014-01-17,8.47,8.47,8.25,8.25,-0.025974,1808261.0,14999097.73,2465707240.0,2465726740.0,0.006050253253099098,28.91,2013-09-30 00:00:00,2013-10-29 00:00:00,-185.87820081534966,1.419685237540952,18.1406392637082,2.194002027782249
sz000713,2014-01-16,8.53,8.57,8.41,8.47,-0.007034,1924018.0,16332765.4,2531459430.0,2531479450.0,0.006437564144569364,29.68,2013-09-30 00:00:00,2013-10-29 00:00:00,-190.83494774816043,1.4575434716742186,18.62438914742338,2.2525086884562113
sz000713,2014-01-15,8.36,8.6,8.33,8.53,0.014269,2380275.0,20094368.21,2549391850.0,2549412010.0,0.007964152607611104,29.89,2013-09-30 00:00:00,2013-10-29 00:00:00,-192.18678962639248,1.4678684584106794,18.756321110111905,2.268465071771049
sz000713,2014-01-14,8.25,8.42,8.25,8.41,0.020631,2343595.0,19581112.9,2513527020.0,2513546890.0,0.007841425134152724,29.47,2013-09-30 00:00:00,2013-10-29 00:00:00,-189.48305590173064,1.447218103294766,18.492452308127234,2.2365517153447936
sz000713,2014-01-13,8.24,8.32,8.18,8.24,0.001215,1649657.0,13592343.59,2462718510.0,2462737980.0,0.005519580749811313,28.87,2013-09-30 00:00:00,2013-10-29 00:00:00,-185.65285191389503,1.4179640862317193,18.11864651193941,2.191342135742294
sz000713,2014-01-10,8.38,8.38,8.16,8.23,-0.0179,2058771.0,16999609.52,2459729770.0,2459749220.0,0.0068884336550514656,28.84,2013-09-30 00:00:00,2013-10-29 00:00:00,-185.42755743161567,1.416243350560788,18.096659071167945,2.1886828860357608
sz000713,2014-01-09,8.68,8.77,8.37,8.38,-0.037887,3374203.0,28859241.78,2504560810.0,2504580610.0,0.01128973232636344,29.36,2013-09-30 00:00:00,2013-10-29 00:00:00,-188.80720642665273,1.4420561557486895,18.426493301260507,2.228574367208798
sz000713,2014-01-08,8.68,8.82,8.67,8.71,-0.004571,2547596.0,22261302.81,2603189100.0,2603209680.0,0.008523991269016916,30.52,2013-09-30 00:00:00,2013-10-29 00:00:00,-196.2422360228505,1.4988428134207623,19.152109264982915,2.316333286431842
sz000713,2014-01-07,8.73,8.89,8.66,8.75,-0.005682,2572719.0,22491927.91,2615144040.0,2615164720.0,0.008608050228086098,30.66,2013-09-30 00:00:00,2013-10-29 00:00:00,-197.1433784055422,1.5057254846109185,19.240055558942842,2.326969865687901
sz000713,2014-01-06,9.26,9.26,8.78,8.8,-0.058824,4897808.0,43684751.49,2630087720.0,2630108520.0,0.016387556229493366,30.84,2013-09-30 00:00:00,2013-10-29 00:00:00,-198.2699482515073,1.514329907143307,19.350002271851505,2.3402672642835602
sz000713,2014-01-03,9.32,9.44,9.13,9.35,0.0,4561562.0,42301755.93,2794468210.0,2794490300.0,0.015262512039813112,32.76,2013-09-30 00:00:00,2013-10-29 00:00:00,-210.66192534818916,1.608976330827929,20.55938769353607,2.4865352115688886
sz000713,2014-01-02,9.3,9.39,9.25,9.35,0.007543000000000001,2286267.0,21356092.26,2794468210.0,2794490300.0,0.007649611605350844,32.76,2013-09-30 00:00:00,2013-10-29 00:00:00,-210.66192534818916,1.608976330827929,20.55938769353607,2.4865352115688886
sz000713,2013-12-31,9.3,9.35,9.09,9.28,-0.005359,3003316.0,27699818.47,2773547050.0,2773568980.0,0.010048783012352359,32.52,2013-09-30 00:00:00,2013-10-29 00:00:00,-209.08479871150823,1.5969306826884102,20.405469239065795,2.467919693322159
sz000713,2013-12-30,9.32,9.38,9.2,9.33,0.008648999999999999,3502076.0,32630555.32,2788490730.0,2788512780.0,0.011717582105786667,32.69,2013-09-30 00:00:00,2013-10-29 00:00:00,-210.2113211817211,1.605534743378174,20.515411328374555,2.481216532721011
sz000713,2013-12-27,9.39,9.39,9.13,9.25,-0.014909,5741004.0,53232087.04,2764580850.0,2764602700.0,0.019208802303611414,32.41,2013-09-30 00:00:00,2013-10-29 00:00:00,-208.4087935265103,1.5917675458739104,20.339495035809836,2.459940507273602
sz000713,2013-12-26,9.85,9.93,9.37,9.39,-0.034943,6555744.0,63500464.61,2806423150.0,2806445340.0,0.02193483764556318,32.9,2013-09-30 00:00:00,2013-10-29 00:00:00,-211.5629860860675,1.6158583784380431,20.64732601943357,2.497170827135363
sz000713,2013-12-25,9.8,9.85,9.62,9.73,-0.017172,6159089.0,59851392.31,2908040180.0,2908063170.0,0.020607671235821783,34.09,2013-09-30 00:00:00,2013-10-29 00:00:00,-219.2233060700741,1.6743657405086367,21.39492902433076,2.587588947736106
sz000713,2013-12-24,9.75,9.95,9.6,9.9,0.010204000000000001,7245042.0,70867623.42,2958848690.0,2958872080.0,0.024241157056260284,34.69,2013-09-30 00:00:00,2013-10-29 00:00:00,-223.05358218332617,1.7036203084452586,21.76874185954283,2.632799378666568
sz000713,2013-12-23,10.0,10.02,9.65,9.8,-0.029702999999999997,9299561.0,91352930.39,2928961330.0,2928984490.0,0.03111536395736574,34.34,2013-09-30 00:00:00,2013-10-29 00:00:00,-220.8005335390932,1.6864121587770966,21.548857319455106,2.6062056561512006
sz000713,2013-12-20,9.61,10.24,9.48,10.1,0.0587,13472366.0,133040752.48,3018623410.0,3018647280.0,0.04507713554106439,35.39,2013-09-30 00:00:00,2013-10-29 00:00:00,-227.5597405115065,1.7380370739856938,22.208516896842006,2.6859875441758567
sz000713,2013-12-19,9.81,9.84,9.53,9.54,-0.020534,5679219.0,54971149.56,2851254190.0,2851276730.0,0.019002076156528155,33.43,2013-09-30 00:00:00,2013-10-29 00:00:00,-214.9426093430684,1.6416709870460884,20.977157737642397,2.5370620045110575
sz000713,2013-12-18,9.6,10.0,9.55,9.74,0.015641,8097378.0,79433888.48,2911028910.0,2911051930.0,0.027092984700038583,34.13,2013-09-30 00:00:00,2013-10-29 00:00:00,-219.4487703943459,1.6760877733847714,21.416933040700133,2.5902502021622573
sz000713,2013-12-17,9.78,9.93,9.53,9.59,-0.029352,7704028.0,74520989.74,2866197870.0,2866220530.0,0.025776876500155935,33.6,2013-09-30 00:00:00,2013-10-29 00:00:00,-216.06923154376983,1.6502758094491772,21.087109560071067,2.55036002107266
sz000713,2013-12-16,10.3,10.56,9.86,9.88,-0.0030269999999999997,16451683.0,167187101.06,2952871220.0,2952894560.0,0.055045620323394946,34.62,2013-09-30 00:00:00,2013-10-29 00:00:00,-222.6030770616844,1.7001794774719332,21.724775160584542,2.6274818688882684
sz000713,2013-12-13,9.76,10.05,9.71,9.91,-0.001008,11707941.0,115795749.19,2961837430.0,2961860840.0,0.039173552921842845,34.73,2013-09-30 00:00:00,2013-10-29 00:00:00,-223.2789424203909,1.7053415463326822,21.790735717601724,2.635459404505707
sz000713,2013-12-12,9.64,10.25,9.48,9.92,0.027979,20373777.0,200949174.44,2964826160.0,2964849600.0,0.06816853904176291,34.76,2013-09-30 00:00:00,2013-10-29 00:00:00,-223.50423468895735,1.7070622650958989,21.812722942327586,2.6381186280828146
sz000713,2013-12-11,9.36,9.69,9.17,9.65,0.032086,15891017.0,151036218.68,2884130290.0,2884153090.0,0.05316969021188013,33.81,2013-09-30 00:00:00,2013-10-29 00:00:00,-217.42101218892347,1.6606003285046669,21.219035546764662,2.5663156816265844
sz000713,2013-12-10,9.42,9.62,9.31,9.35,-0.014752000000000001,6302686.0,59204941.39,2794468210.0,2794490300.0,0.02108813186319983,32.76,2013-09-30 00:00:00,2013-10-29 00:00:00,-210.66172023351103,1.6089747642199068,20.559367675527678,2.486532790510272
sz000713,2013-12-09,9.07,9.7,9.07,9.49,0.041712,12943569.0,122748740.57,2836310510.0,2836332940.0,0.043307835787697306,33.25,2013-09-30 00:00:00,2013-10-29 00:00:00,-213.81593287528727,1.6330657501663608,20.86720061906005,2.523763347411283
sz000713,2013-12-06,9.16,9.25,9.08,9.11,-0.007625,2686232.0,24538199.72,2722738540.0,2722760070.0,0.008987852913706507,31.92,2013-09-30 00:00:00,2013-10-29 00:00:00,-205.25436289040277,1.5676748949482782,20.03164081728928,2.422707377289772
sz000713,2013-12-05,9.16,9.28,9.11,9.18,-0.003257,4809383.0,44166730.99,2743659690.0,2743681390.0,0.01609169537348854,32.17,2013-09-30 00:00:00,2013-10-29 00:00:00,-206.8314527173727,1.5797202619456134,20.18555567934428,2.4413224610553184
sz000713,2013-12-04,9.08,9.33,9.0,9.21,0.012088,6838732.0,62766343.93,2752625900.0,2752647670.0,0.022881686072924044,32.27,2013-09-30 00:00:00,2013-10-29 00:00:00,-207.50730400652202,1.5848822233470552,20.2515148632539,2.4492998306035947
sz000713,2013-12-03,8.75,9.1,8.68,9.1,0.031745999999999996,4533342.0,40427388.33,2719749810.0,2719771310.0,0.015168090847297457,31.89,2013-09-30 00:00:00,2013-10-29 00:00:00,-205.02891448818875,1.565952983680327,20.009638354820822,2.4200463107986603
sz000713,2013-12-02,9.02,9.25,8.82,8.82,-0.048544,6530417.0,58687983.33,2636065200.0,2636086040.0,0.02185009609777482,30.91,2013-09-30 00:00:00,2013-10-29 00:00:00,-198.72033861840873,1.5177698616523125,19.39395777140965,2.345583419561268
sz000713,2013-11-29,9.18,9.39,9.17,9.27,0.015334,8153142.0,75746335.54,2770558320.0,2770580220.0,0.027279565203305302,32.48,2013-09-30 00:00:00,2013-10-29 00:00:00,-208.85919960398454,1.5952076203758372,20.383452068629186,2.4652568479900996
sz000713,2013-11-28,9.03,9.17,9.02,9.13,0.005507,5926832.0,54074675.42,2728716010.0,2728737590.0,0.01983056351840733,31.99,2013-09-30 00:00:00,2013-10-29 00:00:00,-205.70492035525703,1.5711161257042876,20.07561262464291,2.4280255048979935
sz000713,2013-11-27,9.3,9.31,9.04,9.08,0.003315,6469815.0,58958917.31,2713772330.0,2713793790.0,0.02164732816772437,31.82,2013-09-30 00:00:00,2013-10-29 00:00:00,-204.57830761522007,1.5625113755590843,19.965661725520473,2.4147276000047677
sz000713,2013-11-26,8.95,9.14,8.91,9.05,0.0044399999999999995,4986681.0,44946552.85,2704806130.0,2704827510.0,0.01668491599063331,31.71,2013-09-30 00:00:00,2013-10-29 00:00:00,-203.90237125451137,1.5573487644050812,19.8996942391178,2.4067492263195187
sz000713,2013-11-25,8.96,9.15,8.81,9.01,-0.003319,5518254.0,49334416.07,2692851180.0,2692872470.0,0.018463504002475175,31.57,2013-09-30 00:00:00,2013-10-29 00:00:00,-203.00104660757373,1.550464701132055,19.811730157219742,2.396110495718528
sz000713,2013-11-22,9.1,9.31,8.96,9.04,-0.009858,9102253.0,83451005.56,2701817390.0,2701838750.0,0.030455191910656845,31.68,2013-09-30 00:00:00,2013-10-29 00:00:00,-203.6770507389764,1.5556278298994914,19.877704257650887,2.404089669331038
sz000713,2013-11-21,9.0,9.22,8.92,9.13,0.00884,9779254.0,89293365.37,2728716010.0,2728737590.0,0.03272036690252718,31.99,2013-09-30 00:00:00,2013-10-29 00:00:00,-205.70488954006234,1.5711158903465274,20.075609617257815,2.4280251411727187
sz000713,2013-11-20,9.1,9.18,8.96,9.05,-0.009847,5637373.0,51005224.46,2704806130.0,2704827510.0,0.018862063747984777,31.71,2013-09-30 00:00:00,2013-10-29 00:00:00,-203.90239239132305,1.5573489258420834,19.899696301948588,2.406749475806589
sz000713,2013-11-19,9.09,9.24,8.92,9.14,-0.002183,7568263.0,68610030.22,2731704750.0,2731726350.0,0.025322620909159384,32.03,2013-09-30 00:00:00,2013-10-29 00:00:00,-205.93018694214234,1.5728366483180716,20.09759734298496,2.4306844253429407
sz000713,2013-11-18,8.87,9.18,8.75,9.16,0.030371,11222436.0,101176139.19,2737682220.0,2737703870.0,0.037549103767054455,32.1,2013-09-30 00:00:00,2013-10-29 00:00:00,-206.38071604526917,1.5762776624552113,20.141566382397738,2.436002218185239
sz000713,2013-11-15,8.61,9.0,8.61,8.89,0.002255,10275156.0,90759546.27,2656986350.0,2657007360.0,0.034379603357766596,31.15,2013-09-30 00:00:00,2013-10-29 00:00:00,-200.29748124245455,1.5298156318988125,19.54787778615444,2.3641991265138858
sz000713,2013-11-14,8.7,9.2,8.7,8.87,0.061005,11954570.0,106742807.21,2651008880.0,2651029840.0,0.03999874791064449,31.08,2013-09-30 00:00:00,2013-10-29 00:00:00,-199.8468266483625,1.5263736592970976,19.50389649954796,2.358879852446619
sz000713,2013-11-13,8.37,8.47,8.31,8.36,-0.0011949999999999999,2546267.0,21342590.75,2498583340.0,2498603090.0,0.008519544567202629,29.29,2013-09-30 00:00:00,2013-10-29 00:00:00,-188.3561591588753,1.43861118401619,18.382473691969366,2.2232504582415906
sz000713,2013-11-12,8.37,8.42,8.27,8.37,0.0,1750850.0,14611826.57,2501572070.0,2501591850.0,0.005858162023690966,29.33,2013-09-30 00:00:00,2013-10-29 00:00:00,-188.5815140681868,1.440332381211738,18.4044670300703,2.2259104211949183
sz000713,2013-11-11,8.38,8.52,8.3,8.37,-0.014134,1704110.0,14275534.32,2501572070.0,2501591850.0,0.00570177484432819,29.33,2013-09-30 00:00:00,2013-10-29 00:00:00,-188.5815140681868,1.440332381211738,18.4044670300703,2.2259104211949183
sz000713,2013-11-08,8.64,8.64,8.38,8.49,-0.031927,3155964.0,26810172.68,2537436910.0,2537456970.0,0.010559527314513605,29.75,2013-09-30 00:00:00,2013-10-29 00:00:00,-191.28513821167053,1.4609818993775399,18.66832513756464,2.2578224841864087
sz000713,2013-11-07,8.37,8.95,8.32,8.77,0.041568,5551967.0,48234854.98,2621121520.0,2621142240.0,0.018576304157771364,30.73,2013-09-30 00:00:00,2013-10-29 00:00:00,-197.59371267628634,1.5091650106733068,19.284005583839896,2.332285358838031
sz000713,2013-11-06,8.53,8.58,8.38,8.42,-0.016355,2168436.0,18398871.36,2516515750.0,2516535650.0,0.0072553613542851855,29.5,2013-09-30 00:00:00,2013-10-29 00:00:00,-189.7079333046775,1.4489356534314675,18.514399044363785,2.2392060420808155
sz000713,2013-11-05,8.4,8.59,8.3,8.56,0.016627,3418635.0,28893277.56,2558358060.0,2558378290.0,0.011438397172599054,29.99,2013-09-30 00:00:00,2013-10-29 00:00:00,-192.8621944956539,1.4730270101830105,18.822236726017803,2.2764371720293557
sz000713,2013-11-04,8.45,8.53,8.36,8.42,0.002381,1369547.0,11561797.93,2516515750.0,2516535650.0,0.004582361838983125,29.5,2013-09-30 00:00:00,2013-10-29 00:00:00,-189.70792089493386,1.4489355586493478,18.51439783324445,2.2392058956031615
sz000713,2013-11-01,8.25,8.52,8.2,8.4,0.008403,1807286.0,15111738.52,2510538280.0,2510558130.0,0.006046991006247473,29.43,2013-09-30 00:00:00,2013-10-29 00:00:00,-189.25729926538298,1.445493837821495,18.47041976378687,2.2338870106308497
sz000713,2013-10-31,8.3,8.43,8.19,8.33,-0.003589,2239514.0,18525553.97,2489617130.0,2489636810.0,0.0074931809374239,29.19,2013-09-30 00:00:00,2013-10-29 00:00:00,-187.68022235691782,1.4334485694920533,18.31650616250336,2.2152720793480882
sz000713,2013-10-30,8.22,8.49,8.17,8.36,0.017032,2223956.0,18526784.88,2498583340.0,2498603090.0,0.007441125481930092,29.29,2013-09-30 00:00:00,2013-10-29 00:00:00,-188.35623287671234,1.4386117470522237,18.382480886404664,2.223251328365592
sz000713,2013-10-29,8.68,8.68,8.0,8.22,-0.058419000000000006,5385315.0,44655436.96,2456741030.0,2456760460.0,0.018018703949434996,28.8,2013-09-30 00:00:00,2013-10-29 00:00:00,-185.20187454938718,1.4145196484006637,18.074633724803807,2.186019051874073
sz000713,2013-10-28,8.7,8.82,8.66,8.73,0.010417000000000001,1905861.0,16636673.24,2609166570.0,2609187200.0,0.0063768127038359235,30.59,2013-06-30 00:00:00,2013-07-30 00:00:00,46.945816954232946,1.5452055380666205,18.44121449060027,2.1665378676426603
sz000713,2013-10-25,8.82,8.9,8.6,8.64,-0.02593,2830457.0,24716202.41,2582267950.0,2582288360.0,0.00947041474917427,30.27,2013-06-30 00:00:00,2013-07-30 00:00:00,46.46182413224734,1.5292750795628147,18.251092856316028,2.1442017183426847
sz000713,2013-10-24,8.78,8.95,8.77,8.87,0.001129,2725928.0,24137492.39,2651008880.0,2651029840.0,0.009120671583717968,31.08,2013-06-30 00:00:00,2013-07-30 00:00:00,47.69865013012138,1.5699847850388726,18.736941756050417,2.2012809329336545
sz000713,2013-10-23,9.16,9.16,8.85,8.86,-0.033806,4566264.0,41023155.72,2648020140.0,2648041080.0,0.015278244462294761,31.05,2013-06-30 00:00:00,2013-07-30 00:00:00,47.644859084215305,1.5682142711267706,18.715811604748655,2.198798489439078
sz000713,2013-10-22,9.05,9.4,8.95,9.17,0.01326,7725274.0,71368281.35,2740670960.0,2740692630.0,0.02584796336879492,32.13,2013-06-30 00:00:00,2013-07-30 00:00:00,49.31189707679337,1.6230842575370685,19.3706560015366,2.2757318814224448
sz000713,2013-10-21,9.0,9.09,8.83,9.05,0.012304,5122575.0,46035314.26,2704806130.0,2704827510.0,0.017139603181097494,31.71,2013-06-30 00:00:00,2013-07-30 00:00:00,48.66657824920886,1.601843808634574,19.117162427744702,2.245950576774416
sz000713,2013-10-18,9.1,9.1,8.92,8.94,-0.019737,3927345.0,35224476.28,2671930030.0,2671951150.0,0.013140487926624336,31.33,2013-06-30 00:00:00,2013-07-30 00:00:00,48.07506267801852,1.5823742755482284,18.884803801767752,2.218652279131976
sz000713,2013-10-17,8.98,9.25,8.98,9.12,0.016722,6095828.0,55640175.46,2725727280.0,2725748830.0,0.02039600651463561,31.96,2013-06-30 00:00:00,2013-07-30 00:00:00,49.0430248596739,1.6142344203017236,19.26503785388998,2.2633234949518406
sz000713,2013-10-16,9.4,9.4,8.92,8.97,-0.055789,8942062.0,81635135.69,2680896240.0,2680917430.0,0.029919209458102714,31.43,2013-06-30 00:00:00,2013-07-30 00:00:00,48.23641551935919,1.5876851492361965,18.948186282867866,2.22609867294289
sz000713,2013-10-15,9.55,9.8,9.4,9.5,0.0063560000000000005,20040786.0,192168629.17,2839299250.0,2839321700.0,0.06705438569041287,33.29,2013-06-30 00:00:00,2013-07-30 00:00:00,51.08647910197952,1.6814940190658616,20.067745750545022,2.3576284039720887
sz000713,2013-10-14,8.81,9.6,8.76,9.44,0.067873,16298577.0,150625160.28,2821366830.0,2821389140.0,0.05453334364181208,33.08,2013-06-30 00:00:00,2013-07-30 00:00:00,50.76382423514096,1.670873944276043,19.94100074977942,2.342737961488865
sz000713,2013-10-11,8.7,8.91,8.7,8.84,0.006834000000000001,5743807.0,50683065.04,2642042670.0,2642063560.0,0.019218180863066835,30.98,2013-06-30 00:00:00,2013-07-30 00:00:00,47.53732347867299,1.5646747733822681,18.673569562840733,2.1938357477798065
sz000713,2013-10-10,8.71,8.81,8.64,8.78,0.005727,5491568.0,47954191.91,2624110250.0,2624131000.0,0.01837421542787693,30.77,2013-06-30 00:00:00,2013-07-30 00:00:00,47.214658502467124,1.5540543658460761,18.54682059092237,2.1789448387517765
sz000713,2013-10-09,8.68,8.81,8.62,8.73,-0.001144,5963121.0,51831992.79,2609166570.0,2609187200.0,0.01995198272450655,30.59,2013-06-30 00:00:00,2013-07-30 00:00:00,46.94579990640315,1.5452049769431226,18.441207793886775,2.166537080889522
sz000713,2013-10-08,8.73,8.88,8.58,8.74,-0.021277,6624708.0,57945417.58,2612155310.0,2612175960.0,0.022165583990486383,30.63,2013-06-30 00:00:00,2013-07-30 00:00:00,46.99956741152193,1.5469747160182474,18.462328697917194,2.169018437982574
sz000713,2013-09-30,8.89,8.99,8.81,8.93,0.014773,3448117.0,30703132.85,2668941290.0,2668962390.0,0.011537040895343187,31.29,2013-06-30 00:00:00,2013-07-30 00:00:00,48.021316972751166,1.580605254007771,18.863691461135783,2.2161719280966876
sz000713,2013-09-27,9.01,9.07,8.64,8.8,-0.036145,4870345.0,42887132.43,2630087720.0,2630108520.0,0.016295667887457385,30.84,2013-06-30 00:00:00,2013-07-30 00:00:00,47.32222573201214,1.5575949044838313,18.589075055343194,2.183909039850969
sz000713,2013-09-26,8.99,9.36,8.77,9.13,0.014444,9526776.0,86780405.94,2728716010.0,2728737590.0,0.031875601770665764,31.99,2013-06-30 00:00:00,2013-07-30 00:00:00,49.09683067682603,1.6160054204043466,19.28617380761961,2.265806620135777
sz000713,2013-09-25,8.84,9.1,8.81,9.0,0.019253,8123866.0,72865259.61,2689862450.0,2689883710.0,0.027181610717678144,31.54,2013-06-30 00:00:00,2013-07-30 00:00:00,48.39777324014537,1.5929961835294473,19.01157068070747,2.23354529193901
sz000713,2013-09-24,8.82,8.84,8.75,8.83,0.003409,5652932.0,49691378.65,2639053930.0,2639074800.0,0.01891412259240947,30.94,2013-06-30 00:00:00,2013-07-30 00:00:00,47.48357202789236,1.5629055627302026,18.652454965261292,2.191355131590498
sz000713,2013-09-23,8.85,8.88,8.73,8.8,0.0,10276157.0,90382804.22,2630087720.0,2630108520.0,0.034382952672012024,30.84,2013-06-30 00:00:00,2013-07-30 00:00:00,47.322250476019605,1.5575957189243894,18.589084775262425,2.1839101817808073
sz000713,2013-09-18,8.98,9.03,8.77,8.8,-0.021135,4724889.0,41878289.38,2630087720.0,2630108520.0,0.015808987237885742,30.84,2013-06-30 00:00:00,2013-07-30 00:00:00,47.322250476019605,1.5575957189243894,18.589084775262425,2.1839101817808073
sz000713,2013-09-17,9.4,9.43,8.96,8.99,-0.043617,3876013.0,35560488.1,2686873710.0,2686894950.0,0.012968736394387514,31.5,2013-06-30 00:00:00,2013-07-30 00:00:00,48.344000935797695,1.5912262864893418,18.990447891448184,2.2310637133627287
sz000713,2013-09-16,9.36,9.43,9.35,9.4,0.002132,1815475.0,17038788.68,2809411890.0,2809434100.0,0.006074390537302098,32.94,2013-06-30 00:00:00,2013-07-30 00:00:00,50.54878739563301,1.6637960801157503,19.85653016777607,2.3328140644101043
sz000713,2013-09-13,9.36,9.45,9.32,9.38,0.002137,1878957.0,17607209.15,2803434410.0,2803456580.0,0.006286794724760477,32.87,2013-06-30 00:00:00,2013-07-30 00:00:00,50.441246657758676,1.6602564134422915,19.81428610979,2.3278510858949764
sz000713,2013-09-12,9.45,9.47,9.3,9.36,-0.014737,3588082.0,33715126.38,2797456940.0,2797479060.0,0.01200534922979011,32.8,2013-06-30 00:00:00,2013-07-30 00:00:00,50.333683575956854,1.6567160113260875,19.772033274682002,2.3228870762131084
sz000713,2013-09-11,9.47,9.8,9.25,9.5,0.003168,7976399.0,75910312.29,2839299250.0,2839321700.0,0.026688201499014238,33.29,2013-06-30 00:00:00,2013-07-30 00:00:00,51.08654600442405,1.681496221136983,20.067772031104386,2.357631491503394
sz000713,2013-09-10,9.57,9.57,9.39,9.47,0.0,4370471.0,41267518.48,2830333040.0,2830355420.0,0.014623141441333703,33.18,2013-06-30 00:00:00,2013-07-30 00:00:00,50.92521492354624,1.6761860636872217,20.00439809793014,2.3501861019324717
sz000713,2013-09-09,9.55,9.56,9.45,9.47,-0.002107,3730583.0,35391162.58,2830333040.0,2830355420.0,0.012482142741053541,33.18,2013-06-30 00:00:00,2013-07-30 00:00:00,50.92521492354624,1.6761860636872217,20.00439809793014,2.3501861019324717
sz000713,2013-09-06,9.38,9.53,9.36,9.49,0.008502,3706202.0,34965806.66,2836310510.0,2836332940.0,0.012400566459840815,33.25,2013-06-30 00:00:00,2013-07-30 00:00:00,51.032740908640754,1.679725244777969,20.046636360742223,2.3551483996104507
sz000713,2013-09-05,9.44,9.54,9.37,9.41,-0.01877,3846273.0,36252827.57,2812400620.0,2812422860.0,0.012869229466319774,32.97,2013-06-30 00:00:00,2013-07-30 00:00:00,50.60251829807056,1.665564614426118,19.877636693573464,2.3352937322984495
sz000713,2013-09-04,9.78,9.79,9.34,9.59,-0.022425999999999998,9224937.0,87638915.56,2866197870.0,2866220530.0,0.030865679845753283,33.6,2013-06-30 00:00:00,2013-07-30 00:00:00,51.57049651770793,1.6974252870643154,20.25787704572166,2.3799656882672253
sz000713,2013-09-03,9.89,10.05,9.63,9.81,-0.023881,17751214.0,175168484.88,2931950070.0,2931973250.0,0.05939371584864678,34.37,2013-06-30 00:00:00,2013-07-30 00:00:00,52.753547575639224,1.7363650087505553,20.72260212088462,2.434563202649851
sz000713,2013-09-02,9.42,10.3,9.37,10.05,0.068013,19659714.0,192529459.55,3003679730.0,3003703480.0,0.0657793584737478,35.22,2013-06-30 00:00:00,2013-07-30 00:00:00,54.0441765559724,1.7788456210262842,21.22958586082703,2.494125411604375
sz000713,2013-08-30,9.09,9.47,9.07,9.41,0.028415,7627520.0,71035941.48,2812400620.0,2812422860.0,0.02552088869899339,32.97,2013-06-30 00:00:00,2013-07-30 00:00:00,50.602545620673524,1.665565513740267,19.87764742641431,2.335294993229834
sz000713,2013-08-29,8.85,9.15,8.81,9.15,0.033898000000000005,3865743.0,34794472.5,2734693490.0,2734715110.0,0.01293437402741614,32.06,2013-06-30 00:00:00,2013-07-30 00:00:00,49.20440252298296,1.619546110996307,19.328430085533864,2.2707710342904703
sz000713,2013-08-28,8.88,8.9,8.8,8.85,-0.010067,1391262.0,12313265.17,2645031400.0,2645052320.0,0.0046550179706751306,31.01,2013-06-30 00:00:00,2013-07-30 00:00:00,47.59115746716113,1.5664467007347989,18.69471658280978,2.1963201730639486
sz000713,2013-08-27,8.84,8.94,8.78,8.94,0.013605,1468091.0,13017761.25,2671930030.0,2671951150.0,0.004912079804724527,31.33,2013-06-30 00:00:00,2013-07-30 00:00:00,48.07512979884612,1.5823764848073545,18.884830168112163,2.2186553767416064
sz000713,2013-08-26,8.71,8.83,8.71,8.82,0.013793000000000001,1300033.0,11409102.14,2636065200.0,2636086040.0,0.004349775210415888,30.91,2013-06-30 00:00:00,2013-07-30 00:00:00,47.42984673402964,1.5611372130241603,18.631350642619324,2.1888757225364968
sz000713,2013-08-23,8.89,8.96,8.61,8.7,-0.02027,1977743.0,17313894.85,2600200360.0,2600220920.0,0.006617322405108811,30.49,2013-06-30 00:00:00,2013-07-30 00:00:00,46.784547470765375,1.5398974080745877,18.377864754066486,2.15909532077702
sz000713,2013-08-22,8.97,9.03,8.86,8.88,-0.010033,1117400.0,9990066.14,2653997610.0,2654018600.0,0.003738704195743417,31.12,2013-06-30 00:00:00,2013-07-30 00:00:00,47.75249045223212,1.5717569208604287,18.758091263987513,2.2037656505129166
sz000713,2013-08-21,8.9,9.05,8.9,8.97,0.003356,832679.0,7469537.84,2680896240.0,2680917430.0,0.002786057333572895,31.43,2013-06-30 00:00:00,2013-07-30 00:00:00,48.23644672219591,1.5876861762669146,18.94819853993872,2.2261001129461047
sz000713,2013-08-20,9.02,9.09,8.93,8.94,-0.008869,1191253.0,10711878.62,2671930030.0,2671951150.0,0.003985808647840977,31.33,2013-06-30 00:00:00,2013-07-30 00:00:00,48.075106664230745,1.5823757233393876,18.884821080392918,2.218654309084816
sz000713,2013-08-19,8.9,9.06,8.9,9.02,0.010078,1181267.0,10617793.99,2695839920.0,2695861230.0,0.003952396528054974,31.61,2013-06-30 00:00:00,2013-07-30 00:00:00,48.50530017145135,1.5965353957644224,19.053809315209513,2.238507633284416
sz000713,2013-08-16,9.06,9.21,8.93,8.93,-0.020833,1903778.0,17313771.59,2668941290.0,2668962390.0,0.006369843204756294,31.29,2013-06-30 00:00:00,2013-07-30 00:00:00,48.021341095886996,1.5806060480125517,18.863700937164765,2.2161730413734535
sz000713,2013-08-15,9.33,9.34,9.1,9.12,-0.026681,2706668.0,24894857.59,2725727280.0,2725748830.0,0.009056229631307795,31.96,2013-06-30 00:00:00,2013-07-30 00:00:00,49.0430550619935,1.6142354144007625,19.265049717938577,2.263324888781437
sz000713,2013-08-14,9.2,9.45,9.15,9.37,0.018478,4963665.0,46356551.95,2800445680.0,2800467820.0,0.0166079068707378,32.83,2013-06-30 00:00:00,2013-07-30 00:00:00,50.387442413015165,1.6584854650949612,19.793150773732535,2.325368033277309
sz000713,2013-08-13,9.26,9.27,9.13,9.2,-0.008621,3419634.0,31396795.86,2749637170.0,2749658910.0,0.01144173971142527,32.24,2013-06-30 00:00:00,2013-07-30 00:00:00,49.47327523325508,1.6283959644636028,19.434048426900272,2.2831794435199475
sz000713,2013-08-12,9.05,9.37,8.96,9.28,0.031111,3331803.0,30715297.4,2773547050.0,2773568980.0,0.011147866354024892,32.52,2013-06-30 00:00:00,2013-07-30 00:00:00,49.90349324855084,1.6425564435635645,19.603046288957376,2.303033898761168
sz000713,2013-08-09,9.06,9.09,8.9,9.0,-0.007718000000000001,1711018.0,15385176.24,2689862450.0,2689883710.0,0.005724888274491508,31.54,2013-06-30 00:00:00,2013-07-30 00:00:00,48.39778961581327,1.5929967225289656,19.01157711338292,2.233546047672043
sz000713,2013-08-08,8.92,9.18,8.91,9.07,0.014541,1497723.0,13568483.24,2710783600.0,2710805030.0,0.005011225392539633,31.78,2013-06-30 00:00:00,2013-07-30 00:00:00,48.77422911613158,1.6053871001680629,19.15944974652661,2.25091863771795
sz000713,2013-08-07,9.19,9.29,8.92,8.94,-0.031419,2673764.0,24281199.95,2671930030.0,2671951150.0,0.008946136272887355,31.33,2013-06-30 00:00:00,2013-07-30 00:00:00,48.0751680968355,1.5823777453726002,18.88484521229464,2.2186571441843657
sz000713,2013-08-06,9.37,9.37,9.21,9.23,-0.015991,1911063.0,17711464.19,2758603370.0,2758625180.0,0.006394218060423816,32.34,2013-06-30 00:00:00,2013-07-30 00:00:00,49.63463881372388,1.633707191626307,19.497435126535247,2.290626332938975
sz000713,2013-08-05,9.18,9.39,9.13,9.38,0.020675,1753364.0,16251829.57,2803434410.0,2803456580.0,0.0058665736074774094,32.87,2013-06-30 00:00:00,2013-07-30 00:00:00,50.4412447586596,1.6602563509340937,19.814285363787572,2.3278509982520226
sz000713,2013-08-02,9.12,9.23,9.04,9.19,0.009890000000000001,1978599.0,18068372.67,2746648430.0,2746670150.0,0.006620186483058554,32.2,2013-06-30 00:00:00,2013-07-30 00:00:00,49.41949666510849,1.6266258612526945,19.41292317710101,2.280697575870892
sz000713,2013-08-01,8.88,9.12,8.88,9.1,0.020179,2753127.0,24961430.96,2719749810.0,2719771310.0,0.009211676606386084,31.89,2013-06-30 00:00:00,2013-07-30 00:00:00,48.93552432948983,1.6106960770506633,19.2228095902534,2.258362372011696
sz000713,2013-07-31,8.84,8.95,8.8,8.92,0.0045049999999999995,1304614.0,11612491.66,2665952560.0,2665973630.0,0.004365102760868333,31.26,2013-06-30 00:00:00,2013-07-30 00:00:00,47.96758640345453,1.5788367306626225,18.842585066202506,2.213692275582713
sz000713,2013-07-30,8.7,8.9,8.6,8.88,0.006803,1948359.0,17053023.01,2653997610.0,2654018600.0,0.00651900659398107,31.12,2013-06-30 00:00:00,2013-07-30 00:00:00,47.75246156410822,1.5717559700176928,18.758079916180115,2.2037643173331274
sz000713,2013-07-29,8.92,9.01,8.81,8.82,-0.014525,2013699.0,17969800.33,2636065200.0,2636086040.0,0.006737627422872545,30.91,2013-03-31 00:00:00,2013-04-23 00:00:00,41.88097486455917,1.4689823606007169,25.02851810337765,2.1771546998544045
sz000713,2013-07-26,8.73,8.95,8.67,8.95,0.017044999999999998,1972221.0,17424238.09,2674918760.0,2674939910.0,0.0065988463701978,31.36,2013-03-31 00:00:00,2013-04-23 00:00:00,42.49826212187947,1.4906338167895856,25.397415564451304,2.209243968496821
sz000713,2013-07-25,8.96,8.96,8.79,8.8,-0.01676,1837871.0,16230638.65,2630087720.0,2630108520.0,0.006149325239996179,30.84,2013-03-31 00:00:00,2013-04-23 00:00:00,41.78601942085106,1.4656517821626238,24.971771715559594,2.1722185040945297
sz000713,2013-07-24,8.91,9.0,8.8,8.95,-0.00223,2520939.0,22417651.51,2674918760.0,2674939910.0,0.008434799735749732,31.36,2013-03-31 00:00:00,2013-04-23 00:00:00,42.498290774227115,1.4906348217755827,25.397432687400425,2.209245457970109
sz000713,2013-07-23,8.71,8.97,8.67,8.97,0.031034,5683366.0,50527370.82,2680896240.0,2680917430.0,0.019015951553574488,31.43,2013-03-31 00:00:00,2013-04-23 00:00:00,42.59327377474479,1.4939663667734875,25.454195543462344,2.2141830862524516
sz000713,2013-07-22,8.37,8.73,8.35,8.7,0.030806,2086589.0,17853828.99,2600200360.0,2600220920.0,0.0069815098018061955,30.49,2013-03-31 00:00:00,2013-04-23 00:00:00,41.31122133192969,1.4489981579399782,24.6880273041067,2.14753644036225
sz000713,2013-07-19,8.61,8.66,8.38,8.44,-0.019744,2392710.0,20402212.26,2522493230.0,2522513170.0,0.00800575881030214,29.57,2013-03-31 00:00:00,2013-04-23 00:00:00,40.076620947035316,1.4056943381586624,23.950216921619294,2.083356558229434
sz000713,2013-07-18,8.5,8.65,8.44,8.61,0.002328,2699698.0,23071442.19,2573301740.0,2573322080.0,0.009032908740814825,30.17,2013-03-31 00:00:00,2013-04-23 00:00:00,40.88383131246869,1.4340073798667514,24.4326144615481,2.1253188536764207
sz000713,2013-07-17,8.49,8.66,8.41,8.59,0.008216,3396935.0,29028901.43,2567324270.0,2567344570.0,0.011365791221223488,30.1,2013-03-31 00:00:00,2013-04-23 00:00:00,40.78887481190657,1.4306767643593226,24.375867442142784,2.1203826029766906
sz000713,2013-07-16,8.53,8.55,8.38,8.52,0.001175,2641238.0,22385199.68,2546403110.0,2546423250.0,0.008837307679851207,29.85,2013-03-31 00:00:00,2013-04-23 00:00:00,40.456484336597086,1.4190181115547886,24.177227342298462,2.1031035045830366
sz000713,2013-07-15,8.41,8.55,8.38,8.51,0.00949,2886788.0,24487487.99,2543414380.0,2543434490.0,0.009658892421611612,29.82,2013-03-31 00:00:00,2013-04-23 00:00:00,40.409003757182404,1.4173527221063138,24.148852440680663,2.1006352581547048
sz000713,2013-07-12,8.4,8.52,8.3,8.43,0.013221,5323617.0,44748300.8,2519504490.0,2519524410.0,0.017812268836242477,29.54,2013-03-31 00:00:00,2013-04-23 00:00:00,40.02912733873777,1.4040284917198917,23.92183423380188,2.0808876345032687
sz000713,2013-07-11,8.04,8.35,8.0,8.32,0.034825999999999996,3309032.0,27271539.92,2486628390.0,2486648050.0,0.011071676954512692,29.15,2013-03-31 00:00:00,2013-04-23 00:00:00,39.50680783238581,1.3857080456483748,23.609690515496506,2.053735201405487
sz000713,2013-07-10,7.82,8.05,7.75,8.04,0.029449,2510575.0,19951308.59,2402943780.0,2402962780.0,0.008400122869291598,28.17,2013-03-31 00:00:00,2013-04-23 00:00:00,38.17724702740926,1.3390734728817937,22.81513077125672,1.9846188648192906
sz000713,2013-07-09,7.92,7.97,7.7,7.81,-0.021303,1655840.0,12962667.54,2334202860.0,2334221310.0,0.005540268423799292,27.37,2013-03-31 00:00:00,2013-04-23 00:00:00,37.085127118885204,1.30076718019231,22.1624682439409,1.927845735747269
sz000713,2013-07-08,8.1,8.3,7.84,7.98,-0.022059,2418890.0,19495692.74,2385011370.0,2385030220.0,0.008093354372562173,27.96,2013-03-31 00:00:00,2013-04-23 00:00:00,37.89234780415716,1.3290805838705035,22.644871951115515,1.9698085676642199
sz000713,2013-07-05,8.21,8.24,8.09,8.16,-0.008505,2063307.0,16844113.35,2438808620.0,2438827900.0,0.006903610632637505,28.59,2013-03-31 00:00:00,2013-04-23 00:00:00,38.74706940823338,1.3590600904047416,23.155662714944476,2.014240703339179
sz000713,2013-07-04,8.15,8.29,7.81,8.23,0.0,2210481.0,17825635.36,2459729770.0,2459749220.0,0.007396039537302506,28.84,2013-03-31 00:00:00,2013-04-23 00:00:00,39.079440045823105,1.3707180473978604,23.354290959555495,2.0315187704821294
sz000713,2013-07-03,8.29,8.46,8.16,8.23,0.009816,2306439.0,19167394.77,2459729770.0,2459749220.0,0.007717105025728091,28.84,2013-03-31 00:00:00,2013-04-23 00:00:00,39.079440045823105,1.3707180473978604,23.354290959555495,2.0315187704821294
sz000713,2013-07-02,8.15,8.18,8.08,8.15,0.0,1533069.0,12473686.69,2435819880.0,2435839140.0,0.005129489439095965,28.56,2013-03-31 00:00:00,2013-04-23 00:00:00,38.69956511465763,1.3573938691780092,23.127273641490625,2.011771224145913
sz000713,2013-07-01,8.14,8.19,8.0,8.15,0.00246,1189299.0,9619096.73,2435819880.0,2435839140.0,0.003979270770218034,28.56,2013-03-31 00:00:00,2013-04-23 00:00:00,38.69956511465763,1.3573938691780092,23.127273641490625,2.011771224145913
sz000713,2013-06-28,8.22,8.27,8.03,8.13,-0.022837,1787879.0,14538458.45,2429842410.0,2429861620.0,0.0059820571944005215,28.49,2013-03-31 00:00:00,2013-04-23 00:00:00,38.604597804059644,1.3540628745067227,23.07052016189237,2.006834411493639
sz000713,2013-06-27,8.43,8.66,8.28,8.32,-0.009524,2439160.0,20723120.76,2486628390.0,2486648050.0,0.008161175703459252,29.15,2013-03-31 00:00:00,2013-04-23 00:00:00,39.506814936770674,1.3857082948358899,23.609694761152817,2.053735570722222
sz000713,2013-06-26,8.09,8.42,7.99,8.4,0.047087000000000004,3762126.0,31113295.34,2510538280.0,2510558130.0,0.0125876823515314,29.43,2013-03-31 00:00:00,2013-04-23 00:00:00,39.88669582783497,1.3990326821002121,23.836715640916907,2.0734834268798257
sz000713,2013-06-25,7.98,8.17,7.35,8.07,0.002484,2738523.0,21631315.49,2411909990.0,2411929060.0,0.009162813165345363,28.11,2013-03-31 00:00:00,2013-04-23 00:00:00,38.09301025400465,1.3361188536389164,22.764789975347707,1.980239872025749
sz000713,2013-06-24,8.78,8.81,7.9,8.05,-0.08314400000000001,2208195.0,18405615.55,2405932520.0,2405951540.0,0.0073883908223660415,28.04,2013-03-31 00:00:00,2013-04-23 00:00:00,37.99862167775711,1.332808158174012,22.708382353581413,1.975333144494824
sz000713,2013-06-21,8.88,8.88,8.65,8.78,-0.015694999999999997,1036468.0,9080721.44,2624110250.0,2624131000.0,0.0034679141396593374,30.58,2013-03-31 00:00:00,2013-04-23 00:00:00,41.44448166097741,1.453672286786597,24.767665100715284,2.154463890179945
sz000713,2013-06-20,9.09,9.14,8.91,8.92,-0.020856,1265955.0,11411796.95,2665952560.0,2665973630.0,0.004235753767501399,31.07,2013-03-31 00:00:00,2013-04-23 00:00:00,42.10532473265645,1.4768514706179456,25.162591981870744,2.188817378942447
sz000713,2013-06-19,9.25,9.25,9.0,9.11,-0.018319,1239831.0,11282592.49,2722738540.0,2722760070.0,0.004148345588115119,31.73,2013-03-31 00:00:00,2013-04-23 00:00:00,43.002178160369105,1.5083087580763865,25.69856117370963,2.235439709524285
sz000713,2013-06-18,9.21,9.28,9.16,9.28,0.0076,1007918.0,9296213.67,2773547050.0,2773568980.0,0.0033723888116482465,32.33,2013-03-31 00:00:00,2013-04-23 00:00:00,43.80463527395265,1.5364550786624032,26.178118119541512,2.277154910326557
sz000713,2013-06-17,9.22,9.3,9.18,9.21,0.0,945300.0,8727083.19,2752625900.0,2752647670.0,0.0031628754928157876,32.08,2013-03-31 00:00:00,2013-04-23 00:00:00,43.47423111745995,1.524866096330293,25.980665065047152,2.2599790693991237
sz000713,2013-06-14,9.13,9.24,9.13,9.21,0.012088,985879.0,9064719.76,2752625900.0,2752647670.0,0.0032986486067721737,32.08,2013-03-31 00:00:00,2013-04-23 00:00:00,43.47423111745995,1.524866096330293,25.980665065047152,2.2599790693991237
sz000713,2013-06-13,9.39,9.39,9.06,9.1,-0.03397,1943463.0,17765363.12,2719749810.0,2719771310.0,0.0065026250705023485,31.7,2013-03-31 00:00:00,2013-04-23 00:00:00,42.95499118402742,1.5066536668059425,25.670361732425587,2.2329867258569647
sz000713,2013-06-07,9.62,9.7,9.31,9.42,-0.022822,2198874.0,20883160.52,2815389360.0,2815411620.0,0.007357203722614054,32.81,2013-03-31 00:00:00,2013-04-23 00:00:00,44.465483664096794,1.5596344490398255,26.57304817906855,2.31150867556594
sz000713,2013-06-06,9.77,9.85,9.63,9.64,-0.018330000000000003,1469302.0,14313359.66,2881141550.0,2881164330.0,0.004916131690926467,33.58,2013-03-31 00:00:00,2013-04-23 00:00:00,45.50397539045782,1.596059724062377,27.193661931673194,2.3654939791582903
sz000713,2013-06-05,9.75,9.84,9.71,9.82,0.005118,1450743.0,14197207.11,2934938800.0,2934962010.0,0.004854035205095248,34.21,2013-03-31 00:00:00,2013-04-23 00:00:00,46.35363756706207,1.6258617703121998,27.701429127581772,2.4096631038518956
sz000713,2013-06-04,10.1,10.1,9.75,9.77,-0.032673,2916563.0,28818149.28,2919995120.0,2920018210.0,0.00975851648341111,34.03,2013-03-31 00:00:00,2013-04-23 00:00:00,46.11760765110372,1.6175829806173998,27.56037512767831,2.397393245222845
sz000713,2013-06-03,10.13,10.16,10.04,10.1,0.001984,2081791.0,21016397.98,3018623410.0,3018647280.0,0.006965456184546054,35.18,2013-03-31 00:00:00,2013-04-23 00:00:00,47.67530282014636,1.6722194052449686,28.491270405641846,2.4783689954098715
sz000713,2013-05-31,10.23,10.26,10.08,10.08,-0.016585,3031070.0,30799733.34,3012645940.0,3012669760.0,0.01014164498865738,35.11,2013-03-31 00:00:00,2013-04-23 00:00:00,47.58090230996339,1.6689082911952373,28.434855652028222,2.473461647501229
sz000713,2013-05-30,10.15,10.28,10.12,10.25,0.006876,3777384.0,38608233.12,3063454450.0,3063478670.0,0.012638734027855383,35.7,2013-03-31 00:00:00,2013-04-23 00:00:00,48.38334000392854,1.6970539306348154,28.91440099248864,2.51517583878752
sz000713,2013-05-29,10.23,10.24,10.14,10.18,-0.003914,2743683.0,27934283.68,3042533300.0,3042557350.0,0.009180077976467834,35.46,2013-03-31 00:00:00,2013-04-23 00:00:00,48.05292807051567,1.6854646755258993,28.71694329042369,2.49799959358205
sz000713,2013-05-28,10.14,10.25,10.04,10.22,0.007890000000000001,4324092.0,43925793.83,3054488240.0,3054512390.0,0.014467962148710059,35.6,2013-03-31 00:00:00,2013-04-23 00:00:00,48.24174626539843,1.6920875060244789,28.829783061325713,2.5078151822052006
sz000713,2013-05-27,10.0,10.15,9.94,10.14,0.015015,3338052.0,33623532.09,3030578350.0,3030602320.0,0.01116877485777591,35.32,2013-03-31 00:00:00,2013-04-23 00:00:00,47.86409852801242,1.6788414470075892,28.604096738062402,2.4881834150603743
sz000713,2013-05-24,9.96,10.04,9.92,9.99,0.003012,2293336.0,22877231.88,2985747310.0,2985770920.0,0.007673263763235208,34.8,2013-03-31 00:00:00,2013-04-23 00:00:00,47.156050430794046,1.6540065388271001,28.18095962922952,2.451376004354984
sz000713,2013-05-23,10.08,10.14,9.95,9.96,-0.013861000000000002,2694197.0,27054189.3,2976781110.0,2976804640.0,0.009014502957525152,34.69,2013-03-31 00:00:00,2013-04-23 00:00:00,47.01444292869282,1.6490396314571512,28.096333472809416,2.444014632282549
sz000713,2013-05-22,10.2,10.24,10.07,10.1,-0.007859,3502266.0,35525145.2,3018623410.0,3018647280.0,0.011718217808428114,35.18,2013-03-31 00:00:00,2013-04-23 00:00:00,47.67526984400051,1.6722182486010098,28.491250698744718,2.478367281166802
sz000713,2013-05-21,10.26,10.26,10.06,10.18,-0.007797,4445712.0,45047619.21,3042533300.0,3042557350.0,0.014874890000382248,35.46,2013-03-31 00:00:00,2013-04-23 00:00:00,48.05291772439654,1.6854643126340003,28.71693710747234,2.497999055745909
sz000713,2013-05-20,10.16,10.3,10.07,10.26,0.015842,5710588.0,58490682.63,3066443190.0,3066467430.0,0.01910703354005394,35.74,2013-03-31 00:00:00,2013-04-23 00:00:00,48.43053057126066,1.6987091478598637,28.94260257978694,2.5176290091300966
sz000713,2013-05-17,10.01,10.13,9.96,10.1,0.008990999999999999,3804427.0,38221286.91,3018623410.0,3018647280.0,0.012729217090382267,35.18,2013-03-31 00:00:00,2013-04-23 00:00:00,47.67525911633962,1.6722178723264678,28.49124428777993,2.4783667234964657
sz000713,2013-05-16,9.98,10.04,9.86,10.01,0.001,2586589.0,25799777.03,2991724790.0,2991748440.0,0.008654457781860343,34.87,2013-03-31 00:00:00,2013-04-23 00:00:00,47.25043049575231,1.6573169357570763,28.23736216455839,2.456282289432181
sz000713,2013-05-15,9.99,10.09,9.91,10.0,0.005025,2028455.0,20281236.06,2988736050.0,2988759680.0,0.006786999474242631,34.83,2013-03-31 00:00:00,2013-04-23 00:00:00,47.203227268483836,1.655661274482594,28.209153011546853,2.4538284609712107
sz000713,2013-05-14,10.01,10.01,9.81,9.95,-0.008964,1521403.0,15060996.32,2973792370.0,2973815880.0,0.005090456214332139,34.66,2013-03-31 00:00:00,2013-04-23 00:00:00,46.96721700304354,1.6473831740330775,28.06811075500296,2.4415596238613073
sz000713,2013-05-13,9.95,10.04,9.87,10.04,0.01006,2173878.0,21620997.24,3000690990.0,3000714720.0,0.007273569718686694,34.97,2013-03-31 00:00:00,2013-04-23 00:00:00,47.392039242816146,1.6622838867943017,28.321989064981455,2.4636437262231716
sz000713,2013-05-10,9.94,9.98,9.81,9.94,0.0,2268897.0,22474968.82,2970803630.0,2970827120.0,0.0075914934101517844,34.62,2013-03-31 00:00:00,2013-04-23 00:00:00,46.9200238033544,1.6457278644776563,28.039907594579976,2.439106316677397
sz000713,2013-05-09,10.15,10.21,9.86,9.94,-0.014865999999999999,2777781.0,27761552.81,2970803630.0,2970827120.0,0.009294166353230153,34.62,2013-03-31 00:00:00,2013-04-23 00:00:00,46.9200238033544,1.6457278644776563,28.039907594579976,2.439106316677397
sz000713,2013-05-08,10.13,10.22,10.01,10.09,-0.0049310000000000005,2948262.0,29784956.31,3015634670.0,3015658520.0,0.00986457805248671,35.15,2013-03-31 00:00:00,2013-04-23 00:00:00,47.62806258169386,1.6705624457968729,28.463039134351245,2.475913242947048
sz000713,2013-05-07,10.0,10.3,9.92,10.14,0.004954999999999999,3891728.0,39367431.29,3030578350.0,3030602320.0,0.01302131717531738,35.32,2013-03-31 00:00:00,2013-04-23 00:00:00,47.86408036195868,1.6788408098301453,28.60408588183457,2.4881824707101194
sz000713,2013-05-06,10.05,10.25,9.95,10.09,0.019191999999999997,4576134.0,46263173.11,3015634670.0,3015658520.0,0.015311268476695157,35.15,2013-03-31 00:00:00,2013-04-23 00:00:00,47.62808320965484,1.6705631693261342,28.463051461841147,2.4759143152779175
sz000713,2013-05-03,9.72,10.05,9.69,9.9,0.018519,3050395.0,30200842.83,2958848690.0,2958872080.0,0.010206304432552785,34.48,2013-03-31 00:00:00,2013-04-23 00:00:00,46.73121767994139,1.6391054573879444,27.92707503771727,2.429291355581595
sz000713,2013-05-02,9.62,9.8,9.61,9.72,0.0125,1626317.0,15788075.24,2905051440.0,2905074410.0,0.005441487549012213,33.86,2013-03-31 00:00:00,2013-04-23 00:00:00,45.881537487215645,1.609302779219577,27.419297075181976,2.385121294331863
sz000713,2013-04-26,9.78,9.84,9.56,9.6,-0.020408000000000003,2389778.0,23080315.53,2869186610.0,2869209290.0,0.007995948649711563,33.44,2013-03-31 00:00:00,2013-04-23 00:00:00,45.31509875280558,1.5894348436736565,27.080787234747632,2.3556753524265317
sz000713,2013-04-25,9.53,10.03,9.5,9.8,0.033755,6753075.0,66514704.3,2928961330.0,2928984490.0,0.02259508663434625,34.14,2013-03-31 00:00:00,2013-04-23 00:00:00,46.25915560029643,1.6225477991588912,27.644965694643926,2.4047515214768307
sz000713,2013-04-24,9.36,9.54,9.36,9.48,0.012821,1241608.0,11753526.13,2833321780.0,2833344180.0,0.0041542912362040295,33.02,2013-03-31 00:00:00,2013-04-23 00:00:00,44.748664432381396,1.5695670629490461,26.74228003215842,2.3262296399793287
sz000713,2013-04-23,9.78,9.78,9.36,9.36,-0.036045,2147412.0,20432448.22,2797456940.0,2797479060.0,0.007185017232115108,32.6,2013-03-31 00:00:00,2013-04-23 00:00:00,44.18220438989851,1.5496983800188249,26.403757457792068,2.2967825903879646
sz000713,2013-04-22,9.5,9.76,9.47,9.71,0.007261,3082839.0,29694981.28,2902062700.0,2902085650.0,0.010314858700330632,33.82,2012-09-30 00:00:00,2012-10-30 00:00:00,69.23126709075058,1.740193965992092,-47.84387430732606,2.5278322008929273
sz000713,2013-04-19,9.43,9.66,9.4,9.64,0.023355,2045405.0,19576458.25,2881141550.0,2881164330.0,0.006843712416698167,33.58,2012-09-30 00:00:00,2012-10-30 00:00:00,68.732202567905,1.7276495029511636,-47.49898418317205,2.5096099232402795
sz000713,2013-04-18,9.4,9.48,9.3,9.42,-0.004228,1359075.0,12790161.5,2815389360.0,2815411620.0,0.00454732360713333,32.81,2012-09-30 00:00:00,2012-10-30 00:00:00,67.16359676544798,1.688221099179819,-46.414962728644554,2.452335624724831
sz000713,2013-04-17,9.52,9.54,9.32,9.46,-0.008386,1868350.0,17617149.34,2827344300.0,2827366660.0,0.00625130480217779,32.95,2012-09-30 00:00:00,2012-10-30 00:00:00,67.4487701657086,1.6953892047374488,-46.61203842711439,2.4627481237922244
sz000713,2013-04-16,9.31,9.55,9.28,9.54,0.014894,1565914.0,14753323.47,2851254190.0,2851276730.0,0.0052393853948181305,33.23,2012-09-30 00:00:00,2012-10-30 00:00:00,68.01917900080937,1.7097269751510655,-47.006232694490386,2.4835753869875017
sz000713,2013-04-15,9.7,9.77,9.3,9.4,-0.038855,2708514.0,25466030.92,2809411890.0,2809434100.0,0.009062406153623847,32.74,2012-09-30 00:00:00,2012-10-30 00:00:00,67.02096869309443,1.6846360064706911,-46.316396288174325,2.447127864572558
sz000713,2013-04-12,10.19,10.19,9.7,9.78,-0.024925,2239889.0,22073907.08,2922983860.0,2923006970.0,0.007494435641529679,34.07,2012-09-30 00:00:00,2012-10-30 00:00:00,69.73034109639485,1.7527386673922158,-48.18877098478827,2.5460548247897643
sz000713,2013-04-11,10.28,10.28,10.01,10.03,-0.009872,1222803.0,12357575.94,2997702260.0,2997725960.0,0.004091371666110696,34.94,2012-09-30 00:00:00,2012-10-30 00:00:00,71.51279757597605,1.797542412011605,-49.42057891422534,2.6111374251106474
sz000713,2013-04-10,10.14,10.21,10.07,10.13,0.003964,1660280.0,16817810.41,3027589620.0,3027613560.0,0.00555512421131897,35.29,2012-09-30 00:00:00,2012-10-30 00:00:00,72.22581077999618,1.8154646793259104,-49.913323241263086,2.637171582977804
sz000713,2013-04-09,10.12,10.14,10.0,10.09,0.009,1614437.0,16224969.29,3015634670.0,3015658520.0,0.005401738311358518,35.15,2012-09-30 00:00:00,2012-10-30 00:00:00,71.940638090605,1.8082965916366625,-49.71624803405608,2.6267591098662937
sz000713,2013-04-08,10.08,10.09,9.71,10.0,-0.014778,1702844.0,16813788.9,2988736050.0,2988759680.0,0.005697538931214752,34.83,2012-09-30 00:00:00,2012-10-30 00:00:00,71.29894756254214,1.7921670878460483,-49.27279289797432,2.603329147538448
sz000713,2013-04-03,10.29,10.32,10.06,10.15,-0.011685,1825055.0,18474381.85,3033567090.0,3033591080.0,0.006106444228995114,35.36,2012-09-30 00:00:00,2012-10-30 00:00:00,72.36840789440566,1.819048993877571,-50.0118682875274,2.6423782127667144
sz000713,2013-04-02,10.47,10.47,10.23,10.27,-0.0038799999999999998,1115259.0,11521442.47,3069431920.0,3069456190.0,0.0037315406330953906,35.77,2012-09-30 00:00:00,2012-10-30 00:00:00,73.22403069305399,1.8405558894457443,-50.60316628557433,2.6736194561113757
sz000713,2013-04-01,10.27,10.38,10.21,10.31,0.0038950000000000005,1087330.0,11200652.23,3081386870.0,3081411230.0,0.003638093096697073,35.91,2012-09-30 00:00:00,2012-10-30 00:00:00,73.5092465697446,1.8477250626889776,-50.800271338367196,2.6840335061151026
sz000713,2013-03-29,10.28,10.36,10.26,10.27,-0.0019440000000000002,1166584.0,12022489.3,3069431920.0,3069456190.0,0.0039032687455729594,35.77,2012-09-30 00:00:00,2012-10-30 00:00:00,73.22403893808078,1.8405560966923609,-50.60317198349149,2.6736197571609606
sz000713,2013-03-28,10.58,10.58,10.22,10.29,-0.031073000000000003,2220200.0,22981001.14,3075409400.0,3075433710.0,0.0074285582921090115,35.84,2012-09-30 00:00:00,2012-10-30 00:00:00,73.36666373237651,1.8441411070043772,-50.70173615858378,2.6788273976219372
sz000713,2013-03-27,10.69,10.83,10.6,10.62,-0.008403,2441861.0,26138174.7,3174037690.0,3174062780.0,0.008170212944131738,36.99,2012-09-30 00:00:00,2012-10-30 00:00:00,75.71949561976962,1.9032817818105774,-52.327715254692855,2.76473604061187
sz000713,2013-03-26,10.71,10.85,10.47,10.71,0.000935,3649149.0,38980508.47,3200936310.0,3200961620.0,0.012209673047196619,37.31,2012-09-30 00:00:00,2012-10-30 00:00:00,76.3611584340913,1.9194105889898592,-52.771151238550395,2.788164991031508
sz000713,2013-03-25,10.7,10.7,10.47,10.7,0.010387,2959235.0,31333496.99,3197947570.0,3197972860.0,0.009901292565593875,37.27,2012-09-30 00:00:00,2012-10-30 00:00:00,76.28982744542982,1.9176176165184147,-52.721856302907184,2.785560491971515
sz000713,2013-03-22,11.0,11.0,10.57,10.59,-0.016713,3725655.0,39834598.2,3165071480.0,3165096500.0,0.012465654156411026,36.89,2012-09-30 00:00:00,2012-10-30 00:00:00,75.50555128424043,1.8979040867691437,-52.17986405496823,2.7569243190693418
sz000713,2013-03-21,10.52,10.88,10.52,10.77,0.032598,6316462.0,67737899.62,3218868730.0,3218894180.0,0.021134224923797996,37.52,2012-09-30 00:00:00,2012-10-30 00:00:00,76.78892458075865,1.930162899305232,-53.066768964674836,2.8037839603994987
sz000713,2013-03-20,10.21,10.44,10.21,10.43,0.020548,2399951.0,24862211.28,3117251700.0,3117276350.0,0.008029986455697498,36.33,2012-09-30 00:00:00,2012-10-30 00:00:00,74.36478143552345,1.869229747980562,-51.391508568363335,2.7152715387784006
sz000713,2013-03-19,10.35,10.35,10.05,10.22,-0.000978,1589759.0,16197233.09,3054488240.0,3054512390.0,0.005319168287254562,35.6,2012-09-30 00:00:00,2012-10-30 00:00:00,72.86750004460687,1.8315941513584484,-50.35677750420689,2.6606014991733855
sz000713,2013-03-18,10.44,10.44,10.2,10.23,-0.014450999999999999,1915501.0,19757620.97,3057476980.0,3057501150.0,0.006409067135478483,35.63,2012-09-30 00:00:00,2012-10-30 00:00:00,72.93883422447841,1.8333872040440036,-50.40607464520991,2.663206114753615
sz000713,2013-03-15,10.39,10.51,10.3,10.38,0.0,1937119.0,20175887.46,3102308020.0,3102332550.0,0.006481398716817294,36.16,2012-09-30 00:00:00,2012-10-30 00:00:00,74.00832858079956,1.8602699653127381,-51.14517354815429,2.7022564223124523
sz000713,2013-03-14,10.35,10.54,10.34,10.38,-0.003839,1597751.0,16656749.58,3102308020.0,3102332550.0,0.005345908682529855,36.16,2012-09-30 00:00:00,2012-10-30 00:00:00,74.00832858079956,1.8602699653127381,-51.14517354815429,2.7022564223124523
sz000713,2013-03-13,10.6,10.64,10.26,10.42,-0.02343,2661535.0,27696591.09,3114262960.0,3114287590.0,0.008905219326758458,36.3,2012-09-30 00:00:00,2012-10-30 00:00:00,74.29354148656648,1.8674390638789695,-51.34227654782138,2.7126703638392313
sz000713,2013-03-12,11.12,11.18,10.5,10.67,-0.040468000000000004,4424702.0,47685478.89,3188981370.0,3189006580.0,0.01480459270917597,37.17,2012-09-30 00:00:00,2012-10-30 00:00:00,76.07600221854705,1.9122429153864744,-52.574087415977736,2.7777531194274157
sz000713,2013-03-11,11.19,11.23,11.05,11.12,-0.0035840000000000004,2856368.0,31727400.28,3323474490.0,3323500760.0,0.009557110263843186,38.73,2012-09-30 00:00:00,2012-10-30 00:00:00,79.28448683165026,1.9928912380061055,-54.79138519192453,2.8949040984849024
sz000713,2013-03-08,11.39,11.4,11.1,11.16,-0.015872999999999998,3719472.0,41733247.3,3335429430.0,3335455800.0,0.012444966500160672,38.87,2012-09-30 00:00:00,2012-10-30 00:00:00,79.56966450925142,2.000059451078772,-54.98846384634986,2.905316753730272
sz000713,2013-03-07,11.62,11.62,11.28,11.34,-0.024096,5617554.0,64228580.52,3389226680.0,3389253480.0,0.01879575147213228,39.5,2012-09-30 00:00:00,2012-10-30 00:00:00,80.85304489080315,2.0323184417039384,-55.875373652333344,2.95217665375533
sz000713,2013-03-06,11.45,11.65,11.35,11.62,0.015734,7960897.0,91433357.4,3472911290.0,3472938750.0,0.026636333443460915,40.48,2012-09-30 00:00:00,2012-10-30 00:00:00,82.84938363896771,2.082498321252847,-57.254989888691256,3.0250687093764657
sz000713,2013-03-05,11.24,11.48,11.17,11.44,0.010601000000000001,5456027.0,61793014.31,3419114040.0,3419141070.0,0.0182552989311816,39.85,2012-09-30 00:00:00,2012-10-30 00:00:00,81.566023820181,2.0502398474924024,-56.36809429308388,2.978209560156957
sz000713,2013-03-04,11.57,11.66,11.28,11.32,-0.015652000000000003,10047331.0,115198586.58,3383249210.0,3383275960.0,0.03361732460731144,39.43,2012-09-30 00:00:00,2012-10-30 00:00:00,80.71041273477961,2.0287332463478687,-55.77680438974816,2.946968744496549
sz000713,2013-03-01,11.23,11.5,11.22,11.5,0.018601,6647893.0,75837080.05,3437046460.0,3437073630.0,0.0222431585926249,40.06,2012-09-30 00:00:00,2012-10-30 00:00:00,81.99377936947054,2.060991891432571,-56.663704695644384,2.993828142584278
sz000713,2013-02-28,11.2,11.32,11.07,11.29,0.012556,4732762.0,53134072.14,3374283000.0,3374309680.0,0.015835329455176107,39.33,2012-09-30 00:00:00,2012-10-30 00:00:00,80.4964646308717,2.02335545658464,-55.62895058579795,2.9391568853597017
sz000713,2013-02-27,11.26,11.35,11.03,11.15,-0.008889,3809324.0,42488313.08,3332440700.0,3332467040.0,0.012745601924739426,38.84,2012-09-30 00:00:00,2012-10-30 00:00:00,79.49828417477323,1.9982652382531334,-54.93913480913445,2.9027104529129266
sz000713,2013-02-26,11.35,11.65,11.21,11.25,-0.007061,6961693.0,79953175.23,3362328060.0,3362354640.0,0.02329310074817625,39.19,2012-09-30 00:00:00,2012-10-30 00:00:00,80.21128226280733,2.0161871256127046,-55.43186868991915,2.928744058852063
sz000713,2013-02-25,11.1,11.35,11.1,11.33,0.018885,4009578.0,45113617.26,3386237940.0,3386264720.0,0.013415631017352549,39.47,2012-09-30 00:00:00,2012-10-30 00:00:00,80.781681717414,2.03052466023865,-55.826056474686915,2.949570979538585
sz000713,2013-02-22,11.2,11.33,11.05,11.12,-0.008029000000000001,3009114.0,33585379.53,3323474490.0,3323500760.0,0.010068182494158395,38.73,2012-09-30 00:00:00,2012-10-30 00:00:00,79.28439590082688,1.992888952373084,-54.7913223520681,2.8949007783396405
sz000713,2013-02-21,11.4,11.4,11.16,11.21,-0.020105,3602837.0,40628102.8,3350373110.0,3350399600.0,0.012054717920655711,39.05,2012-09-30 00:00:00,2012-10-30 00:00:00,79.9261227403088,2.0090193688858684,-55.234802581998956,2.918332066501581
sz000713,2013-02-20,11.2,11.47,11.2,11.44,0.021429,2771022.0,31445740.96,3419114040.0,3419141070.0,0.009271551433832842,39.85,2012-09-30 00:00:00,2012-10-30 00:00:00,81.56600731742564,2.0502394326798976,-56.36808288847168,2.9782089575940085
sz000713,2013-02-19,11.52,11.57,11.12,11.2,-0.027777999999999997,3720574.0,42153131.11,3347384380.0,3347410840.0,0.012448653655962868,39.01,2012-09-30 00:00:00,2012-10-30 00:00:00,79.8547988332284,2.007226574416722,-55.18551254024674,2.9157278260104316
sz000713,2013-02-18,11.6,11.71,11.52,11.52,0.006993000000000001,5407899.0,62748268.31,3443023930.0,3443051150.0,0.018094267639899908,40.13,2012-09-30 00:00:00,2012-10-30 00:00:00,82.13638328820824,2.0645763770175143,-56.76225444419766,2.999035020818734
sz000713,2013-02-08,11.25,11.48,11.24,11.44,0.021429,3672147.0,41809298.96,3419114040.0,3419141070.0,0.012286621969473707,39.85,2012-09-30 00:00:00,2012-10-30 00:00:00,81.56599230402618,2.050239055303775,-56.368072513113454,2.978208409411718
sz000713,2013-02-07,11.24,11.28,11.16,11.2,-0.0035590000000000005,2525436.0,28325680.27,3347384380.0,3347410840.0,0.00844984620499424,39.01,2012-09-30 00:00:00,2012-10-30 00:00:00,79.85478413480153,2.007226204957736,-55.18550238255764,2.915727289328694
sz000713,2013-02-06,11.15,11.25,11.15,11.24,0.008072,2760813.0,30892495.6,3359339320.0,3359365880.0,0.009237393178846845,39.15,2012-09-30 00:00:00,2012-10-30 00:00:00,80.14000240335507,2.0143954383227265,-55.38260908830291,2.9261414266661987
sz000713,2013-02-05,11.05,11.22,10.98,11.15,0.0036,3104024.0,34507831.7,3332440700.0,3332467040.0,0.010385741477710316,38.84,2012-09-30 00:00:00,2012-10-30 00:00:00,79.49829218880703,1.9982654396935204,-54.939140347418544,2.902710745528294
sz000713,2013-02-04,11.5,11.5,11.07,11.11,-0.04389,7439957.0,83384254.66,3320485750.0,3320512000.0,0.02489332239115918,38.7,2012-09-30 00:00:00,2012-10-30 00:00:00,79.21312493902651,1.9910974887340775,-54.74206889938077,2.8922984710325768
sz000713,2013-02-01,11.78,12.05,11.62,11.62,-0.013581999999999999,10282142.0,121778447.34,3472911290.0,3472938750.0,0.034402977808281415,40.48,2012-09-30 00:00:00,2012-10-30 00:00:00,82.84938442127634,2.082498340916921,-57.25499042932378,3.0250687379407983
sz000713,2013-01-31,11.72,11.85,11.57,11.78,0.009426,6402672.0,75001452.58,3520731070.0,3520758900.0,0.021422674626494546,41.03,2012-09-30 00:00:00,2012-10-30 00:00:00,83.99013848214076,2.111172282862763,-58.043335005366664,3.066720941771944
sz000713,2013-01-30,11.6,11.7,11.43,11.67,0.000858,5738798.0,66255330.81,3487854970.0,3487882550.0,0.01920142128501404,40.65,2012-09-30 00:00:00,2012-10-30 00:00:00,83.20584023211286,2.0914581978894566,-57.50132749242309,3.0380839623429003
sz000713,2013-01-29,11.88,12.07,11.65,11.66,0.000858,9861033.0,116597716.35,3484866230.0,3484893790.0,0.03299399092859871,40.62,2012-09-30 00:00:00,2012-10-30 00:00:00,83.13451082182773,2.089665265092008,-57.452033647553485,3.035479520913956
sz000713,2013-01-28,11.42,11.65,11.31,11.65,0.025528,6509271.0,74726205.52,3481877500.0,3481905030.0,0.02177934380230206,40.58,2012-09-30 00:00:00,2012-10-30 00:00:00,83.0632425597115,2.087873869312138,-57.40278206054554,3.0328773121801054
sz000713,2013-01-25,11.26,11.55,11.1,11.36,0.008881,5736708.0,65112672.93,3395204150.0,3395231000.0,0.019194428376273043,39.57,2012-09-30 00:00:00,2012-10-30 00:00:00,80.99558720942917,2.0359013789112903,-55.97388083069943,2.9573812827929657
sz000713,2013-01-24,11.72,11.8,11.18,11.26,-0.037607,9407037.0,107951101.78,3365316790.0,3365343400.0,0.03147496750818516,39.22,2012-09-30 00:00:00,2012-10-30 00:00:00,80.28259746137472,2.017979701185066,-55.48115271345128,2.9313479813704157
sz000713,2013-01-23,11.6,12.3,11.4,11.7,-0.017632,15346683.0,180893539.98,3496821180.0,3496848830.0,0.051348405267895345,40.75,2012-09-30 00:00:00,2012-10-30 00:00:00,83.41976454668179,2.096835389684948,-57.64916485619833,3.0458949528627244
sz000713,2013-01-22,11.19,12.12,10.92,11.91,0.061497,15484133.0,179109080.01,3559584640.0,3559612780.0,0.05180829863059529,41.49,2012-09-30 00:00:00,2012-10-30 00:00:00,84.91702146922721,2.134470371271202,-58.68387901091886,3.100564099057303
sz000713,2013-01-21,11.24,11.26,11.02,11.22,0.003578,5934359.0,66302840.31,3353361850.0,3353388360.0,0.0198557480398365,39.08,2012-09-30 00:00:00,2012-10-30 00:00:00,79.9974201238696,2.010811496661038,-55.28407429405722,2.9209353385429284
sz000713,2013-01-18,10.98,11.21,10.98,11.18,0.02663,6197174.0,68895946.63,3341406900.0,3341433320.0,0.020735099732989717,38.94,2012-09-30 00:00:00,2012-10-30 00:00:00,79.71220983707254,2.0036424639251136,-55.08697310429006,2.910521492642254
sz000713,2013-01-17,11.01,11.01,10.82,10.89,-0.011797,2853153.0,31098873.86,3254733560.0,3254759290.0,0.009546353210552819,37.93,2012-09-30 00:00:00,2012-10-30 00:00:00,77.64453584745482,1.9516695050067832,-53.658058993298525,2.835024782679499
sz000713,2013-01-16,11.11,11.24,10.82,11.02,-0.007206999999999999,5290230.0,58378274.39,3293587130.0,3293613170.0,0.017700559389786052,38.39,2012-09-30 00:00:00,2012-10-30 00:00:00,78.57144316244215,1.9749682049202268,-54.29861981121139,2.868868828246321
sz000713,2013-01-15,10.81,11.16,10.8,11.1,0.026826999999999997,9370292.0,103515545.81,3317497020.0,3317523240.0,0.03135202249556203,38.66,2012-09-30 00:00:00,2012-10-30 00:00:00,79.14181824654501,1.9893051269703024,-54.69279075417675,2.889694859095825
sz000713,2013-01-14,10.48,10.83,10.45,10.81,0.030505,5200997.0,55896352.99,3230823670.0,3230849210.0,0.017401995067715968,37.65,2012-09-30 00:00:00,2012-10-30 00:00:00,77.07415002385505,1.9373323130092044,-53.26388062855452,2.814198359700149
sz000713,2013-01-11,10.77,10.85,10.48,10.49,-0.028704,4184125.0,44508184.4,3135184120.0,3135208900.0,0.013999647092496756,36.54,2012-09-30 00:00:00,2012-10-30 00:00:00,74.79260170873023,1.8799834188181563,-51.68716369988938,2.7308924844616462
sz000713,2013-01-10,10.85,10.92,10.73,10.8,-0.011894,3779972.0,40865877.75,3227834930.0,3227860450.0,0.012647393217223782,37.62,2012-09-30 00:00:00,2012-10-30 00:00:00,77.00289274199649,1.9355411932285895,-53.21463662970854,2.811596551887011
sz000713,2013-01-09,10.71,11.18,10.62,10.93,0.020541999999999998,9448809.0,103522442.32,3266688500.0,3266714330.0,0.03161473228010568,38.07,2012-09-30 00:00:00,2012-10-30 00:00:00,77.92978966021509,1.95883963180933,-53.85519026269301,2.845440217837976
sz000713,2013-01-08,10.73,10.85,10.56,10.71,-0.003721,4088867.0,43844263.94,3200936310.0,3200961620.0,0.013680923745090074,37.31,2012-09-30 00:00:00,2012-10-30 00:00:00,76.36117833486038,1.9194110892146816,-52.77116499143886,2.7881657176656867
sz000713,2013-01-07,10.62,10.77,10.59,10.75,0.006554000000000001,2187090.0,23394606.59,3212891250.0,3212916660.0,0.007317775695022357,37.45,2012-09-30 00:00:00,2012-10-30 00:00:00,76.64637951302836,1.9265798929965217,-52.968259886476446,2.798579230984179
sz000713,2013-01-04,10.96,11.06,10.6,10.68,-0.009276000000000001,3646590.0,39228316.27,3191970100.0,3191995340.0,0.01220111090639602,37.2,2012-09-30 00:00:00,2012-10-30 00:00:00,76.1473100430065,1.914035305603596,-52.6233663434614,2.78035677269593
