code,date,open,high,low,close,change,volume,money,traded_market_value,market_value,turnover,adjust_price,report_type,report_date,PE_TTM,PS_TTM,PC_TTM,PB
sz000678,2014-12-31,6.54,6.85,6.54,6.57,-0.096286,26117311.0,172549899.97,1978071160.0,2819054270.0,0.0867464916024558,32.97,2014-09-30 00:00:00,2014-10-22 00:00:00,160.99390686949747,2.137046941335404,-24.088170565640525,2.624609143161964
sz000678,2014-11-28,7.51,7.53,7.13,7.27,-0.033245,11543429.0,84911412.83,2188824560.0,3119410120.0,0.03834054604632177,36.48,2014-09-30 00:00:00,2014-10-22 00:00:00,178.14696559918013,2.364738115527041,-26.65463915092665,2.904247519859119
sz000678,2014-11-27,7.28,7.78,7.24,7.52,0.025921,16340231.0,122547653.34,2264093630.0,3226680070.0,0.05427272772283715,37.73,2014-09-30 00:00:00,2014-10-22 00:00:00,184.27312566180692,2.446057290137668,-27.57124519751814,3.004119471695641
sz000678,2014-11-26,7.15,7.33,7.04,7.33,0.030942,12372695.0,88531191.66,2206889130.0,3145154910.0,0.04109488470315679,36.78,2014-09-30 00:00:00,2014-10-22 00:00:00,179.61726649693972,2.3842550158712683,-26.874627966011165,2.9282171548254112
sz000678,2014-11-25,6.95,7.28,6.93,7.11,0.020086,14336660.0,102338099.96,2140652350.0,3050757360.0,0.04761803223209037,35.68,2014-09-30 00:00:00,2014-10-22 00:00:00,174.22635463191884,2.3126955889577374,-26.068030952285536,2.8403316140242714
sz000678,2014-11-24,7.01,7.2,6.9,6.97,-0.004286,10854417.0,76086664.16,2098501670.0,2990686190.0,0.03605204969410389,34.97,2014-09-30 00:00:00,2014-10-22 00:00:00,170.79575117384104,2.2671574641331587,-25.554738475271236,2.784404073797965
sz000678,2014-11-21,6.82,7.02,6.78,7.0,0.026393,11316922.0,78467754.7,2107533960.0,3003558580.0,0.03758822182870069,35.12,2014-09-30 00:00:00,2014-10-22 00:00:00,171.53093275161444,2.2769163275128785,-25.664737540369256,2.796389398761055
sz000678,2014-11-20,6.76,6.92,6.62,6.82,0.008876,7699362.0,52506123.16,2053340230.0,2926324220.0,0.02557279503553096,34.22,2014-09-30 00:00:00,2014-10-22 00:00:00,167.12013113068232,2.2183669681232026,-25.004786217724842,2.724482141597862
sz000678,2014-11-19,6.6,6.81,6.59,6.76,0.021148,6995544.0,47242303.36,2035275650.0,2900579430.0,0.023235121709435282,33.92,2014-09-30 00:00:00,2014-10-22 00:00:00,165.64982329907969,2.1988499757385473,-24.784796365187436,2.7005123935923363
sz000678,2014-11-18,6.37,6.64,6.31,6.62,0.039245999999999996,6980597.0,45721668.62,1993124970.0,2840508260.0,0.02318547649322762,33.22,2014-09-30 00:00:00,2014-10-22 00:00:00,162.219211416053,2.1533117390804732,-24.27150262761856,2.6445847160179876
sz000678,2014-11-17,6.34,6.46,6.24,6.37,0.012719,3029599.0,19308814.17,1917855900.0,2733238310.0,0.01006256290162363,31.96,2014-09-30 00:00:00,2014-10-22 00:00:00,156.09317853140934,2.0719942526413124,-23.354915609604042,2.5447148375052566
sz000678,2014-11-14,6.3,6.35,6.2,6.29,-0.0015869999999999999,2467889.0,15463130.9,1893769800.0,2698911920.0,0.008196889511069403,31.56,2014-09-30 00:00:00,2014-10-22 00:00:00,154.13276390727273,2.045971540616215,-23.061595180503225,2.512755105320683
sz000678,2014-11-13,6.49,6.49,6.28,6.3,-0.023256,4067097.0,25828949.63,1896780560.0,2703202720.0,0.013508526837706517,31.61,2014-09-30 00:00:00,2014-10-22 00:00:00,154.37776141463777,2.0492236585623536,-23.09825210659639,2.5167491862793083
sz000678,2014-11-12,6.35,6.45,6.3,6.45,0.007812999999999999,3465088.0,22198689.87,1941942010.0,2767564690.0,0.011509003608197343,32.36,2014-09-30 00:00:00,2014-10-22 00:00:00,158.0534525061201,2.0980150976738567,-23.648214994508685,2.5766722767473444
sz000678,2014-11-11,6.66,6.66,6.32,6.4,-0.039039,6217709.0,40082753.42,1926888190.0,2746110700.0,0.020651606982966666,32.11,2014-09-30 00:00:00,2014-10-22 00:00:00,156.82815413784112,2.081750381939761,-23.464883856934453,2.5566968046129035
sz000678,2014-11-10,6.66,6.74,6.48,6.66,0.001504,5401489.0,35608137.84,2005168020.0,2857671450.0,0.01794059968101825,33.42,2014-09-30 00:00:00,2014-10-22 00:00:00,163.1992912697197,2.166321403199257,-24.418143771635325,2.660562504214951
sz000678,2014-11-07,6.85,6.93,6.63,6.65,-0.027777999999999997,5586894.0,37966268.49,2002157260.0,2853380650.0,0.018556407052660793,33.37,2014-09-30 00:00:00,2014-10-22 00:00:00,162.95420814067614,2.1630681487036068,-24.381474034687155,2.656567027405733
sz000678,2014-11-06,6.76,6.85,6.76,6.84,0.007364,3354311.0,22858068.18,2059361760.0,2934905810.0,0.011141066948820104,34.32,2014-09-30 00:00:00,2014-10-22 00:00:00,167.6100809698568,2.2248706043512763,-25.078093310670972,2.7324695670389407
sz000678,2014-11-05,6.8,6.85,6.73,6.79,-0.001471,3938655.0,26780830.6,2044307940.0,2913451820.0,0.01308191732112531,34.07,2014-09-30 00:00:00,2014-10-22 00:00:00,166.3848231323105,2.2086064266256056,-24.894768237370975,2.7124947556582732
sz000678,2014-11-04,6.87,6.91,6.76,6.8,-0.010189,4697922.0,32110281.67,2047318700.0,2917742620.0,0.015603759981286741,34.12,2014-09-30 00:00:00,2014-10-22 00:00:00,166.62993576782497,2.211860072792684,-24.931442389125383,2.716490713497829
sz000678,2014-11-03,6.84,6.96,6.8,6.87,0.008811,5659361.0,38927470.87,2068394040.0,2947778210.0,0.018797100222740924,34.47,2014-09-30 00:00:00,2014-10-22 00:00:00,168.34520506220375,2.23462870466451,-25.188083774705856,2.7444539548437312
sz000678,2014-10-31,6.72,6.97,6.71,6.81,0.014903,8021922.0,54856285.2,2050329470.0,2922033420.0,0.02664415140070147,34.17,2014-09-30 00:00:00,2014-10-22 00:00:00,166.874870577545,2.2151113584849003,-24.968089934294788,2.7204837723257693
sz000678,2014-10-30,6.71,6.74,6.61,6.71,0.001493,6206971.0,41518843.74,2020221840.0,2879125440.0,0.020615941569070456,33.67,2014-09-30 00:00:00,2014-10-22 00:00:00,164.42445295515438,2.1825843045935427,-24.601454458499767,2.680535748072249
sz000678,2014-10-29,6.64,6.76,6.63,6.7,0.009036,5387401.0,36126729.88,2017211080.0,2874834640.0,0.017893807474029938,33.62,2014-09-30 00:00:00,2014-10-22 00:00:00,164.17933321067082,2.179330564061399,-24.564779243089834,2.6765396743384615
sz000678,2014-10-28,6.41,6.65,6.41,6.64,0.035881,4289198.0,28164343.18,1999146500.0,2849089850.0,0.014246216933076188,33.32,2014-09-30 00:00:00,2014-10-22 00:00:00,162.70909383874394,2.159814480416357,-24.34479963360062,2.652571042399341
sz000678,2014-10-27,6.33,6.52,6.19,6.41,0.012638,3582257.0,22907711.8,1929898950.0,2750401500.0,0.01189817081873639,32.16,2014-09-30 00:00:00,2014-10-22 00:00:00,157.07315206934382,2.085002505515939,-23.50154084648779,2.5606908924860488
sz000678,2014-10-24,6.46,6.51,6.29,6.33,-0.017081,4335063.0,27549872.03,1905812850.0,2716075120.0,0.014398553766703799,31.76,2014-09-30 00:00:00,2014-10-22 00:00:00,155.11283604737704,2.0589811023445095,-23.20823517040422,2.5287327677670093
sz000678,2014-10-23,6.65,6.74,6.4,6.44,-0.037369,5610538.0,36581227.77,1938931240.0,2763273890.0,0.018634938658268253,32.31,2014-09-30 00:00:00,2014-10-22 00:00:00,157.80836065573772,2.0947617274104067,-23.6115439526596,2.5726766577581768
sz000678,2014-10-22,6.95,6.97,6.65,6.69,-0.034631999999999996,7106483.0,48326538.32,2014200310.0,2870543840.0,0.02360359644170644,33.57,2014-09-30 00:00:00,2014-10-22 00:00:00,163.9344262295082,2.176079647767843,-24.528135861674514,2.6725470691866113
sz000678,2014-10-21,6.84,7.11,6.81,6.93,0.020619,10196347.0,70982120.71,2086458620.0,2973522990.0,0.033866324514022716,34.77,2014-06-30 00:00:00,2014-08-14 00:00:00,167.8822943321353,2.41911707203482,-41.22946400452282,2.750912395212951
sz000678,2014-10-20,6.71,6.83,6.65,6.79,0.039816000000000004,5940263.0,40006174.75,2044307940.0,2913451820.0,0.0197300929966549,34.07,2014-06-30 00:00:00,2014-08-14 00:00:00,164.4906613850372,2.370244990574171,-40.39652799381828,2.6953372367288386
sz000678,2014-10-17,6.76,6.83,6.4,6.53,-0.036873,8867197.0,58395161.45,1966028110.0,2801891070.0,0.029451662524804897,32.77,2014-06-30 00:00:00,2014-08-14 00:00:00,158.1920853160917,2.279485015208625,-38.8496887851488,2.5921290273748805
sz000678,2014-10-16,7.0,7.09,6.73,6.78,-0.04507,9940194.0,69033901.91,2041297180.0,2909161020.0,0.03301553344623736,34.02,2014-06-30 00:00:00,2014-08-14 00:00:00,164.24841720364157,2.366754348293241,-40.33703632558198,2.6913678334995077
sz000678,2014-10-15,6.83,7.32,6.78,7.1,0.047198000000000004,18254685.0,128237971.89,2137641589.9999998,3046466560.0,0.06063142862971711,35.63,2014-06-30 00:00:00,2014-08-14 00:00:00,172.00047878236265,2.4784584716086426,-42.240830558870265,2.818392796853704
sz000678,2014-10-14,6.75,6.8,6.7,6.78,-0.0058649999999999996,6262143.0,42253359.46,2041297180.0,2909161020.0,0.02079919080670067,34.02,2014-06-30 00:00:00,2014-08-14 00:00:00,164.24828808149235,2.3667524876944404,-40.33700461504917,2.691365717709262
sz000678,2014-10-13,6.7,6.82,6.6,6.82,0.004418,7412743.0,49624978.76,2053340230.0,2926324220.0,0.02462081369729945,34.22,2014-06-30 00:00:00,2014-08-14 00:00:00,165.2172874725187,2.3807153834181882,-40.574976854299635,2.707243702021619
sz000678,2014-10-10,6.85,6.85,6.68,6.79,-0.008759000000000001,9420648.0,63351065.43,2044307940.0,2913451820.0,0.03128990435755975,34.07,2014-06-30 00:00:00,2014-08-14 00:00:00,164.49056814246526,2.370243646985805,-40.39650509479085,2.695335708859876
sz000678,2014-10-09,6.83,6.95,6.75,6.85,-0.005806,8212897.0,56188502.84,2062372520.0,2939196610.0,0.027278459106893065,34.37,2014-06-30 00:00:00,2014-08-14 00:00:00,165.94407227149128,2.3911880632316507,-40.753464692028324,2.7191527679543888
sz000678,2014-10-08,6.94,6.96,6.74,6.89,-0.004335,6391587.0,43671155.93,2074415570.0,2956359800.0,0.02122912837084037,34.57,2014-06-30 00:00:00,2014-08-14 00:00:00,166.91317013730844,2.405152377937958,-40.99146111526354,2.735032365870633
sz000678,2014-09-30,6.85,6.93,6.81,6.92,0.010218999999999999,5335564.0,36802880.51,2083447860.0,2969232200.0,0.017721635174493877,34.72,2014-06-30 00:00:00,2014-08-14 00:00:00,167.63988905636782,2.4156241084480805,-41.16993277383813,2.746940352297844
sz000678,2014-09-29,6.78,6.9,6.78,6.85,0.010324,4144964.0,28271263.32,2062372520.0,2939196610.0,0.013767155605816548,34.37,2014-06-30 00:00:00,2014-08-14 00:00:00,165.94410623475486,2.3911885526287673,-40.75347303291477,2.719153324475034
sz000678,2014-09-26,6.84,6.85,6.7,6.78,-0.008772,5299164.0,35850404.8,2041297180.0,2909161020.0,0.017600735587162276,34.02,2014-06-30 00:00:00,2014-08-14 00:00:00,164.24840569436623,2.3667541824491622,-40.33703349907037,2.691367644908994
sz000678,2014-09-25,6.87,6.99,6.81,6.84,-0.008695999999999999,7579204.0,52001842.34,2059361760.0,2934905810.0,0.025173700107940237,34.32,2014-06-30 00:00:00,2014-08-14 00:00:00,165.70194313958666,2.387699078768116,-40.69400127828347,2.715185249921303
sz000678,2014-09-24,6.9,7.02,6.83,6.9,0.004367,9006965.0,62196976.33,2077426330.0,2960650600.0,0.02991589044700324,34.62,2014-06-30 00:00:00,2014-08-14 00:00:00,167.1555276076629,2.4086446526677143,-41.05098060563003,2.7390036254482
sz000678,2014-09-23,6.68,6.91,6.68,6.87,0.033083,8915427.0,60923027.77,2068394040.0,2947778210.0,0.029611854562296067,34.47,2014-06-30 00:00:00,2014-08-14 00:00:00,166.42873332921423,2.3981718362587725,-40.87249043987908,2.7270944041851246
sz000678,2014-09-22,6.77,6.77,6.58,6.65,-0.023495,9649473.0,64173696.14,2002157260.0,2853380650.0,0.03204992771147258,33.37,2014-06-30 00:00:00,2014-08-14 00:00:00,161.09909206638213,2.3213738259740726,-39.56360760933931,2.6397631208577863
sz000678,2014-09-19,6.8,6.93,6.77,6.81,-0.014472,13557260.0,92519488.12,2050329470.0,2922033420.0,0.04502931940982149,34.17,2014-06-30 00:00:00,2014-08-14 00:00:00,164.97518401481005,2.377226768909603,-40.51551974576608,2.7032766046848566
sz000678,2014-09-18,6.35,7.06,6.3,6.91,0.076324,26271262.0,180393212.0,2080437090.0,2964941400.0,0.08725782735396244,34.67,2014-06-30 00:00:00,2014-08-14 00:00:00,167.39776446210567,2.4121351893701686,-41.11047047447265,2.742972908618382
sz000678,2014-09-17,6.11,6.47,6.11,6.42,0.061157,15212405.0,96080698.69,1932909720.0,2754692300.0,0.0505267468467177,32.21,2014-06-30 00:00:00,2014-08-14 00:00:00,155.5272989008009,2.2410865031070273,-38.19525577286453,2.548463946375238
sz000678,2014-09-16,6.2,6.52,6.05,6.05,-0.027331,15643846.0,98950401.64,1821511490.0,2595932770.0,0.05195974267502424,30.36,2014-06-30 00:00:00,2014-08-14 00:00:00,146.56389101782386,2.1119273614620906,-35.993972402636494,2.4015899121197317
sz000678,2014-09-15,6.02,6.24,5.97,6.22,0.033223,11279707.0,69399725.58,1872694460.0,2668876340.0,0.03746461531156556,31.21,2014-06-30 00:00:00,2014-08-14 00:00:00,150.68218583898928,2.171270351437221,-37.00536606249042,2.469072122294153
sz000678,2014-09-12,5.96,6.04,5.92,6.02,0.005007999999999999,5996072.0,35913002.06,1812479210.0,2583060380.0,0.019915457921307687,30.21,2014-06-30 00:00:00,2014-08-14 00:00:00,145.83704179929143,2.101453753388398,-35.81546874439537,2.389679790610694
sz000678,2014-09-11,6.16,6.2,5.95,5.99,-0.022838,10616880.0,64284020.29,1803446920.0,2570187980.0,0.0352630900830727,30.06,2014-06-30 00:00:00,2014-08-14 00:00:00,145.11032927030575,2.0909821149566956,-35.63699865513048,2.3777719088909683
sz000678,2014-09-10,5.9,6.18,5.85,6.13,0.033727,13381459.0,81281533.41,1845597600.0,2630259160.0,0.04444541089021789,30.76,2014-06-30 00:00:00,2014-08-14 00:00:00,148.50181369138969,2.1398520562165695,-36.46989818999355,2.433344633633899
sz000678,2014-09-09,5.87,5.97,5.74,5.93,0.008503,8865299.0,52058117.44,1785382340.0,2544443200.0,0.029445358505114372,29.76,2014-06-30 00:00:00,2014-08-14 00:00:00,143.6567040344208,2.0700359536091923,-35.28000931579958,2.3539528653444277
sz000678,2014-09-05,5.91,5.94,5.84,5.88,-0.00339,5129555.0,30134241.46,1770328530.0,2522989210.0,0.017037393279765986,29.5,2014-06-30 00:00:00,2014-08-14 00:00:00,142.44549003267295,2.0525828417061645,-34.9825526704428,2.3341059623465945
sz000678,2014-09-04,5.86,5.91,5.79,5.9,0.0068260000000000005,6967906.0,40946549.69,1776350050.0,2531570800.0,0.023143324368977838,29.6,2014-06-30 00:00:00,2014-08-14 00:00:00,142.93002280999886,2.059564766263799,-35.1015469144829,2.342045496580001
sz000678,2014-09-03,5.85,5.96,5.81,5.86,0.003425,8514774.0,50147925.85,1764307000.0,2514407610.0,0.02828111867152372,29.4,2014-06-30 00:00:00,2014-08-14 00:00:00,141.96099704417531,2.0456014904897155,-34.863568197963595,2.3261670800912975
sz000678,2014-09-02,5.81,5.84,5.75,5.84,0.017422,7277403.0,42213833.76,1758285480.0,2505826010.0,0.024171293002999715,29.3,2014-06-30 00:00:00,2014-08-14 00:00:00,141.47644023636576,2.038619219662372,-34.74456805238418,2.318227152095371
sz000678,2014-09-01,5.59,5.76,5.59,5.74,0.023173,7124381.0,40565335.68,1728177850.0,2462918030.0,0.02366304309478333,28.8,2014-06-30 00:00:00,2014-08-14 00:00:00,139.05384416335184,2.0037105740414223,-34.14961348622713,2.2785305921194654
sz000678,2014-08-29,5.58,5.63,5.47,5.61,0.010811,6255746.0,34626153.18,1689037930.0,2407137660.0,0.020777943725633206,28.15,2014-06-30 00:00:00,2014-08-14 00:00:00,135.90452852386827,1.9583301885814253,-33.376187102500886,2.22692603510791
sz000678,2014-08-28,5.8,5.8,5.45,5.55,-0.034783,11009676.0,61425518.06,1670973350.0,2381392870.0,0.036567729700775896,27.85,2014-06-30 00:00:00,2014-08-14 00:00:00,134.4509789900073,1.9373851180699706,-33.019216354492464,2.203108232011632
sz000678,2014-08-27,5.75,5.85,5.73,5.75,-0.006908,6999387.0,40409425.52,1731188610.0,2467208830.0,0.023247885884600406,28.85,2014-06-30 00:00:00,2014-08-14 00:00:00,139.29611578536978,2.007201611730803,-34.209111893483495,2.282500444989709
sz000678,2014-08-26,5.84,5.84,5.69,5.79,-0.010256,9387942.0,54110972.02,1743231660.0,2484372020.0,0.03118127408264258,29.05,2014-06-30 00:00:00,2014-08-14 00:00:00,140.26506686728902,2.0211638113395365,-34.447072268715786,2.2983776377110168
sz000678,2014-08-25,5.97,5.97,5.82,5.85,-0.020101,9184572.0,53852977.95,1761296240.0,2510116810.0,0.030505797366603127,29.35,2014-06-30 00:00:00,2014-08-14 00:00:00,141.71853213284345,2.042107667578219,-34.80402232164659,2.322194059990277
sz000678,2014-08-22,5.94,5.98,5.82,5.97,0.005051,11674819.0,69010408.24,1797425390.0,2561606390.0,0.0387769471922281,29.96,2014-06-30 00:00:00,2014-08-14 00:00:00,144.62565237115606,2.083998113660917,-35.51796901685439,2.3698300130832637
sz000678,2014-08-21,5.96,6.06,5.81,5.94,-0.013288999999999999,15010625.0,88903160.61,1788393100.0,2548733990.0,0.04985655139242038,29.81,2014-06-30 00:00:00,2014-08-14 00:00:00,143.898819434194,2.0735247401981765,-35.33946935713152,2.357920158363371
sz000678,2014-08-20,5.98,6.24,5.8,6.02,0.0,23766276.0,142973833.91,1812479210.0,2583060380.0,0.07893772283324563,30.21,2014-06-30 00:00:00,2014-08-14 00:00:00,145.8368452710003,2.101450921493909,-35.81542047988876,2.3896765703061695
sz000678,2014-08-19,5.81,6.2,5.75,6.02,0.056139999999999995,42438305.0,254908209.72,1812479210.0,2583060380.0,0.14095532499928648,30.21,2014-06-30 00:00:00,2014-08-14 00:00:00,145.8368452710003,2.101450921493909,-35.81542047988876,2.3896765703061695
sz000678,2014-08-18,5.3,5.7,5.3,5.7,0.100386,20245003.0,113529020.26,1716134800.0,2445754840.0,0.06724210539871343,28.6,2014-06-30 00:00:00,2014-08-14 00:00:00,138.08476648076987,1.9897465501675051,-33.911622019702655,2.2626513249248865
sz000678,2014-08-15,4.89,5.25,4.88,5.18,0.059305,14628170.0,74402381.94,1559575130.0,2222633350.0,0.04858625861775572,25.99,2014-06-30 00:00:00,2014-08-14 00:00:00,125.48757116209208,1.8082259772184532,-30.81793299778682,2.056234198658367
sz000678,2014-08-14,5.0,5.04,4.88,4.89,-0.020040000000000002,8295473.0,41082415.92,1472263010.0,2098200210.0,0.02755272848293594,24.54,2014-06-30 00:00:00,2014-08-14 00:00:00,118.46217204874148,1.7069927709379766,-29.092596558863427,1.9411162966835493
sz000678,2014-08-13,5.07,5.09,4.88,4.99,-0.017717,8501803.0,42209042.84,1502370640.0,2141108190.0,0.028238036500766547,25.04,2014-03-31 00:00:00,2014-04-24 00:00:00,273.90585474372614,2.0149033139278223,-24.578458023293813,1.9966544593951092
sz000678,2014-08-12,4.98,5.09,4.94,5.08,0.018036,7636130.0,38291678.7,1529467500.0,2179725370.0,0.025362775214249404,25.49,2014-03-31 00:00:00,2014-04-24 00:00:00,278.8461723797787,2.051245225589593,-25.021768699340022,2.032667224613588
sz000678,2014-08-11,5.02,5.02,4.88,4.99,0.018366999999999998,7818122.0,38752634.22,1502370640.0,2141108190.0,0.02596724652446616,25.04,2014-03-31 00:00:00,2014-04-24 00:00:00,273.90600369709784,2.014904409657019,-24.578471389361496,1.9966555452003545
sz000678,2014-08-08,4.83,5.07,4.79,4.9,0.022965,7941131.0,39184315.06,1475273770.0,2102491009.9999998,0.026375810843569738,24.59,2014-03-31 00:00:00,2014-04-24 00:00:00,268.96590688533485,1.978564122420521,-24.13518052859283,1.9606443896948296
sz000678,2014-08-07,4.86,4.93,4.77,4.79,-0.018443,7052421.0,34247768.86,1442155380.0,2055292230.0,0.02342403395534259,24.03,2014-03-31 00:00:00,2014-04-24 00:00:00,262.9277706327537,1.9341464492143146,-23.593359038278763,1.9166290046040968
sz000678,2014-08-06,4.75,4.92,4.72,4.88,0.029536,9115935.0,44202428.87,1469252250.0,2093909410.0,0.030277825199859314,24.49,2014-03-31 00:00:00,2014-04-24 00:00:00,267.86806128707116,1.9704881623933348,-24.036667293166634,1.952641573137471
sz000678,2014-08-05,4.68,4.77,4.68,4.74,0.014988999999999999,6058382.0,28680338.88,1427101570.0,2033838240.0,0.02012241544937828,23.78,2014-03-31 00:00:00,2014-04-24 00:00:00,260.18328770151913,1.9139575132810656,-23.347087710547893,1.8966229186133086
sz000678,2014-08-04,4.61,4.7,4.58,4.67,0.010823000000000001,5330473.0,24772860.28,1406026230.0,2003802650.0,0.017704725828621277,23.43,2014-03-31 00:00:00,2014-04-24 00:00:00,256.34099256397764,1.885692862958185,-23.002306143759085,1.8686142594779926
sz000678,2014-08-01,4.67,4.77,4.59,4.62,-0.014925,7179973.0,33724554.64,1390972410.0,1982348660.0,0.02384768743184489,23.18,2014-03-31 00:00:00,2014-04-24 00:00:00,253.59631959697953,1.8655025290858884,-22.756017763504676,1.8486067882092045
sz000678,2014-07-31,4.67,4.7,4.62,4.69,0.0,4339853.0,20260403.94,1412047750.0,2012384250.0,0.014414463370661509,23.53,2014-03-31 00:00:00,2014-04-24 00:00:00,257.438590561104,1.8937670015845378,-23.100797161134608,1.8766152711308322
sz000678,2014-07-30,4.61,4.75,4.55,4.69,0.015152,7857853.0,36460860.24,1412047750.0,2012384250.0,0.026099209867371694,23.53,2014-03-31 00:00:00,2014-04-24 00:00:00,257.438590561104,1.8937670015845378,-23.100797161134608,1.8766152711308322
sz000678,2014-07-29,4.6,4.67,4.56,4.62,0.006536,5508177.0,25430073.99,1390972410.0,1982348660.0,0.01829495506672199,23.18,2014-03-31 00:00:00,2014-04-24 00:00:00,253.5961024172774,1.8655009314708908,-22.75599827526775,1.8486052050637067
sz000678,2014-07-28,4.6,4.7,4.56,4.59,0.013244999999999998,7696136.0,35506960.44,1381940130.0,1969476270.0,0.025562080059141203,23.03,2014-03-31 00:00:00,2014-04-24 00:00:00,251.9493613912243,1.8533871927788874,-22.608230878247518,1.8366011797528419
sz000678,2014-07-25,4.45,4.53,4.43,4.53,0.017978,2979783.0,13350554.48,1363875550.0,1943731480.0,0.009897103141118704,22.73,2014-03-31 00:00:00,2014-04-24 00:00:00,248.65591381277417,1.8291599689896203,-22.312699177639686,1.8125933804290593
sz000678,2014-07-24,4.51,4.52,4.4,4.45,-0.013304,3879966.0,17290814.31,1339789450.0,1909405100.0,0.012886986608231616,22.33,2014-03-31 00:00:00,2014-04-24 00:00:00,244.2645261614437,1.7968560902000046,-21.918645764092826,1.780582075869085
sz000678,2014-07-23,4.54,4.6,4.5,4.51,-0.008791,4107052.0,18704045.09,1357854020.0,1935149880.0,0.013641234070213233,22.63,2014-03-31 00:00:00,2014-04-24 00:00:00,247.5580383030272,1.8210837889279012,-22.214183258159377,1.8045903458300072
sz000678,2014-07-22,4.53,4.55,4.47,4.55,0.0066370000000000005,4055718.0,18327511.02,1369897070.0,1952313080.0,0.013470732439773743,22.83,2014-03-31 00:00:00,2014-04-24 00:00:00,249.75362239752383,1.8372349211194625,-22.411200118400235,1.8205951982175377
sz000678,2014-07-21,4.48,4.59,4.46,4.52,0.006682,4960308.0,22478616.66,1360864790.0,1939440680.0,0.01647525332770201,22.68,2014-03-31 00:00:00,2014-04-24 00:00:00,248.1069366589186,1.825121589132391,-22.263437682501475,1.808591575928103
sz000678,2014-07-18,4.52,4.56,4.45,4.49,-0.0066370000000000005,3688373.0,16593540.0,1351832500.0,1926568290.0,0.012250626294307912,22.53,2014-03-31 00:00:00,2014-04-24 00:00:00,246.46009033529813,1.8130070758515509,-22.115660836790042,1.796586783043804
sz000678,2014-07-17,4.57,4.62,4.49,4.52,-0.0131,4344077.0,19693601.12,1360864790.0,1939440680.0,0.014428492958510593,22.68,2014-03-31 00:00:00,2014-04-24 00:00:00,248.10677500097958,1.825120399945992,-22.263423176411884,1.8085903975120916
sz000678,2014-07-16,4.46,4.63,4.43,4.58,0.024609,7932112.0,36018345.07,1378929360.0,1965185470.0,0.026345854989990203,22.98,2014-03-31 00:00:00,2014-04-24 00:00:00,251.4001165274897,1.8493468435971143,-22.55894536063622,1.8325974237633922
sz000678,2014-07-15,4.51,4.58,4.44,4.47,-0.008869,6578364.0,29583799.37,1345810970.0,1917986690.0,0.021849492785751327,22.43,2014-03-31 00:00:00,2014-04-24 00:00:00,245.36200299576686,1.8049293375298423,-22.017125909138233,1.7885822042978268
sz000678,2014-07-14,4.39,4.54,4.35,4.51,0.032037,9109764.0,40834619.39,1357854020.0,1935149880.0,0.030257328869564344,22.63,2014-03-31 00:00:00,2014-04-24 00:00:00,247.55759127276505,1.8210805004886765,-22.214143144688478,1.8045870871739729
sz000678,2014-07-11,4.23,4.43,4.23,4.37,0.030660000000000003,5963264.0,25951518.24,1315703340.0,1875078710.0,0.01980648896125779,21.93,2014-03-31 00:00:00,2014-04-24 00:00:00,239.87278680198963,1.764549624178858,-21.52456079063878,1.7485682075099755
sz000678,2014-07-10,4.22,4.27,4.21,4.24,0.009524,2318318.0,9831427.26,1276563430.0,1819298340.0,0.007700101764625986,21.28,2014-03-31 00:00:00,2014-04-24 00:00:00,232.73706828827125,1.7120579281032138,-20.884249694990377,1.6965519254749146
sz000678,2014-07-09,4.3,4.31,4.19,4.2,-0.023256,2575410.0,10962677.84,1264520380.0,1802135150.0,0.008554011600825287,21.07,2014-03-31 00:00:00,2014-04-24 00:00:00,230.5413920701947,1.6959061182331607,-20.687224568202808,1.6805464015465845
sz000678,2014-07-08,4.3,4.32,4.26,4.3,0.0023309999999999997,2125793.0,9108293.27,1294628000.0,1845043130.0,0.007060645915274503,21.58,2014-03-31 00:00:00,2014-04-24 00:00:00,236.0305177919646,1.7362851660549343,-21.179781568356507,1.7205597388328822
sz000678,2014-07-07,4.32,4.33,4.25,4.29,-0.006944,3317218.0,14185136.26,1291617240.0,1840752330.0,0.011017865648804751,21.53,2014-03-31 00:00:00,2014-04-24 00:00:00,235.48161015868465,1.7322472976042183,-21.130526311524335,1.716558441106662
sz000678,2014-07-04,4.28,4.34,4.25,4.32,0.009346,3065572.0,13166752.9,1300649530.0,1853624720.0,0.010182044228317215,21.68,2014-03-31 00:00:00,2014-04-24 00:00:00,237.1282285779298,1.7443601343773345,-21.27828270663924,1.7285615726672634
sz000678,2014-07-03,4.25,4.32,4.22,4.28,0.01182,5225855.0,22362743.45,1288606480.0,1836461530.0,0.01735724579004135,21.48,2014-03-31 00:00:00,2014-04-24 00:00:00,234.93254897520745,1.7282082996091868,-21.081257276136466,1.712556024066339
sz000678,2014-07-02,4.24,4.25,4.2,4.23,-0.002358,3269291.0,13815753.29,1273552660.0,1815007540.0,0.010858680103577344,21.22,2014-03-31 00:00:00,2014-04-24 00:00:00,232.18808580103922,1.7080195090126575,-20.834987721271045,1.6925500820959651
sz000678,2014-07-01,4.18,4.25,4.18,4.24,0.009524,2999264.0,12654419.47,1276563430.0,1819298340.0,0.009961807663564358,21.27,2014-03-31 00:00:00,2014-04-24 00:00:00,232.73687936257616,1.7120565383300395,-20.88423274207686,1.6965505482888301
sz000678,2014-06-30,4.15,4.21,4.15,4.2,0.014493,3698108.0,15467707.33,1264520380.0,1802135150.0,0.012282960279374857,21.07,2014-03-31 00:00:00,2014-04-24 00:00:00,230.54120492685283,1.6959047415713147,-20.687207775225612,1.6805450373530795
sz000678,2014-06-27,4.1,4.16,4.08,4.14,0.009756,3868110.0,15929876.86,1246455800.0,1776390360.0,0.012847607913573832,20.77,2014-03-31 00:00:00,2014-04-24 00:00:00,227.24770395345533,1.6716771249987077,-20.3916712833165,1.6565368488033718
sz000678,2014-06-26,4.07,4.12,4.07,4.1,0.007370999999999999,2492437.0,10189084.21,1234412750.0,1759227170.0,0.008278423647195802,20.57,2014-03-31 00:00:00,2014-04-24 00:00:00,225.0520957077307,1.655525815146142,-20.194652255907865,1.6405318203639014
sz000678,2014-06-25,4.08,4.09,4.04,4.07,0.0,1700078.0,6895093.79,1225380460.0,1746354770.0,0.005646668676273817,20.42,2014-03-31 00:00:00,2014-04-24 00:00:00,223.4053746908842,1.6434122236456499,-20.04688665437844,1.6285279409114433
sz000678,2014-06-24,4.08,4.09,4.02,4.07,0.002463,1307762.0,5316257.48,1225380460.0,1746354770.0,0.004343623481640959,20.42,2014-03-31 00:00:00,2014-04-24 00:00:00,223.4053746908842,1.6434122236456499,-20.04688665437844,1.6285279409114433
sz000678,2014-06-23,4.03,4.11,4.02,4.06,0.00495,1143350.0,4647835.22,1222369700.0,1742063980.0,0.0037975425928833146,20.37,2014-03-31 00:00:00,2014-04-24 00:00:00,222.8564791826573,1.6393744443891192,-19.997632485566488,1.6245267315715821
sz000678,2014-06-20,3.96,4.07,3.96,4.04,0.017632,1532883.0,6163999.62,1216348170.0,1733482380.0,0.0050913442982365815,20.27,2014-03-31 00:00:00,2014-04-24 00:00:00,221.75877325504482,1.631299511805681,-19.89913178323945,1.6165249331524774
sz000678,2014-06-19,4.13,4.13,3.93,3.97,-0.034063,2392918.0,9633171.38,1195272830.0,1703446790.0,0.007947879531403723,19.92,2014-03-31 00:00:00,2014-04-24 00:00:00,217.9164700550344,1.6030348021737533,-19.554349492979238,1.5885162152452725
sz000678,2014-06-18,4.17,4.21,4.1,4.11,-0.014388,2347564.0,9745666.8,1237423510.0,1763517970.0,0.00779723996031076,20.62,2014-03-31 00:00:00,2014-04-24 00:00:00,225.60112104105588,1.6595645494206694,-20.243918074345675,1.6445339760722204
sz000678,2014-06-17,4.25,4.28,4.16,4.17,-0.018824,1333350.0,5611436.75,1255488090.0,1789262750.0,0.004428611903439084,20.92,2014-03-31 00:00:00,2014-04-24 00:00:00,228.89445445170702,1.6837909333699967,-20.53943953030774,1.6685409431624414
sz000678,2014-06-16,4.25,4.28,4.22,4.25,0.0,1502965.0,6394926.25,1279574190.0,1823589140.0,0.0049919741269554676,21.33,2014-03-31 00:00:00,2014-04-24 00:00:00,233.28582685645287,1.7160947000028504,-20.933491575729267,1.7005521365814507
sz000678,2014-06-13,4.21,4.27,4.21,4.25,0.009501,2452989.0,10421632.8,1279574190.0,1823589140.0,0.008147400386373845,21.33,2014-03-31 00:00:00,2014-04-24 00:00:00,233.28582685645287,1.7160947000028504,-20.933491575729267,1.7005521365814507
sz000678,2014-06-12,4.23,4.27,4.2,4.21,-0.007075,1790001.0,7586540.2,1267531140.0,1806425950.0,0.005945340490806404,21.12,2014-03-31 00:00:00,2014-04-24 00:00:00,231.09023850046,1.699943536462916,-20.736474333090573,1.6845472531294676
sz000678,2014-06-11,4.23,4.25,4.19,4.24,-0.002353,1176424.0,4974947.31,1276563430.0,1819298340.0,0.003907395153878096,21.27,2014-03-31 00:00:00,2014-04-24 00:00:00,232.73685172642448,1.7120563350332767,-20.884230262195608,1.6965503468333134
sz000678,2014-06-10,4.22,4.25,4.19,4.25,0.004728,1386575.0,5861263.65,1279574190.0,1823589140.0,0.004605394353882677,21.33,2014-03-31 00:00:00,2014-04-24 00:00:00,233.28577315064797,1.7160943049327837,-20.933486756533735,1.7005517450895091
sz000678,2014-06-09,4.18,4.24,4.14,4.23,0.009547,2523075.0,10566840.59,1273552660.0,1815007540.0,0.008380185276359127,21.22,2014-03-31 00:00:00,2014-04-24 00:00:00,232.1879883417681,1.7080187920838115,-20.83497897593551,1.6925493716602993
sz000678,2014-06-06,4.25,4.26,4.14,4.19,-0.021028,3202497.0,13443109.28,1261509610.0,1797844350.0,0.010636829338145115,21.02,2014-03-31 00:00:00,2014-04-24 00:00:00,229.99225230897434,1.691866542205377,-20.63794848177996,1.6765434117087163
sz000678,2014-06-05,4.15,4.34,4.15,4.28,0.026379000000000003,6738846.0,28747103.65,1288606480.0,1836461530.0,0.022382520441772108,21.48,2014-03-31 00:00:00,2014-04-24 00:00:00,234.93241104850222,1.7282072849942356,-21.081244899527217,1.7125550186406926
sz000678,2014-06-04,4.14,4.19,4.09,4.17,0.007245999999999999,2247588.0,9291057.58,1255488090.0,1789262750.0,0.007465177913396215,20.92,2014-03-31 00:00:00,2014-04-24 00:00:00,228.8944055251542,1.683790573457013,-20.539435139969953,1.6685405865091676
sz000678,2014-06-03,4.13,4.16,4.08,4.14,0.004854,2079521.0,8605754.05,1246455800.0,1776390360.0,0.006906957262343358,20.77,2014-03-31 00:00:00,2014-04-24 00:00:00,227.24776819680017,1.6716775975849127,-20.391677048079565,1.6565373171093927
sz000678,2014-05-30,4.09,4.14,4.08,4.12,0.012284999999999999,1309616.0,5385505.42,1240434270.0,1767808760.0,0.004349781403572476,20.67,2014-03-31 00:00:00,2014-04-24 00:00:00,226.1500359224327,1.6636024711897577,-20.293173981573013,1.6485353266339118
sz000678,2014-05-29,4.13,4.15,4.06,4.07,-0.014528,1450465.0,5938705.19,1225380460.0,1746354770.0,0.004817599711031789,20.42,2014-03-31 00:00:00,2014-04-24 00:00:00,223.40549936276116,1.6434131407555752,-20.046897841589086,1.6285288497151609
sz000678,2014-05-28,4.16,4.16,4.07,4.13,-0.0048189999999999995,2384517.0,9806196.46,1243445040.0,1772099560.0,0.007919976270121275,20.72,2014-03-31 00:00:00,2014-04-24 00:00:00,226.69898217581132,1.6676406237372299,-20.342432703911513,1.6525369058838413
sz000678,2014-05-27,4.25,4.3,4.11,4.15,-0.002404,6261727.0,26495709.28,1249466560.0,1780681160.0,0.020797809146648954,20.82,2014-03-31 00:00:00,2014-04-24 00:00:00,227.79673464004168,1.6757158986528378,-20.440937582119748,1.6605390435346346
sz000678,2014-05-26,4.08,4.16,4.05,4.16,0.022113,2656009.0,10885204.56,1252477320.0,1784971960.0,0.008821714584021369,20.87,2014-03-31 00:00:00,2014-04-24 00:00:00,228.34567764911014,1.67975402733455,-20.490196013335805,1.6645405991349551
sz000678,2014-05-23,4.04,4.09,4.03,4.07,0.002463,1763192.0,7155251.06,1225380460.0,1746354770.0,0.005856296615012125,20.42,2014-03-31 00:00:00,2014-04-24 00:00:00,223.4055115717246,1.6434132305670213,-20.046898937138852,1.6285289387131903
sz000678,2014-05-22,4.02,4.07,3.99,4.06,0.015,3022785.0,12190002.57,1222369700.0,1742063980.0,0.010039930718177978,20.37,2014-03-31 00:00:00,2014-04-24 00:00:00,222.8566157271885,1.6393754488365369,-19.997644738148793,1.6245277269217817
sz000678,2014-05-21,3.98,4.01,3.94,4.0,0.005025,1101942.0,4395163.88,1204305120.0,1716319190.0,0.00366000935045431,20.07,2014-03-31 00:00:00,2014-04-24 00:00:00,219.5631682041266,1.615148225454716,-19.702113042511126,1.6005199280017555
sz000678,2014-05-20,4.03,4.05,3.98,3.98,-0.007481,1796944.0,7202204.99,1198283590.0,1707737590.0,0.005968401119471226,19.97,2014-03-31 00:00:00,2014-04-24 00:00:00,218.46537967127844,1.6070726852115282,-19.603604927749185,1.5925175274264376
sz000678,2014-05-19,4.1,4.1,3.99,4.01,-0.014741999999999998,1413259.0,5689198.12,1207315880.0,1720609990.0,0.004694023067103201,20.12,2014-03-31 00:00:00,2014-04-24 00:00:00,220.11203782625665,1.6191858142882183,-19.751364888479902,1.6045209486432375
sz000678,2014-05-16,3.99,4.09,3.97,4.07,0.02005,2960986.0,11981193.88,1225380460.0,1746354770.0,0.009834670466346429,20.42,2014-03-31 00:00:00,2014-04-24 00:00:00,223.40548143355005,1.6434130088649046,-20.046896232743,1.6285287190190159
sz000678,2014-05-15,4.06,4.06,3.94,3.99,-0.019656,1237817.0,4966383.75,1201294360.0,1712028390.0,0.004111306932299257,20.02,2014-03-31 00:00:00,2014-04-24 00:00:00,219.0142458051567,1.61111024838479,-19.65285646070585,1.5965185226400824
sz000678,2014-05-14,4.07,4.08,4.04,4.07,0.0,1006926.0,4087671.67,1225380460.0,1746354770.0,0.003344421552143895,20.42,2014-03-31 00:00:00,2014-04-24 00:00:00,223.40550439963593,1.6434131778077796,-20.046898293564148,1.6285288864317857
sz000678,2014-05-13,4.05,4.09,4.04,4.07,0.002463,1524224.0,6200337.29,1225380460.0,1746354770.0,0.005062584138154121,20.42,2014-03-31 00:00:00,2014-04-24 00:00:00,223.40550439963593,1.6434131778077796,-20.046898293564148,1.6285288864317857
sz000678,2014-05-12,4.0,4.08,3.98,4.06,0.02267,1881487.0,7609111.94,1222369700.0,1742063980.0,0.006249203673814885,20.37,2014-03-31 00:00:00,2014-04-24 00:00:00,222.85660857272129,1.6393753962069217,-19.997644096155316,1.6245276747688298
sz000678,2014-05-09,3.98,3.99,3.93,3.97,0.005063000000000001,1125092.0,4453533.33,1195272830.0,1703446790.0,0.0037369001686418327,19.92,2014-03-31 00:00:00,2014-04-24 00:00:00,217.91644281412508,1.6030346017844679,-19.55434704856436,1.5885160166709005
sz000678,2014-05-08,3.94,4.03,3.94,3.95,0.0,1134908.0,4527214.9,1189251310.0,1694865200.0,0.003769503184318544,19.82,2014-03-31 00:00:00,2014-04-24 00:00:00,216.8186897877298,1.5949593227334682,-19.45584211991125,1.5805138749221697
sz000678,2014-05-07,4.02,4.03,3.95,3.95,-0.017412999999999998,1607483.0,6412254.42,1189251310.0,1694865200.0,0.005339122014505075,19.82,2014-03-31 00:00:00,2014-04-24 00:00:00,216.8186897877298,1.5949593227334682,-19.45584211991125,1.5805138749221697
sz000678,2014-05-06,4.05,4.07,4.0,4.02,-0.0074069999999999995,1720185.0,6955339.55,1210326650.0,1724900780.0,0.005713452397334223,20.17,2014-03-31 00:00:00,2014-04-24 00:00:00,220.66106084013913,1.6232245315004863,-19.80063049878662,1.608523087443829
sz000678,2014-05-05,3.99,4.07,3.95,4.05,0.017588,1727185.0,6978410.45,1219358930.0,1737773180.0,0.005736702358837033,20.32,2014-03-31 00:00:00,2014-04-24 00:00:00,222.3076939290718,1.6353374761866006,-19.948388210260017,1.620526325940067
sz000678,2014-04-30,3.87,3.99,3.86,3.98,0.023136,2033824.0,8013590.38,1198283590.0,1707737590.0,0.0067551784799122555,19.97,2014-03-31 00:00:00,2014-04-24 00:00:00,218.4653257792661,1.6070722887716844,-19.60360009184466,1.592517134577125
sz000678,2014-04-29,3.82,3.9,3.79,3.89,0.018325,2068395.0,7948783.02,1171186730.0,1669120410.0,0.006870003171910939,19.52,2014-03-31 00:00:00,2014-04-24 00:00:00,213.52520659938278,1.5707318369910592,-19.160307223912223,1.5565058160177385
sz000678,2014-04-28,3.95,3.98,3.81,3.82,-0.037783,3204252.0,12413071.4,1150111390.0,1639084820.0,0.010642658395027284,19.17,2014-03-31 00:00:00,2014-04-24 00:00:00,209.6827698420276,1.5424661448860228,-18.815512949119608,1.5284961245356232
sz000678,2014-04-25,4.12,4.14,3.94,3.97,-0.041063,4256780.0,17275105.17,1195272830.0,1703446790.0,0.014138543247904332,19.92,2014-03-31 00:00:00,2014-04-24 00:00:00,217.9163014600944,1.6030335619574618,-19.554334364410117,1.5885149862615433
sz000678,2014-04-24,4.14,4.22,4.11,4.14,-0.009569,4785154.0,19897840.98,1246455800.0,1776390360.0,0.015893493824650662,20.77,2014-03-31 00:00:00,2014-04-24 00:00:00,227.24777692392135,1.671677661783268,-20.391677831192368,1.6565373807263075
sz000678,2014-04-23,4.06,4.35,4.06,4.18,-0.064877,9496908.0,39755982.72,1258498850.0,1793553550.0,0.03154319564137861,20.97,2013-12-31 00:00:00,2014-04-22 00:00:00,568.0891288393585,1.9515555766170016,-23.61128263497407,1.6841866989536285
sz000678,2014-03-13,4.4,4.51,4.39,4.47,0.015909,4661704.0,20745212.16,1345810970.0,1917986690.0,0.015483464873228072,22.43,2013-09-30 00:00:00,2013-10-30 00:00:00,372.7163502687982,2.5432508578652655,-12.369558039609535,1.8115295427166362
sz000678,2014-03-12,4.22,4.45,4.14,4.4,0.040188999999999996,8802815.0,37906723.71,1324735630.0,1887951110.0,0.029237823096824236,22.08,2013-09-30 00:00:00,2013-10-30 00:00:00,366.87966173033044,2.5034238872431156,-12.175852403718775,1.7831612306974705
sz000678,2014-03-11,4.21,4.25,4.14,4.23,0.007143000000000001,3109254.0,13018364.95,1273552660.0,1815007540.0,0.010327130422702741,21.22,2013-09-30 00:00:00,2013-10-30 00:00:00,352.7048081938286,2.406700981497704,-11.705423152637428,1.7142665714571776
sz000678,2014-03-10,4.4,4.4,4.19,4.2,-0.045455,4786456.0,20542281.43,1264520380.0,1802135150.0,0.01589781827003848,21.07,2013-09-30 00:00:00,2013-10-30 00:00:00,350.2033059792191,2.3896318412556155,-11.622404318589743,1.702108411076856
sz000678,2014-03-07,4.35,4.47,4.31,4.4,0.009174,5275823.0,23194874.58,1324735630.0,1887951110.0,0.017523210423501634,22.08,2013-09-30 00:00:00,2013-10-30 00:00:00,366.87982858767174,2.5034250258035144,-12.175857941312085,1.7831620416814882
sz000678,2014-03-06,4.48,4.5,4.32,4.36,-0.031111,7614375.0,33343454.56,1312692580.0,1870787910.0,0.025290517753974052,21.88,2013-09-30 00:00:00,2013-10-30 00:00:00,363.5446697870454,2.4806673832297643,-12.065172052898792,1.7669520238150094
sz000678,2014-03-05,4.69,4.69,4.42,4.5,0.056338,14562024.0,65769574.95,1354843260.0,1930859090.0,0.048366560128881624,22.58,2013-09-30 00:00:00,2013-10-30 00:00:00,375.2180794570331,2.560321546874579,-12.452584406365219,1.8236888062667747
sz000678,2014-03-04,4.19,4.26,4.17,4.26,0.009479000000000001,1835829.0,7735895.25,1282584950.0,1827879940.0,0.006097554427096622,21.38,2013-09-30 00:00:00,2013-10-30 00:00:00,355.20645802483017,2.423771129008498,-11.788446885717656,1.726425449303892
sz000678,2014-03-03,4.12,4.22,4.12,4.22,0.019324,1892918.0,7927828.68,1270541900.0,1810716740.0,0.006287170820576636,21.17,2013-09-30 00:00:00,2013-10-30 00:00:00,351.8710721320901,2.4010119368590117,-11.677753460664022,1.7102143276917023
sz000678,2014-02-28,4.08,4.15,4.05,4.14,0.014706,1477342.0,6047996.18,1246455800.0,1776390360.0,0.004906869445350569,20.77,2013-09-30 00:00:00,2013-10-30 00:00:00,345.2004192308728,2.355494363773454,-11.456370556039124,1.6777926622856938
sz000678,2014-02-27,4.1,4.15,4.08,4.08,-0.007298999999999999,1852949.0,7645710.62,1228391220.0,1750645570.0,0.006154417091974982,20.47,2013-09-30 00:00:00,2013-10-30 00:00:00,340.19747516115285,2.321356495155694,-11.290334891130161,1.6534766348929577
sz000678,2014-02-26,4.1,4.14,4.05,4.11,0.00489,2218831.0,9096965.01,1237423510.0,1763517970.0,0.007369663931793248,20.62,2013-09-30 00:00:00,2013-10-30 00:00:00,342.69883395015495,2.3384246567251306,-11.373348965227356,1.6656340981755409
sz000678,2014-02-25,4.22,4.26,4.06,4.09,-0.033097,2715267.0,11374696.93,1231401990.0,1754936370.0,0.009018535068308603,20.52,2013-09-30 00:00:00,2013-10-30 00:00:00,341.03119142409116,2.327045404696166,-11.318003926029073,1.6575287824294607
sz000678,2014-02-24,4.23,4.24,4.17,4.23,0.00237,1911675.0,8024508.53,1273552660.0,1815007540.0,0.00634947066107184,21.22,2013-09-30 00:00:00,2013-10-30 00:00:00,352.7046574724571,2.406699953041997,-11.705418150558094,1.7142658388995182
sz000678,2014-02-21,4.27,4.33,4.2,4.22,-0.014019,2564329.0,10910479.73,1270541900.0,1810716740.0,0.008517207012220532,21.17,2013-09-30 00:00:00,2013-10-30 00:00:00,351.87072385691624,2.401009560383888,-11.677741902249764,1.7102126349546758
sz000678,2014-02-20,4.36,4.39,4.28,4.28,-0.018349,3098281.0,13446348.61,1288606480.0,1836461530.0,0.01029068446093799,21.48,2013-09-30 00:00:00,2013-10-30 00:00:00,356.87373677273314,2.43514789877684,-11.843779851994878,1.7345289969631013
sz000678,2014-02-19,4.32,4.4,4.3,4.36,0.009259,2975678.0,12972817.85,1312692580.0,1870787910.0,0.00988346874025905,21.88,2013-09-30 00:00:00,2013-10-30 00:00:00,363.54441321073693,2.4806656324669762,-12.065163537749035,1.7669507767659802
sz000678,2014-02-18,4.36,4.36,4.28,4.32,-0.009174,3070663.0,13232815.78,1300649530.0,1853624720.0,0.010198953564377946,21.68,2013-09-30 00:00:00,2013-10-30 00:00:00,360.2092358955798,2.4579078635582903,-11.954477034883054,1.7507406689125193
sz000678,2014-02-17,4.29,4.4,4.29,4.36,0.013953,3490122.0,15210695.37,1312692580.0,1870787910.0,0.011592152002565598,21.88,2013-09-30 00:00:00,2013-10-30 00:00:00,363.5443921491561,2.4806654887521016,-12.065162838765891,1.7669506743994596
sz000678,2014-02-14,4.22,4.3,4.19,4.3,0.018956999999999998,3707248.0,15782663.19,1294628000.0,1845043130.0,0.012313318111457498,21.58,2013-09-30 00:00:00,2013-10-30 00:00:00,358.54166036212337,2.446529068657129,-11.89913421900807,1.7426356787735326
sz000678,2014-02-13,4.24,4.29,4.21,4.22,-0.007059,3455129.0,14695899.92,1270541900.0,1810716740.0,0.011475925650307162,21.17,2013-09-30 00:00:00,2013-10-30 00:00:00,351.87123731631794,2.4010130640028273,-11.677758942730724,1.7102151305438136
sz000678,2014-02-12,4.21,4.28,4.17,4.25,0.011904999999999999,3511272.0,14835402.19,1279574190.0,1823589140.0,0.011662399973853802,21.33,2013-09-30 00:00:00,2013-10-30 00:00:00,354.37275459097566,2.418082307007997,-11.76077827658514,1.722373364121145
sz000678,2014-02-11,4.21,4.26,4.18,4.2,-0.007092,3456719.0,14594442.89,1264520380.0,1802135150.0,0.011481206653229267,21.07,2013-09-30 00:00:00,2013-10-30 00:00:00,350.20358095965105,2.3896337175999696,-11.622413444528034,1.7021097475762497
sz000678,2014-02-10,4.16,4.24,4.16,4.23,0.014388,3608111.0,15198758.9,1273552660.0,1815007540.0,0.01198404275642595,21.22,2013-09-30 00:00:00,2013-10-30 00:00:00,352.70496456836986,2.4067020485281305,-11.70542834233185,1.714267331491185
sz000678,2014-02-07,4.11,4.19,4.1,4.17,0.0048189999999999995,2571973.0,10670527.94,1255488090.0,1789262750.0,0.0085425958998942,20.92,2013-09-30 00:00:00,2013-10-30 00:00:00,347.70222495570715,2.3725655750345336,-11.539399462860217,1.6899522978300068
sz000678,2014-01-30,4.16,4.19,4.12,4.15,-0.004796,2291900.0,9524173.99,1249466560.0,1780681160.0,0.007612356588398813,20.82,2013-09-30 00:00:00,2013-10-30 00:00:00,346.0346838144055,2.3611870148101635,-11.484057788378024,1.6818474748487109
sz000678,2014-01-29,4.22,4.28,4.15,4.17,-0.011848000000000001,4208394.0,17674764.06,1255488090.0,1789262750.0,0.013977833099157474,20.92,2013-09-30 00:00:00,2013-10-30 00:00:00,347.7022638719354,2.372565840581593,-11.539400754396109,1.689952486976249
sz000678,2014-01-28,4.05,4.26,4.04,4.22,0.047146,5261548.0,21861720.19,1270541900.0,1810716740.0,0.01747579718543717,21.17,2013-09-30 00:00:00,2013-10-30 00:00:00,351.87123425539323,2.4010130431164365,-11.677758841146005,1.7102151156666676
sz000678,2014-01-27,4.04,4.08,4.0,4.03,-0.0049380000000000005,1467591.0,5937682.55,1213337410.0,1729191580.0,0.004874482300846555,20.22,2013-09-30 00:00:00,2013-10-30 00:00:00,336.02881952983944,2.292911440349709,-11.151987250245911,1.633215536006123
sz000678,2014-01-24,4.01,4.08,4.0,4.05,0.009975,1623513.0,6590517.16,1219358930.0,1737773180.0,0.005392364371334042,20.32,2013-09-30 00:00:00,2013-10-30 00:00:00,337.6963641761412,2.3042900244906432,-11.207329041050617,1.6413203760229238
sz000678,2014-01-23,4.0,4.04,3.99,4.01,-0.0024879999999999998,1400208.0,5619948.88,1207315880.0,1720609990.0,0.0046506752483037,20.12,2013-09-30 00:00:00,2013-10-30 00:00:00,334.3611120831121,2.281531745330967,-11.096640056487159,1.6251099047233089
sz000678,2014-01-22,3.91,4.02,3.91,4.02,0.025509999999999998,1422138.0,5661207.86,1210326650.0,1724900780.0,0.004723513904283607,20.17,2013-09-30 00:00:00,2013-10-30 00:00:00,335.19507743577236,2.2872223545490855,-11.124317358074048,1.6291632629214579
sz000678,2014-01-21,3.85,3.95,3.85,3.92,0.018182,1305275.0,5105748.23,1180219020.0,1681992800.0,0.004335363109128677,19.67,2013-09-30 00:00:00,2013-10-30 00:00:00,326.8569564760679,2.230326719923829,-10.847595204409561,1.5886371297417459
sz000678,2014-01-20,3.95,3.95,3.85,3.85,-0.020356,1143590.0,4426726.98,1159143680.0,1651957220.0,0.0037983397364509635,19.32,2013-09-30 00:00:00,2013-10-30 00:00:00,321.02016778539394,2.190499065907499,-10.653886244708277,1.5602683309484415
sz000678,2014-01-17,3.97,4.01,3.92,3.93,-0.012563,1078401.0,4279711.56,1183229780.0,1686283600.0,0.0035818198642701506,19.72,2013-09-30 00:00:00,2013-10-30 00:00:00,327.6906384210937,2.2360153952941055,-10.875263100379604,1.592689110481401
sz000678,2014-01-16,3.99,4.0,3.95,3.98,0.002519,1112650.0,4427185.0,1198283590.0,1707737590.0,0.0036955751017169482,19.97,2013-09-30 00:00:00,2013-10-30 00:00:00,331.8597930005597,2.2644638547007108,-11.013627300151406,1.6129526344277163
sz000678,2014-01-15,3.96,3.97,3.92,3.97,0.002525,1028167.0,4065800.72,1195272830.0,1703446790.0,0.003414971785144652,19.92,2013-09-30 00:00:00,2013-10-30 00:00:00,331.02593866107253,2.258774002987186,-10.985953682824372,1.6088998157917371
sz000678,2014-01-14,3.92,3.96,3.88,3.96,0.015385,1354388.0,5315753.09,1192262070.0,1699156000.0,0.0044984878869794125,19.87,2013-09-30 00:00:00,2013-10-30 00:00:00,330.19220334761974,2.253084963454463,-10.958284015684766,1.6048475756631873
sz000678,2014-01-13,3.93,3.97,3.87,3.9,-0.010152,1125906.0,4399915.44,1174197490.0,1673411210.0,0.003739603803786022,19.57,2013-09-30 00:00:00,2013-10-30 00:00:00,325.18916799797097,2.218946471983005,-10.792245321414802,1.58053110461863
sz000678,2014-01-10,3.99,3.99,3.85,3.94,-0.012531,1664117.0,6504794.47,1186240540.0,1690574400.0,0.005527227201322929,19.77,2013-09-30 00:00:00,2013-10-30 00:00:00,328.52434717044537,2.241704253565199,-10.902931885920667,1.5967412214992907
sz000678,2014-01-09,4.08,4.13,3.97,3.99,-0.019656,1681481.0,6819382.39,1201294360.0,1712028390.0,0.005584900265410386,20.02,2013-09-30 00:00:00,2013-10-30 00:00:00,332.6933272542686,2.270151522291028,-11.04129029460233,1.6170038973368184
sz000678,2014-01-08,4.13,4.17,4.06,4.07,-0.016908000000000003,1082500.0,4458539.0,1225380460.0,1746354770.0,0.0035954343518746824,20.42,2013-09-30 00:00:00,2013-10-30 00:00:00,339.3638633523218,2.315668298363664,-11.262669322811513,1.649424995039311
sz000678,2014-01-07,4.11,4.17,4.1,4.14,0.002421,1078516.0,4462607.85,1246455800.0,1776390360.0,0.003582201823763025,20.77,2013-09-30 00:00:00,2013-10-30 00:00:00,345.2005136368944,2.3554950079582215,-11.45637368914762,1.6777931211314008
sz000678,2014-01-06,4.29,4.29,4.1,4.13,-0.035047,2023499.0,8417025.9,1243445040.0,1772099560.0,0.006720884800827224,20.72,2013-09-30 00:00:00,2013-10-30 00:00:00,344.3668016101961,2.34980612732397,-11.428704794839314,1.6737409941844799
sz000678,2014-01-03,4.31,4.33,4.22,4.28,-0.006961,2300003.0,9826010.76,1288606480.0,1836461530.0,0.0076392700120520894,21.48,2013-09-30 00:00:00,2013-10-30 00:00:00,356.87417066965554,2.435150859496753,-11.843794251988765,1.734531105851249
sz000678,2014-01-02,4.21,4.32,4.21,4.31,0.026189999999999998,2542966.0,10837253.52,1297638770.0,1849333930.0,0.00844625154040365,21.63,2013-09-30 00:00:00,2013-10-30 00:00:00,359.37578551260884,2.452220768264643,-11.926816823899932,1.7466898136440248
sz000678,2013-12-31,4.16,4.22,4.13,4.2,0.009615,1739814.0,7275771.75,1264520380.0,1802135150.0,0.005778648502288274,21.07,2013-09-30 00:00:00,2013-10-30 00:00:00,350.2039442136533,2.3896361962839663,-11.622425500053533,1.7021115131155293
sz000678,2013-12-30,4.19,4.2,4.12,4.16,0.0024100000000000002,1325657.0,5520627.49,1252477320.0,1784971960.0,0.004403060264596248,20.87,2013-09-30 00:00:00,2013-10-30 00:00:00,346.8688006949711,2.3668786579874173,-11.511740118811161,1.6859015695245507
sz000678,2013-12-27,4.13,4.21,4.11,4.15,0.004843,1326555.0,5525116.7,1249466560.0,1780681160.0,0.004406042887614376,20.82,2013-09-30 00:00:00,2013-10-30 00:00:00,346.0348566903474,2.3611881944388196,-11.484063525714191,1.6818483150851955
sz000678,2013-12-26,4.23,4.23,4.11,4.13,-0.023641,1336088.0,5551378.79,1243445040.0,1772099560.0,0.004437705939942468,20.72,2013-09-30 00:00:00,2013-10-30 00:00:00,344.3670868885462,2.349808073936744,-11.428714262540707,1.6737423807352945
sz000678,2013-12-25,4.2,4.23,4.17,4.23,0.014388,1806508.0,7588194.49,1273552660.0,1815007540.0,0.006000167154454375,21.22,2013-09-30 00:00:00,2013-10-30 00:00:00,352.70539513493105,2.4067049865231374,-11.705442631799068,1.7142694241926324
sz000678,2013-12-24,4.14,4.21,4.13,4.17,0.0048189999999999995,1224180.0,5119391.86,1255488090.0,1789262750.0,0.004066012764804483,20.92,2013-09-30 00:00:00,2013-10-30 00:00:00,347.7026494151459,2.372568471357249,-11.53941354964675,1.6899543608487404
sz000678,2013-12-23,4.22,4.24,4.11,4.15,-0.021226,1574961.0,6571568.53,1249466560.0,1780681160.0,0.005231102903626329,20.82,2013-09-30 00:00:00,2013-10-30 00:00:00,346.03510623818414,2.361189897242438,-11.484071807605899,1.681849527973437
sz000678,2013-12-20,4.3,4.35,4.22,4.24,-0.016241,1696557.0,7234329.11,1276563430.0,1819298340.0,0.005634973955034887,21.28,2013-09-30 00:00:00,2013-10-30 00:00:00,353.5393321013677,2.412395402046272,-11.733118991315559,1.7183226444239799
sz000678,2013-12-19,4.32,4.36,4.3,4.31,0.0,2120459.0,9181158.09,1297638770.0,1849333930.0,0.007042929435593235,21.63,2013-09-30 00:00:00,2013-10-30 00:00:00,359.3759570193185,2.452221938550267,-11.92682251579458,1.7466906472255703
sz000678,2013-12-18,4.29,4.34,4.27,4.31,0.0070090000000000005,1933238.0,8339934.78,1297638770.0,1849333930.0,0.006421090347046274,21.63,2013-09-30 00:00:00,2013-10-30 00:00:00,359.3759570193185,2.452221938550267,-11.92682251579458,1.7466906472255703
sz000678,2013-12-17,4.24,4.33,4.24,4.28,0.009434,1887068.0,8092430.45,1288606480.0,1836461530.0,0.006267740512991988,21.48,2013-09-30 00:00:00,2013-10-30 00:00:00,356.874622788196,2.4351539445528956,-11.84380925671427,1.7345333033027217
sz000678,2013-12-16,4.33,4.35,4.24,4.24,-0.016241,1871897.0,8008445.75,1276563430.0,1819298340.0,0.006217351283515932,21.28,2013-09-30 00:00:00,2013-10-30 00:00:00,353.5393327232846,2.4123954062899564,-11.733119011955482,1.7183226474467095
sz000678,2013-12-13,4.31,4.33,4.26,4.31,-0.002315,1931763.0,8297382.96,1297638770.0,1849333930.0,0.006416191256369444,21.63,2013-09-30 00:00:00,2013-10-30 00:00:00,359.37595765150263,2.4522219428640106,-11.926822536775248,1.7466906502982025
sz000678,2013-12-12,4.3,4.34,4.29,4.32,0.004651,2138998.0,9217745.09,1300649530.0,1853624720.0,0.007104505208255447,21.68,2013-09-30 00:00:00,2013-10-30 00:00:00,360.209843439064,2.457912009165228,-11.954497197788127,1.750743621782629
sz000678,2013-12-11,4.4,4.4,4.28,4.3,-0.022727,3159010.0,13644612.97,1294628000.0,1845043130.0,0.010492390864402746,21.58,2013-09-30 00:00:00,2013-10-30 00:00:00,358.5422633721203,2.4465331833295623,-11.899154231457619,1.7426386096093363
sz000678,2013-12-10,4.45,4.49,4.38,4.4,-0.009009,2923599.0,12917854.81,1324735630.0,1887951110.0,0.009710492651277148,22.08,2013-09-30 00:00:00,2013-10-30 00:00:00,366.88035315835015,2.5034286052408716,-12.175875350549559,1.783164591275249
sz000678,2013-12-09,4.4,4.49,4.39,4.44,0.004525,2791652.0,12415947.87,1336778680.0,1905114300.0,0.009272241594996115,22.28,2013-09-30 00:00:00,2013-10-30 00:00:00,370.21562573055684,2.526187024141362,-12.286565014767604,1.7993751621107046
sz000678,2013-12-06,4.39,4.42,4.36,4.42,0.009132,2901976.0,12737591.59,1330757160.0,1896532700.0,0.009638673610442945,22.18,2013-09-30 00:00:00,2013-10-30 00:00:00,368.5479462736685,2.5148075201128512,-12.231218749924198,1.7912696668681267
sz000678,2013-12-05,4.4,4.4,4.3,4.38,-0.002278,4668921.0,20385766.44,1318714110.0,1879369510.0,0.015507435481978728,21.98,2013-09-30 00:00:00,2013-10-30 00:00:00,365.2128227760774,2.4920501184313366,-12.120534033133623,1.7750598205865307
sz000678,2013-12-04,4.33,4.44,4.31,4.39,0.006881,5922245.0,26008628.14,1321724870.0,1883660310.0,0.01967024767416232,22.03,2013-09-30 00:00:00,2013-10-30 00:00:00,366.04667710652603,2.497739970083186,-12.148207650160687,1.7791126391785792
sz000678,2013-12-03,4.27,4.4,4.23,4.36,0.011601,5622290.0,24383791.4,1312692580.0,1870787910.0,0.01867397193636914,21.88,2013-09-30 00:00:00,2013-10-30 00:00:00,363.5451231143761,2.4806704765341547,-12.065187097741132,1.766954227141618
sz000678,2013-12-02,4.46,4.61,4.23,4.31,-0.061002,10066759.0,44104204.16,1297638770.0,1849333930.0,0.033435908584944635,21.63,2013-09-30 00:00:00,2013-10-30 00:00:00,359.37600211385325,2.4522222462553462,-11.926824012373585,1.7466908664005056
sz000678,2013-11-29,4.66,4.66,4.52,4.59,-0.010776,7817120.0,35732183.37,1381940130.0,1969476270.0,0.02596391842242833,23.03,2013-09-30 00:00:00,2013-10-30 00:00:00,382.7228621507748,2.6115308512428634,-12.701650069940069,1.8601646291051797
sz000678,2013-11-28,4.67,4.69,4.55,4.64,-0.006423999999999999,10745168.0,49697121.47,1396993940.0,1990930260.0,0.03568918811487471,23.28,2013-09-30 00:00:00,2013-10-30 00:00:00,386.8920104554426,2.6399792678330316,-12.84001406146643,1.8804281225538193
sz000678,2013-11-27,4.78,4.89,4.6,4.67,-0.03112,15190025.0,71774107.51,1406026230.0,2003802650.0,0.05045241350156035,23.43,2013-09-30 00:00:00,2013-10-30 00:00:00,389.3934741332747,2.657048145117265,-12.923031616571283,1.8925860956321603
sz000678,2013-11-26,4.8,4.97,4.73,4.82,-0.006186,15366570.0,74557417.86,1451187670.0,2068164620.0,0.05103879321135633,24.19,2013-09-30 00:00:00,2013-10-30 00:00:00,401.9006214735311,2.7423913643766675,-13.338113715394359,1.9533751296674104
sz000678,2013-11-25,4.56,4.95,4.51,4.85,0.052061,22498757.0,107931852.44,1460219960.0,2081037020.0,0.07472776324054631,24.34,2013-09-30 00:00:00,2013-10-30 00:00:00,404.4022538156346,2.759461392550988,-13.421136868060179,1.9655339225120703
sz000678,2013-11-22,4.58,4.67,4.54,4.61,-0.00432,15495342.0,71717565.82,1387961650.0,1978057860.0,0.0514664988186093,23.13,2013-09-30 00:00:00,2013-10-30 00:00:00,384.3904999953754,2.622910071327602,-12.756994953771864,1.8682699220977401
sz000678,2013-11-21,4.61,4.69,4.5,4.63,0.002165,18019277.0,83327970.4,1393983180.0,1986639460.0,0.05984954030076604,23.23,2013-09-30 00:00:00,2013-10-30 00:00:00,386.0582717292458,2.6342902050132597,-12.81234428106607,1.876375865838161
sz000678,2013-11-20,4.49,4.67,4.48,4.62,0.017621,20471294.0,93821069.26,1390972410.0,1982348660.0,0.06799371259995013,23.18,2013-09-30 00:00:00,2013-10-30 00:00:00,385.2242612037397,2.6285992875557014,-12.784665480301218,1.872322288084458
sz000678,2013-11-19,4.53,4.58,4.46,4.54,0.004425,18903620.0,85676871.12,1366886310.0,1948022280.0,0.06278681275255438,22.78,2013-09-30 00:00:00,2013-10-30 00:00:00,378.5537653052951,2.5830827857873424,-12.563287786220231,1.8399013857658777
sz000678,2013-11-18,4.43,4.58,4.41,4.52,0.008929000000000001,21475529.0,96939684.74,1360864790.0,1939440680.0,0.07132919581231871,22.68,2013-09-30 00:00:00,2013-10-30 00:00:00,376.8860445581254,2.5717030000122882,-12.507940151051827,1.831795689838343
sz000678,2013-11-15,4.43,4.72,4.42,4.48,0.0,24086482.0,109184334.91,1348821730.0,1922277490.0,0.08000126107102382,22.48,2013-09-30 00:00:00,2013-10-30 00:00:00,373.5506111511567,2.548943483646806,-12.397245149115376,1.8155843372906748
sz000678,2013-11-14,4.33,4.48,4.3,4.48,0.032257999999999995,8998285.0,39562833.05,1348821730.0,1922277490.0,0.029887060612524385,22.48,2013-09-30 00:00:00,2013-10-30 00:00:00,373.5506111511567,2.548943483646806,-12.397245149115376,1.8155843372906748
sz000678,2013-11-13,4.24,4.37,4.19,4.34,0.016393,7045848.0,30243357.62,1306671060.0,1862206320.0,0.023402202173208,21.78,2013-09-30 00:00:00,2013-10-30 00:00:00,361.8771771700067,2.4692891541134157,-12.009831988820022,1.7588474366783062
sz000678,2013-11-12,4.08,4.29,4.08,4.27,0.033898000000000005,7855028.0,33212805.17,1285595720.0,1832170730.0,0.02608982671473113,21.43,2013-09-30 00:00:00,2013-10-30 00:00:00,356.0406035559145,2.429462967684169,-11.816130166992512,1.7304796832310985
sz000678,2013-11-11,4.03,4.14,4.0,4.13,0.019753,2613034.0,10710368.3,1243445040.0,1772099560.0,0.008678976611624105,20.72,2013-09-30 00:00:00,2013-10-30 00:00:00,344.3672427608086,2.349809137539843,-11.428719435565705,1.6737431383280539
sz000678,2013-11-08,3.99,4.05,3.98,4.05,0.002475,3150738.0,12648056.59,1219358930.0,1737773180.0,0.010464916101446849,20.32,2013-09-30 00:00:00,2013-10-30 00:00:00,337.6967194612898,2.304292448798722,-11.207340832109054,1.6413221028308365
sz000678,2013-11-07,4.02,4.07,3.96,4.04,0.0024809999999999997,2907854.0,11696582.42,1216348170.0,1733482380.0,0.00965819692892702,20.27,2013-09-30 00:00:00,2013-10-30 00:00:00,336.8629835769368,2.29860340537043,-11.179671146022647,1.6372698599275157
sz000678,2013-11-06,4.04,4.12,4.02,4.03,-0.0049380000000000005,3856937.0,15653601.37,1213337410.0,1729191580.0,0.012810497708135448,20.22,2013-09-30 00:00:00,2013-10-30 00:00:00,336.0292948962991,2.2929146840393284,-11.152003026513867,1.6332178464504723
sz000678,2013-11-05,4.05,4.05,3.96,4.05,0.0,2003299.0,8034758.97,1219358930.0,1737773180.0,0.006653792210305131,20.32,2013-09-30 00:00:00,2013-10-30 00:00:00,337.6968419016092,2.3042932842770885,-11.20734489560838,1.6413226979328643
sz000678,2013-11-04,4.06,4.06,4.0,4.05,0.0,3207753.0,12930666.69,1219358930.0,1737773180.0,0.010654286716053328,20.32,2013-09-30 00:00:00,2013-10-30 00:00:00,337.6968419016092,2.3042932842770885,-11.20734489560838,1.6413226979328643
sz000678,2013-11-01,4.06,4.14,4.02,4.05,-0.002463,3789418.0,15371354.5,1219358930.0,1737773180.0,0.012586238983791262,20.32,2013-09-30 00:00:00,2013-10-30 00:00:00,337.6968419016092,2.3042932842770885,-11.20734489560838,1.6413226979328643
sz000678,2013-10-31,4.04,4.11,3.97,4.06,0.00495,4057750.0,16452915.14,1222369700.0,1742063980.0,0.01347748148534768,20.37,2013-09-30 00:00:00,2013-10-30 00:00:00,338.5306428750104,2.309982771844141,-11.235016741843541,1.6453752571913267
sz000678,2013-10-30,3.94,4.09,3.91,4.04,0.025381,4814727.0,19364777.14,1216348170.0,1733482380.0,0.01599171812787781,20.27,2013-09-30 00:00:00,2013-10-30 00:00:00,336.8631701826065,2.2986046786846517,-11.179677339015415,1.6372707668951956
sz000678,2013-10-29,4.13,4.16,3.85,3.94,-0.046005000000000004,4470783.0,17913291.88,1186240540.0,1690574400.0,0.01484933656035731,19.77,2013-06-30 00:00:00,2013-08-14 00:00:00,123.7127432254575,2.288306269340597,-22.012422181375335,1.595216075166342
sz000678,2013-10-28,4.2,4.25,4.1,4.13,-0.021327000000000002,2557007.0,10587630.97,1243445040.0,1772099560.0,0.008492887558584817,20.72,2013-06-30 00:00:00,2013-08-14 00:00:00,129.67860756655693,2.398656459772427,-23.073938732776725,1.672143014550749
sz000678,2013-10-25,4.33,4.46,4.18,4.22,-0.00939,5074121.0,22113426.46,1270541900.0,1810716740.0,0.01685327388258506,21.17,2013-06-30 00:00:00,2013-08-14 00:00:00,132.50453171443064,2.450927388180146,-23.57676029968818,1.708581941619672
sz000678,2013-10-24,4.2,4.29,4.15,4.26,0.014286000000000002,2965434.0,12482399.47,1282584950.0,1827879940.0,0.009849444155726294,21.38,2013-06-30 00:00:00,2013-08-14 00:00:00,133.76054321522156,2.4741597482158926,-23.80024459644883,1.7247776033147977
sz000678,2013-10-23,4.34,4.4,4.2,4.2,-0.034483,4675024.0,20161441.53,1264520380.0,1802135150.0,0.015527706085686021,21.07,2013-06-30 00:00:00,2013-08-14 00:00:00,131.8765547540058,2.4393117406884177,-23.465023273957076,1.700484482004876
sz000678,2013-10-22,4.39,4.4,4.32,4.35,-0.006848999999999999,2966970.0,12932974.74,1309681820.0,1866497120.0,0.009854545816326594,21.83,2013-06-30 00:00:00,2013-08-14 00:00:00,136.5864658561225,2.526430648749238,-24.30306589522202,1.761216510952035
sz000678,2013-10-21,4.36,4.39,4.32,4.38,0.0068969999999999995,4180003.0,18265591.47,1318714110.0,1879369510.0,0.013883534726112848,21.98,2013-06-30 00:00:00,2013-08-14 00:00:00,137.52839785301782,2.543853501380191,-24.470665483115884,1.7733622691333293
sz000678,2013-10-18,4.37,4.4,4.31,4.35,-0.006848999999999999,2684419.0,11742950.53,1309681820.0,1866497120.0,0.008916076005391904,21.83,2013-06-30 00:00:00,2013-08-14 00:00:00,136.58636171626077,2.526428722481238,-24.303047365436466,1.761215168118814
sz000678,2013-10-17,4.3,4.42,4.29,4.38,0.020978999999999998,5313023.0,23154648.25,1318714110.0,1879369510.0,0.017646767076754794,21.98,2013-06-30 00:00:00,2013-08-14 00:00:00,137.52829299498342,2.5438515618281996,-24.470646825544623,1.7733609170396185
sz000678,2013-10-16,4.46,4.46,4.24,4.29,-0.044543,6452022.0,27874094.46,1291617240.0,1840752330.0,0.021429858260485903,21.53,2013-06-30 00:00:00,2013-08-14 00:00:00,134.7023719341763,2.4915806905217437,-23.967825807920264,1.7369220297769281
sz000678,2013-10-15,4.59,4.59,4.46,4.49,-0.023913,6218177.0,28064116.61,1351832500.0,1926568290.0,0.020653161342104147,22.53,2013-06-30 00:00:00,2013-08-14 00:00:00,140.98213936804726,2.607737125293701,-25.08519567905229,1.8178965979389217
sz000678,2013-10-14,4.49,4.62,4.45,4.6,0.024499,9001740.0,40933330.66,1384950890.0,1973767070.0,0.029898535969026308,23.08,2013-06-30 00:00:00,2013-08-14 00:00:00,144.43603835318703,2.671623661921223,-25.699753893917542,1.862432957245534
sz000678,2013-10-11,4.46,4.53,4.42,4.49,0.006726,7404891.0,33266710.26,1351832500.0,1926568290.0,0.02459473388160146,22.53,2013-06-30 00:00:00,2013-08-14 00:00:00,140.98211745759343,2.6077367200175137,-25.085191780487378,1.8178963154142014
sz000678,2013-10-10,4.46,4.52,4.34,4.46,0.0,8799878.0,39268624.14,1342800210.0,1913695890.0,0.029228068023611643,22.38,2013-06-30 00:00:00,2013-08-14 00:00:00,140.0402070251423,2.590314266262631,-24.917596029592335,1.8057508352960001
sz000678,2013-10-09,4.44,4.54,4.4,4.46,-0.004464,9075430.0,40865337.1,1342800210.0,1913695890.0,0.030143291234665505,22.38,2013-06-30 00:00:00,2013-08-14 00:00:00,140.0402070251423,2.590314266262631,-24.917596029592335,1.8057508352960001
sz000678,2013-10-08,4.38,4.5,4.26,4.48,0.009009,10670177.0,47243688.94,1348821730.0,1922277490.0,0.03544011183746276,22.48,2013-06-30 00:00:00,2013-08-14 00:00:00,140.66814964515828,2.601929278562132,-25.02932694507515,1.8138478521078094
sz000678,2013-09-30,4.45,4.53,4.42,4.44,-0.008929000000000001,10451233.0,46881262.23,1336778680.0,1905114300.0,0.03471290739017472,22.28,2013-06-30 00:00:00,2013-08-14 00:00:00,139.41218526807816,2.5786977901704864,-24.80585103311779,1.7976527980501753
sz000678,2013-09-27,4.53,4.57,4.4,4.48,-0.011038,13016396.0,58335751.06,1348821730.0,1922277490.0,0.04323288451172862,22.48,2013-06-30 00:00:00,2013-08-14 00:00:00,140.66821173062084,2.601930426952747,-25.029337992048788,1.813848652669864
sz000678,2013-09-26,4.38,4.64,4.33,4.53,0.034247,18534117.0,83491181.26,1363875550.0,1943731480.0,0.06155953892567398,22.73,2013-06-30 00:00:00,2013-08-14 00:00:00,142.23823739498673,2.630971085797783,-25.30869537156007,1.8340933753469437
sz000678,2013-09-25,4.32,4.38,4.27,4.38,0.018605,2867536.0,12340564.53,1318714110.0,1879369510.0,0.00952428398601119,21.98,2013-06-30 00:00:00,2013-08-14 00:00:00,137.52830551598095,2.5438517934282463,-24.47064905342735,1.7733610784918343
sz000678,2013-09-24,4.32,4.32,4.26,4.3,-0.006928,1576182.0,6763394.16,1294628000.0,1845043130.0,0.005235158362093203,21.58,2013-06-30 00:00:00,2013-08-14 00:00:00,135.01632675667304,2.49738789170311,-24.0236883320103,1.7409703255843378
sz000678,2013-09-23,4.29,4.34,4.26,4.33,0.011682,2365955.0,10204532.46,1303660290.0,1857915520.0,0.007858324157438284,21.73,2013-06-30 00:00:00,2013-08-14 00:00:00,135.958245481368,2.5148104988390676,-24.191285558358615,1.7531159126270182
sz000678,2013-09-18,4.27,4.3,4.2,4.28,0.0,2412293.0,10243140.31,1288606480.0,1836461530.0,0.008012231973255327,21.48,2013-06-30 00:00:00,2013-08-14 00:00:00,134.38832111411293,2.48577171367986,-23.911946202817305,1.7328724961272597
sz000678,2013-09-17,4.29,4.33,4.25,4.28,-0.0023309999999999997,2507820.0,10753863.08,1288606480.0,1836461530.0,0.00832951701437975,21.48,2013-06-30 00:00:00,2013-08-14 00:00:00,134.38832111411293,2.48577171367986,-23.911946202817305,1.7328724961272597
sz000678,2013-09-16,4.34,4.34,4.27,4.29,-0.009238,2359799.0,10131740.84,1291617240.0,1840752330.0,0.007837877504639068,21.53,2013-06-30 00:00:00,2013-08-14 00:00:00,134.70231220386012,2.491579585694112,-23.96781518000188,1.736921259583348
sz000678,2013-09-13,4.41,4.42,4.3,4.33,-0.018141,3475915.0,15099385.97,1303660290.0,1857915520.0,0.011544964639522771,21.73,2013-06-30 00:00:00,2013-08-14 00:00:00,135.95829493244605,2.5148114135323243,-24.191294357274387,1.7531165502747867
sz000678,2013-09-12,4.36,4.51,4.34,4.41,0.009153,4887196.0,21712429.09,1327746390.0,1892241900.0,0.016232417969519016,22.13,2013-06-30 00:00:00,2013-08-14 00:00:00,138.47028436103966,2.5612755126065183,-24.638256977095878,1.7855074407575695
sz000678,2013-09-11,4.35,4.41,4.29,4.37,0.002294,4573034.0,19848551.6,1315703340.0,1875078710.0,0.015188954814084459,21.93,2013-06-30 00:00:00,2013-08-14 00:00:00,137.2143613119514,2.538044788655951,-24.414788418699523,1.7693129196044304
sz000678,2013-09-10,4.32,4.38,4.25,4.36,0.011601,4208330.0,18195292.29,1312692580.0,1870787910.0,0.013977620563681408,21.88,2013-06-30 00:00:00,2013-08-14 00:00:00,136.900311996232,2.532235839639817,-24.358909081267097,1.7652634053525516
sz000678,2013-09-09,4.31,4.39,4.25,4.31,0.0,6944453.0,29923364.76,1297638770.0,1849333930.0,0.023065427083378526,21.63,2013-06-30 00:00:00,2013-08-14 00:00:00,135.3303446677415,2.503196259829534,-24.079562081558926,1.7450194348884107
sz000678,2013-09-06,4.1,4.32,4.08,4.31,0.05122,8926678.0,37798958.85,1297638770.0,1849333930.0,0.029649223704991488,21.63,2013-06-30 00:00:00,2013-08-14 00:00:00,135.3303446677415,2.503196259829534,-24.079562081558926,1.7450194348884107
sz000678,2013-09-05,4.17,4.17,4.09,4.1,-0.014422999999999998,2583890.0,10623598.1,1234412750.0,1759227170.0,0.008582177233668399,20.57,2013-06-30 00:00:00,2013-08-14 00:00:00,128.73646303127938,2.38122967583335,-22.90630132756124,1.6599945157896643
sz000678,2013-09-04,4.2,4.23,4.12,4.16,-0.009524,3344722.0,13910544.06,1252477320.0,1784971960.0,0.011109217945758889,20.87,2013-06-30 00:00:00,2013-08-14 00:00:00,130.6204010759985,2.4160767508102867,-23.24151367935863,1.6842869870032113
sz000678,2013-09-03,4.11,4.21,4.08,4.2,0.024390000000000002,4758781.0,19835107.69,1264520380.0,1802135150.0,0.015805898043335608,21.07,2013-06-30 00:00:00,2013-08-14 00:00:00,131.87639183180463,2.439308727127448,-23.464994284928284,1.700482381201777
sz000678,2013-09-02,4.06,4.1,4.03,4.1,0.009852,2317227.0,9419046.79,1234412750.0,1759227170.0,0.0076964781026443545,20.57,2013-06-30 00:00:00,2013-08-14 00:00:00,128.73650839212078,2.3812305148697743,-22.906309398694134,1.6599951006958062
sz000678,2013-08-30,4.1,4.14,4.05,4.06,-0.009756,4390119.0,18003875.54,1222369700.0,1742063980.0,0.014581417667666335,20.37,2013-06-30 00:00:00,2013-08-14 00:00:00,127.4805698182712,2.3579995037587436,-22.682838077950173,1.643800379358368
sz000678,2013-08-29,4.04,4.11,4.0,4.1,0.01737,4754041.0,19339977.0,1234412750.0,1759227170.0,0.015790154549197584,20.57,2013-06-30 00:00:00,2013-08-14 00:00:00,128.736523339976,2.3812307913592443,-22.90631205839184,1.65999529344118
sz000678,2013-08-28,4.07,4.08,4.01,4.03,-0.012255,3020547.0,12215995.02,1213337410.0,1729191580.0,0.010032497399054069,20.22,2013-06-30 00:00:00,2013-08-14 00:00:00,126.53854874821943,2.340575003547622,-22.515222641115663,1.6316534726217402
sz000678,2013-08-27,4.04,4.08,4.01,4.08,0.012407,2561498.0,10375993.35,1228391220.0,1750645570.0,0.008507804085411812,20.47,2013-06-30 00:00:00,2013-08-14 00:00:00,128.1085186442041,2.3696146308486723,-22.79457009766251,1.651897476192479
sz000678,2013-08-26,3.97,4.05,3.96,4.03,0.012563,3699400.0,14850179.92,1213337410.0,1729191580.0,0.01228725157332782,20.22,2013-06-30 00:00:00,2013-08-14 00:00:00,126.53855479486424,2.340575115392004,-22.515223717005625,1.631653550590305
sz000678,2013-08-23,3.97,4.0,3.88,3.98,-0.002506,1997540.0,7872287.1,1198283590.0,1707737590.0,0.006634664169939939,19.97,2013-06-30 00:00:00,2013-08-14 00:00:00,124.96857459226166,2.3115352974501375,-22.235874426584445,1.6114094141207065
sz000678,2013-08-22,3.93,4.02,3.9,3.99,0.01269,3262713.0,12969781.55,1201294360.0,1712028390.0,0.010836831757039133,20.02,2013-06-30 00:00:00,2013-08-14 00:00:00,125.28253261900488,2.3173425579002354,-22.291737520811598,1.6154577512453272
sz000678,2013-08-21,3.92,3.94,3.88,3.94,0.005102000000000001,1730766.0,6765988.44,1186240540.0,1690574400.0,0.005748596351293136,19.77,2013-06-30 00:00:00,2013-08-14 00:00:00,123.71261947783118,2.2883039803890974,-22.012400162746342,1.5952144795004661
sz000678,2013-08-20,3.92,3.97,3.91,3.92,-0.002545,1243964.0,4899691.59,1180219020.0,1681992800.0,0.004131723686337473,19.67,2013-06-30 00:00:00,2013-08-14 00:00:00,123.08464163620329,2.2766883165978156,-21.900662980221256,1.587117008522982
sz000678,2013-08-19,3.88,3.95,3.86,3.93,0.012887000000000001,1247140.0,4885062.82,1183229780.0,1686283600.0,0.004142272517853633,19.72,2013-06-30 00:00:00,2013-08-14 00:00:00,123.398691305576,2.2824972721554513,-21.956542380579833,1.59116652733505
sz000678,2013-08-16,3.99,4.08,3.88,3.88,-0.03,3468254.0,13824804.42,1168175970.0,1664829610.0,0.01151951920394322,19.47,2013-06-30 00:00:00,2013-08-14 00:00:00,121.82868504144685,2.253456972155286,-21.677188452986197,1.5709220548146532
sz000678,2013-08-15,4.04,4.05,3.99,4.0,-0.009901,2483982.0,9973412.02,1204305120.0,1716319190.0,0.008250341076354471,20.07,2013-06-30 00:00:00,2013-08-14 00:00:00,125.59658251695552,2.323151517685862,-22.347616961841442,1.6195072730047972
sz000678,2013-08-14,4.12,4.12,4.01,4.04,-0.014634000000000001,3977817.0,16170886.22,1216348170.0,1733482380.0,0.01321199067533435,20.27,2013-06-30 00:00:00,2013-08-14 00:00:00,126.85254961065058,2.3463830563265513,-22.571093357170792,1.635702362091869
sz000678,2013-08-13,4.1,4.14,4.07,4.1,-0.002433,4457547.0,18249508.41,1234412750.0,1759227170.0,0.014805374215391083,20.57,2013-03-31 00:00:00,2013-04-26 00:00:00,107.75303960822963,2.4623164717393173,-27.1773563551424,1.6585270095337472
sz000678,2013-08-12,4.04,4.13,4.0,4.11,0.014815,3849227.0,15681372.71,1237423510.0,1763517970.0,0.01278488960501486,20.62,2013-03-31 00:00:00,2013-04-26 00:00:00,108.0158421521859,2.4683218989193882,-27.24364013158254,1.6625720473248886
sz000678,2013-08-09,4.02,4.08,3.95,4.05,0.015038,2803281.0,11316928.17,1219358930.0,1737773180.0,0.009310866366476687,20.32,2013-03-31 00:00:00,2013-04-26 00:00:00,106.4389491209589,2.432287558736704,-26.845917858508734,1.6383006235864552
sz000678,2013-08-08,3.97,4.03,3.97,3.99,-0.0025,1911516.0,7651335.83,1201294360.0,1712028390.0,0.006348942518967624,20.02,2013-03-31 00:00:00,2013-04-26 00:00:00,104.86203385583484,2.396252710476557,-26.448189977625205,1.614028857625483
sz000678,2013-08-07,4.03,4.05,3.97,4.0,-0.009901,2797779.0,11209705.64,1204305120.0,1716319190.0,0.009292591897309214,20.07,2013-03-31 00:00:00,2013-04-26 00:00:00,105.12484597076174,2.4022583563674758,-26.514476168045316,1.618074042732314
sz000678,2013-08-06,4.02,4.05,3.97,4.04,0.004975,2831869.0,11371318.32,1216348170.0,1733482380.0,0.009405819026307247,20.27,2013-03-31 00:00:00,2013-04-26 00:00:00,106.17609549223032,2.4262809641939604,-26.779621197521983,1.6342547995021852
sz000678,2013-08-05,3.97,4.03,3.94,4.02,0.01005,1956729.0,7840296.74,1210326650.0,1724900780.0,0.006499113755778243,20.17,2013-03-31 00:00:00,2013-04-26 00:00:00,105.65048433267526,2.4142699710877986,-26.647052113258525,1.6261646304656188
sz000678,2013-08-02,3.96,4.03,3.94,3.98,0.0,2298379.0,9144163.1,1198283590.0,1707737590.0,0.007633876067684445,19.97,2013-03-31 00:00:00,2013-04-26 00:00:00,104.59926175206701,2.390247978899856,-26.38191387877682,1.6099842883675255
sz000678,2013-08-01,3.94,3.99,3.89,3.98,0.025773,2112658.0,8353070.56,1198283590.0,1707737590.0,0.007017019101463286,19.97,2013-03-31 00:00:00,2013-04-26 00:00:00,104.59926175206701,2.390247978899856,-26.38191387877682,1.6099842883675255
sz000678,2013-07-31,3.88,3.94,3.86,3.88,0.005181,1153525.0,4500001.5,1168175970.0,1664829610.0,0.0038313380132275793,19.47,2013-03-31 00:00:00,2013-04-26 00:00:00,101.97115906937208,2.330191941979225,-25.719056632195255,1.5695327215353938
sz000678,2013-07-30,3.89,3.95,3.82,3.86,-0.010256,1455910.0,5655119.3,1162154440.0,1656248020.0,0.004835684833764435,19.37,2013-03-31 00:00:00,2013-04-26 00:00:00,101.44556957341223,2.3181814439182844,-25.586493011900593,1.5614428859433211
sz000678,2013-07-29,3.95,3.99,3.88,3.9,-0.020101,2076603.0,8141168.13,1174197490.0,1673411210.0,0.006897265382503926,19.57,2013-03-31 00:00:00,2013-04-26 00:00:00,102.49677651333297,2.342203078693364,-25.85162730150483,1.5776229873010812
sz000678,2013-07-26,4.1,4.1,3.9,3.98,-0.03163,3608822.0,14391068.32,1198283590.0,1707737590.0,0.011986404286818282,19.97,2013-03-31 00:00:00,2013-04-26 00:00:00,104.59932759736766,2.3902494835624526,-26.3819304862081,1.6099853018536414
sz000678,2013-07-25,4.0,4.19,3.93,4.11,0.017327000000000002,9045959.0,36878275.71,1237423510.0,1763517970.0,0.030045405788354553,20.62,2013-03-31 00:00:00,2013-04-26 00:00:00,108.01586955127448,2.468322525029124,-27.24364704215135,1.6625724690496828
sz000678,2013-07-24,3.9,4.07,3.88,4.04,0.027989999999999998,5646917.0,22510453.29,1216348170.0,1733482380.0,0.018755768490201292,20.27,2013-03-31 00:00:00,2013-04-26 00:00:00,106.17615530824844,2.426282331078526,-26.779636284254074,1.6342557201860195
sz000678,2013-07-23,3.8,3.95,3.75,3.93,0.039682999999999996,3595914.0,13946575.65,1183229780.0,1686283600.0,0.011943531390834332,19.72,2013-03-31 00:00:00,2013-04-26 00:00:00,103.2852024905383,2.3602197794516737,-26.050483257866397,1.5897583830446012
sz000678,2013-07-22,3.76,3.82,3.71,3.78,0.002653,1961730.0,7372877.68,1138068340.0,1621921630.0,0.00651572417874308,18.97,2013-03-31 00:00:00,2013-04-26 00:00:00,99.34297520546002,2.270134049947603,-25.056178910173966,1.5290799051678265
sz000678,2013-07-19,3.89,3.95,3.77,3.77,-0.030848,2645096.0,10243231.76,1135057580.0,1617630830.0,0.008785467887893405,18.92,2013-03-31 00:00:00,2013-04-26 00:00:00,99.0801156586177,2.264127320167199,-24.989880756526897,1.5250339899923766
sz000678,2013-07-18,3.89,3.92,3.83,3.89,0.0,1411363.0,5470319.92,1171186730.0,1669120410.0,0.0046877256455936794,19.52,2013-03-31 00:00:00,2013-04-26 00:00:00,102.23382468242103,2.3361942400853524,-25.785305872068463,1.5735756516958914
sz000678,2013-07-17,3.98,4.0,3.85,3.89,-0.032338,2611091.0,10271313.26,1171186730.0,1669120410.0,0.008672523116787704,19.52,2013-03-31 00:00:00,2013-04-26 00:00:00,102.23382468242103,2.3361942400853524,-25.785305872068463,1.5735756516958914
sz000678,2013-07-16,3.99,4.07,3.95,4.02,0.025509999999999998,3780609.0,15153809.33,1210326650.0,1724900780.0,0.01255698053083438,20.17,2013-03-31 00:00:00,2013-04-26 00:00:00,105.65034555704473,2.414266799859199,-26.64701711141748,1.6261624944411286
sz000678,2013-07-15,3.86,3.96,3.86,3.92,0.015544,2400524.0,9414218.32,1180219020.0,1681992800.0,0.007973142205418787,19.67,2013-03-31 00:00:00,2013-04-26 00:00:00,103.02224801030194,2.3542108803026776,-25.984161160220264,1.5857110066612015
sz000678,2013-07-12,3.91,3.94,3.83,3.86,-0.010256,2648870.0,10291092.01,1162154440.0,1656248020.0,0.008798002957334999,19.37,2013-03-31 00:00:00,2013-04-26 00:00:00,101.4453810079149,2.3181771349175198,-25.586445452112624,1.5614399835567945
sz000678,2013-07-11,3.8,3.95,3.8,3.9,0.026316000000000003,2610148.0,10147600.56,1174197490.0,1673411210.0,0.008669391040854634,19.57,2013-03-31 00:00:00,2013-04-26 00:00:00,102.49658599386802,2.342198725041546,-25.851579248889234,1.5776200548392256
sz000678,2013-07-10,3.69,3.82,3.68,3.8,0.027027,2143247.0,8069527.06,1144089860.0,1630503230.0,0.007118617937930154,19.07,2013-03-31 00:00:00,2013-04-26 00:00:00,99.8684479184462,2.2821418793447106,-25.188713075591956,1.5371679432447958
sz000678,2013-07-09,3.69,3.72,3.59,3.7,0.008173999999999999,2391762.0,8734817.96,1113982240.0,1587595250.0,0.007944039933706662,18.57,2013-03-31 00:00:00,2013-04-26 00:00:00,97.24033342691692,2.2220855725747333,-24.525852850598824,1.4967161946519378
sz000678,2013-07-08,3.93,3.93,3.67,3.67,-0.06852799999999999,3263973.0,12255458.65,1104949950.0,1574722850.0,0.010841016744695087,18.41,2013-03-31 00:00:00,2013-04-26 00:00:00,96.4519353077117,2.204069508412966,-24.327003920552233,1.484581227696745
sz000678,2013-07-05,3.98,4.03,3.93,3.94,-0.0199,2401572.0,9528398.89,1186240540.0,1690574400.0,0.00797662308860225,19.77,2013-03-31 00:00:00,2013-04-26 00:00:00,103.54786328275213,2.366221967394582,-26.116731281833733,1.5938012390031528
sz000678,2013-07-04,3.85,4.15,3.84,4.02,0.025509999999999998,4763492.0,19256844.89,1210326650.0,1724900780.0,0.01582154523326409,20.17,2013-03-31 00:00:00,2013-04-26 00:00:00,105.65030433910023,2.4142658579681484,-26.64700671547162,1.6261618600175012
sz000678,2013-07-03,3.98,3.98,3.82,3.92,-0.02,3883827.0,15187712.04,1180219020.0,1681992800.0,0.012899810613118233,19.67,2013-03-31 00:00:00,2013-04-26 00:00:00,103.02220781767144,2.35420996184157,-25.984151022878006,1.5857103880191334
sz000678,2013-07-02,4.11,4.15,3.97,4.0,0.005025,8217278.0,33314461.39,1204305120.0,1716319190.0,0.02729301026304696,20.07,2013-03-31 00:00:00,2013-04-26 00:00:00,105.12470185476678,2.402255063103643,-26.514439819263274,1.6180718245093197
sz000678,2013-07-01,3.67,3.98,3.67,3.98,0.09944800000000001,3753583.0,14664815.07,1198283590.0,1707737590.0,0.012467215995171895,19.97,2013-03-31 00:00:00,2013-04-26 00:00:00,104.59909142037938,2.390244086568636,-26.38187091790082,1.6099816666344815
sz000678,2013-06-28,3.68,3.74,3.52,3.62,-0.021622,1882971.0,6824528.25,1089896130.0,1553268870.0,0.00625413269427794,18.16,2013-03-31 00:00:00,2013-04-26 00:00:00,95.13782499979934,2.1740401424793494,-23.995560424777544,1.4643545366715676
sz000678,2013-06-27,3.76,3.9,3.7,3.7,-0.008043000000000002,2824591.0,10737300.31,1113982240.0,1587595250.0,0.009381645707385783,18.57,2013-03-31 00:00:00,2013-04-26 00:00:00,97.24035597672815,2.2220860878713027,-24.525858538088084,1.496716541737005
sz000678,2013-06-26,3.7,3.79,3.61,3.73,0.0,2169862.0,8006813.49,1123014520.0,1600467640.0,0.007207017465811573,18.72,2013-03-31 00:00:00,2013-04-26 00:00:00,98.02880162822396,2.240103238216276,-24.724719456678148,1.5088522403057845
sz000678,2013-06-25,3.9,3.9,3.51,3.73,-0.04359,3960281.0,14505457.92,1123014520.0,1600467640.0,0.013153746338025978,18.72,2013-03-31 00:00:00,2013-04-26 00:00:00,98.02880162822396,2.240103238216276,-24.724719456678148,1.5088522403057845
sz000678,2013-06-24,4.12,4.15,3.88,3.9,-0.053398,2478299.0,9990771.08,1174197490.0,1673411210.0,0.008231465475198724,19.57,2013-03-31 00:00:00,2013-04-26 00:00:00,102.49662971761478,2.3421997241938874,-25.851590276845858,1.5776207278319805
sz000678,2013-06-21,4.04,4.2,4.04,4.12,-0.007229000000000001,1646556.0,6757180.6,1240434270.0,1767808760.0,0.005468899791038504,20.67,2013-03-31 00:00:00,2013-04-26 00:00:00,108.2784842178812,2.4743236589336255,-27.309883432367414,1.6666146150462184
sz000678,2013-06-20,4.3,4.3,4.15,4.15,-0.025822,1503160.0,6365687.09,1249466560.0,1780681160.0,0.004992621811343235,20.82,2013-03-31 00:00:00,2013-04-26 00:00:00,109.06692904796897,2.492340790508209,-27.508744143782817,1.6787503009719447
sz000678,2013-06-19,4.36,4.39,4.18,4.26,-0.022936,2687815.0,11412700.24,1282584950.0,1827879940.0,0.008927355572042226,21.38,2013-03-31 00:00:00,2013-04-26 00:00:00,111.95790609926418,2.558403895908355,-28.23790328233939,1.723248011114955
sz000678,2013-06-18,4.39,4.42,4.28,4.36,-0.004566,2094274.0,9096430.77,1312692580.0,1870787910.0,0.006955958142156941,21.88,2013-03-31 00:00:00,2013-04-26 00:00:00,114.58605178295811,2.6184609154654708,-28.900771374586913,1.7637002398153603
sz000678,2013-06-17,4.45,4.49,4.32,4.38,-0.013513999999999998,2051170.0,8973727.7,1318714110.0,1879369510.0,0.006812791743010924,21.98,2013-03-31 00:00:00,2013-04-26 00:00:00,115.11165158409105,2.6304716490148725,-29.033337594041303,1.7717902340239133
sz000678,2013-06-14,4.39,4.46,4.38,4.44,0.016018,1434711.0,6345738.43,1336778680.0,1905114300.0,0.004765274114036589,22.28,2013-03-31 00:00:00,2013-04-26 00:00:00,116.68858106865282,2.6665068222102217,-29.4310690613362,1.7960622188494446
sz000678,2013-06-13,4.54,4.54,4.3,4.37,-0.043764,1928541.0,8428221.12,1315703340.0,1875078710.0,0.00640548968280342,21.93,2013-03-31 00:00:00,2013-04-26 00:00:00,114.84893089359913,2.6244680923076373,-28.967074462594358,1.7677464561153882
sz000678,2013-06-07,4.78,4.86,4.5,4.57,-0.061602,5220285.0,24237084.12,1375918600.0,1960894670.0,0.01733874551154407,22.93,2013-03-31 00:00:00,2013-04-26 00:00:00,120.10521554678881,2.7445819779925014,-30.29280895364153,1.8486508101717445
sz000678,2013-06-06,4.7,4.93,4.66,4.87,0.042827,8025052.0,38709896.8,1466241480.0,2089618610.0,0.02665454754424217,24.44,2013-03-31 00:00:00,2013-04-26 00:00:00,127.98963291352797,2.92475258684748,-32.28140826562027,1.9700071932929786
sz000678,2013-06-05,4.82,4.85,4.63,4.67,-0.03112,3832781.0,18027808.29,1406026230.0,2003802650.0,0.012730265544192586,23.43,2013-03-31 00:00:00,2013-04-26 00:00:00,122.7333324832671,2.804638340633183,-30.955669795297087,1.8891025963970811
sz000678,2013-06-04,4.86,4.95,4.75,4.82,-0.016327,5818571.0,28341071.1,1451187670.0,2068164620.0,0.019325903051532957,24.19,2013-03-31 00:00:00,2013-04-26 00:00:00,126.67547320954826,2.894722092140599,-31.94995231122233,1.9497797419670975
sz000678,2013-06-03,4.75,4.96,4.73,4.9,0.031579,7889524.0,38375251.57,1475273770.0,2102491009.9999998,0.026204402454738963,24.59,2013-03-31 00:00:00,2013-04-26 00:00:00,128.778032140303,2.942768676318857,-32.480257475016934,1.982142177295806
sz000678,2013-05-31,4.78,4.87,4.72,4.75,-0.0062759999999999995,5337772.0,25521462.74,1430112330.0,2038129040.0,0.017728968884563073,23.83,2013-03-31 00:00:00,2013-04-26 00:00:00,124.83584111377121,2.8526837753762506,-31.485962272416298,1.9214642575079621
sz000678,2013-05-30,4.85,4.87,4.78,4.78,-0.01848,5265586.0,25354947.26,1439144620.0,2051001430.0,0.01748920902751247,23.98,2013-03-31 00:00:00,2013-04-26 00:00:00,125.62425896302315,2.8707002903987933,-31.68481617875416,1.9335995281466103
sz000678,2013-05-29,4.86,4.92,4.81,4.87,-0.002049,5748429.0,27957189.4,1466241480.0,2089618610.0,0.019092932243330068,24.44,2013-03-31 00:00:00,2013-04-26 00:00:00,127.98950501571356,2.924749664193082,-32.28137600737037,1.970005224699049
sz000678,2013-05-28,5.04,5.07,4.74,4.88,-0.033663,10399253.0,50671804.96,1469252250.0,2093909410.0,0.03454025994515237,24.49,2013-03-31 00:00:00,2013-04-26 00:00:00,128.25229396605,2.9307547807388157,-32.34765635524226,1.9740500532581748
sz000678,2013-05-27,5.12,5.12,4.95,5.05,-0.013672,8424424.0,42228475.79,1520435210.0,2166852970.0,0.0279810286687586,25.34,2013-03-31 00:00:00,2013-04-26 00:00:00,132.7200489746848,3.032849596712964,-33.474508743059886,2.0428174159306485
sz000678,2013-05-24,5.1,5.21,5.01,5.12,-0.021033,12122422.0,61774241.63,1541510550.0,2196888560.0,0.04026362365148912,25.69,2013-03-31 00:00:00,2013-04-26 00:00:00,134.55974987497547,3.074889485762306,-33.93851613566672,2.0711339594238916
sz000678,2013-05-23,5.15,5.3,5.0,5.23,0.073922,24928430.0,129011313.42,1574628940.0,2244087340.0,0.08279772179215758,26.24,2013-03-31 00:00:00,2013-04-26 00:00:00,137.4507515319469,3.14095315343858,-34.66768148024062,2.115632048295695
sz000678,2013-05-22,4.87,4.87,4.87,4.87,0.09932300000000001,2768542.0,13482799.54,1466241480.0,2089618610.0,0.009195483638888733,24.44,2013-03-31 00:00:00,2013-04-26 00:00:00,127.9895109067017,2.924749798810882,-32.2813774931891,1.9700053153727135
sz000678,2013-02-21,4.4,4.62,4.34,4.43,0.002262,8417363.0,37706154.95,1333767920.0,1900823500.0,0.02795757607515406,22.23,2012-09-30 00:00:00,2012-10-30 00:00:00,71.35259147759272,1.6741912080631154,113.87288883833695,2.5503959705315777
sz000678,2013-02-20,4.27,4.44,4.23,4.42,0.037558999999999995,6042719.0,26495848.98,1330757160.0,1896532700.0,0.02007039209167208,22.18,2012-09-30 00:00:00,2012-10-30 00:00:00,71.19155617751917,1.670412734457772,113.61588969584494,2.5446399948631973
sz000678,2013-02-19,4.19,4.36,4.15,4.26,0.019139,6319289.0,26920230.27,1282584950.0,1827879940.0,0.020988996588491078,21.38,2012-09-30 00:00:00,2012-10-30 00:00:00,68.61446546897014,1.6099448170733153,109.50306411090354,2.4525255863649176
sz000678,2013-02-18,4.16,4.22,4.13,4.18,0.004808,2821748.0,11794241.42,1258498850.0,1793553550.0,0.009372202954337225,20.97,2012-09-30 00:00:00,2012-10-30 00:00:00,67.32591478588311,1.5797107333477722,107.44664281408475,2.4064681916450232
sz000678,2013-02-08,4.12,4.16,4.11,4.16,0.004831,2063101.0,8549650.13,1252477320.0,1784971960.0,0.006852419619063441,20.87,2012-09-30 00:00:00,2012-10-30 00:00:00,67.00376070441628,1.5721518273618167,106.93251129975553,2.3949532563883085
sz000678,2013-02-07,4.15,4.18,4.12,4.14,-0.0024100000000000002,3208187.0,13308943.1,1246455800.0,1776390360.0,0.010655728169422453,20.77,2012-09-30 00:00:00,2012-10-30 00:00:00,66.68162178955096,1.5645932772394728,106.41840399007947,2.383438863239996
sz000678,2013-02-06,4.16,4.22,4.13,4.15,-0.014252,5337649.0,22192230.37,1249466560.0,1780681160.0,0.01772856037859869,20.82,2012-09-30 00:00:00,2012-10-30 00:00:00,66.84271272722357,1.5683730563051683,106.67549192562021,2.389196827594499
sz000678,2013-02-05,4.0,4.23,3.98,4.21,0.047264,7696882.0,31735435.89,1267531140.0,1806425950.0,0.025564557901117918,21.12,2012-09-30 00:00:00,2012-10-30 00:00:00,67.80912842554443,1.5910486821227823,108.21781218487911,2.4237399696418342
sz000678,2013-02-04,4.06,4.09,4.0,4.02,-0.0074069999999999995,2619241.0,10596425.19,1210326650.0,1210340780.0,0.0086995926430274,20.17,2012-09-30 00:00:00,2012-10-30 00:00:00,64.7488392855521,1.5192431728034022,103.33384150021303,2.3143543267426687
sz000678,2013-02-01,4.03,4.05,3.97,4.05,0.0,2800372.0,11252153.54,1219358930.0,1219373180.0,0.009301204363181234,20.32,2012-09-30 00:00:00,2012-10-30 00:00:00,65.23201280439424,1.5305801801981296,104.10494684146778,2.331624670678383
sz000678,2013-01-31,3.98,4.05,3.97,4.05,0.0125,2155066.0,8625888.51,1219358930.0,1219373180.0,0.0071578737689648115,20.32,2012-09-30 00:00:00,2012-10-30 00:00:00,65.23201280439424,1.5305801801981296,104.10494684146778,2.331624670678383
sz000678,2013-01-30,3.99,4.05,3.96,4.0,0.002506,2792047.0,11157157.03,1204305120.0,1204319190.0,0.009273553532679493,20.07,2012-09-30 00:00:00,2012-10-30 00:00:00,64.42667931298197,1.5116841285907454,102.81970058416572,2.302839180916922
sz000678,2013-01-29,3.97,4.0,3.95,3.99,0.002513,2480549.0,9866860.51,1201294360.0,1201308390.0,0.008238938631161142,20.02,2012-09-30 00:00:00,2012-10-30 00:00:00,64.26562964509138,1.5079053178641781,102.56267851181512,2.297082691691543
sz000678,2013-01-28,3.89,3.99,3.89,3.98,0.012723,2182846.0,8649557.25,1198283590.0,1198297590.0,0.00725014274792831,19.97,2012-09-30 00:00:00,2012-10-30 00:00:00,64.10453494876514,1.5041254506068031,102.30558457777119,2.291324592989361
sz000678,2013-01-25,3.89,3.95,3.84,3.93,0.005115,1417291.0,5558325.25,1183229780.0,1183243600.0,0.004707415012830391,19.72,2012-09-30 00:00:00,2012-10-30 00:00:00,63.299179488137554,1.4852288835217557,101.02030325940181,2.2625383179698306
sz000678,2013-01-24,4.05,4.09,3.84,3.91,-0.029776999999999998,3009809.0,11929894.8,1177208250.0,1177222010.0,0.009996832072829935,19.62,2012-09-30 00:00:00,2012-10-30 00:00:00,62.977051867833595,1.4776705984108842,100.5062139749201,2.251024328529403
sz000678,2013-01-23,4.04,4.07,3.99,4.03,0.0024879999999999998,1731702.0,6990941.13,1213337410.0,1213351580.0,0.005751705174902668,20.22,2012-09-30 00:00:00,2012-10-30 00:00:00,64.90987316094711,1.5230216129806078,103.59083836903486,2.3201102514879604
sz000678,2013-01-22,4.11,4.12,4.01,4.02,-0.021897999999999997,1929009.0,7811307.59,1210326650.0,1210340780.0,0.006407044065335584,20.17,2012-09-30 00:00:00,2012-10-30 00:00:00,64.74877820078356,1.5192417395326505,103.3337440139282,2.314352143355292
sz000678,2013-01-21,4.07,4.14,4.06,4.11,0.007353,2856902.0,11726491.35,1237423510.0,1237437970.0,0.009488964065342513,20.62,2012-09-30 00:00:00,2012-10-30 00:00:00,66.19839055720523,1.553254915676126,105.64720654280246,2.366166456417931
sz000678,2013-01-18,4.02,4.09,4.0,4.08,0.02,1852000.0,7511921.78,1228391220.0,1228405570.0,0.00615126506684084,20.47,2012-09-30 00:00:00,2012-10-30 00:00:00,65.71518678874757,1.541917198515442,104.87605292564024,2.3488950312531274
sz000678,2013-01-17,4.06,4.08,4.0,4.0,-0.017199000000000002,1556421.0,6281796.81,1204305120.0,1204319190.0,0.0051695238163564396,20.07,2012-09-30 00:00:00,2012-10-30 00:00:00,64.4266537144584,1.5116835279563157,102.81965973101984,2.3028382659344384
sz000678,2013-01-16,4.04,4.08,3.99,4.07,0.002463,2592962.0,10490941.45,1225380460.0,1225394770.0,0.00861230914356183,20.42,2012-09-30 00:00:00,2012-10-30 00:00:00,65.55411900726433,1.5381379627781366,104.61900194548014,2.3431378945833776
sz000678,2013-01-15,4.0,4.07,3.98,4.06,0.017544,2878570.0,11625604.56,1222369700.0,1222383980.0,0.009560932506753071,20.37,2012-09-30 00:00:00,2012-10-30 00:00:00,65.39305591055663,1.5343588369626973,104.36195844183788,2.3373809253642053
sz000678,2013-01-14,3.91,4.02,3.91,3.99,0.017856999999999998,2113292.0,8400015.04,1201294360.0,1201308390.0,0.007019124837978928,20.02,2012-09-30 00:00:00,2012-10-30 00:00:00,64.26558056512212,1.5079041662696622,102.56260018420616,2.297080937398486
sz000678,2013-01-11,4.04,4.05,3.92,3.92,-0.032099,1991310.0,7916563.0,1180219020.0,1180232800.0,0.006613971701625347,19.67,2012-09-30 00:00:00,2012-10-30 00:00:00,63.13812310090919,1.481449915135095,100.76327046353876,2.256781588571368
sz000678,2013-01-10,4.04,4.08,4.0,4.05,-0.002463,1476624.0,5964726.98,1219358930.0,1219373180.0,0.0049044846868837874,20.32,2012-09-30 00:00:00,2012-10-30 00:00:00,65.23200523701205,1.530580002639831,104.10493476454592,2.331624400193168
sz000678,2013-01-09,4.08,4.1,4.01,4.06,-0.004902,2522123.0,10252195.62,1222369700.0,1222383980.0,0.008377023236096248,20.37,2012-09-30 00:00:00,2012-10-30 00:00:00,65.39306836439356,1.5343591291749894,104.36197831714107,2.3373813705087314
sz000678,2013-01-08,4.1,4.1,4.02,4.08,-0.002445,2245988.0,9115867.7,1228391220.0,1228405570.0,0.007459863674375661,20.47,2012-09-30 00:00:00,2012-10-30 00:00:00,65.7152042958518,1.5419176092957567,104.87608086554393,2.3488956570194404
sz000678,2013-01-07,3.94,4.2,3.91,4.09,0.027638,4905012.0,19957492.3,1231401990.0,1231416370.0,0.01629159222001907,20.52,2012-09-30 00:00:00,2012-10-30 00:00:00,65.87627178035478,1.5456968380648255,105.13313137174787,2.3546527830740565
sz000678,2013-01-04,4.01,4.03,3.91,3.98,-0.002506,4227711.0,16693748.39,1198283590.0,1198297590.0,0.014041992997667606,19.97,2012-09-30 00:00:00,2012-10-30 00:00:00,64.10455022133745,1.5041258089568752,102.30560895154505,2.291325138885538
