code,date,open,high,low,close,change,volume,money,traded_market_value,market_value,turnover,adjust_price,report_type,report_date,PE_TTM,PS_TTM,PC_TTM,PB
sz000807,2014-12-31,5.52,5.6,5.32,5.52,-0.005405,20117033.0,110118864.28,8495685109.999999,8496234869.999999,0.013070873122320798,37.78,2014-09-30 00:00:00,2014-10-15 00:00:00,-60.269277924182965,0.4396697998538094,3.2449589388272626,2.355919948186004
sz000807,2014-12-30,5.61,5.74,5.53,5.55,-0.022887,17790503.0,99583572.38,8541857310.000001,8542410060.000001,0.011559229809939307,37.98,2014-09-30 00:00:00,2014-10-15 00:00:00,-60.59680364789987,0.4420591294484784,3.262593255372551,2.368722895435835
sz000807,2014-12-29,5.71,5.97,5.55,5.68,-0.005254,31521133.0,180976830.09,8741936850.0,8742502550.0,0.020480591259361473,38.87,2014-09-30 00:00:00,2014-10-15 00:00:00,-62.01616767753562,0.4524135176263937,3.3390132516633706,2.4242056910877605
sz000807,2014-12-26,5.64,5.75,5.54,5.71,0.014209999999999999,20467617.0,115650511.54,8788109050.0,8788677740.0,0.01329866213596883,39.08,2014-09-30 00:00:00,2014-10-15 00:00:00,-62.34372159077355,0.45480305286615247,3.35664908596101,2.4370097402631026
sz000807,2014-12-25,5.49,5.64,5.42,5.63,0.019928,17868976.0,98810703.44,8664983180.0,8665543900.0,0.01161021698371029,38.53,2014-09-30 00:00:00,2014-10-15 00:00:00,-61.47022962776303,0.44843085048082,3.3096193943670538,2.402865028212207
sz000807,2014-12-24,5.51,5.61,5.42,5.52,0.0,18693006.0,102807250.21,8495685109.999999,8496234869.999999,0.012145623547010207,37.78,2014-09-30 00:00:00,2014-10-15 00:00:00,-60.269185303043976,0.43966912417427506,3.2449539520113713,2.355916327635095
sz000807,2014-12-23,5.89,5.98,5.48,5.52,-0.08153099999999999,31456578.0,179355826.02,8495685109.999999,8496234869.999999,0.020438647185218005,37.78,2014-09-30 00:00:00,2014-10-15 00:00:00,-60.269185303043976,0.43966912417427506,3.2449539520113713,2.355916327635095
sz000807,2014-12-22,5.97,6.3,5.71,6.01,0.022109,64725627.0,391665423.01,9249831070.0,9250429630.0,0.04205493217402077,41.13,2014-09-30 00:00:00,2014-10-15 00:00:00,-65.61918290442462,0.4786978375691232,3.5330032390982944,2.5650471900903513
sz000807,2014-12-19,5.56,6.1,5.5,5.88,0.055654999999999996,67635969.0,398008142.27,9049751530.0,9050337150.0,0.043945902426339875,40.24,2014-09-30 00:00:00,2014-10-15 00:00:00,-64.19978975278039,0.4683432369435385,3.456581674849056,2.509563256062075
sz000807,2014-12-18,5.47,5.75,5.43,5.57,0.018282,30575392.0,171414263.41,8572638779.999999,8573193520.0,0.019866103986245415,38.12,2014-09-30 00:00:00,2014-10-15 00:00:00,-60.815124025160095,0.4436517962246552,3.2743478455073447,2.3772570167924885
sz000807,2014-12-17,5.64,5.67,5.35,5.47,-0.035273,32186742.0,175945636.23,8418731439.999999,8419276220.000001,0.020913065109011246,37.44,2014-09-30 00:00:00,2014-10-15 00:00:00,-59.723263325051505,0.435686574273782,3.215560960035967,2.3345762930037934
sz000807,2014-12-16,5.65,5.75,5.58,5.67,0.0035399999999999997,21583921.0,122137449.48,8726546120.0,8727110820.0,0.01402397126963216,38.81,2014-09-30 00:00:00,2014-10-15 00:00:00,-61.906905606509945,0.45161644099707177,3.3331304711446528,2.4199346478369463
sz000807,2014-12-15,5.65,5.68,5.5,5.65,0.001773,18366875.0,102812536.79,8695764650.0,8696327360.0,0.011933722671530676,38.67,2014-09-30 00:00:00,2014-10-15 00:00:00,-61.688528216623084,0.450023358308659,3.3213728113923233,2.4113982978625126
sz000807,2014-12-12,5.45,5.7,5.45,5.64,0.034862,37434838.0,210623153.22,8680373910.0,8680935630.0,0.024322971396055906,38.6,2014-09-30 00:00:00,2014-10-15 00:00:00,-61.579348032561356,0.4492268790520997,3.315494439750646,2.4071304555647965
sz000807,2014-12-11,5.29,5.47,5.22,5.45,0.030246,26246613.0,140372081.93,8387949970.0,8388492760.0,0.017053516218099238,37.3,2014-09-30 00:00:00,2014-10-15 00:00:00,-59.504888605979694,0.4340935110692051,3.203803444083024,2.326040047431248
sz000807,2014-12-10,5.13,5.29,5.08,5.29,0.027183999999999996,20194782.0,105141305.67,8141698230.0,8142225090.0,0.013121389882316972,36.2,2014-09-30 00:00:00,2014-10-15 00:00:00,-57.75794189541109,0.42134937778861076,3.109746064612746,2.2577520780777096
sz000807,2014-12-09,5.5,5.72,5.13,5.15,-0.06702899999999999,56719698.0,311808335.07,7926227950.0,7926740870.0,0.0368531471139434,35.25,2014-09-30 00:00:00,2014-10-15 00:00:00,-56.22940183590387,0.41019854065932754,3.027447920346059,2.1980016025149434
sz000807,2014-12-08,5.4,5.7,5.33,5.52,0.0,41377633.0,228948607.77,8495685109.999999,8496234869.999999,0.026884769292020053,37.78,2014-09-30 00:00:00,2014-10-15 00:00:00,-60.26918503994645,0.43966912225495497,3.244953937845934,2.3559163173506397
sz000807,2014-12-05,5.8,5.85,5.35,5.52,-0.046632,42939987.0,239626804.1,8495685109.999999,8496234869.999999,0.02789989567304008,37.78,2014-09-30 00:00:00,2014-10-15 00:00:00,-60.26918503994645,0.43966912225495497,3.244953937845934,2.3559163173506397
sz000807,2014-12-04,5.67,5.85,5.63,5.79,0.022968000000000002,53727564.0,308691684.79,8911234920.0,8911811580.0,0.03490903318706359,39.63,2014-09-30 00:00:00,2014-10-15 00:00:00,-63.2171260624926,0.4611746169946494,3.403674066935259,2.471151032288308
sz000807,2014-12-03,5.35,5.76,5.3,5.66,0.050093,63589318.0,355327799.65,8711155380.0,8711719090.0,0.041316624968753574,38.74,2014-09-30 00:00:00,2014-10-15 00:00:00,-61.79775522058617,0.4508201791206073,3.3272537038648897,2.4156679703454143
sz000807,2014-12-02,5.46,5.46,5.33,5.39,-0.0036969999999999998,31204207.0,168063339.99,8295605570.0,8296142380.0,0.020274671247418045,36.89,2014-09-30 00:00:00,2014-10-15 00:00:00,-58.84979256178849,0.4293145265425131,3.1685324098578787,2.300432409648873
sz000807,2014-12-01,5.48,5.64,5.33,5.41,-0.016364,29821612.0,163335864.14,8326387030.0,8326925840.0,0.019376341784102726,37.03,2014-09-30 00:00:00,2014-10-15 00:00:00,-59.068167577321844,0.4309075919098036,3.180289941772612,2.3089686668100695
sz000807,2014-11-28,5.52,5.54,5.36,5.5,-0.005425,24838139.0,135135722.71,8464903640.000001,8465451410.0,0.01613837207247878,37.64,2014-09-30 00:00:00,2014-10-15 00:00:00,-60.05083951514772,0.43807627202522437,3.2331979937422095,2.347381212979262
sz000807,2014-11-27,5.49,5.68,5.47,5.53,0.0036299999999999995,27625438.0,153760177.62,8511075840.0,8511626600.0,0.017949396176453296,37.85,2014-09-30 00:00:00,2014-10-15 00:00:00,-60.37839229333909,0.4404657989847165,3.250833766927793,2.36018521778575
sz000807,2014-11-26,5.6,5.75,5.5,5.51,-0.016071000000000002,36457292.0,203918111.37,8480294369.999999,8480843140.000001,0.023687819096308092,37.71,2014-09-30 00:00:00,2014-10-15 00:00:00,-60.160011451769165,0.4388726911159655,3.2390759213333524,2.351648732885376
sz000807,2014-11-25,5.36,5.65,5.33,5.6,0.038961,43989520.0,241349766.83,8618810980.0,8619368710.0,0.02858182092305266,38.33,2014-09-30 00:00:00,2014-10-15 00:00:00,-61.142634734588746,0.44604101628874193,3.2919813536681537,2.3900593771353176
sz000807,2014-11-24,5.28,5.49,5.21,5.39,0.032567,40681060.0,218525538.19,8295605570.0,8296142380.0,0.026432176837452987,36.89,2014-09-30 00:00:00,2014-10-15 00:00:00,-58.84978813890872,0.42931449427720764,3.168532171725554,2.3004322367589523
sz000807,2014-11-21,5.11,5.31,5.08,5.22,0.015563999999999998,28366999.0,147504089.72,8033963090.0,8034482980.0,0.018431219202925165,35.73,2014-09-30 00:00:00,2014-10-15 00:00:00,-56.99367512123545,0.41577398297370305,3.0685971677630164,2.2278769675565386
sz000807,2014-11-20,5.1,5.19,5.08,5.14,0.011811,10897821.0,55982423.42,7910837220.0,7911349140.0,0.007080767608058556,35.18,2014-09-30 00:00:00,2014-10-15 00:00:00,-56.12022001689254,0.4094020494756639,3.021569460677039,2.193733696307213
sz000807,2014-11-19,5.1,5.17,5.04,5.08,-0.009747,12089073.0,61576972.82,7818492820.0,7818998760.0,0.007854773580261471,34.77,2014-09-30 00:00:00,2014-10-15 00:00:00,-55.46512146724293,0.40462304667142757,2.986298291555477,2.1681259605867234
sz000807,2014-11-18,5.09,5.18,5.05,5.13,0.001953,10134354.0,51744200.21,7895446490.0,7895957410.0,0.006584711337838476,35.11,2014-09-30 00:00:00,2014-10-15 00:00:00,-56.01106128155424,0.4086057266894699,3.015692243856345,2.189466692437916
sz000807,2014-11-17,5.23,5.29,5.09,5.12,-0.019157,10792006.0,55599832.99,7880055750.0,7880565680.0,0.007012015203065029,35.04,2014-09-30 00:00:00,2014-10-15 00:00:00,-55.901884900343866,0.40780927517505294,3.009814076964034,2.1851989987932723
sz000807,2014-11-14,5.3,5.4,5.16,5.22,-0.033333,24113493.0,127015060.85,8033963090.0,8034482980.0,0.015667539426049315,35.73,2014-09-30 00:00:00,2014-10-15 00:00:00,-56.99371346927475,0.41577426272609674,3.0685992324602753,2.227878466577497
sz000807,2014-11-13,5.12,5.45,5.01,5.4,0.054688,50599605.0,267265159.63,8310996300.0,8311534110.0,0.032876668107769465,36.96,2014-09-30 00:00:00,2014-10-15 00:00:00,-58.95899360304505,0.43011115795418353,3.1744119044720414,2.304701067252215
sz000807,2014-11-12,5.0,5.22,4.98,5.12,0.015872999999999998,12397268.0,63519349.43,7880055750.0,7880565680.0,0.008055020697029966,35.04,2014-09-30 00:00:00,2014-10-15 00:00:00,-55.90183409979544,0.4078089045804859,3.0098113418110772,2.1851970130049976
sz000807,2014-11-11,5.2,5.26,4.97,5.04,-0.04,21525271.0,110109485.83,7756929880.0,7757431840.0,0.013985863933064198,34.49,2014-09-30 00:00:00,2014-10-15 00:00:00,-55.02836880180439,0.4014368967188673,2.9627830858887645,2.151053343287003
sz000807,2014-11-10,5.17,5.35,5.08,5.25,0.019417,25659651.0,134291534.18,8080135290.0,8080658170.0,0.01667214259601834,35.93,2014-09-30 00:00:00,2014-10-15 00:00:00,-57.32121750187958,0.41816343408215345,3.0862323811341303,2.2406805659239617
sz000807,2014-11-07,5.16,5.35,5.13,5.15,-0.0019379999999999998,22853503.0,119753107.47,7926227950.0,7926740870.0,0.014848871517756438,35.25,2014-09-30 00:00:00,2014-10-15 00:00:00,-56.22941102794987,0.41019860771612937,3.027448415255121,2.1980019618310873
sz000807,2014-11-06,5.1,5.24,5.0,5.16,0.0038909999999999995,25846583.0,132502198.15,7941618690.0,7942132600.0,0.016793600081547105,35.32,2014-09-30 00:00:00,2014-10-15 00:00:00,-56.33859522549689,0.4109951162514246,3.0333270029869097,2.2022699610155354
sz000807,2014-11-05,5.11,5.26,5.09,5.14,-0.028355,26929263.0,139335762.02,7910837220.0,7911349140.0,0.017497062317254963,35.18,2014-09-30 00:00:00,2014-10-15 00:00:00,-56.12023140509963,0.40940213255365826,3.021570073829638,2.193734141471071
sz000807,2014-11-04,4.92,5.38,4.9,5.29,0.079592,71008513.0,369985347.11,8141698230.0,8142225090.0,0.04613718454779919,36.2,2014-09-30 00:00:00,2014-10-15 00:00:00,-57.75795831306664,0.42134949755688367,3.109746948555942,2.2577527198421965
sz000807,2014-11-03,4.9,4.97,4.87,4.9,0.004098,13841719.0,67943546.62,7541459610.0,7541947620.0,0.008993540588623533,33.54,2014-09-30 00:00:00,2014-10-15 00:00:00,-53.49980206695367,0.39028586499055545,2.880483505394577,2.09130182498777
sz000807,2014-10-31,4.9,4.9,4.81,4.88,-0.004082,15288362.0,74264561.23,7510678140.0,7511164160.0,0.009933484722592572,33.4,2014-09-30 00:00:00,2014-10-15 00:00:00,-53.28145466573349,0.38869300107216176,2.8687274602624218,2.082766647267269
sz000807,2014-10-30,4.77,4.92,4.72,4.9,0.025105000000000002,21297202.0,103751573.21,7541459610.0,7541947620.0,0.013837678008859615,33.54,2014-09-30 00:00:00,2014-10-15 00:00:00,-53.499841016763924,0.39028614913292237,2.8804856024917935,2.0913033475318943
sz000807,2014-10-29,4.75,4.89,4.71,4.78,0.019190000000000002,16598188.0,79754808.48,7356770800.0,7357246860.0,0.010784533159575938,32.71,2014-09-30 00:00:00,2014-10-15 00:00:00,-52.18962059180662,0.38072797336167746,2.8099420083716242,2.0400869642933106
sz000807,2014-10-28,4.58,4.7,4.58,4.69,0.024017,6289904.0,29300097.72,7218254190.0,7218721290.0,0.004086812265612387,32.1,2014-09-30 00:00:00,2014-10-15 00:00:00,-51.20695904768161,0.3735593690692387,2.757034516009403,2.001674824412828
sz000807,2014-10-27,4.59,4.63,4.55,4.58,-0.002179,6923270.0,31875773.82,7048956120.0,7049412270.0,0.004498336499788,31.35,2014-09-30 00:00:00,2014-10-15 00:00:00,-50.005965767835505,0.3647980151396302,2.6923718219613573,1.9547281191746118
sz000807,2014-10-24,4.52,4.62,4.52,4.59,0.013244999999999998,7229044.0,33078469.57,7064346860.0,7064804000.0,0.004697010582518311,31.41,2014-09-30 00:00:00,2014-10-15 00:00:00,-50.115166716109904,0.36559464587298746,2.698251311569267,1.958996773143291
sz000807,2014-10-23,4.75,4.75,4.49,4.53,-0.046316,15344624.0,70641448.19,6972002450.0,6972453620.0,0.009970040489587034,31.0,2014-09-30 00:00:00,2014-10-15 00:00:00,-49.460068113940764,0.3608156426856165,2.6629801396199997,1.9333890353698178
sz000807,2014-10-22,4.84,4.9,4.74,4.75,-0.020619,7550905.0,36497224.06,7310598600.0,7311071670.0,0.004906137063796663,32.51,2014-09-30 00:00:00,2014-10-15 00:00:00,-51.862113775570066,0.37833878169877705,2.7923087098242183,2.0272847561349647
sz000807,2014-10-21,4.9,4.92,4.82,4.85,-0.010204000000000001,8697830.0,42240875.9,7464505940.0,7464988970.0,0.005651341942665799,33.19,2014-09-30 00:00:00,2014-10-15 00:00:00,-52.95397171843242,0.3863039835352912,2.8510954468426672,2.069965372143185
sz000807,2014-10-20,4.72,4.93,4.71,4.9,0.042553,18897451.0,91820415.3,7541459610.0,7541947620.0,0.012278459965126037,33.54,2014-09-30 00:00:00,2014-10-15 00:00:00,-53.49988454028146,0.3902864666408949,2.8804879458420394,2.0913050488617704
sz000807,2014-10-17,4.69,4.77,4.58,4.7,0.006423999999999999,19453888.0,91259439.06,7233644930.0,7234113020.0,0.012640000232911628,32.17,2014-09-30 00:00:00,2014-10-15 00:00:00,-51.31622520896439,0.37435647553735385,2.762917516751704,2.0059460275513765
sz000807,2014-10-16,4.9,4.9,4.65,4.67,-0.052738,25661249.0,123107597.4,7187472730.0,7187937840.0,0.0166731808706285,31.96,2014-09-30 00:00:00,2014-10-15 00:00:00,-50.98867396739783,0.3719669597876778,2.7452818262995557,1.9931420828113964
sz000807,2014-10-15,5.02,5.03,4.87,4.93,-0.019881,18142932.0,89456914.34,7587631810.0,7588122810.0,0.011788217588802585,33.74,2014-09-30 00:00:00,2014-10-15 00:00:00,-53.82742469073796,0.39267590147992615,2.898123039137594,2.1041085600513862
sz000807,2014-10-14,5.07,5.08,5.0,5.03,-0.005929,10087995.0,50856506.4,7741539150.0,7742040110.0,0.006554589968068559,34.43,2014-06-30 00:00:00,2014-08-30 00:00:00,-50.02055389897059,0.40618405198581364,2.0463541269699754,2.086595913525897
sz000807,2014-10-13,5.05,5.09,5.02,5.06,0.0,12269576.0,61978649.92,7787711350.0,7788215300.0,0.007972053889747725,34.63,2014-06-30 00:00:00,2014-08-30 00:00:00,-50.31889462520342,0.40860668099744746,2.0585593252091403,2.0990411283760384
sz000807,2014-10-10,5.11,5.11,5.05,5.06,-0.017476,13763371.0,69755399.13,7787711350.0,7788215300.0,0.008942634636811494,34.63,2014-06-30 00:00:00,2014-08-30 00:00:00,-50.31889462520342,0.40860668099744746,2.0585593252091403,2.0990411283760384
sz000807,2014-10-09,5.15,5.17,5.04,5.15,0.003899,29835910.0,152207944.36,7926227950.0,7926740870.0,0.019385631787185734,35.25,2014-06-30 00:00:00,2014-08-30 00:00:00,-51.21390889708894,0.4158745038263162,2.0951745964568196,2.136376443095577
sz000807,2014-10-08,5.24,5.25,5.09,5.13,-0.011561,18502926.0,95182880.71,7895446490.0,7895957410.0,0.012022120661601748,35.11,2014-06-30 00:00:00,2014-08-30 00:00:00,-51.01500140660458,0.41425930678914524,2.087037238264825,2.128079062829604
sz000807,2014-09-30,5.17,5.23,5.17,5.19,0.003868,18407644.0,95728823.02,7987790890.0,7988307790.0,0.011960211987973061,35.52,2014-06-30 00:00:00,2014-08-30 00:00:00,-51.61168408632661,0.41910457477815555,2.111447684950538,2.152969543724604
sz000807,2014-09-29,5.18,5.23,5.08,5.17,0.0019379999999999998,30184796.0,155135484.16,7957009420.0,7957524330.0,0.01961231752821024,35.38,2014-06-30 00:00:00,2014-08-30 00:00:00,-51.4128193012693,0.41748972452369787,2.103312073848891,2.144673944905709
sz000807,2014-09-26,5.08,5.42,5.08,5.16,0.019763,45676777.0,239330299.38,7941618690.0,7942132600.0,0.029678101973944056,35.32,2014-06-30 00:00:00,2014-08-30 00:00:00,-51.313373982491235,0.4166821944308908,2.099243739481775,2.140525606280737
sz000807,2014-09-05,5.06,5.13,5.0,5.06,0.003968,19884181.0,100812991.82,7787711350.0,7788215300.0,0.012919579493659584,34.63,2014-06-30 00:00:00,2014-08-30 00:00:00,-50.318921143923866,0.408606896338552,2.0585604100970274,2.0990422345983695
sz000807,2014-09-04,5.06,5.07,4.97,5.04,-0.009823,18665967.0,93712375.61,7756929880.0,7757431840.0,0.012128055188762388,34.49,2014-06-30 00:00:00,2014-08-30 00:00:00,-50.12004480613314,0.406991952271937,2.0504243263699915,2.090746153859854
sz000807,2014-09-03,5.15,5.23,5.05,5.09,-0.007797,28252588.0,144789473.93,7833883550.0,7834390490.0,0.01835688161588769,34.84,2014-06-30 00:00:00,2014-08-30 00:00:00,-50.61725813277135,0.4110294950013351,2.0707654554387664,2.11148729354434
sz000807,2014-09-02,4.93,5.16,4.91,5.13,0.040568,36159353.0,181984336.95,7895446490.0,7895957410.0,0.023494235712311184,35.11,2014-06-30 00:00:00,2014-08-30 00:00:00,-51.01502226134305,0.4142594761367736,2.0870380914377065,2.1280799327802273
sz000807,2014-09-01,4.77,4.95,4.74,4.93,0.029227999999999997,17926698.0,87510499.42,7587631810.0,7588122810.0,0.011647721364592675,33.74,2014-06-30 00:00:00,2014-08-30 00:00:00,-49.02613021094542,0.3981089906058745,2.0056719901416407,2.0451137578517
sz000807,2014-08-29,4.77,4.81,4.64,4.79,0.0,10880595.0,51411677.54,7372161530.0,7372638590.0,0.0070695751629847965,32.78,2014-03-31 00:00:00,2014-04-28 00:00:00,-83.86305958373151,0.4423924416792227,2.4655131653821787,1.9822591658647941
sz000807,2014-08-28,4.74,4.87,4.73,4.79,0.008421,12691386.0,61149784.82,7372161530.0,7372638590.0,0.008246121397722548,32.78,2014-03-31 00:00:00,2014-04-28 00:00:00,-83.86305958373151,0.4423924416792227,2.4655131653821787,1.9822591658647941
sz000807,2014-08-27,4.8,4.81,4.74,4.75,-0.004193,8913154.0,42563173.4,7310598600.0,7311071670.0,0.0057912469028186,32.51,2014-03-31 00:00:00,2014-04-28 00:00:00,-83.16274609883322,0.43869816443650284,2.4449244565337076,1.96570595600924
sz000807,2014-08-26,4.86,4.88,4.74,4.77,-0.014463,15228829.0,73234718.44,7341380070.0,7341855130.0,0.009894803652360147,32.65,2014-03-31 00:00:00,2014-04-28 00:00:00,-83.51291575459223,0.4405453711778516,2.4552191905998932,1.9739828661670789
sz000807,2014-08-25,4.94,4.98,4.84,4.84,-0.028112,19497658.0,95159263.84,7449115200.0,7449597240.0,0.012668439430229243,33.13,2014-03-31 00:00:00,2014-04-28 00:00:00,-84.73848851396978,0.44701048380512515,2.4912501413948878,2.0029515544998095
sz000807,2014-08-22,4.99,5.06,4.81,4.98,-0.019685,29578548.0,146294240.65,7664585480.0,7665081460.0,0.019218412975413775,34.08,2014-03-31 00:00:00,2014-04-28 00:00:00,-87.18956146589915,0.459940326256858,2.5633099095727983,2.060887215913572
sz000807,2014-08-21,5.09,5.25,5.05,5.08,0.030425999999999998,54357278.0,279675571.92,7818492820.0,7818998760.0,0.03531818453981774,34.77,2014-03-31 00:00:00,2014-04-28 00:00:00,-88.9403523009432,0.46917605693767606,2.6147818910990837,2.1022704089130246
sz000807,2014-08-20,5.01,5.02,4.91,4.93,-0.014,16138577.0,79807776.34,7587631810.0,7588122810.0,0.01048590477270404,33.74,2014-03-31 00:00:00,2014-04-28 00:00:00,-86.31415773761842,0.4553224170757299,2.537573674479374,2.040195422973629
sz000807,2014-08-19,4.97,5.01,4.91,5.0,0.004016,20644394.0,102355477.52,7695366950.0,7695864920.0,0.013413521495553892,34.22,2014-03-31 00:00:00,2014-04-28 00:00:00,-87.53971372983612,0.46178744125327575,2.5736041323320222,2.0691637149833966
sz000807,2014-08-18,4.9,5.02,4.87,4.98,0.020492,24595902.0,121826686.95,7664585480.0,7665081460.0,0.015980980612665827,34.08,2014-03-31 00:00:00,2014-04-28 00:00:00,-87.18956045504865,0.4599403209244432,2.563309879854527,2.0608871920202434
sz000807,2014-08-15,4.87,4.96,4.83,4.88,0.0,17808124.0,87145651.86,7510678140.0,7511164160.0,0.011570678905433698,33.4,2014-03-31 00:00:00,2014-04-28 00:00:00,-85.4387495982807,0.45070448462549756,2.511837309704071,2.0195035257701615
sz000807,2014-08-14,5.01,5.03,4.88,4.88,-0.035573,36176857.0,178773046.5,7510678140.0,7511164160.0,0.023505608797130532,33.4,2014-03-31 00:00:00,2014-04-28 00:00:00,-85.4387495982807,0.45070448462549756,2.511837309704071,2.0195035257701615
sz000807,2014-08-13,5.14,5.17,5.0,5.06,-0.013645,32384596.0,163803814.33,7787711350.0,7788215300.0,0.021041619083634885,34.63,2014-03-31 00:00:00,2014-04-28 00:00:00,-88.59016763143367,0.46732877099614334,2.6044867156395153,2.0939931438773085
sz000807,2014-08-12,5.13,5.21,5.02,5.13,-0.005814,36814354.0,188429746.43,7895446490.0,7895957410.0,0.023919817107138672,35.11,2014-03-31 00:00:00,2014-04-28 00:00:00,-89.81570289746965,0.4737936858394223,2.6405165641574437,2.122960945985278
sz000807,2014-08-11,5.05,5.22,5.02,5.16,0.025845,36904140.0,188438087.91,7941618690.0,7942132600.0,0.02397815481115727,35.32,2014-03-31 00:00:00,2014-04-28 00:00:00,-90.3409451525868,0.47656443144383676,2.655958305747057,2.1353760221782223
sz000807,2014-08-08,5.02,5.14,5.0,5.03,-0.007890000000000001,27702926.0,140097741.89,7741539150.0,7742040110.0,0.017999743343027595,34.43,2014-03-31 00:00:00,2014-04-28 00:00:00,-88.06490761527014,0.46455793169907417,2.589044451888012,2.0815776478690466
sz000807,2014-08-07,5.2,5.25,5.05,5.07,-0.055866,64607185.0,332733169.4,7803102080.0,7803607030.0,0.04197797550150722,34.7,2014-03-31 00:00:00,2014-04-28 00:00:00,-88.76526556054283,0.4682524434781165,2.6096344678392636,2.0981319086281225
sz000807,2014-08-06,5.06,5.65,5.0,5.37,0.040698000000000005,104504671.0,555439580.58,8264824100.0,8265358920.0,0.06790103170737778,36.75,2014-03-31 00:00:00,2014-04-28 00:00:00,-94.0176559265346,0.4959597297397578,2.7640509375144453,2.2222819098010693
sz000807,2014-08-05,5.27,5.28,5.09,5.16,-0.037313,80114973.0,413795969.7,7941618690.0,7942132600.0,0.052054030395659805,35.32,2014-03-31 00:00:00,2014-04-28 00:00:00,-90.34095955458223,0.4765645074169047,2.655958729155284,2.135376362596132
sz000807,2014-08-04,5.38,5.47,4.97,5.36,0.022900999999999998,134631453.0,698352525.06,8249433370.0,8249967190.0,0.08747565508005309,36.68,2014-03-31 00:00:00,2014-04-28 00:00:00,-93.84250494146305,0.4950357773782182,2.758901625507859,2.2181418909740467
sz000807,2014-08-01,5.1,5.24,4.81,5.24,0.10084,131911053.0,671479634.72,8064744560.0,8065266440.0,0.08570809807769039,35.86,2014-03-31 00:00:00,2014-04-28 00:00:00,-91.74153211450867,0.48395277488067573,2.697134547241481,2.168481496228908
sz000807,2014-07-31,4.76,4.76,4.76,4.76,0.099307,8377698.0,39877842.48,7325989330.0,7326463400.0,0.0054433388698369835,32.58,2014-03-31 00:00:00,2014-04-28 00:00:00,-83.33775309264622,0.4396213572187382,2.4500695353016617,1.9698425713354422
sz000807,2014-07-30,4.33,4.33,4.33,4.33,0.098985,7358885.0,31863972.05,6664187770.0,6664619020.0,0.004781373687194291,29.63,2014-03-31 00:00:00,2014-04-28 00:00:00,-75.8093536133639,0.39990772115408907,2.2287400474131993,1.7918948677079671
sz000807,2014-07-29,3.94,3.94,3.94,3.94,0.10055900000000001,1226917.0,4834052.98,6063949150.0,6064341560.0,0.0007971790099855965,26.97,2014-03-31 00:00:00,2014-04-28 00:00:00,-68.98124507010003,0.3638882433828387,2.0279986054524843,1.630499840951393
sz000807,2014-07-28,3.58,3.58,3.58,3.58,0.101538,649725.0,2326015.5,5509882730.0,5510239280.0,0.00042215335860696263,24.5,2014-03-31 00:00:00,2014-04-28 00:00:00,-62.67837078257506,0.3306394690178706,1.842698669905461,1.4815197013076018
sz000807,2014-04-30,3.27,3.3,3.24,3.25,-0.0030670000000000003,4963894.0,16210543.47,5002075530.0,5002312200.0,0.0032251923033237363,22.24,2014-03-31 00:00:00,2014-04-28 00:00:00,-56.90077943981512,0.3001616549023916,1.672841672194206,1.3449555996321525
sz000807,2014-04-29,3.22,3.27,3.21,3.26,0.009288,5764082.0,18718019.99,5017466530.0,5017703930.0,0.003745098688281633,22.31,2014-03-31 00:00:00,2014-04-28 00:00:00,-57.07583101353362,0.30108508285149715,1.677988061579069,1.3490932686872161
sz000807,2014-04-28,3.36,3.37,3.22,3.23,-0.041543000000000004,9660760.0,31888336.73,4971293520.0,4971528740.0,0.006276888434461218,22.11,2014-03-31 00:00:00,2014-04-28 00:00:00,-56.55058914158657,0.29831433926837253,1.6625463312543785,1.3366782015512086
sz000807,2014-04-25,3.49,3.49,3.37,3.37,-0.034384,10952032.0,37420077.25,5186767550.0,5187012960.0,0.007115866960338333,23.06,2013-09-30 00:00:00,2013-10-23 00:00:00,-52.33632737671529,0.38185596186436466,8.545223802242235,1.3845980629998684
sz000807,2014-04-24,3.5,3.55,3.48,3.49,-0.002857,9693064.0,34037920.9,5371459570.0,5371713710.0,0.00629787731232984,23.89,2013-09-30 00:00:00,2013-10-23 00:00:00,-54.19993804650636,0.3954532255724477,8.849505188648733,1.4339013261999267
sz000807,2014-04-23,3.45,3.55,3.45,3.5,0.008646,16194565.0,56737327.4,5386850570.0,5387105440.0,0.010522099464882686,23.95,2013-09-30 00:00:00,2013-10-23 00:00:00,-54.35523094130567,0.39658627255313206,8.874860665570269,1.4380097199698807
sz000807,2014-04-22,3.45,3.47,3.41,3.47,0.0028899999999999998,12454885.0,42831534.61,5340677560.0,5340930250.0,0.008092316089945711,23.75,2013-09-30 00:00:00,2013-10-23 00:00:00,-53.88930401875948,0.39318677965622434,8.798786358712837,1.4256832624824574
sz000807,2014-04-21,3.52,3.59,3.46,3.46,-0.030812,11122009.0,39177626.44,5325286560.0,5325538520.0,0.007226306172714206,23.68,2013-09-30 00:00:00,2013-10-23 00:00:00,-53.73401272199291,0.3920537443350959,8.773431142710404,1.4215749109896971
sz000807,2014-04-18,3.56,3.59,3.54,3.57,-0.002793,9051267.0,32273766.97,5494587580.0,5494847550.0,0.005880882362785088,24.43,2013-09-30 00:00:00,2013-10-23 00:00:00,-55.44230089723863,0.4045177450970254,9.052352219291205,1.4667689973356017
sz000807,2014-04-17,3.61,3.61,3.5,3.58,-0.002786,16591010.0,58936484.41,5509978580.0,5510239280.0,0.010779681796875515,24.5,2013-09-30 00:00:00,2013-10-23 00:00:00,-55.5975849520096,0.405650727579154,9.07770625285543,1.4708771572357613
sz000807,2014-04-16,3.63,3.64,3.56,3.59,-0.011019,14272760.0,51329475.6,5525369580.0,5525631010.0,0.009273444546672296,24.57,2013-09-30 00:00:00,2013-10-23 00:00:00,-55.752912566419646,0.40678402788083,9.103067398628008,1.4749864695398993
sz000807,2014-04-15,3.66,3.7,3.56,3.63,-0.026810000000000004,28554726.0,103626560.37,5586933590.0,5587197930.0,0.018552870498680832,24.84,2013-09-30 00:00:00,2013-10-23 00:00:00,-56.37409876066339,0.4113163224377718,9.204491692588642,1.4914204312720865
sz000807,2014-04-14,3.7,3.73,3.65,3.73,0.005391,24340867.0,89976833.31,5740843600.0,5741115230.0,0.01581499867197218,25.53,2013-09-30 00:00:00,2013-10-23 00:00:00,-57.92712498141513,0.42264750196546597,9.458062344032143,1.5325069423977706
sz000807,2014-04-11,3.76,3.78,3.64,3.71,-0.013297999999999999,28425730.0,105162156.03,5710061600.0,5710331770.0,0.018469057899480452,25.39,2013-09-30 00:00:00,2013-10-23 00:00:00,-57.61651435254059,0.42038122677193845,9.407347334551577,1.524289497715586
sz000807,2014-04-10,3.85,3.87,3.73,3.76,-0.020833,31748392.0,119974550.31,5787016610.0,5787290420.0,0.020627892049544332,25.73,2013-09-30 00:00:00,2013-10-23 00:00:00,-58.393024796281544,0.42604679707950166,9.534132224878004,1.5448326827305368
sz000807,2014-04-09,3.88,3.9,3.79,3.84,-0.012853,30890602.0,118407937.97,5910144620.0,5910424260.0,0.02007055991127337,26.28,2013-09-30 00:00:00,2013-10-23 00:00:00,-59.63540927776523,0.4351114744262232,9.736982787285523,1.5777009261244883
sz000807,2014-04-08,3.88,4.04,3.77,3.89,-0.005115,52707862.0,205828293.44,5987099630.0,5987382910.0,0.03424589464865812,26.62,2013-09-30 00:00:00,2013-10-23 00:00:00,-60.41188321269804,0.44077677835846457,9.863761716629362,1.598243145270652
sz000807,2014-04-04,3.7,3.98,3.65,3.91,0.048257,58520142.0,223306034.76,6017881630.0,6018166370.0,0.038022309059608406,26.76,2013-09-30 00:00:00,2013-10-23 00:00:00,-60.72247869120354,0.4430429430119708,9.914474252430542,1.6064601891380934
sz000807,2014-04-03,3.51,3.73,3.5,3.73,0.10029500000000001,72501389.0,265493444.37,5740843600.0,5741115230.0,0.04710634878992349,25.53,2013-09-30 00:00:00,2013-10-23 00:00:00,-57.92709105801683,0.42264725445379403,9.458056805182835,1.5325060449280028
sz000807,2014-04-02,3.29,3.39,3.28,3.39,0.030395,11700899.0,39082990.94,5217549550.0,5217796420.0,0.007602428540424691,23.2,2013-09-30 00:00:00,2013-10-23 00:00:00,-52.6468729368186,0.38412176230355866,8.59592818760681,1.3928137862373298
sz000807,2014-04-01,3.25,3.32,3.22,3.29,0.012308,5426002.0,17865614.22,5063639530.0,5063879120.0,0.003525437874129243,22.52,2013-09-30 00:00:00,2013-10-23 00:00:00,-51.093874617810265,0.3727907863523781,8.342362091825766,1.3517280132738705
sz000807,2014-03-31,3.28,3.3,3.23,3.25,-0.015152,6534455.0,21308003.44,5002075530.0,5002312200.0,0.004245633362117585,22.24,2013-09-30 00:00:00,2013-10-23 00:00:00,-50.47265715356419,0.3682582636434545,8.240932692249558,1.3352932242695608
sz000807,2014-03-28,3.2,3.43,3.2,3.3,0.024845,13927982.0,46234525.55,5079030530.0,5079270850.0,0.009049431841080112,22.59,2013-09-30 00:00:00,2013-10-23 00:00:00,-51.24918480167924,0.37392395947745694,8.367720391623438,1.3558368644395489
sz000807,2014-03-27,3.23,3.27,3.22,3.22,-0.009231,4031260.0,13095824.69,4955902520.0,4956137010.0,0.002619231743888296,22.04,2013-09-30 00:00:00,2013-10-23 00:00:00,-50.00676668342944,0.3648590367103874,8.164864337166536,1.3229677311589059
sz000807,2014-03-26,3.29,3.31,3.22,3.25,-0.021084000000000002,8180767.0,26672020.05,5002075530.0,5002312200.0,0.005315292140340791,22.24,2013-09-30 00:00:00,2013-10-23 00:00:00,-50.47267999243965,0.36825843028030486,8.240936421271291,1.3352938284896942
sz000807,2014-03-25,3.24,3.46,3.22,3.32,0.021537999999999998,13371997.0,44494361.17,5109812540.0,5110054310.0,0.0086881915319735,22.72,2013-09-30 00:00:00,2013-10-23 00:00:00,-51.559766100911254,0.37619002067624274,8.418430612301044,1.3640535331833314
sz000807,2014-03-24,3.21,3.28,3.18,3.25,0.015625,6707887.0,21693646.58,5002075530.0,5002312200.0,0.004358317386303041,22.24,2013-09-30 00:00:00,2013-10-23 00:00:00,-50.47268540270773,0.3682584697546667,8.24093730463384,1.3352939716225254
sz000807,2014-03-21,3.11,3.22,3.1,3.2,0.025641000000000004,4771982.0,15118562.47,4925120520.0,4925353550.0,0.003100501264484793,21.9,2013-09-30 00:00:00,2013-10-23 00:00:00,-49.69618255035839,0.36259295483536413,8.11415365379332,1.3147509874437173
sz000807,2014-03-20,3.16,3.19,3.12,3.12,-0.015773,3548769.0,11189538.73,4801992510.0,4802219710.0,0.002305742721785295,21.35,2013-09-30 00:00:00,2013-10-23 00:00:00,-48.45377919794391,0.35352813980268355,7.911300010230988,1.2818822448046807
sz000807,2014-03-19,3.18,3.18,3.12,3.17,-0.003145,3673073.0,11586506.15,4878947510.0,4879178360.0,0.0023865068001110755,21.7,2013-09-30 00:00:00,2013-10-23 00:00:00,-49.23028853907068,0.3591937020653605,8.038084720527875,1.3024254006491194
sz000807,2014-03-18,3.18,3.2,3.16,3.18,-0.003135,3528554.0,11206560.73,4894338520.0,4894570090.0,0.00229260842382435,21.76,2013-09-30 00:00:00,2013-10-23 00:00:00,-49.385606270792316,0.3603269302610314,8.063444252702624,1.306534451499084
sz000807,2014-03-17,3.16,3.2,3.15,3.19,0.012698000000000001,3029927.0,9626786.84,4909729520.0,4909961820.0,0.0019686353577375885,21.83,2013-09-30 00:00:00,2013-10-23 00:00:00,-49.54091704573068,0.3614601076986667,8.088802649007262,1.3106433183019606
sz000807,2014-03-14,3.17,3.17,3.12,3.15,-0.003165,2288708.0,7202132.46,4848165510.0,4848394900.0,0.0014870429206943472,21.56,2013-09-30 00:00:00,2013-10-23 00:00:00,-48.91973426009597,0.35692783801159544,7.987378911587918,1.2942094467471648
sz000807,2014-03-13,3.16,3.2,3.14,3.16,0.0,3782293.0,11982333.67,4863556510.0,4863786630.0,0.0024574703420069855,21.63,2013-09-30 00:00:00,2013-10-23 00:00:00,-49.07505681491517,0.35806110139751857,8.012739231254839,1.2983186251959098
sz000807,2014-03-12,3.14,3.19,3.12,3.16,0.006369,2515344.0,7926516.4,4863556510.0,4863786630.0,0.0016342951960477993,21.63,2013-09-30 00:00:00,2013-10-23 00:00:00,-49.07505681491517,0.35806110139751857,8.012739231254839,1.2983186251959098
sz000807,2014-03-11,3.13,3.15,3.09,3.14,0.006409999999999999,2929568.0,9151515.91,4832774510.0,4833003170.0,0.0019034290759822768,21.49,2013-09-30 00:00:00,2013-10-23 00:00:00,-48.76447586811117,0.35579504277011564,7.962029068119981,1.290101965775883
sz000807,2014-03-10,3.27,3.27,3.11,3.12,-0.054545,5824918.0,18583671.62,4801992510.0,4802219710.0,0.0037846256782270576,21.35,2013-09-30 00:00:00,2013-10-23 00:00:00,-48.45388645592867,0.35352892237767475,7.91131752279884,1.2818850823977137
sz000807,2014-03-07,3.3,3.36,3.27,3.3,0.0030399999999999997,3396813.0,11241200.24,5079030530.0,5079270850.0,0.002207012309492851,22.59,2013-09-30 00:00:00,2013-10-23 00:00:00,-51.249278343156114,0.37392464197415504,8.367735664625858,1.3558393391517456
sz000807,2014-03-06,3.28,3.33,3.22,3.29,-0.00303,3926088.0,12864527.67,5063639530.0,5063879120.0,0.00255089831009357,22.52,2013-09-30 00:00:00,2013-10-23 00:00:00,-51.09395272686644,0.3727913562511515,8.342374845096764,1.351730079709429
sz000807,2014-03-05,3.32,3.37,3.3,3.3,0.0,4625405.0,15370830.99,5079030530.0,5079270850.0,0.0030052657509818115,22.59,2013-09-30 00:00:00,2013-10-23 00:00:00,-51.24923791775724,0.3739243470226301,8.367729064161171,1.3558382696665183
sz000807,2014-03-04,3.31,3.32,3.25,3.3,-0.009009,4453871.0,14631571.58,5079030530.0,5079270850.0,0.002893814914713655,22.59,2013-09-30 00:00:00,2013-10-23 00:00:00,-51.24923791775724,0.3739243470226301,8.367729064161171,1.3558382696665183
sz000807,2014-03-03,3.28,3.37,3.24,3.33,0.018349,7057260.0,23389720.03,5125203540.0,5125446040.0,0.004585315610704507,22.79,2013-09-30 00:00:00,2013-10-23 00:00:00,-51.71513961050832,0.37732365583807537,8.443799251619009,1.3681640596801774
sz000807,2014-02-28,3.21,3.32,3.21,3.27,0.015528,3592958.0,11733694.09,5032857530.0,5033095660.0,0.0023344536557942264,22.38,2013-09-30 00:00:00,2013-10-23 00:00:00,-50.78331653540026,0.37052489454801385,8.291655661879187,1.3435119587490902
sz000807,2014-02-27,3.27,3.27,3.21,3.22,-0.015290999999999999,3415031.0,11087366.1,4955902520.0,4956137010.0,0.0022188490947154466,22.04,2013-09-30 00:00:00,2013-10-23 00:00:00,-50.006810777644986,0.364859358430308,8.164871536657962,1.322968897705519
sz000807,2014-02-26,3.18,3.28,3.15,3.27,0.028301999999999997,5061218.0,16269543.51,5032857530.0,5033095660.0,0.003288426656496275,22.38,2013-09-30 00:00:00,2013-10-23 00:00:00,-50.78333881141025,0.370525057078089,8.291659298998953,1.3435125480781822
sz000807,2014-02-25,3.26,3.28,3.15,3.18,-0.027523000000000002,5292759.0,17096781.86,4894338520.0,4894570090.0,0.003438865855155438,21.76,2013-09-30 00:00:00,2013-10-23 00:00:00,-49.38562680166941,0.3603270800582796,8.063447604885486,1.3065349946593339
sz000807,2014-02-24,3.35,3.35,3.21,3.27,-0.023881,5545869.0,18074627.59,5032857530.0,5033095660.0,0.0036033190929606945,22.38,2013-09-30 00:00:00,2013-10-23 00:00:00,-50.783336574201144,0.3705250407549789,8.29165893371821,1.343512488891083
sz000807,2014-02-21,3.38,3.47,3.34,3.35,-0.017595,8076253.0,27382377.41,5155985540.0,5156229500.0,0.005247386234911745,22.93,2013-09-30 00:00:00,2013-10-23 00:00:00,-52.02576384047554,0.3795900302678043,8.494516481820568,1.3763818641897996
sz000807,2014-02-20,3.39,3.6,3.35,3.41,0.011869,15213951.0,53117955.13,5248331550.0,5248579880.0,0.009884964853258937,23.34,2013-09-30 00:00:00,2013-10-23 00:00:00,-52.957551967340905,0.3863885365687311,8.646654365379419,1.4010330405380669
sz000807,2014-02-19,3.35,3.4,3.33,3.37,0.0059700000000000005,4278143.0,14393103.48,5186767550.0,5187012960.0,0.002779639104898773,23.06,2013-09-30 00:00:00,2013-10-23 00:00:00,-52.33637157313932,0.3818562843300182,8.545231018421772,1.384599232250486
sz000807,2014-02-18,3.4,3.42,3.33,3.35,-0.014706,4871019.0,16343148.13,5155985540.0,5156229500.0,0.00316484860622786,22.93,2013-09-30 00:00:00,2013-10-23 00:00:00,-52.02577768038741,0.3795901312464767,8.494518741534808,1.3763822303353836
sz000807,2014-02-17,3.38,3.41,3.37,3.4,0.008902,5213022.0,17667148.57,5232940550.0,5233188150.0,0.003387058314660196,23.27,2013-09-30 00:00:00,2013-10-23 00:00:00,-52.802288129621616,0.3852557015941198,8.62130363275815,1.3969254154956627
sz000807,2014-02-14,3.34,3.4,3.34,3.37,0.0029760000000000003,3478772.0,11729489.9,5186767550.0,5187012960.0,0.0022602635508506643,23.06,2013-09-30 00:00:00,2013-10-23 00:00:00,-52.33638958949592,0.3818564157808388,8.545233960045822,1.3845997088871493
sz000807,2014-02-13,3.37,3.44,3.35,3.36,-0.00885,6459085.0,21956446.28,5171376540.0,5171621230.0,0.0041966631963720824,23.0,2013-09-30 00:00:00,2013-10-23 00:00:00,-52.18109863994344,0.3807233829930514,8.519878800734833,1.3804913665802065
sz000807,2014-02-12,3.47,3.47,3.35,3.39,-0.020231,11360554.0,38511559.33,5217549550.0,5217796420.0,0.007381296083714241,23.2,2013-09-30 00:00:00,2013-10-23 00:00:00,-52.64702480950759,0.3841228703960565,8.595952984648978,1.3928178041469068
sz000807,2014-02-11,3.25,3.48,3.23,3.46,0.06461499999999999,15059452.0,50740111.6,5325286560.0,5325538520.0,0.009784582169039182,23.68,2013-09-30 00:00:00,2013-10-23 00:00:00,-53.7341197869167,0.3920545255014769,8.773448623756188,1.4215777434751526
sz000807,2014-02-10,3.17,3.26,3.17,3.25,0.022012999999999998,4434780.0,14348428.84,5002075530.0,5002312200.0,0.0028814109090431906,22.24,2013-09-30 00:00:00,2013-10-23 00:00:00,-50.47281861228396,0.3682594416774861,8.240959054452725,1.3352974957850043
sz000807,2014-02-07,3.16,3.19,3.13,3.18,-0.003135,1949904.0,6161323.61,4894338520.0,4894570090.0,0.001266911696986583,21.76,2013-09-30 00:00:00,2013-10-23 00:00:00,-49.385691387765085,0.36032755129091903,8.063458150192536,1.306536703334502
sz000807,2014-01-30,3.2,3.21,3.18,3.19,-0.006231,2032867.0,6483695.06,4909729520.0,4909961820.0,0.0013208152717137868,21.83,2013-09-30 00:00:00,2013-10-23 00:00:00,-49.54100243038434,0.36146073068160584,8.088816590202821,1.3106455772190835
sz000807,2014-01-29,3.18,3.23,3.18,3.21,0.012618,2978469.0,9556030.51,4940511520.0,4940745280.0,0.0019352015375930143,21.97,2013-09-30 00:00:00,2013-10-23 00:00:00,-49.85162792397864,0.3637271143310023,8.139534026723332,1.3188634151589387
sz000807,2014-01-28,3.14,3.19,3.14,3.17,0.009554,2145701.0,6792467.92,4878947510.0,4879178360.0,0.0013941269415296497,21.7,2013-09-30 00:00:00,2013-10-23 00:00:00,-49.230438254088554,0.3591947944150729,8.038109165275882,1.3024293614758367
sz000807,2014-01-27,3.2,3.2,3.13,3.14,-0.021807,3272677.0,10356742.75,4832774510.0,4833003170.0,0.0021263573871978564,21.49,2013-09-30 00:00:00,2013-10-23 00:00:00,-48.7645418215257,0.35579552397897773,7.962039836676277,1.2901037106245299
sz000807,2014-01-24,3.16,3.23,3.16,3.21,0.009434,3794443.0,12165626.89,4940511520.0,4940745280.0,0.002465364564112989,21.97,2013-09-30 00:00:00,2013-10-23 00:00:00,-49.85165690362301,0.3637273257720897,8.139538758380276,1.3188641818378684
sz000807,2014-01-23,3.17,3.21,3.14,3.18,0.0031550000000000003,4460463.0,14114197.6,4894338520.0,4894570090.0,0.0028980979313216774,21.76,2013-09-30 00:00:00,2013-10-23 00:00:00,-49.385751721878805,0.36032799150027617,8.063468001256423,1.3065382995201948
sz000807,2014-01-22,3.09,3.17,3.09,3.17,0.025889999999999996,3210213.0,10101579.32,4878947510.0,4879178360.0,0.002085772636238097,21.7,2013-09-30 00:00:00,2013-10-23 00:00:00,-49.230429716124426,0.3591947321204361,8.038107771238167,1.3024291355973852
sz000807,2014-01-21,3.08,3.11,3.07,3.09,0.003247,2098007.0,6492008.09,4755819500.0,4756044520.0,0.0013631387040656188,21.15,2013-09-30 00:00:00,2013-10-23 00:00:00,-47.98801988139511,0.3501298697915333,7.835253069274645,1.26956022146369
sz000807,2014-01-20,3.11,3.13,3.06,3.08,-0.012821,2506972.0,7742963.97,4740428500.0,4740652790.0,0.001628855653027991,21.08,2013-09-30 00:00:00,2013-10-23 00:00:00,-47.832707081501475,0.3489966775794329,7.809894342345051,1.265451301089054
sz000807,2014-01-17,3.18,3.18,3.11,3.12,-0.021943999999999998,3613095.0,11352581.72,4801992510.0,4802219710.0,0.0023475372726060335,21.35,2013-09-30 00:00:00,2013-10-23 00:00:00,-48.45393498190447,0.3535292764325749,7.911325445886765,1.2818863661899755
sz000807,2014-01-16,3.12,3.22,3.12,3.19,0.019169,5060769.0,16010363.83,4909729520.0,4909961820.0,0.0032881349256078775,21.83,2013-09-30 00:00:00,2013-10-23 00:00:00,-49.54106409234693,0.361461180579205,8.088826658071486,1.3106472085340466
sz000807,2014-01-15,3.2,3.21,3.1,3.13,-0.021875,4886352.0,15330907.33,4817383510.0,4817611440.0,0.0031748109172234037,21.42,2013-09-30 00:00:00,2013-10-23 00:00:00,-48.609272939372104,0.35466265219919857,7.936688280424037,1.2859959521277107
sz000807,2014-01-14,3.27,3.27,3.14,3.2,-0.027356000000000002,6652522.0,21188290.69,4925120520.0,4925353550.0,0.004322345070248149,21.9,2013-09-30 00:00:00,2013-10-23 00:00:00,-49.69638127986924,0.36259440480429245,8.114186101391986,1.3147562449867967
sz000807,2014-01-13,3.15,3.36,3.14,3.29,0.054487,12406540.0,40552660.23,5063639530.0,5063879120.0,0.008060904880407236,22.52,2013-09-30 00:00:00,2013-10-23 00:00:00,-51.09411180233389,0.3727925168965135,8.342400818173955,1.3517342881740873
sz000807,2014-01-10,3.05,3.2,3.03,3.12,0.022951,7737026.0,24109339.58,4801992510.0,4802219710.0,0.005026980169113175,21.35,2013-09-30 00:00:00,2013-10-23 00:00:00,-48.453998771283,0.3535297418522121,7.911335861109672,1.2818880537873745
sz000807,2014-01-09,3.14,3.15,3.03,3.05,-0.031745999999999996,5826546.0,18094020.59,4694255490.0,4694477600.0,0.0037856834460452426,20.87,2013-09-30 00:00:00,2013-10-23 00:00:00,-47.366881474560365,0.3455979239007656,7.733836577812302,1.2531275239844084
sz000807,2014-01-08,3.2,3.22,3.12,3.15,-0.012539,3452905.0,10934970.36,4848165510.0,4848394900.0,0.0022434569792564693,21.56,2013-09-30 00:00:00,2013-10-23 00:00:00,-48.9198923779921,0.35692899167033193,7.987404728317468,1.2942136298785323
sz000807,2014-01-07,3.22,3.23,3.16,3.19,-0.009317,5256960.0,16784321.23,4909729520.0,4909961820.0,0.0034156061615386096,21.83,2013-09-30 00:00:00,2013-10-23 00:00:00,-49.541088081445345,0.3614613556083045,8.08883057489609,1.3106478431842192
sz000807,2014-01-06,3.35,3.36,3.2,3.22,-0.041667,4623950.0,15107492.58,4955902520.0,4956137010.0,0.003004320391677115,22.04,2013-09-30 00:00:00,2013-10-23 00:00:00,-50.00700333148478,0.36486076334034645,8.164902975922763,1.3229739918664387
sz000807,2014-01-03,3.38,3.39,3.34,3.36,-0.005917,2900440.0,9744754.9,5171376540.0,5171621230.0,0.0018845037340870171,23.0,2013-09-30 00:00:00,2013-10-23 00:00:00,-52.18123901763248,0.3807244072158075,8.519901720928699,1.3804950803806597
sz000807,2014-01-02,3.39,3.41,3.36,3.38,-0.005882,1985725.0,6710049.4,5202158550.0,5202404690.0,0.001290185686478164,23.13,2013-09-30 00:00:00,2013-10-23 00:00:00,-52.49183319464519,0.3829905623733707,8.570614044228396,1.3887120898161014
sz000807,2013-12-31,3.34,3.42,3.34,3.4,0.014925,2507426.0,8504716.0,5232940550.0,5233188150.0,0.0016291506311876599,23.27,2013-09-30 00:00:00,2013-10-23 00:00:00,-52.80241701150688,0.38525664194126935,8.621324675972469,1.3969288251657264
sz000807,2013-12-30,3.4,3.41,3.35,3.35,-0.008876,2552500.0,8624056.0,5155985540.0,5156229500.0,0.0016584365750568029,22.93,2013-09-30 00:00:00,2013-10-23 00:00:00,-52.02593000616486,0.3795912426447957,8.494543612555082,1.3763862602317671
sz000807,2013-12-27,3.36,3.4,3.35,3.38,0.008955,3011149.0,10165273.37,5202158550.0,5202404690.0,0.0019564347226595008,23.13,2013-09-30 00:00:00,2013-10-23 00:00:00,-52.4918476458696,0.3829906678122976,8.57061640375481,1.3887124721344322
sz000807,2013-12-26,3.45,3.45,3.33,3.35,-0.028986,4710485.0,15900306.78,5155985540.0,5156229500.0,0.00306054480323465,22.93,2013-09-30 00:00:00,2013-10-23 00:00:00,-52.02595521690224,0.3795914265872092,8.49454772884302,1.3763869272013443
sz000807,2013-12-25,3.44,3.45,3.41,3.45,0.002907,4016293.0,13755560.18,5309895560.0,5310146790.0,0.002609507229177969,23.61,2013-09-30 00:00:00,2013-10-23 00:00:00,-53.57899599480773,0.39092271232671116,8.748120757108568,1.4174738234478022
sz000807,2013-12-24,3.46,3.48,3.42,3.44,-0.0057799999999999995,3250936.0,11231136.69,5294504560.0,5294755060.0,0.0021122316003822647,23.54,2013-09-30 00:00:00,2013-10-23 00:00:00,-53.423693318331345,0.38978959397702,8.72276368308185,1.4133651708960073
sz000807,2013-12-23,3.46,3.47,3.39,3.46,0.005814,3161580.0,10863127.28,5325286560.0,5325538520.0,0.002054174301560966,23.68,2013-09-30 00:00:00,2013-10-23 00:00:00,-53.734277441945785,0.39205567578304595,8.773474364911035,1.421581914361014
sz000807,2013-12-20,3.55,3.56,3.44,3.44,-0.030986,6154795.0,21498872.7,5294504560.0,5294755060.0,0.003998956759799259,23.54,2013-09-30 00:00:00,2013-10-23 00:00:00,-53.42367221170692,0.38978943997900806,8.722760236893736,1.4133646125039163
sz000807,2013-12-19,3.56,3.6,3.54,3.55,0.0,3618604.0,12899772.1,5463805580.0,5464064090.0,0.002351116636913717,24.3,2013-09-30 00:00:00,2013-10-23 00:00:00,-55.131992119522444,0.4022536722679012,9.001686494615903,1.4585595383595245
sz000807,2013-12-18,3.56,3.58,3.54,3.55,0.0,3394680.0,12084872.2,5463805580.0,5464064090.0,0.002205626430799904,24.3,2013-09-30 00:00:00,2013-10-23 00:00:00,-55.131992119522444,0.4022536722679012,9.001686494615903,1.4585595383595245
sz000807,2013-12-17,3.6,3.6,3.54,3.55,-0.00838,4248379.0,15146647.28,5463805580.0,5464064090.0,0.0027603005321430196,24.3,2013-09-30 00:00:00,2013-10-23 00:00:00,-55.131992119522444,0.4022536722679012,9.001686494615903,1.4585595383595245
sz000807,2013-12-16,3.68,3.68,3.58,3.58,-0.021858000000000002,7074981.0,25614786.25,5509978580.0,5510239280.0,0.004596829481685571,24.5,2013-09-30 00:00:00,2013-10-23 00:00:00,-55.59790254283137,0.40565304478318426,9.077758107557232,1.470885559346851
sz000807,2013-12-13,3.67,3.72,3.65,3.66,-0.010811,7251422.0,26684741.06,5633106590.0,5633373120.0,0.004711468546878678,25.05,2013-09-30 00:00:00,2013-10-23 00:00:00,-56.84031821845026,0.41471794972834647,9.280613763193108,1.5037546280058018
sz000807,2013-12-12,3.72,3.73,3.66,3.7,-0.005376,5762949.0,21275368.48,5694670600.0,5694940040.0,0.003744362544867828,25.32,2013-09-30 00:00:00,2013-10-23 00:00:00,-57.461534871950924,0.41925046652191494,9.382043030394705,1.5201893955612142
sz000807,2013-12-11,3.76,3.77,3.7,3.72,-0.01847,6205043.0,23152604.73,5725452600.0,5725723500.0,0.004031604411501023,25.46,2013-09-30 00:00:00,2013-10-23 00:00:00,-57.77211777712073,0.42151653943793327,9.43275351328211,1.5284061067913244
sz000807,2013-12-10,3.83,3.84,3.77,3.79,-0.010444,5123580.0,19448031.91,5833189610.0,5833465610.0,0.0033289451395014744,25.94,2013-09-30 00:00:00,2013-10-23 00:00:00,-58.859248089330656,0.42944845235289114,9.610254921685643,1.5571669809290845
sz000807,2013-12-09,3.84,3.87,3.81,3.83,-0.002604,3530031.0,13539750.6,5894753620.0,5895032530.0,0.0022935680779140014,26.21,2013-09-30 00:00:00,2013-10-23 00:00:00,-59.480462034822345,0.43398094938830256,9.71168374673656,1.5736016768420227
sz000807,2013-12-06,3.83,3.85,3.81,3.84,0.005236,4471727.0,17117186.02,5910144620.0,5910424260.0,0.0029054164972362384,26.28,2013-09-30 00:00:00,2013-10-23 00:00:00,-59.63575353703278,0.4351139862083892,9.73703899628288,1.5777100337699597
sz000807,2013-12-05,3.84,3.85,3.81,3.82,-0.002611,4083941.0,15631496.74,5879362620.0,5879640800.0,0.002653460184090499,26.14,2013-09-30 00:00:00,2013-10-23 00:00:00,-59.32512717116455,0.4328475961947137,9.686321417341679,1.5694921727534226
sz000807,2013-12-04,3.78,3.84,3.76,3.83,0.018616999999999998,7489148.0,28604988.39,5894753620.0,5895032530.0,0.004865926328571473,26.21,2013-09-30 00:00:00,2013-10-23 00:00:00,-59.48043057539692,0.4339807198542532,9.711678610192894,1.5736008445585652
sz000807,2013-12-03,3.72,3.79,3.72,3.76,0.008043000000000002,4163747.0,15637176.84,5787016610.0,5787290420.0,0.002705312560006632,25.73,2013-09-30 00:00:00,2013-10-23 00:00:00,-58.3933220979003,0.42604896624958455,9.534180766856327,1.5448405480750516
sz000807,2013-12-02,3.8,3.85,3.7,3.73,-0.02611,9635301.0,36335124.65,5740843600.0,5741115230.0,0.006260346951448041,25.53,2013-09-30 00:00:00,2013-10-23 00:00:00,-57.9274119237972,0.4226495955525554,9.458109194604127,1.5325145336806583
sz000807,2013-11-29,3.84,3.86,3.81,3.83,-0.007772,5426398.0,20759635.1,5894753620.0,5895032530.0,0.0035256951655258497,26.21,2013-09-30 00:00:00,2013-10-23 00:00:00,-59.48044637874627,0.433980835158545,9.711681190487763,1.5736012626484082
sz000807,2013-11-28,3.78,3.91,3.76,3.86,0.023873,10964632.0,42151395.89,5940926630.0,5941207720.0,0.007124053561994587,26.42,2013-09-30 00:00:00,2013-10-23 00:00:00,-59.94634940633228,0.43738015371320405,9.787751595891027,1.585927087976159
sz000807,2013-11-27,3.76,3.79,3.73,3.77,0.005333,4483106.0,16847632.44,5802407610.0,5802682150.0,0.0029128097775950627,25.8,2013-09-30 00:00:00,2013-10-23 00:00:00,-58.54861824301674,0.427182036945211,9.55953677447401,1.5489490278346618
sz000807,2013-11-26,3.79,3.81,3.75,3.75,-0.010554000000000001,3419905.0,12908078.0,5771625610.0,5771898690.0,0.0022220158784692894,25.67,2013-09-30 00:00:00,2013-10-23 00:00:00,-58.23803480341015,0.4249159601298385,9.508826204326336,1.5407323024656125
sz000807,2013-11-25,3.79,3.84,3.78,3.79,-0.0026320000000000002,3032841.0,11540965.6,5833189610.0,5833465610.0,0.0019705286744484893,25.94,2013-09-30 00:00:00,2013-10-23 00:00:00,-58.8592351714092,0.429448358101239,9.610252812509563,1.5571666391754706
sz000807,2013-11-22,3.84,3.86,3.78,3.8,-0.010417000000000001,3951549.0,15066744.77,5848580620.0,5848857340.0,0.0025674410896639054,26.01,2013-09-30 00:00:00,2013-10-23 00:00:00,-59.01456149727001,0.43058164900141066,9.635613747894018,1.5612759173900408
sz000807,2013-11-21,3.82,3.85,3.78,3.84,-0.002597,4789293.0,18235863.56,5910144620.0,5910424260.0,0.0031117487476981565,26.28,2013-09-30 00:00:00,2013-10-23 00:00:00,-59.6357874956118,0.4351142339767464,9.737044540876328,1.5777109321704608
sz000807,2013-11-20,3.87,3.88,3.81,3.85,0.002604,3636206.0,13936613.76,5925535620.0,5925815990.0,0.002362553193123831,26.35,2013-09-30 00:00:00,2013-10-23 00:00:00,-59.79106489113407,0.43624716787170925,9.762397487150457,1.58181891589504
sz000807,2013-11-19,3.83,3.87,3.8,3.84,0.002611,4296901.0,16501909.44,5910144620.0,5910424260.0,0.002791826748902804,26.28,2013-09-30 00:00:00,2013-10-23 00:00:00,-59.635773337363574,0.4351141306754304,9.737042229185656,1.5777105576030417
sz000807,2013-11-18,3.76,3.84,3.76,3.83,0.015915000000000002,5058821.0,19259263.01,5894753620.0,5895032530.0,0.003286869253409102,26.21,2013-09-30 00:00:00,2013-10-23 00:00:00,-59.48046983063578,0.4339810062680645,9.711685019599482,1.5736018830863034
sz000807,2013-11-15,3.68,3.79,3.68,3.77,0.024457,4892315.0,18380932.63,5802407610.0,5802682150.0,0.003178685261306556,25.8,2013-09-30 00:00:00,2013-10-23 00:00:00,-58.54866778287139,0.4271823983975673,9.559544863103197,1.5489503384498737
sz000807,2013-11-14,3.69,3.71,3.65,3.68,0.002725,2437332.0,8969129.41,5663888600.0,5664156580.0,0.0015836084346715436,25.19,2013-09-30 00:00:00,2013-10-23 00:00:00,-57.15092754783402,0.4169842154405381,9.331328560499072,1.5119720383089519
sz000807,2013-11-13,3.74,3.76,3.66,3.67,-0.026525,4245702.0,15687298.81,5648497590.0,5648764850.0,0.0027585612088399597,25.12,2013-09-30 00:00:00,2013-10-23 00:00:00,-56.99561449832608,0.41585102140720337,9.305969792813652,1.5078631113305758
sz000807,2013-11-12,3.76,3.79,3.74,3.77,0.00266,2958767.0,11144170.48,5802407610.0,5802682150.0,0.0019224005515875847,25.8,2013-09-30 00:00:00,2013-10-23 00:00:00,-58.5486165523779,0.4271820246099832,9.559536498434632,1.5489489831075025
sz000807,2013-11-11,3.79,3.8,3.72,3.76,-0.005291,3390516.0,12696523.29,5787016610.0,5787290420.0,0.002202920955500765,25.73,2013-09-30 00:00:00,2013-10-23 00:00:00,-58.39329039991412,0.42604873497494977,9.534175591361608,1.5448397094802846
sz000807,2013-11-08,3.85,3.87,3.77,3.78,-0.018182,3105907.0,11857966.6,5817798610.0,5818073880.0,0.0020180018675483163,25.87,2013-09-30 00:00:00,2013-10-23 00:00:00,-58.703892696169554,0.4283149493720774,9.584889240332206,1.5530569337165792
sz000807,2013-11-07,3.87,3.9,3.84,3.85,-0.005168,2720379.0,10517584.33,5925535620.0,5925815990.0,0.0017675126472364367,26.35,2013-09-30 00:00:00,2013-10-23 00:00:00,-59.7910128925825,0.4362467884802249,9.762388997077062,1.5818175402330974
sz000807,2013-11-06,3.87,3.94,3.85,3.87,-0.005141,4102331.0,15990183.8,5956317630.0,5956599450.0,0.0026654087233423784,26.49,2013-09-30 00:00:00,2013-10-23 00:00:00,-60.101618054689126,0.43851302378715695,9.81310311397006,1.5900348402877043
sz000807,2013-11-05,3.91,3.92,3.84,3.89,-0.005115,3416081.0,13237345.93,5987099630.0,5987382910.0,0.002219531310856105,26.62,2013-09-30 00:00:00,2013-10-23 00:00:00,-60.41219716029018,0.4407790689807871,9.863812976482153,1.5982514509972812
sz000807,2013-11-04,3.96,3.97,3.9,3.91,-0.012626,3402667.0,13346860.79,6017881630.0,6018166370.0,0.0022108158298886314,26.76,2013-09-30 00:00:00,2013-10-23 00:00:00,-60.72279425289373,0.44304524541106477,9.914525775825501,1.606468537566936
sz000807,2013-11-01,3.95,3.98,3.92,3.96,0.002532,2529130.0,9999748.34,6094836640.0,6095125020.0,0.0016432523776387876,27.1,2013-09-30 00:00:00,2013-10-23 00:00:00,-61.49928421539734,0.448710666283561,10.041307322074008,1.6270111807348948
sz000807,2013-10-31,3.94,3.98,3.9,3.95,0.002538,3756317.0,14810149.55,6079445640.0,6079733290.0,0.0024405929468924404,27.03,2013-09-30 00:00:00,2013-10-23 00:00:00,-61.34396130537213,0.44757740030598625,10.015946944410759,1.6229019928889001
sz000807,2013-10-30,3.89,3.99,3.86,3.94,0.020725,4869957.0,19216778.39,6064054640.0,6064341560.0,0.0031641585901013582,26.97,2013-09-30 00:00:00,2013-10-23 00:00:00,-61.188664474934754,0.44644432461012573,9.99059082489717,1.6187934949985938
sz000807,2013-10-29,3.98,4.01,3.82,3.86,-0.022785,6249498.0,24331362.62,5940926630.0,5941207720.0,0.004060488166641439,26.42,2013-09-30 00:00:00,2013-10-23 00:00:00,-59.94627786615861,0.43737963174226724,9.787739915155571,1.5859251953254732
sz000807,2013-10-28,3.95,4.02,3.94,3.95,0.005089,3306393.0,13126190.85,6079445640.0,6079733290.0,0.002148263694319339,27.03,2013-09-30 00:00:00,2013-10-23 00:00:00,-61.344000927286835,0.44757768939513537,10.015953413686415,1.6229030411173315
sz000807,2013-10-25,4.02,4.05,3.92,3.93,-0.022387999999999998,4678272.0,18620388.6,6048663640.0,6048949830.0,0.003039615038008627,26.9,2013-09-30 00:00:00,2013-10-23 00:00:00,-61.033401944789816,0.44531149917582963,9.965240305770351,1.6146859045490816
sz000807,2013-10-24,4.12,4.12,4.01,4.02,-0.026633999999999998,6371894.0,25909695.07,6187182650.0,6187475400.0,0.0041400125596744745,27.51,2013-09-30 00:00:00,2013-10-23 00:00:00,-62.43110962712181,0.4555094446220276,10.19345129332532,1.6516633434829784
sz000807,2013-10-23,4.16,4.27,4.12,4.13,-0.0048189999999999995,8601171.0,35953078.82,6356483670.0,6356784420.0,0.0055884413575469786,28.27,2013-09-30 00:00:00,2013-10-23 00:00:00,-64.1393983631253,0.4679734494753542,10.47237246146395,1.6968574446641638
sz000807,2013-10-22,4.14,4.19,4.09,4.15,0.0,8230079.0,33979073.9,6387265670.0,6387567880.0,0.005347331646219125,28.4,2013-06-30 00:00:00,2013-08-16 00:00:00,-71.45640048655994,0.5172158747052454,39.369267147503294,1.7161869038262914
sz000807,2013-10-21,4.14,4.2,4.05,4.15,0.004843,7358760.0,30374704.0,6387265670.0,6387567880.0,0.004781209296403042,28.4,2013-06-30 00:00:00,2013-08-16 00:00:00,-71.45640048655994,0.5172158747052454,39.369267147503294,1.7161869038262914
sz000807,2013-10-18,4.14,4.22,4.11,4.13,-0.009592,6576873.0,27290632.93,6356483670.0,6356784420.0,0.004273193624046548,28.27,2013-06-30 00:00:00,2013-08-16 00:00:00,-71.11200504612157,0.5147230708730074,39.179520728614605,1.7079154692089125
sz000807,2013-10-17,4.1,4.27,4.09,4.17,0.017072999999999998,8908047.0,37190368.28,6418047680.0,6418351340.0,0.0057878279879030135,28.54,2013-06-30 00:00:00,2013-08-16 00:00:00,-71.80071752865645,0.5197081110744334,39.558970372426934,1.7244564555303599
sz000807,2013-10-16,4.19,4.2,4.08,4.1,-0.023809999999999998,7622738.0,31497161.43,6310310660.0,6310609230.0,0.004952723801398393,28.06,2013-06-30 00:00:00,2013-08-16 00:00:00,-70.59544155498816,0.5109840798786651,38.89491744685676,1.6955090298635007
sz000807,2013-10-15,4.22,4.32,4.17,4.2,-0.007092,7640679.0,32226619.4,6464220680.0,6464526530.0,0.004964380609605055,28.74,2013-06-30 00:00:00,2013-08-16 00:00:00,-72.31731686965463,0.5234473615573455,39.843593405850044,1.7368637558912718
sz000807,2013-10-14,4.26,4.36,4.2,4.23,-0.016279,10262741.0,43694068.46,6510393690.0,6510701720.0,0.0066680137173087,28.95,2013-06-30 00:00:00,2013-08-16 00:00:00,-72.8338545662384,0.5271861658455219,40.12818247596962,1.7492695757222945
sz000807,2013-10-11,4.24,4.38,4.18,4.3,0.014150999999999999,17853040.0,76845083.33,6618130700.0,6618443830.0,0.011599660913314993,29.43,2013-06-30 00:00:00,2013-08-16 00:00:00,-74.03913768867231,0.5359102487855012,40.79223934018856,1.7782171730829115
sz000807,2013-10-10,4.13,4.34,4.07,4.24,0.026633999999999998,17342654.0,73105554.07,6525784690.0,6526093450.0,0.011268047668302708,29.02,2013-06-30 00:00:00,2013-08-16 00:00:00,-73.00602936709849,0.5284324018666857,40.223043057876545,1.7534047425707922
sz000807,2013-10-09,4.15,4.2,4.1,4.13,-0.0072120000000000005,7655772.0,31647131.74,6356483670.0,6356784420.0,0.0049741869878822485,28.27,2013-06-30 00:00:00,2013-08-16 00:00:00,-71.11203151960531,0.5147232624934355,39.179535314315075,1.7079161050294378
sz000807,2013-10-08,4.11,4.22,4.05,4.16,0.0,10852880.0,44976141.45,6402656670.0,6402959610.0,0.007051444912163313,28.47,2013-06-30 00:00:00,2013-08-16 00:00:00,-71.62861710617506,0.5184624134190134,39.464150769665906,1.7203230750466747
sz000807,2013-09-30,4.25,4.25,4.06,4.16,-0.011876000000000001,14826362.0,61240068.82,6402656670.0,6402959610.0,0.009633136539866975,28.47,2013-06-30 00:00:00,2013-08-16 00:00:00,-71.62861710617506,0.5184624134190134,39.464150769665906,1.7203230750466747
sz000807,2013-09-27,3.98,4.3,3.97,4.21,0.057789,30177380.0,126457484.67,6479611680.0,6479918260.0,0.019607157970923345,28.81,2013-06-30 00:00:00,2013-08-16 00:00:00,-72.48950243711826,0.5246936755093625,39.93845991967193,1.7409991813240793
sz000807,2013-09-26,4.06,4.12,3.97,3.98,-0.040964,13753541.0,55579542.78,6125618640.0,6125908480.0,0.008936092237697644,27.24,2013-06-30 00:00:00,2013-08-16 00:00:00,-68.52926475612647,0.49602867444203197,37.756546834644645,1.6458851257898117
sz000807,2013-09-25,3.9,4.17,3.88,4.15,0.06138099999999999,25659519.0,104991283.51,6387265670.0,6387567880.0,0.016671766817239655,28.4,2013-06-30 00:00:00,2013-08-16 00:00:00,-71.45640492757987,0.5172159068502455,39.3692695943058,1.7161870104874186
sz000807,2013-09-24,3.97,3.97,3.9,3.91,-0.015113,5490544.0,21531757.59,6017881630.0,6018166370.0,0.003567372766685675,26.76,2013-06-30 00:00:00,2013-08-16 00:00:00,-67.32399103392642,0.487304659542846,37.09249514953235,1.6169377541970493
sz000807,2013-09-23,3.92,4.0,3.92,3.97,0.012754999999999999,5298631.0,20992403.75,6110227640.0,6110516750.0,0.0034426810766087926,27.17,2013-06-30 00:00:00,2013-08-16 00:00:00,-68.35707145482318,0.4947823045109197,37.66167605982449,1.6417495146113714
sz000807,2013-09-18,3.93,3.93,3.84,3.92,0.002558,4773348.0,18643693.13,6033272640.0,6033558100.0,0.0031013887945232983,26.83,2013-06-30 00:00:00,2013-08-16 00:00:00,-67.49615796004282,0.4885508385650228,37.1873513928092,1.6210727319157854
sz000807,2013-09-17,4.01,4.01,3.9,3.91,-0.024938,6916560.0,27272818.31,6017881630.0,6018166370.0,0.004493898561444453,26.76,2013-06-30 00:00:00,2013-08-16 00:00:00,-67.32394331304805,0.48730431412947955,37.092468857471786,1.6169366080723364
sz000807,2013-09-16,4.05,4.08,3.99,4.01,-0.009877,6543902.0,26357843.2,6171791650.0,6172083670.0,0.004251771366909315,27.44,2013-06-30 00:00:00,2013-08-16 00:00:00,-69.04580766458753,0.4997675164548301,38.04113877627452,1.658291070795843
sz000807,2013-09-13,4.13,4.13,4.04,4.05,-0.024096,7184015.0,29261762.52,6233355660.0,6233650590.0,0.00466767217162128,27.72,2013-06-30 00:00:00,2013-08-16 00:00:00,-69.73457607245518,0.5047529614551224,38.42061923243327,1.6748334002905128
sz000807,2013-09-12,4.1,4.19,4.03,4.15,-0.002404,15314456.0,62696546.77,6387265670.0,6387567880.0,0.009950265995433381,28.4,2013-06-30 00:00:00,2013-08-16 00:00:00,-71.45638922727562,0.5172157932082689,39.369260944143356,1.7161866334091396
sz000807,2013-09-11,4.13,4.37,4.08,4.16,0.024631,28055959.0,119041476.71,6402656670.0,6402959610.0,0.018228806486979724,28.47,2013-06-30 00:00:00,2013-08-16 00:00:00,-71.62858434403869,0.5184621762800461,39.46413271920031,1.720322288189948
sz000807,2013-09-10,4.0,4.07,3.97,4.06,0.012469,19924897.0,80188871.65,6248746660.0,6249042320.0,0.012945809171274674,27.79,2013-06-30 00:00:00,2013-08-16 00:00:00,-69.90671211786359,0.5059989169564908,38.515458461827045,1.6789676363392751
sz000807,2013-09-09,3.9,4.08,3.86,4.01,0.028205,15167502.0,60308075.56,6171791650.0,6172083670.0,0.009854785525690905,27.44,2013-06-30 00:00:00,2013-08-16 00:00:00,-69.0457802835085,0.49976731826504384,38.04112369052982,1.6582904131773664
sz000807,2013-09-06,4.0,4.02,3.89,3.9,-0.002558,10274139.0,40488519.52,6002490630.0,6002774640.0,0.006675419350050697,26.69,2013-06-30 00:00:00,2013-08-16 00:00:00,-67.15176475849513,0.48605805093832816,36.99760620744872,1.6128013510704247
sz000807,2013-09-05,3.86,3.91,3.81,3.91,0.005141,7182693.0,27706788.85,6017881630.0,6018166370.0,0.004666813233745842,26.76,2013-06-30 00:00:00,2013-08-16 00:00:00,-67.32397949805114,0.48730457604384836,37.09248879378322,1.616937477136941
sz000807,2013-09-04,3.85,3.9,3.82,3.89,0.007772,7769021.0,30026450.71,5987099630.0,5987382910.0,0.0050477682947794875,26.62,2013-06-30 00:00:00,2013-08-16 00:00:00,-66.97963718329186,0.48481215674601713,36.90277164475752,1.6086673184527753
sz000807,2013-09-03,3.82,3.86,3.8,3.86,0.013123,5694666.0,21852945.37,5940926630.0,5941207720.0,0.0036999970087157937,26.42,2013-06-30 00:00:00,2013-08-16 00:00:00,-66.46308607829138,0.48107325540500945,36.61817518720259,1.596261176588331
sz000807,2013-09-02,3.8,3.82,3.74,3.81,0.0026320000000000002,6364002.0,24101225.72,5863971620.0,5864249070.0,0.004134884885408092,26.08,2013-06-30 00:00:00,2013-08-16 00:00:00,-65.60218855784676,0.4748419050845844,36.14385932132879,1.5755847775525094
sz000807,2013-08-30,3.82,3.85,3.77,3.8,-0.012987,6124804.0,23294237.48,5848580620.0,5848857340.0,0.003979470697627145,26.01,2013-06-30 00:00:00,2013-08-16 00:00:00,-65.42997685875451,0.47359540198655586,36.04897841015327,1.5714487245096003
sz000807,2013-08-29,3.91,3.91,3.8,3.85,-0.015345,6241117.0,24029189.38,5925535620.0,5925815990.0,0.004055042782782226,26.35,2013-06-30 00:00:00,2013-08-16 00:00:00,-66.29089673464739,0.47982691412023537,36.52330659287494,1.5921256604620206
sz000807,2013-08-28,3.86,3.94,3.84,3.91,0.012853,9735415.0,37945798.77,6017881630.0,6018166370.0,0.006325394049001924,26.76,2013-06-30 00:00:00,2013-08-16 00:00:00,-67.32398325773735,0.4873046032572173,37.09249086520145,1.6169375674342998
sz000807,2013-08-27,3.86,3.9,3.84,3.89,0.005168,4448117.0,17213532.28,5987099630.0,5987382910.0,0.002890076364070795,26.42,2013-06-30 00:00:00,2013-08-16 00:00:00,-66.46964886092785,0.4811207581526809,36.62179098566273,1.596418796641072
sz000807,2013-08-26,3.8,3.87,3.79,3.87,0.021108000000000002,4879988.0,18731241.37,5956317630.0,5956599450.0,0.003170676033944147,26.28,2013-06-30 00:00:00,2013-08-16 00:00:00,-66.12789987437708,0.47864710988877573,36.433502643998544,1.588210922593111
sz000807,2013-08-23,3.82,3.88,3.73,3.79,-0.007853,5579263.0,21265088.29,5833189610.0,5833465610.0,0.0036250161890417276,25.74,2013-06-30 00:00:00,2013-08-16 00:00:00,-64.76092624323488,0.4687526783540779,35.68036157193808,1.5553799623478723
sz000807,2013-08-22,3.84,3.87,3.8,3.82,-0.005208,4784100.0,18308243.17,5879362620.0,5879640800.0,0.003108374696575528,25.95,2013-06-30 00:00:00,2013-08-16 00:00:00,-65.27351918942946,0.47246292974133663,35.9627772617748,1.567691040085665
sz000807,2013-08-21,3.86,3.87,3.8,3.84,0.005236,3090442.0,11856914.67,5910144620.0,5910424260.0,0.0020079537884472275,26.08,2013-06-30 00:00:00,2013-08-16 00:00:00,-65.61524337693655,0.4749363985047493,36.15105194027977,1.5758983185285615
sz000807,2013-08-20,3.86,3.91,3.79,3.82,-0.017995,6051326.0,23243165.88,5879362620.0,5879640800.0,0.0039317298173386014,25.95,2013-06-30 00:00:00,2013-08-16 00:00:00,-65.27347148026588,0.47246258441276406,35.96275097616855,1.5676898942423088
sz000807,2013-08-19,3.86,3.93,3.76,3.89,0.007772,6809924.0,26204721.66,5987099630.0,5987382910.0,0.0044246139194446645,26.42,2013-06-30 00:00:00,2013-08-16 00:00:00,-66.46959178442663,0.4811203450214246,36.62175953907419,1.5964174258199386
sz000807,2013-08-16,3.9,4.04,3.84,3.86,-0.012787999999999999,7974790.0,31320077.81,5940926630.0,5941207720.0,0.0051814626433115876,26.22,2013-06-30 00:00:00,2013-08-16 00:00:00,-65.9569741810912,0.47740991516079495,36.33933026426036,1.584105755885199
sz000807,2013-08-15,3.94,3.99,3.9,3.91,-0.010126999999999999,5380096.0,21238620.06,6017881630.0,6018166370.0,0.003495611355187124,26.56,2013-03-31 00:00:00,2013-04-27 00:00:00,-170.83051801058548,0.5541439152163142,11.16967150872952,1.630024901410757
sz000807,2013-08-14,4.02,4.05,3.9,3.95,-0.017412999999999998,10361570.0,41153970.61,6079445640.0,6079733290.0,0.006732225917230177,26.83,2013-03-31 00:00:00,2013-04-27 00:00:00,-172.57821762042755,0.5598131429146105,11.283944009715913,1.6467010428719209
sz000807,2013-08-13,4.03,4.12,4.0,4.02,-0.00495,10971109.0,44436927.61,6187182650.0,6187475400.0,0.007128261872146283,27.3,2013-03-31 00:00:00,2013-04-27 00:00:00,-175.6365773416782,0.5697339196576084,11.483913393639355,1.6758831969809502
sz000807,2013-08-12,3.89,4.05,3.85,4.04,0.041237,16952111.0,67297715.14,6217964650.0,6218258860.0,0.011014300063606826,27.44,2013-03-31 00:00:00,2013-04-27 00:00:00,-176.51030334322718,0.5725681319105658,11.541041549308432,1.6842200864086734
sz000807,2013-08-09,3.79,3.93,3.76,3.88,0.031915,15814760.0,61310967.6,5971708630.0,5971991180.0,0.010275328654137635,26.35,2013-03-31 00:00:00,2013-04-27 00:00:00,-169.51981474268314,0.5498922261795977,11.083971804025818,1.6175184769737083
sz000807,2013-08-08,3.76,3.81,3.72,3.76,0.0053479999999999995,5237793.0,19749785.65,5787016610.0,5787290420.0,0.003403152782725467,25.54,2013-03-31 00:00:00,2013-04-27 00:00:00,-164.27691693858813,0.5328851951755694,10.74116744501807,1.567491970727927
sz000807,2013-08-07,3.74,3.8,3.72,3.74,-0.002667,5597195.0,21017474.88,5756234610.0,5756506960.0,0.003636667147588691,25.4,2013-03-31 00:00:00,2013-04-27 00:00:00,-163.40303749406982,0.5300504851808224,10.684029256554018,1.5591536171832308
sz000807,2013-08-06,3.67,3.77,3.65,3.75,0.013513999999999998,6254710.0,23278991.91,5771625610.0,5771898690.0,0.004063874562369613,25.47,2013-03-31 00:00:00,2013-04-27 00:00:00,-163.83999877079154,0.5314679100970513,10.712599760114243,1.563322999623226
sz000807,2013-08-05,3.65,3.72,3.64,3.7,0.008173999999999999,4431187.0,16308586.14,5694670600.0,5694940040.0,0.0028790764298114104,25.13,2013-03-31 00:00:00,2013-04-27 00:00:00,-161.65538785926148,0.5243814195926758,10.56976002316124,1.5424779525721657
sz000807,2013-08-02,3.67,3.78,3.63,3.67,0.011019,7865664.0,29129353.19,5648497590.0,5648764850.0,0.0051105601834912,24.93,2013-03-31 00:00:00,2013-04-27 00:00:00,-160.34473003594763,0.5201298779701479,10.48406328983017,1.529971961756766
sz000807,2013-08-01,3.57,3.66,3.57,3.63,0.019663,3533141.0,12772340.21,5586933590.0,5587197930.0,0.002295588738150725,24.65,2013-03-31 00:00:00,2013-04-27 00:00:00,-158.59714806145846,0.5144610318600816,10.36979848037492,1.5132969427446625
sz000807,2013-07-31,3.6,3.65,3.54,3.56,-0.005587,3079906.0,11040434.01,5479196580.0,5479455820.0,0.0020011082281701964,24.18,2013-03-31 00:00:00,2013-04-27 00:00:00,-155.5387888561794,0.504540256790804,10.169829130188031,1.4841147935589136
sz000807,2013-07-30,3.55,3.62,3.52,3.58,0.014163999999999998,3100141.0,11080675.5,5509978580.0,5510239280.0,0.0020142555218427,24.32,2013-03-31 00:00:00,2013-04-27 00:00:00,-156.41266642348742,0.5073749606962138,10.22696719591159,1.4924531291917078
sz000807,2013-07-29,3.61,3.66,3.52,3.53,-0.027548000000000003,4098612.0,14622858.82,5433023570.0,5433280630.0,0.002662992378661814,23.98,2013-03-31 00:00:00,2013-04-27 00:00:00,-154.22817850316852,0.5002888691535232,10.084135500679958,1.471609255694057
sz000807,2013-07-26,3.64,3.71,3.6,3.63,-0.008197,3380805.0,12285439.18,5586933590.0,5587197930.0,0.0021966114241927116,24.65,2013-03-31 00:00:00,2013-04-27 00:00:00,-158.59721457014692,0.5144612476024762,10.369802829013626,1.5132975773550335
sz000807,2013-07-25,3.69,3.72,3.64,3.66,-0.005435,3890135.0,14294279.81,5633106590.0,5633373120.0,0.0025275385566599054,24.86,2013-03-31 00:00:00,2013-04-27 00:00:00,-159.9079802845393,0.5187131392045359,10.455506616751133,1.5258045976419041
sz000807,2013-07-24,3.73,3.75,3.62,3.68,-0.013405000000000002,5069112.0,18619277.72,5663888600.0,5664156580.0,0.003293555625370174,24.99,2013-03-31 00:00:00,2013-04-27 00:00:00,-160.78182952802408,0.5215477512324843,10.512642830535091,1.5341426630153927
sz000807,2013-07-23,3.64,3.76,3.61,3.73,0.027548000000000003,5693301.0,21180473.82,5740843600.0,5741115230.0,0.0036991101325247735,25.33,2013-03-31 00:00:00,2013-04-27 00:00:00,-162.96639404013203,0.5286340912253603,10.655479533684126,1.5549872673340048
sz000807,2013-07-22,3.61,3.63,3.57,3.63,0.011142,3113118.0,11239408.86,5586933590.0,5587197930.0,0.002022687071173867,24.65,2013-03-31 00:00:00,2013-04-27 00:00:00,-158.5973541285975,0.5144617003053487,10.369811953975997,1.5132989089891715
sz000807,2013-07-19,3.77,3.77,3.57,3.59,-0.040107,6796225.0,24965468.08,5525369580.0,5525631010.0,0.004415713265283514,24.38,2013-03-31 00:00:00,2013-04-27 00:00:00,-156.84973438804585,0.5087927316888712,10.255544675204865,1.4966235296221218
sz000807,2013-07-18,3.82,3.84,3.73,3.74,-0.026042000000000003,4631729.0,17446101.99,5756234610.0,5756506960.0,0.0030093746404822094,25.4,2013-03-31 00:00:00,2013-04-27 00:00:00,-163.40335265289553,0.5300515075001809,10.684049863062722,1.5591566243551331
sz000807,2013-07-17,3.87,3.92,3.83,3.84,-0.010309,4047032.0,15681261.92,5910144620.0,5910424260.0,0.00262947929013622,26.08,2013-03-31 00:00:00,2013-04-27 00:00:00,-167.77248367270002,0.5442241939592682,10.969723399841392,1.6008458520337974
sz000807,2013-07-16,3.85,3.88,3.82,3.88,0.002584,4691653.0,18040711.57,5971708630.0,5971991180.0,0.0030483090800094846,26.35,2013-03-31 00:00:00,2013-04-27 00:00:00,-169.52006603343872,0.5498930413222594,11.08398823455138,1.6175208747314032
sz000807,2013-07-15,3.81,3.92,3.8,3.87,0.015747999999999998,7520013.0,29031245.54,5956317630.0,5956599450.0,0.004885980251190869,26.28,2013-03-31 00:00:00,2013-04-27 00:00:00,-169.083155160504,0.5484757799069798,11.0554210266186,1.6133519732325705
sz000807,2013-07-12,3.91,3.94,3.8,3.81,-0.028061000000000003,5356388.0,20739267.24,5863971620.0,5864249070.0,0.0034802075457520715,25.88,2013-03-31 00:00:00,2013-04-27 00:00:00,-166.46171605605326,0.5399722961866327,10.884019487725892,1.5883388135960597
sz000807,2013-07-11,3.79,3.98,3.79,3.92,0.031579,11107841.0,43554355.2,6033272640.0,6033558100.0,0.007217100787276869,26.62,2013-03-31 00:00:00,2013-04-27 00:00:00,-171.26765780162464,0.5555619192013416,11.198253684362797,1.6341959871926732
sz000807,2013-07-10,3.65,3.8,3.65,3.8,0.032609,6730619.0,25191077.36,5848580620.0,5848857340.0,0.004373087055094745,25.81,2013-03-31 00:00:00,2013-04-27 00:00:00,-166.02476184725032,0.5385548941974794,10.855449446298147,1.5841694985964947
sz000807,2013-07-09,3.62,3.76,3.6,3.68,0.016575,4525132.0,16660163.91,5663888600.0,5664156580.0,0.0029401153405453633,24.99,2013-03-31 00:00:00,2013-04-27 00:00:00,-160.78182724269337,0.5215477438192767,10.512642681109838,1.5341426412093009
sz000807,2013-07-08,3.73,3.73,3.6,3.62,-0.044855,4912681.0,17926334.74,5571542590.0,5571806200.0,0.0031919176660193133,24.59,2013-03-31 00:00:00,2013-04-27 00:00:00,-158.16031993969295,0.5130440388749248,10.34123668308766,1.5091288308381583
sz000807,2013-07-05,3.73,3.86,3.71,3.79,0.007979,7796667.0,29650758.46,5833189610.0,5833465610.0,0.005065730741778511,25.74,2013-03-31 00:00:00,2013-04-27 00:00:00,-165.58775886351597,0.5371373339910954,10.826876215744898,1.5799997181979264
sz000807,2013-07-04,3.67,3.83,3.6,3.76,0.024523,7139120.0,26554282.87,5787016610.0,5787290420.0,0.00463850253230913,25.54,2013-03-31 00:00:00,2013-04-27 00:00:00,-164.27699273845585,0.5328854410569024,10.741172401156074,1.5674926939925597
sz000807,2013-07-03,3.74,3.75,3.63,3.67,-0.018716999999999998,5495183.0,20168504.98,5648497590.0,5648764850.0,0.003570386866359626,24.93,2013-03-31 00:00:00,2013-04-27 00:00:00,-160.34485583872282,0.520130286052048,10.484071515384304,1.5299731621374628
sz000807,2013-07-02,3.78,3.78,3.69,3.74,-0.005319,4521439.0,16895725.88,5756234610.0,5756506960.0,0.002937715886462105,25.4,2013-03-31 00:00:00,2013-04-27 00:00:00,-163.4032749356942,0.5300512553993577,10.684044781560775,1.5591558827957506
sz000807,2013-07-01,3.72,3.78,3.69,3.76,0.010753,6712668.0,25145942.43,5787016610.0,5787290420.0,0.004361423749222658,25.54,2013-03-31 00:00:00,2013-04-27 00:00:00,-164.2770646425278,0.5328856743009645,10.741177102569342,1.5674933800844195
sz000807,2013-06-28,3.7,3.81,3.65,3.72,0.002695,6375100.0,23788766.55,5725445780.0,5725723500.0,0.004142100530030695,25.27,2013-03-31 00:00:00,2013-04-27 00:00:00,-162.5293861532222,0.5272165151139443,10.626905982539098,1.5508174401504813
sz000807,2013-06-27,3.73,3.85,3.71,3.71,-0.008020999999999999,6721940.0,25332938.48,5710054800.0,5710331770.0,0.004367453251061619,25.2,2013-03-31 00:00:00,2013-04-27 00:00:00,-162.09254673975857,0.5257994855005204,10.59834344694957,1.5466492205012308
sz000807,2013-06-26,3.83,3.86,3.65,3.74,-0.015788999999999997,12117764.0,45287718.17,5756227750.0,5756506960.0,0.007873287737789735,25.4,2013-03-31 00:00:00,2013-04-27 00:00:00,-163.40320383774107,0.5300510247702022,10.6840401328552,1.5591552043956882
sz000807,2013-06-25,3.96,4.01,3.56,3.8,-0.040404,9720638.0,36964642.14,5848573650.0,5848857340.0,0.006315800502914074,25.81,2013-03-31 00:00:00,2013-04-27 00:00:00,-166.02456570566787,0.5385542579489582,10.855436621674825,1.5841676270593281
sz000807,2013-06-24,4.3,4.3,3.95,3.96,-0.07907,6092394.0,24997580.85,6094829380.0,6095125020.0,0.0039584176579525515,26.9,2013-03-31 00:00:00,2013-04-27 00:00:00,-173.0150664505353,0.5612302030739584,11.3125071610082,1.6508693523725904
sz000807,2013-06-21,4.29,4.38,4.26,4.3,-0.018265,5052128.0,21819271.25,6618122810.0,6618443830.0,0.003282524519970339,29.21,2013-03-31 00:00:00,2013-04-27 00:00:00,-187.86994283011228,0.6094167885441439,12.283786130333684,1.7926111130841542
sz000807,2013-06-20,4.52,4.52,4.36,4.38,-0.033113,3790566.0,16758997.4,6741250680.0,6741577670.0,0.0024628484932709845,29.75,2013-03-31 00:00:00,2013-04-27 00:00:00,-191.36522873291904,0.6207548763608753,12.51232372313678,1.8259623147633062
sz000807,2013-06-19,4.53,4.54,4.41,4.53,-0.006579000000000001,4918843.0,22030553.02,6972115430.0,6972453620.0,0.003195925112502046,30.77,2013-03-31 00:00:00,2013-04-27 00:00:00,-197.91891786001779,0.6420138820367585,12.940833544288813,1.8884960856473465
sz000807,2013-06-18,4.58,4.59,4.52,4.56,-0.002188,3426811.0,15610070.29,7018288380.0,7018628810.0,0.0022265055685842306,30.97,2013-03-31 00:00:00,2013-04-27 00:00:00,-199.22964972556227,0.6462656638391563,13.026535118835634,1.9010027829564171
sz000807,2013-06-17,4.57,4.62,4.52,4.57,0.004396,3821376.0,17461327.97,7033679360.0,7034020540.0,0.0024828667083283138,31.04,2013-03-31 00:00:00,2013-04-27 00:00:00,-199.66652007147866,0.6476827937919731,13.055099676928753,1.9051712977559068
sz000807,2013-06-14,4.57,4.61,4.54,4.55,0.002203,4237169.0,19347059.31,7002897390.0,7003237080.0,0.002753020339485511,30.9,2013-03-31 00:00:00,2013-04-27 00:00:00,-198.7926276801965,0.6448480418002193,12.997960641946754,1.896832820676214
sz000807,2013-06-13,4.7,4.74,4.52,4.54,-0.048218000000000004,7570856.0,34661002.93,6987506410.0,6987845350.0,0.004919020351925516,30.84,2013-03-31 00:00:00,2013-04-27 00:00:00,-198.3556501828437,0.6434305642671388,12.969389077808342,1.8926632834627457
sz000807,2013-06-07,4.9,4.92,4.75,4.77,-0.022541,6451712.0,31074568.48,7341499020.0,7341855130.0,0.004191877729079912,32.4,2013-03-31 00:00:00,2013-04-27 00:00:00,-208.40449828095478,0.6760272460155149,13.626428192388952,1.9885470448724032
sz000807,2013-06-06,4.99,5.01,4.88,4.88,-0.022044,6292459.0,31048615.48,7510799840.0,7511164160.0,0.0040884061050946606,33.14,2013-03-31 00:00:00,2013-04-27 00:00:00,-213.21047561171852,0.6916169844622791,13.940664715746598,2.0344045580146104
sz000807,2013-06-05,4.98,5.03,4.95,4.99,0.004024,6475336.0,32270749.87,7680100660.0,7680473190.0,0.004207226971423575,33.89,2013-03-31 00:00:00,2013-04-27 00:00:00,-218.0164297900095,0.7072066478065263,14.254899725290912,2.0802618502413304
sz000807,2013-06-04,5.04,5.06,4.95,4.97,-0.013888999999999999,7413608.0,37089969.9,7649318690.0,7649689730.0,0.0048168514417066335,33.76,2013-03-31 00:00:00,2013-04-27 00:00:00,-217.14264777536144,0.7043722538570056,14.197767907232206,2.071924426349699
sz000807,2013-06-03,5.04,5.08,5.02,5.04,0.0,5480796.0,27643328.59,7757055570.0,7757431840.0,0.003561043438547908,34.23,2013-03-31 00:00:00,2013-04-27 00:00:00,-220.20101973850967,0.714293070310549,14.397738091586252,2.101106697268056
sz000807,2013-05-31,5.13,5.16,5.03,5.04,-0.009823,8453844.0,43052999.63,7757055570.0,7757431840.0,0.005492725090791118,34.23,2013-03-31 00:00:00,2013-04-27 00:00:00,-220.20101973850967,0.714293070310549,14.397738091586252,2.101106697268056
sz000807,2013-05-30,5.12,5.15,5.08,5.09,-0.0058590000000000005,7074873.0,36164393.46,7834010490.0,7834390490.0,0.004596764788095145,34.57,2013-03-31 00:00:00,2013-04-27 00:00:00,-222.38551262906495,0.7213791779758053,14.540570111794409,2.1219506181905414
sz000807,2013-05-29,5.16,5.17,5.11,5.12,-0.009670999999999999,7242367.0,37142067.37,7880183440.0,7880565680.0,0.004705590843453766,34.77,2013-03-31 00:00:00,2013-04-27 00:00:00,-223.69614836231978,0.7256306479420981,14.626265400777564,2.1344563982277576
sz000807,2013-05-28,5.08,5.19,5.01,5.17,0.015717,11801365.0,60188194.45,7957138360.0,7957524330.0,0.007667713478090131,35.11,2013-03-31 00:00:00,2013-04-27 00:00:00,-225.88064003206995,0.7327167516472789,14.769097341163961,2.155300307501606
sz000807,2013-05-27,5.12,5.15,5.06,5.09,-0.007797,7941505.0,40545416.64,7834010490.0,7834390490.0,0.00515984252275363,34.57,2013-03-31 00:00:00,2013-04-27 00:00:00,-222.38540856564373,0.7213788404125154,14.540563307657509,2.1219496252416823
sz000807,2013-05-24,5.12,5.2,5.1,5.13,0.003914,8853221.0,45552934.48,7895574420.0,7895957410.0,0.005752212735143847,34.84,2013-03-31 00:00:00,2013-04-27 00:00:00,-224.13297335892327,0.7270476307897834,14.654826993727603,2.138624480314696
sz000807,2013-05-23,5.24,5.27,5.1,5.11,-0.034026,11956966.0,62048810.05,7864792460.0,7865173950.0,0.007768812282174322,34.71,2013-03-31 00:00:00,2013-04-27 00:00:00,-223.25913709632826,0.7242130608695401,14.597691628692901,2.130286538801826
sz000807,2013-05-22,5.25,5.5,5.19,5.29,0.0,23838560.0,125888145.41,8141830160.0,8142225090.0,0.015488653032772179,35.93,2013-03-31 00:00:00,2013-04-27 00:00:00,-231.1233398583484,0.7497231404463682,15.111888755487104,2.2053249246893043
sz000807,2013-05-21,5.27,5.36,5.22,5.29,0.003795,10860106.0,57483967.86,8141830160.0,8142225090.0,0.0070561482628618225,35.93,2013-03-31 00:00:00,2013-04-27 00:00:00,-231.1233398583484,0.7497231404463682,15.111888755487104,2.2053249246893043
sz000807,2013-05-20,5.19,5.29,5.16,5.27,0.011516,18105754.0,94771356.7,8111048190.0,8111441630.0,0.011763870876471762,35.79,2013-03-31 00:00:00,2013-04-27 00:00:00,-230.2495428432582,0.7468886978380727,15.054755956631684,2.196987357666958
sz000807,2013-05-17,5.18,5.38,5.07,5.21,-0.005725,20788997.0,108768821.14,8018702290.0,8019091250.0,0.013507257216055092,35.39,2013-03-31 00:00:00,2013-04-27 00:00:00,-227.62817675969353,0.7383854509845346,14.8833591921746,2.171974894778686
sz000807,2013-05-16,5.19,5.28,5.04,5.24,0.0,13666287.0,70245053.65,8064875240.0,8065266440.0,0.008879411243068404,35.59,2013-03-31 00:00:00,2013-04-27 00:00:00,-228.93885168559353,0.74263704808482,14.969057043750066,2.1844810487829682
sz000807,2013-05-15,5.3,5.48,5.12,5.24,-0.042048,37339791.0,195541607.93,8064875240.0,8065266440.0,0.024260822271566843,35.59,2013-03-31 00:00:00,2013-04-27 00:00:00,-228.93885168559353,0.74263704808482,14.969057043750066,2.1844810487829682
sz000807,2013-05-14,5.0,5.51,4.95,5.47,0.091816,29748483.0,155387679.89,8418867850.0,8419276220.000001,0.019328513632625794,37.15,2013-03-31 00:00:00,2013-04-27 00:00:00,-238.98781116965517,0.7752340911494731,15.626103441247647,2.2803658730113496
sz000807,2013-05-13,4.9,5.04,4.86,5.01,0.020367,6099538.0,30076957.96,7710882620.0,7711256650.0,0.003963059339113633,34.03,2013-03-31 00:00:00,2013-04-27 00:00:00,-218.89018952795638,0.7100409694943774,14.312030086798186,2.0885990615738823
sz000807,2013-05-10,4.84,4.93,4.82,4.91,0.012371,4296582.0,20957378.04,7556972790.0,7557339350.0,0.002791622810646643,33.35,2013-03-31 00:00:00,2013-04-27 00:00:00,-214.5210395161313,0.6958682214285423,14.026355308235358,2.0469096526777935
sz000807,2013-05-09,4.89,4.94,4.82,4.85,-0.010204000000000001,3997941.0,19456945.86,7464626890.0,7464988970.0,0.0025975864749483812,32.94,2013-03-31 00:00:00,2013-04-27 00:00:00,-211.89962920325786,0.6873648311029676,13.854955651866124,2.021896767763788
sz000807,2013-05-08,4.95,4.98,4.86,4.9,0.0,4119555.0,20220558.33,7541581810.0,7541947620.0,0.0026766028677477145,33.28,2013-03-31 00:00:00,2013-04-27 00:00:00,-214.084143806661,0.694451009200853,13.997789091758424,2.042740895865196
sz000807,2013-05-07,4.9,4.97,4.81,4.9,0.002045,4445896.0,21772874.7,7541581810.0,7541947620.0,0.0028886367540445737,33.28,2013-03-31 00:00:00,2013-04-27 00:00:00,-214.084143806661,0.694451009200853,13.997789091758424,2.042740895865196
sz000807,2013-05-06,4.83,4.93,4.83,4.89,0.023013,5393919.0,26327147.08,7526190820.0,7526555890.0,0.003504596752969386,33.21,2013-03-31 00:00:00,2013-04-27 00:00:00,-213.6472352106552,0.6930337551715272,13.96922203270155,2.0385720160922873
sz000807,2013-05-03,4.77,4.86,4.75,4.78,0.010570999999999999,3613620.0,17353036.34,7356890010.0,7357246860.0,0.0023478811802978145,32.47,2013-03-31 00:00:00,2013-04-27 00:00:00,-208.84117328973846,0.677443742329303,13.654979978457312,1.9927136958105982
sz000807,2013-05-02,4.87,4.9,4.69,4.73,-0.040568,5383257.0,25820243.01,7279935090.0,7280288210.0,0.003497669319191691,32.13,2013-03-31 00:00:00,2013-04-27 00:00:00,-206.65660630449364,0.6703573943140095,13.51214311360341,1.9718690678938917
sz000807,2013-04-26,4.99,5.02,4.93,4.93,-0.00404,3393552.0,16860181.93,7587754760.0,7588122810.0,0.002204896163512802,33.48,2012-09-30 00:00:00,2012-10-18 00:00:00,-586.554571245602,0.8709682395155083,5.145296086039612,1.9538189188344457
sz000807,2013-04-25,4.99,5.05,4.9,4.95,-0.01,4908673.0,24485197.49,7618536720.0,7618906270.0,0.003189317350957127,33.62,2012-09-30 00:00:00,2012-10-18 00:00:00,-588.9338640563898,0.8745012244623361,5.166167402345086,1.9617443660733822
sz000807,2013-04-24,4.96,5.03,4.92,5.0,0.006036,2961963.0,14755731.59,7695491640.0,7695864920.0,0.0019244793825804222,33.96,2012-09-30 00:00:00,2012-10-18 00:00:00,-594.8826909660503,0.8833345701639759,5.218350911459683,1.981559965730689
sz000807,2013-04-23,5.06,5.07,4.93,4.97,-0.017787,3846281.0,19161853.23,7649318690.0,7649689730.0,0.0024990482609896334,33.76,2012-09-30 00:00:00,2012-10-18 00:00:00,-591.3135225439748,0.8780347523984986,5.187041926391981,1.969671031385248
sz000807,2013-04-22,5.02,5.09,5.01,5.06,0.00198,3317661.0,16767159.76,7787837540.0,7788215300.0,0.0021555874238229165,34.37,2012-09-30 00:00:00,2012-10-18 00:00:00,-602.0216822053617,0.8939351773988927,5.280974621993377,2.005340014218146
sz000807,2013-04-19,4.95,5.07,4.95,5.05,0.020202,5234901.0,26373144.64,7772446560.0,7772823570.0,0.0034012778146396156,34.3,2012-09-30 00:00:00,2012-10-18 00:00:00,-600.8320347765041,0.8921686834057493,5.270538954862748,2.0013772871895106
sz000807,2013-04-18,4.94,5.04,4.9,4.95,-0.01,2905131.0,14455147.59,7618536720.0,7618906270.0,0.0018875538674308575,33.62,2012-09-30 00:00:00,2012-10-18 00:00:00,-588.9343823835908,0.8745019941205263,5.166171949146099,1.9617460926262744
sz000807,2013-04-17,5.01,5.02,4.94,5.0,0.0020039999999999997,3576431.0,17809900.89,7695491640.0,7695864920.0,0.002323718332309175,33.96,2012-09-30 00:00:00,2012-10-18 00:00:00,-594.8832145288795,0.8833353475964912,5.218355504187978,1.9815617097235096
sz000807,2013-04-16,4.93,5.04,4.86,4.99,0.008081,3956456.0,19601632.19,7680100660.0,7680473190.0,0.0025706323802271625,33.89,2012-09-30 00:00:00,2012-10-18 00:00:00,-593.6934528493696,0.8815686839538478,5.207918834842954,1.9775986021248517
sz000807,2013-04-15,4.98,5.05,4.93,4.95,-0.021738999999999998,3690401.0,18358089.1,7618536720.0,7618906270.0,0.0023977681832319108,33.62,2012-09-30 00:00:00,2012-10-18 00:00:00,-588.9342749733103,0.8745018346282172,5.1661710069359055,1.9617457348415968
sz000807,2013-04-12,5.05,5.1,5.01,5.06,-0.001972,3324687.0,16815742.97,7787837540.0,7788215300.0,0.002160152434304632,34.37,2012-09-30 00:00:00,2012-10-18 00:00:00,-602.0216230365007,0.8939350895397212,5.280974102960156,2.005339817126101
sz000807,2013-04-11,5.2,5.22,5.03,5.07,-0.025,7958872.0,40660267.19,7803228520.0,7803607030.0,0.005171126404484692,34.43,2012-09-30 00:00:00,2012-10-18 00:00:00,-603.2111554350184,0.895701412725616,5.29140876103692,2.009302160987568
sz000807,2013-04-10,5.07,5.41,5.02,5.2,0.035857,13189001.0,69075342.86,8003311310.0,8003699520.0,0.008569303697371732,35.32,2012-09-30 00:00:00,2012-10-18 00:00:00,-618.6781081384805,0.9186681156160165,5.427085908755815,2.060822729218019
sz000807,2013-04-09,4.92,5.07,4.92,5.02,0.020325,4791777.0,23992290.93,7726273610.0,7726648380.0,0.003113366385169991,34.1,2012-09-30 00:00:00,2012-10-18 00:00:00,-597.2620816758302,0.8868677004799084,5.23922308654169,1.9894857390721101
sz000807,2013-04-08,4.9,4.95,4.85,4.92,-0.0040490000000000005,3196137.0,15648760.58,7572363770.0,7572731080.0,0.0020766295066672424,33.42,2012-09-30 00:00:00,2012-10-18 00:00:00,-585.3645472529148,0.8692011863669991,5.134857115665783,1.9498549374680716
sz000807,2013-04-03,4.97,4.98,4.91,4.94,0.0,2635615.0,13019923.52,7603145740.0,7603514540.0,0.0017124409481594392,33.55,2012-09-30 00:00:00,2012-10-18 00:00:00,-587.7443240208753,0.8727348899363514,5.155732677276074,1.9577819967730055
sz000807,2013-04-02,4.95,5.02,4.92,4.94,-0.006036,3237247.0,16073697.2,7603145740.0,7603514540.0,0.002103339949919203,33.55,2012-09-30 00:00:00,2012-10-18 00:00:00,-587.7443240208753,0.8727348899363514,5.155732677276074,1.9577819967730055
sz000807,2013-04-01,4.9,5.0,4.89,4.97,0.002016,2868129.0,14232608.68,7649318690.0,7649689730.0,0.0018635125176095912,33.76,2012-09-30 00:00:00,2012-10-18 00:00:00,-591.3134922601577,0.8780347074304014,5.187041660740302,1.9696709305095612
sz000807,2013-03-29,5.04,5.04,4.95,4.96,-0.006012,2521093.0,12567114.89,7633927710.0,7634298000.0,0.0016380324460787956,33.69,2012-09-30 00:00:00,2012-10-18 00:00:00,-590.1238026739669,0.8762681508383113,5.1766056238027165,1.9657080630544435
sz000807,2013-03-28,5.02,5.09,4.98,4.99,-0.019646,4206795.0,21085631.72,7680100660.0,7680473190.0,0.0027332854059233126,33.89,2012-09-30 00:00:00,2012-10-18 00:00:00,-593.6930855040171,0.8815681384868945,5.207915612464855,1.9775973784939491
sz000807,2013-03-27,5.08,5.17,5.06,5.09,0.0,3777300.0,19296839.18,7834010490.0,7834390490.0,0.0024542291620035855,34.57,2012-09-30 00:00:00,2012-10-18 00:00:00,-605.5905167970112,0.8992344994633515,5.3122806786781664,2.0172278365712275
sz000807,2013-03-26,5.15,5.16,5.05,5.09,-0.017375,4733956.0,24118381.93,7834010490.0,7834390490.0,0.0030757982863002264,34.57,2012-09-30 00:00:00,2012-10-18 00:00:00,-605.5905167970112,0.8992344994633515,5.3122806786781664,2.0172278365712275
sz000807,2013-03-25,5.12,5.18,5.08,5.18,0.011719,4075780.0,20932755.66,7972529340.0,7972916060.0,0.0026481608909325128,35.18,2012-09-30 00:00:00,2012-10-18 00:00:00,-616.2987068281503,0.9151349695594471,5.40621364068507,2.052896920566063
sz000807,2013-03-22,5.08,5.13,5.07,5.12,0.003922,2580682.0,13195521.7,7880183440.0,7880565680.0,0.001676749271207321,34.77,2012-09-30 00:00:00,2012-10-18 00:00:00,-609.1599612423511,0.904534727092648,5.343592085040479,2.029117690352818
sz000807,2013-03-21,5.11,5.19,5.09,5.1,-0.001957,5706310.0,29294410.48,7849401470.0,7849782220.0,0.0037075668904472535,34.64,2012-09-30 00:00:00,2012-10-18 00:00:00,-606.7801694178941,0.9010010011660747,5.32271639135359,2.0211905808945496
sz000807,2013-03-20,5.0,5.14,4.98,5.11,0.022,5431828.0,27605354.91,7864792460.0,7865173950.0,0.003529227404431725,34.71,2012-09-30 00:00:00,2012-10-18 00:00:00,-607.9699666426137,0.9027677175893971,5.33315337250358,2.025153806894642
sz000807,2013-03-19,5.07,5.07,4.85,5.0,0.0,6418675.0,31835169.38,7695491640.0,7695864920.0,0.004170412561191477,33.96,2012-09-30 00:00:00,2012-10-18 00:00:00,-594.8825505309331,0.883334361633461,5.2183496795534055,1.981559497939963
sz000807,2013-03-18,5.14,5.14,4.98,5.0,-0.031007999999999997,5934385.0,29958726.33,7695491640.0,7695864920.0,0.0038557543023982808,33.96,2012-09-30 00:00:00,2012-10-18 00:00:00,-594.8825505309331,0.883334361633461,5.2183496795534055,1.981559497939963
sz000807,2013-03-15,5.2,5.27,5.1,5.16,0.0,5211808.0,27106418.14,7941747370.0,7942132600.0,0.0033862735777252504,35.05,2012-09-30 00:00:00,2012-10-18 00:00:00,-613.9189493111742,0.9116012945756633,5.385338247945707,2.044969925386343
sz000807,2013-03-14,5.17,5.22,5.12,5.16,-0.009597,4663235.0,24065338.57,7941747370.0,7942132600.0,0.0030298486565935676,35.05,2012-09-30 00:00:00,2012-10-18 00:00:00,-613.9189493111742,0.9116012945756633,5.385338247945707,2.044969925386343
sz000807,2013-03-13,5.23,5.25,5.14,5.21,0.003854,3692308.0,19214688.17,8018702290.0,8019091250.0,0.002399007218909981,35.39,2012-09-30 00:00:00,2012-10-18 00:00:00,-619.8678207872695,0.9204347064534975,5.437522148000062,2.0647856734948733
sz000807,2013-03-12,5.33,5.37,5.16,5.19,-0.026266,6122556.0,32120171.05,7987920320.0,7988307790.0,0.00397801484830034,35.25,2012-09-30 00:00:00,2012-10-18 00:00:00,-617.4880219506717,0.9169009701146756,5.416646392802203,2.0568585406790962
sz000807,2013-03-11,5.33,5.36,5.27,5.33,-0.007449,3672660.0,19507563.31,8203394090.0,8203792000.0,0.0023862413027142524,36.2,2012-09-30 00:00:00,2012-10-18 00:00:00,-634.1444603461229,0.9416339268369756,5.562757788885058,2.1123412971911177
sz000807,2013-03-08,5.4,5.47,5.36,5.37,-0.003711,3626238.0,19586585.32,8264958020.0,8265358920.0,0.0023560794879875268,36.47,2012-09-30 00:00:00,2012-10-18 00:00:00,-638.9036536622531,0.9487007990893924,5.604505752233445,2.1281942159053973
sz000807,2013-03-07,5.36,5.5,5.33,5.39,0.0,6947291.0,37707932.64,8295739990.0,8296142380.0,0.004513870798161309,36.61,2012-09-30 00:00:00,2012-10-18 00:00:00,-641.2834565695828,0.9522345414727981,5.625381543140038,2.1361213622808215
sz000807,2013-03-06,5.37,5.45,5.36,5.39,0.0037240000000000003,5995654.0,32376915.19,8295739990.0,8296142380.0,0.0038955626742105736,36.61,2012-09-30 00:00:00,2012-10-18 00:00:00,-641.2834565695828,0.9522345414727981,5.625381543140038,2.1361213622808215
sz000807,2013-03-05,5.28,5.39,5.28,5.37,0.017044999999999998,4976037.0,26546858.45,8264958020.0,8265358920.0,0.0032330858336289533,36.47,2012-09-30 00:00:00,2012-10-18 00:00:00,-638.9041774128971,0.9487015768007917,5.604510346609264,2.1281959605238305
sz000807,2013-03-04,5.55,5.58,5.26,5.28,-0.053763,8830888.0,47905362.59,8126439170.0,8126833360.0,0.005737702290583934,35.86,2012-09-30 00:00:00,2012-10-18 00:00:00,-628.1965669295824,0.9328019672686969,5.5105824684347935,2.0925288070083727
sz000807,2013-03-01,5.59,5.6,5.49,5.58,-0.001789,6262607.0,34710788.0,8588168670.0,8588585250.0,0.004069010333025981,37.9,2012-09-30 00:00:00,2012-10-18 00:00:00,-663.8892443749106,0.9858016197513908,5.823681031744472,2.2114214589033963
sz000807,2013-02-28,5.48,5.6,5.48,5.59,0.027574,6047796.0,33547411.34,8603559650.0,8603976980.0,0.003929440954128795,37.97,2012-09-30 00:00:00,2012-10-18 00:00:00,-665.0790708326302,0.9875683795824639,5.834118269328299,2.215384782278893
sz000807,2013-02-27,5.55,5.59,5.4,5.44,-0.010909,5465007.0,29966851.04,8372694900.0,8373101030.0,0.003550784835119216,36.95,2012-09-30 00:00:00,2012-10-18 00:00:00,-647.2322877307427,0.961067893487441,5.677565089549073,2.155936976099914
sz000807,2013-02-26,5.67,5.72,5.47,5.5,-0.040139999999999995,9911371.0,55527293.72,8465040800.000001,8465451410.0,0.006439725665586868,37.36,2012-09-30 00:00:00,2012-10-18 00:00:00,-654.3708189951609,0.9716678177108488,5.740184765152118,2.179715492406577
sz000807,2013-02-25,5.6,5.74,5.49,5.73,0.028725,8532113.0,48018839.77,8819033420.0,8819461200.0,0.005543578889170374,38.92,2012-09-30 00:00:00,2012-10-18 00:00:00,-681.735689574689,1.0123016040993986,5.980231247423705,2.2708681395271992
sz000807,2013-02-22,5.51,5.61,5.5,5.57,0.010889,7212183.0,40152359.33,8572777689.999999,8573193520.0,0.004685979359625737,37.83,2012-09-30 00:00:00,2012-10-18 00:00:00,-662.6996423482358,0.9840351931754342,5.813245762884837,2.207458883109868
sz000807,2013-02-21,5.7,5.71,5.44,5.51,-0.038394,13255791.0,73811223.77,8480431789.999999,8480843140.000001,0.008612699237334471,37.42,2012-09-30 00:00:00,2012-10-18 00:00:00,-655.5612360488994,0.9734354545112612,5.750627183483883,2.183680783063094
sz000807,2013-02-20,5.7,5.8,5.66,5.73,0.0,8177356.0,46747982.51,8819033420.0,8819461200.0,0.005313082244788682,38.92,2012-09-30 00:00:00,2012-10-18 00:00:00,-681.7358003682376,1.0123017686154843,5.980232219312154,2.270868508581575
sz000807,2013-02-19,5.84,5.94,5.69,5.73,-0.02385,10072762.0,58460566.74,8819033420.0,8819461200.0,0.006544586408881077,38.92,2012-09-30 00:00:00,2012-10-18 00:00:00,-681.7358003682376,1.0123017686154843,5.980232219312154,2.270868508581575
sz000807,2013-02-18,5.92,6.0,5.8,5.87,-0.0017010000000000003,12754492.0,75473606.34,9034507190.0,9034945420.0,0.008286989701316515,39.87,2012-09-30 00:00:00,2012-10-18 00:00:00,-698.3924605524127,1.0370350546693483,6.126345560940587,2.3263520038739696
sz000807,2013-02-08,5.91,5.96,5.84,5.88,-0.005076,13590092.0,80077979.52,9049898170.0,9050337150.0,0.008829904984444704,39.94,2012-09-30 00:00:00,2012-10-18 00:00:00,-699.5824503003737,1.0388020569682512,6.136784230917378,2.3303158711708316
sz000807,2013-02-07,5.77,5.94,5.74,5.91,0.020725,16947786.0,99126491.18,9096071120.0,9096512340.0,0.011011503091677673,40.14,2012-09-30 00:00:00,2012-10-18 00:00:00,-703.1516480659565,1.0441019183055704,6.168093473388297,2.342204903259778
sz000807,2013-02-06,5.97,5.99,5.74,5.79,-0.026891,21948890.0,127915814.64,8911379320.0,8911811580.0,0.01426087573388134,39.33,2012-09-30 00:00:00,2012-10-18 00:00:00,-688.8747195042313,1.0229022687850011,6.0428552973507035,2.294648316892187
sz000807,2013-02-05,5.95,6.0,5.8,5.95,-0.001678,30988347.0,182755921.27,9157635050.0,9158079250.0,0.02013409178715852,40.41,2012-09-30 00:00:00,2012-10-18 00:00:00,-707.9111584665555,1.0511692613931238,6.209844218222937,2.3580588781854734
sz000807,2013-02-04,5.47,5.96,5.46,5.96,0.099631,48816527.0,285228159.12,9173026030.0,9173470980.0,0.031717614227679235,40.48,2012-09-30 00:00:00,2012-10-18 00:00:00,-709.1010299948867,1.0529360881490377,6.220281851169198,2.362022351691611
sz000807,2013-02-01,5.36,5.47,5.34,5.42,0.003704,7934507.0,42926552.57,8341912940.0,8342317570.0,0.005155295703673455,36.81,2012-09-30 00:00:00,2012-10-18 00:00:00,-644.8536190730224,0.9575358353384341,5.656699248356219,2.148013607920849
sz000807,2013-01-31,5.33,5.49,5.33,5.4,0.018868,12433007.0,67172108.81,8311130970.0,8311534110.0,0.008078110914428293,36.68,2012-09-30 00:00:00,2012-10-18 00:00:00,-642.4738957631159,0.9540022111483407,5.635824155683568,2.1400867266852073
sz000807,2013-01-30,5.34,5.41,5.28,5.3,-0.009346,9587003.0,51035736.33,8157221140.0,8157616820.0,0.006228973694343169,36.0,2012-09-30 00:00:00,2012-10-18 00:00:00,-630.5761843174148,0.9363354341763022,5.531456631951898,2.100455335416567
sz000807,2013-01-29,5.39,5.46,5.31,5.35,0.007533,11075944.0,59634945.77,8234176050.0,8234575460.0,0.00719638492548383,36.34,2012-09-30 00:00:00,2012-10-18 00:00:00,-636.5251483539305,0.945168983496056,5.583641343952477,2.1202713918447476
sz000807,2013-01-28,5.24,5.33,5.22,5.31,0.017241,5161326.0,27268619.07,8172612120.0,8173008550.0,0.0033534738535957826,36.07,2012-09-30 00:00:00,2012-10-18 00:00:00,-631.7660546641456,0.9381022591776708,5.54189425453308,2.1044188049867825
sz000807,2013-01-25,5.2,5.27,5.15,5.22,0.0019190000000000001,3634166.0,18982947.29,8034093270.0,8034482980.0,0.00236123055613966,35.45,2012-09-30 00:00:00,2012-10-18 00:00:00,-621.0583870136434,0.9222025647586666,5.4479658748842015,2.0687514610468734
sz000807,2013-01-24,5.25,5.42,5.16,5.21,-0.011385,13292920.0,70498643.6,8018702290.0,8019091250.0,0.008636823103704477,35.39,2012-09-30 00:00:00,2012-10-18 00:00:00,-619.8688586738482,0.920436247599523,5.437531252410825,2.06478913070505
sz000807,2013-01-23,5.22,5.31,5.21,5.27,0.007648,7412343.0,39140033.93,8111048190.0,8111441630.0,0.004816029530950179,35.79,2012-09-30 00:00:00,2012-10-18 00:00:00,-627.0073372079607,0.931036093524297,5.500150465460087,2.088567471366558
sz000807,2013-01-22,5.34,5.35,5.19,5.23,-0.018762,7628080.0,40186539.03,8049484260.0,8049874710.0,0.004956200560357392,35.52,2012-09-30 00:00:00,2012-10-18 00:00:00,-622.2483815855942,0.9239695742206575,5.4584045871773545,2.0727153444124915
sz000807,2013-01-21,5.34,5.36,5.28,5.33,0.0,6036246.0,32153709.3,8203394090.0,8203792000.0,0.003921936557847363,36.2,2012-09-30 00:00:00,2012-10-18 00:00:00,-634.146233213139,0.9416365593471282,5.56277334059357,2.1123472026282015
sz000807,2013-01-18,5.31,5.38,5.25,5.33,0.017176,5291710.0,28120577.26,8203394090.0,8203792000.0,0.0034381883877042897,36.2,2012-09-30 00:00:00,2012-10-18 00:00:00,-634.146233213139,0.9416365593471282,5.56277334059357,2.1123472026282015
sz000807,2013-01-17,5.38,5.45,5.23,5.24,-0.022387999999999998,6753568.0,35713229.5,8064875240.0,8065266440.0,0.004388002946961892,35.59,2012-09-30 00:00:00,2012-10-18 00:00:00,-623.4380610760959,0.9257361158217733,5.46884053555488,2.076678178238772
sz000807,2013-01-16,5.35,5.51,5.3,5.36,0.0,11070490.0,59864894.02,8249567040.0,8249967190.0,0.007192841286371315,36.4,2012-09-30 00:00:00,2012-10-18 00:00:00,-637.7152296372138,0.9469361217147225,5.594080816883262,2.1242355640466486
sz000807,2013-01-15,5.29,5.4,5.27,5.36,0.011321,11919904.0,63686830.0,8249567040.0,8249967190.0,0.007744731951411598,36.4,2012-09-30 00:00:00,2012-10-18 00:00:00,-637.7152296372138,0.9469361217147225,5.594080816883262,2.1242355640466486
sz000807,2013-01-14,5.15,5.33,5.15,5.3,0.023166,10519856.0,55191475.02,8157221140.0,8157616820.0,0.006835077269953724,36.0,2012-09-30 00:00:00,2012-10-18 00:00:00,-630.5764733820556,0.9363358634051133,5.5314591676463385,2.100456298293666
sz000807,2013-01-11,5.33,5.42,5.15,5.18,-0.017078,10958513.0,58207488.37,7972529340.0,7972916060.0,0.007120086351416299,35.18,2012-09-30 00:00:00,2012-10-18 00:00:00,-616.2992841650872,0.9151358268405256,5.4062187051234485,2.052898843680953
sz000807,2013-01-10,5.31,5.38,5.23,5.27,0.0,6267715.0,33248639.79,8111048190.0,8111441630.0,0.0040723291584832755,35.79,2012-09-30 00:00:00,2012-10-18 00:00:00,-627.0073150922324,0.9310360606849024,5.500150271459432,2.088567397698854
sz000807,2013-01-09,5.21,5.3,5.19,5.27,0.005725,7038913.0,37000636.37,8111048190.0,8111441630.0,0.004573400458369117,35.79,2012-09-30 00:00:00,2012-10-18 00:00:00,-627.0073150922324,0.9310360606849024,5.500150271459432,2.088567397698854
sz000807,2013-01-08,5.21,5.25,5.17,5.24,0.005758,7169136.0,37273440.66,8064875240.0,8065266440.0,0.004658010387275377,35.59,2012-09-30 00:00:00,2012-10-18 00:00:00,-623.4381317877476,0.925736220820704,5.468841155842236,2.076678413779964
sz000807,2013-01-07,5.29,5.31,5.19,5.21,-0.018831999999999998,6176769.0,32377561.73,8018702290.0,8019091250.0,0.0040132387169595244,35.39,2012-09-30 00:00:00,2012-10-18 00:00:00,-619.8689265089091,0.9204363483270368,5.437531847464535,2.0647893566642908
sz000807,2013-01-04,5.3,5.43,5.27,5.31,0.00759,11127508.0,59515268.94,8172612120.0,8173008550.0,0.007229887655551674,36.07,2012-09-30 00:00:00,2012-10-18 00:00:00,-631.766350420019,0.9381026983422175,5.541896848923462,2.1044197901524417
