code,date,open,high,low,close,change,volume,money,traded_market_value,market_value,turnover,adjust_price,report_type,report_date,PE_TTM,PS_TTM,PC_TTM,PB
sz000520,2013-12-26,2.62,2.68,2.53,2.53,-0.048872000000000006,34636129.0,88503278.51,1692935950.0,1707047430.0,0.051761796640918394,17.47,2013-09-30 00:00:00,2013-10-28 00:00:00,-0.9762164252475332,1.124671693118238,7.200795741840519,-1.4728738415790994
sz000520,2013-12-25,2.69,2.72,2.62,2.66,-0.011152,15684131.0,41817860.14,1779924760.0,1794761330.0,0.02343907416625858,18.36,2013-09-30 00:00:00,2013-10-28 00:00:00,-1.0263775488131286,1.182460923364929,7.570795667712989,-1.5485548123692077
sz000520,2013-12-24,2.65,2.72,2.61,2.69,-0.007379999999999999,11479242.0,30572598.85,1799999100.0,1815003000.0,0.01715509801088234,18.57,2013-09-30 00:00:00,2013-10-28 00:00:00,-1.0379527984211208,1.1957964453231729,7.656177357604999,-1.5660190568916632
sz000520,2013-12-23,2.65,2.76,2.65,2.71,0.030418,16007007.0,43490655.6,1813381990.0,1828497440.0,0.023921594682872086,18.71,2013-09-30 00:00:00,2013-10-28 00:00:00,-1.0456698418540034,1.2046870356462422,7.713100035869719,-1.577662203956865
sz000520,2013-12-20,2.69,2.74,2.55,2.63,-0.018657,13921745.0,36945484.65,1759850420.0,1774519660.0,0.02080528488892823,18.16,2013-09-30 00:00:00,2013-10-28 00:00:00,-1.0148016065849037,1.1691246034582492,7.485408868895651,-1.5310895228507897
sz000520,2013-12-19,2.6,2.68,2.6,2.68,0.050980000000000004,13600025.0,36347866.72,1793307650.0,1808255770.0,0.020324492007826992,18.5,2013-09-30 00:00:00,2013-10-28 00:00:00,-1.0340947116195907,1.1913516512149671,7.6277192265045475,-1.5601981395401914
sz000520,2013-12-18,2.56,2.57,2.5,2.55,0.0,5811574.0,14774841.41,1706318840.0,1720541870.0,0.008685078868378432,17.6,2013-09-30 00:00:00,2013-10-28 00:00:00,-0.9839337681207925,1.1335626284182065,7.257720628845978,-1.4845174404272117
sz000520,2013-12-17,2.58,2.58,2.51,2.55,-0.003906,4722061.0,11984716.12,1706318840.0,1720541870.0,0.007056861395259516,17.6,2013-09-30 00:00:00,2013-10-28 00:00:00,-0.9839337681207925,1.1335626284182065,7.257720628845978,-1.4845174404272117
sz000520,2013-12-16,2.6,2.63,2.52,2.56,-0.015385,7433203.0,19023005.51,1713010290.0,1727289100.0,0.011108514520365199,17.67,2013-09-30 00:00:00,2013-10-28 00:00:00,-0.9877920840008999,1.138007686441447,7.286180449682438,-1.4903387034027027
sz000520,2013-12-13,2.6,2.65,2.58,2.6,-0.003831,7539512.0,19598645.05,1739776080.0,1754277990.0,0.01126738746747225,17.95,2013-09-30 00:00:00,2013-10-28 00:00:00,-1.0032267271988542,1.155789508022371,7.400029909845409,-1.5136258369034623
sz000520,2013-12-12,2.65,2.68,2.58,2.61,-0.018797,7650588.0,20007261.94,1746467520.0,1761025210.0,0.011433384504053073,18.02,2013-09-30 00:00:00,2013-10-28 00:00:00,-1.0070848693332701,1.16023436587805,7.428488449093888,-1.5194468377388402
sz000520,2013-12-11,2.69,2.73,2.65,2.66,-0.01845,5637742.0,15175845.72,1779924760.0,1794761330.0,0.008425296426574797,18.36,2013-09-30 00:00:00,2013-10-28 00:00:00,-1.0263776907869933,1.1824610869290555,7.570796714944704,-1.5485550265733392
sz000520,2013-12-10,2.69,2.72,2.65,2.71,0.007435,9794043.0,26410421.13,1813381990.0,1828497440.0,0.014636660492034555,18.71,2013-09-30 00:00:00,2013-10-28 00:00:00,-1.0456703079690217,1.2046875726443436,7.713103474040755,-1.5776629072113892
sz000520,2013-12-09,2.64,2.73,2.63,2.69,0.011278,12434738.0,33235124.12,1799999100.0,1815003000.0,0.01858303441373943,18.57,2013-09-30 00:00:00,2013-10-28 00:00:00,-1.0379531264736894,1.19579682326338,7.656179777395815,-1.5660195518434328
sz000520,2013-12-06,2.53,2.66,2.49,2.66,0.051383000000000005,21426895.0,56520324.0,1779924760.0,1794761330.0,0.03202132021580508,18.36,2013-09-30 00:00:00,2013-10-28 00:00:00,-1.0263776394559059,1.1824610277919425,7.570796336314857,-1.5485549491271766
sz000520,2013-12-05,2.64,2.65,2.52,2.53,-0.045283,16669918.0,42886584.51,1692935950.0,1707047430.0,0.024912278896316187,17.47,2013-09-30 00:00:00,2013-10-28 00:00:00,-0.9762166969181602,1.1246720061023838,7.200797745745231,-1.4728742514641922
sz000520,2013-12-04,2.62,2.68,2.58,2.65,-0.007490999999999999,12053791.0,31923407.05,1773233310.0,1788014100.0,0.018013730043228208,18.29,2013-09-30 00:00:00,2013-10-28 00:00:00,-1.0225194449435384,1.1780161095930877,7.542337410714621,-1.5427338692661723
sz000520,2013-12-03,2.73,2.84,2.62,2.67,-0.032609,25340774.0,68072355.46,1786616200.0,1801508550.0,0.037870398007137734,18.43,2013-09-30 00:00:00,2013-10-28 00:00:00,-1.030236949935505,1.1869072316654936,7.599263493544764,-1.5543777127120983
sz000520,2013-12-02,2.76,2.76,2.71,2.76,0.04943,27091362.0,74735290.67,1846839220.0,1862233560.0,0.04048655579233367,19.05,2013-09-30 00:00:00,2013-10-28 00:00:00,-1.0649643731805498,1.2269157265939976,7.855420914133752,-1.60677297257479
sz000520,2013-11-29,2.63,2.63,2.63,2.63,0.052,2342305.0,6160262.15,1759850420.0,1774519660.0,0.0035004464470338335,18.16,2013-09-30 00:00:00,2013-10-28 00:00:00,-1.0148026768632017,1.1691258364960002,7.48541676351329,-1.531091137641186
sz000520,2013-11-22,2.49,2.51,2.48,2.5,0.004016,3832238.0,9556463.0,1672861610.0,1686805760.0,0.0057270696767319565,17.26,2013-09-30 00:00:00,2013-10-28 00:00:00,-0.9646413278167316,1.1113363464790875,7.11541517444229,-1.4554098266551199
sz000520,2013-11-21,2.5,2.52,2.47,2.49,-0.011904999999999999,4941220.0,12308965.01,1666170170.0,1680058530.0,0.007384382472769874,17.19,2013-09-30 00:00:00,2013-10-28 00:00:00,-0.9607828239955654,1.1068910719341998,7.086953967309575,-1.4495882801221491
sz000520,2013-11-20,2.48,2.53,2.47,2.52,0.016128999999999998,6308307.0,15758913.91,1686244510.0,1700300200.0,0.009427419063917367,17.4,2013-09-30 00:00:00,2013-10-28 00:00:00,-0.9723587549735252,1.1202273788797634,7.1723406831423855,-1.4670535526666455
sz000520,2013-11-19,2.5,2.51,2.45,2.48,-0.008,5517842.0,13673905.15,1659478720.0,1673311310.0,0.008246112465967627,17.12,2013-09-30 00:00:00,2013-10-28 00:00:00,-0.9569245194001206,1.1024460269117045,7.0584942297113695,-1.4437670341724775
sz000520,2013-11-18,2.44,2.51,2.4,2.5,0.004016,9202922.0,22752719.63,1672861610.0,1686805760.0,0.01375326259056181,17.26,2013-09-30 00:00:00,2013-10-28 00:00:00,-0.9646416526210894,1.1113367206771216,7.11541757027356,-1.4554103167061267
sz000520,2013-11-15,2.46,2.52,2.44,2.49,0.016327,4046245.0,10093173.14,1666170170.0,1680058530.0,0.00604689138685036,17.19,2013-09-30 00:00:00,2013-10-28 00:00:00,-0.9607831475007265,1.1068914446354654,7.086956353557672,-1.4495887682129833
sz000520,2013-11-14,2.44,2.46,2.35,2.45,0.004098,4313689.0,10411185.02,1639404380.0,1653069640.0,0.006446571803108151,16.91,2013-09-30 00:00:00,2013-10-28 00:00:00,-0.945348443464285,1.0891095529642187,6.973106444636098,-1.4263015429217007
sz000520,2013-11-13,2.57,2.58,2.44,2.44,-0.050584,7792444.0,19362483.64,1632712930.0,1646322420.0,0.011645380526263118,16.84,2013-09-30 00:00:00,2013-10-28 00:00:00,-0.9414902165568353,1.0846645974438938,6.944647280082322,-1.4204804141843734
sz000520,2013-11-12,2.57,2.6,2.56,2.57,0.0,2897418.0,7460819.84,1719701740.0,1734036320.0,0.0043300324043400685,17.74,2013-09-30 00:00:00,2013-10-28 00:00:00,-0.991651938198677,1.1424545167175333,7.314651617502044,-1.4961622873264966
sz000520,2013-11-11,2.56,2.59,2.55,2.57,-0.0038759999999999997,2666114.0,6826807.7,1719701740.0,1734036320.0,0.003984361253248485,17.74,2013-09-30 00:00:00,2013-10-28 00:00:00,-0.991651938198677,1.1424545167175333,7.314651617502044,-1.4961622873264966
sz000520,2013-11-08,2.64,2.64,2.57,2.58,-0.022727,3520340.0,9145013.8,1726393180.0,1740783540.0,0.005260955212994992,17.81,2013-09-30 00:00:00,2013-10-28 00:00:00,-0.9955105370402451,1.1468999007327736,7.343113525526987,-1.50198397722221
sz000520,2013-11-07,2.62,2.66,2.61,2.64,0.0038020000000000003,2624031.0,6927039.07,1766541860.0,1781266880.0,0.003921470527734905,18.23,2013-09-30 00:00:00,2013-10-28 00:00:00,-1.0186616606007175,1.1735716639391178,7.513881510618821,-1.5369134082515428
sz000520,2013-11-06,2.64,2.68,2.6,2.63,-0.003788,4299334.0,11346760.13,1759850420.0,1774519660.0,0.006425119028013755,18.16,2013-09-30 00:00:00,2013-10-28 00:00:00,-1.0148033781569648,1.1691266444369683,7.485421936416564,-1.5310921957234023
sz000520,2013-11-05,2.6,2.69,2.59,2.64,0.015385,4210595.0,11110550.63,1766541860.0,1781266880.0,0.006292503479085404,18.23,2013-09-30 00:00:00,2013-10-28 00:00:00,-1.018662070078422,1.1735721356869508,7.51388453102007,-1.5369140260540954
sz000520,2013-11-04,2.6,2.63,2.58,2.6,-0.003831,2791369.0,7265037.81,1739776080.0,1754277990.0,0.004171547984496948,17.95,2013-09-30 00:00:00,2013-10-28 00:00:00,-1.0032274162789698,1.155790301892337,7.400034992658025,-1.5136268765582468
sz000520,2013-11-01,2.56,2.62,2.54,2.61,0.019531,3495253.0,8970923.28,1746467520.0,1761025210.0,0.005223464064192846,18.02,2013-09-30 00:00:00,2013-10-28 00:00:00,-1.0070855610634037,1.1602351628010277,7.428493551453643,-1.5194478813918588
sz000520,2013-10-31,2.62,2.64,2.52,2.56,-0.030302999999999997,6830249.0,17551478.05,1713010290.0,1727289100.0,0.010207432811159588,17.67,2013-09-30 00:00:00,2013-10-28 00:00:00,-0.9877929764405436,1.1380087145962485,7.286187032521468,-1.4903400498776977
sz000520,2013-10-30,2.62,2.65,2.55,2.64,-0.014925,5450832.0,14214446.45,1766541860.0,1781266880.0,0.00814596970829777,18.23,2013-09-30 00:00:00,2013-10-28 00:00:00,-1.0186614751211396,1.1735714502532735,7.513880142479009,-1.5369131284078406
sz000520,2013-10-29,2.58,2.71,2.58,2.68,0.03876,13923643.0,37398563.0,1793307650.0,1808255770.0,0.02080812137281632,18.5,2013-09-30 00:00:00,2013-10-28 00:00:00,-1.0340953481929187,1.191352384593329,7.627723922015084,-1.5601990999749669
sz000520,2013-10-28,2.53,2.62,2.53,2.58,-0.003861,3418274.0,8840889.14,1726393180.0,1740783540.0,0.005108423169280593,17.81,2013-09-30 00:00:00,2013-10-28 00:00:00,-0.9955094037053014,1.1468985950492212,7.343105165789099,-1.5019822672946272
sz000520,2013-10-25,2.73,2.75,2.59,2.59,-0.05128200000000001,7515949.0,19759860.36,1733084630.0,1747530760.0,0.011232173878317759,17.88,2013-06-30 00:00:00,2013-08-28 00:00:00,-0.9835286892133865,0.994263897933559,12.673373979322031,-1.7409984207761247
sz000520,2013-10-24,2.78,2.79,2.72,2.73,-0.021505,6275648.0,17236018.85,1826764880.0,1841991890.0,0.009378612008349975,18.85,2013-06-30 00:00:00,2013-08-28 00:00:00,-1.036692346106416,1.0480078357673819,13.358420499370762,-1.8351063443258426
sz000520,2013-10-23,2.74,2.8,2.74,2.79,0.00722,9178085.0,25457953.13,1866913560.0,1882475230.0,0.013716145031374673,19.26,2013-06-30 00:00:00,2013-08-28 00:00:00,-1.0594763857826721,1.0710405630763387,13.652006907925704,-1.8754376305712779
sz000520,2013-10-22,2.73,2.82,2.72,2.77,0.010948999999999999,7396716.0,20444935.5,1853530670.0,1868980780.0,0.011053986670746592,19.12,2013-06-30 00:00:00,2013-08-28 00:00:00,-1.0518817991925025,1.0633630816269917,13.554145973993473,-1.861994033648337
sz000520,2013-10-21,2.77,2.78,2.71,2.74,-0.01083,7427888.0,20369077.66,1833456330.0,1848739110.0,0.011100571520020879,18.92,2013-06-30 00:00:00,2013-08-28 00:00:00,-1.0404894798773254,1.0518464152266747,13.407348910769455,-1.8418278604047649
sz000520,2013-10-18,2.78,2.79,2.73,2.77,-0.010714,4072414.0,11238143.94,1853530670.0,1868980780.0,0.006085999526514445,19.12,2013-06-30 00:00:00,2013-08-28 00:00:00,-1.0518813549514496,1.063362632537051,13.55414024967342,-1.8619932472727287
sz000520,2013-10-17,2.73,2.86,2.72,2.8,0.029412,10565517.0,29755846.53,1873605010.0,1889222450.0,0.015789586087838224,19.33,2013-06-30 00:00:00,2013-08-28 00:00:00,-1.0632732647095477,1.0748788849099766,13.700932035501786,-1.8821586955367091
sz000520,2013-10-16,2.71,2.82,2.68,2.72,0.0,6756794.0,18470787.61,1820073430.0,1835244660.0,0.010097658356564218,18.78,2013-06-30 00:00:00,2013-08-28 00:00:00,-1.0328937924849795,1.044167820959904,13.309473792322011,-1.8283823148911311
sz000520,2013-10-15,2.78,2.78,2.69,2.72,-0.02509,8037231.0,21891340.79,1820073430.0,1835244660.0,0.012011201284334996,18.78,2013-06-30 00:00:00,2013-08-28 00:00:00,-1.0328937924849795,1.044167820959904,13.309473792322011,-1.8283823148911311
sz000520,2013-10-14,2.73,2.86,2.69,2.79,0.025735,15490904.0,43195123.74,1866913560.0,1882475230.0,0.02315030705545896,19.26,2013-06-30 00:00:00,2013-08-28 00:00:00,-1.05947604649145,1.071040220081755,13.652002535948972,-1.8754370299731578
sz000520,2013-10-11,2.59,2.72,2.59,2.72,0.050193,9972424.0,26774591.94,1820073430.0,1835244660.0,0.014903241173077286,18.78,2013-06-30 00:00:00,2013-08-28 00:00:00,-1.0328945063700175,1.044168542636992,13.30948299117118,-1.8283835785784412
sz000520,2013-10-10,2.6,2.64,2.58,2.59,-0.007663,5386885.0,14049323.8,1733084630.0,1747530760.0,0.008050404411006748,17.88,2013-06-30 00:00:00,2013-08-28 00:00:00,-0.9835282718224342,0.9942634759867873,12.673368600982087,-1.740997681929361
sz000520,2013-10-09,2.6,2.64,2.58,2.61,0.003846,5221803.0,13637490.25,1746467520.0,1761025210.0,0.0078036984220582585,18.02,2013-06-30 00:00:00,2013-08-28 00:00:00,-0.9911232492816796,1.001941352571543,12.771234571503518,-1.7544419707512275
sz000520,2013-10-08,2.6,2.62,2.56,2.6,0.0,3413916.0,8858515.73,1739776080.0,1754277990.0,0.005101910356187907,17.95,2013-06-30 00:00:00,2013-08-28 00:00:00,-0.9873259935106379,0.9981026497804873,12.722304588057849,-1.7477202387131372
sz000520,2013-09-30,2.54,2.62,2.54,2.6,0.023622,5862251.0,15153004.13,1739776080.0,1754277990.0,0.008760812828280753,17.95,2013-06-30 00:00:00,2013-08-28 00:00:00,-0.9873259935106379,0.9981026497804873,12.722304588057849,-1.7477202387131372
sz000520,2013-09-27,2.51,2.55,2.48,2.54,0.003953,4477944.0,11310193.08,1699627400.0,1713794650.0,0.006692041891063888,17.53,2013-06-30 00:00:00,2013-08-28 00:00:00,-0.9645415920238504,0.9750695567118403,12.428713517350984,-1.7073883120069098
sz000520,2013-09-26,2.65,2.65,2.53,2.53,-0.048872000000000006,10863856.0,27692465.59,1692935950.0,1707047430.0,0.016235437424552298,17.47,2013-06-30 00:00:00,2013-08-28 00:00:00,-0.9607437718935551,0.9712302834015538,12.379776261788134,-1.7006655809653537
sz000520,2013-09-25,2.73,2.75,2.65,2.66,-0.029197000000000004,8213571.0,22208021.34,1779924760.0,1794761330.0,0.012274731691467679,18.36,2013-06-30 00:00:00,2013-08-28 00:00:00,-1.0101098610213926,1.0211352030447571,13.01588877815408,-1.788051220198915
sz000520,2013-09-24,2.73,2.78,2.71,2.74,-0.003636,5766660.0,15826529.39,1833456330.0,1848739110.0,0.008617957319987001,18.92,2013-06-30 00:00:00,2013-08-28 00:00:00,-1.040489018906403,1.051845949224258,13.40734297087471,-1.841827044414691
sz000520,2013-09-23,2.8,2.8,2.71,2.75,-0.017856999999999998,10746363.0,29523670.68,1840147770.0,1855486330.0,0.016059850590151248,18.98,2013-06-30 00:00:00,2013-08-28 00:00:00,-1.0442860429586005,1.0556844177672597,13.456269968480104,-1.8485483662744648
sz000520,2013-09-18,2.78,2.8,2.76,2.8,0.0035840000000000004,5034300.0,13998275.72,1873605010.0,1889222450.0,0.007523485433036923,19.33,2013-06-30 00:00:00,2013-08-28 00:00:00,-1.0632729072636067,1.0748785235625156,13.700927429590298,-1.8821580628019188
sz000520,2013-09-17,2.82,2.86,2.78,2.79,-0.010638,6397656.0,18032761.31,1866913560.0,1882475230.0,0.00956094627112784,19.26,2013-06-30 00:00:00,2013-08-28 00:00:00,-1.0594757461892643,1.071039916501773,13.651998666370027,-1.875436498391683
sz000520,2013-09-16,2.87,2.88,2.8,2.82,-0.013986000000000002,7835810.0,22248862.5,1886987900.0,1902716890.0,0.011710188602693213,19.47,2013-06-30 00:00:00,2013-08-28 00:00:00,-1.0708676361021185,1.0825561488128441,13.798790196480182,-1.8956019115265017
sz000520,2013-09-13,2.86,2.89,2.82,2.86,0.0,5218048.0,14897680.02,1913753680.0,1929705790.0,0.007798086784083936,19.74,2013-06-30 00:00:00,2013-08-28 00:00:00,-1.086057232556656,1.0979115396057706,13.994517518493838,-1.9224898546334046
sz000520,2013-09-12,2.87,2.91,2.83,2.86,-0.013793000000000001,7746689.0,22137458.55,1913753680.0,1929705790.0,0.011577002187658758,19.74,2013-06-30 00:00:00,2013-08-28 00:00:00,-1.086057232556656,1.0979115396057706,13.994517518493838,-1.9224898546334046
sz000520,2013-09-11,2.96,2.98,2.83,2.9,-0.010239,15337862.0,44427345.05,1940519470.0,1956694680.0,0.022921594185293076,20.02,2013-06-30 00:00:00,2013-08-28 00:00:00,-1.101246728685414,1.1132668289778622,14.190243547747926,-1.9493776201481077
sz000520,2013-09-10,2.78,2.93,2.76,2.93,0.050179,13833944.0,39494931.56,1960593810.0,1976936350.0,0.020674071147863106,20.23,2013-06-30 00:00:00,2013-08-28 00:00:00,-1.1126390398140702,1.1247834871023026,14.337040505483571,-1.9695437789002674
sz000520,2013-09-09,2.81,2.86,2.75,2.79,-0.007117,11118860.0,31205888.12,1866913560.0,1882475230.0,0.01661652690550922,19.26,2013-06-30 00:00:00,2013-08-28 00:00:00,-1.059475613027941,1.071039781886995,13.65199695050422,-1.8754362626754746
sz000520,2013-09-06,2.78,2.86,2.76,2.81,0.010791,5551323.0,15599124.96,1880296450.0,1895969670.0,0.008296147998364832,19.4,2013-06-30 00:00:00,2013-08-28 00:00:00,-1.0670699498611027,1.0787170108532376,13.749854666163305,-1.8888794174897492
sz000520,2013-09-05,2.8,2.82,2.74,2.78,-0.014184,4541393.0,12567690.99,1860222110.0,1875728000.0,0.006786862962294325,19.19,2013-06-30 00:00:00,2013-08-28 00:00:00,-1.055678127190589,1.067200846518457,13.603064002512196,-1.8687141233843094
sz000520,2013-09-04,2.76,2.83,2.76,2.82,0.018050999999999998,5596101.0,15706808.47,1886987900.0,1902716890.0,0.008363066249656397,19.47,2013-06-30 00:00:00,2013-08-28 00:00:00,-1.0708673091029046,1.0825558182444361,13.798785982893559,-1.8956013326871437
sz000520,2013-09-03,2.76,2.8,2.72,2.77,-0.003597,4697382.0,12987606.04,1853530670.0,1868980780.0,0.007019979949940618,19.12,2013-06-30 00:00:00,2013-08-28 00:00:00,-1.0518798263573284,1.0633610872583357,13.554120552795053,-1.8619905414239006
sz000520,2013-09-02,2.86,2.88,2.74,2.78,-0.034722,8214646.0,22850978.42,1860222110.0,1875728000.0,0.012276338270164952,19.19,2013-06-30 00:00:00,2013-08-28 00:00:00,-1.0556770968747868,1.067199804956765,13.6030507262574,-1.8687122995654373
sz000520,2013-08-30,2.84,2.93,2.81,2.88,0.017668,9779360.0,28253509.74,1927136580.0,1943200230.0,0.014614717551570735,19.88,2013-06-30 00:00:00,2013-08-28 00:00:00,-1.0936508413895136,1.105588032625591,14.092365853419844,-1.9359317207741575
sz000520,2013-08-29,2.81,2.86,2.79,2.83,0.0,5932020.0,16808020.5,1893679350.0,1909464120.0,0.008865078768483164,19.54,2013-06-30 00:00:00,2013-08-28 00:00:00,-1.0746636834306607,1.0863936299712587,13.847704608398656,-1.9023215044338209
sz000520,2013-08-28,2.83,2.87,2.8,2.83,-0.0035210000000000003,7313670.0,20729877.69,1893679350.0,1909464120.0,0.01092987896815794,19.54,2013-06-30 00:00:00,2013-08-28 00:00:00,-1.0746636834306607,1.0863936299712587,13.847704608398656,-1.9023215044338209
sz000520,2013-08-27,2.88,2.89,2.77,2.84,-0.013888999999999999,9852029.0,27822965.17,1900370790.0,1916211340.0,0.014723317421649066,19.61,2013-03-31 00:00:00,2013-04-26 00:00:00,-1.0531458284480182,0.9316405489584507,18.926424742127892,-2.2637221307010438
sz000520,2013-08-26,2.89,2.9,2.84,2.88,-0.00346,8459113.0,24283856.92,1927136580.0,1943200230.0,0.012641680767639208,19.88,2013-03-31 00:00:00,2013-04-26 00:00:00,-1.067978988620975,0.9447623532832011,19.192996267284204,-2.2956057996524164
sz000520,2013-08-23,2.93,3.05,2.8,2.89,-0.013652000000000001,14069765.0,41087671.42,1933828020.0,1949947460.0,0.02102649275399371,19.95,2013-03-31 00:00:00,2013-04-26 00:00:00,-1.0716870257300006,0.948042580612119,19.25963460301062,-2.303576173211729
sz000520,2013-08-22,2.79,2.93,2.77,2.93,0.050179,19703456.0,56849951.59,1960593810.0,1976936350.0,0.02944573515714609,20.23,2013-03-31 00:00:00,2013-04-26 00:00:00,-1.0865201994934859,0.9611643969594088,19.526206372406715,-2.335459871375751
sz000520,2013-08-21,2.64,2.79,2.63,2.79,0.048872000000000006,13612132.0,37500107.35,1866913560.0,1882475230.0,0.020342585266775823,19.26,2013-03-31 00:00:00,2013-04-26 00:00:00,-1.0346047668954395,0.9152386373745893,18.59321732048224,-2.2238683799388017
sz000520,2013-08-20,2.63,2.71,2.61,2.66,0.011406999999999999,6472991.0,17291072.51,1779924760.0,1794761330.0,0.009673530278886622,18.36,2013-03-31 00:00:00,2013-04-26 00:00:00,-0.9863975460260543,0.8725932595918181,17.726869742430193,-2.1202476374036126
sz000520,2013-08-19,2.6,2.63,2.56,2.63,0.007663,4635187.0,12040564.83,1759850420.0,1774519660.0,0.00692703292930998,18.16,2013-03-31 00:00:00,2013-04-26 00:00:00,-0.975272611348403,0.8627518492474524,17.526939938551138,-2.0963347469452085
sz000520,2013-08-16,2.64,2.68,2.61,2.61,-0.015094,4307700.0,11365779.95,1746467520.0,1761025210.0,0.006437621582564558,18.02,2013-03-31 00:00:00,2013-04-26 00:00:00,-0.9678559313464948,0.8561908586972553,17.393652380360436,-2.0803926977027123
sz000520,2013-08-15,2.63,2.68,2.6,2.65,0.007605,4804850.0,12696281.86,1773233310.0,1788014100.0,0.007180584995890924,18.29,2013-03-31 00:00:00,2013-04-26 00:00:00,-0.9826886335817783,0.8693122579182737,17.660215675770516,-2.1122753823235034
sz000520,2013-08-14,2.64,2.66,2.61,2.63,-0.007547,4476091.0,11777411.99,1759850420.0,1774519660.0,0.006689272676935804,18.16,2013-03-31 00:00:00,2013-04-26 00:00:00,-0.9752716923613699,0.8627510362873088,17.526923423137553,-2.0963327715955193
sz000520,2013-08-13,2.62,2.68,2.61,2.65,0.01145,5918753.0,15685354.12,1773233310.0,1788014100.0,0.00884525198209817,18.29,2013-03-31 00:00:00,2013-04-26 00:00:00,-0.9826880389916398,0.8693117319281706,17.660204990198583,-2.112274104260372
sz000520,2013-08-12,2.55,2.64,2.54,2.62,0.027451,7613945.0,19881604.37,1753158970.0,1767772430.0,0.011378623525509498,18.09,2013-03-31 00:00:00,2013-04-26 00:00:00,-0.9715636353666913,0.8594707913670183,17.460284730039632,-2.088362355292276
sz000520,2013-08-09,2.54,2.56,2.52,2.55,0.0,3192524.0,8098407.47,1706318840.0,1720541870.0,0.00477105216748354,17.6,2013-03-31 00:00:00,2013-04-26 00:00:00,-0.9456058102689971,0.8365078153284374,16.99378824882124,-2.03256637571259
sz000520,2013-08-08,2.55,2.58,2.53,2.55,0.0,3551491.0,9078179.02,1706318840.0,1720541870.0,0.00530750867756931,17.6,2013-03-31 00:00:00,2013-04-26 00:00:00,-0.9456058102689971,0.8365078153284374,16.99378824882124,-2.03256637571259
sz000520,2013-08-07,2.56,2.58,2.55,2.55,-0.011628,4140705.0,10607445.17,1706318840.0,1720541870.0,0.006188056711604966,17.6,2013-03-31 00:00:00,2013-04-26 00:00:00,-0.9456058102689971,0.8365078153284374,16.99378824882124,-2.03256637571259
sz000520,2013-08-06,2.57,2.58,2.53,2.58,-0.003861,5536583.0,14136668.66,1726393180.0,1740783540.0,0.008274119885019473,17.81,2013-03-31 00:00:00,2013-04-26 00:00:00,-0.956730674552696,0.8463491634004581,17.19371678762778,-2.0564791148601844
sz000520,2013-08-05,2.49,2.59,2.47,2.59,0.048583,9164792.0,23430575.03,1733084630.0,1747530760.0,0.0136962793790399,17.88,2013-03-31 00:00:00,2013-04-26 00:00:00,-0.9604389292585633,0.8496295832212755,17.2603590338575,-2.064449956140844
sz000520,2013-08-02,2.49,2.49,2.46,2.47,-0.008032,3217130.0,7965517.53,1652787270.0,1666564090.0,0.004807824481852405,17.05,2013-03-31 00:00:00,2013-04-26 00:00:00,-0.9159398247526075,0.8102645028779558,16.460651215838425,-1.9687997575211924
sz000520,2013-08-01,2.47,2.5,2.44,2.49,0.012195000000000001,3898757.0,9636746.18,1666170170.0,1680058530.0,0.005826478654338171,17.19,2013-03-31 00:00:00,2013-04-26 00:00:00,-0.9233562219271261,0.8168252432315919,16.593933691246516,-1.9847411988301962
sz000520,2013-07-31,2.48,2.5,2.45,2.46,-0.012048,2877734.0,7120975.92,1646095830.0,1659816870.0,0.004300615742401826,16.98,2013-03-31 00:00:00,2013-04-26 00:00:00,-0.9122315580763847,0.8069840724678465,16.39400875448557,-1.9608288905104219
sz000520,2013-07-30,2.47,2.53,2.47,2.49,0.008097,2789353.0,6972259.46,1666170170.0,1680058530.0,0.004168535180293139,17.19,2013-03-31 00:00:00,2013-04-26 00:00:00,-0.9233561530078228,0.8168251822637602,16.593932452675396,-1.984741050689124
sz000520,2013-07-29,2.46,2.53,2.43,2.47,0.004065,2874260.0,7132711.6,1652787270.0,1666564090.0,0.004295424056599856,17.05,2013-03-31 00:00:00,2013-04-26 00:00:00,-0.9159397885400142,0.8102644708433416,16.460650565050187,-1.968799679682733
sz000520,2013-07-26,2.43,2.48,2.43,2.46,0.016529,2804686.0,6891428.49,1646095830.0,1659816870.0,0.004191449509959575,16.98,2013-03-31 00:00:00,2013-04-26 00:00:00,-0.9122315672192679,0.806984080555882,16.394008918795283,-1.9608289101629206
sz000520,2013-07-25,2.49,2.52,2.42,2.42,-0.028112,3945242.0,9693003.21,1619330040.0,1632827970.0,0.005895947956353603,16.71,2013-03-31 00:00:00,2013-04-26 00:00:00,-0.897398467942644,0.7938623301016322,16.12743848802669,-1.9289453721073584
sz000520,2013-07-24,2.5,2.51,2.46,2.49,-0.004,3574066.0,8886554.31,1666170170.0,1680058530.0,0.005341245750426561,17.19,2013-03-31 00:00:00,2013-04-26 00:00:00,-0.9233558475283613,0.8168249120285795,16.593926962805064,-1.9847403940653225
sz000520,2013-07-23,2.47,2.5,2.45,2.5,0.01626,5657079.0,14024230.14,1672861610.0,1686805760.0,0.008454194546313966,17.26,2013-03-31 00:00:00,2013-04-26 00:00:00,-0.927064103944138,0.8201053333620277,16.660569239764126,-1.9927112390214086
sz000520,2013-07-22,2.57,2.57,2.43,2.46,-0.01992,6205773.0,15393175.51,1646095830.0,1659816870.0,0.009274187627338804,16.98,2013-03-31 00:00:00,2013-04-26 00:00:00,-0.9122312242380276,0.8069837771456396,16.394002754968337,-1.9608281729295736
sz000520,2013-07-19,2.59,2.69,2.5,2.51,-0.041985,8454409.0,21879663.25,1679553060.0,1693552980.0,0.0126346509052831,17.33,2013-03-31 00:00:00,2013-04-26 00:00:00,-0.9307722065933676,0.8233856186695369,16.727208753334768,-2.0006817534584664
sz000520,2013-07-18,2.5,2.67,2.48,2.62,0.031495999999999996,12122689.0,31798010.12,1753158970.0,1767772430.0,0.01811669433491248,18.09,2013-03-31 00:00:00,2013-04-26 00:00:00,-0.9715632913820427,0.8594704870691345,17.46027854818011,-2.0883616159021168
sz000520,2013-07-17,2.48,2.56,2.43,2.54,0.024194,11733256.0,29401242.97,1699627400.0,1713794650.0,0.01753470804248037,17.53,2013-03-31 00:00:00,2013-04-26 00:00:00,-0.9418972942037999,0.8332271643022703,16.927141305618356,-2.02459497264373
sz000520,2013-07-16,2.53,2.57,2.46,2.48,0.012245,12462640.0,31592032.26,1659478720.0,1673311310.0,0.018624732470206067,17.12,2013-03-31 00:00:00,2013-04-26 00:00:00,-0.9196473463072424,0.8135442741338753,16.527280286369923,-1.9767690229036003
sz000520,2013-07-15,2.43,2.45,2.4,2.45,0.051502,4614485.0,11244373.43,1639404380.0,1653069640.0,0.006896094940285569,16.91,2013-03-31 00:00:00,2013-04-26 00:00:00,-0.9085224884363393,0.8037029317347828,16.327351862809813,-1.9528562975402202
sz000520,2013-07-12,2.33,2.33,2.33,2.33,0.04955,3737659.0,8708745.47,1559107020.0,1572102970.0,0.0055857265462123315,16.08,2013-03-31 00:00:00,2013-04-26 00:00:00,-0.8640235476835416,0.7643379962518215,15.527646987651773,-1.857206450905676
sz000520,2013-07-04,2.2,2.24,2.17,2.22,0.0,3603332.0,7981509.8,1485501110.0,1497883510.0,0.005384982203076241,15.33,2013-03-31 00:00:00,2013-04-26 00:00:00,-0.8232323831008924,0.7282530572643718,14.79457575880308,-1.7695264169460017
sz000520,2013-07-03,2.25,2.27,2.17,2.22,-0.022026,4496844.0,9943825.3,1485501110.0,1497883510.0,0.006720286920553026,15.33,2013-03-31 00:00:00,2013-04-26 00:00:00,-0.8232323831008924,0.7282530572643718,14.79457575880308,-1.7695264169460017
sz000520,2013-07-02,2.24,2.29,2.23,2.27,0.013393,3252974.0,7362802.3,1518958340.0,1531619630.0,0.004861391379568711,15.67,2013-03-31 00:00:00,2013-04-26 00:00:00,-0.8417732813969414,0.7446548244272054,15.12778024651277,-1.809379816790632
sz000520,2013-07-01,2.17,2.25,2.15,2.24,0.027523000000000002,4760829.0,10482551.13,1498884000.0,1511377960.0,0.007114798049749014,15.46,2013-03-31 00:00:00,2013-04-26 00:00:00,-0.8306484072782637,0.7348134676549034,14.927851530958643,-1.785467056502889
sz000520,2013-06-28,2.18,2.2,2.09,2.18,-0.009091,6175022.0,13240416.99,1458735330.0,1470894620.0,0.009228231937043715,15.05,2013-03-31 00:00:00,2013-04-26 00:00:00,-0.8083988458440966,0.7151309193613218,14.527997456950981,-1.7376419374582261
sz000520,2013-06-27,2.3,2.33,2.19,2.2,-0.043477999999999996,4629595.0,10587744.96,1472118220.0,1484389070.0,0.006918676001442331,15.19,2013-03-31 00:00:00,2013-04-26 00:00:00,-0.8158154238624299,0.7216918196941613,14.66128318236183,-1.7535837674884636
sz000520,2013-06-26,2.27,2.36,2.23,2.3,0.017699,5717200.0,13148611.6,1539032680.0,1551861300.0,0.008544042092725412,15.88,2013-03-31 00:00:00,2013-04-26 00:00:00,-0.8528977105204375,0.7544957875450449,15.32770096491438,-1.8332916205674976
sz000520,2013-06-25,2.34,2.34,2.26,2.26,-0.05042,5398852.0,12239416.74,1512266900.0,1524872400.0,0.008068288421838763,15.6,2013-03-31 00:00:00,2013-04-26 00:00:00,-0.8380648015969728,0.7413742054822152,15.061133955044056,-1.8014084916733708
sz000520,2013-06-24,2.5,2.5,2.38,2.38,-0.048,5581000.0,13529920.95,1592564260.0,1605839080.0,0.008340498611968096,16.43,2013-03-31 00:00:00,2013-04-26 00:00:00,-0.8825636614050135,0.7807390693593116,15.860837375517656,-1.8970581643182993
sz000520,2013-06-21,2.52,2.56,2.44,2.5,-0.023438,5219739.0,13073733.62,1672861610.0,1686805760.0,0.007800613883416214,17.26,2013-03-31 00:00:00,2013-04-26 00:00:00,-0.9270626695430816,0.8201040644530586,16.660543461678213,-1.9927081557965332
sz000520,2013-06-20,2.63,2.63,2.55,2.56,-0.033962,4801300.0,12432651.46,1713010290.0,1727289100.0,0.007175279723509425,17.67,2013-03-31 00:00:00,2013-04-26 00:00:00,-0.9493126596601973,0.8397869919708718,17.06040523968597,-2.0405341962891583
sz000520,2013-06-19,2.65,2.67,2.54,2.65,0.0,7278167.0,18966138.97,1773233310.0,1788014100.0,0.010876821702610583,18.29,2013-03-31 00:00:00,2013-04-26 00:00:00,-0.9826866641479913,0.8693105157052536,17.660180282438134,-2.112271149053307
sz000520,2013-06-18,2.62,2.67,2.62,2.65,0.01145,4837867.0,12809877.6,1773233310.0,1788014100.0,0.0072299270928990154,18.29,2013-03-31 00:00:00,2013-04-26 00:00:00,-0.9826866641479913,0.8693105157052536,17.660180282438134,-2.112271149053307
sz000520,2013-06-17,2.6,2.66,2.56,2.62,0.011583,5415916.0,14150663.31,1753158970.0,1767772430.0,0.008093789646468853,18.09,2013-03-31 00:00:00,2013-04-26 00:00:00,-0.9715622760867976,0.8594695889122089,17.460260301980462,-2.088359433539282
sz000520,2013-06-14,2.57,2.61,2.54,2.59,0.007781999999999999,6549048.0,16914386.49,1733084630.0,1747530760.0,0.009787193323617438,17.88,2013-03-31 00:00:00,2013-04-26 00:00:00,-0.9604375281976837,0.849628343805905,17.260333854938704,-2.0644469445802094
sz000520,2013-06-13,2.7,2.7,2.57,2.57,-0.048148,8203856.0,21218979.12,1719701740.0,1734036320.0,0.012260213169290624,17.74,2013-03-31 00:00:00,2013-04-26 00:00:00,-0.9530211178585087,0.8430675918064671,17.12705114294431,-2.048505474973962
sz000520,2013-06-07,2.72,2.76,2.68,2.7,-0.0036899999999999997,7272816.0,19749350.3,1806690540.0,1821750220.0,0.010868824939992213,18.64,2013-03-31 00:00:00,2013-04-26 00:00:00,-1.001228255924775,0.8857128963394175,17.993397232914692,-2.1521260395250126
sz000520,2013-06-06,2.73,2.79,2.68,2.71,-0.010948999999999999,9985138.0,27246248.04,1813381990.0,1828497440.0,0.014922241496398671,18.71,2013-03-31 00:00:00,2013-04-26 00:00:00,-1.004936471504627,0.8889932815483308,18.060038775998123,-2.1600967967048534
sz000520,2013-06-05,2.77,2.81,2.73,2.74,-0.014388,7688855.0,21294031.24,1833456330.0,1848739110.0,0.011490572398852828,18.92,2013-03-31 00:00:00,2013-04-26 00:00:00,-1.0160613269736616,0.8988346218226673,18.259967156393476,-2.1840095169054514
sz000520,2013-06-04,2.78,2.87,2.77,2.78,0.0,14504862.0,40828181.82,1860222110.0,1875728000.0,0.02167672136742854,19.19,2013-03-31 00:00:00,2013-04-26 00:00:00,-1.0308938273617425,0.9119558424843319,18.526526824342113,-2.2158917676585226
sz000520,2013-06-03,2.76,2.82,2.75,2.78,-0.0035840000000000004,7674023.0,21394553.39,1860222110.0,1875728000.0,0.01146840682374214,19.19,2013-03-31 00:00:00,2013-04-26 00:00:00,-1.0308938273617425,0.9119558424843319,18.526526824342113,-2.2158917676585226
sz000520,2013-05-31,2.77,2.85,2.73,2.79,-0.003571,14352548.0,39903943.05,1866913560.0,1882475230.0,0.02144909640058536,19.26,2013-03-31 00:00:00,2013-04-26 00:00:00,-1.0346018403575843,0.9152360484820918,18.593164726722687,-2.223862089386885
sz000520,2013-05-30,2.79,2.86,2.75,2.8,-0.0035590000000000005,11185767.0,31337066.54,1873605010.0,1889222450.0,0.016716515718539843,19.33,2013-03-31 00:00:00,2013-04-26 00:00:00,-1.0383096440966533,0.918516069365797,18.659798868482035,-2.2318319613207613
sz000520,2013-05-29,2.7,2.86,2.69,2.81,0.029304000000000004,24695570.0,68380172.58,1880296450.0,1895969670.0,0.03690617599155708,19.4,2013-03-31 00:00:00,2013-04-26 00:00:00,-1.0420181868235583,0.9217967439776132,18.726446290831102,-2.2398034216985865
sz000520,2013-05-28,2.6,2.73,2.58,2.73,0.05,24386446.0,65831903.35,1826764880.0,1841991890.0,0.03644420708372716,18.85,2013-03-31 00:00:00,2013-04-26 00:00:00,-1.0123522174435913,0.8955534458018362,18.193309547841164,-2.176036838192202
sz000520,2013-05-27,2.56,2.62,2.55,2.6,0.011673000000000001,9729500.0,25265143.71,1739776080.0,1754277990.0,0.014540204507237506,17.95,2013-03-31 00:00:00,2013-04-26 00:00:00,-0.9641449689938966,0.8529080436207965,17.326961474134443,-2.072416036373526
sz000520,2013-05-24,2.62,2.64,2.55,2.57,-0.015326,8707723.0,22433197.27,1719701740.0,1734036320.0,0.013013214785722087,17.74,2013-03-31 00:00:00,2013-04-26 00:00:00,-0.9530203623047137,0.8430669234236721,17.127037564642375,-2.048503850921717
sz000520,2013-05-23,2.57,2.66,2.55,2.61,0.015563999999999998,12948143.0,33839695.83,1746467520.0,1761025210.0,0.019350290138805445,18.02,2013-03-31 00:00:00,2013-04-26 00:00:00,-0.9678536879258651,0.8561888741082548,17.393612063121772,-2.0803878755016547
sz000520,2013-05-22,2.56,2.59,2.54,2.57,0.0,7210096.0,18506431.02,1719701740.0,1734036320.0,0.010775093313564944,17.74,2013-03-31 00:00:00,2013-04-26 00:00:00,-0.953020871088248,0.8430673735069923,17.127046708156037,-2.0485049445447605
sz000520,2013-05-21,2.55,2.58,2.53,2.57,0.007843000000000001,8372519.0,21367414.75,1719701740.0,1734036320.0,0.01251227077900148,17.74,2013-03-31 00:00:00,2013-04-26 00:00:00,-0.953020871088248,0.8430673735069923,17.127046708156037,-2.0485049445447605
sz000520,2013-05-20,2.54,2.58,2.52,2.55,0.0039369999999999995,7997389.0,20386663.22,1706318840.0,1720541870.0,0.011951659603078636,17.6,2013-03-31 00:00:00,2013-04-26 00:00:00,-0.9456044950336985,0.8365066518366374,16.993764612301753,-2.032563548632833
sz000520,2013-05-17,2.54,2.56,2.52,2.54,-0.003922,6873605.0,17438996.92,1699627400.0,1713794650.0,0.010272225959642684,17.53,2013-03-31 00:00:00,2013-04-26 00:00:00,-0.9418962494994192,0.8332262401292485,16.927122530897606,-2.0245927270663726
sz000520,2013-05-16,2.56,2.57,2.49,2.55,-0.003906,6929670.0,17666778.79,1706318840.0,1720541870.0,0.010356012068647147,17.6,2013-03-31 00:00:00,2013-04-26 00:00:00,-0.9456049119641426,0.8365070206642939,16.993772105093786,-2.0325644448189526
sz000520,2013-05-15,2.52,2.58,2.52,2.56,0.007873999999999999,4937596.0,12615611.1,1713010290.0,1727289100.0,0.007378966626055702,17.67,2013-03-31 00:00:00,2013-04-26 00:00:00,-0.9493129282619338,0.8397872295830453,17.060410066814764,-2.040534773644809
sz000520,2013-05-14,2.6,2.63,2.53,2.54,-0.02682,6607570.0,16881715.61,1699627400.0,1713794650.0,0.009874651232381874,17.53,2013-03-31 00:00:00,2013-04-26 00:00:00,-0.9418964357270193,0.8332264048710905,16.927125877654117,-2.024593127359977
sz000520,2013-05-13,2.55,2.62,2.53,2.61,0.023528999999999998,7154450.0,18532355.56,1746467520.0,1761025210.0,0.010691933452046106,18.02,2013-03-31 00:00:00,2013-04-26 00:00:00,-0.9678542877237709,0.8561894047052863,17.39362284228418,-2.080389164758808
sz000520,2013-05-10,2.54,2.57,2.51,2.55,0.0039369999999999995,4937572.0,12529150.86,1706318840.0,1720541870.0,0.0073789307747431305,17.6,2013-03-31 00:00:00,2013-04-26 00:00:00,-0.9456051442839147,0.8365072261804857,16.993776280187646,-2.032564944187032
sz000520,2013-05-09,2.52,2.58,2.52,2.54,0.0,6368483.0,16201534.04,1699627400.0,1713794650.0,0.009517348814216574,17.53,2013-03-31 00:00:00,2013-04-26 00:00:00,-0.9418968962035612,0.8332268122207724,16.927134153027176,-2.024594117147821
sz000520,2013-05-08,2.61,2.61,2.52,2.54,-0.011673000000000001,9875690.0,25214456.79,1699627400.0,1713794650.0,0.014758677460718742,17.53,2013-03-31 00:00:00,2013-04-26 00:00:00,-0.9418968962035612,0.8332268122207724,16.927134153027176,-2.024594117147821
sz000520,2013-05-07,2.43,2.57,2.41,2.57,0.04898,14039360.0,35553662.86,1719701740.0,1734036320.0,0.02098105407510956,17.74,2013-03-31 00:00:00,2013-04-26 00:00:00,-0.9530215163640793,0.8430679443349949,17.127058304616973,-2.048506331556075
sz000520,2013-05-06,2.38,2.46,2.38,2.45,0.025105000000000002,9177183.0,22283654.12,1639404380.0,1653069640.0,0.013714797047205646,16.91,2013-03-31 00:00:00,2013-04-26 00:00:00,-0.9085221037236927,0.8037025914078388,16.327344949014254,-1.9528554706058026
sz000520,2013-05-03,2.39,2.43,2.35,2.39,-0.016461,12462249.0,29789347.72,1599255700.0,1612586300.0,0.018624148164674354,16.5,2013-03-31 00:00:00,2013-04-26 00:00:00,-0.8862722391595912,0.7840197749575302,15.927485427360372,-1.9050296999876137
sz000520,2013-05-02,2.3,2.47,2.3,2.43,0.016736,17356314.0,41129749.4,1626021490.0,1639575200.0,0.02593806003142062,16.78,2013-03-31 00:00:00,2013-04-26 00:00:00,-0.9011053340636123,0.7971415215436602,16.194055779547504,-1.9369132286443278
sz000520,2013-04-26,2.39,2.4,2.39,2.39,-0.051587,11229600.0,26841444.08,1599255700.0,1612586300.0,0.01678202178675993,16.5,2013-03-31 00:00:00,2013-04-26 00:00:00,-0.886272674581811,0.7840201601434986,15.927493252474095,-1.9050306359215448
sz000520,2013-04-25,2.52,2.55,2.52,2.52,-0.049056999999999996,9685200.0,24410259.97,1686244510.0,1700300200.0,0.014474000570652712,17.4,2012-12-31 00:00:00,2013-04-24 00:00:00,-0.9045657436502689,0.8065591691412893,45.49966507177033,-2.5928262538172175
sz000520,2013-04-23,2.79,2.79,2.62,2.65,-0.066901,15704910.0,42552493.41,1773233310.0,1788014100.0,0.023470127289679663,18.29,2012-09-30 00:00:00,2012-10-30 00:00:00,-1.6672169808430282,0.780526361218463,-40.90192330448888,-3.611483599027119
sz000520,2013-04-22,2.89,2.89,2.82,2.84,-0.02069,9813250.0,27865344.18,1900370790.0,1916211340.0,0.014665364331347146,19.61,2012-09-30 00:00:00,2012-10-30 00:00:00,-1.7867525105514293,0.8364882624656794,-43.83449484405072,-3.8704184647364523
sz000520,2013-04-19,2.87,2.92,2.86,2.9,0.00346,12181225.0,35147172.84,1940519470.0,1956694680.0,0.018204173184616385,20.02,2012-09-30 00:00:00,2012-10-30 00:00:00,-1.8245014454579547,0.8541608504617327,-44.76059148180936,-3.9521892605369624
sz000520,2013-04-18,2.88,2.94,2.83,2.89,-0.026936,11802468.0,34033039.59,1933828020.0,1949947460.0,0.017638141637848437,19.95,2012-09-30 00:00:00,2012-10-30 00:00:00,-1.8182104373447416,0.8512156443323428,-44.60625384351081,-3.938561836582387
sz000520,2013-04-17,2.79,3.07,2.78,2.97,0.06451599999999999,18425112.0,54451947.54,1987359600.0,2003925240.0,0.02753532004977861,20.5,2012-09-30 00:00:00,2012-10-30 00:00:00,-1.8685414703911989,0.8747786829359042,-45.84102776745497,-4.04758765773103
sz000520,2013-04-16,2.74,2.79,2.7,2.79,0.014544999999999999,6930085.0,19130365.24,1866913560.0,1882475230.0,0.010356632232078276,19.26,2012-09-30 00:00:00,2012-10-30 00:00:00,-1.7552967455549744,0.8217618926685032,-43.062788880068474,-3.8022797757206375
sz000520,2013-04-15,2.78,2.8,2.71,2.75,-0.021352,9872582.0,27132451.8,1840147770.0,1855486330.0,0.014754032769879128,18.98,2012-09-30 00:00:00,2012-10-30 00:00:00,-1.7301319759645695,0.8099807230517159,-42.44542024263928,-3.747768483133461
sz000520,2013-04-12,2.86,2.87,2.81,2.81,-0.031034,9736594.0,27648985.08,1880296450.0,1895969670.0,0.014550806145488388,19.4,2012-09-30 00:00:00,2012-10-30 00:00:00,-1.7678797442640968,0.8276527648875959,-43.371488259966085,-3.829536751859158
sz000520,2013-04-11,2.96,2.96,2.8,2.9,-0.033333,15978466.0,46008858.64,1940519470.0,1956694680.0,0.023878941755735128,20.02,2012-09-30 00:00:00,2012-10-30 00:00:00,-1.8245013181722545,0.8541607908715021,-44.76058835910247,-3.952188984813872
sz000520,2013-04-10,3.04,3.04,2.98,3.0,-0.013158000000000001,7283630.0,21878562.87,2007433940.0,2024166910.0,0.01088498583420384,20.71,2012-09-30 00:00:00,2012-10-30 00:00:00,-1.8874145058973304,0.8836143065517932,-46.304040956298785,-4.088469953783332
sz000520,2013-04-09,2.98,3.08,2.98,3.04,-0.003279,9043114.0,27480516.27,2034199720.0,2051155800.0,0.013514438277476509,20.99,2012-09-30 00:00:00,2012-10-30 00:00:00,-1.9125802366511868,0.8953959261480492,-46.92143317400231,-4.142983328418666
sz000520,2013-04-08,3.2,3.21,2.93,3.05,-0.061538,21112623.0,62984648.15,2040891170.0,2057903020.0,0.03155165797008177,21.06,2012-09-30 00:00:00,2012-10-30 00:00:00,-1.9188722186561604,0.8983415882158089,-47.075794704839474,-4.156612861993141
sz000520,2013-04-03,3.31,3.35,3.24,3.25,-0.024024,8772907.0,28804043.36,2174720100.0,2192847480.0,0.013110628696538925,22.44,2012-09-30 00:00:00,2012-10-30 00:00:00,-2.044698899535794,0.9572487625666344,-50.16270739234991,-4.429175461545743
sz000520,2013-04-02,3.29,3.35,3.23,3.33,0.012158,11759765.0,38699804.61,2228251670.0,2246825270.0,0.01757432429075662,22.99,2012-09-30 00:00:00,2012-10-30 00:00:00,-2.0950298978005546,0.9808117848867538,-51.397480462992846,-4.538201207351147
sz000520,2013-04-01,3.29,3.35,3.25,3.29,-0.012012,13017924.0,42982881.87,2201485880.0,2219836380.0,0.01945457399890296,22.71,2012-09-30 00:00:00,2012-10-30 00:00:00,-2.069864485387217,0.9690303143251883,-50.78009605515429,-4.48368852229706
sz000520,2013-03-29,3.36,3.46,3.27,3.33,-0.017699,13379219.0,45176792.95,2228251670.0,2246825270.0,0.019994509538502892,22.99,2012-09-30 00:00:00,2012-10-30 00:00:00,-2.095029985573931,0.9808118259788461,-51.39748261634178,-4.538201397483633
sz000520,2013-03-28,3.53,3.53,3.37,3.39,-0.05042,18861589.0,64487502.08,2268400350.0,2287308610.0,0.028187611022895496,23.4,2012-09-30 00:00:00,2012-10-30 00:00:00,-2.132778023817477,0.9984839941920515,-52.32355725621962,-4.619970250955292
sz000520,2013-03-27,3.56,3.64,3.5,3.57,-0.008333,22577296.0,79950690.67,2388846380.0,2408758620.0,0.033740531578259125,24.65,2012-09-30 00:00:00,2012-10-30 00:00:00,-2.246022477113542,1.051500657334876,-55.101789481896866,-4.865277544762201
sz000520,2013-03-26,3.65,3.82,3.59,3.6,-0.024390000000000002,30642997.0,113552832.93,2408920720.0,2429000290.0,0.04579427968887245,24.85,2012-09-30 00:00:00,2012-10-30 00:00:00,-2.26489585426715,1.0603364408968694,-55.564811052396486,-4.906160580882697
sz000520,2013-03-25,3.57,3.8,3.53,3.69,0.033613,33171956.0,122162100.77,2469143740.0,2489725300.0,0.049573670279722155,25.47,2012-09-30 00:00:00,2012-10-30 00:00:00,-2.321517670244411,1.0868445802081461,-56.95391709022712,-5.02881333820143
sz000520,2013-03-22,3.53,3.67,3.45,3.57,0.0,28280332.0,100586026.73,2388846380.0,2408758620.0,0.04226340633925569,24.65,2012-09-30 00:00:00,2012-10-30 00:00:00,-2.2460221284411204,1.0515004940999642,-55.10178092789771,-4.865276789476749
sz000520,2013-03-21,3.36,3.68,3.35,3.57,0.053097000000000005,43427294.0,153921350.84,2388846380.0,2408758620.0,0.06489971095587989,24.65,2012-09-30 00:00:00,2012-10-30 00:00:00,-2.2460221284411204,1.0515004940999642,-55.10178092789771,-4.865276789476749
sz000520,2013-03-20,3.32,3.47,3.3,3.39,0.005935,20118214.0,68163900.63,2268400350.0,2287308610.0,0.030065568214182298,23.4,2012-09-30 00:00:00,2012-10-30 00:00:00,-2.1327780142200767,0.9984839896989206,-52.32355702076608,-4.619970230165643
sz000520,2013-03-19,3.22,3.53,3.2,3.37,0.049844,26826420.0,91043205.09,2255017450.0,2273814160.0,0.040090614553780955,23.26,2012-09-30 00:00:00,2012-10-30 00:00:00,-2.1201946589193903,0.9925929505374808,-52.014848892588574,-4.592712481587422
sz000520,2013-03-18,3.3,3.3,3.2,3.21,-0.033132999999999996,12337660.0,39936280.41,2147954310.0,2165858590.0,0.018437956717989964,22.16,2012-09-30 00:00:00,2012-10-30 00:00:00,-2.019533053405449,0.9454670889555787,-49.545312344108815,-4.374661836984754
sz000520,2013-03-15,3.38,3.39,3.25,3.32,-0.017751,14181896.0,47038471.29,2221560220.0,2240078050.0,0.021194066357561984,22.92,2012-09-30 00:00:00,2012-10-30 00:00:00,-2.088739251009134,0.9778667479142205,-51.24315168902114,-4.524574566082773
sz000520,2013-03-14,3.36,3.47,3.31,3.38,-0.00295,25419132.0,86110947.28,2261708900.0,2280561380.0,0.03798749969989506,23.33,2012-09-30 00:00:00,2012-10-30 00:00:00,-2.1264865131032296,0.9955385527643403,-52.16920728758303,-4.606341738278964
sz000520,2013-03-13,3.18,3.46,3.18,3.39,0.059375,28954728.0,95990448.12,2268400350.0,2287308610.0,0.04327125408881197,23.4,2012-09-30 00:00:00,2012-10-30 00:00:00,-2.1327782088192464,0.9984840808027082,-52.32356179487792,-4.6199706517014825
sz000520,2013-03-12,3.3,3.34,3.16,3.2,-0.030302999999999997,14650180.0,47639489.5,2141262859.9999998,2159111370.0,0.0218938911591639,22.09,2012-09-30 00:00:00,2012-10-30 00:00:00,-2.013241967027017,0.9425218461854473,-49.39097278572547,-4.361034243494025
sz000520,2013-03-11,3.25,3.33,3.21,3.3,0.009174,14199451.0,46570130.09,2208177330.0,2226583600.0,0.021220301315202795,22.78,2012-09-30 00:00:00,2012-10-30 00:00:00,-2.0761557136167457,0.9719756235045044,-50.93443909357817,-4.497316423062076
sz000520,2013-03-08,3.22,3.42,3.14,3.27,0.018692,25554195.0,84196874.13,2188102990.0,2206341930.0,0.03818934393485747,22.57,2012-09-30 00:00:00,2012-10-30 00:00:00,-2.0572822066529115,0.9631397791703951,-50.47141433843734,-4.456433105749925
sz000520,2013-03-07,3.19,3.26,3.17,3.21,0.009434,15518791.0,49953281.36,2147954310.0,2165858590.0,0.023191982659072484,22.16,2012-09-30 00:00:00,2012-10-30 00:00:00,-2.0195330940587652,0.9454671079878856,-49.545313341458794,-4.374661925046948
sz000520,2013-03-06,3.15,3.22,3.13,3.18,0.0063289999999999996,11884903.0,37783865.26,2127879970.0000002,2145616920.0,0.017761336199804537,21.95,2012-09-30 00:00:00,2012-10-30 00:00:00,-2.0006588782018095,0.9366309317774968,-49.08227119500512,-4.333777072148301
sz000520,2013-03-05,3.13,3.19,3.12,3.16,0.009585,9616532.0,30344966.38,2114497080.0,2132122480.0,0.014371380035199671,21.81,2012-09-30 00:00:00,2012-10-30 00:00:00,-1.988076343026793,0.9307402765671036,-48.77358318701451,-4.306521100105732
sz000520,2013-03-04,3.27,3.28,3.1,3.13,-0.048632,15691186.0,49712761.85,2094422740.0,2111880810.0,0.023449617520864004,21.61,2012-09-30 00:00:00,2012-10-30 00:00:00,-1.9692015462064048,0.9219038283721566,-48.31052678775389,-4.265634988738673
sz000520,2013-03-01,3.3,3.38,3.26,3.29,-0.00303,16984393.0,56272698.01,2201485880.0,2219836380.0,0.025382244545670216,22.71,2012-09-30 00:00:00,2012-10-30 00:00:00,-2.069863129941731,0.969029679758155,-50.780062801937724,-4.48368558616505
sz000520,2013-02-28,3.27,3.35,3.23,3.3,0.01227,21608360.0,71376929.1,2208177330.0,2226583600.0,0.032292509768678763,22.78,2012-09-30 00:00:00,2012-10-30 00:00:00,-2.0761538761865763,0.9719747632909267,-50.93439401580562,-4.497312442866938
sz000520,2013-02-27,3.24,3.37,3.16,3.26,0.009288,19976247.0,65250420.04,2181411540.0,2199594710.0,0.02985340639575052,22.51,2012-09-30 00:00:00,2012-10-30 00:00:00,-2.0509882503547234,0.9601931928150854,-50.31700437215922,-4.442799295511017
sz000520,2013-02-26,3.2,3.3,3.18,3.23,-0.009202,18717865.0,60630722.1,2161337200.0,2179353040.0,0.027972823467805025,22.3,2012-09-30 00:00:00,2012-10-30 00:00:00,-2.0321139757479765,0.9513569891003217,-49.85396078439377,-4.401914315350046
sz000520,2013-02-25,3.12,3.38,3.1,3.26,0.038217,28762063.0,93785825.73,2181411540.0,2199594710.0,0.04298332692418048,22.51,2012-09-30 00:00:00,2012-10-30 00:00:00,-2.0509871595905285,0.9601926821615725,-50.31697761238292,-4.442796932724981
sz000520,2013-02-22,3.17,3.22,3.1,3.14,-0.003175,13321588.0,41948297.07,2101114190.0,2118628029.9999998,0.019908383142184197,21.68,2012-09-30 00:00:00,2012-10-30 00:00:00,-1.97548986347799,0.9248477747538062,-48.46479841149097,-4.279256583859619
sz000520,2013-02-21,3.31,3.31,3.13,3.15,-0.051204999999999994,25499356.0,81665857.0,2107805630.0,2125375250.0,0.03810739010124003,21.75,2012-09-30 00:00:00,2012-10-30 00:00:00,-1.9817820213959225,0.927793519177194,-48.61916425801015,-4.292886498492332
sz000520,2013-02-20,3.3,3.42,3.24,3.32,-0.020649,39976210.0,133263977.43,2221560220.0,2240078050.0,0.05974225501751197,22.92,2012-09-30 00:00:00,2012-10-30 00:00:00,-2.088735734690763,0.9778651017102682,-51.24306542299459,-4.52456694912213
sz000520,2013-02-19,3.08,3.39,3.04,3.39,0.100649,47348695.0,157028725.84,2268400350.0,2287308610.0,0.0707600296614308,23.4,2012-09-30 00:00:00,2012-10-30 00:00:00,-2.1327754142189708,0.998482772479191,-52.32349323479998,-4.6199645981084725
sz000520,2013-02-18,3.09,3.09,3.04,3.08,0.009836,8674246.0,26620478.76,2060965510.0,2078144690.0,0.01296318524030031,21.26,2012-09-30 00:00:00,2012-10-30 00:00:00,-1.9377434715508493,0.9071763772821227,-47.53876416078148,-4.1974912965972555
sz000520,2013-02-08,3.04,3.1,3.03,3.05,0.0032890000000000003,6916364.0,21209705.78,2040891170.0,2057903020.0,0.010336126938115961,21.06,2012-09-30 00:00:00,2012-10-30 00:00:00,-1.9188694714298649,0.8983403020709527,-47.075727306989926,-4.156606911020458
sz000520,2013-02-07,3.07,3.08,3.03,3.04,-0.009772,5726344.0,17464058.1,2034199720.0,2051155800.0,0.008557707283530645,20.99,2012-09-30 00:00:00,2012-10-30 00:00:00,-1.9125789991018187,0.8953953467754083,-46.92140281313751,-4.14298064767027
sz000520,2013-02-06,3.03,3.09,3.01,3.07,0.013201,9473125.0,28989258.0,2054274060.0,2071397470.0,0.014157066146276511,21.19,2012-09-30 00:00:00,2012-10-30 00:00:00,-1.9314531593752338,0.9042314969637381,-47.384443595957215,-4.183865380165245
sz000520,2013-02-05,3.01,3.06,2.99,3.03,0.003311,7266450.0,21995466.53,2027508270.0,2044408580.0,0.010859311316150637,20.92,2012-09-30 00:00:00,2012-10-30 00:00:00,-1.9062882482106054,0.8924502610673873,-46.76707148528003,-4.129353780903537
sz000520,2013-02-04,3.01,3.05,2.99,3.02,-0.006579000000000001,7995395.0,24098125.15,2020816830.0,2037661360.0,0.011948679633670708,20.85,2012-09-30 00:00:00,2012-10-30 00:00:00,-1.8999973569617048,0.8895051096493384,-46.6127367140199,-4.115726610097504
sz000520,2013-02-01,3.08,3.09,3.02,3.04,-0.019355,13721048.0,41765575.2,2034199720.0,2051155800.0,0.020505354272686654,20.99,2012-09-30 00:00:00,2012-10-30 00:00:00,-1.912580222243847,0.8953959194030912,-46.92143282054627,-4.142983297209847
sz000520,2013-01-31,3.14,3.17,3.09,3.1,-0.022082,13086375.0,40833189.34,2074348400.0,2091639140.0,0.019556870244169206,21.4,2012-09-30 00:00:00,2012-10-30 00:00:00,-1.9503288368816922,0.9130683574617636,-47.847521601136265,-4.224753399252377
sz000520,2013-01-30,3.12,3.17,3.08,3.17,0.016026,21948299.0,68675639.28,2121188520.0,2138869700.0000002,0.032800530067926256,21.88,2012-09-30 00:00:00,2012-10-30 00:00:00,-1.9943684816944696,0.9336860119782678,-48.92794856126614,-4.320150973039024
sz000520,2013-01-29,3.04,3.12,3.02,3.12,0.022951,17705434.0,54495186.92,2087731290.0,2105133589.9999998,0.026459800810860103,21.54,2012-09-30 00:00:00,2012-10-30 00:00:00,-1.9629108720588544,0.9189587785925437,-48.15619734265279,-4.252008288212137
sz000520,2013-01-28,3.04,3.06,3.01,3.05,0.016666999999999998,9037153.0,27376199.19,2040891170.0,2057903020.0,0.013505529866151559,21.06,2012-09-30 00:00:00,2012-10-30 00:00:00,-1.9188708667950416,0.8983409553268376,-47.07576153955839,-4.156609933625499
sz000520,2013-01-25,3.0,3.04,2.96,3.0,0.0033439999999999998,6101329.0,18301244.13,2007433940.0,2024166910.0,0.009118101789192624,20.71,2012-09-30 00:00:00,2012-10-30 00:00:00,-1.8874133485153364,0.8836137647104091,-46.30401256218446,-4.088467446691491
sz000520,2013-01-24,3.06,3.09,2.98,2.99,-0.022876,10544951.0,31924489.65,2000742490.0,2017419690.0,0.015758851350230484,20.64,2012-09-30 00:00:00,2012-10-30 00:00:00,-1.8811228736259311,0.8806688082157357,-46.149688005494085,-4.074841177792951
sz000520,2013-01-23,3.03,3.1,3.02,3.06,0.003279,8052010.0,24593301.96,2047582610.0,2064650250.0,0.012033287682590741,21.12,2012-09-30 00:00:00,2012-10-30 00:00:00,-1.9251629001292887,0.9012866414249733,-47.23012432965937,-4.170239578388159
sz000520,2013-01-22,3.13,3.13,3.04,3.05,-0.025559000000000002,15340631.0,47032027.75,2040891170.0,2057903020.0,0.022925732267242843,21.06,2012-09-30 00:00:00,2012-10-30 00:00:00,-1.9188709223748217,0.8983409813471361,-47.075762903100106,-4.156610054021025
sz000520,2013-01-21,3.11,3.2,3.06,3.13,0.006431,19242394.0,60538997.37,2094422740.0,2111880810.0,0.028756703252754024,21.61,2012-09-30 00:00:00,2012-10-30 00:00:00,-1.969201749900529,0.9219039237338494,-48.31053178499273,-4.265635429975775
sz000520,2013-01-18,3.07,3.13,3.03,3.11,0.00974,15617475.0,48087106.94,2081039850.0,2098386359.9999998,0.023339460438491843,21.47,2012-09-30 00:00:00,2012-10-30 00:00:00,-1.9566187348169213,0.9160130438488573,-48.00183200337899,-4.238378418367254
sz000520,2013-01-17,3.15,3.15,3.07,3.08,-0.031447,18516656.0,57421001.74,2060965510.0,2078144690.0,0.02767212755539999,21.26,2012-09-30 00:00:00,2012-10-30 00:00:00,-1.9377450975666222,0.9071771385196755,-47.53880405191335,-4.1974948188318315
sz000520,2013-01-16,3.05,3.36,3.03,3.18,0.039216,44229632.0,142596524.9,2127879970.0000002,2145616920.0,0.06609876108754385,21.95,2012-09-30 00:00:00,2012-10-30 00:00:00,-2.000659847800401,0.9366313857059713,-49.0822949822192,-4.333779172468447
sz000520,2013-01-15,3.0,3.09,2.98,3.06,0.009901,21490009.0,65172920.17,2047582610.0,2064650250.0,0.03211564076528273,21.12,2012-09-30 00:00:00,2012-10-30 00:00:00,-1.9251626685890144,0.9012865330267925,-47.23011864926945,-4.170239076831425
sz000520,2013-01-14,2.96,3.03,2.8,3.03,0.013378,23432525.0,68859957.68,2027508270.0,2044408580.0,0.03501862448630111,20.92,2012-09-30 00:00:00,2012-10-30 00:00:00,-1.9062885060902153,0.8924503817966242,-46.76707781185428,-4.129354339515879
sz000520,2013-01-11,3.15,3.16,2.97,2.99,-0.050794,21024972.0,64115964.73,2000742490.0,2017419690.0,0.03142066837396951,20.64,2012-09-30 00:00:00,2012-10-30 00:00:00,-1.881122844674165,0.880668794661641,-46.14968729521886,-4.074841115078362
sz000520,2013-01-10,3.15,3.2,3.13,3.15,0.0,11906922.0,37595220.67,2107805630.0,2125375250.0,0.017794242394162312,21.75,2012-09-30 00:00:00,2012-10-30 00:00:00,-1.98178566578189,0.9277952253374303,-48.61925366592589,-4.29289439286979
sz000520,2013-01-09,3.16,3.18,3.12,3.15,-0.009434,13711959.0,43132641.88,2107805630.0,2125375250.0,0.020491771269251235,21.75,2012-09-30 00:00:00,2012-10-30 00:00:00,-1.98178566578189,0.9277952253374303,-48.61925366592589,-4.29289439286979
sz000520,2013-01-08,3.11,3.24,3.08,3.18,0.015974000000000002,22853851.0,72234421.59,2127879970.0000002,2145616920.0,0.034153827849603746,21.95,2012-09-30 00:00:00,2012-10-30 00:00:00,-2.0006598911954283,0.9366314060218407,-49.082296046831715,-4.333779266469666
sz000520,2013-01-07,3.14,3.15,3.07,3.13,-0.009493999999999999,19237784.0,59629013.87,2094422740.0,2111880810.0,0.028749813860405274,21.61,2012-09-30 00:00:00,2012-10-30 00:00:00,-1.9692038292273508,0.9219048971940629,-48.31058279722879,-4.265639934161372
sz000520,2013-01-04,3.15,3.27,3.15,3.16,0.006369,19771802.0,63228728.6,2114497080.0,2132122480.0,0.029547874485596357,21.81,2012-09-30 00:00:00,2012-10-30 00:00:00,-1.9880786479106138,0.9307413556243602,-48.77363973285248,-4.306526092887243
