code,date,open,high,low,close,change,volume,money,traded_market_value,market_value,turnover,adjust_price,report_type,report_date,PE_TTM,PS_TTM,PC_TTM,PB
sz300296,2014-09-26,23.21,23.21,22.38,22.74,-0.016861,3162821.0,71470877.7,2621170440.0,7334532810.0,0.02743909684102801,69.36,2014-06-30 00:00:00,2014-08-21 00:00:00,70.83518114533587,7.999571012214919,117.96664643183162,7.378714502702563
sz300296,2014-09-25,22.85,23.64,22.85,23.13,0.013141,4759399.0,111222536.47,2666124550.0,7460322950.0,0.04129023112217319,70.55,2014-06-30 00:00:00,2014-08-21 00:00:00,72.05001647308862,8.13676500699791,119.98979435444186,7.505260703422977
sz300296,2014-09-24,22.2,22.86,22.02,22.83,0.027915,4648292.0,105475652.13,2631544470.0,7363561310.0,0.04032632074805864,69.63,2014-06-30 00:00:00,2014-08-21 00:00:00,71.11548784728741,8.03122665749181,118.43346025325384,7.407913314556391
sz300296,2014-09-23,21.9,22.46,21.9,22.21,0.016475999999999998,5129159.0,113774126.16,2560078960.0,7163587240.0,0.04449808899253639,67.74,2014-06-30 00:00:00,2014-08-21 00:00:00,69.18421060816061,7.813123320013631,115.21717287251754,7.206737244379537
sz300296,2014-09-22,23.26,23.26,21.57,21.85,-0.06623899999999999,9462368.0,209200318.5,2518582860.0,7047473260.0,0.08209090281826187,66.64,2014-06-30 00:00:00,2014-08-21 00:00:00,68.062807787061,7.686480861342158,113.34962445991596,7.089923662122408
sz300296,2014-09-19,23.8,23.8,22.95,23.4,-0.013906,4376234.0,101876651.9,2697246630.0,7547408430.0,0.03796607787401332,71.37,2014-06-30 00:00:00,2014-08-21 00:00:00,72.89103720016256,8.231743306201647,121.39040339007086,7.592867620432218
sz300296,2014-09-18,23.62,24.1,23.2,23.73,0.016274,3841365.0,90717152.69,2735284720.0,7653846250.0,0.03332581459746538,72.38,2014-06-30 00:00:00,2014-08-21 00:00:00,73.9189541769472,8.347828205223486,123.10226346582665,7.699943028182119
sz300296,2014-09-17,23.63,23.93,23.3,23.35,-0.012685,3921046.0,92265387.02,2691483280.0,7531281490.0,0.034017088190865526,71.22,2014-06-30 00:00:00,2014-08-21 00:00:00,72.73526054680845,8.214151110058397,121.13097793097793,7.576640776190397
sz300296,2014-09-16,24.7,24.71,23.5,23.65,-0.046370999999999996,5672129.0,136423967.9,2726063370.0,7628043140.0,0.04920863261150088,72.13,2014-06-30 00:00:00,2014-08-21 00:00:00,73.66976147106895,8.31968633116928,122.68726589890554,7.673985279460351
sz300296,2014-09-15,25.5,25.8,24.6,24.8,-0.014308000000000001,4306512.0,107858985.05,2858620360.0,7998962790.0,0.037361203710170175,75.64,2014-06-30 00:00:00,2014-08-21 00:00:00,77.25201464203474,8.724237970079852,128.65303582305648,8.047139169908162
sz300296,2014-09-12,25.05,25.18,24.7,25.16,0.006803,1976138.0,49351330.1,2900116460.0,8115076760.0,0.01714401223735684,76.74,2014-06-30 00:00:00,2014-08-21 00:00:00,78.37338097705444,8.850876308298995,130.52052347290686,8.163948951506315
sz300296,2014-09-11,25.53,25.84,24.61,24.99,-0.023065000000000002,4640821.0,117329846.64,2880521080.0,8060245160.0,0.040261506015432456,76.22,2014-06-30 00:00:00,2014-08-21 00:00:00,77.84380954074872,8.791070654635508,129.63859213064208,8.108784887913837
sz300296,2014-09-10,24.46,26.15,24.1,25.58,0.048361,8049328.0,204626116.81,2948528580.0,8250543070.0,0.06983205509237424,78.02,2014-06-30 00:00:00,2014-08-21 00:00:00,79.681667194592,8.99862391524053,132.69930152020564,8.30022968561249
sz300296,2014-09-09,23.56,24.4,23.05,24.4,0.029102,5810577.0,137906980.67,2812513580.0,7869947260.0,0.05040974017270345,74.42,2014-06-30 00:00:00,2014-08-21 00:00:00,76.00594374894906,8.583516474993376,126.57786918838609,7.917339242505672
sz300296,2014-09-05,23.8,23.93,23.32,23.71,-0.0071189999999999995,3656634.0,86226658.55,2732979380.0,7647395470.0,0.03172317829196355,72.32,2014-06-30 00:00:00,2014-08-21 00:00:00,73.8565698530846,8.340783007897542,122.9983706069817,7.693444617254336
sz300296,2014-09-04,24.02,24.02,23.62,23.88,0.001258,3858159.0,92057050.35,2752574770.0,7702227070.0,0.0334715110826944,72.84,2014-06-30 00:00:00,2014-08-21 00:00:00,74.38612467464338,8.400586785221535,123.88027427957803,7.748606950132329
sz300296,2014-09-03,23.99,24.28,23.47,23.85,-0.005006,4152553.0,98523921.32,2749116760.0,7692550900.0,0.03602553026885624,72.74,2014-06-30 00:00:00,2014-08-21 00:00:00,74.292664502699,8.390032124808526,123.72462869667761,7.73887144984842
sz300296,2014-09-02,23.53,24.7,23.53,23.97,0.0187,7196559.0,173485214.28,2762948790.0,7731255560.0,0.06243384598887191,73.11,2014-06-30 00:00:00,2014-08-21 00:00:00,74.6664447249923,8.432243937961964,124.34711033099457,7.777807152453603
sz300296,2014-09-01,23.2,24.0,23.2,23.53,0.008140999999999999,3878491.0,91229746.66,2712231330.0,7589338480.0,0.03364790171861926,71.77,2014-06-30 00:00:00,2014-08-21 00:00:00,73.29581302149043,8.277455519742775,122.06450410424519,7.635032053061356
sz300296,2014-08-29,22.72,23.76,22.72,23.34,0.028194,3643679.0,84673319.72,2690330610.0,7528056110.0,0.03161078699543176,71.19,2014-06-30 00:00:00,2014-08-21 00:00:00,72.70393032471692,8.21061291996137,121.07880158057773,7.573377189362755
sz300296,2014-08-28,24.0,24.0,22.5,22.7,-0.057309000000000006,7245384.0,167943614.76,2616559770.0,7321631260.0,0.06285742778962011,69.24,2014-06-30 00:00:00,2014-08-21 00:00:00,70.71032346494623,7.985470562910666,117.75871244198831,7.365708406548525
sz300296,2014-08-27,25.02,25.04,24.0,24.08,-0.017143000000000002,4340676.0,106822396.95,2775628160.0,7766734830.0,0.03765759390479739,73.45,2014-06-30 00:00:00,2014-08-21 00:00:00,75.00901511199983,8.470931156562083,124.91761610324943,7.813491808608044
sz300296,2014-08-26,24.6,25.09,24.01,24.5,-0.00366,4298287.0,105015956.77,2824040280.0,7902201140.0,0.037289847544242534,74.73,2014-06-30 00:00:00,2014-08-21 00:00:00,76.31732297984328,8.618681208519737,127.09643020627561,7.949774797969638
sz300296,2014-08-25,23.8,25.27,23.8,24.59,0.021603999999999998,5440402.0,134739347.44,2834414300.0,7931229630.0,0.04719828190959945,75.0,2014-06-30 00:00:00,2014-08-21 00:00:00,76.59767045370384,8.650341458256957,127.56331192793185,7.978977856925987
sz300296,2014-08-22,24.46,24.75,23.6,24.07,-0.016347,6091884.0,146719478.9,2774475490.0,7763509450.0,0.05285022282896433,73.42,2014-06-30 00:00:00,2014-08-21 00:00:00,74.97784900382521,8.467411500206497,124.86571306292052,7.8102453170954576
sz300296,2014-08-21,23.1,24.9,22.83,24.47,0.07607699999999999,8744658.0,209111550.64,2820582270.0,7892524970.0,0.07586439989215418,74.64,2014-06-30 00:00:00,2014-08-21 00:00:00,76.22388078298465,8.608128578072243,126.94081455850845,7.940041170103132
sz300296,2014-08-20,21.82,22.9,21.82,22.74,0.036936000000000004,5637819.0,127066528.47,2621170440.0,7334532810.0,0.0489109758387173,69.36,2014-03-31 00:00:00,2014-04-24 00:00:00,82.98085046486851,8.467654278954342,647.170737019509,9.171204965238164
sz300296,2014-08-19,21.89,22.15,21.36,21.93,0.005963,3400307.0,73792795.01,2527804210.0,7073276370.0,0.02949940988902776,66.89,2014-03-31 00:00:00,2014-04-24 00:00:00,80.02504538840248,8.166033659699675,624.1183033663689,8.84452364006859
sz300296,2014-08-18,21.35,22.2,21.28,21.8,0.0254,6053355.0,132265888.05,2512819510.0,7031346320.0,0.052515964029585235,66.49,2014-03-31 00:00:00,2014-04-24 00:00:00,79.55068465579994,8.117628242489708,620.4187463816947,8.792096369417752
sz300296,2014-08-15,20.15,21.38,20.15,21.26,0.055611,5854013.0,122464089.8,2450575360.0,6857175360.0,0.050786569722140684,64.84,2014-03-31 00:00:00,2014-04-24 00:00:00,77.58014887439043,7.916547925189886,605.050464581329,8.574308922779162
sz300296,2014-08-14,20.4,20.49,20.0,20.14,-0.007393,2418028.0,49014960.14,2321476370.0,6495931880.0,0.02097763498665291,61.43,2014-03-31 00:00:00,2014-04-24 00:00:00,73.49312282118169,7.4994935873062,573.175596485191,8.12260285538817
sz300296,2014-08-13,20.82,20.9,19.95,20.29,-0.02405,4824111.0,97814760.98,2338766420.0,6544312700.0,0.041851640827817255,61.89,2014-03-31 00:00:00,2014-04-24 00:00:00,74.0405042692442,7.555350292015067,577.4446447437817,8.183100517514152
sz300296,2014-08-12,20.6,20.93,20.4,20.79,0.006292,3214063.0,66550254.56,2396399890.0,6705582110.0,0.0278836474867306,63.41,2014-03-31 00:00:00,2014-04-24 00:00:00,75.86505893667115,7.741534189266937,591.6744144103508,8.384753847547673
sz300296,2014-08-11,20.81,21.18,20.38,20.66,0.000484,4838319.0,100166805.93,2381415190.0,6663652060.0,0.0419749025536366,63.01,2014-03-31 00:00:00,2014-04-24 00:00:00,75.3907006481927,7.693129021463886,587.9748764874914,8.332326847026184
sz300296,2014-08-08,20.4,21.28,20.22,20.65,0.013248,6305776.0,131114006.27,2380262520.0,6660426670.0,0.054705845807293554,62.98,2014-03-31 00:00:00,2014-04-24 00:00:00,75.35422920125932,7.689407348307307,587.690434317282,8.328295951785522
sz300296,2014-08-07,19.44,20.95,19.31,20.38,0.047814999999999996,9101946.0,185805829.86,2349140440.0,6573341190.0,0.07896405694671876,62.16,2014-03-31 00:00:00,2014-04-24 00:00:00,74.36898883714483,7.588869998566301,580.0065080979997,8.219405270758514
sz300296,2014-08-06,19.6,19.7,19.13,19.45,-0.008665,3491189.0,67661125.16,2241942180.0,6273380090.0,0.030287857847431196,59.32,2014-03-31 00:00:00,2014-04-24 00:00:00,70.97530464551933,7.242566673092389,553.539038950578,7.844328694243272
sz300296,2014-08-05,18.84,19.68,18.61,19.62,0.044172,4817217.0,92794107.57,2261537560.0,6328211690.0,0.041791831898648636,59.84,2014-03-31 00:00:00,2014-04-24 00:00:00,71.59568122331937,7.305872054444146,558.377378939085,7.912893920060596
sz300296,2014-08-04,18.76,19.09,18.51,18.79,-0.001594,3545351.0,66358405.01,2165865990.0,6060504470.0,0.0307577410595011,57.31,2014-03-31 00:00:00,2014-04-24 00:00:00,68.56694225024171,6.996809006987495,534.7561311154532,7.578151798803833
sz300296,2014-08-01,19.46,19.98,18.81,18.82,-0.040775,5130578.0,99596882.78,2169324000.0,6070180630.0,0.044510399534601564,57.4,2014-03-31 00:00:00,2014-04-24 00:00:00,68.6764124516897,7.00797972667181,535.60989328535,7.5902506583532485
sz300296,2014-07-31,19.75,19.94,19.44,19.62,-0.012582,4296706.0,84321449.14,2261537560.0,6328211690.0,0.037276131606675596,59.84,2014-03-31 00:00:00,2014-04-24 00:00:00,71.59572827197965,7.305876855452901,558.3777458733352,7.912899119970025
sz300296,2014-07-30,18.98,20.21,18.7,19.87,0.046891,8887765.0,173632212.87,2290354300.0,6408846390.0,0.07710592660270946,60.61,2014-03-31 00:00:00,2014-04-24 00:00:00,72.50802423287773,7.398970704861469,565.4927759807248,8.013727843699453
sz300296,2014-07-29,18.8,19.45,18.72,18.98,-0.001053,5925393.0,113273878.17,2187766710.0,6121786840.0,0.05140582797331257,57.89,2014-03-31 00:00:00,2014-04-24 00:00:00,69.26033773609451,7.067565491404041,540.1639482818409,7.65478721633814
sz300296,2014-07-28,18.71,19.0,18.11,19.0,0.011715,6596567.0,122088077.63,2190072050.0,6128237620.0,0.05722860715929414,57.95,2014-03-31 00:00:00,2014-04-24 00:00:00,69.3333457491684,7.075015482707332,540.7333404893762,7.662856203920869
sz300296,2014-07-25,18.7,19.49,18.35,18.78,0.008052,6964479.0,132201868.64,2164713320.0,6057279080.0,0.060420432771208704,57.28,2014-03-31 00:00:00,2014-04-24 00:00:00,68.53051081497101,6.993091416759989,534.4720009976884,7.574125325729943
sz300296,2014-07-24,19.21,19.34,18.5,18.63,-0.039691000000000004,7294148.0,137654007.67,2147423279.9999998,6008898250.0,0.06328048061395702,56.82,2014-03-31 00:00:00,2014-04-24 00:00:00,67.98311080675502,6.937232818108578,530.2028079877708,7.513625612299705
sz300296,2014-07-23,20.04,20.29,19.0,19.4,-0.032418999999999996,10393413.0,203757289.43,2236178830.0,6257253150.0,0.09016819652120577,59.17,2014-03-31 00:00:00,2014-04-24 00:00:00,70.79295394165318,7.223958973735099,552.1168790334891,7.824174939836768
sz300296,2014-07-22,19.29,20.6,19.0,20.05,0.049189,14567670.0,287744124.78,2311102350.0,6466903380.0,0.12638202003472498,61.15,2014-03-31 00:00:00,2014-04-24 00:00:00,73.16488639364889,7.465999201860205,570.6156683869248,8.086325527099817
sz300296,2014-07-21,17.38,19.11,17.22,19.11,0.100173,11467524.0,210555684.85,2202751410.0,6163716890.0,0.09948666138409146,58.29,2014-03-31 00:00:00,2014-04-24 00:00:00,69.73470594301779,7.115971671319661,543.8635635590201,7.70721531306544
sz300296,2014-07-18,16.7,17.51,16.54,17.37,0.034544,5278726.0,91040281.4,2002186920.0,5602499340.0,0.045795659588066834,52.98,2014-03-31 00:00:00,2014-04-24 00:00:00,63.385218454750095,6.468047908210491,494.34367463937036,7.005457608090218
sz300296,2014-07-17,16.46,17.08,16.35,16.79,0.011446,2591594.0,43423568.48,1935332090.0,5335333180.0,0.02248340917036104,51.21,2014-03-31 00:00:00,2014-04-24 00:00:00,61.268750729548564,6.252076188359791,477.8372641853516,6.77154147923164
sz300296,2014-07-16,16.9,17.28,16.53,16.6,-0.027533999999999996,2767475.0,46580972.09,1873133210.0,5234659010.0,0.02452579707345,50.63,2014-03-31 00:00:00,2014-04-24 00:00:00,60.57540464794815,6.181324745324803,472.4298323245646,6.694911521951384
sz300296,2014-07-15,16.95,17.68,16.95,17.07,0.042761,7320473.0,126192116.39,1926167700.0,5382869230.0,0.06487517889018699,52.07,2014-03-31 00:00:00,2014-04-24 00:00:00,62.290511594182355,6.356340216855706,485.806015145583,6.884468476997019
sz300296,2014-07-14,16.16,16.4,16.15,16.37,0.006765,2367859.0,38517573.29,1847180160.0,5162130600.0,0.020984337461701627,49.93,2014-03-31 00:00:00,2014-04-24 00:00:00,59.73613473670607,6.09568272773503,465.88433509268475,6.602153779242817
sz300296,2014-07-11,16.12,16.49,16.0,16.26,0.008685,2724718.0,44304955.47,1834767830.0,5127443100.0,0.024146877853205004,49.59,2014-03-31 00:00:00,2014-04-24 00:00:00,59.3347352527214,6.054722529820791,462.7538055978155,6.557790327676088
sz300296,2014-07-10,16.97,17.06,16.06,16.12,-0.046718,4143227.0,68418016.3,1818970320.0,5083295370.0,0.03671792689833444,49.17,2014-03-31 00:00:00,2014-04-24 00:00:00,58.82385011447716,6.0025900353636565,458.76939341599746,6.501326308685155
sz300296,2014-07-09,17.07,17.18,16.7,16.91,-0.008211,3263009.0,55302801.22,1908113410.0,5332414690.0,0.02891729700175421,51.58,2014-03-31 00:00:00,2014-04-24 00:00:00,61.70666194733265,6.296762170442385,481.2525500491958,6.81994027862181
sz300296,2014-07-08,17.21,17.38,16.81,17.05,-0.005831,3626902.0,61775079.38,1923910920.0,5376562410.0,0.032142173765508854,52.0,2014-03-31 00:00:00,2014-04-24 00:00:00,62.217530086875996,6.3488929302930215,485.23682965751374,6.876402418883261
sz300296,2014-07-07,16.64,17.18,16.15,17.15,0.030649000000000003,4718228.0,78152472.64,1935194850.0,5408096500.0,0.041813675868349894,52.31,2014-03-31 00:00:00,2014-04-24 00:00:00,62.58244834316499,6.386130456987717,488.082840701645,6.916733894220461
sz300296,2014-07-04,17.05,17.3,16.6,16.64,-0.020024,4763428.0,80274607.62,1877646780.0,5247272640.0,0.04221424538645123,50.75,2014-03-31 00:00:00,2014-04-24 00:00:00,60.72139820944376,6.196222435560233,473.5684415369783,6.711047014279801
sz300296,2014-07-03,17.3,17.55,16.9,16.98,-0.015652000000000003,4312299.0,74128148.33,1916012160.0,5354488550.0,0.03821626947294531,51.79,2014-03-31 00:00:00,2014-04-24 00:00:00,61.96212785766566,6.322830799489204,483.2449381790761,6.848174867833294
sz300296,2014-07-02,16.51,17.85,16.51,17.25,0.045455,6917175.0,119520254.7,1946478790.0,5439630590.0,0.06130108859290473,52.61,2014-03-31 00:00:00,2014-04-24 00:00:00,62.947380253391756,6.423369376977659,490.9289582333444,6.957066878617415
sz300296,2014-07-01,16.58,16.88,16.45,16.5,-0.004825,4183167.0,69802642.87,1861849280.0,5203124920.0,0.037071881296428036,50.33,2014-03-31 00:00:00,2014-04-24 00:00:00,60.21051145519582,6.144089776200466,469.5840167518873,6.654582816684997
sz300296,2014-06-30,15.89,16.67,15.71,16.58,0.042112000000000004,5532143.0,90294536.2,1870876420.0,5228352190.0,0.049026718151699185,50.57,2014-03-31 00:00:00,2014-04-24 00:00:00,60.50243570748443,6.1738787411264004,471.8607448457681,6.686846852749514
sz300296,2014-06-27,15.81,16.2,15.66,15.91,0.006325,3790581.0,60613039.79,1795274060.0,5017073780.0,0.033592722723348435,48.53,2014-03-31 00:00:00,2014-04-24 00:00:00,58.05751752929093,5.924390795928269,452.792737100972,6.4166297410926205
sz300296,2014-06-26,15.3,15.86,15.3,15.81,0.033333,3844864.0,60511706.71,1783990120.0,4985539690.0,0.03407378726962905,48.22,2014-03-31 00:00:00,2014-04-24 00:00:00,57.692611759909504,5.887154543441006,449.946823442697,6.37629964583273
sz300296,2014-06-25,15.68,15.68,15.13,15.3,-0.021738999999999998,2002137.0,30682927.44,1726442060.0,4824715830.0,0.017743251748628043,46.67,2014-03-31 00:00:00,2014-04-24 00:00:00,55.831577777840735,5.697248170184253,435.4325502453681,6.170614551004109
sz300296,2014-06-24,15.45,15.78,15.41,15.64,0.017567,2052217.0,32013304.31,1764807430.0,4931931740.0,0.018187068648050742,47.7,2014-03-31 00:00:00,2014-04-24 00:00:00,57.07227189660094,5.823852908563515,445.1087697918736,6.307738477772403
sz300296,2014-06-23,14.86,15.81,14.86,15.37,0.034319999999999996,2724916.0,42236496.55,1734340810.0,4846789690.0,0.024148632540106116,46.88,2014-03-31 00:00:00,2014-04-24 00:00:00,56.08699171317558,5.723311495521685,437.42453302030583,6.198843395837721
sz300296,2014-06-20,14.88,15.0,14.65,14.86,-0.001344,2281318.0,33819986.25,1676792740.0,4685965830.0,0.020217397577711363,45.32,2014-03-31 00:00:00,2014-04-24 00:00:00,54.22595687328446,5.5334050347297605,422.91025313278857,5.993158206200906
sz300296,2014-06-19,15.5,15.67,14.6,14.88,-0.046154,5023686.0,75257098.34,1679049530.0,4692272650.0,0.04452069241816828,45.39,2014-03-31 00:00:00,2014-04-24 00:00:00,54.29893464144256,5.540851939736766,423.4794094591016,6.001223851056726
sz300296,2014-06-18,15.61,15.93,15.47,15.6,-0.0070019999999999995,3040472.0,47665462.41,1760293860.0,4919318100.0,0.026945139262145697,47.58,2014-03-31 00:00:00,2014-04-24 00:00:00,56.926311628336826,5.808958615685097,443.97042023460983,6.291606665076676
sz300296,2014-06-17,16.28,16.3,15.68,15.71,-0.035605,4594183.0,72967563.4,1772706190.0,4954005600.0,0.0407143695538176,47.92,2014-03-31 00:00:00,2014-04-24 00:00:00,57.32772032605989,5.849919753801212,447.1010215877674,6.335971134963692
sz300296,2014-06-16,16.1,16.39,16.0,16.29,0.014321,4578720.0,74173001.6,1838153010.0,5136903330.0,0.04057733409255196,49.69,2014-03-31 00:00:00,2014-04-24 00:00:00,59.44423221404081,6.065895980175355,463.60777646894405,6.569892144778531
sz300296,2014-06-13,16.2,16.4,16.03,16.06,-0.00434,4822204.0,77980574.88,1812199960.0,5064374920.0,0.04273512744145519,48.98,2014-03-31 00:00:00,2014-04-24 00:00:00,58.6049507148534,5.980252780111381,457.06218886224787,6.477133121347711
sz300296,2014-06-12,15.4,16.33,15.29,16.13,0.044013,7432249.0,118685997.49,1820098720.0,5086448780.0,0.06586575500146498,49.2,2014-03-31 00:00:00,2014-04-24 00:00:00,58.86040487199787,6.006320209822009,459.0544853285739,6.505366411573942
sz300296,2014-06-11,15.39,15.85,15.31,15.45,-0.0019379999999999998,4187956.0,65291344.85,1743367960.0,4872016970.0,0.03711432221112977,47.12,2014-03-31 00:00:00,2014-04-24 00:00:00,56.3789961159467,5.753108639281319,439.7018862107788,6.231116290289432
sz300296,2014-06-10,15.3,15.88,14.83,15.48,0.011765000000000001,5420710.0,83622513.95,1746753140.0,4881477190.0,0.04803918131213435,47.22,2014-03-31 00:00:00,2014-04-24 00:00:00,56.488470772303415,5.764279813559998,440.5556831246744,6.243215642204023
sz300296,2014-06-09,16.23,16.38,15.3,15.3,-0.05204500000000001,5336290.0,84181201.6,1726442060.0,4824715830.0,0.04729103796277994,46.67,2014-03-31 00:00:00,2014-04-24 00:00:00,55.83161185878482,5.697251647922194,435.4328160439177,6.170618317696325
sz300296,2014-06-06,16.12,16.37,15.93,16.14,0.0018620000000000002,6167049.0,99399031.1,1821227110.0,5089602190.0,0.05465335449569494,49.23,2014-03-31 00:00:00,2014-04-24 00:00:00,58.896901075245985,6.010044409198953,459.339120574202,6.50940004293065
sz300296,2014-06-05,15.63,16.3,15.35,16.11,0.027423000000000003,9866599.0,156632482.9,1817841930.0,5080141960.0,0.0874393462197233,49.14,2014-03-31 00:00:00,2014-04-24 00:00:00,58.787438864081075,5.998874504870883,458.48542072081983,6.49730206648286
sz300296,2014-06-04,15.59,15.97,14.7,15.68,0.0057729999999999995,12144492.0,185845851.52,1769321010.0,4944545370.0,0.10762639084922188,47.83,2014-03-31 00:00:00,2014-04-24 00:00:00,57.21834031755283,5.838758237717944,446.24796283596913,6.323882243713506
sz300296,2014-06-03,16.0,16.39,15.58,15.59,-0.034675,9580864.0,153049688.95,1759165470.0,4916164690.0,0.08490711778238803,47.55,2014-03-31 00:00:00,2014-04-24 00:00:00,56.88991483918621,5.805244560868053,443.6865603232232,6.287584021159352
sz300296,2014-05-30,16.35,16.69,15.86,16.15,-0.013438999999999998,10719148.0,173995388.31,1822355500.0,5092755600.0,0.09499476924233498,49.26,2014-03-31 00:00:00,2014-04-24 00:00:00,58.933431579194774,6.0137721087385625,459.62402333226953,6.5134374652675024
sz300296,2014-05-29,17.11,17.28,15.97,16.37,-0.05321,10961230.0,182978713.17,1847180160.0,5162130600.0,0.09714013770048288,49.93,2014-03-31 00:00:00,2014-04-24 00:00:00,59.736226730222235,6.095692115073028,465.8850525535365,6.602163946545121
sz300296,2014-05-28,17.5,17.8,17.15,17.29,-0.018729,8292589.0,144358048.39,1950992360.0,5452244230.0,0.07349022310369273,52.74,2014-03-31 00:00:00,2014-04-24 00:00:00,63.0934280360188,6.438272600125719,492.06799031837744,6.973208363570721
sz300296,2014-05-27,17.17,17.7,16.96,17.62,0.018497,9858326.0,171315140.81,1988229350.0,5556306730.0,0.0873660295377895,53.74,2014-03-31 00:00:00,2014-04-24 00:00:00,64.29765888935756,6.561156500218306,501.45983150258934,7.106302299334964
sz300296,2014-05-26,16.25,17.41,16.01,17.3,0.067901,9672854.0,160825960.17,1952120760.0,5455397640.0,0.08572234752526274,52.77,2014-03-31 00:00:00,2014-04-24 00:00:00,63.129944309465394,6.4419988475354435,492.3527820922294,6.977244213124796
sz300296,2014-05-23,16.18,16.42,15.85,16.2,-0.009174,6700142.0,107658175.49,1827997470.0,5108522640.0,0.05937770821969464,49.41,2014-03-31 00:00:00,2014-04-24 00:00:00,59.115914592706055,6.03239330943172,461.04721513719846,6.533605842793288
sz300296,2014-05-22,16.22,16.86,16.06,16.35,0.004917,7447369.0,122864548.74,1844923370.0,5155823780.0,0.06599975106283142,49.87,2014-03-31 00:00:00,2014-04-24 00:00:00,59.6632653893883,6.088246886367253,465.31602434453526,6.594100117269115
sz300296,2014-05-21,15.86,16.27,15.26,16.27,0.029747000000000003,6882426.0,108887486.93,1835896220.0,5130596510.0,0.060993137738471946,49.63,2014-03-31 00:00:00,2014-04-24 00:00:00,59.371336527681684,6.058457451080291,463.03926030163205,6.561835571762757
sz300296,2014-05-20,16.25,16.79,15.7,15.8,-0.030675,8841890.0,143419163.38,1782861730.0,4982386280.0,0.07835821457674118,48.19,2014-03-31 00:00:00,2014-04-24 00:00:00,57.65623646165678,5.883442681629848,449.6631311396218,6.3722793771312345
sz300296,2014-05-19,15.76,16.6,15.44,16.3,0.017478,8866819.0,142871538.05,1839281410.0,4890000000.0,0.07857913906714253,49.72,2014-03-31 00:00:00,2014-04-24 00:00:00,59.48081031816655,6.069628537002397,463.89305046256084,6.573934827979506
sz300296,2014-05-16,15.15,16.16,15.0,16.02,0.06163,10860298.0,171607528.88,1807686390.0,4806000000.0,0.09624566236845983,48.86,2014-03-31 00:00:00,2014-04-24 00:00:00,58.45906281822952,5.965365872286571,455.9244037340962,6.461009307306403
sz300296,2014-05-15,14.79,15.64,14.32,15.09,0.012752,10402652.0,156439538.89,1702745790.0,4527000000.0,0.09218993205086709,46.03,2014-03-31 00:00:00,2014-04-24 00:00:00,55.06538324861722,5.619063018458945,429.4569706339272,6.0859332416250504
sz300296,2014-05-14,14.21,15.18,14.0,14.9,0.048556999999999996,10096912.0,148655033.43,1681306320.0,4470000000.0,0.08948041591849842,45.45,2014-03-31 00:00:00,2014-04-24 00:00:00,54.37203110792892,5.548310957133578,424.04949151808853,6.009302614682618
sz300296,2014-05-13,13.86,14.28,13.7,14.21,0.020101,6434183.0,90292962.68,1603447160.0,4263000000.0,0.057020738014216824,43.34,2014-03-31 00:00:00,2014-04-24 00:00:00,51.85414918590874,5.291377538019943,404.4124368232614,5.731021408166287
sz300296,2014-05-12,13.6,13.98,13.2,13.93,0.040329000000000004,7108214.0,96666052.06,1571852150.0,4179000000.0,0.06299410604235264,42.49,2014-03-31 00:00:00,2014-04-24 00:00:00,50.832367761534144,5.187111411536645,396.4435255168473,5.618092138098372
sz300296,2014-05-09,14.04,14.05,13.28,13.39,-0.043571,6444961.0,87684739.81,1510918900.0,4017000000.0,0.05711625408220124,40.84,2014-03-31 00:00:00,2014-04-24 00:00:00,48.86181944513144,4.986029815122567,381.0751459556037,5.400303306067957
sz300296,2014-05-08,14.49,14.87,13.92,14.0,-0.047619,7513248.0,108304914.38,1579750900.0,4200000000.0,0.06658358099368704,42.7,2014-03-31 00:00:00,2014-04-24 00:00:00,51.08776442907047,5.2131729748079225,398.43537361958255,5.64631907446131
sz300296,2014-05-07,14.95,15.4,14.56,14.7,-0.029062,7409350.0,110591485.29,1658738450.0,4410000000.0,0.06566282044043772,44.84,2014-03-31 00:00:00,2014-04-24 00:00:00,53.64214996841649,5.473831349856751,418.35712138270554,5.928634731752639
sz300296,2014-05-06,14.4,15.68,14.36,15.14,0.041264999999999996,10037293.0,151795826.3,1708387760.0,4542000000.0,0.08895206321309632,46.18,2014-03-31 00:00:00,2014-04-24 00:00:00,55.24776038059741,5.63767341463281,430.8793366648597,6.106089916918113
sz300296,2014-05-05,13.68,14.6,13.6,14.54,0.062865,6798021.0,96570087.28,1640684150.0,4362000000.0,0.06024512721720387,44.35,2014-03-31 00:00:00,2014-04-24 00:00:00,53.058309249420084,5.414254214472598,413.8037259149781,5.864107520101139
sz300296,2014-04-30,14.02,14.14,13.68,13.68,-0.042017,6102680.0,84987791.51,1543642310.0,4104000000.0,0.05408290629193754,41.73,2014-03-31 00:00:00,2014-04-24 00:00:00,49.92008321792521,5.094018727187928,389.3285844533201,5.517264676229943
sz300296,2014-04-29,13.34,14.67,12.88,14.28,0.053875,11072267.0,151778374.85,1611345920.0,4284000000.0,0.09812416489688322,43.56,2014-03-31 00:00:00,2014-04-24 00:00:00,52.10957106537925,5.317441674004578,406.40448155480846,5.759251131001221
sz300296,2014-04-28,14.81,14.89,13.55,13.55,-0.09966799999999999,8471734.0,118861935.8,1528973190.0,4065000000.0,0.07507783422938895,41.33,2014-03-31 00:00:00,2014-04-24 00:00:00,49.4456847969439,5.045609464124852,385.62873353557916,5.4648332401861905
sz300296,2014-04-25,15.83,15.99,14.82,15.05,-0.064337,9290805.0,142566033.72,1698232220.0,4515000000.0,0.08233656952404307,45.9,2014-03-31 00:00:00,2014-04-24 00:00:00,54.919390621397326,5.604165423560255,428.31836870796457,6.069797852554602
sz300296,2014-04-24,29.61,32.57,29.4,32.33,0.091861,5896936.0,183362216.89,1824048090.0,4849500000.0,0.1045191417513559,49.06,2014-03-31 00:00:00,2014-04-24 00:00:00,58.695695588472915,5.989512702287315,457.7699115044248,6.487162421250603
sz300296,2014-04-23,31.08,31.65,29.51,29.61,-0.064455,5246500.0,158880975.86,1670586580.0,4441500000.0,0.09299060992097757,44.93,2013-12-31 00:00:00,2014-03-27 00:00:00,55.36287453859171,5.707954586941084,743.2975952366628,6.034610044974797
sz300296,2014-04-22,32.3,33.17,30.15,31.65,-0.039454,4854388.0,154306310.65,1785682710.0,4747500000.0,0.0860406943179732,48.03,2013-12-31 00:00:00,2014-03-27 00:00:00,59.17713689730768,6.101207945038544,794.5075813955104,6.45036854985575
sz300296,2014-04-21,32.89,34.49,31.24,32.95,0.0,6812234.0,223153486.14,1859028290.0,4942500000.0,0.12074217025497767,50.0,2013-12-31 00:00:00,2014-03-27 00:00:00,61.60781149190949,6.35181234947472,827.1416271532134,6.71531457093752
sz300296,2014-04-18,33.16,33.68,32.3,32.95,0.0015199999999999999,3979464.0,131418815.07,1859028290.0,4942500000.0,0.07053326703274646,50.0,2013-12-31 00:00:00,2014-03-27 00:00:00,61.60781149190949,6.35181234947472,827.1416271532134,6.71531457093752
sz300296,2014-04-17,33.39,33.82,32.55,32.9,-0.015854,5136901.0,170449896.11,1856641590.0,4935000000.0,0.09102674625531791,49.93,2013-12-31 00:00:00,2014-03-27 00:00:00,61.514309741103006,6.342172247658279,825.8862800076018,6.705122784305375
sz300296,2014-04-16,29.88,33.43,29.52,33.43,0.10003300000000001,6914111.0,218539343.09,1886551010.0,5014500000.0,0.12251920542026584,50.73,2013-12-31 00:00:00,2014-03-27 00:00:00,62.50526826416306,6.444340827131625,839.1908111272128,6.813138278573886
sz300296,2014-04-15,30.9,32.16,30.26,30.39,-0.019361,4361320.0,135404299.51,1714995070.0,4558500000.0,0.07728332117013025,46.12,2013-12-31 00:00:00,2014-03-27 00:00:00,56.821266511243806,5.858315911551403,762.8778510528437,6.193576264142881
sz300296,2014-04-14,30.45,32.19,30.07,30.99,0.013739,4325568.0,135531168.5,1748854800.0,4648500000.0,0.07664978951940435,47.03,2013-12-31 00:00:00,2014-03-27 00:00:00,57.94310292701372,5.973978101576017,777.9395384569078,6.315857582803541
sz300296,2014-04-11,28.68,30.57,28.2,30.57,0.043345,5401299.0,159553179.18,1725152990.0,4585500000.0,0.09571192316688389,46.39,2013-12-31 00:00:00,2014-03-27 00:00:00,57.15781175136176,5.893013982470849,767.3962809528961,6.230260040112436
sz300296,2014-04-10,30.0,32.46,29.2,29.3,-0.016447999999999997,8274632.0,253012435.7,1653483240.0,4395000000.0,0.146627865184772,44.46,2013-12-31 00:00:00,2014-03-27 00:00:00,54.78323253704361,5.64819305452257,735.515367354898,5.971428472952319
sz300296,2014-04-09,29.54,30.45,28.85,29.79,-0.000336,6121471.0,181789224.86,1681135350.0,4468500000.0,0.10847349149489956,45.21,2013-12-31 00:00:00,2014-03-27 00:00:00,55.699375871376,5.742648130980944,747.8154356403098,6.071289034999999
sz300296,2014-04-08,27.88,29.8,27.23,29.8,0.042687,6515565.0,185235548.66,1681699680.0,4470000000.0,0.11545690310174764,45.22,2013-12-31 00:00:00,2014-03-27 00:00:00,55.71809715201908,5.744578309292867,748.0667860804328,6.0733296737703855
sz300296,2014-04-04,28.5,30.78,28.28,28.58,-0.018207,7395209.0,218141137.59,1612851570.0,4287000000.0,0.13104434230113315,43.37,2013-12-31 00:00:00,2014-03-27 00:00:00,53.437030625699826,5.509398610793906,717.4413664699309,5.824691085407591
sz300296,2014-04-03,29.0,30.2,28.58,29.11,-0.008515,8616726.0,252947906.12,1642760990.0,4366500000.0,0.1526898285185114,44.17,2013-12-31 00:00:00,2014-03-27 00:00:00,54.428001244355805,5.611568437332417,730.7460599840606,5.9327078981084505
sz300296,2014-04-02,29.8,30.25,28.25,29.36,0.067636,11734059.0,344480346.43,1656869210.0,4404000000.0,0.2079294914533417,44.55,2013-12-31 00:00:00,2014-03-27 00:00:00,54.89543588088152,5.659761304843157,737.0218006163086,5.98365875238501
sz300296,2014-04-01,24.5,27.5,24.26,27.5,0.1,4782883.0,126614308.49,1551904060.0,4125000000.0,0.08475348824076148,41.73,2013-12-31 00:00:00,2014-03-27 00:00:00,51.41774526231929,5.301208749839044,690.3306001449076,5.604586912004662
sz300296,2014-03-31,25.75,26.35,24.5,25.0,-0.03698,4605263.0,118054940.49,1410821880.0,3750000000.0,0.08160603165581752,37.94,2013-12-31 00:00:00,2014-03-27 00:00:00,46.74340478392663,4.8192806816718585,627.5732728590069,5.09507901091333
sz300296,2014-03-28,24.9,25.98,24.11,25.96,0.035501,5728726.0,143601402.23,1464997440.0,3894000000.0,0.10151398418825906,39.39,2013-12-31 00:00:00,2014-03-27 00:00:00,48.53835308085671,5.004341219986976,651.6721073903002,5.290730214235768
sz300296,2014-03-27,25.0,26.5,24.9,25.07,0.0036030000000000003,8366505.0,215058366.3,1414772180.0,3760500000.0,0.14825586996628673,38.04,2013-12-31 00:00:00,2014-03-27 00:00:00,46.874269634560186,4.832772947575112,629.3302540415704,5.1093434137057985
sz300296,2014-03-26,22.73,24.98,22.72,24.98,0.09995599999999999,4305637.0,104567360.07,1409693220.0,3747000000.0,0.07629660888913121,37.91,2013-09-30 00:00:00,2013-10-24 00:00:00,60.09007189934104,6.07852784169614,-44.999250070621066,5.379757432480697
sz300296,2014-03-25,22.13,22.72,21.8,22.71,0.024357,1440361.0,32068189.14,1281590590.0,3406500000.0,0.0255234382690029,34.46,2013-09-30 00:00:00,2013-10-24 00:00:00,54.62952327124089,5.526155447759856,-40.91004555693234,4.890884210350866
sz300296,2014-03-24,22.44,23.16,21.75,22.17,-0.023348,2000733.0,44774515.72,1251116840.0,3325500000.0,0.035453323935756474,33.64,2013-09-30 00:00:00,2013-10-24 00:00:00,53.33055103957008,5.394755390708372,-39.93729291343969,4.774589533093312
sz300296,2014-03-21,22.73,23.46,20.85,22.7,-0.012185,4024978.0,88296681.69,1281026260.0,3405000000.0,0.07132328466084684,34.45,2013-09-30 00:00:00,2013-10-24 00:00:00,54.60547978150875,5.523723281894035,-40.89204026965561,4.888731639410263
sz300296,2014-03-20,23.5,24.34,22.95,22.98,-0.022128000000000002,4240591.0,100125733.7,1296827470.0,3447000000.0,0.07514398286149815,34.87,2013-09-30 00:00:00,2013-10-24 00:00:00,55.27905506750631,5.5918600971781505,-41.396456087076636,4.949035638667426
sz300296,2014-03-19,23.88,25.0,23.15,23.5,-0.016736,5680747.0,135279089.25,1326172560.0,3525000000.0,0.10066378880588511,35.66,2013-09-30 00:00:00,2013-10-24 00:00:00,56.52994979660561,5.71839678115147,-42.3332052529131,5.061026022493155
sz300296,2014-03-18,22.48,24.49,22.48,23.9,0.053327,4289233.0,102120238.31,1348745710.0,3585000000.0,0.07600592753692614,36.27,2013-09-30 00:00:00,2013-10-24 00:00:00,57.49213822188711,5.815728818660574,-43.053752860791306,5.147169043606961
sz300296,2014-03-17,20.69,22.86,20.69,22.69,0.07382899999999999,2679357.0,59630907.68,1280461930.0,3403500000.0,0.04747865508973001,34.43,2013-09-30 00:00:00,2013-10-24 00:00:00,54.58147206127548,5.52129473436129,-40.87406176884416,4.8865822708493765
sz300296,2014-03-14,20.0,21.59,20.0,21.13,0.039351,1480044.0,31314087.45,993635610.0,3169500000.0,0.03147364024121479,32.06,2013-09-30 00:00:00,2013-10-24 00:00:00,50.828830345683976,5.141688978749214,-38.063846076837336,4.550614921788643
sz300296,2014-03-13,19.8,20.56,19.71,20.33,0.031456,1008814.0,20465616.51,956015710.0,3049500000.0,0.02145277363695205,30.85,2013-09-30 00:00:00,2013-10-24 00:00:00,48.90439355490492,4.947018840362125,-36.6227059740524,4.378323513219926
sz300296,2014-03-12,20.8,20.8,19.67,19.71,-0.061429,1670244.0,33690912.66,926860290.0,2956500000.0,0.035518307985769895,29.91,2013-09-30 00:00:00,2013-10-24 00:00:00,47.41297113488595,4.796151111014066,-35.5058344457276,4.244799112342093
sz300296,2014-03-11,21.3,21.7,20.75,21.0,-0.028676999999999998,1385655.0,29620140.74,988383380.0,3150000000.0,0.029440757087598943,31.87,2013-09-30 00:00:00,2013-10-24 00:00:00,50.51612625457845,5.1100567895386355,-37.829673456486084,4.52261907979481
sz300296,2014-03-10,20.9,21.8,20.7,21.62,0.040423,2423520.0,51791853.25,1017564220.0,3243000000.0,0.051492084106495015,32.81,2013-09-30 00:00:00,2013-10-24 00:00:00,52.00754667044685,5.260924316152954,-38.946543483976065,4.6561433012446
sz300296,2014-03-07,20.8,21.3,20.7,20.78,-0.0024,1033383.0,21735001.78,978028880.0,3117000000.0,0.021956098821948898,31.53,2013-09-30 00:00:00,2013-10-24 00:00:00,49.98692519335582,5.056524429153289,-37.433374198740374,4.475240648509884
sz300296,2014-03-06,20.51,21.11,20.5,20.83,-0.002395,1025121.0,21436263.9,980382180.0,3124500000.0,0.0217805574862652,31.61,2013-09-30 00:00:00,2013-10-24 00:00:00,50.10718243119068,5.06868928343353,-37.52343043177664,4.486007065467006
sz300296,2014-03-05,20.8,21.3,20.65,20.88,0.003846,907281.0,18967865.42,982735470.0,3132000000.0,0.01927683273709455,31.69,2013-09-30 00:00:00,2013-10-24 00:00:00,50.22747723917852,5.080857938195509,-37.613514799721976,4.496776846013208
sz300296,2014-03-04,20.47,20.9,20.21,20.8,0.014634000000000001,961861.0,19873940.83,978970200.0,3120000000.0,0.02043648397060503,31.56,2013-09-30 00:00:00,2013-10-24 00:00:00,50.03504246585484,5.061391825235653,-37.46940745863607,4.479548502472698
sz300296,2014-03-03,21.19,21.19,20.0,20.5,-0.008704,1650485.0,34097367.35,964850440.0,3075000000.0,0.03506755150570279,31.11,2013-09-30 00:00:00,2013-10-24 00:00:00,49.313390312028616,4.988391701082019,-36.92898863889449,4.4149402666111115
sz300296,2014-02-28,19.81,21.18,19.81,20.68,-0.06,1974122.0,40614051.75,973322300.0,3102000000.0,0.041943807267130324,31.38,2013-09-30 00:00:00,2013-10-24 00:00:00,49.746382828164975,5.032191899374172,-37.25324084722877,4.453705317696341
sz300296,2014-02-19,22.45,22.81,21.8,22.0,-0.024822999999999998,1698132.0,37438942.61,1035449250.0,3300000000.0,0.03607989865268626,33.38,2013-09-30 00:00:00,2013-10-24 00:00:00,52.92168385974997,5.353395637632098,-39.631107284285925,4.7379843805280215
sz300296,2014-02-18,22.45,22.79,21.75,22.56,0.015759,2373893.0,52802015.67,1061806139.9999999,3384000000.0,0.05043766848061361,34.23,2013-09-30 00:00:00,2013-10-24 00:00:00,54.26879823842232,5.489665606994523,-40.63991181527653,4.858589138718429
sz300296,2014-02-17,22.16,22.58,22.0,22.21,0.0022559999999999998,2080725.0,46191321.79,1045333080.0,3331500000.0,0.04420878199893952,33.7,2013-09-30 00:00:00,2013-10-24 00:00:00,53.42684459445825,5.404496152133057,-40.009403623572645,4.783210524069616
sz300296,2014-02-14,21.45,22.2,21.02,22.16,0.02974,1779723.0,38766529.81,1042979790.0,3324000000.0,0.03781344764120501,33.63,2013-09-30 00:00:00,2013-10-24 00:00:00,53.30658493883623,5.392331053276864,-39.919345579944284,4.772443890652304
sz300296,2014-02-13,22.73,22.82,21.49,21.52,-0.056968,2028123.0,45053591.14,1012857630.0,3228000000.0,0.04309115680947183,32.66,2013-09-30 00:00:00,2013-10-24 00:00:00,51.76703336651604,5.236594726121996,-38.76643189537581,4.634610572234062
sz300296,2014-02-12,23.2,23.2,22.1,22.82,-0.016378999999999998,2610625.0,58826046.52,1074043270.0,3423000000.0,0.055467469667213685,34.63,2013-09-30 00:00:00,2013-10-24 00:00:00,54.894248940137814,5.55293428655867,-41.10828889727582,4.914584629401825
sz300296,2014-02-11,23.88,24.17,22.9,23.2,-0.030911,2332104.0,54684653.02,1091928300.0,3480000000.0,0.049549785274362795,35.21,2013-09-30 00:00:00,2013-10-24 00:00:00,55.80833363677454,5.645400298040271,-41.79281338775384,4.996421009110039
sz300296,2014-02-10,23.4,24.3,23.4,23.94,0.027027,2471779.0,59157466.29,1126757050.0,3591000000.0,0.0525174342241746,36.33,2013-09-30 00:00:00,2013-10-24 00:00:00,57.5884502215736,5.825471445904629,-43.12587738355696,5.155791685913305
sz300296,2014-02-07,22.78,23.35,22.3,23.31,0.021472,2082998.0,47968245.42,1097105550.0,3496500000.0,0.04425707570251559,35.37,2013-09-30 00:00:00,2013-10-24 00:00:00,56.0729661650313,5.672169715016869,-41.99098697848934,5.020113089444878
sz300296,2014-01-30,23.3,23.99,22.81,22.82,-0.032641,1387344.0,32589033.59,1074043270.0,3423000000.0,0.0294766430406477,34.63,2013-09-30 00:00:00,2013-10-24 00:00:00,54.89427626506778,5.552937050664991,-41.108309359913285,4.914587075754283
sz300296,2014-01-29,22.3,23.78,22.3,23.59,0.057373,2328689.0,53972450.1,1110283990.0,3538500000.0,0.04947722745241062,35.8,2013-09-30 00:00:00,2013-10-24 00:00:00,56.74654007981295,5.740306391592977,-42.495401769057075,5.080416965939515
sz300296,2014-01-28,22.69,23.07,22.05,22.31,-0.027462999999999998,1911090.0,43051245.54,1050039669.9999999,3346500000.0,0.040604578206078636,33.86,2013-09-30 00:00:00,2013-10-24 00:00:00,53.667475980390044,5.42883768697799,-40.189603639450866,4.804753824752018
sz300296,2014-01-27,23.0,23.15,21.65,22.94,-0.006495999999999999,3660918.0,82960723.66,1079691170.0,3441000000.0,0.0777828524058412,34.81,2013-09-30 00:00:00,2013-10-24 00:00:00,55.18296576931268,5.582139997735808,-41.32449833728781,4.940432934430277
sz300296,2014-01-24,23.55,23.83,22.89,23.09,-0.025738,3444733.0,79500009.68,1086751050.0,3463500000.0,0.07318960949704167,35.04,2013-09-30 00:00:00,2013-10-24 00:00:00,55.5437781521893,5.618638674565788,-41.59469749219711,4.9727358263583
sz300296,2014-01-23,23.28,23.95,23.0,23.7,0.019355,2567960.0,60710287.78,1115461240.0,3555000000.0,0.05456097425671196,35.96,2013-09-30 00:00:00,2013-10-24 00:00:00,57.01113063240617,5.767071562439865,-42.693543925758284,5.104105288267736
sz300296,2014-01-22,23.26,24.33,22.75,23.25,0.021978,5411311.0,127475522.15,1094281590.0,3487500000.0,0.11497313113894204,35.28,2013-09-30 00:00:00,2013-10-24 00:00:00,55.92863196080479,5.657569308474344,-41.88290038873433,5.007191104441274
sz300296,2014-01-21,21.36,22.98,21.36,22.75,0.045977,3754705.0,83083824.48,1070748659.9999999,3412500000.0,0.07977552710642664,34.52,2013-09-30 00:00:00,2013-10-24 00:00:00,54.725866858978165,5.5359012703544925,-40.982193734830226,4.899509680679304
sz300296,2014-01-20,21.2,22.2,21.02,21.75,0.032764,3405126.0,74008891.38,1023682780.0,3262500000.0,0.07234808667974273,33.01,2013-09-30 00:00:00,2013-10-24 00:00:00,52.32033482474105,5.292565008938527,-39.18077905616494,4.6841466692664415
sz300296,2014-01-17,20.3,21.8,20.1,21.06,0.012987,2499725.0,52745309.03,991207330.0,3159000000.0,0.0531111977349885,31.96,2013-09-30 00:00:00,2013-10-24 00:00:00,50.66049438665663,5.124660628118841,-37.93778545356435,4.535544102298726
sz300296,2014-01-16,20.8,21.85,20.51,20.79,0.008734,3003919.0,63542623.73,978499540.0,3118500000.0,0.06382371524671335,31.55,2013-09-30 00:00:00,2013-10-24 00:00:00,50.01100151004566,5.058959915693726,-37.45140406892126,4.477396158389718
sz300296,2014-01-15,20.21,21.87,19.93,20.61,0.015271000000000002,3541743.0,74253263.44,970027680.0,3091500000.0,0.07525076318440728,31.28,2013-09-30 00:00:00,2013-10-24 00:00:00,49.577987368370316,5.0151575298282065,-37.1271356660143,4.438629171208384
sz300296,2014-01-14,19.8,20.35,19.34,20.3,0.025253,2843817.0,56781014.74,955437260.0,3045000000.0,0.06042205754043965,30.81,2013-09-30 00:00:00,2013-10-24 00:00:00,48.83226977661168,4.939723019595957,-36.56869512279411,4.371866399422799
sz300296,2014-01-13,18.9,19.98,18.6,19.8,0.036649,3942507.0,76000696.32,931904330.0,2970000000.0,0.083765721530664,30.05,2013-09-30 00:00:00,2013-10-24 00:00:00,47.62948245614661,4.818052733906613,-35.667971830166906,4.264182986465583
sz300296,2014-01-10,19.6,19.98,18.92,19.1,0.015416999999999998,2992693.0,58219839.19,898958210.0,2865000000.0,0.06358519858225668,28.98,2013-09-30 00:00:00,2013-10-24 00:00:00,45.94562137825495,4.647718498649604,-34.406990051759955,4.113429894270465
sz300296,2014-01-09,20.28,20.87,18.7,18.81,-0.054774,3244572.0,64297719.5,885309110.0,2821500000.0,0.0689368251502574,28.54,2013-09-30 00:00:00,2013-10-24 00:00:00,45.24803246179151,4.577152537971695,-33.884591307571135,4.050975997319786
sz300296,2014-01-08,19.74,20.41,19.28,19.9,0.015306,3964629.0,78673827.01,936610910.0,2985000000.0,0.08423574427506934,30.2,2013-09-30 00:00:00,2013-10-24 00:00:00,47.8700675412986,4.842389585106307,-35.84813717308997,4.285722141921388
sz300296,2014-01-07,18.8,19.6,18.43,19.6,0.015544,2881978.0,54940656.77,922491150.0,2940000000.0,0.06123285713906307,29.74,2013-09-30 00:00:00,2013-10-24 00:00:00,47.14841391787166,4.76938931229236,-35.30771725281833,4.221113774489059
sz300296,2014-01-06,18.2,19.82,18.2,19.3,0.07103200000000001,5388810.0,104344015.37,908371390.0,2895000000.0,0.114495055816322,29.29,2013-09-30 00:00:00,2013-10-24 00:00:00,46.42675641613919,4.696388647160892,-34.76729442822598,4.156505059838922
sz300296,2014-01-03,18.31,18.87,17.82,18.02,-0.023306,2253386.0,41433415.11,848127070.0,2703000000.0,0.04787727824793989,27.35,2013-09-30 00:00:00,2013-10-24 00:00:00,43.34768374440651,4.384919075397272,-32.46148987913151,3.880841151187754
sz300296,2014-01-02,17.21,18.72,17.21,18.45,0.063401,2759673.0,50034841.53,868365390.0,2767500000.0,0.05863426552502282,28.0,2013-09-30 00:00:00,2013-10-24 00:00:00,44.38205184469906,4.489552588013515,-33.236090197269064,3.973446290432576
sz300296,2013-12-31,17.6,17.8,17.16,17.35,-0.011396,2189031.0,38365663.63,816592930.0,2602500000.0,0.04650993959744423,26.33,2013-09-30 00:00:00,2013-10-24 00:00:00,41.73595082635719,4.221881104130535,-31.25452223316422,3.736545565062075
sz300296,2013-12-30,16.95,17.61,16.75,17.55,0.040308,2012777.0,34836020.48,826006110.0,2632500000.0,0.04276510297242233,26.63,2013-09-30 00:00:00,2013-10-24 00:00:00,42.21705640110417,4.270548272240994,-31.61480454576779,3.779618092848173
sz300296,2013-12-27,16.37,17.11,16.3,16.87,0.01018,1702853.0,28817192.88,794001310.0,2530500000.0,0.03618020492938482,25.6,2013-09-30 00:00:00,2013-10-24 00:00:00,40.58130515299717,4.105080680184131,-30.389850453680825,3.633172188282867
sz300296,2013-12-26,16.87,17.16,16.34,16.7,-0.00949,1391917.0,23290337.88,786000110.0,2505000000.0,0.029573804894251224,25.34,2013-09-30 00:00:00,2013-10-24 00:00:00,40.17235062364842,4.063712091096766,-30.083599411670022,3.5965592154693886
sz300296,2013-12-25,16.0,16.95,15.91,16.86,0.050467000000000005,2489748.0,40973281.43,793530650.0,2529000000.0,0.05289921854940322,25.58,2013-09-30 00:00:00,2013-10-24 00:00:00,40.557238820050706,4.102646203568633,-30.371828059959032,3.63101757222985
sz300296,2013-12-24,15.6,16.09,15.55,16.05,0.027529,1345467.0,21386891.38,755407290.0,2407500000.0,0.028586890325085428,24.36,2013-09-30 00:00:00,2013-10-24 00:00:00,38.60877002328555,3.9055450609763396,-28.912691269653433,3.456574620839921
sz300296,2013-12-23,16.1,16.29,15.5,15.62,-0.029814,728567.0,11578843.57,735168970.0,2343000000.0,0.01547972915668625,23.7,2013-09-30 00:00:00,2013-10-24 00:00:00,37.574384784551626,3.8009098146877993,-28.13807811716597,3.363967947220878
sz300296,2013-12-20,16.08,16.46,16.02,16.1,-0.004944,728088.0,11825089.71,757760590.0,2415000000.0,0.01546955193328278,24.43,2013-09-30 00:00:00,2013-10-24 00:00:00,38.729052763647,3.9177124950141513,-29.002766600596143,3.467343320992962
sz300296,2013-12-19,16.55,16.82,16.16,16.18,-0.025887999999999998,1090605.0,17947293.48,761525860.0,2427000000.0,0.023171884011923116,24.55,2013-09-30 00:00:00,2013-10-24 00:00:00,38.9214805635532,3.9371779025644296,-29.146868719545576,3.484571040215789
sz300296,2013-12-18,16.31,17.13,16.31,16.61,0.016524,1067750.0,17837698.16,781764180.0,2491500000.0,0.02268628821033985,25.21,2013-09-30 00:00:00,2013-10-24 00:00:00,39.9558578105528,4.041812340433574,-29.921475887316426,3.577176998349049
sz300296,2013-12-17,16.82,16.82,16.32,16.34,-0.022727,1038206.0,17175823.25,769056400.0,2451000000.0,0.022058572089121164,24.8,2013-09-30 00:00:00,2013-10-24 00:00:00,39.306359525749315,3.9761110809322497,-29.435090452676402,3.5190285702541693
sz300296,2013-12-16,17.09,17.1,16.69,16.72,-0.021077000000000002,743128.0,12493804.6,666783150.0,2508000000.0,0.01863439434544799,25.37,2013-09-30 00:00:00,2013-10-24 00:00:00,40.22044968575753,4.068577645071796,-30.119619034472866,3.60086543908833
sz300296,2013-12-13,16.91,17.36,16.6,17.08,0.004706,1565311.0,26615371.1,681139730.0,2562000000.0,0.039251141436133806,25.92,2013-09-30 00:00:00,2013-10-24 00:00:00,41.086428335791,4.156177396048307,-30.76811867171664,3.678394969868243
sz300296,2013-12-12,17.06,17.16,16.83,17.0,0.0,839082.0,14298933.84,677949380.0,2550000000.0,0.0210405001034148,25.8,2013-09-30 00:00:00,2013-10-24 00:00:00,40.89398125998152,4.136710038606624,-30.624002117750504,3.6611655249080255
sz300296,2013-12-11,16.86,17.23,16.7,17.0,0.005917,816100.0,13879949.01,677949380.0,2550000000.0,0.020464212239562785,25.8,2013-09-30 00:00:00,2013-10-24 00:00:00,40.89398125998152,4.136710038606624,-30.624002117750504,3.6611655249080255
sz300296,2013-12-10,17.29,17.3,16.73,16.9,-0.008216,809562.0,13667578.25,673961440.0,2535000000.0,0.020300267920372417,25.65,2013-09-30 00:00:00,2013-10-24 00:00:00,40.653434885762465,4.1123771032864775,-30.44386576402477,3.6396298351733054
sz300296,2013-12-09,16.79,17.13,16.79,17.04,0.01489,731371.0,12430572.73,679544550.0,2556000000.0,0.018339580296832636,25.86,2013-09-30 00:00:00,2013-10-24 00:00:00,40.99021045485959,4.146444289569581,-30.69606463103334,3.6697807538469114
sz300296,2013-12-06,16.7,16.91,16.57,16.79,0.005389,866251.0,14495992.24,669574710.0,2518500000.0,0.021721779620380226,25.48,2013-09-30 00:00:00,2013-10-24 00:00:00,40.38882091148754,4.0856095631739215,-30.2457060676855,3.615939415943512
sz300296,2013-12-05,16.99,17.25,16.7,16.7,-0.017069,992391.0,16735615.08,665985560.0,2505000000.0,0.024884818373539508,25.34,2013-09-30 00:00:00,2013-10-24 00:00:00,40.17233221319065,4.063710228751181,-30.0835856247537,3.5965575672137966
sz300296,2013-12-04,17.29,17.55,16.91,16.99,-0.017351,1739102.0,30088998.03,677550580.0,2548500000.0,0.04360905864769535,25.78,2013-09-30 00:00:00,2013-10-24 00:00:00,40.869941240219966,4.1342782237524105,-30.605999429007426,3.659013264627727
sz300296,2013-12-03,16.98,17.55,16.34,17.29,-0.038376,1830751.0,31051915.33,689514390.0,2593500000.0,0.04590721419171542,26.24,2013-09-30 00:00:00,2013-10-24 00:00:00,41.591597040469146,4.207278716767036,-31.146420979421364,3.723621826947086
sz300296,2013-12-02,18.95,18.95,17.98,17.98,-0.1001,2900976.0,52988345.22,717031160.0,2697000000.0,0.07274376817877762,27.28,2013-09-30 00:00:00,2013-10-24 00:00:00,43.25141327636284,4.375180649367149,-32.389396457889326,3.8722222271356435
sz300296,2013-11-29,19.3,20.09,19.24,19.98,0.039001999999999995,2921516.0,57917678.5,796789910.0,2997000000.0,0.07325882136233376,30.32,2013-09-30 00:00:00,2013-10-24 00:00:00,48.062466136640566,4.861852038412212,-35.99221742181278,4.3029472465114385
sz300296,2013-11-28,19.21,19.58,19.0,19.23,0.002607,1968934.0,37956146.65,721125000.0,2884500000.0,0.05250490666666666,29.18,2013-09-30 00:00:00,2013-10-24 00:00:00,46.258299923042074,4.679348103672766,-34.641143541410685,4.141423449147776
sz300296,2013-11-27,19.4,19.67,19.08,19.18,-0.023422,2452301.0,47461734.02,719250000.0,2877000000.0,0.06539469333333334,29.11,2013-09-30 00:00:00,2013-10-24 00:00:00,46.13801810982975,4.6671807634225235,-34.55106890477593,4.130654832000751
sz300296,2013-11-26,19.3,20.17,19.3,19.64,-0.015538999999999999,2570260.0,50535605.16,736500000.0,2946000000.0,0.06854026666666667,29.8,2013-09-30 00:00:00,2013-10-24 00:00:00,47.244580678481135,4.77911724759571,-35.3797330113682,4.229723413798745
sz300296,2013-11-25,21.8,21.8,19.81,19.95,-0.029197000000000004,7543432.0,158686822.88,748125000.0,2992500000.0,0.20115818666666666,30.27,2013-09-30 00:00:00,2013-10-24 00:00:00,47.990301980963324,4.854552133193402,-35.938176333413104,4.2964865177988205
sz300296,2013-11-22,20.55,20.55,20.14,20.55,0.100107,3344054.0,68687142.19,770625000.0,3082500000.0,0.08917477333333333,31.18,2013-09-30 00:00:00,2013-10-24 00:00:00,49.43361524527975,5.000553287529398,-37.01902068021329,4.425703791396216
sz300296,2013-09-26,18.51,19.21,18.46,18.68,0.0,2349775.0,44385030.19,700500000.0,2802000000.0,0.06266066666666667,28.35,2013-06-30 00:00:00,2013-08-15 00:00:00,45.52621976959354,4.757842815522599,-58.85503579924142,4.098788665822604
sz300296,2013-09-25,19.08,19.22,18.63,18.68,-0.021477,2529275.0,47775831.27,700500000.0,2802000000.0,0.06744733333333333,28.35,2013-06-30 00:00:00,2013-08-15 00:00:00,45.52621976959354,4.757842815522599,-58.85503579924142,4.098788665822604
sz300296,2013-09-24,19.14,19.19,18.35,19.09,-0.010881,3339224.0,62667012.43,715875000.0,2863500000.0,0.08904597333333333,28.97,2013-06-30 00:00:00,2013-08-15 00:00:00,46.52544679030901,4.862269783666402,-60.14680881209887,4.188750459439997
sz300296,2013-09-23,18.95,19.5,18.68,19.3,0.010471,2901517.0,55463316.14,723750000.0,2895000000.0,0.07737378666666667,29.29,2013-06-30 00:00:00,2013-08-15 00:00:00,47.03725920774852,4.915758148075613,-60.80846572768177,4.234829640761118
sz300296,2013-09-18,18.33,19.25,18.01,19.1,0.040872000000000006,2807958.0,52369498.92,716250000.0,2865000000.0,0.07487888,28.98,2013-06-30 00:00:00,2013-08-15 00:00:00,46.54983587628791,4.864818632178077,-60.17833834685189,4.190946242654286
sz300296,2013-09-17,19.57,19.6,18.33,18.35,-0.06234,2988845.0,56176308.13,688125000.0,2752500000.0,0.07970253333333334,27.85,2013-06-30 00:00:00,2013-08-15 00:00:00,44.72195993002781,4.673791428896229,-57.81531095740099,4.026380037751314
sz300296,2013-09-16,19.6,20.4,19.4,19.57,-0.006599,4006597.0,79954585.99,733875000.0,2935500000.0,0.10684258666666667,29.7,2013-06-30 00:00:00,2013-08-15 00:00:00,47.69528393023891,4.984526831576723,-61.65914186101678,4.2940725185582345
sz300296,2013-09-13,18.5,19.98,18.21,19.7,0.071234,6934075.0,133394281.88,738750000.0,2955000000.0,0.18490866666666667,29.89,2013-06-30 00:00:00,2013-08-15 00:00:00,48.01211588295049,5.017638226231624,-62.06873343294075,4.322597338394298
sz300296,2013-09-12,18.16,18.48,17.8,18.39,0.010995,3115039.0,56744656.51,689625000.0,2758500000.0,0.08306770666666667,27.91,2013-06-30 00:00:00,2013-08-15 00:00:00,44.81944736906268,4.683979621848844,-57.941340018091985,4.035156967006553
sz300296,2013-09-11,19.14,19.18,17.92,18.19,-0.052110000000000004,3733741.0,68457301.92,682125000.0,2728500000.0,0.09956642666666667,27.6,2013-06-30 00:00:00,2013-08-15 00:00:00,44.33201684386439,4.633039354149965,-57.311203337397295,3.9912729212375457
sz300296,2013-09-10,19.1,19.49,18.96,19.19,0.003136,2663405.0,51007297.9,719625000.0,2878500000.0,0.07102413333333334,29.12,2013-06-30 00:00:00,2013-08-15 00:00:00,46.76915764895124,4.887739457268212,-60.46187145913271,4.210692085830156
sz300296,2013-09-09,19.98,20.2,18.76,19.13,-0.039176,5404184.0,103329864.63,717375000.0,2869500000.0,0.14411157333333333,29.03,2013-06-30 00:00:00,2013-08-15 00:00:00,46.62294808376056,4.872459424512939,-60.272855783395975,4.197528636027573
sz300296,2013-09-06,20.66,20.8,19.78,19.91,-0.047368,4859213.0,97686222.43,746625000.0,2986500000.0,0.12957901333333333,30.21,2013-06-30 00:00:00,2013-08-15 00:00:00,48.52392122153544,5.071125850845669,-62.73038119717657,4.368675882396332
sz300296,2013-09-05,20.6,21.49,20.0,20.9,0.007229000000000001,4405032.0,91869157.07,783750000.0,3135000000.0,0.11746752,31.72,2013-06-30 00:00:00,2013-08-15 00:00:00,50.93669037103041,5.323278927062779,-65.84954231768046,4.585900833056555
sz300296,2013-09-04,20.64,21.55,20.4,20.75,-0.004319,2943823.0,61362444.36,778125000.0,3112500000.0,0.07850194666666667,31.49,2013-06-30 00:00:00,2013-08-15 00:00:00,50.57111180380073,5.285073133381564,-65.37693247283434,4.55298728795195
sz300296,2013-09-03,20.37,20.9,20.0,20.84,0.022571,3582450.0,73121105.35,781500000.0,3126000000.0,0.095532,31.62,2013-06-30 00:00:00,2013-08-15 00:00:00,50.79047586907929,5.3079983783777775,-65.66052025983657,4.5727369387905865
sz300296,2013-09-02,20.1,20.88,19.0,20.38,-0.00391,4057941.0,81468943.12,764250000.0,3057000000.0,0.10821176,30.93,2013-06-30 00:00:00,2013-08-15 00:00:00,49.669388110047414,5.190836018601914,-64.21120906014015,4.4718038540019105
sz300296,2013-08-30,22.01,22.88,20.46,20.46,-0.082511,5009683.0,108677865.89,767250000.0,3069000000.0,0.13359154666666667,31.05,2013-06-30 00:00:00,2013-08-15 00:00:00,49.86435774884539,5.211211856962637,-64.46326040833675,4.489357240813491
sz300296,2013-08-29,22.58,22.99,22.23,22.3,-0.017621,3273072.0,74097352.5,836250000.0,3345000000.0,0.08728192,33.84,2013-06-30 00:00:00,2013-08-15 00:00:00,54.348725433051946,5.679863035919382,-70.26052672929785,4.893091078817829
sz300296,2013-08-28,23.03,23.45,22.31,22.7,-0.034043000000000004,4837183.0,110364172.66,851250000.0,3405000000.0,0.12899154666666668,34.45,2013-06-30 00:00:00,2013-08-15 00:00:00,55.323582276343394,5.781743131642047,-71.52079465185824,4.980858791584336
sz300296,2013-08-27,23.02,25.1,22.8,23.5,0.010753,6036275.0,145006308.42,881250000.0,3525000000.0,0.16096733333333332,35.66,2013-06-30 00:00:00,2013-08-15 00:00:00,57.2733385402698,5.985507772749767,-74.04138553978929,5.156398050414601
sz300296,2013-08-26,22.9,23.7,22.3,23.25,0.002587,5221293.0,119658301.31,871875000.0,3487500000.0,0.13923448,35.28,2013-06-30 00:00:00,2013-08-15 00:00:00,56.66403022327887,5.9218303311983895,-73.25368862599396,5.101541178126209
sz300296,2013-08-23,21.99,24.16,21.81,23.19,0.056011,9516747.0,221946279.19,869625000.0,3478500000.0,0.25377992,35.19,2013-06-30 00:00:00,2013-08-15 00:00:00,56.517818626492144,5.906550086125583,-73.06467032386612,5.0883775454162175
sz300296,2013-08-22,21.3,22.3,21.02,21.96,0.026168,5175617.0,111669446.01,823500000.0,3294000000.0,0.13801645333333334,33.32,2013-06-30 00:00:00,2013-08-15 00:00:00,53.52010407703342,5.593265682010494,-69.18930799382404,4.818489149654897
sz300296,2013-08-21,22.1,22.25,21.31,21.4,-0.042506,5843743.0,126620727.55,802500000.0,3210000000.0,0.15583314666666667,32.47,2013-06-30 00:00:00,2013-08-15 00:00:00,52.15530407987135,5.450633504465636,-67.42493236372997,4.695614314278848
sz300296,2013-08-20,20.51,22.78,20.41,22.35,0.079189,9327112.0,208310492.63,838125000.0,3352500000.0,0.24872298666666667,33.92,2013-06-30 00:00:00,2013-08-15 00:00:00,54.47063279756463,5.692603300350328,-70.41812519319177,4.904066567810188
sz300296,2013-08-19,19.51,20.91,19.41,20.71,0.040181,3537051.0,71882091.72,776625000.0,3106500000.0,0.09432136,31.43,2013-06-30 00:00:00,2013-08-15 00:00:00,50.47367309856256,5.274890033488414,-65.25096641384575,4.544214746267973
sz300296,2013-08-16,21.75,22.24,19.9,19.91,-0.099095,6529177.0,138152815.36,746625000.0,2986500000.0,0.17411138666666667,30.21,2013-06-30 00:00:00,2013-08-15 00:00:00,48.523932948748886,5.071127076430366,-62.73039635779325,4.368676938213612
sz300296,2013-08-15,21.0,22.34,20.69,22.1,0.055901,8801119.0,190534375.19,828750000.0,3315000000.0,0.23469650666666667,33.54,2013-06-30 00:00:00,2013-08-15 00:00:00,53.86132050410297,5.628925443226939,-69.63042313872523,4.849209337514624
sz300296,2013-08-14,20.86,21.21,20.0,20.93,-0.002859,5223174.0,108112441.22,784875000.0,3139500000.0,0.13928464,31.76,2013-03-31 00:00:00,2013-04-24 00:00:00,59.899383362263116,5.681426110945319,-35.016778203906334,4.69892774023603
sz300296,2013-08-13,20.54,21.25,20.32,20.99,0.016465,4887927.0,102129092.79,787125000.0,3148500000.0,0.13034472,31.85,2013-03-31 00:00:00,2013-04-24 00:00:00,60.071126713537126,5.697715880648093,-35.1171782164271,4.712400493246221
sz300296,2013-08-12,20.96,21.3,19.76,20.65,-0.022716999999999998,5836496.0,118736834.58,774375000.0,3097500000.0,0.15563989333333333,31.34,2013-03-31 00:00:00,2013-04-24 00:00:00,59.09807687774506,5.605422597578955,-34.54833980159386,4.636067639560853
sz300296,2013-08-09,21.33,21.69,20.56,21.13,-0.021306,4989340.0,105595954.01,792375000.0,3169500000.0,0.13304906666666666,32.06,2013-03-31 00:00:00,2013-04-24 00:00:00,60.471815101403635,5.735720970874306,-35.351417963470006,4.743833300651758
sz300296,2013-08-08,21.77,22.1,21.0,21.59,-0.027476999999999998,8724531.0,188242508.71,809625000.0,3238500000.0,0.23265416,32.76,2013-03-31 00:00:00,2013-04-24 00:00:00,61.78827611225125,5.860586629604662,-36.1210122504787,4.847105735451282
sz300296,2013-08-07,22.98,24.1,22.2,22.2,-0.042277999999999996,10126620.0,233208636.96,832500000.0,3330000000.0,0.2700432,33.69,2013-03-31 00:00:00,2013-04-24 00:00:00,63.53399982545529,6.026167637788168,-37.14155063734092,4.98405254729326
sz300296,2013-08-06,22.3,23.5,22.21,23.18,0.028394,9703567.0,222003514.49,869250000.0,3477000000.0,0.25876178666666666,35.18,2013-03-31 00:00:00,2013-04-24 00:00:00,66.33866594424615,6.2921887956924545,-38.78113965988139,5.204070228409978
sz300296,2013-08-05,24.3,24.4,22.1,22.54,0.00625,15697687.0,367799197.87,845250000.0,3381000000.0,0.4186049866666667,34.2,2013-03-31 00:00:00,2013-04-24 00:00:00,64.50705269016169,6.118461208148291,-37.71039082285718,5.0603856385879125
sz300296,2013-08-02,22.4,22.4,22.4,22.4,0.10019600000000001,2464423.0,55203075.2,840000000.0,3360000000.0,0.06571794666666667,33.99,2013-03-31 00:00:00,2013-04-24 00:00:00,64.1063877666203,6.080458343501408,-37.47616479290154,5.028954671888608
sz300296,2013-08-01,19.6,20.36,19.4,20.36,0.09994600000000001,5585826.0,112430936.25,763500000.0,3054000000.0,0.14895536,30.9,2013-03-31 00:00:00,2013-04-24 00:00:00,58.2681520080243,5.526704644900916,-34.06317128302734,4.5709625120329545
sz300296,2013-07-31,17.29,18.51,17.06,18.51,0.09982200000000001,4508021.0,81050793.76,694125000.0,2776500000.0,0.12021389333333334,28.09,2013-03-31 00:00:00,2013-04-24 00:00:00,52.97364780455067,5.024523608341605,-30.968039597423267,4.15562446886752
sz300296,2013-07-30,15.41,16.83,15.37,16.83,0.1,5592497.0,92010048.39,631125000.0,2524500000.0,0.1491332533333333,25.54,2013-03-31 00:00:00,2013-04-24 00:00:00,48.16565571933519,4.568487999277705,-28.157319636653263,3.778451848451404
sz300296,2013-07-29,16.25,16.3,15.2,15.3,-0.020487000000000002,5873884.0,92595816.64,573750000.0,2295000000.0,0.15663690666666666,23.22,2013-03-31 00:00:00,2013-04-24 00:00:00,43.78695974485017,4.153170908434277,-25.597563306048418,3.4349562258649122
sz300296,2013-07-26,14.98,15.62,14.5,15.62,0.1,6267202.0,96963462.59,585750000.0,2343000000.0,0.16712538666666665,23.7,2013-03-31 00:00:00,2013-04-24 00:00:00,44.702785715809966,4.240036536967122,-26.132949032885136,3.5068000382485094
sz300296,2013-07-25,15.07,15.2,13.65,14.2,-0.063942,2809462.0,40218051.4,532500000.0,2130000000.0,0.07491898666666667,21.55,2013-03-31 00:00:00,2013-04-24 00:00:00,40.63889610528178,3.854578669970111,-23.757226393531937,3.1880000347713717
sz300296,2013-07-24,15.15,15.27,14.68,15.17,0.034082999999999995,2649781.0,39686072.91,568875000.0,2275500000.0,0.07066082666666666,23.02,2013-03-31 00:00:00,2013-04-24 00:00:00,43.41493380247995,4.117884436616225,-25.380079432612014,3.4057719017105472
sz300296,2013-07-23,14.6,15.25,14.38,14.67,0.015928,3534695.0,51809390.79,550125000.0,2200500000.0,0.09425853333333334,22.26,2013-03-31 00:00:00,2013-04-24 00:00:00,41.98399335689683,3.982160461603396,-24.543561235038204,3.2935188971393465
sz300296,2013-07-22,13.94,14.65,13.8,14.44,0.017618,2356399.0,33660601.36,541500000.0,2166000000.0,0.06283730666666666,21.91,2013-03-31 00:00:00,2013-04-24 00:00:00,41.325756704113715,3.9197270491643073,-24.15876049782879,3.2418821974976053
sz300296,2013-07-19,13.89,14.88,13.8,14.19,0.015021000000000001,4235143.0,60929028.26,532125000.0,2128500000.0,0.11293714666666667,21.53,2013-03-31 00:00:00,2013-04-24 00:00:00,40.61028470812596,3.8518648934711335,-23.740500362443267,3.1857555561100583
sz300296,2013-07-18,13.05,14.45,12.91,13.98,0.060698,5172674.0,71426266.47,524250000.0,2097000000.0,0.13793797333333332,21.21,2013-03-31 00:00:00,2013-04-24 00:00:00,40.00930493864261,3.794862267353221,-23.38917161560526,3.1386104879702574
sz300296,2013-07-17,12.32,13.54,12.32,13.18,0.070674,5403431.0,71229325.19,494250000.0,1977000000.0,0.14409149333333332,20.0,2013-03-31 00:00:00,2013-04-24 00:00:00,37.71978917528138,3.5777028592051847,-22.050736039480853,2.9590048137832423
sz300296,2013-07-16,12.54,12.59,12.2,12.31,0.002443,1813862.0,22419430.43,461625000.0,1846500000.0,0.04836965333333333,18.68,2013-03-31 00:00:00,2013-04-24 00:00:00,35.22994784152915,3.3415426723775727,-20.595191477033023,2.763684196854731
sz300296,2013-07-15,11.8,12.39,11.8,12.28,0.042445,2452441.0,29700464.59,460500000.0,1842000000.0,0.06539842666666666,18.63,2013-03-31 00:00:00,2013-04-24 00:00:00,35.144090827637235,3.333399178185266,-20.54500004193059,2.7569489705197516
sz300296,2013-07-12,11.46,12.18,11.45,11.78,0.037885,2618236.0,31226851.26,441750000.0,1767000000.0,0.06981962666666666,17.88,2013-03-31 00:00:00,2013-04-24 00:00:00,33.71313673876055,3.1976739091129662,-19.70847386857876,2.644694895672915
sz300296,2013-07-11,11.06,11.44,11.0,11.35,0.022522999999999998,895908.0,10078989.13,425625000.0,1702500000.0,0.02389088,17.22,2013-03-31 00:00:00,2013-04-24 00:00:00,32.48253586742321,3.0809520410382323,-18.98907284388806,2.5481579324037966
sz300296,2013-07-10,10.85,11.1,10.76,11.1,0.030641,747039.0,8167130.42,416250000.0,1665000000.0,0.01992104,16.84,2013-03-31 00:00:00,2013-04-24 00:00:00,31.76704667515861,3.0130882542869277,-18.570802655674306,2.4920299420196868
sz300296,2013-07-09,10.6,10.87,10.6,10.77,0.00186,628070.0,6755335.57,403875000.0,1615500000.0,0.016748533333333333,16.34,2013-03-31 00:00:00,2013-04-24 00:00:00,30.82261104997629,2.9235090145714446,-18.018691916656053,2.417941787702689
sz300296,2013-07-08,11.1,11.1,10.65,10.75,-0.049513999999999996,1565766.0,16936888.13,403125000.0,1612500000.0,0.04175376,16.31,2013-03-31 00:00:00,2013-04-24 00:00:00,30.765387429357688,2.918081383198695,-17.9852393714252,2.41345276555875
sz300296,2013-07-05,11.65,12.05,11.21,11.31,-0.04557,1757120.0,20621324.48,424125000.0,1696500000.0,0.04685653333333333,17.16,2013-03-31 00:00:00,2013-04-24 00:00:00,32.36805952887017,3.0700940184270946,-18.922150743330466,2.539177605518388
sz300296,2013-07-04,12.22,12.22,11.85,11.85,-0.034230000000000003,2698575.0,32523813.63,444375000.0,1777500000.0,0.071962,17.98,2013-03-31 00:00:00,2013-04-24 00:00:00,33.913497615194586,3.2166780365528056,-19.825603494578402,2.6604126080680484
sz300296,2013-07-03,12.11,12.48,12.02,12.27,-0.000814,2285697.0,27997400.2,460125000.0,1840500000.0,0.06095192,18.62,2013-03-31 00:00:00,2013-04-24 00:00:00,35.115501222024484,3.33068746860309,-20.528286750032002,2.754706201339914
sz300296,2013-07-02,12.01,12.38,11.91,12.28,0.009039,3633324.0,44240036.57,460500000.0,1842000000.0,0.09688864,18.63,2013-03-31 00:00:00,2013-04-24 00:00:00,35.144108526364946,3.3334008569006066,-20.54501038848823,2.7569503589320847
sz300296,2013-07-01,11.6,12.22,11.2,12.17,0.038396,4017506.0,47859484.62,456375000.0,1825500000.0,0.10713349333333333,18.47,2013-03-31 00:00:00,2013-04-24 00:00:00,34.82928660474466,3.303540157417708,-20.360967602330764,2.732253519370495
sz300296,2013-06-28,11.8,12.1,11.46,11.72,0.014719,4513735.0,53175306.37,439500000.0,1758000000.0,0.12036626666666667,17.79,2013-03-31 00:00:00,2013-04-24 00:00:00,33.541429863698106,3.1813875991603475,-19.608095179806895,2.6312250041125878
sz300296,2013-06-27,11.14,11.75,11.03,11.55,0.036804,3381748.0,38703847.02,433125000.0,1732500000.0,0.09017994666666666,17.53,2013-03-31 00:00:00,2013-04-24 00:00:00,33.05489486616305,3.1352400015771336,-19.323670079900836,2.593057786552324
sz300296,2013-06-26,10.73,11.24,10.61,11.14,0.041121,1307192.0,14367712.02,417750000.0,1671000000.0,0.03485845333333333,16.9,2013-03-31 00:00:00,2013-04-24 00:00:00,31.881527141256257,3.0239466683935765,-18.637727169166823,2.5010105926986435
sz300296,2013-06-25,10.51,10.83,9.63,10.7,0.001873,1095440.0,11338860.34,401250000.0,1605000000.0,0.029211733333333333,16.24,2013-03-31 00:00:00,2013-04-24 00:00:00,30.622307245033245,2.90451030033356,-17.90159565426768,2.4022285523955844
sz300296,2013-06-24,11.27,11.3,10.5,10.68,-0.043011,1249872.0,13582487.17,400500000.0,1602000000.0,0.03332992,16.21,2013-03-31 00:00:00,2013-04-24 00:00:00,30.56505888973278,2.8990803228887896,-17.86812864930753,2.3977375898897213
sz300296,2013-06-21,10.78,11.3,10.51,11.16,0.018248,1177371.0,12913494.88,418500000.0,1674000000.0,0.03139656,16.94,2013-03-31 00:00:00,2013-04-24 00:00:00,31.9387776554723,3.0293768506103933,-18.671195436214553,2.505501724564986
sz300296,2013-06-20,11.27,11.52,10.9,10.96,-0.029229,1306835.0,14711875.3,411000000.0,1644000000.0,0.03484893333333333,16.63,2013-03-31 00:00:00,2013-04-24 00:00:00,31.366403523966948,2.975087454736364,-18.336589353688446,2.460600683296197
sz300296,2013-06-19,11.23,11.39,11.0,11.29,-0.0008849999999999999,1106603.0,12358649.97,423375000.0,1693500000.0,0.029509413333333335,17.13,2013-03-31 00:00:00,2013-04-24 00:00:00,32.310816375815655,3.064664534412713,-18.88868677956845,2.534687051113184
sz300296,2013-06-18,11.64,11.64,11.13,11.3,-0.028375,1664708.0,18805162.11,423750000.0,1695000000.0,0.04439221333333333,17.15,2013-03-31 00:00:00,2013-04-24 00:00:00,32.33943677736362,3.0673791649737145,-18.905418074564437,2.5369322361421696
sz300296,2013-06-17,11.36,11.88,11.3,11.63,0.013066,2550096.0,29600914.73,436125000.0,1744500000.0,0.06800256,17.65,2013-03-31 00:00:00,2013-04-24 00:00:00,33.28386648898868,3.156957843791292,-19.457525356556733,2.61101992655826
sz300296,2013-06-14,11.16,11.66,11.16,11.48,0.032374,2048128.0,23475879.87,430500000.0,1722000000.0,0.05461674666666667,17.42,2013-03-31 00:00:00,2013-04-24 00:00:00,32.85458843647766,3.1162410383837704,-19.20657228310568,2.5773443453420217
sz300296,2013-06-13,11.15,11.2,10.61,11.12,0.0009,1646430.0,18108678.82,417000000.0,1668000000.0,0.0439048,16.87,2013-03-31 00:00:00,2013-04-24 00:00:00,31.82430828021401,3.018519488464229,-18.604277406352423,2.496521943929255
sz300296,2013-06-07,10.95,11.16,10.83,11.11,0.02302,1108959.0,12260672.6,416625000.0,1666500000.0,0.02957224,16.86,2013-03-31 00:00:00,2013-04-24 00:00:00,31.795692157272473,3.0158052637268753,-18.587548612601086,2.494277094544166
sz300296,2013-06-06,11.2,11.32,10.8,10.86,-0.038087,1104846.0,12219663.46,407250000.0,1629000000.0,0.02946256,16.48,2013-03-31 00:00:00,2013-04-24 00:00:00,31.08022536927183,2.9479436020086363,-18.16929152176994,2.4381508617076557
sz300296,2013-06-05,11.06,11.35,11.04,11.29,0.021719,1108630.0,12401260.8,423375000.0,1693500000.0,0.029563466666666666,17.13,2013-03-31 00:00:00,2013-04-24 00:00:00,32.31084866227177,3.064667596766689,-18.888705654014384,2.534689583889245
sz300296,2013-06-04,11.3,11.4,10.99,11.05,-0.022124,1558148.0,17356786.94,414375000.0,1657500000.0,0.04155061333333333,16.77,2013-03-31 00:00:00,2013-04-24 00:00:00,31.624006857337267,2.9995210001641244,-18.48718253650405,2.4808088954881384
sz300296,2013-06-03,11.56,11.69,11.27,11.3,-0.025862,1513061.0,17255377.5,423750000.0,1695000000.0,0.040348293333333334,17.15,2013-03-31 00:00:00,2013-04-24 00:00:00,32.33948563758316,3.067383799340739,-18.90544663792143,2.536936069080475
sz300296,2013-05-31,11.76,11.88,11.56,11.6,-0.010239,1936690.0,22684515.93,435000000.0,1740000000.0,0.05164506666666667,17.6,2013-03-31 00:00:00,2013-04-24 00:00:00,33.198053702435544,3.1488185445396226,-19.407359776460243,2.604288169725927
sz300296,2013-05-30,11.81,11.95,11.56,11.72,-0.011804,2785507.0,32681850.66,439500000.0,1758000000.0,0.07428018666666666,17.79,2013-03-31 00:00:00,2013-04-24 00:00:00,33.54148496701279,3.1813928256817787,-19.608127392835488,2.631229326803064
sz300296,2013-05-29,11.8,12.0,11.72,11.86,0.005085,1943825.0,23016622.61,444750000.0,1779000000.0,0.05183533333333333,18.0,2013-03-31 00:00:00,2013-04-24 00:00:00,33.94213796353436,3.2193945590568864,-19.842346450335246,2.6626593578632822
sz300296,2013-05-28,12.21,12.45,11.61,11.8,-0.045307,2093026.0,24967748.05,442500000.0,1770000000.0,0.05581402666666667,17.91,2013-03-31 00:00:00,2013-04-24 00:00:00,33.77041540121916,3.203106761176305,-19.741958590900516,2.649188235684825
sz300296,2013-05-27,12.8,12.8,12.26,12.36,-0.019826,2313654.0,28893570.47,463500000.0,1854000000.0,0.06169744,18.76,2013-03-31 00:00:00,2013-04-24 00:00:00,35.373062755481776,3.355117049330314,-20.6788554968985,2.7749111344535105
sz300296,2013-05-24,11.83,12.85,11.83,12.61,0.063238,3587187.0,44651335.34,472875000.0,1891500000.0,0.09565832,19.14,2013-03-31 00:00:00,2013-04-24 00:00:00,36.08855443572444,3.4229810720650757,-21.09712713956756,2.8310393200120694
sz300296,2013-05-23,12.0,12.22,11.75,11.86,-0.020644,2576962.0,30762066.38,444750000.0,1779000000.0,0.06871898666666666,18.0,2013-03-31 00:00:00,2013-04-24 00:00:00,33.942122493481655,3.219393091730239,-19.84233740664608,2.6626581442838475
sz300296,2013-05-22,12.72,12.9,12.05,12.11,-0.067026,3711686.0,46039298.12,454125000.0,1816500000.0,0.09897829333333333,18.38,2013-03-31 00:00:00,2013-04-24 00:00:00,34.657593861151256,3.287255187827755,-20.26059717472102,2.7187847363817115
sz300296,2013-05-21,12.51,13.32,12.5,12.98,0.007764,5301934.0,68376894.16,486750000.0,1947000000.0,0.14138490666666667,19.7,2013-03-31 00:00:00,2013-04-24 00:00:00,37.14743804345166,3.5234156448387157,-21.716143402411024,2.9141055767703197
sz300296,2013-05-20,12.35,12.96,11.95,12.88,0.048465,7719077.0,95498783.59,483000000.0,1932000000.0,0.20584205333333333,19.55,2013-03-31 00:00:00,2013-04-24 00:00:00,36.861247319264876,3.496270599901083,-21.548838222451906,2.8916547691426953
sz300296,2013-05-17,16.98,18.57,16.49,18.57,0.100118,3859774.0,69181604.08,464250000.0,1857000000.0,0.15439096,18.64,2013-03-31 00:00:00,2013-04-24 00:00:00,35.15734652016508,3.3346564738938196,-20.55274923097281,2.7579888400115364
sz300296,2013-05-16,17.2,17.77,16.69,16.88,-0.011131,1789718.0,30723380.51,422000000.0,1688000000.0,0.07158872,16.95,2013-03-31 00:00:00,2013-04-24 00:00:00,31.957795909316168,3.0311807223350766,-18.682313379994522,2.506993649782602
sz300296,2013-05-15,16.3,17.3,16.02,17.07,0.047238999999999996,1321237.0,22340397.28,426750000.0,1707000000.0,0.05284948,17.14,2013-03-31 00:00:00,2013-04-24 00:00:00,32.317522249475076,3.0653005831258504,-18.8926069883822,2.53521310687523
sz300296,2013-05-14,16.99,16.99,16.2,16.3,-0.032641,1026794.0,16858498.06,407500000.0,1630000000.0,0.04107176,16.36,2013-03-31 00:00:00,2013-04-24 00:00:00,30.859739037101438,2.9270305853065537,-18.040396689181936,2.420854367413007
sz300296,2013-05-13,16.45,17.24,16.24,16.85,0.020594,980536.0,16346239.78,421250000.0,1685000000.0,0.03922144,16.92,2013-03-31 00:00:00,2013-04-24 00:00:00,31.90102023871328,3.025795578793968,-18.649122703341714,2.50253976797963
sz300296,2013-05-10,16.8,16.94,16.33,16.51,-0.028824000000000002,750313.0,12423868.59,412750000.0,1651000000.0,0.030012520000000004,16.57,2013-03-31 00:00:00,2013-04-24 00:00:00,31.257307253142073,2.9647397288186763,-18.27281240467974,2.4520424066569375
sz300296,2013-05-09,16.86,17.04,16.21,17.0,0.000589,1189408.0,19804480.33,425000000.0,1700000000.0,0.04757632,17.07,2013-03-31 00:00:00,2013-04-24 00:00:00,32.18500792147054,3.052731666370129,-18.81514000004092,2.524817753586309
sz300296,2013-05-08,16.74,16.99,16.54,16.99,0.024111,1226731.0,20621918.31,424750000.0,1699000000.0,0.04906923999999999,17.06,2013-03-31 00:00:00,2013-04-24 00:00:00,32.166062110887225,3.050934665851942,-18.804064406105724,2.523331511326138
sz300296,2013-05-07,16.65,17.14,16.36,16.59,-0.007775,1128810.0,18888047.78,414750000.0,1659000000.0,0.0451524,16.65,2013-03-31 00:00:00,2013-04-24 00:00:00,31.408765369073496,2.9791054542446496,-18.361353804524825,2.4639238435346735
sz300296,2013-05-06,15.8,17.03,15.72,16.72,0.054889999999999994,2469174.0,40818088.23,418000000.0,1672000000.0,0.09876696,16.78,2013-03-31 00:00:00,2013-04-24 00:00:00,31.65488207722391,3.0024494991001527,-18.505231983194157,2.4832309642819657
sz300296,2013-05-03,15.28,16.04,15.21,15.85,0.029889999999999996,1791758.0,28382385.5,396250000.0,1585000000.0,0.07167032,15.91,2013-03-31 00:00:00,2013-04-24 00:00:00,30.007756332152088,2.8462204581521804,-17.542333307922306,2.354018868585318
sz300296,2013-05-02,15.4,15.57,14.9,15.39,-0.0006490000000000001,1669633.0,25373448.18,384750000.0,1539000000.0,0.06678532,15.45,2013-03-31 00:00:00,2013-04-24 00:00:00,29.136855714835647,2.763615976611269,-17.033210641837773,2.2856993160292047
sz300296,2013-04-26,15.65,16.05,15.4,15.4,-0.012821,2562592.0,40422030.04,385000000.0,1540000000.0,0.10250368,15.46,2013-03-31 00:00:00,2013-04-24 00:00:00,29.15577781463735,2.7654107281738542,-17.044272374608898,2.2871836982493687
sz300296,2013-04-25,15.11,16.23,15.1,15.6,0.04698,4776950.0,75167999.0,390000000.0,1560000000.0,0.191078,15.66,2013-03-31 00:00:00,2013-04-24 00:00:00,29.53443885519986,2.8013265356879082,-17.265635081995153,2.3168885260417498
sz300296,2013-04-24,14.35,14.95,14.2,14.9,0.032570999999999996,1856006.0,27256434.11,372500000.0,1490000000.0,0.07424024,14.96,2013-03-31 00:00:00,2013-04-24 00:00:00,28.209171956675256,2.675625642980676,-16.490892932047558,2.212925295652018
sz300296,2013-04-23,14.03,15.07,14.03,14.43,0.022678999999999998,2385569.0,34763946.12,360750000.0,1443000000.0,0.09542276,14.49,2012-12-31 00:00:00,2013-04-19 00:00:00,24.78794245814136,2.53622927062729,-17.97589168960575,2.16974780509647
sz300296,2013-04-22,13.69,14.12,13.68,14.11,0.026182,1015568.0,14195441.33,352750000.0,1411000000.0,0.04062272,14.16,2012-12-31 00:00:00,2013-04-19 00:00:00,24.23824333749042,2.4799856754927894,-17.57725707637074,2.121631328204129
sz300296,2013-04-19,13.5,13.9,13.48,13.75,0.030735000000000002,955229.0,13101665.5,343750000.0,1375000000.0,0.03820916,13.8,2012-12-31 00:00:00,2013-04-19 00:00:00,23.61982897526016,2.416711339209604,-17.128791068612333,2.0675000421018193
sz300296,2013-04-18,13.09,13.35,12.96,13.34,0.015221,480876.0,6341427.04,333500000.0,1334000000.0,0.01923504,13.39,2012-09-30 00:00:00,2012-10-23 00:00:00,33.84568804544047,3.398110655976634,-11.316820041115493,2.064202413290547
sz300296,2013-04-17,13.16,13.16,12.95,13.14,0.0061259999999999995,233738.0,3054482.88,328500000.0,1314000000.0,0.00934952,13.19,2012-09-30 00:00:00,2012-10-23 00:00:00,33.3382465940327,3.347163480637845,-11.147149281895759,2.03325425034603
sz300296,2013-04-16,12.7,13.09,12.55,13.06,0.020313,466361.0,6005324.54,326500000.0,1306000000.0,0.01865444,13.11,2012-09-30 00:00:00,2012-10-23 00:00:00,33.13525999132583,3.3267836042780377,-11.079277627151827,2.0208743739313264
sz300296,2013-04-15,13.01,13.08,12.73,12.8,-0.037594,469349.0,6067124.43,320000000.0,1280000000.0,0.01877396,12.85,2012-09-30 00:00:00,2012-10-23 00:00:00,32.475583464413205,3.260552011273048,-10.858704757414465,1.9806416010884174
sz300296,2013-04-12,14.02,14.08,13.3,13.3,0.039063,1592230.0,21722802.66,332500000.0,1330000000.0,0.0636892,13.35,2012-09-30 00:00:00,2012-10-23 00:00:00,33.744161470744366,3.3879173771496105,-11.28287308829586,2.058010445787347
sz300296,2013-04-09,12.75,12.85,12.62,12.8,0.00471,341799.0,4365387.42,320000000.0,1280000000.0,0.01367196,12.85,2012-09-30 00:00:00,2012-10-23 00:00:00,32.475568344503046,3.2605504932324703,-10.858699701842776,1.9806406789456912
sz300296,2013-04-08,12.75,12.8,12.46,12.74,-0.027481000000000002,718475.0,9073859.28,318500000.0,1274000000.0,0.028739,12.79,2012-09-30 00:00:00,2012-10-23 00:00:00,32.32332548148525,3.2452652936991475,-10.807794987451876,1.971355594097492
sz300296,2013-04-03,13.45,13.46,13.08,13.1,-0.026022000000000003,509863.0,6732039.7,327500000.0,1310000000.0,0.02039452,13.15,2012-09-30 00:00:00,2012-10-23 00:00:00,33.236703325575384,3.3369685257554322,-11.113196747263421,2.0270612647130717
sz300296,2013-04-02,13.65,13.82,13.35,13.45,-0.013930000000000001,456913.0,6217587.55,336250000.0,1345000000.0,0.01827652,13.5,2012-09-30 00:00:00,2012-10-23 00:00:00,34.12469616929272,3.4261231010920494,-11.410110646506823,2.0812187387323653
sz300296,2013-04-01,13.62,13.72,13.37,13.64,0.0059,268457.0,3649097.34,341000000.0,1364000000.0,0.01073828,13.69,2012-09-30 00:00:00,2012-10-23 00:00:00,34.60676845385492,3.474523209398977,-11.57129883933881,2.110619670745855
sz300296,2013-03-29,13.44,13.7,13.44,13.56,0.0022170000000000002,263996.0,3596004.39,339000000.0,1356000000.0,0.01055984,13.61,2012-09-30 00:00:00,2012-10-23 00:00:00,34.40378611577186,3.4541437612078503,-11.503428610536645,2.098240054424749
sz300296,2013-03-28,13.71,13.72,13.5,13.53,-0.030802,639438.0,8708843.55,338250000.0,1353000000.0,0.02557752,13.58,2012-09-30 00:00:00,2012-10-23 00:00:00,34.32768164556364,3.4465028643575693,-11.477981924609782,2.093598546447275
sz300296,2013-03-27,13.97,14.08,13.82,13.96,0.005764,468936.0,6546659.53,349000000.0,1396000000.0,0.01875744,14.01,2012-09-30 00:00:00,2012-10-23 00:00:00,35.41864680443382,3.5560358815820603,-11.842762701336346,2.160135025502813
sz300296,2013-03-26,14.1,14.19,13.8,13.88,-0.019774,506785.0,7039002.91,347000000.0,1388000000.0,0.0202714,13.93,2012-09-30 00:00:00,2012-10-23 00:00:00,35.21566371875889,3.535656358332631,-11.774892222565478,2.147755363587097
sz300296,2013-03-25,14.23,14.27,14.06,14.16,-0.002817,417911.0,5921597.76,354000000.0,1416000000.0,0.01671644,14.21,2012-09-30 00:00:00,2012-10-23 00:00:00,35.92606574275615,3.606980796604692,-12.012425932963907,2.191081815404914
sz300296,2013-03-22,14.2,14.3,14.11,14.2,-0.004905,745508.0,10590238.4,355000000.0,1420000000.0,0.02982032,14.25,2012-09-30 00:00:00,2012-10-23 00:00:00,36.02755536622279,3.6171703655243737,-12.046360530578545,2.19727152930296
sz300296,2013-03-21,14.2,14.38,14.14,14.27,0.005638000000000001,687655.0,9815308.6,356750000.0,1427000000.0,0.0275062,14.33,2012-09-30 00:00:00,2012-10-23 00:00:00,36.205141585700666,3.6350000407241265,-12.10573918126264,2.2081022709419305
sz300296,2013-03-20,13.76,14.23,13.7,14.19,0.029752999999999998,843372.0,11806757.07,354750000.0,1419000000.0,0.03373488,14.24,2012-09-30 00:00:00,2012-10-23 00:00:00,36.00216139972899,3.61462080860521,-12.037869672051613,2.195722785875166
sz300296,2013-03-19,13.62,13.78,13.32,13.78,0.013235,692423.0,9395345.22,344500000.0,1378000000.0,0.02769692,13.83,2012-09-30 00:00:00,2012-10-23 00:00:00,34.961938833612514,3.5101823530547716,-11.690055452182818,2.1322810284361067
sz300296,2013-03-18,13.9,14.05,13.56,13.6,-0.020878,475168.0,6549426.05,340000000.0,1360000000.0,0.01900672,13.65,2012-09-30 00:00:00,2012-10-23 00:00:00,34.50526169507816,3.4643319200923495,-11.537358512272888,2.104428911788585
sz300296,2013-03-15,13.87,14.21,13.69,13.89,0.006522,733385.0,10270631.33,347250000.0,1389000000.0,0.0293354,13.94,2012-09-30 00:00:00,2012-10-23 00:00:00,35.24102378976078,3.538202512140825,-11.78337174761969,2.149302039775007
sz300296,2013-03-14,13.73,13.95,13.71,13.8,-0.000724,479700.0,6636925.9,345000000.0,1380000000.0,0.019188,13.85,2012-09-30 00:00:00,2012-10-23 00:00:00,35.01267114853008,3.5152758828329893,-11.707018572489913,2.1353751232213583
sz300296,2013-03-13,14.25,14.28,13.76,13.81,-0.036288,1315599.0,18276986.52,345250000.0,1381000000.0,0.05262396,13.86,2012-09-30 00:00:00,2012-10-23 00:00:00,35.038038688540574,3.5178227865304366,-11.715500594920634,2.1369222549339297
sz300296,2013-03-12,15.22,15.55,14.16,14.33,-0.057237,1890879.0,27919472.47,358250000.0,1433000000.0,0.07563516,14.39,2012-09-30 00:00:00,2012-10-23 00:00:00,36.35737511677823,3.650284303329664,-12.156640775377536,2.2173867866478054
sz300296,2013-03-11,15.05,15.4,15.05,15.2,0.0033,450953.0,6875373.65,380000000.0,1520000000.0,0.01803812,15.26,2012-09-30 00:00:00,2012-10-23 00:00:00,38.56470302374852,3.871900258420901,-12.894694398674465,2.3520087091324178
sz300296,2013-03-08,15.03,15.28,15.02,15.15,0.002647,700808.0,10601919.09,378750000.0,1515000000.0,0.02803232,15.21,2012-09-30 00:00:00,2012-10-23 00:00:00,38.43785809204476,3.8591650138751126,-12.852281868508387,2.3442726095209983
sz300296,2013-03-07,15.4,15.64,15.0,15.11,-0.023902,1406255.0,21584035.13,377750000.0,1511000000.0,0.0562502,15.17,2012-09-30 00:00:00,2012-10-23 00:00:00,38.3363816897121,3.8489767723586787,-12.818351691580771,2.3380837019619047
sz300296,2013-03-06,15.01,15.59,15.01,15.48,0.029255,1405556.0,21662176.34,387000000.0,1548000000.0,0.05622224,15.54,2012-09-30 00:00:00,2012-10-23 00:00:00,39.27513599014863,3.9432278033134773,-13.132238455135417,2.395337048085238
sz300296,2013-03-05,14.82,15.04,14.52,15.04,0.016216,966811.0,14362415.23,376000000.0,1504000000.0,0.03867244,15.1,2012-09-30 00:00:00,2012-10-23 00:00:00,38.15880028773105,3.831147580836116,-12.758974651699933,2.3272532541355035
sz300296,2013-03-04,15.31,15.39,14.77,14.8,-0.047619,1602658.0,24202658.71,370000000.0,1480000000.0,0.06410632,14.86,2012-09-30 00:00:00,2012-10-23 00:00:00,37.549891251201565,3.770013049229806,-12.555376663721034,2.29011672138158
sz300296,2013-03-01,15.51,15.57,15.28,15.54,-0.000643,1516635.0,23383122.99,388500000.0,1554000000.0,0.0606654,15.6,2012-09-30 00:00:00,2012-10-23 00:00:00,39.427383842392445,3.9585135037656203,-13.183144837749841,2.404622437219537
sz300296,2013-02-28,14.79,15.59,14.75,15.55,0.047138,2747724.0,41917355.94,388750000.0,1555000000.0,0.10990896,15.61,2012-09-30 00:00:00,2012-10-23 00:00:00,39.45275196190395,3.9610604656450303,-13.19162705394553,2.4061696042750857
sz300296,2013-02-27,14.7,15.07,14.6,14.85,0.010204000000000001,978953.0,14467499.04,371250000.0,1485000000.0,0.03915812,14.91,2012-09-30 00:00:00,2012-10-23 00:00:00,37.6767455310608,3.7827492323313927,-12.597792319584933,2.29785339112427
sz300296,2013-02-26,14.68,15.15,14.55,14.7,0.001362,1128496.0,16800549.15,367500000.0,1470000000.0,0.04513984,14.76,2012-09-30 00:00:00,2012-10-23 00:00:00,37.29617535771072,3.7445399467151113,-12.470542899835015,2.274642934619413
sz300296,2013-02-25,14.47,14.76,14.43,14.68,0.014513,722788.0,10555429.42,367000000.0,1468000000.0,0.02891152,14.74,2012-09-30 00:00:00,2012-10-23 00:00:00,37.24544705881661,3.739446820146072,-12.453581122346378,2.271549084765961
sz300296,2013-02-22,14.42,14.74,14.42,14.47,0.004164,674060.0,9820327.14,361750000.0,1447000000.0,0.0269624,14.53,2012-09-30 00:00:00,2012-10-23 00:00:00,36.712636564358085,3.6859525902044354,-12.275427838131575,2.239053698440495
sz300296,2013-02-21,14.69,14.69,14.35,14.41,-0.023051,929070.0,13457617.81,360250000.0,1441000000.0,0.0371628,14.47,2012-09-30 00:00:00,2012-10-23 00:00:00,36.56039906266116,3.670667928948295,-12.224524916379771,2.229768940571953
sz300296,2013-02-20,14.5,14.78,14.4,14.75,0.015141,789794.0,11538258.48,368750000.0,1475000000.0,0.03159176,14.81,2012-09-30 00:00:00,2012-10-23 00:00:00,37.4230375000754,3.757276919213076,-12.512961184647072,2.2823800838856005
sz300296,2013-02-19,15.14,15.2,14.41,14.53,-0.039656,1103311.0,16231197.9,363250000.0,1453000000.0,0.04413244,14.59,2012-09-30 00:00:00,2012-10-23 00:00:00,36.8648665555577,3.701236497405853,-12.326328248634494,2.2483379982540357
sz300296,2013-02-18,14.97,15.18,14.83,15.13,0.018855,1281006.0,19262266.74,378250000.0,1513000000.0,0.05124024,15.19,2012-09-30 00:00:00,2012-10-23 00:00:00,38.38714726760172,3.8540736417428065,-12.835325933867963,2.3411798254105154
sz300296,2013-02-08,14.66,14.9,14.61,14.85,0.008832,840478.0,12436512.63,371250000.0,1485000000.0,0.03361912,14.91,2012-09-30 00:00:00,2012-10-23 00:00:00,37.676752106631184,3.782749892519354,-12.597794518226797,2.297853792159351
sz300296,2013-02-07,14.68,14.9,14.52,14.72,0.00891,795653.0,11723441.27,368000000.0,1472000000.0,0.03182612,14.78,2012-09-30 00:00:00,2012-10-23 00:00:00,37.34690424831011,3.7496331326914234,-12.487504875169304,2.2777368205601634
sz300296,2013-02-06,14.4,14.74,14.3,14.59,0.020994,949251.0,13858905.88,364750000.0,1459000000.0,0.03797004,14.65,2012-09-30 00:00:00,2012-10-23 00:00:00,37.01708204726894,3.716518948857106,-12.377223811013174,2.25762141376353
sz300296,2013-02-05,14.06,14.41,13.99,14.29,0.016358,881173.0,12546161.2,357250000.0,1429000000.0,0.03524692,14.35,2012-09-30 00:00:00,2012-10-23 00:00:00,36.25592515457382,3.6400987164049017,-12.122719439108531,2.2111994916361217
sz300296,2013-02-04,14.46,14.53,13.98,14.06,-0.018841999999999998,836195.0,11845799.36,351500000.0,1406000000.0,0.0334478,14.11,2012-09-30 00:00:00,2012-10-23 00:00:00,35.672396099183366,3.581512337586658,-11.927607633440704,2.1756108493622532
sz300296,2013-02-01,14.21,14.46,14.1,14.33,0.009155,974530.0,13946795.87,358250000.0,1433000000.0,0.0389812,14.39,2012-09-30 00:00:00,2012-10-23 00:00:00,36.357443040961165,3.650291122924808,-12.156663486860124,2.2173909292512044
sz300296,2013-01-31,14.62,14.62,14.08,14.2,-0.026063,1215563.0,17307662.07,355000000.0,1420000000.0,0.04862252,14.25,2012-09-30 00:00:00,2012-10-23 00:00:00,36.027610268948926,3.617175877763879,-12.046378888139207,2.1972748777454445
sz300296,2013-01-30,14.83,14.87,14.4,14.58,-0.012863999999999999,962661.0,14026309.46,364500000.0,1458000000.0,0.03850644,14.64,2012-09-30 00:00:00,2012-10-23 00:00:00,36.991725613616616,3.7139731602391928,-12.368745502162056,2.2560749594126155
sz300296,2013-01-29,14.87,15.04,14.7,14.77,-0.002027,982815.0,14606779.07,369250000.0,1477000000.0,0.0393126,14.83,2012-09-30 00:00:00,2012-10-23 00:00:00,37.473788427953814,3.76237231773453,-12.529930528480428,2.285475313849982
sz300296,2013-01-28,14.43,14.83,14.43,14.8,0.029923,1001587.0,14655329.59,370000000.0,1480000000.0,0.04006348,14.86,2012-09-30 00:00:00,2012-10-23 00:00:00,37.5499020794689,3.77001413638899,-12.555380284316739,2.2901173817828555
sz300296,2013-01-25,14.35,14.59,14.31,14.37,0.000696,902406.0,13013087.75,359250000.0,1437000000.0,0.03609624,14.43,2012-09-30 00:00:00,2012-10-23 00:00:00,36.45894118246597,3.660481547056421,-12.190600932610241,2.223581162652796
sz300296,2013-01-24,15.16,15.3,14.26,14.36,-0.054018,2237311.0,33040366.34,359000000.0,1436000000.0,0.08949244,14.42,2012-09-30 00:00:00,2012-10-23 00:00:00,36.43358340841372,3.657935623862213,-12.182122175576042,2.2220346265527153
sz300296,2013-01-23,15.79,15.79,14.83,15.18,-0.041667,1834268.0,27963512.88,379500000.0,1518000000.0,0.07337072,15.24,2012-09-30 00:00:00,2012-10-23 00:00:00,38.51403452540716,3.8668131358336764,-12.877752616409236,2.3489185064332254
sz300296,2013-01-22,15.69,15.85,15.41,15.84,0.006993000000000001,1638583.0,25612415.61,396000000.0,1584000000.0,0.06554332,15.9,2012-09-30 00:00:00,2012-10-23 00:00:00,40.18857174427591,4.034936849543611,-13.437659578047754,2.4510462505551054
sz300296,2013-01-21,15.88,16.05,15.6,15.73,0.003189,1314244.0,20789199.35,393250000.0,1573000000.0,0.05256976,15.79,2012-09-30 00:00:00,2012-10-23 00:00:00,39.90948471764541,4.006916482580922,-13.344342590313689,2.4340251129403137
sz300296,2013-01-18,15.85,16.08,15.44,15.68,-0.017544,2120325.0,33265930.18,392000000.0,1568000000.0,0.084813,15.74,2012-09-30 00:00:00,2012-10-23 00:00:00,39.782617949006024,3.994179045604489,-13.301922758636396,2.4262876815239336
sz300296,2013-01-17,16.66,16.69,15.9,15.96,-0.057851,2916084.0,47476061.58,399000000.0,1596000000.0,0.11664336,16.02,2012-09-30 00:00:00,2012-10-23 00:00:00,40.4930276256708,4.0655042522051765,-13.53945902782048,2.4696146000675183
sz300296,2013-01-16,15.95,16.94,15.71,16.94,0.05875,4755149.0,77535210.39,423500000.0,1694000000.0,0.19020596000000004,17.01,2012-09-30 00:00:00,2012-10-23 00:00:00,42.97943066932173,4.3151393805068805,-14.370825663266086,2.621256935015075
sz300296,2013-01-15,15.85,16.27,15.7,16.0,0.0043939999999999995,2698702.0,43022006.0,400000000.0,1600000000.0,0.10794808,16.06,2012-09-30 00:00:00,2012-10-23 00:00:00,40.59450358377495,4.0756924491210205,-13.57338905621354,2.475803480533719
sz300296,2013-01-14,15.54,16.16,15.35,15.93,0.029735,3002529.0,47575564.43,398250000.0,1593000000.0,0.12010116,15.99,2012-09-30 00:00:00,2012-10-23 00:00:00,40.41691167387992,4.057862202602784,-13.51400850285201,2.4649723918439572
sz300296,2013-01-11,15.7,15.78,15.32,15.47,-0.019645,2927283.0,45429814.04,386750000.0,1547000000.0,0.11709132,15.53,2012-09-30 00:00:00,2012-10-23 00:00:00,39.24981832595757,3.940685907153572,-13.123773109442729,2.393792958230959
sz300296,2013-01-10,15.85,16.28,15.63,15.78,-0.004416,2200040.0,35001705.92,394500000.0,1578000000.0,0.0880016,15.84,2012-09-30 00:00:00,2012-10-23 00:00:00,40.036332069462155,4.0196519701063105,-13.386755929681316,2.441761360151128
sz300296,2013-01-09,15.6,16.1,15.34,15.85,-0.002517,3023753.0,47327051.88,396250000.0,1585000000.0,0.12095012,15.91,2012-09-30 00:00:00,2012-10-23 00:00:00,40.213916725722946,4.037481488358903,-13.446134057680032,2.452592006451618
sz300296,2013-01-08,15.8,16.48,15.75,15.89,0.012102,3818199.0,61608682.58,397250000.0,1589000000.0,0.15272796,15.95,2012-09-30 00:00:00,2012-10-23 00:00:00,40.31539056377197,4.047669472420988,-13.480063377200448,2.4587807576185448
sz300296,2013-01-07,15.64,15.79,15.3,15.7,-0.012579,3010389.0,46922947.03,392500000.0,1570000000.0,0.12041556,15.76,2012-09-30 00:00:00,2012-10-23 00:00:00,39.8333276327603,3.9992703032115213,-13.318878311870193,2.4293803960653615
sz300296,2013-01-04,15.88,16.56,15.52,15.9,0.010165,7257549.0,115837264.64,397500000.0,1590000000.0,0.29030196,15.96,2012-09-30 00:00:00,2012-10-23 00:00:00,40.340774231822394,4.050217995375348,-13.488550792286365,2.460328872958304
