code,date,open,high,low,close,change,volume,money,traded_market_value,market_value,turnover,adjust_price,report_type,report_date,PE_TTM,PS_TTM,PC_TTM,PB
sz300237,2014-12-05,30.7,30.95,28.68,30.0,-0.022801,2066378.0,61228304.99,3078000000.0,3910304580.0,0.020140136452241716,56.11,2014-09-30 00:00:00,2014-10-21 00:00:00,84.56661963539766,4.8612082198563975,-356.54870829162496,3.7583120768260563
sz300237,2014-12-04,31.35,31.4,30.42,30.7,-0.014446,1969334.0,60583506.18,3149820000.0,4001545020.0,0.019194288499025342,57.41,2014-09-30 00:00:00,2014-10-21 00:00:00,86.53981393288129,4.974634869516237,-364.86806504266275,3.8460048330238332
sz300237,2014-12-03,31.15,31.48,30.53,31.15,-0.0044740000000000005,1117587.0,34533749.9,3195990000.0,4060199590.0,0.01089266081871345,58.26,2014-09-30 00:00:00,2014-10-21 00:00:00,87.80829252672231,5.047551802860358,-370.21620838905096,3.902378594195582
sz300237,2014-12-02,30.28,31.48,30.12,31.29,0.032673,914901.0,28484410.53,3210354000.0,4078447680.0,0.00891716374269006,58.52,2014-09-30 00:00:00,2014-10-21 00:00:00,88.20291235660576,5.070236038898389,-371.8799995068445,3.9199162997205312
sz300237,2014-12-01,31.4,31.71,30.3,30.3,-0.035032,1315862.0,40528125.52,3108780000.0,3949407630.0,0.012825165692007798,56.67,2014-09-30 00:00:00,2014-10-21 00:00:00,85.41223829479978,4.909817569451694,-360.1139949498482,3.795893084955772
sz300237,2014-11-28,31.81,32.22,30.8,31.4,-0.012579,1431616.0,44902953.69,3221640000.0,4092785460.0,0.01395337231968811,58.72,2014-09-30 00:00:00,2014-10-21 00:00:00,88.51302664419937,5.088062577672725,-373.1874994298756,3.9336984075697554
sz300237,2014-11-27,30.34,31.99,29.91,31.8,0.06497,1900167.0,59354492.91,3262680000.0,4144922850.0,0.018520146198830408,59.47,2014-09-30 00:00:00,2014-10-21 00:00:00,89.64061595226288,5.152880663539387,-377.9416271578947,3.983810763159539
sz300237,2014-11-26,29.62,30.48,29.44,29.86,0.008103,1184460.0,35438258.92,3063636000.0,3892056490.0,0.011544444444444444,55.84,2014-09-30 00:00:00,2014-10-21 00:00:00,84.17196348466425,4.838521895958935,-354.88476403832476,3.7407727571288762
sz300237,2014-11-25,29.77,30.66,29.61,29.62,-0.00604,1424798.0,42698316.36,3039012000.0,3860774060.0,0.01388692007797271,55.39,2014-09-30 00:00:00,2014-10-21 00:00:00,83.49540025638674,4.799630490097673,-352.0322467429665,3.7107049152010023
sz300237,2014-11-24,29.01,30.25,28.8,29.8,0.020548,2239767.0,66840017.69,3057480000.0,3884235880.0,0.021830087719298244,55.73,2014-09-30 00:00:00,2014-10-21 00:00:00,84.00277702964581,4.828796420477357,-354.1714422541818,3.7332537679594777
sz300237,2014-11-21,27.49,29.59,27.32,29.2,0.060661,2787623.0,80106459.44,2995920000.0,3806029790.0,0.027169814814814813,54.61,2014-09-30 00:00:00,2014-10-21 00:00:00,82.31144152910574,4.731572077430318,-347.04045498514694,3.658087388304595
sz300237,2014-11-20,27.75,27.83,27.15,27.53,-0.020285,905816.0,24853860.76,2824578000.0,3588356170.0,0.008828615984405458,51.49,2014-09-30 00:00:00,2014-10-21 00:00:00,77.60391070201104,4.460965452138164,-327.19262326525336,3.4488751715247323
sz300237,2014-11-19,28.25,29.19,28.05,28.1,-0.0053100000000000005,1607276.0,45997911.25,2883060000.0,3662651960.0,0.015665458089668616,52.55,2014-09-30 00:00:00,2014-10-21 00:00:00,79.21069974636606,4.553329746036515,-333.96714683888007,3.520284135207415
sz300237,2014-11-18,27.62,28.25,26.9,28.25,0.025781000000000002,972583.0,26830350.26,2898450000.0,3682203480.0,0.009479366471734892,52.83,2014-09-30 00:00:00,2014-10-21 00:00:00,79.63355391766889,4.577636998498542,-335.7499792285838,3.5390766321239933
sz300237,2014-11-17,27.61,28.06,26.8,27.54,0.002548,1294062.0,35592938.84,2825604000.0,3589659600.0,0.012612690058479531,51.5,2014-09-30 00:00:00,2014-10-21 00:00:00,77.6321202261193,4.462587041969526,-327.3115599027315,3.450128859984727
sz300237,2014-11-14,28.1,29.0,26.8,27.47,-0.023462,2566297.0,71557949.94,2818422000.0,3580535560.0,0.025012641325536062,51.37,2014-09-30 00:00:00,2014-10-21 00:00:00,77.43481631415085,4.451245269024053,-326.4796896534944,3.4413602740065588
sz300237,2014-11-13,29.05,29.15,27.86,28.13,-0.039932,2539312.0,72273551.92,2886138000.0,3666562260.0,0.02474962962962963,52.61,2014-09-30 00:00:00,2014-10-21 00:00:00,79.29524126470332,4.55818951133909,-334.323589715397,3.524041331731646
sz300237,2014-11-12,27.67,29.49,27.66,29.3,0.043075999999999996,3126679.0,90488439.49,3006180000.0,3819064140.0,0.03047445419103314,54.8,2014-09-30 00:00:00,2014-10-21 00:00:00,82.59335928778306,4.747777773385937,-348.2290730608634,3.670616385226511
sz300237,2014-11-11,28.05,28.36,26.68,28.09,-0.002486,3014431.0,83333985.94,2882034000.0,3661348520.0,0.02938041910331384,52.53,2014-09-30 00:00:00,2014-10-21 00:00:00,79.18249416896091,4.551708383076533,-333.84822684144154,3.5190306221469108
sz300237,2014-11-10,26.1,28.7,26.1,28.16,0.076864,3349071.0,91978286.04,2889216000.0,3670472570.0,0.03264201754385965,52.66,2014-09-30 00:00:00,2014-10-21 00:00:00,79.37983243238781,4.563052130673386,-334.6802419228617,3.5278007347735576
sz300237,2014-11-07,26.47,27.25,25.77,26.15,-0.004189,3007359.0,80398234.45,2682990000.0,3408482160.0,0.029311491228070176,48.91,2014-09-30 00:00:00,2014-10-21 00:00:00,73.71388813479494,4.237352284664903,-310.79155949392094,3.275994679712162
sz300237,2014-11-06,25.1,26.26,24.87,26.26,0.046215,2178181.0,56091588.73,2694276000.0,3422819940.0,0.021229834307992204,49.11,2014-09-30 00:00:00,2014-10-21 00:00:00,74.02397456424457,4.255177222048062,-312.09894196179897,3.2897755494889713
sz300237,2014-11-05,24.72,25.57,24.66,25.1,0.014962,1260870.0,31811501.4,2575260000.0,3271621500.0,0.012289181286549707,46.94,2014-09-30 00:00:00,2014-10-21 00:00:00,70.75407498864436,4.0672110627816105,-298.3124328764154,3.144454581026817
sz300237,2014-11-04,24.99,25.26,24.7,24.73,-0.020982,1115740.0,27728394.4,2537298000.0,3223394410.0,0.010874658869395712,46.25,2014-09-30 00:00:00,2014-10-21 00:00:00,69.71105813680155,4.007254520643739,-293.91487846482477,3.098100796903547
sz300237,2014-11-03,25.12,25.55,25.11,25.26,-0.000396,1112016.0,28158224.8,2591676000.0,3292476460.0,0.010838362573099416,47.24,2014-09-30 00:00:00,2014-10-21 00:00:00,71.20508319234331,4.09313671520211,-300.2139679401449,3.164498300239165
sz300237,2014-10-31,25.25,25.7,24.6,25.27,0.000792,1737537.0,43658862.28,2592702000.0,3293779890.0,0.016935058479532163,47.26,2014-09-30 00:00:00,2014-10-21 00:00:00,71.23329157580731,4.094758239464938,-300.33289976845316,3.1657519380066153
sz300237,2014-10-30,25.8,26.09,25.0,25.25,-0.017509999999999998,2445410.0,62057819.43,2590650000.0,3291173020.0,0.02383440545808967,47.22,2014-09-30 00:00:00,2014-10-21 00:00:00,71.1769194555985,4.091517757401077,-300.0952243507674,3.163246646662459
sz300237,2014-10-29,24.72,25.7,24.3,25.7,0.040064999999999996,3507361.0,88509059.88,2636820000.0,3349827590.0,0.03418480506822612,48.06,2014-09-30 00:00:00,2014-10-21 00:00:00,72.44543909413683,4.164437050149189,-305.4435407492874,3.219622231943795
sz300237,2014-10-28,24.26,24.77,24.01,24.71,0.010221,2505239.0,61262953.89,2535246000.0,3220787540.0,0.02441753411306043,46.21,2014-09-30 00:00:00,2014-10-21 00:00:00,69.65472263189014,4.00401614336526,-293.6773574240912,3.095597132817463
sz300237,2014-10-27,23.1,25.15,23.1,24.46,0.066725,2848268.0,69197187.59,2509596000.0,3188201670.0,0.027760896686159844,45.74,2014-09-30 00:00:00,2014-10-21 00:00:00,68.94998483687246,3.9635051571539885,-290.70605087806643,3.064277156005926
sz300237,2014-10-24,22.67,23.1,22.57,22.93,0.017303,761556.0,17437721.92,2352618000.0,2770395190.0,0.007422573099415204,42.88,2014-09-30 00:00:00,2014-10-21 00:00:00,64.63707594447722,3.715582888892628,-272.522019150265,2.8726027382933053
sz300237,2014-10-23,22.63,22.79,22.29,22.54,-0.0039770000000000005,857513.0,19321646.85,2312604000.0,2723275520.0,0.008357826510721247,42.15,2014-09-30 00:00:00,2014-10-21 00:00:00,63.53768340846062,3.6523856598207494,-267.88677429464474,2.8237435044360484
sz300237,2014-10-22,22.7,23.02,22.56,22.63,-0.0035229999999999997,1074856.0,24478495.3,2321838000.0,2734149290.0,0.010476179337231968,42.32,2014-09-30 00:00:00,2014-10-21 00:00:00,63.79138173361521,3.666969196314492,-268.9564139529356,2.8350183725034945
sz300237,2014-10-21,22.76,23.19,22.56,22.71,-0.007864,1128942.0,25765194.97,2330046000.0,2743814860.0,0.011003333333333334,42.47,2014-09-30 00:00:00,2014-10-21 00:00:00,64.0169133192389,3.6799336023957325,-269.9072973615403,2.8450414535443316
sz300237,2014-10-20,22.55,23.09,22.55,22.89,0.008814,745010.0,17031466.3,2348514000.0,2765562410.0,0.00726130604288499,42.81,2014-06-30 00:00:00,2014-08-20 00:00:00,62.30250637844765,3.5330834315308195,-150.99046264123146,3.89443598416638
sz300237,2014-10-17,23.4,23.57,22.48,22.69,-0.028682,1398286.0,32020097.58,2327994000.0,2741398470.0,0.013628518518518519,42.43,2014-06-30 00:00:00,2014-08-20 00:00:00,61.75816986922034,3.502214909320072,-149.67126015423204,3.860410327539447
sz300237,2014-10-16,23.54,24.09,23.36,23.36,-0.015591999999999998,1522358.0,36136873.75,2396736000.0,2822347650.0,0.014837797270955166,43.69,2014-06-30 00:00:00,2014-08-20 00:00:00,63.58182373766401,3.6056316359009837,-154.09089521066429,3.9744041884732355
sz300237,2014-10-15,23.7,23.86,23.45,23.73,-0.002522,1435677.0,33954173.77,2434698000.0,2867050940.0,0.013992953216374268,44.38,2014-06-30 00:00:00,2014-08-20 00:00:00,64.58889376931519,3.6627410950550834,-156.53153490286988,4.037354621735334
sz300237,2014-10-14,24.07,24.1,23.6,23.79,-0.025,1808135.0,43113936.01,2440854000.0,2874300120.0,0.017623148148148148,44.49,2014-06-30 00:00:00,2014-08-20 00:00:00,64.75219881472593,3.6720018838060424,-156.92730556751113,4.047562574548345
sz300237,2014-10-13,23.8,24.4,23.44,24.4,0.019641,1825870.0,43662679.79,2503440000.0,2948000120.0,0.017796003898635476,45.63,2014-06-30 00:00:00,2014-08-20 00:00:00,66.4125116048471,3.766155778262607,-160.95108263334475,4.151346230305995
sz300237,2014-10-10,23.63,24.09,23.46,23.93,0.008428,1210576.0,28916710.94,2455218000.0,2891214870.0,0.011798986354775828,44.75,2014-06-30 00:00:00,2014-08-20 00:00:00,65.13322983760666,3.6936095922610086,-157.8507363212589,4.071380250800031
sz300237,2014-10-09,23.83,24.05,23.6,23.73,-0.005031,1334338.0,31750433.84,2434698000.0,2867050940.0,0.013005243664717349,44.38,2014-06-30 00:00:00,2014-08-20 00:00:00,64.58887480078563,3.6627400193776927,-156.53148893253547,4.037353436041076
sz300237,2014-10-08,24.17,24.29,23.53,23.85,-0.012422,1410319.0,33646841.59,2447010000.0,2881549300.0,0.013745799220272905,44.6,2014-06-30 00:00:00,2014-08-20 00:00:00,64.91546450269871,3.681260440654626,-157.32298084918773,4.057768067187094
sz300237,2014-09-30,24.05,24.29,23.67,24.15,0.014706,1586434.0,38106353.04,2477790000.0,2917795200.0,0.015462319688109162,45.16,2014-06-30 00:00:00,2014-08-20 00:00:00,65.73198724829706,3.72756424368974,-159.30182815857353,4.108807676140107
sz300237,2014-09-29,23.92,24.27,23.75,23.8,0.001684,1677022.0,40065238.63,2441880000.0,2875508310.0,0.01634524366471735,44.51,2014-06-30 00:00:00,2014-08-20 00:00:00,64.77934224129653,3.673541147573523,-156.99308780925062,4.049259269325407
sz300237,2014-09-26,23.2,23.89,23.15,23.76,0.019742,1410732.0,33297126.67,2437776000.0,2870675530.0,0.01374982456140351,44.44,2014-06-30 00:00:00,2014-08-20 00:00:00,64.67043722500962,3.6673653044009122,-156.72915591069705,4.042451780526999
sz300237,2014-09-25,23.43,23.55,23.08,23.3,0.000429,1857409.0,43363550.13,2390580000.0,2815098470.0,0.01810340155945419,43.58,2014-06-30 00:00:00,2014-08-20 00:00:00,63.41843056872191,3.5963658497942737,-153.6949109781661,3.964190727190798
sz300237,2014-09-24,22.71,23.45,22.57,23.29,0.027801999999999997,2026303.0,46880584.6,2389554000.0,2813890280.0,0.019749541910331386,43.56,2014-06-30 00:00:00,2014-08-20 00:00:00,63.39123572859435,3.5948236704396552,-153.62900413539202,3.9624908186296066
sz300237,2014-09-23,22.38,22.69,22.22,22.66,0.018427000000000002,1102934.0,24862273.89,2324916000.0,2737773880.0,0.010749844054580897,42.38,2014-06-30 00:00:00,2014-08-20 00:00:00,61.67650552206977,3.49758384439771,-149.47334616530424,3.855305612004653
sz300237,2014-09-22,22.57,23.01,22.18,22.25,-0.012865999999999999,1504988.0,33928175.76,2282850000.0,2688237810.0,0.01466849902534113,41.61,2014-06-30 00:00:00,2014-08-20 00:00:00,60.56055615382327,3.434299998328511,-146.7688368094171,3.7855492951430527
sz300237,2014-09-19,22.3,22.74,22.1,22.54,0.008953000000000001,874596.0,19630555.48,2312604000.0,2723275520.0,0.008524327485380116,42.15,2014-06-30 00:00:00,2014-08-20 00:00:00,61.349883758257,3.4790616049376384,-148.6817765464639,3.8348889767174996
sz300237,2014-09-18,22.13,22.4,21.9,22.34,0.009489000000000001,817488.0,18137624.97,2292084000.0,2699111580.0,0.007967719298245614,41.78,2014-06-30 00:00:00,2014-08-20 00:00:00,60.805492186709394,3.4481899602237553,-147.36244061563215,3.800859878227727
sz300237,2014-09-17,22.48,22.5,21.65,22.13,-0.006286,2426489.0,53268563.28,2270538000.0,2673739450.0,0.023649990253411305,41.39,2014-06-30 00:00:00,2014-08-20 00:00:00,60.233932402145435,3.415777646139537,-145.977262372975,3.7651325355974428
sz300237,2014-09-16,23.5,23.5,22.27,22.27,-0.048291,2348946.0,53545524.11,2284902000.0,2690654210.0,0.02289421052631579,41.65,2014-06-30 00:00:00,2014-08-20 00:00:00,60.614958028311406,3.4373850485547526,-146.9006800477552,3.7889498745086043
sz300237,2014-09-15,23.36,23.66,23.14,23.4,0.006451999999999999,1343226.0,31443920.34,2400840000.0,2827180440.0,0.01309187134502924,43.76,2014-06-30 00:00:00,2014-08-20 00:00:00,63.69064286279882,3.611802608312785,-154.3546189515442,3.9812063083448868
sz300237,2014-09-12,23.0,23.3,22.63,23.25,0.01087,1289449.0,29614800.1,2385450000.0,2809057490.0,0.012567729044834308,43.48,2014-06-30 00:00:00,2014-08-20 00:00:00,63.28234517175069,3.588648647240788,-153.3651072793777,3.9556842336692535
sz300237,2014-09-11,23.51,23.84,22.8,23.0,-0.017933,2603177.0,60585008.83,2359800000.0,2778852570.0,0.0253720955165692,43.01,2014-06-30 00:00:00,2014-08-20 00:00:00,62.60186292179083,3.550059500470672,-151.7159548501565,3.913148311522999
sz300237,2014-09-10,23.7,23.7,23.2,23.42,-0.012231,2007857.0,46908865.49,2402892000.0,2829596840.0,0.019569756335282653,43.8,2014-06-30 00:00:00,2014-08-20 00:00:00,63.74500204343576,3.614885237433568,-154.48635872110202,3.984604218982003
sz300237,2014-09-09,23.0,24.08,22.8,23.71,0.036275999999999996,3510176.0,82356864.95,2432646000.0,2432646000.0,0.03421224171539961,44.34,2014-06-30 00:00:00,2014-08-20 00:00:00,64.53432132759356,3.6596463722120944,-156.3992782939149,4.033943380468513
sz300237,2014-09-05,22.33,23.3,22.31,22.88,0.024172,2837693.0,64877242.14,2347488000.0,2347488000.0,0.027657826510721246,42.79,2014-06-30 00:00:00,2014-08-20 00:00:00,62.27522525619967,3.531536359244154,-150.92434669326985,3.8927306822395904
sz300237,2014-09-04,22.3,22.55,22.22,22.34,0.0022429999999999998,1793062.0,40159141.05,2292084000.0,2292084000.0,0.017476237816764134,41.78,2014-06-30 00:00:00,2014-08-20 00:00:00,60.80543625113718,3.4481867881997883,-147.36230505546905,3.800856381779223
sz300237,2014-09-03,22.35,22.43,22.02,22.29,-0.0026850000000000003,2104867.0,46824406.12,2286954000.0,2286954000.0,0.02051527290448343,41.69,2014-06-30 00:00:00,2014-08-20 00:00:00,60.66935488812312,3.4404698144060757,-147.03251113299774,3.792350140414274
sz300237,2014-09-02,21.66,22.5,21.57,22.35,0.033287,2768725.0,61447240.02,2293110000.0,2293110000.0,0.026985623781676415,41.8,2014-06-30 00:00:00,2014-08-20 00:00:00,60.832690662552075,3.4497323457544264,-147.42835626958157,3.8025600140520037
sz300237,2014-09-01,21.4,21.72,21.11,21.63,0.006515000000000001,1839229.0,39497311.07,2219238000.0,2219238000.0,0.01792620857699805,40.45,2014-06-30 00:00:00,2014-08-20 00:00:00,58.87298559117851,3.3386003557137816,-142.67900038380583,3.6800617970147727
sz300237,2014-08-29,21.81,21.85,20.95,21.49,-0.029797000000000004,3055505.0,65069168.04,2204874000.0,2204874000.0,0.029780750487329432,40.19,2014-06-30 00:00:00,2014-08-20 00:00:00,58.49191079236625,3.3169901647901736,-141.7554635388502,3.6562413843954364
sz300237,2014-08-28,22.88,24.24,22.15,22.15,-0.022938,7524483.0,175267719.14,2272590000.0,2272590000.0,0.07333804093567252,41.42,2014-06-30 00:00:00,2014-08-20 00:00:00,60.28832192063542,3.418861995675311,-146.10907566648444,3.7685323426081307
sz300237,2014-08-27,20.64,22.67,20.64,22.67,0.099951,2498095.0,55413362.57,2325942000.0,2325942000.0,0.024347904483430802,42.4,2014-06-30 00:00:00,2014-08-20 00:00:00,61.70368095436668,3.4991249231628196,-149.5392059730953,3.8570043074115365
sz300237,2014-08-26,20.83,21.16,20.55,20.61,-0.014818000000000001,967526.0,20175321.09,2114586000.0,2114586000.0,0.009430077972709552,38.54,2014-06-30 00:00:00,2014-08-20 00:00:00,56.09675426847804,3.181164363833316,-135.95078869249204,3.5065237518867085
sz300237,2014-08-25,21.24,21.26,20.67,20.92,-0.015066,1345927.0,28146828.32,2146392000.0,2146392000.0,0.01311819688109162,39.12,2014-06-30 00:00:00,2014-08-20 00:00:00,56.94049857638287,3.229011861598482,-137.9956076059977,3.559264939764133
sz300237,2014-08-22,21.1,21.29,20.91,21.24,0.006634999999999999,1142322.0,24113001.64,2179224000.0,2179224000.0,0.011133742690058478,39.72,2014-06-30 00:00:00,2014-08-20 00:00:00,57.8114864309516,3.2784043007942483,-140.1064514028328,3.6137090807750907
sz300237,2014-08-21,21.32,21.52,20.87,21.1,-0.015399000000000001,1675419.0,35396295.63,2164860000.0,2164860000.0,0.016329619883040936,39.46,2014-06-30 00:00:00,2014-08-20 00:00:00,57.43043549146572,3.2567954628979208,-139.1829723810843,3.589890159566368
sz300237,2014-08-20,21.84,21.84,21.18,21.43,-0.016069999999999997,2017297.0,43159138.15,2198718000.0,2198718000.0,0.019661764132553605,40.08,2014-06-30 00:00:00,2014-08-20 00:00:00,58.32863819096845,3.307731215891433,-141.35977150245054,3.6460354596088855
sz300237,2014-08-19,21.42,21.83,21.3,21.78,0.014911,1726802.0,37286415.86,2234628000.0,2234628000.0,0.016830428849902535,40.73,2014-03-31 00:00:00,2014-04-17 00:00:00,61.69523746073761,3.4312829747810674,44.082556161171034,3.779508490586534
sz300237,2014-08-18,21.31,21.67,21.1,21.46,0.006567,1706844.0,36350925.43,2201796000.0,2201796000.0,0.016635906432748537,40.13,2014-03-31 00:00:00,2014-04-17 00:00:00,60.78881543380415,3.380870810131201,43.43489839125897,3.723980221503693
sz300237,2014-08-15,21.0,21.9,21.0,21.32,0.024507,2138667.0,46020947.64,2187432000.0,2187432000.0,0.020844707602339183,39.87,2014-03-31 00:00:00,2014-04-17 00:00:00,60.392219726857874,3.3588134819949405,43.15152234402575,3.6996843940877184
sz300237,2014-08-14,21.16,21.16,20.5,20.81,-0.018859,1795094.0,37469184.39,2135106000.0,2135106000.0,0.017496042884990255,38.92,2014-03-31 00:00:00,2014-04-17 00:00:00,58.94759111148862,3.2784680651229716,42.119304547480645,3.611185081300292
sz300237,2014-08-13,19.88,21.6,19.8,21.21,0.069592,4004487.0,83989696.13,2176146000.0,2176146000.0,0.039030087719298244,39.67,2014-03-31 00:00:00,2014-04-17 00:00:00,60.080652130008446,3.3414851332509508,42.928900685508644,3.6805974689675507
sz300237,2014-08-12,19.87,19.95,19.75,19.83,-0.001008,934328.0,18531233.83,2034558000.0,2034558000.0,0.009106510721247562,37.09,2014-03-31 00:00:00,2014-04-17 00:00:00,56.17156086620734,3.1240745380022945,40.13577203785054,3.4411228477471316
sz300237,2014-08-11,19.67,19.88,19.6,19.85,0.009151000000000001,959995.0,19007833.51,2036610000.0,2036610000.0,0.00935667641325536,37.12,2014-03-31 00:00:00,2014-04-17 00:00:00,56.22823893104984,3.1272267825991547,40.176269717726015,3.4445949995066347
sz300237,2014-08-08,19.58,19.75,19.53,19.67,0.0045969999999999995,807257.0,15845089.79,2018142000.0,2018142000.0,0.00786800194931774,36.79,2014-03-31 00:00:00,2014-04-17 00:00:00,55.718360216706756,3.098869032086531,39.81195055816822,3.413359348112061
sz300237,2014-08-07,19.82,19.98,19.5,19.58,-0.012109,1488293.0,29295368.39,2008908000.0,2008908000.0,0.014505779727095514,36.62,2014-03-31 00:00:00,2014-04-17 00:00:00,55.46339498993802,3.084688718049657,39.629772494013245,3.397739937618828
sz300237,2014-08-06,19.83,20.0,19.65,19.82,0.00101,1308588.0,25966335.76,2033532000.0,2033532000.0,0.012754269005847953,37.07,2014-03-31 00:00:00,2014-04-17 00:00:00,56.14323340321758,3.122499059156989,40.11553146451708,3.4393874806216758
sz300237,2014-08-05,19.59,19.98,19.33,19.8,0.011236,1436910.0,28331288.0,2031480000.0,2031480000.0,0.014004970760233918,37.03,2014-03-31 00:00:00,2014-04-17 00:00:00,56.08658595140666,3.119348517154663,40.0750556583022,3.435917204245388
sz300237,2014-08-04,19.28,19.75,19.25,19.58,0.01556,1134400.0,22176829.94,2008908000.0,2008908000.0,0.01105653021442495,36.62,2014-03-31 00:00:00,2014-04-17 00:00:00,55.46339919801773,3.084688952088991,39.62977550077549,3.397740195409764
sz300237,2014-08-01,19.41,19.87,19.26,19.28,-0.008740000000000001,2055086.0,40343678.55,1978128000.0,1978128000.0,0.020030077972709552,36.06,2014-03-31 00:00:00,2014-04-17 00:00:00,54.61361140456273,3.0374265942819636,39.022584092299304,3.345681392935685
sz300237,2014-07-31,19.27,19.58,18.96,19.45,0.011967,1390143.0,26808192.84,1995570000.0,1995570000.0,0.013549152046783626,36.37,2014-03-31 00:00:00,2014-04-17 00:00:00,55.09514295398052,3.0642077701934545,39.36664860107268,3.375180470245631
sz300237,2014-07-30,19.2,19.44,19.09,19.22,0.001042,873266.0,16795668.41,1971972000.0,1971972000.0,0.008511364522417153,35.94,2014-03-31 00:00:00,2014-04-17 00:00:00,54.44361619892795,3.0279720289233287,38.901118911063975,3.3352673261535517
sz300237,2014-07-29,18.98,19.52,18.8,19.2,0.010526,1380586.0,26459018.33,1969920000.0,1969920000.0,0.013456003898635478,35.91,2014-03-31 00:00:00,2014-04-17 00:00:00,54.38694500223563,3.024820166310034,38.86062613862753,3.3317955951434124
sz300237,2014-07-28,18.9,19.05,18.61,19.0,0.005291,1227057.0,23104273.2,1949400000.0,1949400000.0,0.011959619883040935,35.53,2014-03-31 00:00:00,2014-04-17 00:00:00,53.82043114401373,2.9933125583211453,38.45583996713348,3.2970904213680914
sz300237,2014-07-25,18.68,19.27,17.8,18.9,-0.032257999999999995,2673993.0,49669742.14,1939140000.0,1939140000.0,0.026062309941520465,35.35,2014-03-31 00:00:00,2014-04-17 00:00:00,53.53716599871453,2.977558297369762,38.25344101074562,3.2797373311489824
sz300237,2014-07-16,18.95,19.65,18.85,19.53,0.030607,2002607.0,38615752.14,2003778000.0,2003778000.0,0.019518586744639375,36.52,2014-03-31 00:00:00,2014-04-17 00:00:00,55.321734510556055,3.0768100354947516,39.52855307586694,3.3890616829165032
sz300237,2014-07-15,19.06,19.18,18.83,18.95,-0.013021000000000001,1106922.0,21020003.03,1944270000.0,1944270000.0,0.010788713450292397,35.44,2014-03-31 00:00:00,2014-04-17 00:00:00,53.67878785080642,2.9854348316038526,38.354632828873605,3.2884132195070506
sz300237,2014-07-14,18.7,19.24,18.68,19.2,0.044045999999999995,2170853.0,41433501.08,1969920000.0,1969920000.0,0.021158411306042884,35.91,2014-03-31 00:00:00,2014-04-17 00:00:00,54.38696046299507,3.0248210261858177,38.86063718566819,3.331796542284132
sz300237,2014-07-11,18.47,18.54,18.2,18.39,-0.004331000000000001,706365.0,12986862.94,1886814000.0,1886814000.0,0.006884649122807018,34.39,2014-03-31 00:00:00,2014-04-17 00:00:00,52.09249445234699,2.8972104928191067,37.22119253909136,3.1912353883680713
sz300237,2014-07-10,18.17,18.72,18.17,18.47,0.005444,1178851.0,21775775.32,1895022000.0,1895022000.0,0.011489775828460039,34.54,2014-03-31 00:00:00,2014-04-17 00:00:00,52.31908842431268,2.909812892456335,37.38309873973314,3.2051167490080252
sz300237,2014-07-09,19.1,19.1,18.35,18.37,-0.041232,1645945.0,30806267.04,1884762000.0,1884762000.0,0.016042348927875243,34.36,2014-03-31 00:00:00,2014-04-17 00:00:00,52.03580549917517,2.8940576426497495,37.180687079273575,3.1877625695792355
sz300237,2014-07-08,19.2,19.25,18.85,19.16,-0.0020829999999999998,947841.0,18029918.5,1965816000.0,1965816000.0,0.009238216374269005,35.83,2014-03-31 00:00:00,2014-04-17 00:00:00,54.27361520114895,3.0185171414249847,38.77964959121871,3.324852904539196
sz300237,2014-07-07,18.96,19.25,18.84,19.2,0.014263,998409.0,19013921.36,1969920000.0,1969920000.0,0.00973108187134503,35.91,2014-03-31 00:00:00,2014-04-17 00:00:00,54.38690312034863,3.0248178369794125,38.860596213130655,3.3317930294194764
sz300237,2014-07-04,19.01,19.15,18.81,18.93,-0.006821,1021649.0,19379515.44,1942218000.0,1942218000.0,0.009957592592592593,35.4,2014-03-31 00:00:00,2014-04-17 00:00:00,53.622091233091055,2.982281555158192,38.314121892576836,3.284939931181041
sz300237,2014-07-03,19.04,19.19,18.9,19.06,0.004215,1194895.0,22733412.21,1955556000.0,1955556000.0,0.011646150097465887,35.65,2014-03-31 00:00:00,2014-04-17 00:00:00,53.99035947507051,3.0027634043391895,38.57725736506394,3.307500391350443
sz300237,2014-07-02,19.26,19.28,18.71,18.98,-0.014537999999999999,1680377.0,31965484.29,1947348000.0,1947348000.0,0.016377943469785574,35.5,2014-03-31 00:00:00,2014-04-17 00:00:00,53.763745288678734,2.9901598804431218,38.415336720785824,3.2936177923556635
sz300237,2014-07-01,19.29,19.45,19.17,19.26,-0.003106,1441098.0,27789388.95,1976076000.0,1976076000.0,0.014045789473684213,36.02,2014-03-31 00:00:00,2014-04-17 00:00:00,54.556893405000636,3.034272128649427,38.98205787821938,3.3422067947375584
sz300237,2014-06-30,19.3,19.46,19.09,19.32,0.008351,1193881.0,23060133.37,1103609850.0,1982232000.0,0.020900303599138772,36.13,2014-03-31 00:00:00,2014-04-17 00:00:00,54.726875078996,3.0437259414234887,39.103513390811244,3.352620032558686
sz300237,2014-06-27,19.47,19.55,19.11,19.16,-0.015922,1749747.0,33760891.62,569052000.0,1965816000.0,0.058914040404040406,35.83,2014-03-31 00:00:00,2014-04-17 00:00:00,54.27363594521749,3.018518295140768,38.77966441329581,3.3248541753404184
sz300237,2014-06-26,18.99,19.58,18.97,19.47,0.0010279999999999998,2919810.0,56525111.3,578259000.0,1997622000.0,0.09831010101010101,36.41,2014-03-31 00:00:00,2014-04-17 00:00:00,55.151762304631845,3.0673567493031735,39.40710432841281,3.378649025118353
sz300237,2014-06-25,18.48,19.55,18.47,19.45,0.06926900000000001,3184251.0,60787474.42,577665000.0,1995570000.0,0.10721383838383838,36.37,2014-03-31 00:00:00,2014-04-17 00:00:00,55.09512451662874,3.0642067447695505,39.36663542719365,3.3751793407560555
sz300237,2014-06-24,18.47,18.48,17.91,18.19,-0.011413,1258846.0,22813491.46,540243000.0,1866294000.0,0.04238538720538721,34.02,2014-03-31 00:00:00,2014-04-17 00:00:00,51.52597196461203,2.865702404885534,36.81640020162714,3.156529685940634
sz300237,2014-06-23,18.48,18.64,18.22,18.4,0.005464,1180275.0,21808474.35,546480000.0,1887840000.0,0.039739898989898985,34.41,2014-03-31 00:00:00,2014-04-17 00:00:00,52.120826962737766,2.898786252383993,37.24143671889995,3.192971064702079
sz300237,2014-06-20,18.08,18.53,17.88,18.3,0.016666999999999998,1108636.0,20205038.46,543510000.0,1877580000.0,0.03732781144781145,34.22,2014-03-31 00:00:00,2014-04-17 00:00:00,51.83758639069899,2.8830333581152514,37.03905532062804,3.1756194798641015
sz300237,2014-06-19,18.6,18.93,17.52,18.0,-0.042553,2011024.0,36528775.3,534600000.0,1846800000.0,0.0677112457912458,33.66,2014-03-31 00:00:00,2014-04-17 00:00:00,50.987773175188124,2.8357695864184156,36.43184574755356,3.12355912001088
sz300237,2014-06-18,19.98,20.1,18.52,18.8,-0.059059,2931681.0,56234978.77,558360000.0,1928880000.0,0.09870979797979798,35.16,2014-03-31 00:00:00,2014-04-17 00:00:00,53.253885776641546,2.961803197898594,38.05103128168301,3.2623833173124774
sz300237,2014-06-17,20.2,20.4,19.9,19.98,-0.017699,1547425.0,31051865.6,593406000.0,2049948000.0,0.05210185185185185,37.37,2014-03-31 00:00:00,2014-04-17 00:00:00,56.59641335284736,3.1477034138151,40.43933815370253,3.467149712163119
sz300237,2014-06-16,19.78,20.42,19.78,20.34,0.015477000000000001,1991830.0,40199825.92,604098000.0,2086884000.0,0.06706498316498316,38.04,2014-03-31 00:00:00,2014-04-17 00:00:00,57.61616180055538,3.2044184153483504,41.16797005571869,3.5296204647690668
sz300237,2014-06-13,19.88,20.27,19.71,20.03,0.004514,1810567.0,36308873.34,594891000.0,2055078000.0,0.06096185185185185,37.46,2014-03-31 00:00:00,2014-04-17 00:00:00,56.73802735124024,3.1555795112526925,40.54052436019594,3.475825119396172
sz300237,2014-06-12,20.18,20.33,19.9,19.94,-0.020146999999999998,2173585.0,43593161.5,592218000.0,2045844000.0,0.07318468013468014,37.29,2014-03-31 00:00:00,2014-04-17 00:00:00,56.48306280573515,3.1413992351054265,40.3583467828183,3.4602057506377935
sz300237,2014-06-11,20.69,20.8,19.48,20.35,-0.021634999999999998,4496733.0,90479641.57,604395000.0,2087910000.0,0.15140515151515152,38.06,2014-03-31 00:00:00,2014-04-17 00:00:00,57.64442503695468,3.205990322125285,41.188164737790565,3.5313518973129576
sz300237,2014-06-10,20.8,21.43,20.24,20.8,-0.008453,2528952.0,52962962.4,617760000.0,2134080000.0,0.08514989898989898,38.9,2014-03-31 00:00:00,2014-04-17 00:00:00,58.91914064480503,3.276885745223188,42.09897608539815,3.6094421788524294
sz300237,2014-06-09,38.5,38.5,36.64,37.86,-0.020946,1418907.0,53044575.96,624690000.0,2158020000.0,0.08599436363636363,39.23,2014-03-31 00:00:00,2014-04-17 00:00:00,59.4214299925319,3.304821400521799,42.45787248148414,3.6402128984833086
sz300237,2014-06-06,40.48,40.57,38.17,38.67,-0.043532,2202953.0,85701697.4,638055000.0,2204190000.0,0.13351230303030304,40.07,2014-03-31 00:00:00,2014-04-17 00:00:00,60.692699271472165,3.3755251503204105,43.36622135396428,3.718092054660222
sz300237,2014-06-05,40.29,41.16,39.9,40.43,-0.005901,1711875.0,69315235.22,667095000.0,2304510000.0,0.10375,41.89,2014-03-31 00:00:00,2014-04-17 00:00:00,63.455023347850805,3.529156386121031,45.339960515107954,3.887314635367019
sz300237,2014-06-04,39.35,41.09,39.03,40.67,0.047656,2773015.0,111057241.25,671055000.0,2318190000.0,0.16806151515151516,42.14,2014-03-31 00:00:00,2014-04-17 00:00:00,63.83169417517854,3.550105559024837,45.60909981310509,3.910389845847365
sz300237,2014-06-03,39.24,40.0,38.8,38.82,-0.008429,1337563.0,52663523.16,640530000.0,2212740000.0,0.08106442424242424,40.23,2014-03-31 00:00:00,2014-04-17 00:00:00,60.92810443044142,3.3886175987393163,43.53442333466815,3.7325131969342658
sz300237,2014-05-30,38.42,39.32,37.92,39.15,0.024869,1807425.0,70151467.05,645975000.0,2231550000.0,0.10954090909090909,40.57,2014-03-31 00:00:00,2014-04-17 00:00:00,61.446033042960536,3.417423057692607,43.9044943172684,3.764241992690655
sz300237,2014-05-29,38.15,39.4,37.63,38.2,-0.005726,1680961.0,64693017.96,630300000.0,2177400000.0,0.10187642424242425,39.58,2014-03-31 00:00:00,2014-04-17 00:00:00,59.95501185318371,3.334497440836446,42.8391280419921,3.6729006269978455
sz300237,2014-05-28,37.21,38.49,37.2,38.42,0.021809000000000002,1342529.0,51305988.03,633930000.0,2189940000.0,0.08136539393939395,39.81,2014-03-31 00:00:00,2014-04-17 00:00:00,60.300291321289414,3.353700731223431,43.08583754779075,3.6940527731770576
sz300237,2014-05-27,38.84,38.84,37.38,37.6,-0.032922,1635911.0,62090000.66,620400000.0,2143200000.0,0.09914612121212121,38.96,2014-03-31 00:00:00,2014-04-17 00:00:00,59.01327089631175,3.282120955309095,42.166234147272874,3.6152086869239333
sz300237,2014-05-26,39.21,39.32,38.24,38.88,-0.018182,2001261.0,77428114.25,641520000.0,2216160000.0,0.12128854545454547,40.29,2014-03-31 00:00:00,2014-04-17 00:00:00,61.02224525458314,3.393853396839857,43.6016889509149,3.7382803526953707
sz300237,2014-05-23,38.0,40.49,37.91,39.6,0.035565,3026797.0,119533380.22,653400000.0,2257200000.0,0.18344224242424242,41.03,2014-03-31 00:00:00,2014-04-17 00:00:00,62.1522983430566,3.4567031739485907,44.409135859105156,3.807508471728336
sz300237,2014-05-22,37.99,38.48,37.73,38.24,0.004202,1593713.0,60686402.92,630960000.0,2179680000.0,0.09658866666666667,39.62,2014-03-31 00:00:00,2014-04-17 00:00:00,60.01776647825737,3.337987643410689,42.88396755307986,3.6767450345737207
sz300237,2014-05-21,38.8,38.81,37.55,38.08,-0.026087,2092904.0,79526249.79,628320000.0,2170560000.0,0.12684266666666666,39.46,2014-03-31 00:00:00,2014-04-17 00:00:00,59.76662711113638,3.3240201109046676,42.70452314681694,3.6613599998543327
sz300237,2014-05-20,39.21,40.5,38.65,39.1,-0.000256,2544859.0,100106508.29,645150000.0,2228700000.0,0.15423387878787878,40.52,2014-03-31 00:00:00,2014-04-17 00:00:00,61.3675216483776,3.4130565162439224,43.84839626005294,3.759432310539373
sz300237,2014-05-19,38.99,41.4,38.84,39.11,-0.019062,2959046.0,117670803.18,645315000.0,2229270000.0,0.17933612121212122,40.53,2014-03-31 00:00:00,2014-04-17 00:00:00,61.383235756731324,3.4139304824474292,43.85962432387985,3.7603949716521163
sz300237,2014-05-16,41.8,43.8,39.66,39.87,-0.024945,4835036.0,201923645.01,657855000.0,2272590000.0,0.2930324848484848,41.31,2014-03-31 00:00:00,2014-04-17 00:00:00,62.576060624352735,3.480271416182704,44.71192300010791,3.8334685491357416
sz300237,2014-05-15,37.17,40.89,36.37,40.89,0.10008099999999999,4869076.0,189450353.13,674685000.0,2330730000.0,0.29509551515151516,42.37,2014-03-31 00:00:00,2014-04-17 00:00:00,64.17695476086244,3.569307799234611,45.85579582701274,3.9315408352715915
sz300237,2014-05-14,37.17,37.17,35.0,37.17,0.10003,4529546.0,164154136.75,613305000.0,2118690000.0,0.27451793939393937,38.52,2014-03-31 00:00:00,2014-04-17 00:00:00,58.338390319315074,3.244586352490963,41.684017655984185,3.5738648656522485
sz300237,2014-02-07,33.3,33.9,33.01,33.79,0.0077540000000000005,686319.0,23078319.12,557535000.0,1926030000.0,0.04159509090909091,35.01,2013-09-30 00:00:00,2013-10-24 00:00:00,77.6860918734656,3.555089346774547,52.85209399969555,3.3364960289460965
sz300237,2014-01-30,33.63,34.23,33.22,33.53,-0.013824000000000001,824497.0,27654876.52,553245000.0,1911210000.0,0.049969515151515154,34.74,2013-09-30 00:00:00,2013-10-24 00:00:00,77.08834881674058,3.527735287356385,52.44543211904447,3.3108239004222217
sz300237,2014-01-29,33.52,34.04,33.52,34.0,0.014925,767134.0,25922200.83,561000000.0,1938000000.0,0.0464929696969697,35.23,2013-09-30 00:00:00,2013-10-24 00:00:00,78.16895647099561,3.5771863109185227,53.180600743725726,3.357234307488949
sz300237,2014-01-28,34.7,35.06,33.0,33.5,-0.039564,1566049.0,52677150.39,552750000.0,1909500000.0,0.09491206060606061,34.71,2013-09-30 00:00:00,2013-10-24 00:00:00,77.01944130945205,3.5245819256777815,52.39855234990342,3.3078644308583875
sz300237,2014-01-27,35.2,35.79,34.28,34.88,-0.025698000000000002,1645202.0,57344474.88,575520000.0,1988160000.0,0.09970921212121213,36.14,2013-09-30 00:00:00,2013-10-24 00:00:00,80.19216408948857,3.6697728174264417,54.557047372134555,3.444127907386216
sz300237,2014-01-24,35.44,36.19,34.8,35.8,0.006183,1977921.0,70506886.55,590700000.0,2040600000.0,0.11987399999999998,37.1,2013-09-30 00:00:00,2013-10-24 00:00:00,82.30729700800015,3.7665660312987566,55.99603343946184,3.534969555010885
sz300237,2014-01-23,34.65,35.7,34.36,35.58,0.028918,2086517.0,73604720.69,587070000.0,2028060000.0,0.12645557575757577,36.87,2013-09-30 00:00:00,2013-10-24 00:00:00,81.80151822084069,3.743420462578633,55.65193750983851,3.5132471478954477
sz300237,2014-01-22,34.1,34.69,33.5,34.58,0.005525,1678049.0,57266210.59,570570000.0,1971060000.0,0.1016999393939394,35.83,2013-09-30 00:00:00,2013-10-24 00:00:00,79.5024659116088,3.6382106859619845,54.08782576438405,3.4145064503638265
sz300237,2014-01-21,33.74,34.39,33.48,34.39,0.020475,1132668.0,38567647.52,567435000.0,1960230000.0,0.06864654545454546,35.64,2013-09-30 00:00:00,2013-10-24 00:00:00,79.0656283151675,3.618220020349553,53.79063251971264,3.3957449594627946
sz300237,2014-01-20,35.0,35.19,33.2,33.7,-0.046945999999999995,1419135.0,48244494.99,556050000.0,1920900000.0,0.08600818181818183,34.92,2013-09-30 00:00:00,2013-10-24 00:00:00,77.47924085858791,3.5456233816110667,52.71136727476189,3.3276121016808786
sz300237,2014-01-17,35.8,36.17,35.32,35.36,-0.021583,1097269.0,39174971.21,583440000.0,2015520000.0,0.06650115151515151,36.64,2013-09-30 00:00:00,2013-10-24 00:00:00,81.29575119414841,3.720275432043795,55.307849581200955,3.4915252458736643
sz300237,2014-01-16,36.5,36.97,35.48,36.14,-0.021391999999999998,2176138.0,78752592.32,596310000.0,2059980000.0,0.1318871515151515,37.45,2013-09-30 00:00:00,2013-10-24 00:00:00,83.08906242854367,3.8023413657405736,56.52789105381545,3.568545155975074
sz300237,2014-01-15,35.0,36.99,34.76,36.93,0.046769,2813285.0,100837847.4,609345000.0,2105010000.0,0.17050212121212122,38.27,2013-09-30 00:00:00,2013-10-24 00:00:00,84.9053578435325,3.8854591069565885,57.76356932889926,3.6465522006514086
sz300237,2014-01-14,34.29,35.3,34.28,35.28,0.020833,1819941.0,63254847.59,582120000.0,2010960000.0,0.11029945454545455,36.56,2013-09-30 00:00:00,2013-10-24 00:00:00,81.11183827905917,3.711859165638826,55.182728308632804,3.48362647408493
sz300237,2014-01-13,34.06,35.35,34.06,34.56,0.038462,2378843.0,82454359.26,570240000.0,1969920000.0,0.14417230303030304,35.81,2013-09-30 00:00:00,2013-10-24 00:00:00,79.45652058569733,3.6361081250692577,54.05656783100939,3.4125331705430075
sz300237,2014-01-10,33.43,34.19,32.41,33.28,0.005438,1672599.0,55652529.41,549120000.0,1896960000.0,0.10136963636363637,34.49,2013-09-30 00:00:00,2013-10-24 00:00:00,76.513652483863,3.501435897576664,52.054449590846254,3.2861415926081143
sz300237,2014-01-09,35.02,35.18,33.03,33.1,-0.063649,2360632.0,80353094.44,546150000.0,1886700000.0,0.14306860606060606,34.3,2013-09-30 00:00:00,2013-10-24 00:00:00,76.09982165371012,3.482498073055389,51.77290851434525,3.2683682063022426
sz300237,2014-01-08,33.99,35.8,33.5,35.35,0.056801,2571075.0,90141059.61,583275000.0,2014950000.0,0.15582272727272728,36.63,2013-09-30 00:00:00,2013-10-24 00:00:00,81.27275098089297,3.719222890834087,55.292201871248324,3.4905374227210118
sz300237,2014-01-07,33.96,34.25,33.03,33.45,-0.006534000000000001,1753859.0,58854089.49,551925000.0,1906650000.0,0.10629448484848486,34.66,2013-09-30 00:00:00,2013-10-24 00:00:00,76.90449855828388,3.519321888259083,52.320353473594665,3.3029278196377665
sz300237,2014-01-06,37.17,37.17,33.67,33.67,-0.099973,2732065.0,94636640.99,555555000.0,1919190000.0,0.16557969696969696,34.89,2013-09-30 00:00:00,2013-10-24 00:00:00,77.41029744176839,3.542468376631996,52.66446307532887,3.324651089858905
sz300237,2014-01-03,38.21,38.95,37.17,37.41,-0.029824,2380188.0,90067435.33,617265000.0,2132370000.0,0.14425381818181818,38.76,2013-09-30 00:00:00,2013-10-24 00:00:00,86.0088613361248,3.9359578952986927,58.51431465425912,3.6939459481314505
sz300237,2014-01-02,37.0,39.89,36.51,38.56,0.041881,2975781.0,114837178.31,636240000.0,2197920000.0,0.18035036363636367,39.96,2013-09-30 00:00:00,2013-10-24 00:00:00,88.65284374806714,4.056952445018937,60.31309231959882,3.807500853588885
sz300237,2013-12-31,37.47,38.78,35.7,37.01,-0.044903,2923229.0,108294072.51,610665000.0,2109570000.0,0.17716539393939393,38.35,2013-09-30 00:00:00,2013-10-24 00:00:00,85.08922203981754,3.8938731438800946,57.88865745665659,3.6544488800437716
sz300237,2013-12-30,39.3,41.3,38.05,38.75,-0.015998,4867570.0,191775327.93,639375000.0,2208750000.0,0.29500424242424245,40.15,2013-09-30 00:00:00,2013-10-24 00:00:00,89.08961292917637,4.076939979792728,60.61023901934212,3.8262594061585076
sz300237,2013-12-27,33.9,39.38,33.9,39.38,0.1,5924480.0,218577083.1,649770000.0,2244660000.0,0.35905939393939396,40.81,2013-09-30 00:00:00,2013-10-24 00:00:00,90.53804050111316,4.143223265595728,61.59564616671725,3.888467102870225
sz300237,2013-12-26,36.98,38.45,35.7,35.8,0.024319999999999998,6964132.0,260804918.67,590700000.0,2040600000.0,0.42206860606060603,37.1,2013-09-30 00:00:00,2013-10-24 00:00:00,82.30730954646651,3.7665666050870255,55.996041969742954,3.5349700935183863
sz300237,2013-12-25,33.9,34.95,33.9,34.95,0.100094,2113749.0,73649643.67,576675000.0,1992150000.0,0.12810600000000003,36.22,2013-09-30 00:00:00,2013-10-24 00:00:00,80.35312162846232,3.677138594469527,54.666551438752506,3.4510407817072664
sz300237,2013-12-24,29.89,32.52,29.8,31.77,0.062542,2487649.0,78650816.94,524205000.0,1810890000.0,0.15076660606060607,32.92,2013-09-30 00:00:00,2013-10-24 00:00:00,73.04205061427689,3.3425676301020886,49.69261848419545,3.137041727077201
sz300237,2013-12-23,30.3,30.68,28.02,29.9,-0.022556,1592486.0,46641645.19,493350000.0,1704300000.0,0.09651430303030303,30.98,2013-09-30 00:00:00,2013-10-24 00:00:00,68.74274204151637,3.1458216523225326,46.767674580576994,2.9523931544138495
sz300237,2013-12-20,30.51,31.15,30.28,30.59,0.000327,944914.0,28976048.23,504735000.0,1743630000.0,0.05726751515151515,31.7,2013-09-30 00:00:00,2013-10-24 00:00:00,70.32908488007125,3.218416249240399,47.84690947059575,3.020524095921454
sz300237,2013-12-19,30.42,31.35,30.3,30.58,0.008243,1474995.0,45544917.02,504570000.0,1743060000.0,0.08939363636363637,31.69,2013-09-30 00:00:00,2013-10-24 00:00:00,70.30609478707589,3.217364171156431,47.8312686457486,3.0195367074181285
sz300237,2013-12-18,33.51,33.96,30.3,30.33,-0.09919800000000001,3127503.0,96799552.58,500445000.0,1728810000.0,0.18954563636363636,31.43,2013-09-30 00:00:00,2013-10-24 00:00:00,69.73129968378245,3.191060261421533,47.44021892118129,2.9948501575692847
sz300237,2013-12-17,34.72,35.68,33.3,33.67,-0.032193,2287795.0,78266236.57,555555000.0,1919190000.0,0.13865424242424243,34.89,2013-09-30 00:00:00,2013-10-24 00:00:00,77.41024074522754,3.542465782071458,52.66442450303318,3.3246486548312335
sz300237,2013-12-16,34.4,35.98,34.01,34.79,0.002594,3680841.0,130032212.83,574035000.0,1983030000.0,0.22308127272727274,36.05,2013-09-30 00:00:00,2013-10-24 00:00:00,79.98520443149052,3.66030188051074,54.416246734145524,3.4352393140690585
sz300237,2013-12-13,33.01,35.9,32.96,34.7,0.046126,3902000.0,135226948.47,572550000.0,1977900000.0,0.23648484848484852,35.96,2013-09-30 00:00:00,2013-10-24 00:00:00,79.77825962602063,3.650831623279952,54.27545620076076,3.4263513586447343
sz300237,2013-12-12,32.09,33.48,31.8,33.17,0.035592,2189086.0,72038652.31,547305000.0,1890690000.0,0.13267187878787878,34.37,2013-09-30 00:00:00,2013-10-24 00:00:00,76.26066040421576,3.4898584140724456,51.88233176573448,3.27527597884455
sz300237,2013-12-11,32.6,32.95,31.56,32.03,-0.029394,2375385.0,76212823.55,528495000.0,1825710000.0,0.14396272727272727,33.19,2013-09-30 00:00:00,2013-10-24 00:00:00,73.63967701972955,3.36991635129708,50.09920100361386,3.1627088456115438
sz300237,2013-12-10,35.77,35.77,32.24,33.0,-0.075112,4100803.0,136683284.68,544500000.0,1881000000.0,0.24853351515151514,34.2,2013-09-30 00:00:00,2013-10-24 00:00:00,75.86979373682992,3.4719714810098843,51.616413872996716,3.2584888673792904
sz300237,2013-12-09,33.28,36.0,33.0,35.68,0.074375,4511155.0,156887107.97,588720000.0,2033760000.0,0.27340333333333333,36.97,2013-09-30 00:00:00,2013-10-24 00:00:00,82.03133107666001,3.753937212948902,55.808285838930466,3.5231172502825108
sz300237,2013-12-06,32.28,33.28,31.84,33.21,0.026583999999999997,3630448.0,118797415.13,547965000.0,1892970000.0,0.2200271515151515,34.41,2013-09-30 00:00:00,2013-10-24 00:00:00,76.35260600503548,3.494066050446913,51.944885015874775,3.2792248984595793
sz300237,2013-12-05,32.16,33.18,31.6,32.35,-0.025015,3801527.0,122413458.96,533775000.0,1843950000.0,0.23039557575757577,33.52,2013-09-30 00:00:00,2013-10-24 00:00:00,74.37541010286104,3.4035851430052615,50.599741488153704,3.1943074297471803
sz300237,2013-12-04,35.61,36.78,32.94,33.18,-0.067978,5907607.0,207923407.75,547470000.0,1891260000.0,0.3580367878787879,34.38,2013-09-30 00:00:00,2013-10-24 00:00:00,76.28364549491637,3.4909102632402154,51.89796918737591,3.2762631525071466
sz300237,2013-12-03,35.6,37.5,35.6,35.6,-0.100101,5309871.0,190874118.11,587400000.0,2029200000.0,0.3218103636363636,36.89,2013-09-30 00:00:00,2013-10-24 00:00:00,81.8474730155687,3.745523456785586,55.68320188512279,3.5152208343871143
sz300237,2013-12-02,39.56,39.56,39.56,39.56,-0.100091,712900.0,28202324.0,652740000.0,2254920000.0,0.04320606060606061,40.99,2013-09-30 00:00:00,2013-10-24 00:00:00,90.95184350195822,4.162159816585624,61.87716831013569,3.9062392939508928
sz300237,2013-11-29,41.58,45.58,40.12,43.96,0.057492999999999995,6142578.0,267017168.26,725340000.0,2505720000.0,0.3722774545454545,45.55,2013-09-30 00:00:00,2013-10-24 00:00:00,101.06782297094286,4.625089666383627,68.75936156893161,4.340704775650529
sz300237,2013-11-28,37.3,41.57,37.01,41.57,0.100026,5633115.0,222627009.54,685905000.0,2369490000.0,0.3414009090909091,43.08,2013-09-30 00:00:00,2013-10-24 00:00:00,95.57304206358138,4.373636200318704,65.02110327816034,4.1047125377194265
sz300237,2013-11-27,35.5,38.78,35.01,37.79,0.052646000000000005,4732137.0,175463942.04,623535000.0,2154030000.0,0.28679618181818184,39.16,2013-09-30 00:00:00,2013-10-24 00:00:00,86.88253010708964,3.9759389326422325,59.108696774585646,3.7314686541222
sz300237,2013-11-26,34.25,37.98,34.04,35.9,0.026300999999999998,6548099.0,234869081.76,592350000.0,2046300000.0,0.39685448484848485,37.2,2013-09-30 00:00:00,2013-10-24 00:00:00,82.53727284109722,3.7770902398738344,56.152492646707096,3.544846657016888
sz300237,2013-11-25,31.93,34.98,31.86,34.98,0.1,5506274.0,186749839.15,577170000.0,1993860000.0,0.3337135757575757,36.25,2013-09-30 00:00:00,2013-10-24 00:00:00,80.42209141479668,3.6802948061765846,54.71347357812875,3.4540029260586214
sz300237,2013-11-22,31.41,33.3,31.41,31.8,0.004739,3010565.0,97654973.97,524700000.0,1812600000.0,0.18245848484848484,32.95,2013-09-30 00:00:00,2013-10-24 00:00:00,73.11099219526969,3.345722551069622,49.739521434662485,3.1400026600532915
sz300237,2013-11-21,31.5,33.25,31.4,31.65,-0.0183,3248401.0,104716908.69,522225000.0,1804050000.0,0.19687278787878787,32.8,2013-09-30 00:00:00,2013-10-24 00:00:00,72.76615339433394,3.3299419561394767,49.50491763001385,3.1251923733957687
sz300237,2013-11-20,32.49,32.6,31.22,32.24,-0.020061000000000002,3266781.0,104245602.52,531960000.0,1837680000.0,0.1979867272727273,33.41,2013-09-30 00:00:00,2013-10-24 00:00:00,74.1225969179321,3.3920158461235377,50.42774537029016,3.1834494992317093
sz300237,2013-11-19,32.27,35.5,32.01,32.9,0.019523,5421082.0,184997846.18,542850000.0,1875300000.0,0.32855042424242425,34.09,2013-09-30 00:00:00,2013-10-24 00:00:00,75.6400111822594,3.4614561172925433,51.46008615872025,3.248620066383427
sz300237,2013-11-18,32.0,32.5,31.04,32.27,0.00062,3695708.0,117470072.8,532455000.0,1839390000.0,0.22398230303030306,33.44,2013-09-30 00:00:00,2013-10-24 00:00:00,74.19156917721267,3.3951721709981464,50.474669192083205,3.1864117497922333
sz300237,2013-11-15,32.7,33.7,31.8,32.25,-0.03472,5436247.0,177257689.65,532125000.0,1838250000.0,0.3294695151515151,33.42,2013-09-30 00:00:00,2013-10-24 00:00:00,74.14559890589102,3.3930684685476464,50.443394287624876,3.184437398605098
sz300237,2013-11-14,31.8,34.0,31.31,33.41,0.020464,5559471.0,181737832.71,551265000.0,1904370000.0,0.33693763636363633,34.62,2013-09-30 00:00:00,2013-10-24 00:00:00,76.81252994560234,3.515113198810342,52.25778456781957,3.2989779116992977
sz300237,2013-11-13,29.35,32.74,29.31,32.74,0.100134,6707969.0,211678208.68,540210000.0,1866180000.0,0.4065435757575758,33.93,2013-09-30 00:00:00,2013-10-24 00:00:00,75.27216045407025,3.4446224450939393,51.20982667474754,3.2328214534753776
sz300237,2013-11-12,31.02,31.97,29.2,29.76,-0.02266,5671091.0,173407393.08,491040000.0,1696320000.0,0.34370248484848487,30.84,2013-09-30 00:00:00,2013-10-24 00:00:00,68.42090186656375,3.131093525964964,46.54871740601376,2.9385706227381188
sz300237,2013-11-11,27.57,30.45,27.28,30.45,0.10007200000000001,4560783.0,132858826.95,502425000.0,1735650000.0,0.2764110909090909,31.55,2013-09-30 00:00:00,2013-10-24 00:00:00,70.00726652604392,3.203689121457184,47.627967141438766,3.0067025014203033
sz300237,2013-11-08,25.98,28.58,25.82,27.68,0.052471000000000004,4729978.0,129094966.69,456720000.0,1577760000.0,0.2866653333333333,28.68,2013-09-30 00:00:00,2013-10-24 00:00:00,63.638804120133884,2.9122540356060185,43.295318071397844,2.7331870108686553
sz300237,2013-11-07,26.0,27.27,25.55,26.3,-0.032021,3747471.0,98644337.89,433950000.0,1499100000.0,0.22711945454545454,27.25,2013-09-30 00:00:00,2013-10-24 00:00:00,60.466088015854005,2.767063449354917,41.13682759087694,2.5969238210541246
sz300237,2013-11-06,26.7,29.29,26.67,27.17,0.004808,5724828.0,159548560.75,448305000.0,1548690000.0,0.3469592727272728,28.15,2013-09-30 00:00:00,2013-10-24 00:00:00,62.46632211634138,2.8585986362874785,42.4976446708833,2.682830744317929
sz300237,2013-11-05,26.6,27.25,26.3,27.04,-0.015295,4843520.0,129944479.14,446160000.0,1541280000.0,0.2935466666666667,28.02,2013-09-30 00:00:00,2013-10-24 00:00:00,62.16742115542609,2.844920259678942,42.294293706741286,2.6699934159739263
sz300237,2013-11-04,26.1,29.39,25.02,27.46,0.009559,6844313.0,181616946.24,453090000.0,1565220000.0,0.4148068484848485,28.45,2013-09-30 00:00:00,2013-10-24 00:00:00,63.133041017793246,2.889109184658291,42.951232812610165,2.7114652773916315
sz300237,2013-11-01,27.2,27.4,27.2,27.2,-0.09993400000000001,3056000.0,83127001.0,448800000.0,1550400000.0,0.18521212121212122,28.19,2013-09-30 00:00:00,2013-10-24 00:00:00,62.535266406216216,2.861753681219513,42.54454946428109,2.685791793636262
sz300237,2013-10-31,31.5,32.19,30.22,30.22,0.032809,8295554.0,264317620.09,498630000.0,1722540000.0,0.5027608484848485,31.31,2013-09-30 00:00:00,2013-10-24 00:00:00,69.47853424772873,3.179493149635152,47.26825528825785,2.983994277793253
sz300237,2013-10-30,26.2,29.26,26.15,29.26,0.1,3372585.0,95147970.16,482790000.0,1667820000.0,0.20439909090909092,30.32,2013-09-30 00:00:00,2013-10-24 00:00:00,67.27142603107518,3.078490940372472,45.76669576684348,2.889202435100055
sz300237,2013-10-29,25.7,28.1,24.62,26.6,0.035422,5313867.0,140387358.18,438900000.0,1516200000.0,0.3220525454545455,27.56,2013-09-30 00:00:00,2013-10-24 00:00:00,61.15584184643197,2.7986281276113374,41.60608706076679,2.6265476682727766
sz300237,2013-10-28,23.32,25.99,23.32,25.69,0.078958,2871412.0,72342173.45,423885000.0,1464330000.0,0.1740249696969697,26.62,2013-09-30 00:00:00,2013-10-24 00:00:00,59.06368789385581,2.702886482623836,40.182734248226126,2.5366929312616273
sz300237,2013-10-25,22.45,24.75,22.3,23.81,0.057752,2604158.0,62394362.27,392865000.0,1357170000.0,0.15782775757575757,24.67,2013-09-30 00:00:00,2013-10-24 00:00:00,54.74141523011629,2.505089616670747,37.242167209683906,2.351058086840848
sz300237,2013-10-24,21.39,23.5,21.31,22.51,0.052361000000000005,1622296.0,36359503.35,371415000.0,1283070000.0,0.09832096969696971,23.33,2013-09-30 00:00:00,2013-10-24 00:00:00,51.75259912542476,2.3683147057824017,35.20878921494254,2.2226931141145068
sz300237,2013-10-23,21.65,22.29,21.0,21.39,-0.013831,795321.0,17178767.12,352935000.0,1219230000.0,0.048201272727272725,22.16,2013-06-30 00:00:00,2013-08-22 00:00:00,57.794705909899314,2.432871278140556,62.06114443617324,2.13507300488117
sz300237,2013-10-22,22.2,22.5,21.62,21.69,-0.021209,784629.0,17240149.45,357885000.0,1236330000.0,0.047553272727272736,22.48,2013-06-30 00:00:00,2013-08-22 00:00:00,58.60527547499397,2.46699224792156,62.93155071409997,2.1650173599871527
sz300237,2013-10-21,20.99,22.18,20.98,22.16,0.05977999999999999,1189073.0,25947487.25,365640000.0,1263120000.0,0.0720650303030303,22.96,2013-06-30 00:00:00,2013-08-22 00:00:00,59.8751679112231,2.520448438861371,64.29518734244591,2.21193018733024
sz300237,2013-10-18,20.54,21.05,20.5,20.91,0.017023,421485.0,8779643.52,345015000.0,1191870000.0,0.025544545454545455,21.67,2013-06-30 00:00:00,2013-08-22 00:00:00,56.49773340808762,2.378275150372125,60.668428676183645,2.0871597759254183
sz300237,2013-10-17,20.6,20.98,20.45,20.56,0.004397,564388.0,11688558.66,339240000.0,1171920000.0,0.03420533333333333,21.3,2013-06-30 00:00:00,2013-08-22 00:00:00,55.552070511765834,2.3384674194901445,59.652956399396714,2.052224753939113
sz300237,2013-10-16,21.02,21.45,20.45,20.47,-0.043905,1040471.0,21698447.08,337755000.0,1166790000.0,0.06305884848484848,21.21,2013-06-30 00:00:00,2013-08-22 00:00:00,55.30887737793507,2.328230191338828,59.39181060815268,2.043240624911378
sz300237,2013-10-15,21.78,21.78,21.24,21.41,-0.014726,769600.0,16476039.41,353265000.0,1220370000.0,0.04664242424242424,22.19,2013-06-30 00:00:00,2013-08-22 00:00:00,57.84872567886566,2.4351452432434306,62.1191519756433,2.1370686227952014
sz300237,2013-10-14,21.7,21.86,21.4,21.73,-0.019847,1034886.0,22340165.84,358545000.0,1238610000.0,0.06272036363636363,22.52,2013-06-30 00:00:00,2013-08-22 00:00:00,58.7133382986516,2.4715411583411626,63.04759079773068,2.1690094560449187
sz300237,2013-10-11,21.7,22.74,21.7,22.17,0.026864,1255299.0,27934585.81,365805000.0,1263690000.0,0.07607872727272728,22.97,2013-06-30 00:00:00,2013-08-22 00:00:00,59.902217611588796,2.521587097464541,64.32423386729488,2.212929467180041
sz300237,2013-10-10,21.89,21.9,21.28,21.59,-0.015503999999999999,1161747.0,25098456.18,356235000.0,1230630000.0,0.07040890909090909,22.37,2013-06-30 00:00:00,2013-08-22 00:00:00,58.33510339401206,2.455619339527475,62.64143437426463,2.1550365649005525
sz300237,2013-10-09,20.85,22.2,20.63,21.93,0.051799,1722438.0,37283407.05,361845000.0,1250010000.0,0.10439018181818181,22.72,2013-06-30 00:00:00,2013-08-22 00:00:00,59.25377390462943,2.494290824470059,63.627921671865224,2.188974424376079
sz300237,2013-10-08,20.56,21.0,20.42,20.85,0.004335,799944.0,16604775.0,344025000.0,1188450000.0,0.04848145454545455,21.61,2013-06-30 00:00:00,2013-08-22 00:00:00,56.33564388693033,2.3714519831926624,60.49437361308123,2.081171805997229
sz300237,2013-09-30,20.23,21.2,20.23,20.76,0.027723,1216679.0,25255880.81,342540000.0,1183320000.0,0.07373812121212123,21.51,2013-06-30 00:00:00,2013-08-22 00:00:00,56.09248297324134,2.3612161113499606,60.23326242048843,2.072188867257667
sz300237,2013-09-27,19.59,20.4,19.59,20.2,0.033777,1198646.0,24015388.52,333300000.0,1151400000.0,0.07264521212121212,20.93,2013-06-30 00:00:00,2013-08-22 00:00:00,54.579378853291544,2.297521911400213,58.608460081644985,2.016291225610079
sz300237,2013-09-26,19.56,19.94,19.52,19.54,-0.005092,515314.0,10126962.86,322410000.0,1113780000.0,0.031231151515151514,20.25,2013-06-30 00:00:00,2013-08-22 00:00:00,52.79608547422852,2.222454079942011,56.693522956735336,1.9504121542751278
sz300237,2013-09-25,19.65,19.86,19.51,19.64,0.0,514130.0,10116253.85,324060000.0,1119480000.0,0.031159393939393938,20.35,2013-06-30 00:00:00,2013-08-22 00:00:00,53.06629906908832,2.233828735865036,56.983683875026976,1.9603944829824749
sz300237,2013-09-24,20.05,20.05,19.51,19.64,-0.022399000000000002,1059413.0,20860535.31,324060000.0,1119480000.0,0.06420684848484849,20.35,2013-06-30 00:00:00,2013-08-22 00:00:00,53.06629906908832,2.233828735865036,56.983683875026976,1.9603944829824749
sz300237,2013-09-23,19.55,20.2,19.51,20.09,0.031314,942492.0,18808037.79,331485000.0,1145130000.0,0.057120727272727274,20.82,2013-06-30 00:00:00,2013-08-22 00:00:00,54.282165289405725,2.2850106903174567,58.289306041040234,2.005311454246134
sz300237,2013-09-18,19.11,19.5,19.03,19.48,0.019895,394259.0,7604115.19,321420000.0,1110360000.0,0.02389448484848485,20.19,2013-06-30 00:00:00,2013-08-22 00:00:00,52.63398469273735,2.215630438758183,56.5194558020547,1.9444237683635963
sz300237,2013-09-17,19.38,19.6,19.01,19.1,-0.014447999999999999,421744.0,8166542.99,315150000.0,1088700000.0,0.025560242424242426,19.79,2013-06-30 00:00:00,2013-08-22 00:00:00,51.60725828907618,2.1724103351405617,55.41693586305914,1.906494068863556
sz300237,2013-09-16,19.29,19.58,19.28,19.38,0.004666,428228.0,8317895.89,319770000.0,1104660000.0,0.02595321212121212,20.08,2013-06-30 00:00:00,2013-08-22 00:00:00,52.36381062498597,2.20425744673093,56.22933732878543,1.934442899881037
sz300237,2013-09-13,19.1,19.48,19.1,19.29,0.007837,247222.0,4766628.7,318285000.0,1099530000.0,0.014983151515151515,19.99,2013-06-30 00:00:00,2013-08-22 00:00:00,52.12061583151612,2.1940201487170166,55.96818975538679,1.9254587095423126
sz300237,2013-09-12,19.12,19.32,19.05,19.14,-0.0020859999999999997,327829.0,6284926.34,315810000.0,1090980000.0,0.019868424242424243,19.83,2013-06-30 00:00:00,2013-08-22 00:00:00,51.71532284636912,2.176959318537637,55.532977808303116,1.9104862289659066
sz300237,2013-09-11,19.52,19.6,19.02,19.18,-0.018424,502047.0,9641765.57,316470000.0,1093260000.0,0.03042709090909091,19.87,2013-06-30 00:00:00,2013-08-22 00:00:00,51.82342651407748,2.181509948289769,55.649061751115944,1.914479833899421
sz300237,2013-09-10,19.88,19.88,19.32,19.54,-0.014624000000000002,1102452.0,21465037.0,322410000.0,1113780000.0,0.06681527272727272,20.25,2013-06-30 00:00:00,2013-08-22 00:00:00,52.7961426461909,2.2224564865988667,56.69358434916495,1.9504142663425152
sz300237,2013-09-09,19.56,20.18,19.4,19.83,0.013286000000000001,711101.0,14082648.4,327195000.0,1130310000.0,0.0430970303030303,20.55,2013-06-30 00:00:00,2013-08-22 00:00:00,53.57969206291902,2.2554400417697065,57.534975835787506,1.9793604333193777
sz300237,2013-09-06,19.96,19.96,19.4,19.57,-0.018556,893981.0,17456453.4,322905000.0,1115490000.0,0.05418066666666667,20.28,2013-06-30 00:00:00,2013-08-22 00:00:00,52.87716603497831,2.2258671705418873,56.78058893124696,1.9534074617821402
sz300237,2013-09-05,19.49,19.96,19.33,19.94,0.024666,837830.0,16595511.21,329010000.0,1136580000.0,0.050777575757575764,20.66,2013-06-30 00:00:00,2013-08-22 00:00:00,53.876905900874945,2.2679512743894583,57.854130170694376,1.99034021480812
sz300237,2013-09-04,19.73,19.79,19.13,19.46,-0.01568,522836.0,10213865.22,321090000.0,1109220000.0,0.0316870303030303,20.16,2013-06-30 00:00:00,2013-08-22 00:00:00,52.57996840031283,2.2133566200005252,56.46145199576679,1.9424282788812353
sz300237,2013-09-03,19.09,20.94,19.07,19.77,0.037795,771816.0,15245941.79,326205000.0,1126890000.0,0.046776727272727275,20.49,2013-06-30 00:00:00,2013-08-22 00:00:00,53.417555673269696,2.248614901658531,57.36087044433394,1.973370731958342
sz300237,2013-09-02,18.56,19.2,18.5,19.05,0.024744,398288.0,7482832.37,314325000.0,1085850000.0,0.024138666666666666,19.74,2013-06-30 00:00:00,2013-08-22 00:00:00,51.472165189916794,2.1667235838084893,55.27187011339806,1.9015034105563642
sz300237,2013-08-30,19.0,19.16,18.53,18.59,-0.019515,585160.0,11056110.19,306735000.0,1059630000.0,0.035464242424242426,19.26,2013-06-30 00:00:00,2013-08-22 00:00:00,50.229291598601,2.1144047526099095,53.93724687668145,1.8555887231897568
sz300237,2013-08-29,19.25,19.38,18.85,18.96,-0.015576,830596.0,15780941.67,312840000.0,1080720000.0,0.05033915151515152,19.65,2013-06-30 00:00:00,2013-08-22 00:00:00,51.229026041806854,2.1564886281890177,55.01078229313191,1.8925212758887249
sz300237,2013-08-28,19.41,19.55,19.21,19.26,-0.019348,585065.0,11345026.0,317790000.0,1097820000.0,0.03545848484848485,19.96,2013-06-30 00:00:00,2013-08-22 00:00:00,52.039594769943506,2.1906095627382287,55.88118767231591,1.9224656000755012
sz300237,2013-08-27,19.9,19.93,19.2,19.64,-0.015045,985545.0,19204001.98,324060000.0,1119480000.0,0.05973,20.35,2013-06-30 00:00:00,2013-08-22 00:00:00,53.06632196736814,2.233829699769366,56.983708463671014,1.9603953288990397
sz300237,2013-08-26,19.88,20.08,19.73,19.94,0.00504,521812.0,10384019.7,329010000.0,1136580000.0,0.0316249696969697,20.66,2013-06-30 00:00:00,2013-08-22 00:00:00,53.87689992676634,2.2679510229090325,57.854123755573625,1.9903399941104312
sz300237,2013-08-23,20.4,20.55,19.41,19.84,-0.025061,979835.0,19567028.73,327360000.0,1130880000.0,0.05938393939393939,20.56,2013-06-30 00:00:00,2013-08-22 00:00:00,53.6067220476462,2.2565778704420048,57.56400118957814,1.9803589848269034
sz300237,2013-08-22,19.89,20.48,19.65,20.35,0.025189,1269960.0,25637714.97,335775000.0,1159950000.0,0.07696727272727273,21.09,2013-06-30 00:00:00,2013-08-22 00:00:00,54.9846934502017,2.314583651327934,59.04369523588465,2.0312645045760847
sz300237,2013-08-21,19.93,20.14,19.67,19.85,-0.015377000000000002,814528.0,16192426.26,327525000.0,1131450000.0,0.04936533333333334,20.57,2013-03-31 00:00:00,2013-04-24 00:00:00,93.72070407927265,2.5702414855144187,26.491183124034492,2.0283555979214474
sz300237,2013-08-20,19.44,20.3,19.44,20.16,0.028571,976030.0,19583892.0,332640000.0,1149120000.0,0.059153333333333336,20.89,2013-03-31 00:00:00,2013-04-24 00:00:00,95.18435388902417,2.610381319057567,26.904899767763386,2.0600327210733926
sz300237,2013-08-19,18.73,19.74,18.51,19.6,0.037037,510866.0,9837134.75,323400000.0,1117200000.0,0.03096157575757576,20.31,2013-03-31 00:00:00,2013-04-24 00:00:00,92.54038261726626,2.5378717843081002,26.157552339861216,2.002810424436809
sz300237,2013-08-16,19.31,19.58,18.73,18.9,-0.027777999999999997,613771.0,11730742.82,311850000.0,1077300000.0,0.03719824242424242,19.58,2013-03-31 00:00:00,2013-04-24 00:00:00,89.23537213934146,2.447233593698296,25.22335494284313,1.9312815496812636
sz300237,2013-08-15,19.38,19.79,19.3,19.44,0.002062,574804.0,11241470.1,320760000.0,1108080000.0,0.03483660606060607,20.14,2013-03-31 00:00:00,2013-04-24 00:00:00,91.7849751798884,2.517155128867991,25.944028156987944,1.9864614765776374
sz300237,2013-08-14,18.9,19.56,18.9,19.4,0.011998,500004.0,9705354.34,320100000.0,1105800000.0,0.030303272727272724,20.1,2013-03-31 00:00:00,2013-04-24 00:00:00,91.59610401341274,2.511975435519949,25.890641653897603,1.9823738217571738
sz300237,2013-08-13,18.96,19.3,18.78,19.17,0.011076,339402.0,6503391.14,316305000.0,1092690000.0,0.020569818181818186,19.86,2013-03-31 00:00:00,2013-04-24 00:00:00,90.5101630768171,2.4821940710554258,25.583688558571858,1.9588712840906541
sz300237,2013-08-12,18.64,19.0,18.48,18.96,0.017166999999999998,466010.0,8734631.45,312840000.0,1080720000.0,0.028243030303030305,19.65,2013-03-31 00:00:00,2013-04-24 00:00:00,89.51865446001793,2.4550024637667454,25.303427792343857,1.937412503205154
sz300237,2013-08-09,19.12,19.26,18.21,18.64,-0.026123,694237.0,13046862.97,307560000.0,1062480000.0,0.042074969696969694,19.32,2013-03-31 00:00:00,2013-04-24 00:00:00,88.0078241429558,2.413568729389319,24.876375061660333,1.9047142732758278
sz300237,2013-08-08,19.08,19.4,18.89,19.14,0.002094,592720.0,11353006.11,315810000.0,1090980000.0,0.03592242424242424,19.83,2013-03-31 00:00:00,2013-04-24 00:00:00,90.36852101749584,2.4783096113670604,25.5436518797141,1.9558057878724187
sz300237,2013-08-07,19.81,20.16,18.89,19.1,-0.047856,1186623.0,22819356.59,315150000.0,1088700000.0,0.07191654545454547,19.79,2013-03-31 00:00:00,2013-04-24 00:00:00,90.17968475761342,2.473130875314153,25.49027524335452,1.9517188885198584
sz300237,2013-08-06,19.99,20.08,19.71,20.06,0.0,943737.0,18790440.1,330990000.0,1143420000.0,0.05719618181818181,20.79,2013-03-31 00:00:00,2013-04-24 00:00:00,94.7122333991638,2.5974336605746116,26.771449742218113,2.049814826874778
sz300237,2013-08-05,19.6,20.19,19.5,20.06,0.017757,878835.0,17400007.6,330990000.0,1143420000.0,0.05326272727272727,20.79,2013-03-31 00:00:00,2013-04-24 00:00:00,94.7122333991638,2.5974336605746116,26.771449742218113,2.049814826874778
sz300237,2013-08-02,19.99,20.38,19.71,19.71,-0.004545,1171127.0,23343194.64,325215000.0,1123470000.0,0.07097739393939394,20.42,2013-03-31 00:00:00,2013-04-24 00:00:00,93.05977104472265,2.5521157413553643,26.30436316548853,2.0140513176276635
sz300237,2013-08-01,19.01,19.97,19.0,19.8,0.036107,765674.0,15020485.88,326700000.0,1128600000.0,0.04640448484848485,20.52,2013-03-31 00:00:00,2013-04-24 00:00:00,93.48465881905526,2.563768067220883,26.424462346854988,2.0232469751296276
sz300237,2013-07-31,19.15,19.37,18.9,19.11,-0.002089,488826.0,9377331.21,315315000.0,1089270000.0,0.02962581818181818,19.8,2013-03-31 00:00:00,2013-04-24 00:00:00,90.22683836616804,2.4744240384640617,25.50360372708127,1.9527394131394034
sz300237,2013-07-30,19.8,19.98,18.65,19.15,-0.039137,802006.0,15427505.02,315975000.0,1091550000.0,0.048606424242424236,19.84,2013-03-31 00:00:00,2013-04-24 00:00:00,90.41571679856024,2.47960393107608,25.556992283962465,1.9568272252128731
sz300237,2013-07-29,19.52,19.99,19.31,19.93,0.008093000000000001,809841.0,15933805.43,328845000.0,1136010000.0,0.04908127272727273,20.65,2013-03-31 00:00:00,2013-04-24 00:00:00,94.09844774807672,2.580600908845569,26.597956507808572,2.036530936473642
sz300237,2013-07-26,19.99,20.24,19.18,19.77,-0.007529999999999999,1172335.0,23092678.97,326205000.0,1126890000.0,0.07105060606060606,20.49,2013-03-31 00:00:00,2013-04-24 00:00:00,93.34302266564366,2.559883769499013,26.384427337367256,2.020181606730373
sz300237,2013-07-25,21.69,21.69,19.91,19.92,-0.081604,2129301.0,43867400.38,328680000.0,1135440000.0,0.12904854545454547,20.64,2013-03-31 00:00:00,2013-04-24 00:00:00,94.05122841561324,2.5793059432516987,26.5846094464994,2.0355089894207112
sz300237,2013-07-24,19.94,21.69,19.46,21.69,0.099899,2571506.0,54143650.48,357885000.0,1236330000.0,0.1558488484848485,22.48,2013-03-31 00:00:00,2013-04-24 00:00:00,102.40814247406699,2.808489957765167,28.946782702123482,2.2163739709457695
sz300237,2013-07-23,19.14,20.08,19.11,19.72,0.034627,967489.0,19018751.61,325380000.0,1124040000.0,0.05863569696969696,20.43,2013-03-31 00:00:00,2013-04-24 00:00:00,93.10686024268318,2.553407138078285,26.317673442855646,2.0150704482373105
sz300237,2013-07-22,18.5,19.17,18.28,19.06,0.025833999999999996,1013840.0,19155686.94,314490000.0,1086420000.0,0.06144484848484848,19.75,2013-03-31 00:00:00,2013-04-24 00:00:00,89.99075052427898,2.4679494523903633,25.436870913726054,1.9476298687713645
sz300237,2013-07-19,19.38,19.89,18.5,18.58,-0.041280000000000004,1049090.0,20181522.82,306570000.0,1059060000.0,0.06358121212121211,19.25,2013-03-31 00:00:00,2013-04-24 00:00:00,87.72447640093716,2.4057980651746416,24.796283720100963,1.8985819038668676
sz300237,2013-07-18,18.86,19.61,18.27,19.38,0.021613,999709.0,19250216.26,319770000.0,1104660000.0,0.06058842424242424,20.08,2013-03-31 00:00:00,2013-04-24 00:00:00,91.50166513782665,2.509385498554992,25.86394747173415,1.98032992309211
sz300237,2013-07-17,19.7,20.17,18.75,18.97,-0.047691000000000004,1352966.0,26463303.85,313005000.0,1081290000.0,0.08199793939393939,19.66,2013-03-31 00:00:00,2013-04-24 00:00:00,89.56587782049233,2.4562975398267164,25.316775992214417,1.938434537434537
sz300237,2013-07-16,19.81,20.48,19.62,19.92,-0.001003,1236699.0,24745761.62,328680000.0,1135440000.0,0.07495145454545456,20.64,2013-03-31 00:00:00,2013-04-24 00:00:00,94.05127728551587,2.5793072834833195,26.58462326011244,2.035510047090322
sz300237,2013-07-15,19.03,20.18,19.01,19.94,0.033161,1390292.0,27149148.02,329010000.0,1136580000.0,0.08426012121212122,20.66,2013-03-31 00:00:00,2013-04-24 00:00:00,94.14570542806023,2.5818969261001983,26.611314408464132,2.037553713464927
sz300237,2013-07-12,19.4,20.58,19.06,19.3,0.000518,1491632.0,29589837.97,318450000.0,1100100000.0,0.0904019393939394,20.0,2013-03-31 00:00:00,2013-04-24 00:00:00,91.12394431077075,2.499026701646886,25.757180544430277,1.972155078893732
sz300237,2013-07-11,19.02,19.59,18.94,19.29,-0.002069,1344781.0,25911451.29,318285000.0,1099530000.0,0.08150187878787879,19.99,2013-03-31 00:00:00,2013-04-24 00:00:00,91.07676654570008,2.497732876017109,25.743845232599796,1.9711340314654333
sz300237,2013-07-10,19.08,19.5,18.9,19.33,-0.009226,1615090.0,31041512.66,318945000.0,1101810000.0,0.09788424242424242,20.03,2013-03-31 00:00:00,2013-04-24 00:00:00,91.26559506188313,2.502911399703095,25.79721968011796,1.9752207632245449
sz300237,2013-07-09,18.01,19.51,17.88,19.51,0.070214,1795366.0,33363523.73,321915000.0,1112070000.0,0.10881006060606062,20.22,2013-03-31 00:00:00,2013-04-24 00:00:00,92.1154522241027,2.5262182896433445,26.037441111815568,1.9936138445544036
sz300237,2013-07-08,18.35,18.75,17.63,18.23,-0.037995,1457495.0,26642612.26,300795000.0,1039110000.0,0.0883330303030303,18.89,2013-03-31 00:00:00,2013-04-24 00:00:00,86.07199328741979,2.3604795766485434,24.329191275591203,1.862817945340281
sz300237,2013-07-05,19.8,20.59,18.7,18.95,-0.046781,2363592.0,46238866.54,312675000.0,1080150000.0,0.143248,19.64,2013-03-31 00:00:00,2013-04-24 00:00:00,89.47146146581338,2.4537082204859053,25.29008817583194,1.93639112617947
sz300237,2013-07-04,19.33,20.8,19.2,19.88,0.047418,3021922.0,60177216.46,328020000.0,1133160000.0,0.18314678787878788,20.6,2013-03-31 00:00:00,2013-04-24 00:00:00,93.86244028477545,2.5741285271127676,26.531246414341236,2.0314231317037006
sz300237,2013-07-03,17.36,18.98,17.15,18.98,0.10029,1548841.0,28768510.8,313170000.0,1081860000.0,0.09386915151515152,19.67,2013-03-31 00:00:00,2013-04-24 00:00:00,89.61316330708033,2.4575943196629884,25.330141752711178,1.9394579162318204
sz300237,2013-07-02,16.64,17.47,16.41,17.25,0.036036,797668.0,13621637.39,284625000.0,983250000.0,0.04834351515151515,17.87,2013-03-31 00:00:00,2013-04-24 00:00:00,81.44504022310511,2.2335877992738173,23.021332333031456,1.7626788539674272
sz300237,2013-07-01,16.05,16.65,16.04,16.65,0.021472,499135.0,8134423.47,274725000.0,949050000.0,0.030250606060606058,17.25,2013-03-31 00:00:00,2013-04-24 00:00:00,78.61217199315962,2.155897863852045,22.220591111729185,1.701368344311807
sz300237,2013-06-28,16.53,16.9,15.93,16.3,-0.012121,450573.0,7377676.18,268950000.0,929100000.0,0.027307454545454544,16.89,2013-03-31 00:00:00,2013-04-24 00:00:00,76.95969345528768,2.110579500810639,21.753499960575702,1.6656044848138833
sz300237,2013-06-27,17.1,17.23,16.5,16.5,-0.034523000000000005,562283.0,9521810.38,272250000.0,940500000.0,0.034077757575757574,17.1,2013-03-31 00:00:00,2013-04-24 00:00:00,77.9039674446847,2.1364757230497244,22.02040934221266,1.6860409876248843
sz300237,2013-06-26,16.26,17.1,15.85,17.09,0.060832000000000004,755621.0,12500491.31,281985000.0,974130000.0,0.04579521212121212,17.71,2013-03-31 00:00:00,2013-04-24 00:00:00,80.6896150241639,2.212870656732086,22.807803129657835,1.7463295217026238
sz300237,2013-06-25,16.08,16.48,14.9,16.11,-0.008005,744922.0,11735688.65,265815000.0,918270000.0,0.045146787878787877,16.69,2013-03-31 00:00:00,2013-04-24 00:00:00,76.062576377941,2.085976532318111,21.49991999643472,1.6461885781185184
sz300237,2013-06-24,17.37,17.68,16.03,16.24,-0.076748,862093.0,14454902.94,267960000.0,925680000.0,0.0522480606060606,16.83,2013-03-31 00:00:00,2013-04-24 00:00:00,76.67637072559944,2.1028095225460928,21.673415689025372,1.659472656735688
sz300237,2013-06-21,17.5,17.87,16.5,17.59,-0.001703,702824.0,12053757.49,290235000.0,1002630000.0,0.04259539393939394,18.23,2013-03-31 00:00:00,2013-04-24 00:00:00,83.05031640938707,2.277611662412963,23.47508122270558,1.797421133921928
sz300237,2013-06-20,17.68,18.62,17.51,17.62,-0.02274,1254021.0,22631220.49,290730000.0,1004340000.0,0.07600127272727274,18.26,2013-03-31 00:00:00,2013-04-24 00:00:00,83.19199237239727,2.2814970518923356,23.515127484812215,1.8004873639026542
sz300237,2013-06-19,18.09,18.14,17.4,18.03,-0.008796,1117306.0,19769914.57,297495000.0,1027710000.0,0.06771551515151517,18.68,2013-03-31 00:00:00,2013-04-24 00:00:00,85.12779851052663,2.3345855267711104,24.062304284235733,1.8423831568903404
sz300237,2013-06-18,18.46,18.79,17.59,18.19,0.008287000000000001,2451032.0,44885746.04,300135000.0,1036830000.0,0.14854739393939395,18.85,2013-03-31 00:00:00,2013-04-24 00:00:00,85.88322737854836,2.355302769935463,24.27583452471513,1.8587325685634244
sz300237,2013-06-17,16.65,18.1,16.54,18.1,0.10030399999999999,1340578.0,23889723.58,298650000.0,1031700000.0,0.08124715151515152,18.69,2013-03-31 00:00:00,2013-04-24 00:00:00,85.17736257489024,2.335944795415852,24.076314109688145,1.843455849935013
sz300237,2013-06-14,16.22,16.89,16.22,16.45,0.010442,578214.0,9598097.64,271425000.0,937650000.0,0.03504327272727273,16.99,2013-03-31 00:00:00,2013-04-24 00:00:00,77.41257195728659,2.122999457800619,21.881511027577968,1.6754059332102886
sz300237,2013-06-13,16.0,16.28,15.75,16.28,-0.007317000000000001,422850.0,6775167.23,268620000.0,927960000.0,0.02562727272727273,16.81,2013-03-31 00:00:00,2013-04-24 00:00:00,76.61258336182243,2.101060187324576,21.65538549226771,1.6580921351352067
sz300237,2013-06-07,16.67,16.67,16.32,16.4,-0.0060609999999999995,244022.0,4013629.87,270600000.0,934800000.0,0.01478921212121212,16.94,2013-03-31 00:00:00,2013-04-24 00:00:00,77.17728958975064,2.116546961441443,21.81500589036753,1.6703138213661428
sz300237,2013-06-06,16.5,16.76,16.43,16.5,-0.008413,430011.0,7124237.12,272250000.0,940500000.0,0.026061272727272728,17.04,2013-03-31 00:00:00,2013-04-24 00:00:00,77.64791359404414,2.1294535795873215,21.948032917882816,1.6804993277918896
sz300237,2013-06-05,16.47,16.64,16.31,16.64,-0.000601,267836.0,4415801.61,274560000.0,948480000.0,0.016232484848484847,17.19,2013-03-31 00:00:00,2013-04-24 00:00:00,78.30670792784106,2.1475206709923804,22.134248349245013,1.6947573211345948
sz300237,2013-06-04,16.6,16.72,16.4,16.65,0.003012,549280.0,9088792.28,274725000.0,949050000.0,0.03328969696969697,17.2,2013-03-31 00:00:00,2013-04-24 00:00:00,78.35379856077608,2.1488121070687285,22.147559032223377,1.6957764828007578
sz300237,2013-06-03,16.91,16.91,16.41,16.6,-0.018331999999999998,454440.0,7567567.87,273900000.0,946200000.0,0.027541818181818185,17.14,2013-03-31 00:00:00,2013-04-24 00:00:00,78.1185056218431,2.1423593207944953,22.08105090689182,1.6906841421645582
sz300237,2013-05-31,17.15,17.21,16.89,16.91,-0.015716,436771.0,7436822.41,279015000.0,963870000.0,0.026470969696969698,17.46,2013-03-31 00:00:00,2013-04-24 00:00:00,79.57731699703271,2.1823664627903687,22.493399914117422,1.7222565492249502
sz300237,2013-05-30,17.21,17.3,16.82,17.18,0.001749,853971.0,14578662.22,283470000.0,979260000.0,0.05175581818181818,17.74,2013-03-31 00:00:00,2013-04-24 00:00:00,80.8479229541806,2.217212169242179,22.852550599336595,1.7497557099627241
sz300237,2013-05-29,16.68,17.55,16.59,17.15,0.034379,1240976.0,21246779.98,282975000.0,977550000.0,0.07521066666666666,17.71,2013-03-31 00:00:00,2013-04-24 00:00:00,80.70676681901415,2.213341035770616,22.812651272261412,1.7467007303852804
sz300237,2013-05-28,16.9,16.95,16.36,16.58,-0.021828999999999998,621425.0,10279967.39,273570000.0,945060000.0,0.03766212121212121,17.12,2013-03-31 00:00:00,2013-04-24 00:00:00,78.02436710240072,2.139777620940309,22.054441623680887,1.6886467439741917
sz300237,2013-05-27,16.94,17.05,16.66,16.95,0.010131,883713.0,14892009.37,279675000.0,966150000.0,0.05355836363636363,17.51,2013-03-31 00:00:00,2013-04-24 00:00:00,79.7655697239038,2.1875291957544323,22.546611608482447,1.726330819431563
sz300237,2013-05-24,16.0,16.98,16.0,16.78,0.042236,1362406.0,22614200.18,276870000.0,956460000.0,0.08257006060606062,17.33,2013-03-31 00:00:00,2013-04-24 00:00:00,78.96556953890516,2.165589607441443,22.320482797263374,1.7090167705293307
sz300237,2013-05-23,15.91,16.39,15.7,16.1,0.0006219999999999999,523679.0,8458534.56,265650000.0,917700000.0,0.03173812121212122,16.63,2013-03-31 00:00:00,2013-04-24 00:00:00,75.76553634580381,2.0778303641799396,21.41595837916113,1.6397598725522156
sz300237,2013-05-22,16.39,16.48,15.9,16.09,-0.017103999999999998,571724.0,9244288.76,265485000.0,917130000.0,0.03464993939393939,16.62,2013-03-31 00:00:00,2013-04-24 00:00:00,75.71843947644946,2.0765387570730405,21.402645933390563,1.6387405759139972
sz300237,2013-05-21,16.37,16.42,16.2,16.37,0.008626,644765.0,10536849.82,270105000.0,933090000.0,0.03907666666666667,16.91,2013-03-31 00:00:00,2013-04-24 00:00:00,77.03606432058882,2.112673932006073,21.77508702181163,1.6672573455523243
sz300237,2013-05-20,15.97,16.34,15.97,16.23,0.016916999999999998,913461.0,14805468.36,267795000.0,925110000.0,0.055361272727272724,16.76,2013-03-31 00:00:00,2013-04-24 00:00:00,76.37723429753825,2.094605861841825,21.58886150249114,1.652998579802944
sz300237,2013-05-17,15.82,16.0,15.73,15.96,0.006940000000000001,447501.0,7113321.37,263340000.0,909720000.0,0.027121272727272727,16.48,2013-03-31 00:00:00,2013-04-24 00:00:00,75.10665501465532,2.0597608869178354,21.22971835704501,1.6254999963644465
sz300237,2013-05-16,15.92,15.98,15.62,15.85,0.0,688499.0,10895458.17,261525000.0,903450000.0,0.04172721212121212,16.37,2013-03-31 00:00:00,2013-04-24 00:00:00,74.5890073039658,2.0455646681210755,21.083399564070362,1.6142967767339134
sz300237,2013-05-15,15.39,15.88,15.39,15.85,0.03123,723077.0,11361536.54,261525000.0,903450000.0,0.043822848484848485,16.37,2013-03-31 00:00:00,2013-04-24 00:00:00,74.5890073039658,2.0455646681210755,21.083399564070362,1.6142967767339134
sz300237,2013-05-14,15.62,15.74,15.34,15.37,-0.009665,368488.0,5691135.68,253605000.0,876090000.0,0.02233260606060606,15.87,2013-03-31 00:00:00,2013-04-24 00:00:00,72.33013712165646,1.9836163301310816,20.444905175441328,1.5654090520387431
sz300237,2013-05-13,15.59,15.78,15.43,15.52,-0.005128,393638.0,6129051.91,256080000.0,884640000.0,0.023856848484848484,16.03,2013-03-31 00:00:00,2013-04-24 00:00:00,73.03603035503791,2.002975084321045,20.64443362644088,1.5806863859590374
sz300237,2013-05-10,15.55,15.68,15.26,15.6,0.003215,498801.0,7738498.99,257400000.0,889200000.0,0.030230363636363635,16.11,2013-03-31 00:00:00,2013-04-24 00:00:00,73.4124896017155,2.013299283044497,20.750843954238213,1.5888339263332745
sz300237,2013-05-09,15.84,15.84,15.12,15.55,-0.016444999999999998,795394.0,12265723.02,256575000.0,886350000.0,0.04820569696969697,16.06,2013-03-31 00:00:00,2013-04-24 00:00:00,73.17722482390667,2.0068472690744232,20.68434378895672,1.5837421951757846
sz300237,2013-05-08,15.56,15.92,15.43,15.81,0.02,731821.0,11503788.07,260865000.0,901170000.0,0.04435278787878788,16.33,2013-03-31 00:00:00,2013-04-24 00:00:00,74.40074507669287,2.0404016746134412,21.030185184312742,1.6102223009143206
sz300237,2013-05-07,15.59,15.59,15.41,15.5,-0.0057729999999999995,273066.0,4228520.42,255750000.0,883500000.0,0.016549454545454544,16.01,2013-03-31 00:00:00,2013-04-24 00:00:00,72.94190693793419,2.0003937986406286,20.617828612071317,1.578649314621883
sz300237,2013-05-06,15.5,15.6,15.38,15.59,0.011025,299207.0,4634331.25,257235000.0,888630000.0,0.018133757575757577,16.1,2013-03-31 00:00:00,2013-04-24 00:00:00,73.36544565570458,2.0120091273327203,20.7375464678301,1.587815775091486
sz300237,2013-05-03,15.4,15.66,15.35,15.42,-0.002587,244689.0,3788517.84,254430000.0,878940000.0,0.014829636363636364,15.93,2013-03-31 00:00:00,2013-04-24 00:00:00,72.56541198853103,1.990068620788527,20.511408192507705,1.570501001549404
sz300237,2013-05-02,15.09,15.46,14.52,15.46,0.030667000000000003,704295.0,10705439.36,255090000.0,881220000.0,0.042684545454545454,15.97,2013-03-31 00:00:00,2013-04-24 00:00:00,72.75362561800482,1.995230281526837,20.564608835565313,1.5745744255884013
sz300237,2013-04-26,15.29,15.3,14.9,15.0,-0.017038,152260.0,2292073.75,247500000.0,855000000.0,0.009227878787878788,15.49,2013-03-31 00:00:00,2013-04-24 00:00:00,70.58887654111832,1.935863165820616,19.952718807883937,1.5277237221997029
sz300237,2013-04-25,15.33,15.34,15.04,15.26,0.001312,297581.0,4524071.78,251790000.0,869820000.0,0.018035212121212122,15.76,2013-03-31 00:00:00,2013-04-24 00:00:00,71.81241649333171,1.9694181116061618,20.29856577149873,1.554204254284197
sz300237,2013-04-24,15.01,15.24,14.73,15.24,0.022133,120025.0,1810837.11,251460000.0,868680000.0,0.007274242424242424,15.74,2013-03-31 00:00:00,2013-04-24 00:00:00,71.71832205479582,1.9668376206478717,20.27196894823864,1.552167810117323
sz300237,2013-04-23,15.05,15.16,14.7,14.91,-0.015842,235683.0,3528900.94,246015000.0,849870000.0,0.014283818181818182,15.4,2012-12-31 00:00:00,2013-03-28 00:00:00,45.797732339643346,1.9117778501462446,-1082.6315230873488,1.5347779874315968
sz300237,2013-04-22,15.1,15.24,15.02,15.15,-0.0032890000000000003,136510.0,2062657.4,249975000.0,863550000.0,0.008273333333333334,15.65,2012-12-31 00:00:00,2013-03-28 00:00:00,46.53493884075865,1.9425517550497426,-1100.0586522563947,1.5594833222222415
sz300237,2013-04-19,15.08,15.2,14.86,15.2,0.006623,268089.0,4049989.02,250800000.0,866400000.0,0.016247818181818183,15.7,2012-12-31 00:00:00,2013-03-28 00:00:00,46.68849730840599,1.948961890708282,-1103.688684339186,1.5646293882802953
sz300237,2013-04-18,14.59,15.13,14.59,15.1,0.02027,389566.0,5828050.58,249150000.0,860700000.0,0.023610060606060607,15.6,2012-12-31 00:00:00,2013-03-28 00:00:00,46.38131386666705,1.9361388431500988,-1096.4270480002801,1.5543350273938656
sz300237,2013-04-17,14.62,14.95,14.52,14.8,0.00339,188258.0,2780922.68,244200000.0,843600000.0,0.011409575757575757,15.29,2012-12-31 00:00:00,2013-03-28 00:00:00,45.45984285205588,1.897673011212815,-1074.6440138397484,1.5234546025991802
sz300237,2013-04-16,14.35,14.88,14.09,14.75,0.032913,306172.0,4476229.07,243375000.0,840750000.0,0.018555878787878788,15.23,2012-12-31 00:00:00,2013-03-28 00:00:00,45.30625464879646,1.891261634272631,-1071.0132788245332,1.51830754003845
sz300237,2013-04-15,14.35,14.47,14.2,14.28,-0.001399,56600.0,812517.0,235620000.0,813960000.0,0.0034303030303030305,14.75,2012-12-31 00:00:00,2013-03-28 00:00:00,43.862604739021066,1.830997997191081,-1036.8862419434488,1.4699278061544876
sz300237,2013-04-12,14.49,14.49,14.28,14.3,-0.006944,55850.0,802513.42,235950000.0,815100000.0,0.003384848484848485,14.77,2012-12-31 00:00:00,2013-03-28 00:00:00,43.92405449125433,1.8335631520407862,-1038.3388780338182,1.4719871161299534
sz300237,2013-04-11,14.6,14.6,14.32,14.4,-0.002079,61550.0,889392.5,237600000.0,820800000.0,0.0037303030303030304,14.87,2012-12-31 00:00:00,2013-03-28 00:00:00,44.2311959156929,1.8463844456312495,-1045.5995211083948,1.4822800689285935
sz300237,2013-04-10,14.48,14.49,14.23,14.43,0.0006929999999999999,68600.0,984222.0,238095000.0,822510000.0,0.0041575757575757575,14.9,2012-12-31 00:00:00,2013-03-28 00:00:00,44.323344148176965,1.8502310760383334,-1047.7778512611667,1.4853681493110111
sz300237,2013-04-09,14.2,14.5,14.18,14.42,0.014065000000000001,256453.0,3675003.81,237930000.0,821940000.0,0.01554260606060606,14.89,2012-12-31 00:00:00,2013-03-28 00:00:00,44.292649342182834,1.848949753858909,-1047.052244056036,1.4843395020361
sz300237,2013-04-08,13.95,14.27,13.9,14.22,0.0,201761.0,2838417.56,234630000.0,810540000.0,0.012227939393939393,14.69,2012-12-31 00:00:00,2013-03-28 00:00:00,43.678313857773254,1.8233049694634063,-1032.529713633777,1.4637518325118215
sz300237,2013-04-03,14.69,14.69,14.21,14.22,-0.031335,199258.0,2866610.38,234630000.0,810540000.0,0.012076242424242425,14.69,2012-12-31 00:00:00,2013-03-28 00:00:00,43.678313857773254,1.8233049694634063,-1032.529713633777,1.4637518325118215
sz300237,2013-04-02,14.89,14.95,14.56,14.68,-0.012777,133762.0,1972863.88,242220000.0,836760000.0,0.008106787878787878,15.16,2012-12-31 00:00:00,2013-03-28 00:00:00,45.091248117536246,1.8822864142540572,-1065.930650569368,1.5111022205941387
sz300237,2013-04-01,14.73,15.29,14.52,14.87,0.006089,119801.0,1785149.85,245355000.0,847590000.0,0.007260666666666667,15.36,2012-12-31 00:00:00,2013-03-28 00:00:00,45.67483549059965,1.906647651294649,-1079.7263136792478,1.530659456469449
sz300237,2013-03-29,15.0,15.04,14.71,14.78,-0.008054,100525.0,1495490.12,243870000.0,842460000.0,0.006092424242424242,15.26,2012-12-31 00:00:00,2013-03-28 00:00:00,45.39840460496004,1.8951083366328914,-1073.191649724078,1.5213956781849807
sz300237,2013-03-28,15.63,15.63,14.85,14.9,-0.040567,350684.0,5291618.98,245850000.0,849300000.0,0.021253575757575756,15.39,2012-12-31 00:00:00,2013-03-28 00:00:00,45.76701212057919,1.910495467125117,-1081.9053151321523,1.5337484885114518
sz300237,2013-03-27,15.44,15.62,15.41,15.53,0.001935,206510.0,3205469.09,256245000.0,885210000.0,0.012515757575757576,16.04,2012-09-30 00:00:00,2012-10-24 00:00:00,28.180558542192447,1.9589772428666083,-26.55371927677138,1.5932183076383597
sz300237,2013-03-26,15.33,15.62,15.21,15.5,0.001939,292828.0,4505554.29,255750000.0,883500000.0,0.017747151515151514,16.01,2012-09-30 00:00:00,2012-10-24 00:00:00,28.12613447198915,1.9551939425877014,-26.502437061058234,1.5901413840602034
sz300237,2013-03-25,15.71,15.78,15.37,15.47,-0.011502,268420.0,4162455.44,255255000.0,881790000.0,0.01626787878787879,15.98,2012-09-30 00:00:00,2012-10-24 00:00:00,28.07170343902089,1.9514101582907755,-26.451148284534522,1.5870640668346112
sz300237,2013-03-22,15.59,15.72,15.46,15.65,0.0019210000000000002,336606.0,5249963.14,258225000.0,892050000.0,0.020400363636363637,16.16,2012-09-30 00:00:00,2012-10-24 00:00:00,28.398341159032082,1.9741164456486264,-26.75892949154629,1.6055308830514694
sz300237,2013-03-21,15.38,15.73,15.3,15.62,0.015605,541361.0,8418514.37,257730000.0,890340000.0,0.032809757575757575,16.13,2012-09-30 00:00:00,2012-10-24 00:00:00,28.343892541459933,1.9703314389543949,-26.70762414556266,1.6024525716613078
sz300237,2013-03-20,14.98,15.43,14.98,15.38,0.010512,404727.0,6178722.89,253770000.0,876660000.0,0.02452890909090909,15.88,2012-09-30 00:00:00,2012-10-24 00:00:00,27.9083822366569,1.9400568517823313,-26.297255473892566,1.577830526298421
sz300237,2013-03-19,15.05,15.33,14.83,15.22,0.012641,296771.0,4475637.45,251130000.0,867540000.0,0.017986121212121214,15.72,2012-09-30 00:00:00,2012-10-24 00:00:00,27.6180611775584,1.9198751244738617,-26.023694398376822,1.5614169117223946
sz300237,2013-03-18,15.17,15.18,15.0,15.03,-0.009229000000000001,209702.0,3160722.2,247995000.0,856710000.0,0.012709212121212121,15.52,2012-09-30 00:00:00,2012-10-24 00:00:00,27.273299399844966,1.8959089395687734,-25.698835419834698,1.5419254323322826
sz300237,2013-03-15,15.07,15.36,15.0,15.17,0.00066,212000.0,3217905.89,250305000.0,864690000.0,0.012848484848484849,15.67,2012-09-30 00:00:00,2012-10-24 00:00:00,27.52734930659554,1.9135692703649718,-25.938219245249105,1.5562884181433276
sz300237,2013-03-14,15.28,15.36,15.08,15.16,-0.003942,190190.0,2891083.83,250140000.0,864120000.0,0.011526666666666666,15.66,2012-09-30 00:00:00,2012-10-24 00:00:00,27.50919323905776,1.912307147647524,-25.921111311783324,1.555261945259456
sz300237,2013-03-13,15.37,15.38,15.08,15.22,-0.007175,207611.0,3161147.2,251130000.0,867540000.0,0.012582484848484848,15.72,2012-09-30 00:00:00,2012-10-24 00:00:00,27.618063645950095,1.9198752960646108,-26.0236967242704,1.5614170512755845
sz300237,2013-03-12,15.88,16.01,15.15,15.33,-0.038870999999999996,402530.0,6277725.85,252945000.0,873810000.0,0.024395757575757574,15.83,2012-09-30 00:00:00,2012-10-24 00:00:00,27.81765532289184,1.9337499519699954,-26.211766146370607,1.5727011822582877
sz300237,2013-03-11,16.11,16.16,15.87,15.95,-0.009932,298756.0,4786269.71,263175000.0,909150000.0,0.018106424242424243,16.47,2012-09-30 00:00:00,2012-10-24 00:00:00,28.94268648942217,2.0119567216991636,-27.271850236930327,1.6363060341101847
sz300237,2013-03-08,15.88,16.12,15.71,16.11,0.014484,469906.0,7521160.97,265815000.0,918270000.0,0.028479151515151516,16.64,2012-09-30 00:00:00,2012-10-24 00:00:00,29.233028932782567,2.0321399355389365,-27.545431462213028,1.6527208576685488
sz300237,2013-03-07,16.08,16.08,15.75,15.88,-0.011823,340376.0,5419761.17,262020000.0,905160000.0,0.020628848484848486,16.4,2012-09-30 00:00:00,2012-10-24 00:00:00,28.81566287174817,2.0031266491526103,-27.15215958281553,1.6291246167199769
sz300237,2013-03-06,15.93,16.1,15.82,16.07,0.015161,510248.0,8158787.88,265155000.0,915990000.0,0.030924121212121212,16.6,2012-09-30 00:00:00,2012-10-24 00:00:00,29.16042659538541,2.0270929693289865,-27.47702039494496,1.6486162061249925
sz300237,2013-03-05,15.58,15.85,15.58,15.83,0.009566,372382.0,5874153.79,261195000.0,902310000.0,0.02256860606060606,16.35,2012-09-30 00:00:00,2012-10-24 00:00:00,28.724927962545262,1.9968191935357908,-27.066662721425434,1.623994820649131
sz300237,2013-03-04,16.12,16.19,15.5,15.68,-0.029702999999999997,585067.0,9250616.07,258720000.0,893760000.0,0.03545860606060606,16.19,2012-09-30 00:00:00,2012-10-24 00:00:00,28.452748965937104,1.9778986153810554,-26.810196382827304,1.608606887166496
sz300237,2013-03-01,16.1,16.21,15.88,16.16,0.007481,701982.0,11299228.4,266640000.0,921120000.0,0.04254436363636364,16.69,2012-09-30 00:00:00,2012-10-24 00:00:00,29.32375238296842,2.038446594579861,-27.630917526105208,1.6578500058914911
sz300237,2013-02-28,15.98,16.16,15.82,16.04,0.003127,599262.0,9545618.28,264660000.0,914280000.0,0.03631890909090909,16.57,2012-09-30 00:00:00,2012-10-24 00:00:00,29.106010319766238,2.023310210892176,-27.425745523841343,1.6455397232220665
sz300237,2013-02-27,16.1,16.28,15.73,15.99,-0.000625,620686.0,9962192.5,263835000.0,911430000.0,0.037617333333333336,16.51,2012-09-30 00:00:00,2012-10-24 00:00:00,29.015279540642645,2.017003042378658,-27.34025255410465,1.6404101606497146
sz300237,2013-02-26,16.02,16.37,15.95,16.0,-0.009901,1076909.0,17373417.51,264000000.0,912000000.0,0.06526721212121211,16.53,2012-09-30 00:00:00,2012-10-24 00:00:00,29.033425431537356,2.018264457664698,-27.35735089841616,1.641436058186081
sz300237,2013-02-25,15.88,16.35,15.51,16.16,0.023433000000000002,978925.0,15602322.55,266640000.0,921120000.0,0.05932878787878788,16.69,2012-09-30 00:00:00,2012-10-24 00:00:00,29.323759979090333,2.0384471226258167,-27.630924683709576,1.6578504353464463
sz300237,2013-02-22,15.75,15.9,15.73,15.79,-0.000633,530982.0,8385896.23,260535000.0,900030000.0,0.03218072727272727,16.31,2012-09-30 00:00:00,2012-10-24 00:00:00,28.652349473869155,1.991773885174522,-26.99827412611238,1.619891517418772
sz300237,2013-02-21,15.71,15.81,15.61,15.8,0.001267,1075970.0,16919698.98,260700000.0,900600000.0,0.06521030303030304,16.32,2012-09-30 00:00:00,2012-10-24 00:00:00,28.670497899039244,1.9930354766312293,-27.015374858397745,1.6209175582331334
sz300237,2013-02-20,15.4,15.81,15.4,15.78,0.016097999999999998,782465.0,12276802.43,260370000.0,899460000.0,0.047422121212121214,16.3,2012-09-30 00:00:00,2012-10-24 00:00:00,28.634218344396896,1.9905134960317574,-26.98118969105918,1.6188664544353641
sz300237,2013-02-19,15.69,15.83,15.4,15.53,-0.013968000000000001,282208.0,4389057.08,256245000.0,885210000.0,0.01710351515151515,16.04,2012-09-30 00:00:00,2012-10-24 00:00:00,28.18056756769219,1.9589778702760536,-26.553727781236827,1.5932188179047337
sz300237,2013-02-18,15.77,15.85,15.57,15.75,0.0,437536.0,6866197.33,259875000.0,897750000.0,0.026517333333333334,16.27,2012-09-30 00:00:00,2012-10-24 00:00:00,28.579769792148923,1.986728493878549,-26.929884406628616,1.6157881467383752
sz300237,2013-02-08,15.3,15.95,15.3,15.75,0.030085,971697.0,15252264.97,259875000.0,897750000.0,0.058890727272727275,16.27,2012-09-30 00:00:00,2012-10-24 00:00:00,28.579769792148923,1.986728493878549,-26.929884406628616,1.6157881467383752
sz300237,2013-02-07,15.36,15.42,15.2,15.29,-0.008431000000000001,427501.0,6543038.14,252285000.0,871530000.0,0.025909151515151514,15.79,2012-09-30 00:00:00,2012-10-24 00:00:00,27.745059671919236,1.9287034505682046,-26.14336137952559,1.5685969087389637
sz300237,2013-02-06,15.88,15.88,15.32,15.42,0.0019489999999999998,451199.0,7006900.55,254430000.0,878940000.0,0.02734539393939394,15.93,2012-09-30 00:00:00,2012-10-24 00:00:00,27.9809672064367,1.9451026106788378,-26.3656501761608,1.5819341959449755
sz300237,2013-02-05,15.16,15.78,15.06,15.39,0.009179999999999999,520698.0,8003903.25,253935000.0,877230000.0,0.03155745454545455,15.9,2012-09-30 00:00:00,2012-10-24 00:00:00,27.926538383127983,1.9413189799868436,-26.314363481734897,1.5788570036448717
sz300237,2013-02-04,15.25,15.32,15.05,15.25,0.0,277913.0,4213310.03,251625000.0,869250000.0,0.01684321212121212,15.75,2012-09-30 00:00:00,2012-10-24 00:00:00,27.67250478916347,1.9236597831772764,-26.074995027383522,1.5644949400948018
sz300237,2013-02-01,14.89,15.44,14.8,15.25,0.021433,504835.0,7650769.98,251625000.0,869250000.0,0.030596060606060606,15.75,2012-09-30 00:00:00,2012-10-24 00:00:00,27.67250478916347,1.9236597831772764,-26.074995027383522,1.5644949400948018
sz300237,2013-01-31,15.06,15.17,14.83,14.93,-0.013219,283268.0,4238741.97,246345000.0,851010000.0,0.017167757575757576,15.42,2012-09-30 00:00:00,2012-10-24 00:00:00,27.091845269502226,1.8832951188940208,-25.52785647945927,1.5316667271321778
sz300237,2013-01-30,15.2,15.23,15.0,15.13,-0.0072180000000000005,401661.0,6066403.89,249645000.0,862410000.0,0.024343090909090908,15.63,2012-09-30 00:00:00,2012-10-24 00:00:00,27.454769872446093,1.908523896278932,-25.869829759044073,1.5521850614596124
sz300237,2013-01-29,15.21,15.28,15.13,15.24,0.001314,598267.0,9092698.99,251460000.0,868680000.0,0.03625860606060606,15.74,2012-09-30 00:00:00,2012-10-24 00:00:00,27.65437918137727,1.922399777875638,-26.057915795254214,1.5634701892858776
sz300237,2013-01-28,15.1,15.23,14.95,15.22,0.014667,529459.0,7990043.57,251130000.0,867540000.0,0.032088424242424245,15.72,2012-09-30 00:00:00,2012-10-24 00:00:00,27.618089012414952,1.9198770594195607,-26.023720626351185,1.561418485396067
sz300237,2013-01-25,14.99,15.04,14.72,15.0,0.000667,392440.0,5869445.19,247500000.0,855000000.0,0.023784242424242423,15.49,2012-09-30 00:00:00,2012-10-24 00:00:00,27.218869848349218,1.8921252582567096,-25.647548039259373,1.5388481988633387
sz300237,2013-01-24,15.31,15.57,14.8,14.99,-0.022179,781660.0,11907005.42,247335000.0,854430000.0,0.04737333333333334,15.48,2012-09-30 00:00:00,2012-10-24 00:00:00,27.200726963464586,1.8908640519340696,-25.630452527423582,1.5378224712749982
sz300237,2013-01-23,15.28,15.5,15.18,15.33,-0.004545,643821.0,9864983.41,252945000.0,873810000.0,0.039019454545454545,15.83,2012-09-30 00:00:00,2012-10-24 00:00:00,27.81769563495219,1.9337527542710473,-26.211804131250588,1.5727034613441502
sz300237,2013-01-22,15.59,15.74,15.36,15.4,-0.014715,1030464.0,15997561.39,254100000.0,877800000.0,0.06245236363636364,15.91,2012-09-30 00:00:00,2012-10-24 00:00:00,27.944704316068723,1.9425817884997787,-26.331480711082456,1.5798840342799525
sz300237,2013-01-21,15.78,15.83,15.4,15.63,-0.053301,2188021.0,34169826.85,257895000.0,890910000.0,0.13260733333333333,16.14,2012-09-30 00:00:00,2012-10-24 00:00:00,28.362051909923245,1.9715937911363501,-26.724735189394398,1.6034792311665687
sz300237,2013-01-18,16.38,16.55,16.22,16.51,0.012262,481070.0,7896454.66,272415000.0,941070000.0,0.029155757575757578,17.05,2012-09-30 00:00:00,2012-10-24 00:00:00,29.958890745551905,2.082598366678691,-28.229389900479873,1.6937582390670831
sz300237,2013-01-17,16.47,16.65,16.26,16.31,-0.01747,623374.0,10245169.59,269115000.0,929670000.0,0.03778024242424242,16.85,2012-09-30 00:00:00,2012-10-24 00:00:00,29.59598478017738,2.057370884888192,-27.887434182533653,1.6732409584347565
sz300237,2013-01-16,16.9,16.9,16.43,16.6,-0.013080000000000001,727784.0,12104906.68,273900000.0,946200000.0,0.04410812121212122,17.14,2012-09-30 00:00:00,2012-10-24 00:00:00,30.12221996292976,2.0939522303524494,-28.383290263435875,1.702992232740737
sz300237,2013-01-15,16.96,17.35,16.6,16.82,0.000595,1177251.0,19948922.41,277530000.0,958740000.0,0.07134854545454546,17.37,2012-09-30 00:00:00,2012-10-24 00:00:00,30.521440403406313,2.1217041202452576,-28.759464053252415,1.7255625914367294
sz300237,2013-01-14,16.2,16.93,16.05,16.81,0.040867,1071387.0,17876577.78,277365000.0,958170000.0,0.06493254545454545,17.36,2012-09-30 00:00:00,2012-10-24 00:00:00,30.503290945293866,2.1204424569833527,-28.742362347655565,1.7245364922238564
sz300237,2013-01-11,15.99,16.6,15.9,16.15,0.021505,1259440.0,20482352.4,266475000.0,920550000.0,0.07632969696969696,16.68,2012-09-30 00:00:00,2012-10-24 00:00:00,29.3056566739976,2.0371886677004385,-27.613866466758537,1.6568269454443807
sz300237,2013-01-10,15.9,15.95,15.7,15.81,0.000633,403890.0,6381962.98,260865000.0,901170000.0,0.02447818181818182,16.33,2012-09-30 00:00:00,2012-10-24 00:00:00,28.688706050384088,1.994301219965089,-27.032531868917463,1.6219469757312792
sz300237,2013-01-09,16.01,16.23,15.56,15.8,-0.024691,713177.0,11364975.7,260700000.0,900600000.0,0.04322284848484848,16.32,2012-09-30 00:00:00,2012-10-24 00:00:00,28.670557587431247,1.9930396258819059,-27.015431101030515,1.6209209327808292
sz300237,2013-01-08,16.06,16.38,16.01,16.2,0.008717,657084.0,10650308.78,267300000.0,923400000.0,0.03982327272727273,16.73,2012-09-30 00:00:00,2012-10-24 00:00:00,29.39638369730131,2.0434955751273756,-27.699355897495575,1.6619562956773997
sz300237,2013-01-07,15.9,16.14,15.7,16.06,0.0006230000000000001,367490.0,5864961.1,264990000.0,915420000.0,0.02227212121212121,16.59,2012-09-30 00:00:00,2012-10-24 00:00:00,29.142349833800075,2.025836359580909,-27.459987189167602,1.6475942168887803
sz300237,2013-01-04,16.06,16.17,15.73,16.05,0.0,445093.0,7104121.27,264825000.0,914850000.0,0.026975333333333334,16.58,2012-09-30 00:00:00,2012-10-24 00:00:00,29.124205453802354,2.024575049325179,-27.442890268530306,1.6465684047726068
