code,date,open,high,low,close,change,volume,money,traded_market_value,market_value,turnover,adjust_price,report_type,report_date,PE_TTM,PS_TTM,PC_TTM,PB
sz300388,2014-12-31,42.96,44.42,42.5,43.7,0.032121,1311701.0,56936055.37,964022000.0,3855499890.0,0.059460607434270174,43.7,2014-09-30 00:00:00,2014-10-23 00:00:00,91.10306751561374,5.336756393504189,87.82110002294912,5.123736008624246
sz300388,2014-12-30,43.2,43.94,42.15,42.34,-0.023073,1191701.0,50976749.43,934020400.0,3735511790.0,0.054020897552130555,42.34,2014-09-30 00:00:00,2014-10-23 00:00:00,88.26781696682242,5.170669324143379,85.0879887367364,4.964278421448887
sz300388,2014-12-29,46.38,46.5,43.0,43.34,-0.06312100000000001,2050386.0,90960036.35,956080400.0,3823738330.0,0.0929458748866727,43.34,2014-09-30 00:00:00,2014-10-23 00:00:00,90.35252067638875,5.292789864691404,87.0975914645991,5.0815244347314446
sz300388,2014-12-26,46.58,46.85,45.89,46.26,-0.00687,911483.0,42164472.88,1020495600.0,4081359830.0,0.04131835902085222,46.26,2014-09-30 00:00:00,2014-10-23 00:00:00,96.43990384712299,5.649384674746049,92.96567802736438,5.4238855121434515
sz300388,2014-12-25,46.25,47.13,45.02,46.58,0.008662000000000001,1680286.0,77381153.72,1027554800.0,4109592330.0,0.07616890299184044,46.58,2014-09-30 00:00:00,2014-10-23 00:00:00,97.10702913729622,5.688464425348191,93.60877027918237,5.4614053670148435
sz300388,2014-12-24,44.1,47.0,44.03,46.18,0.062341999999999995,1964066.0,89168977.6,1018730800.0,4074301710.0,0.08903291024478695,46.18,2014-09-30 00:00:00,2014-10-23 00:00:00,96.27311144595139,5.6396140881169226,92.80489428488667,5.41450492535145
sz300388,2014-12-23,43.01,44.99,43.01,43.47,0.01093,1181034.0,51900524.03,958948200.0,3835207780.0,0.05353735267452402,43.47,2014-09-30 00:00:00,2014-10-23 00:00:00,90.62346348534786,5.308661512127848,87.35877361987636,5.09676255419766
sz300388,2014-12-22,46.01,47.18,42.65,43.0,-0.090525,1889336.0,83370216.9,948580000.0,3793741310.0,0.08564533091568449,43.0,2014-09-30 00:00:00,2014-10-23 00:00:00,89.64365830012746,5.251265183670332,86.41426569582103,5.041657240558357
sz300388,2014-12-19,49.01,49.46,45.23,47.28,-0.044269,2140888.0,100738878.51,1042996800.0,4171350910.0,0.09704841341795105,47.28,2014-09-30 00:00:00,2014-10-23 00:00:00,98.56637983466007,5.773952207229811,95.0155481962902,5.543480843957621
sz300388,2014-12-18,48.42,51.0,48.27,49.47,0.014145,2240148.0,112321012.24,1091308200.0,4364567030.0,0.1015479601087942,49.47,2014-09-30 00:00:00,2014-10-23 00:00:00,103.1319271161656,6.041398894908516,99.41662266504927,5.800252208997742
sz300388,2014-12-17,49.78,49.86,48.36,48.78,-0.026930000000000003,1747625.0,85541845.11,1076086800.0,4303690720.0,0.07922144152311876,48.78,2014-09-30 00:00:00,2014-10-23 00:00:00,101.69347294140937,5.957135217260369,98.02998847802758,5.719351975307024
sz300388,2014-12-16,50.5,51.48,49.68,50.13,-0.018598,1990542.0,100351378.46,1105867800.0,4422796550.0,0.09023309156844968,50.13,2014-09-30 00:00:00,2014-10-23 00:00:00,104.50786987720242,6.122000696003749,100.74299739795448,5.877636732513615
sz300388,2014-12-15,50.57,51.78,49.05,51.08,0.018544,2349805.0,119622701.24,1126824800.0,4506611770.0,0.10651881233000907,51.08,2014-09-30 00:00:00,2014-10-23 00:00:00,106.48834002498712,6.238015304639433,102.65212155462744,5.989020536450522
sz300388,2014-12-12,50.05,50.85,48.12,50.15,0.0050100000000000006,2772698.0,137301154.42,1106309000.0,4424561080.0,0.12568893925657298,50.15,2014-09-30 00:00:00,2014-10-23 00:00:00,104.54957274794917,6.1244436221110075,100.78319793217324,5.8799821475071505
sz300388,2014-12-11,49.0,52.42,48.4,49.9,0.015465999999999999,3432562.0,174426429.43,1100794000.0,4402504450.0,0.1556011786038078,49.9,2014-09-30 00:00:00,2014-10-23 00:00:00,104.02839051148665,6.09391311739287,100.28079116841947,5.8506702893574705
sz300388,2014-12-10,45.81,49.4,44.55,49.14,0.087649,3385857.0,160764000.23,1084028400.0,4335452270.0,0.15348399818676337,49.14,2014-09-30 00:00:00,2014-10-23 00:00:00,102.44399173530837,6.001100103196828,98.75347000137816,5.761561971900065
sz300388,2014-12-09,49.8,50.97,45.18,45.18,-0.1,4455798.0,214708028.76,996670800.0,3986075170.0,0.2019854034451496,45.18,2014-09-30 00:00:00,2014-10-23 00:00:00,94.18846680804963,5.5174970079472585,90.7953485006451,5.297262234323815
sz300388,2014-12-08,51.61,52.17,49.3,50.2,-0.031262,3090411.0,156501019.79,1107412000.0,4428972410.0,0.14009116047144152,50.2,2014-09-30 00:00:00,2014-10-23 00:00:00,104.65385200894403,6.130552231052509,100.88372055627235,5.885846927026463
sz300388,2014-12-05,54.94,54.94,51.26,51.82,-0.06630599999999999,3908797.0,206669083.02,1143149200.0,4571899410.0,0.17718934723481414,51.82,2014-09-30 00:00:00,2014-10-23 00:00:00,108.0311209108593,6.328390370825248,104.13932410648941,6.0757882183071805
sz300388,2014-12-04,56.0,57.05,54.55,55.5,-0.0017989999999999998,3184579.0,177302676.21,1224330000.0,4896573080.0,0.14435988213961923,55.5,2014-09-30 00:00:00,2014-10-23 00:00:00,115.7029186337915,6.777799119224552,111.5347470439881,6.507258500437168
sz300388,2014-12-03,54.01,56.98,52.88,55.6,0.010909,4073753.0,222103017.31,1226536000.0,4905395740.0,0.184666953762466,55.6,2014-09-30 00:00:00,2014-10-23 00:00:00,115.91144332032475,6.790014355049285,111.73575967564457,6.518986156532771
sz300388,2014-12-02,51.5,56.15,51.25,55.0,0.073171,5170543.0,279460891.78,1213300000.0,4852459810.0,0.23438544877606526,55.0,2014-09-30 00:00:00,2014-10-23 00:00:00,114.66061071800206,6.716741422867226,110.52998803615812,6.448637964972881
sz300388,2014-12-01,49.15,51.32,48.03,51.25,0.033266000000000004,3295949.0,162880284.64,1130575000.0,4521610280.0,0.14940838621940164,51.25,2014-09-30 00:00:00,2014-10-23 00:00:00,106.84281509470722,6.258780215703951,102.99382673978155,6.008956601485579
sz300388,2014-11-28,49.6,50.58,49.01,49.6,-0.010573,3023133.0,150462093.11,1094176000.0,4376036480.0,0.13704138712601996,49.6,2014-09-30 00:00:00,2014-10-23 00:00:00,103.40301054588771,6.057278779814637,99.6779403752582,5.815498237129237
sz300388,2014-11-27,50.5,51.97,49.2,50.13,0.016836,3479817.0,175091038.32,1105867800.0,4422796550.0,0.1577432910244787,50.13,2014-09-30 00:00:00,2014-10-23 00:00:00,104.50797334809715,6.122006757259138,100.74309714133352,5.877642551829733
sz300388,2014-11-26,47.6,50.5,47.5,49.3,0.028582999999999997,3583013.0,175639728.38,1087558000.0,4349568520.0,0.16242126019945602,49.3,2014-09-30 00:00:00,2014-10-23 00:00:00,102.77760951431416,6.020643208205786,99.0750692750193,5.780325000127585
sz300388,2014-11-25,48.44,50.94,47.31,47.93,-0.011753,4839010.0,236715921.62,1057335800.0,4228698160.0,0.219356754306437,47.93,2014-09-30 00:00:00,2014-10-23 00:00:00,99.92155179923658,5.853337269044682,96.32190039600043,5.619697195197262
sz300388,2014-11-24,46.9,48.5,45.69,48.5,0.04616,4095919.0,193103217.42,1069910000.0,4278987290.0,0.18567175883952855,48.5,2014-09-30 00:00:00,2014-10-23 00:00:00,101.10989641176404,5.922949696831543,97.46743516145298,5.6865309939693836
sz300388,2014-11-21,45.28,47.82,45.06,46.36,0.016666999999999998,3714840.0,174644199.31,1022701600.0,4090182490.0,0.1683970988213962,46.36,2014-09-30 00:00:00,2014-10-23 00:00:00,96.64859716655583,5.661609788972569,93.16685321695819,5.435622652337486
sz300388,2014-11-20,44.9,46.17,44.5,45.6,-0.014053999999999999,2993194.0,135635149.41,1005936000.0,4023130320.0,0.1356842248413418,45.6,2014-09-30 00:00:00,2014-10-23 00:00:00,95.06416276573924,5.568794687909186,91.63949770864815,5.346512331311517
sz300388,2014-11-19,46.52,48.98,46.0,46.25,-0.019088,4876460.0,231853718.31,1020275000.0,4080477570.0,0.2210543970988214,46.25,2014-09-30 00:00:00,2014-10-23 00:00:00,96.41923874709087,5.648174127091329,92.94575738290753,5.422723284349769
sz300388,2014-11-18,47.61,47.99,46.08,47.15,0.019239,4787106.0,225023676.79,1040129000.0,4159881460.0,0.21700389845874887,47.15,2014-09-30 00:00:00,2014-10-23 00:00:00,98.29550331435527,5.758084442938131,94.75442994163343,5.528246452637717
sz300388,2014-11-17,41.55,46.26,41.4,46.26,0.100119,3278993.0,146428759.45,1020495600.0,4081359830.0,0.1486397552130553,46.26,2014-09-30 00:00:00,2014-10-23 00:00:00,96.44009237711202,5.649395718705948,92.965859765603,5.423896115275924
sz300388,2014-11-14,44.77,46.0,41.38,42.05,-0.08067300000000001,4848276.0,211512578.29,927623000.0,3709926090.0,0.21977679057116953,42.05,2014-09-30 00:00:00,2014-10-23 00:00:00,87.6633276737444,5.135258748104476,84.50527603432265,4.930281283457448
sz300388,2014-11-13,47.19,49.77,44.85,45.74,-0.030726999999999997,7487254.0,355669947.47,1009024400.0,4035482030.0,0.3394040797824116,45.74,2014-09-30 00:00:00,2014-10-23 00:00:00,95.35598070517281,5.585889186442339,91.92080297252518,5.362924490912861
sz300388,2014-11-12,42.3,47.19,42.0,47.19,0.1,4286535.0,193737889.46,1041011400.0,4163410520.0,0.1943125566636446,47.19,2014-09-30 00:00:00,2014-10-23 00:00:00,98.37886818798505,5.76296790114069,94.83479161446279,5.5329349841715
sz300388,2014-11-11,41.35,43.18,40.35,42.9,0.036733,4886552.0,204161590.58,946374000.0,3784918650.0,0.22151187669990935,42.9,2014-09-30 00:00:00,2014-10-23 00:00:00,89.43533471635003,5.239061728309716,86.21344692223887,5.029940894701362
sz300388,2014-11-10,40.8,41.56,40.34,41.38,0.012974000000000001,2088732.0,85642173.32,912842800.0,3650814310.0,0.09468413417951042,41.38,2014-09-30 00:00:00,2014-10-23 00:00:00,86.26650711065437,5.05343393941325,83.15877561748192,4.851722569553938
sz300388,2014-11-07,41.83,42.66,40.53,40.85,-0.021791,3350332.0,139627044.58,901151000.0,3604054240.0,0.15187361740707161,40.85,2014-09-30 00:00:00,2014-10-23 00:00:00,85.16162024953687,4.988710410546815,82.09369205673781,4.789582525863386
sz300388,2014-11-06,40.32,41.8,40.13,41.76,0.041137,2537564.0,104489181.05,921225600.0,3684340390.0,0.1150300997280145,41.76,2014-09-30 00:00:00,2014-10-23 00:00:00,87.05871674615227,5.099841046797582,83.92244607925076,4.896277304608101
sz300388,2014-11-05,39.91,40.58,39.58,40.11,-0.0007469999999999999,1405103.0,56312187.87,884826600.0,3538766600.0,0.06369460562103355,40.11,2014-09-30 00:00:00,2014-10-23 00:00:00,83.6188866077685,4.898338111888812,80.60653504702144,4.70281750106672
sz300388,2014-11-04,41.49,41.65,40.02,40.14,-0.036486000000000005,2303904.0,93769176.05,885488400.0,3541413400.0,0.10443807796917498,40.14,2014-09-30 00:00:00,2014-10-23 00:00:00,83.68139661103697,4.901999905818459,80.66679314149816,4.706333131916263
sz300388,2014-11-03,41.5,42.38,41.3,41.66,0.00047999999999999996,2657427.0,110773850.31,919019600.0,3675517740.0,0.12046359927470535,41.66,2014-09-30 00:00:00,2014-10-23 00:00:00,86.85021350082819,5.087627066984454,83.72145411638871,4.884550854389518
sz300388,2014-10-31,40.75,41.75,40.13,41.64,0.020087999999999998,3210490.0,131962478.93,918578400.0,3673753210.0,0.14553445149592023,41.64,2014-09-30 00:00:00,2014-10-23 00:00:00,86.80854539903665,5.085186177619197,83.6812870985814,4.882207394839995
sz300388,2014-10-30,40.72,41.4,40.31,40.82,-0.003418,2589076.0,105556781.34,900489200.0,3601407440.0,0.1173651858567543,40.82,2014-09-30 00:00:00,2014-10-23 00:00:00,85.09907517688342,4.985046562276193,82.03340015624279,4.786064922673333
sz300388,2014-10-29,41.1,41.99,40.51,40.96,-0.003164,4427588.0,182556175.49,903577600.0,3613759160.0,0.20070661831368994,40.96,2014-09-30 00:00:00,2014-10-23 00:00:00,85.39094141463866,5.00214389009253,82.31475197850533,4.802479798625034
sz300388,2014-10-28,39.89,41.18,39.08,41.09,0.037626,4216962.0,168629905.17,906445400.0,3625228610.0,0.1911587488667271,41.09,2014-09-30 00:00:00,2014-10-23 00:00:00,85.66197590640652,5.01802090824622,82.57602251373879,4.817723074432538
sz300388,2014-10-27,38.68,40.42,38.47,39.6,0.017995,2887715.0,114279813.54,873576000.0,3493771060.0,0.13090276518585675,39.6,2014-09-30 00:00:00,2014-10-23 00:00:00,82.55573386403823,4.836059339536809,79.58168214148334,4.643024629714886
sz300388,2014-10-24,38.24,40.5,37.9,38.9,0.019392,3743917.0,147382696.37,858134000.0,3432012480.0,0.1697151858567543,38.9,2014-09-30 00:00:00,2014-10-23 00:00:00,81.0964040727491,4.7505727823189785,78.17492437731359,4.560950328552582
sz300388,2014-10-23,38.01,39.4,37.88,38.16,-0.007542,2508863.0,97144941.47,841809600.0,3366724840.0,0.11372905711695375,38.16,2014-09-30 00:00:00,2014-10-23 00:00:00,79.55369874665398,4.66020214237406,76.68779466320471,4.474186896260302
sz300388,2014-10-22,39.79,39.97,38.3,38.45,-0.036099,3100113.0,121621184.51,848207000.0,3392310540.0,0.14053096101541251,38.45,,,,,,
sz300388,2014-10-21,38.45,40.06,38.2,39.89,0.036104000000000004,4155068.0,163273620.81,879973400.0,3519356760.0,0.18835303717135085,39.89,,,,,,
sz300388,2014-10-20,38.1,38.86,38.03,38.5,0.004697,2180372.0,83999779.47,849310000.0,3396721870.0,0.09883825929283771,38.5,,,,,,
sz300388,2014-10-17,37.69,38.5,36.39,38.32,0.016446000000000002,2979584.0,112170955.94,845339200.0,3380841090.0,0.13506727107887578,38.32,,,,,,
sz300388,2014-10-16,37.7,38.56,37.53,37.7,-0.009459,2032062.0,77399781.2,831662000.0,3326140630.0,0.09211523118767,37.7,,,,,,
sz300388,2014-10-15,37.2,38.18,36.73,38.06,0.010353,2474701.0,92638558.76,839603600.0,3357902190.0,0.11218046237533998,38.06,,,,,,
sz300388,2014-10-14,37.9,38.38,37.37,37.67,-0.002912,1657753.0,62906130.74,831000200.0,3323493840.0,0.07514746146872167,37.67,,,,,,
sz300388,2014-10-13,38.0,38.0,36.96,37.78,-0.017681,1949479.0,72979676.24,833426800.0,3333198760.0,0.08837166817769719,37.78,,,,,,
sz300388,2014-10-10,39.23,39.23,38.2,38.46,-0.019628,2416067.0,93173247.37,848427600.0,3393192810.0,0.10952252946509519,38.46,,,,,,
sz300388,2014-10-09,38.35,40.88,38.35,39.23,0.021615000000000002,4145680.0,163707822.13,865413800.0,3461127240.0,0.1879274705349048,39.23,,,,,,
sz300388,2014-10-08,37.61,38.47,37.37,38.4,0.023727,2480264.0,94387732.52,847104000.0,3387899210.0,0.11243263825929284,38.4,,,,,,
sz300388,2014-09-30,37.38,37.68,37.36,37.51,0.000267,1493399.0,56012951.47,827470600.0,3309377590.0,0.06769714415231187,37.51,,,,,,
sz300388,2014-09-29,37.23,37.59,37.06,37.5,0.012692,1840415.0,68727748.85,827250000.0,3308495330.0,0.08342769718948323,37.5,,,,,,
sz300388,2014-09-26,36.82,37.39,36.64,37.03,0.005703,1153992.0,42729469.86,816881800.0,3267028850.0,0.052311514052583864,37.03,,,,,,
sz300388,2014-09-25,37.1,37.5,36.75,36.82,-0.016822,1975324.0,73237466.65,812249200.0,3248501280.0,0.089543245693563,36.82,,,,,,
sz300388,2014-09-24,36.56,37.8,36.56,37.45,0.03168,2715127.0,101482366.26,826147000.0,3304084000.0,0.12307919310970082,37.45,,,,,,
sz300388,2014-09-23,35.56,36.39,35.54,36.3,0.016237,1607471.0,58034167.51,800778000.0,3202623470.0,0.0728681323662738,36.3,,,,,,
sz300388,2014-09-22,37.1,37.1,35.46,35.72,-0.037197,2325517.0,83697307.48,787983200.0,3151452080.0,0.10541781504986401,35.72,,,,,,
sz300388,2014-09-19,37.3,37.69,36.93,37.1,-0.0034920000000000003,1679336.0,62421347.49,818426000.0,3273204710.0,0.07612583862194017,37.1,,,,,,
sz300388,2014-09-18,36.9,37.78,36.76,37.23,0.0032340000000000003,1974041.0,73541275.67,821293800.0,3284674160.0,0.0894850861287398,37.23,,,,,,
sz300388,2014-09-17,36.46,37.64,36.26,37.11,0.018666,2493681.0,92219646.92,818646600.0,3274086970.0,0.11304084315503173,37.11,,,,,,
sz300388,2014-09-16,38.09,38.54,36.28,36.43,-0.043831999999999996,3978158.0,148349329.98,803645800.0,3214092930.0,0.18033354487760653,36.43,,,,,,
sz300388,2014-09-15,38.4,38.99,37.68,38.1,-0.018040999999999998,3687086.0,140539903.64,840486000.0,3361431250.0,0.16713898458748866,38.1,,,,,,
sz300388,2014-09-12,38.76,39.08,38.3,38.8,-0.020202,3858009.0,149237594.48,855928000.0,3423189830.0,0.17488708068902992,38.8,,,,,,
sz300388,2014-09-11,38.2,41.0,37.3,39.6,0.033402999999999995,8286216.0,319847816.66,873576000.0,3493771060.0,0.3756217588395286,39.6,,,,,,
sz300388,2014-09-10,35.2,38.32,35.2,38.32,0.099885,6600716.0,245137151.99,845339200.0,3380841090.0,0.29921650045330916,38.32,,,,,,
sz300388,2014-09-09,34.82,35.02,34.29,34.84,-0.002291,2426036.0,84235580.6,768570400.0,3073812720.0,0.10997443336355396,34.84,,,,,,
sz300388,2014-09-05,34.3,35.15,34.11,34.92,0.00692,3739502.0,129619407.73,770335200.0,3080870850.0,0.16951504986400726,34.92,,,,,,
sz300388,2014-09-04,32.99,35.69,32.62,34.68,0.054745,6215247.0,212884167.57,765040800.0,3059696480.0,0.2817428377153218,34.68,,,,,,
sz300388,2014-09-03,33.0,33.14,32.05,32.88,0.000304,4046749.0,131926802.83,725332800.0,2900888700.0,0.18344283771532185,32.88,,,,,,
sz300388,2014-09-02,32.52,33.35,32.52,32.87,0.0048909999999999995,5090188.0,167719555.19,725112200.0,2900006440.0,0.23074288304623752,32.87,,,,,,
sz300388,2014-09-01,31.28,33.17,31.15,32.71,0.05008,5396700.0,175273149.83,721582600.0,2885890190.0,0.24463735267452402,32.71,,,,,,
sz300388,2014-08-29,30.29,31.56,30.0,31.15,0.022653,3547367.0,110100693.38,687169000.0,2748256780.0,0.16080539437896646,31.15,,,,,,
sz300388,2014-08-28,30.58,30.96,30.21,30.46,0.008275,2581679.0,78997114.14,671947600.0,2687380470.0,0.11702987307343608,30.46,,,,,,
sz300388,2014-08-27,30.05,30.49,29.92,30.21,0.005324000000000001,1395053.0,42198250.87,666432600.0,2665323830.0,0.06323902991840435,30.21,,,,,,
sz300388,2014-08-26,31.33,31.33,29.92,30.05,-0.042994,3364054.0,102808018.32,662903000.0,2651207590.0,0.1524956482320943,30.05,,,,,,
sz300388,2014-08-25,31.47,31.74,31.06,31.4,0.001276,3061826.0,96328437.13,692684000.0,2770313420.0,0.13879537624660018,31.4,,,,,,
sz300388,2014-08-22,31.41,31.79,30.8,31.36,0.0,3529114.0,110121592.08,691801600.0,2766784360.0,0.15997796917497734,31.36,,,,,,
sz300388,2014-08-21,31.71,32.2,31.17,31.36,-0.030003,5136569.0,161788091.49,691801600.0,2766784360.0,0.23284537624660018,31.36,,,,,,
sz300388,2014-08-20,30.76,33.63,30.53,32.33,0.046956,8287654.0,266296872.34,713199800.0,2852364100.0,0.3756869446962829,32.33,,,,,,
sz300388,2014-08-19,30.56,31.44,30.31,30.88,0.013789,5052562.0,156837161.98,681212800.0,2724435620.0,0.22903726201269264,30.88,,,,,,
sz300388,2014-08-18,30.12,30.68,30.02,30.46,0.014995,3247103.0,98629036.52,671947600.0,2687380470.0,0.1471941523118767,30.46,,,,,,
sz300388,2014-08-15,30.39,30.48,29.6,30.01,-0.013478,4154569.0,124156841.29,662020600.0,2647678530.0,0.1883304170444243,30.01,,,,,,
sz300388,2014-08-14,30.39,31.4,30.05,30.42,-0.008798,6758525.0,207182783.03,671065200.0,2683851410.0,0.3063701269265639,30.42,,,,,,
sz300388,2014-08-13,31.68,32.5,30.67,30.69,-0.099472,13604612.0,423935594.29,677021400.0,2707672570.0,0.6167095194922937,30.69,,,,,,
sz300388,2014-08-12,34.08,34.08,34.08,34.08,0.100065,3058486.0,104233202.88,751804800.0,3006760550.0,0.13864397098821396,34.08,,,,,,
sz300388,2014-08-11,30.98,30.98,30.98,30.98,0.100142,113270.0,3509104.6,683418800.0,2733258270.0,0.005134632819582955,30.98,,,,,,
sz300388,2014-08-08,28.16,28.16,28.16,28.16,0.1,83939.0,2363722.24,621209600.0,2484459420.0,0.003805031731640979,28.16,,,,,,
sz300388,2014-08-07,25.6,25.6,25.6,25.6,0.100129,66197.0,1694643.2,564736000.0,2258599480.0,0.0030007706255666365,25.6,,,,,,
sz300388,2014-08-06,23.27,23.27,23.27,23.27,0.100236,35769.0,832344.63,513336200.0,2053031630.0,0.001621441523118767,23.27,,,,,,
sz300388,2014-08-05,21.15,21.15,21.15,21.15,0.099844,21400.0,452610.0,466569000.0,1865991360.0,0.000970081595648232,21.15,,,,,,
sz300388,2014-08-04,19.23,19.23,19.23,19.23,0.100114,12950.0,249028.5,424213800.0,1696596400.0,0.0005870353581142339,19.23,,,,,,
sz300388,2014-08-01,15.76,17.48,15.76,17.48,0.43986800000000004,53251.0,930755.76,385608800.0,1542199950.0,0.0024139165911151407,17.48,,,,,,
