code,date,open,high,low,close,change,volume,money,traded_market_value,market_value,turnover,adjust_price,report_type,report_date,PE_TTM,PS_TTM,PC_TTM,PB
sz300114,2014-12-31,32.45,33.3,29.55,31.0,-0.028213,2768263.0,84909171.92,4836000000.0,6261051460.0,0.01774527564102564,61.62,2014-09-30 00:00:00,2014-10-23 00:00:00,93.19259171756997,6.064701155424882,90.35333004747739,5.640210551047405
sz300114,2014-12-30,34.09,34.25,31.9,31.9,-0.074826,1499344.0,49429738.33,4976400000.0,6442823920.0,0.009611179487179487,63.41,2014-09-30 00:00:00,2014-10-23 00:00:00,95.89816669452254,6.240772057482641,92.9764753464261,5.803957607014094
sz300114,2014-12-29,35.59,35.59,33.3,34.48,-0.031461,1435065.0,48901118.36,5378880000.0,6963904980.0,0.009199134615384616,68.54,2014-09-30 00:00:00,2014-10-23 00:00:00,103.65419552918969,6.745511717236585,100.49620433175392,6.273368692823289
sz300114,2014-12-26,36.15,36.53,34.6,35.6,-0.029708,1701722.0,59831120.64,5553600000.0,7190110710.0,0.010908474358974359,70.77,2014-09-30 00:00:00,2014-10-23 00:00:00,107.02118916139636,6.9646258098399585,103.76061710654285,6.4771461890778665
sz300114,2014-12-25,37.21,37.99,35.5,36.69,-0.013975,1269594.0,46083595.63,5723640000.0,7410257360.0,0.008138423076923076,72.93,2014-09-30 00:00:00,2014-10-23 00:00:00,110.29791976167623,7.177865848466192,106.93751685734071,6.675460777866731
sz300114,2014-12-24,34.85,38.61,33.85,37.21,0.060114,1973900.0,70260932.94,5804760000.0,7515281450.0,0.012653205128205128,73.97,2014-09-30 00:00:00,2014-10-23 00:00:00,111.8611797486638,7.279598233783313,108.4531496233267,6.770072541636095
sz300114,2014-12-23,36.8,36.8,33.59,35.1,-0.017632,1322037.0,45885009.29,5475600000.0,7089126010.0,0.008474596153846154,69.77,2014-09-30 00:00:00,2014-10-23 00:00:00,105.51806668779376,6.866806997910897,102.30328966821182,6.386174073388424
sz300114,2014-12-22,39.6,40.0,35.73,35.73,-0.1,1656205.0,60971243.35,5573880000.0,7216366730.0,0.010616698717948719,71.03,2014-09-30 00:00:00,2014-10-23 00:00:00,107.41195426540133,6.9900556592955985,104.13947692535977,6.500796110407123
sz300114,2014-12-19,39.99,41.3,38.88,39.7,-0.021686,1431296.0,57111507.58,6193200000.0,8018185260.0,0.00917497435897436,78.92,2014-09-30 00:00:00,2014-10-23 00:00:00,119.34661585044593,7.766728510328442,115.71052991706641,7.223106789341247
sz300114,2014-12-18,40.0,41.8,38.61,40.58,0.024746999999999998,2223022.0,90410315.05,6330480000.0,8195918330.0,0.014250141025641025,80.67,2014-09-30 00:00:00,2014-10-23 00:00:00,121.99213734081891,7.938891307216744,118.27545135515429,7.383219282706009
sz300114,2014-12-17,40.02,41.84,39.58,39.6,-0.031548,1680826.0,68232692.57,6177600000.0,7997988320.0,0.01077452564102564,78.72,2014-09-30 00:00:00,2014-10-23 00:00:00,119.04610341949662,7.747172040724923,115.41917307896901,7.204919148537159
sz300114,2014-12-16,38.38,40.95,37.5,40.89,0.053866,2547545.0,99337998.98,6378840000.0,8258528850.0,0.016330416666666667,81.28,2014-09-30 00:00:00,2014-10-23 00:00:00,122.92411334737976,7.999541578441599,119.1790332189608,7.439624419730827
sz300114,2014-12-15,37.8,38.8,37.01,38.8,0.009365,2207024.0,83270772.81,6052800000.0,7836412800.0,0.014147589743589744,77.13,2014-09-30 00:00:00,2014-10-23 00:00:00,116.64112263549612,7.59066292910256,113.08746388911,7.05936468178196
sz300114,2014-12-12,39.83,42.0,37.3,38.44,-0.029293,2337151.0,89661048.96,5996640000.0,7763703810.0,0.014981737179487179,76.41,2014-09-30 00:00:00,2014-10-23 00:00:00,115.55891341139838,7.520235919714435,112.0382259035235,6.993867116238388
sz300114,2014-12-11,39.5,41.0,37.5,39.6,0.015645,2642037.0,104249111.77,6177600000.0,7997988320.0,0.016936134615384617,78.72,2014-09-30 00:00:00,2014-10-23 00:00:00,119.04613174871345,7.747173884307454,115.41920054509086,7.204920863080609
sz300114,2014-12-10,34.95,40.66,34.95,38.99,0.004121,5466378.0,205400619.38,6082440000.0,7874786980.0,0.03504088461538461,77.51,2014-09-30 00:00:00,2014-10-23 00:00:00,117.2123446171777,7.627836384078545,113.64128267759982,7.093936230750518
sz300114,2014-12-08,35.3,38.83,35.3,38.83,0.1,5690741.0,214725036.41,6057480000.0,7842471880.0,0.03647910897435897,77.19,2014-09-30 00:00:00,2014-10-23 00:00:00,116.73129495068592,7.5965310794999255,113.17488896019483,7.064822098881028
sz300114,2014-12-05,33.3,35.99,31.2,35.3,0.06969700000000001,5715262.0,196725859.8,5506800000.0,7129519890.0,0.03663629487179487,70.17,2014-09-30 00:00:00,2014-10-23 00:00:00,106.11935904607812,6.905937344999932,102.88626269108622,6.422565544437298
sz300114,2014-12-04,30.3,33.2,29.93,33.0,0.090549,3405613.0,108488046.79,5148000000.0,6664990270.0,0.021830852564102565,65.6,2014-09-30 00:00:00,2014-10-23 00:00:00,99.20506371998621,6.455975238782507,96.18262245391564,6.004097930944274
sz300114,2014-12-03,29.8,30.33,28.71,30.26,0.01204,1452417.0,43022265.36,4720560000.0,6111594100.0,0.009310365384615384,60.15,2014-09-30 00:00:00,2014-10-23 00:00:00,90.96800209801323,5.9199313728979694,88.19651611611735,5.505573734829224
sz300114,2014-12-02,29.82,30.45,29.78,29.9,-0.009606,1382047.0,41464396.5,4664400000.0,6038885120.0,0.00885927564102564,59.44,2014-09-30 00:00:00,2014-10-23 00:00:00,89.88577733885343,5.849503352533467,87.14726306876936,5.440075229071206
sz300114,2014-12-01,31.81,31.81,29.6,30.19,-0.053308,2107759.0,64036227.53,4709640000.0,6097456250.0,0.01351127564102564,60.01,2014-09-30 00:00:00,2014-10-23 00:00:00,90.75759479444892,5.906238681306093,87.99251920828415,5.492839444777742
sz300114,2014-11-28,31.13,31.95,30.92,31.89,0.018199,1302883.0,40980531.91,4974840000.0,4974840000.0,0.008351814102564102,63.39,2014-09-30 00:00:00,2014-10-23 00:00:00,95.8681332412748,6.238817568233484,92.94735691046735,5.802139919612443
sz300114,2014-11-27,31.6,32.45,31.21,31.32,-0.014475,1502555.0,47533772.26,4885920000.0,4885920000.0,0.009631762820512821,62.26,2014-09-30 00:00:00,2014-10-23 00:00:00,94.15461343143608,6.127306713357098,91.28604222796068,5.698434117115064
sz300114,2014-11-26,30.5,31.9,30.16,31.78,0.042309,1779355.0,55582196.23,4957680000.0,4957680000.0,0.011406121794871795,63.17,2014-09-30 00:00:00,2014-10-23 00:00:00,95.53751901923958,6.217302162154281,92.62681538059479,5.782130455457817
sz300114,2014-11-25,29.95,30.95,29.74,30.49,0.01803,1773604.0,53794204.13,4756440000.0,4756440000.0,0.01136925641025641,60.61,2014-09-30 00:00:00,2014-10-23 00:00:00,91.65949734602654,5.9649318600859065,88.86694385311343,5.547424473412219
sz300114,2014-11-24,30.3,30.31,29.83,29.95,-0.001334,904404.0,27116902.71,4672200000.0,4672200000.0,0.005797461538461539,59.54,2014-09-30 00:00:00,2014-10-23 00:00:00,90.03614564013492,5.859288881551533,87.29305015875114,5.449175833140693
sz300114,2014-11-21,29.8,30.49,29.46,29.99,0.005027,1346980.0,40229364.8,4678440000.0,4678440000.0,0.00863448717948718,59.62,2014-09-30 00:00:00,2014-10-23 00:00:00,90.15641429680684,5.8671156137803155,87.40965463803828,5.45645474376888
sz300114,2014-11-20,29.67,30.5,29.44,29.84,0.0,884308.0,26435389.15,4655040000.0,4655040000.0,0.005668641025641026,59.32,2014-09-30 00:00:00,2014-10-23 00:00:00,89.70546492463075,5.837769148271954,86.97244416123974,5.429162344662264
sz300114,2014-11-19,28.96,30.63,28.8,29.84,0.031455000000000004,1530316.0,45904052.28,4655040000.0,4655040000.0,0.009809717948717949,59.32,2014-09-30 00:00:00,2014-10-23 00:00:00,89.70546492463075,5.837769148271954,86.97244416123974,5.429162344662264
sz300114,2014-11-18,29.09,29.43,28.51,28.93,-0.013974,906276.0,26205809.26,4513080000.0,4513080000.0,0.0058094615384615385,57.51,2014-09-30 00:00:00,2014-10-23 00:00:00,86.96982895485576,5.6597419647701095,84.32015372579487,5.263595934541268
sz300114,2014-11-17,27.42,29.4,26.82,29.34,0.070022,1741591.0,50060807.05,4577040000.0,4577040000.0,0.011164044871794872,58.32,2014-09-30 00:00:00,2014-10-23 00:00:00,88.20236885726722,5.739952054783656,85.51514232463938,5.338191827133634
sz300114,2014-11-14,28.75,28.75,26.9,27.42,-0.037895,1721852.0,47547531.09,4277520000.0,4277520000.0,0.01103751282051282,54.51,2014-09-30 00:00:00,2014-10-23 00:00:00,82.43042559617204,5.3643308780414385,79.91905056591301,4.988861749696392
sz300114,2014-11-13,31.0,31.29,28.38,28.5,-0.08064500000000001,2212218.0,64737269.91,4446000000.0,4446000000.0,0.014180884615384616,56.65,2014-09-30 00:00:00,2014-10-23 00:00:00,85.67716163638278,5.575618958472764,83.0668695889877,5.1853610049801135
sz300114,2014-11-12,30.65,31.45,30.41,31.0,-0.017744,1636469.0,50861227.58,4836000000.0,4836000000.0,0.010490185897435897,61.62,2014-09-30 00:00:00,2014-10-23 00:00:00,93.19268578120833,6.064707276811204,90.35342124531623,5.64021624397552
sz300114,2014-11-11,33.37,33.37,30.0,31.56,-0.039269,4855645.0,151501053.21,4923360000.0,4923360000.0,0.031125929487179488,62.74,2014-09-30 00:00:00,2014-10-23 00:00:00,94.87616851534459,6.174263406699682,91.98561397977332,5.742104139832711
sz300114,2014-11-10,31.28,33.2,30.81,32.85,0.050527999999999997,3150354.0,101227081.73,5124600000.0,5124600000.0,0.020194576923076923,65.3,2014-09-30 00:00:00,2014-10-23 00:00:00,98.75414503679445,6.426630770423439,95.74544173111235,5.976807389199172
sz300114,2014-11-07,30.0,32.39,29.92,31.27,0.04512,3598473.0,112201612.62,4878120000.0,4878120000.0,0.023067134615384614,62.16,2014-09-30 00:00:00,2014-10-23 00:00:00,94.00429597002125,6.117524492848778,91.14030442892754,5.689336589980632
sz300114,2014-11-06,29.66,30.04,29.15,29.92,0.008766,1853851.0,54895434.1,4667520000.0,4667520000.0,0.011883660256410257,59.48,2014-09-30 00:00:00,2014-10-23 00:00:00,89.94593536629404,5.853418260916237,87.20558828548637,5.4437161187046765
sz300114,2014-11-05,29.9,30.15,29.11,29.66,-0.014618,1993681.0,58985933.63,4626960000.0,4626960000.0,0.01278000641025641,58.96,2014-09-30 00:00:00,2014-10-23 00:00:00,89.16432092903017,5.802553080611595,86.4477869847778,5.396411178315562
sz300114,2014-11-04,29.48,30.8,29.05,30.1,0.017579,3547560.0,106350465.14,4695600000.0,4695600000.0,0.02274076923076923,59.83,2014-09-30 00:00:00,2014-10-23 00:00:00,90.4870607835643,5.888633119553224,87.73022744963659,5.476466160651972
sz300114,2014-11-03,29.6,29.62,28.84,29.58,0.001693,3054819.0,89254233.51,4614480000.0,4614480000.0,0.019582173076923077,58.8,2014-09-30 00:00:00,2014-10-23 00:00:00,88.9238681061267,5.786905114544644,86.21465994250727,5.381858470597343
sz300114,2014-10-31,29.65,29.93,28.8,29.53,-0.018937,3174842.0,92898769.5,4606680000.0,4606680000.0,0.02035155128205128,58.7,2014-09-30 00:00:00,2014-10-23 00:00:00,88.773574444592,5.777124442862877,86.06894521825275,5.3727623838814305
sz300114,2014-10-30,30.11,30.14,28.71,30.1,0.028357,6136426.0,181342178.92,4695600000.0,4695600000.0,0.0393360641025641,59.83,2014-09-30 00:00:00,2014-10-23 00:00:00,90.4871292104503,5.888637572574724,87.73029379178783,5.4764703019902194
sz300114,2014-10-29,26.97,29.27,26.95,29.27,0.099962,7339326.0,209677229.51,4566120000.0,4566120000.0,0.04704696153846154,58.18,2014-09-30 00:00:00,2014-10-23 00:00:00,87.99194171912117,5.726258072415245,85.31112618651677,5.325456336651785
sz300114,2014-10-28,26.25,26.76,26.0,26.61,0.026619999999999998,1863210.0,49170177.94,4151160000.0,4151160000.0,0.011943653846153847,52.9,2014-09-30 00:00:00,2014-10-23 00:00:00,79.99543776886944,5.205868995851897,77.55824854541953,4.841491193924684
sz300114,2014-10-27,25.25,26.1,24.8,25.92,0.023293,1472581.0,37810654.01,4043520000.0,4043520000.0,0.009439621794871796,51.52,2014-09-30 00:00:00,2014-10-23 00:00:00,77.92117606209642,5.070882113977806,75.54718254604383,4.715952537379637
sz300114,2014-10-24,25.01,25.46,24.89,25.33,0.0132,1547496.0,39076324.99,3951480000.0,3951480000.0,0.009919846153846154,50.35,2014-09-30 00:00:00,2014-10-23 00:00:00,76.14747297411047,4.955454707476555,73.82751816541679,4.608604317023216
sz300114,2014-10-23,26.41,26.65,24.8,25.0,-0.067512,2406308.0,61571927.86,3900000000.0,3900000000.0,0.015425051282051282,49.7,2014-09-30 00:00:00,2014-10-23 00:00:00,75.15542141147894,4.890894894864346,72.86569104364072,4.5485632817047135
sz300114,2014-10-22,26.78,27.71,26.7,26.81,0.010554000000000001,3324741.0,90599260.62,4182360000.0,4182360000.0,0.021312442307692307,53.29,2014-06-30 00:00:00,2014-08-22 00:00:00,84.30190010966513,5.385135731087394,96.43270392735772,4.9648851828378
sz300114,2014-10-21,26.2,27.2,26.2,26.53,0.008745000000000001,1442993.0,38531546.74,4138680000.0,4138680000.0,0.009249955128205128,52.74,2014-06-30 00:00:00,2014-08-22 00:00:00,83.42146991616985,5.328894577714198,95.42558233143178,4.913033032215794
sz300114,2014-10-20,25.72,26.39,25.25,26.3,0.022550999999999998,1079593.0,28207395.22,4102800000.0,4102800000.0,0.006920467948717948,52.28,2014-06-30 00:00:00,2014-08-22 00:00:00,82.69827351428742,5.282697389046983,94.59832002283213,4.87044102544825
sz300114,2014-10-17,26.08,26.38,24.87,25.72,-0.013047,1999805.0,50986797.03,4012320000.0,4012320000.0,0.01281926282051282,51.13,2014-06-30 00:00:00,2014-08-22 00:00:00,80.87447326762911,5.166194536064199,92.51208010439785,4.7630299373314875
sz300114,2014-10-16,26.52,26.97,25.7,26.06,-0.025794,1611223.0,42677154.08,4065360000.0,4065360000.0,0.010328352564102564,51.8,2014-06-30 00:00:00,2014-08-22 00:00:00,81.94359130336412,5.234488912910948,93.73504118676153,4.825994690052604
sz300114,2014-10-15,26.98,26.99,26.15,26.75,-0.013279,1672221.0,44429118.19,4173000000.0,4173000000.0,0.010719365384615384,53.17,2014-06-30 00:00:00,2014-08-22 00:00:00,84.11320737437885,5.3730821950500705,96.21685884377794,4.95377229256708
sz300114,2014-10-14,26.48,27.27,26.28,27.11,0.022633,2615370.0,70384028.18,4229160000.0,4229160000.0,0.016765192307692307,53.89,2014-06-30 00:00:00,2014-08-22 00:00:00,85.24517809429297,5.445391549435018,97.51171693293033,5.020438698038331
sz300114,2014-10-13,26.86,26.86,25.65,26.51,-0.018147999999999997,2802568.0,73305035.05,4135560000.0,4135560000.0,0.017965179487179486,52.7,2014-06-30 00:00:00,2014-08-22 00:00:00,83.35852460686577,5.324873683359542,95.3535793710259,4.909325924391577
sz300114,2014-10-10,27.7,27.72,25.02,27.0,-0.028776999999999997,2663656.0,71844957.8,4212000000.0,4212000000.0,0.017074717948717948,53.67,2014-06-30 00:00:00,2014-08-22 00:00:00,84.89927668005544,5.423295652867787,97.11604128832647,5.000067142900943
sz300114,2014-10-09,27.93,28.28,27.32,27.8,-0.004298,2426521.0,67399137.55,4336800000.0,4336800000.0,0.015554621794871794,55.26,2014-06-30 00:00:00,2014-08-22 00:00:00,87.41481274646033,5.583986018522818,99.99355584487442,5.1482173948732095
sz300114,2014-10-08,28.2,28.77,27.7,27.92,-0.012381,2658839.0,74893641.97,4355520000.0,4355520000.0,0.017043839743589743,55.5,2014-06-30 00:00:00,2014-08-22 00:00:00,87.792143378702,5.608089587570195,100.42518328262314,5.170439945760087
sz300114,2014-09-30,28.87,28.9,27.86,28.27,-0.014983000000000002,2118269.0,59752419.56,4410120000.0,4410120000.0,0.013578647435897435,56.2,2014-06-30 00:00:00,2014-08-22 00:00:00,88.89272419698484,5.678393780972414,101.68413455251785,5.235257670984545
sz300114,2014-09-29,27.26,29.45,26.73,28.7,0.06060599999999999,3784383.0,106193347.37,4477200000.0,4477200000.0,0.024258865384615386,57.05,2014-06-30 00:00:00,2014-08-22 00:00:00,90.2448629789992,5.764767289267509,103.23084226213136,5.314890678013217
sz300114,2014-09-26,26.99,27.29,26.5,27.06,-0.008791,1879289.0,50442121.41,4221360000.0,4221360000.0,0.012046724358974359,53.79,2014-06-30 00:00:00,2014-08-22 00:00:00,85.08801852808601,5.435352326186641,97.33194255183487,5.011182925622916
sz300114,2014-09-25,26.99,28.12,26.72,27.3,0.01487,3844268.0,105857372.35,4258800000.0,4258800000.0,0.02464274358974359,54.27,2014-06-30 00:00:00,2014-08-22 00:00:00,85.84266136413815,5.483558287088436,98.19517634710223,5.055626942070659
sz300114,2014-09-24,25.62,27.68,25.62,26.9,0.041022,3269544.0,87942890.3,4196400000.0,4196400000.0,0.020958615384615385,53.47,2014-06-30 00:00:00,2014-08-22 00:00:00,84.58488413702065,5.403212516961222,96.75640855193495,4.981551274617102
sz300114,2014-09-23,25.55,25.98,25.46,25.84,0.013333000000000001,1662245.0,42901761.82,4031040000.0,4031040000.0,0.010655416666666667,51.37,2014-06-30 00:00:00,2014-08-22 00:00:00,81.2517738693521,5.190296186786853,92.9436731903216,4.785250719597763
sz300114,2014-09-22,26.0,26.47,24.96,25.5,-0.028571,1803802.0,45878648.09,3978000000.0,3978000000.0,0.011562833333333333,50.69,2014-06-30 00:00:00,2014-08-22 00:00:00,80.18269795748496,5.12200450077798,91.72076029333063,4.722288447724257
sz300114,2014-09-19,25.5,26.28,25.41,26.25,0.029412,1875753.0,48504259.76,4095000000.0,4095000000.0,0.012024057692307692,52.18,2014-06-30 00:00:00,2014-08-22 00:00:00,82.54097618815678,5.272649365808494,94.4183880585515,4.861177139785054
sz300114,2014-09-18,25.15,25.61,24.56,25.5,0.009901,1914464.0,48255581.01,3978000000.0,3978000000.0,0.012272205128205128,50.69,2014-06-30 00:00:00,2014-08-22 00:00:00,80.18264425531935,5.122001070328008,91.72069886357602,4.722285284983132
sz300114,2014-09-17,25.3,25.84,24.8,25.25,-0.0019760000000000003,2044534.0,51725051.68,3939000000.0,3939000000.0,0.01310598717948718,50.19,2014-06-30 00:00:00,2014-08-22 00:00:00,79.39653912147759,5.071785323836701,90.82147543529119,4.67598832458145
sz300114,2014-09-16,27.35,27.52,25.3,25.3,-0.083333,3835992.0,101469646.0,3946800000.0,3946800000.0,0.02458969230769231,50.29,2014-06-30 00:00:00,2014-08-22 00:00:00,79.55373730639504,5.0818270140163975,91.00129399221983,4.68524637141136
sz300114,2014-09-15,26.85,28.28,26.38,27.6,0.031389999999999994,4862186.0,132970601.85,4305600000.0,4305600000.0,0.031167858974358975,54.86,2014-06-30 00:00:00,2014-08-22 00:00:00,86.78586368484414,5.543809272087244,99.27410280092971,5.111176001112028
sz300114,2014-09-12,26.4,27.08,26.12,26.76,0.002247,3502160.0,93224156.34,4174560000.0,4174560000.0,0.02244974358974359,53.19,2014-06-30 00:00:00,2014-08-22 00:00:00,84.14456576546615,5.375085343165285,96.25272961821396,4.955619117028503
sz300114,2014-09-11,26.2,27.22,26.03,26.7,0.013283000000000001,4286898.0,113823763.51,4165200000.0,4165200000.0,0.027480115384615384,53.08,2014-06-30 00:00:00,2014-08-22 00:00:00,83.95591682037079,5.363034604409178,96.0369346261091,4.944508805742001
sz300114,2014-09-10,26.2,27.09,25.9,26.35,-0.00828,5082779.0,134884621.14,4110600000.0,4110600000.0,0.03258191666666667,52.38,2014-06-30 00:00:00,2014-08-22 00:00:00,82.85534921672505,5.29273125514706,94.77799847240023,4.879691858781803
sz300114,2014-09-09,27.17,27.17,26.0,26.57,-0.022083000000000002,5420240.0,143742702.75,4144920000.0,4144920000.0,0.034745128205128206,52.82,2014-06-30 00:00:00,2014-08-22 00:00:00,83.54711936506779,5.3369209607016685,95.56931237889748,4.920433044389346
sz300114,2014-09-05,26.57,28.34,26.18,27.17,0.050251,10138917.0,276094628.4,4238520000.0,4238520000.0,0.06499305769230769,54.01,2014-06-30 00:00:00,2014-08-22 00:00:00,85.43375293104403,5.457437554211317,97.72742715271077,5.0315446447800225
sz300114,2014-09-04,25.87,25.87,24.51,25.87,0.099915,5077055.0,129264430.76,4035720000.0,4035720000.0,0.03254522435897436,51.43,2014-06-30 00:00:00,2014-08-22 00:00:00,81.34603340634195,5.196317408135119,93.05149640677398,4.790802050919279
sz300114,2014-08-27,21.38,23.52,21.28,23.52,0.100094,5785781.0,131657832.96,3669120000.0,3669120000.0,0.03708833974358974,46.75,2014-06-30 00:00:00,2014-08-22 00:00:00,73.95665429268801,4.724289975257287,84.5988066412168,4.355611161698202
sz300114,2014-08-26,21.7,21.7,21.2,21.38,-0.017915,1114618.0,23891873.28,3335280000.0,3335280000.0,0.00714498717948718,42.5,2014-06-30 00:00:00,2014-08-22 00:00:00,67.22757718221173,4.294442088819036,76.90143446034322,3.959308169754769
sz300114,2014-08-25,22.15,22.16,21.4,21.77,-0.015378,1633777.0,35315832.9,3396120000.0,3396120000.0,0.010472929487179487,43.28,2014-06-30 00:00:00,2014-08-22 00:00:00,68.4539293260886,4.37278045059138,78.30425519210986,4.031533084972043
sz300114,2014-08-22,21.8,22.18,21.72,22.11,0.007289,1272175.0,28012849.29,3449160000.0,3449160000.0,0.008154967948717949,43.95,2014-06-30 00:00:00,2014-08-22 00:00:00,69.52305486378387,4.4410753066571536,79.52722485594458,4.094498279514416
sz300114,2014-08-21,22.11,22.18,21.62,21.95,-0.002273,1181882.0,25884620.86,3424200000.0,3424200000.0,0.007576166666666667,43.63,2014-03-31 00:00:00,2014-04-23 00:00:00,71.44111965135949,4.582239580793085,285.98565854243907,4.109883699273098
sz300114,2014-08-20,21.62,22.59,21.62,22.0,0.009174,1459050.0,32323630.06,3432000000.0,3432000000.0,0.009352884615384615,43.73,2014-03-31 00:00:00,2014-04-23 00:00:00,71.60387525982506,4.5926787395681234,286.63718486363405,4.119246747129322
sz300114,2014-08-19,21.66,21.92,21.45,21.8,0.006464,1238924.0,26916815.28,3400800000.0,3400800000.0,0.007941820512820512,43.33,2014-03-31 00:00:00,2014-04-23 00:00:00,70.9529528701939,4.550928521313591,284.03148006551305,4.081800311075515
sz300114,2014-08-18,21.1,21.75,21.01,21.66,0.029468,1627344.0,34879779.34,3378960000.0,3378960000.0,0.010431692307692308,43.06,2014-03-31 00:00:00,2014-04-23 00:00:00,70.49725859066385,4.521700250891827,282.20729212918997,4.055585009573631
sz300114,2014-08-15,21.19,21.33,20.86,21.04,-0.002844,1861672.0,39074261.28,3282240000.0,3282240000.0,0.011933794871794872,41.82,2014-03-31 00:00:00,2014-04-23 00:00:00,68.4793102754664,4.392268871778264,274.12925135039643,3.93949594312172
sz300114,2014-08-14,21.42,21.92,21.1,21.1,-0.019972,1931713.0,41601362.54,3291600000.0,3291600000.0,0.012382775641025641,41.94,2014-03-31 00:00:00,2014-04-23 00:00:00,68.67462089729831,4.404796111920567,274.9110985145719,3.9507318244303997
sz300114,2014-08-13,20.97,22.51,20.97,21.53,0.022317,3101917.0,67726339.7,3358680000.0,3358680000.0,0.019884083333333333,42.8,2014-03-31 00:00:00,2014-04-23 00:00:00,70.07414165442039,4.494561494080339,280.5135144246612,4.031243826125784
sz300114,2014-08-12,20.88,21.1,20.7,21.06,0.005251,1270566.0,26608727.48,3285360000.0,3285360000.0,0.008144653846153847,41.86,2014-03-31 00:00:00,2014-04-23 00:00:00,68.54443548764266,4.396446008508455,274.3899538251454,3.943242483618861
sz300114,2014-08-11,20.97,21.15,20.81,20.95,0.005278,1222894.0,25620151.35,3268200000.0,3268200000.0,0.007839064102564103,41.65,2014-03-31 00:00:00,2014-04-23 00:00:00,68.18638876026255,4.373480860509919,272.956658411825,3.9226446764229657
sz300114,2014-08-08,20.9,21.3,20.74,20.84,-0.001916,1234117.0,25862085.03,3251040000.0,3251040000.0,0.00791100641025641,41.43,2014-03-31 00:00:00,2014-04-23 00:00:00,67.82839051512373,4.350518822166524,271.5235570775696,3.9020496583263196
sz300114,2014-08-07,20.73,21.27,20.63,20.88,0.0,1995029.0,41810501.8,3257280000.0,3257280000.0,0.012788647435897436,41.51,2014-03-31 00:00:00,2014-04-23 00:00:00,67.95859919117403,4.358870417887196,272.0447949046069,3.9095403376131865
sz300114,2014-08-06,20.2,21.09,20.17,20.88,0.027558999999999997,2304345.0,47868075.23,3257280000.0,3257280000.0,0.014771442307692308,41.51,2014-03-31 00:00:00,2014-04-23 00:00:00,67.95859919117403,4.358870417887196,272.0447949046069,3.9095403376131865
sz300114,2014-08-05,20.0,20.48,19.8,20.32,0.012961000000000002,1620382.0,32780938.82,3169920000.0,3169920000.0,0.010387064102564103,40.39,2014-03-31 00:00:00,2014-04-23 00:00:00,66.1359583159449,4.241966074830931,264.7485885526835,3.804686969422862
sz300114,2014-08-04,19.81,20.28,19.7,20.06,0.012109,1365912.0,27416366.57,3129360000.0,3129360000.0,0.008755846153846154,39.88,2014-03-31 00:00:00,2014-04-23 00:00:00,65.28973802144891,4.1876894321014655,261.3610874976268,3.7560053836454346
sz300114,2014-08-01,19.9,20.3,19.65,19.82,-0.006018,1969042.0,39362371.32,3091920000.0,3091920000.0,0.012622064102564102,39.4,2014-03-31 00:00:00,2014-04-23 00:00:00,64.50860334356173,4.137587386439074,258.2341304124623,3.71106806050083
sz300114,2014-07-31,19.88,20.04,19.76,19.94,-0.00499,1008256.0,20051247.58,3110640000.0,3110640000.0,0.006463179487179487,39.64,2014-03-31 00:00:00,2014-04-23 00:00:00,64.8991665277256,4.162638142782339,259.79759232306253,3.733536483055861
sz300114,2014-07-30,19.76,20.19,19.36,20.04,0.016227000000000002,2329239.0,46366265.07,3126240000.0,3126240000.0,0.01493101923076923,39.84,2014-03-31 00:00:00,2014-04-23 00:00:00,65.22463746869438,4.183513877028712,261.10048373690967,3.7522602617620535
sz300114,2014-07-29,19.89,19.89,19.55,19.72,0.00715,1790155.0,35266348.28,3076320000.0,3076320000.0,0.011475352564102564,39.2,2014-03-31 00:00:00,2014-04-23 00:00:00,64.18313769334448,4.116711991541962,256.9312601780013,3.6923445861623967
sz300114,2014-07-28,19.1,19.69,18.75,19.58,0.028361,1659387.0,32189631.7,3054480000.0,3054480000.0,0.010637096153846153,38.92,2014-03-31 00:00:00,2014-04-23 00:00:00,63.72748616724865,4.087486463329157,255.10724338777865,3.6661317441914276
sz300114,2014-07-25,19.28,19.28,18.71,19.04,0.01008,657504.0,12493537.4,2970240000.0,2970240000.0,0.004214769230769231,37.85,2014-03-31 00:00:00,2014-04-23 00:00:00,61.96995623837216,3.974758341991924,248.07168240314306,3.565024095810155
sz300114,2014-07-24,19.44,19.53,18.68,18.85,-0.038265,1688732.0,31952684.7,2940600000.0,2940600000.0,0.010825205128205128,37.47,2014-03-31 00:00:00,2014-04-23 00:00:00,61.351532787870426,3.935092608498261,245.59607397745035,3.529447267355214
sz300114,2014-07-23,19.4,19.88,19.22,19.6,0.010309,1833420.0,36018861.33,3057600000.0,3057600000.0,0.011752692307692308,38.96,2014-03-31 00:00:00,2014-04-23 00:00:00,63.79255490116345,4.091659977538783,255.36771977462644,3.669875035592148
sz300114,2014-07-22,19.36,19.58,19.21,19.4,-0.003083,1020606.0,19805022.97,3026400000.0,3026400000.0,0.006542346153846154,38.56,2014-03-31 00:00:00,2014-04-23 00:00:00,63.14162785955925,4.0499094609063,252.76199635421088,3.632428331918401
sz300114,2014-07-21,19.93,19.93,19.02,19.46,-0.024072,1575247.0,30507266.14,3035760000.0,3035760000.0,0.01009773717948718,38.68,2014-03-31 00:00:00,2014-04-23 00:00:00,63.336895508411686,4.062433944757989,253.5436714934251,3.643661741066108
sz300114,2014-07-18,20.0,20.3,19.81,19.94,-0.004493,919623.0,18426598.86,3110640000.0,3110640000.0,0.005895019230769231,39.64,2014-03-31 00:00:00,2014-04-23 00:00:00,64.89914779411153,4.162636941206717,259.7975173306075,3.7335354053435372
sz300114,2014-07-17,19.86,20.22,19.8,20.03,0.006533,975560.0,19529244.4,3124680000.0,3124680000.0,0.006253589743589744,39.82,2014-03-31 00:00:00,2014-04-23 00:00:00,65.1920557003733,4.181424079596343,260.9700557912776,3.7503858891434585
sz300114,2014-07-16,20.21,20.39,19.65,19.9,-0.024988,2316609.0,46234180.95,3104400000.0,3104400000.0,0.014850057692307692,39.56,2014-03-31 00:00:00,2014-04-23 00:00:00,64.76892034376748,4.154284141301222,259.2762043482704,3.7260436460041135
sz300114,2014-07-15,20.65,20.94,19.97,20.41,-0.01875,3201536.0,65262923.29,3183960000.0,3183960000.0,0.020522666666666668,40.57,2014-03-31 00:00:00,2014-04-23 00:00:00,66.4288443052675,4.260751807466187,265.92103927774264,3.8215361923792877
sz300114,2014-07-14,21.59,21.62,20.45,20.8,0.009709,2830191.0,59136965.9,3244800000.0,3244800000.0,0.01814225,41.35,2014-03-31 00:00:00,2014-04-23 00:00:00,67.69818527925352,4.3421674470993,271.0023330219034,3.8945591769470456
sz300114,2014-07-11,20.4,20.88,20.2,20.6,0.006351,2158497.0,44331355.19,3213600000.0,3213600000.0,0.01383651923076923,40.95,2014-03-31 00:00:00,2014-04-23 00:00:00,67.04722378353914,4.300414720577216,268.396471678378,3.8571104911881
sz300114,2014-07-10,20.74,20.93,20.38,20.47,-0.021978,2512710.0,51815105.84,3193320000.0,3193320000.0,0.016107115384615383,40.69,2014-03-31 00:00:00,2014-04-23 00:00:00,66.62409416151932,4.273275150098937,266.70264319146895,3.832768577949542
sz300114,2014-07-09,20.4,21.81,20.2,20.93,0.022972,5753917.0,121804220.29,3265080000.0,3265080000.0,0.03688408333333333,41.61,2014-03-31 00:00:00,2014-04-23 00:00:00,68.12126328601946,4.36930370697074,272.6959548879974,3.9188981208495743
sz300114,2014-07-08,20.29,20.49,19.85,20.46,0.0,2551958.0,51422033.45,3191760000.0,3191760000.0,0.016358705128205128,40.67,2014-03-31 00:00:00,2014-04-23 00:00:00,66.59152282371312,4.271186021680691,266.57225700018904,3.830894805380376
sz300114,2014-07-07,20.1,20.94,20.1,20.46,0.035949,4168122.0,85315538.81,3191760000.0,3191760000.0,0.02671873076923077,40.67,2014-03-31 00:00:00,2014-04-23 00:00:00,66.59152282371312,4.271186021680691,266.57225700018904,3.830894805380376
sz300114,2014-07-04,19.6,19.78,19.5,19.75,0.005089,1680503.0,33051654.4,3081000000.0,3081000000.0,0.010772455128205129,39.26,2014-03-31 00:00:00,2014-04-23 00:00:00,64.28069608032163,4.122969394903311,257.32179576425966,3.6979569509506507
sz300114,2014-07-03,19.8,19.87,19.4,19.65,-0.011072,2234339.0,43637461.44,3065400000.0,3065400000.0,0.014322685897435898,39.06,2014-03-31 00:00:00,2014-04-23 00:00:00,63.955227925409226,4.102093839354835,256.01891550326354,3.6792333325214495
sz300114,2014-07-02,19.6,20.49,19.54,19.87,0.009654000000000001,3245897.0,64885079.67,3099720000.0,3099720000.0,0.02080703205128205,39.5,2014-03-31 00:00:00,2014-04-23 00:00:00,64.67126820699711,4.148020724820043,258.88529347259214,3.720425887952864
sz300114,2014-07-01,19.96,20.13,19.49,19.68,-0.009562000000000001,2802570.0,55159849.78,3070080000.0,3070080000.0,0.017965192307692307,39.12,2014-03-31 00:00:00,2014-04-23 00:00:00,64.05290149595514,4.108358630600228,256.4099121804025,3.68485232362063
sz300114,2014-06-30,19.6,20.36,19.45,19.87,0.018974,4071898.0,81202830.81,3099720000.0,3099720000.0,0.026101910256410257,39.5,2014-03-31 00:00:00,2014-04-23 00:00:00,64.67128835520764,4.148022017128005,258.8853741278126,3.7204270470444687
sz300114,2014-06-27,19.0,19.78,18.91,19.5,0.029024,2713196.0,52499324.2,3042000000.0,3042000000.0,0.01739228205128205,38.76,2014-03-31 00:00:00,2014-04-23 00:00:00,63.467064277604365,4.070782980849369,254.06474956948125,3.651150124580675
sz300114,2014-06-26,18.76,19.2,18.69,18.95,0.009052,2593083.0,49205842.5,2956200000.0,2956200000.0,0.016622326923076924,37.67,2014-03-31 00:00:00,2014-04-23 00:00:00,61.676952410832364,3.9559650512032456,246.89875996039083,3.548168093825484
sz300114,2014-06-25,18.68,18.8,18.5,18.78,0.006431,1345480.0,25135265.72,2929680000.0,2929680000.0,0.008624871794871794,37.33,2014-03-31 00:00:00,2014-04-23 00:00:00,61.12366103117814,3.9204768943555393,244.68388146536634,3.5163382004351447
sz300114,2014-06-24,18.85,18.9,18.43,18.66,-0.007974,1988204.0,37041499.27,2910960000.0,2910960000.0,0.012744897435897436,37.09,2014-03-31 00:00:00,2014-04-23 00:00:00,60.73308655156503,3.895425413521185,243.1203743379987,3.493869128072511
sz300114,2014-06-23,18.05,18.89,18.05,18.81,0.047327,2129978.0,39297118.45,2934360000.0,2934360000.0,0.013653705128205127,37.39,2014-03-31 00:00:00,2014-04-23 00:00:00,61.22126491802132,3.9267372160822243,245.07459919195531,3.521953182751773
sz300114,2014-06-20,17.83,18.1,17.7,17.96,0.0044740000000000005,1217436.0,21830353.85,2801760000.0,2801760000.0,0.007804076923076923,35.7,2014-03-31 00:00:00,2014-04-23 00:00:00,58.454775746277264,3.7492943618203527,234.0000775230232,3.3628018591631585
sz300114,2014-06-19,18.63,18.95,17.85,17.88,-0.044872,1553790.0,28521530.22,2789280000.0,2789280000.0,0.009960192307692307,35.54,2014-03-31 00:00:00,2014-04-23 00:00:00,58.194413938317226,3.7325947329849773,232.9578242174742,3.347823695947489
sz300114,2014-06-18,18.35,19.1,18.35,18.72,0.022951,2270610.0,42664188.86,2920320000.0,2920320000.0,0.014555192307692307,37.21,2014-03-31 00:00:00,2014-04-23 00:00:00,60.928392779101046,3.907952371812969,243.90220391138593,3.50510475658497
sz300114,2014-06-17,18.62,18.76,18.25,18.3,-0.022958000000000003,1453013.0,26874024.02,2854800000.0,2854800000.0,0.009314185897435897,36.38,2014-03-31 00:00:00,2014-04-23 00:00:00,59.56139910816947,3.820273279768992,238.42999704911182,3.4264639817400546
sz300114,2014-06-16,19.02,19.21,18.55,18.73,0.017935,2618837.0,49324437.44,2921880000.0,2921880000.0,0.016787416666666666,37.23,2014-03-31 00:00:00,2014-04-23 00:00:00,60.96094037735274,3.9100399775741397,244.03249507095074,3.5069771634587408
sz300114,2014-06-13,18.2,18.49,18.03,18.4,0.006014,1816491.0,33231674.39,2870400000.0,2870400000.0,0.011644173076923076,36.58,2014-03-31 00:00:00,2014-04-23 00:00:00,59.88686937511014,3.841148970783144,239.73288576475977,3.445187721670579
sz300114,2014-06-12,17.7,18.73,17.65,18.29,0.030423000000000002,2873471.0,52510736.39,2853240000.0,2853240000.0,0.018419685897435898,36.36,2014-03-31 00:00:00,2014-04-23 00:00:00,59.52886279426542,3.8181863977868535,238.29975106187365,3.424592224035231
sz300114,2014-06-11,17.8,18.01,17.61,17.75,-0.0067150000000000005,1226795.0,21792622.45,2769000000.0,2769000000.0,0.007864070512820513,35.28,2014-03-31 00:00:00,2014-04-23 00:00:00,57.77128693193515,3.7054553302739293,231.2640062012141,3.3234819331820336
sz300114,2014-06-10,17.33,17.89,17.33,17.87,0.028193,1283054.0,22740237.83,2787720000.0,2787720000.0,0.008224705128205128,35.52,2014-03-31 00:00:00,2014-04-23 00:00:00,58.16184371246436,3.7305056758875144,232.8274424774502,3.3459499873470695
sz300114,2014-06-09,17.69,17.82,17.38,17.38,-0.018078999999999998,636556.0,11191964.97,2711280000.0,2711280000.0,0.004080487179487179,34.55,2014-03-31 00:00:00,2014-04-23 00:00:00,56.567048902749164,3.6282153991395734,226.4433257933581,3.254204208107885
sz300114,2014-06-06,17.8,17.99,17.56,17.7,-0.010620000000000001,1251936.0,22220397.46,2761200000.0,2761200000.0,0.008025230769230769,35.18,2014-03-31 00:00:00,2014-04-23 00:00:00,57.608553949604044,3.6950176227411093,230.6125704546069,3.31412018696808
sz300114,2014-06-05,17.61,17.96,17.42,17.89,0.008454999999999999,2128644.0,37806998.01,2790840000.0,2790840000.0,0.013645153846153847,35.56,2014-03-31 00:00:00,2014-04-23 00:00:00,58.226923881222625,3.7346799235289865,233.08796463907385,3.349693936574501
sz300114,2014-06-04,17.02,17.8,16.89,17.74,0.042303,1709780.0,29648563.5,2767440000.0,2767440000.0,0.010960128205128206,35.26,2014-03-31 00:00:00,2014-04-23 00:00:00,57.73874281075767,3.7033679475325987,231.13372896071104,3.3216097263383104
sz300114,2014-06-03,17.29,17.36,17.01,17.02,-0.015616,879561.0,15121347.92,2655120000.0,2655120000.0,0.005638211538461538,33.83,2014-03-31 00:00:00,2014-04-23 00:00:00,55.39535318497372,3.5530627346679404,221.75291538133442,3.186798585764706
sz300114,2014-05-30,17.2,17.39,16.91,17.29,0.0023190000000000003,1280423.0,22014410.06,2697240000.0,2697240000.0,0.008207839743589743,34.37,2014-03-31 00:00:00,2014-04-23 00:00:00,56.27412999903871,3.6094275553726396,225.27074330884537,3.2373530916438162
sz300114,2014-05-29,17.2,17.4,17.07,17.25,0.007548999999999999,1256931.0,21625401.65,2691000000.0,2691000000.0,0.00805725,34.29,2014-03-31 00:00:00,2014-04-23 00:00:00,56.14393222022003,3.6010766586013436,224.74954910447212,3.229863039255782
sz300114,2014-05-28,16.96,17.31,16.95,17.22,0.015330000000000002,1322286.0,22731889.77,2686320000.0,2686320000.0,0.008476192307692308,34.03,2014-03-31 00:00:00,2014-04-23 00:00:00,55.72327720063245,3.574095809336661,223.06562668859988,3.2056634856029653
sz300114,2014-05-27,17.1,17.25,16.96,16.96,-0.015099000000000001,1048044.0,17912624.91,2645760000.0,2645760000.0,0.006718230769230769,33.52,2014-03-31 00:00:00,2014-04-23 00:00:00,54.88193710481563,3.5201321829717047,219.69766153723407,3.157262649190869
sz300114,2014-05-26,17.11,17.4,17.03,17.22,0.011751000000000001,1281527.0,22047483.75,2686320000.0,2686320000.0,0.008214916666666667,34.03,2014-03-31 00:00:00,2014-04-23 00:00:00,55.723303260749695,3.5740974808348303,223.06573100975032,3.205664984796309
sz300114,2014-05-23,16.62,17.17,16.51,17.02,0.020384,1514194.0,25505362.67,2655120000.0,2655120000.0,0.009706371794871795,33.64,2014-03-31 00:00:00,2014-04-23 00:00:00,55.07610396307953,3.532586062020032,220.4749301060738,3.168432731765334
sz300114,2014-05-22,16.37,16.95,16.25,16.68,0.023313,2218732.0,36870078.29,2602080000.0,2602080000.0,0.014222641025641025,32.97,2014-03-31 00:00:00,2014-04-23 00:00:00,53.97586003218351,3.4620163213261206,216.07054805453026,3.1051376067885563
sz300114,2014-05-21,16.25,16.32,15.9,16.3,0.011793999999999999,539302.0,8735933.52,2542800000.0,2542800000.0,0.0034570641025641028,32.22,2014-03-31 00:00:00,2014-04-23 00:00:00,52.746188147891715,3.3831450605299853,211.1480534836656,3.0343967161450665
sz300114,2014-05-20,16.21,16.29,15.93,16.11,0.006875,699530.0,11298969.92,2513160000.0,2513160000.0,0.004484166666666667,31.84,2014-03-31 00:00:00,2014-04-23 00:00:00,52.13135099426534,3.3437093524274553,208.68680134856064,2.999026201128951
sz300114,2014-05-19,16.06,16.24,15.86,16.0,0.005657,794407.0,12720703.4,2496000000.0,2496000000.0,0.005092352564102564,31.62,2014-03-31 00:00:00,2014-04-23 00:00:00,51.77539515259128,3.3208783140185782,207.2618759513948,2.978548678961094
sz300114,2014-05-16,16.48,16.48,15.7,15.91,-0.036925,1466956.0,23603776.4,2481960000.0,2481960000.0,0.009403564102564103,31.44,2014-03-31 00:00:00,2014-04-23 00:00:00,51.48414931988867,3.302197781170497,206.09599093069986,2.961793811370173
sz300114,2014-05-15,16.63,16.97,16.5,16.52,-0.008998,1127466.0,18916006.18,2577120000.0,2577120000.0,0.007227346153846154,32.65,2014-03-31 00:00:00,2014-04-23 00:00:00,53.458089266037085,3.4288064596947243,213.99786198447663,3.0753511526829924
sz300114,2014-05-14,16.71,16.77,16.56,16.67,-0.006555,677076.0,11270773.48,2600520000.0,2600520000.0,0.00434023076923077,32.95,2014-03-31 00:00:00,2014-04-23 00:00:00,53.94347263278689,3.459938990733342,215.94089818635743,3.1032744158770535
sz300114,2014-05-13,16.6,16.85,16.6,16.78,0.002989,832162.0,13943345.82,2617680000.0,2617680000.0,0.005334371794871795,33.16,2014-03-31 00:00:00,2014-04-23 00:00:00,54.2994052340964,3.4827685385032305,217.36573055011343,3.123750601067048
sz300114,2014-05-12,16.47,16.78,16.42,16.73,0.020122,989788.0,16485285.41,2609880000.0,2609880000.0,0.0063447948717948715,33.06,2014-03-31 00:00:00,2014-04-23 00:00:00,54.137587983613386,3.4723895660901882,216.71796056598177,3.114441535317983
sz300114,2014-05-09,16.39,16.4,16.07,16.4,0.005518,537306.0,8717147.18,2558400000.0,2558400000.0,0.003444269230769231,32.41,2014-03-31 00:00:00,2014-04-23 00:00:00,53.0697190959644,3.4038963634645545,212.44317891975842,3.053008890424855
sz300114,2014-05-08,16.25,16.53,16.2,16.31,0.0006129999999999999,682435.0,11173888.75,2544360000.0,2544360000.0,0.004374583333333334,32.23,2014-03-31 00:00:00,2014-04-23 00:00:00,52.77848740247753,3.3852167375069913,211.27735049970107,3.036254836238491
sz300114,2014-05-07,16.58,16.68,16.28,16.3,-0.025702,847845.0,13968961.31,2542800000.0,2542800000.0,0.005434903846153846,32.22,2014-03-31 00:00:00,2014-04-23 00:00:00,52.74615401006936,3.383142870927113,211.14791682668633,3.0343947522553583
sz300114,2014-05-06,16.6,16.85,16.53,16.73,0.004202,1373212.0,22933037.7,2609880000.0,2609880000.0,0.008802641025641026,33.06,2014-03-31 00:00:00,2014-04-23 00:00:00,54.13759856847634,3.4723902450042115,216.71800293820405,3.1144421442467896
sz300114,2014-05-05,16.43,16.77,16.25,16.66,0.013999000000000001,809424.0,13394535.76,2598960000.0,2598960000.0,0.005188615384615384,32.93,2014-03-31 00:00:00,2014-04-23 00:00:00,53.91106427638696,3.4578603159565615,215.81116442528898,3.1014100193454994
sz300114,2014-04-30,16.34,16.46,16.22,16.43,0.008594,571503.0,9352133.18,2563080000.0,2563080000.0,0.003663480769230769,32.47,2014-03-31 00:00:00,2014-04-23 00:00:00,53.16678248833278,3.4101220178289733,212.83173299509068,3.0585927790318324
sz300114,2014-04-29,16.1,16.4,16.1,16.29,0.011801,450164.0,7313543.65,2541240000.0,2541240000.0,0.0028856666666666666,32.2,2014-03-31 00:00:00,2014-04-23 00:00:00,52.71376043118716,3.381065143981596,211.01824222143964,3.0325312058487683
sz300114,2014-04-28,16.23,16.3,16.05,16.1,-0.014085,887779.0,14358740.09,2511600000.0,2511600000.0,0.005690891025641026,31.82,2014-03-31 00:00:00,2014-04-23 00:00:00,52.098940830447056,3.3416305617227064,208.55706035222306,2.997161700619755
sz300114,2014-04-25,16.64,16.72,16.33,16.33,-0.01804,797778.0,13191730.19,2547480000.0,2547480000.0,0.005113961538461538,32.27,2014-03-31 00:00:00,2014-04-23 00:00:00,52.843237835358075,3.3893698358608058,211.53655269695975,3.0399798163328025
sz300114,2014-04-24,16.96,17.06,16.46,16.63,-0.019458,1305477.0,21798399.43,2594280000.0,2594280000.0,0.008368442307692308,32.87,2014-03-31 00:00:00,2014-04-23 00:00:00,53.81404317422103,3.451637374089378,215.42277964169594,3.0958285636205165
sz300114,2014-04-23,16.7,17.0,16.7,16.96,0.015569,665208.0,11229498.04,2645760000.0,2645760000.0,0.004264153846153846,33.52,2014-03-31 00:00:00,2014-04-23 00:00:00,54.88193588262514,3.5201321045803016,219.69765664468827,3.1572625788803705
sz300114,2014-04-22,16.93,17.08,16.61,16.7,-0.014168,1055965.0,17715756.16,2605200000.0,2605200000.0,0.006769006410256411,33.01,2013-12-31 00:00:00,2014-03-26 00:00:00,54.619390158722226,3.692156147767192,153.192626382263,3.145411101729005
sz300114,2014-04-21,17.11,17.37,16.94,16.94,-0.02194,970828.0,16679962.46,2642640000.0,2642640000.0,0.00622325641025641,33.48,2013-12-31 00:00:00,2014-03-26 00:00:00,55.4043591187162,3.745218402087975,155.39425214667713,3.190615745612848
sz300114,2014-04-18,17.3,17.58,17.22,17.32,0.0017350000000000002,997129.0,17324943.7,2701920000.0,2701920000.0,0.006391852564102564,34.23,2013-12-31 00:00:00,2014-03-26 00:00:00,56.6471986572564,3.8292317466085666,158.8800811265946,3.262188153705139
sz300114,2014-04-17,17.45,17.69,17.29,17.29,-0.018729,924609.0,16169703.74,2697240000.0,2697240000.0,0.0059269807692307695,34.17,2013-12-31 00:00:00,2014-03-26 00:00:00,56.54908599305844,3.82259953641289,158.60490162227993,3.256538060170742
sz300114,2014-04-16,17.52,17.74,17.3,17.62,0.002275,1017867.0,17851592.13,2748720000.0,2748720000.0,0.006524788461538461,34.82,2013-12-31 00:00:00,2014-03-26 00:00:00,57.62840845501236,3.8955594697213,161.63210939921788,3.318693877808212
sz300114,2014-04-15,17.51,18.02,17.46,17.58,0.014426,2356827.0,41777907.25,2742480000.0,2742480000.0,0.015107865384615381,34.74,2013-12-31 00:00:00,2014-03-26 00:00:00,57.49760141180052,3.8867171881183307,161.26523099869584,3.311160986563779
sz300114,2014-04-14,17.07,17.38,17.07,17.33,0.006973,1289181.0,22274622.26,2703480000.0,2703480000.0,0.008263980769230768,34.25,2013-12-31 00:00:00,2014-03-26 00:00:00,56.67993664574894,3.8314447659250948,158.97190233560244,3.2640734627895767
sz300114,2014-04-11,17.0,17.26,16.82,17.21,0.008792,1376448.0,23465730.36,2684760000.0,2684760000.0,0.008823384615384615,34.01,2013-12-31 00:00:00,2014-03-26 00:00:00,56.287444296668276,3.8049131068311617,157.87106738274258,3.241470687684354
sz300114,2014-04-10,17.25,17.44,17.02,17.06,-0.013872999999999998,2566986.0,44272205.76,2661360000.0,2661360000.0,0.016455038461538462,33.72,2013-12-31 00:00:00,2014-03-26 00:00:00,55.796878144026,3.7717518644390142,156.49516191914944,3.213220056943705
sz300114,2014-04-09,16.79,17.32,16.62,17.3,0.026097000000000002,3992390.0,67870955.01,2698800000.0,2698800000.0,0.02559224358974359,34.19,2013-12-31 00:00:00,2014-03-26 00:00:00,56.58183798235522,3.8248135021544023,158.6967620997594,3.2584241755308447
sz300114,2014-04-08,16.6,17.07,16.44,16.86,-0.077176,5639744.0,93876342.26,2630160000.0,2630160000.0,0.03615220512820513,33.32,2013-12-31 00:00:00,2014-03-26 00:00:00,55.14277693274147,3.727535995285438,154.66058481777006,3.1755518002009993
sz300114,2014-04-04,17.94,18.3,17.75,18.27,0.018394999999999998,869057.0,15710058.9,2850120000.0,2850120000.0,0.005570878205128205,36.11,2013-12-31 00:00:00,2014-03-26 00:00:00,59.75438104420937,4.03927075507945,167.5948878851981,3.4411239848562665
sz300114,2014-04-03,17.9,18.17,17.72,17.94,0.003356,756077.0,13579300.73,2798640000.0,2798640000.0,0.004846647435897436,35.46,2013-12-31 00:00:00,2014-03-26 00:00:00,58.67505343624957,3.966310473911842,164.5676656751046,3.378967870871584
sz300114,2014-04-02,17.9,18.04,17.72,17.88,-0.001117,1083712.0,19345389.88,2789280000.0,2789280000.0,0.0069468717948717945,35.34,2013-12-31 00:00:00,2014-03-26 00:00:00,58.47879858818761,3.9530440580530164,164.01722387179086,3.367665983829851
sz300114,2014-04-01,17.55,17.95,17.44,17.9,0.022857,946245.0,16807964.06,2792400000.0,2792400000.0,0.006065673076923077,35.38,2013-12-31 00:00:00,2014-03-26 00:00:00,58.54419245115555,3.9574645459508435,164.20063598218294,3.3714318732322517
sz300114,2014-03-31,17.75,18.1,17.34,17.5,-0.021253,1086264.0,19074908.62,2730000000.0,2730000000.0,0.006963230769230769,34.59,2013-12-31 00:00:00,2014-03-26 00:00:00,57.235950334363025,3.8690301243974905,160.53137044785632,3.296093073843413
sz300114,2014-03-28,18.01,18.4,17.59,17.88,-0.004454,1704395.0,30586122.64,2789280000.0,2789280000.0,0.010925608974358974,35.34,2013-12-31 00:00:00,2014-03-26 00:00:00,58.47880027664251,3.9530441721890237,164.01722860745048,3.367666081064272
sz300114,2014-03-27,19.0,19.0,17.91,17.96,-0.0587,2326996.0,42938621.72,2801760000.0,2801760000.0,0.014916641025641025,35.5,2013-12-31 00:00:00,2014-03-26 00:00:00,58.74043015254192,3.9707298027303843,164.75102969370622,3.3827327728344767
sz300114,2014-03-26,18.95,19.25,18.79,19.08,0.0063289999999999996,1600244.0,30544683.03,2976480000.0,2976480000.0,0.010257974358974358,37.71,2013-12-31 00:00:00,2014-03-26 00:00:00,62.40351657552525,4.218346757389126,175.02499701870414,3.5936819003872054
sz300114,2014-03-25,18.97,18.97,18.51,18.96,-0.008887,1973861.0,37088457.18,2957760000.0,2957760000.0,0.012652955128205128,37.47,2013-09-30 00:00:00,2013-10-23 00:00:00,64.48561650757739,4.37938898147379,73.22720430385291,3.6394913031713196
sz300114,2014-03-24,19.36,19.87,19.0,19.13,-0.01239,2102664.0,40889612.34,2984280000.0,2984280000.0,0.013478615384615384,37.81,2013-09-30 00:00:00,2013-10-23 00:00:00,65.06383884337849,4.418657591489355,73.88380972084204,3.6721254823328104
sz300114,2014-03-21,18.8,19.4,18.36,19.37,0.030319,2317257.0,43932198.02,3021720000.0,3021720000.0,0.014854211538461538,38.28,2013-09-30 00:00:00,2013-10-23 00:00:00,65.88009319810298,4.4740915862429045,74.81071447316454,3.7181939048134494
sz300114,2014-03-20,19.63,19.83,18.76,18.8,-0.054326,2652806.0,50918941.58,2932800000.0,2932800000.0,0.017005166666666665,37.16,2013-09-30 00:00:00,2013-10-23 00:00:00,63.94145230564804,4.342433349518843,72.60927389785547,3.608779324474701
sz300114,2014-03-19,19.6,20.06,19.54,19.88,0.01222,2794631.0,55403845.01,3101280000.0,3101280000.0,0.017914301282051282,39.29,2013-09-30 00:00:00,2013-10-23 00:00:00,67.61468783708555,4.591892501558511,76.7804485455405,3.8160923579105495
sz300114,2014-03-18,19.79,19.83,19.47,19.64,-0.00758,2607288.0,51136073.92,3063840000.0,3063840000.0,0.016713384615384616,38.82,2013-09-30 00:00:00,2013-10-23 00:00:00,66.7984112515911,4.536456997054505,75.85351854887327,3.7700226807517634
sz300114,2014-03-17,18.99,19.86,18.99,19.79,0.038845,3248370.0,63678401.71,3087240000.0,3087240000.0,0.020822884615384615,39.11,2013-09-30 00:00:00,2013-10-23 00:00:00,67.30861051932762,4.57110598038583,76.43287977758739,3.798817719062255
sz300114,2014-03-14,18.8,19.21,18.5,19.05,0.0026320000000000002,1888538.0,35727078.28,2971800000.0,2971800000.0,0.01210601282051282,37.65,2013-09-30 00:00:00,2013-10-23 00:00:00,64.79177405611773,4.400180951331363,73.5748641785708,3.656770470149306
sz300114,2014-03-13,18.81,19.6,18.81,19.0,0.028138999999999997,2575833.0,49358533.15,2964000000.0,2964000000.0,0.01651175,37.55,2013-09-30 00:00:00,2013-10-23 00:00:00,64.62168976864665,4.388630076968781,73.38172348236522,3.6471711157725917
sz300114,2014-03-12,18.1,18.49,18.01,18.48,0.013158000000000001,1384984.0,25239248.03,2882880000.0,2882880000.0,0.008878102564102564,36.52,2013-09-30 00:00:00,2013-10-23 00:00:00,62.853067307675964,4.268518242152843,71.37334881992146,3.5473521729771877
sz300114,2014-03-11,18.0,18.4,18.0,18.24,0.012771,1519561.0,27596180.61,2845440000.0,2845440000.0,0.00974077564102564,36.05,2013-09-30 00:00:00,2013-10-23 00:00:00,62.03678726089708,4.213082502583845,70.44641489276249,3.5012823004676346
sz300114,2014-03-10,19.06,19.06,18.01,18.01,-0.055089,2541062.0,46622857.77,2809560000.0,2809560000.0,0.016288858974358975,35.59,2013-09-30 00:00:00,2013-10-23 00:00:00,61.25450596521531,4.159955708233988,69.55808854396747,3.457131276929961
sz300114,2014-03-07,19.44,19.65,18.9,19.06,-0.019547,2312315.0,44616392.6,2973360000.0,2973360000.0,0.014822532051282051,37.67,2013-09-30 00:00:00,2013-10-23 00:00:00,64.8256883084389,4.402484158014869,73.6133758036127,3.658684550111028
sz300114,2014-03-06,18.67,19.6,18.59,19.44,0.034043000000000004,3374681.0,64676368.67,3032640000.0,3032640000.0,0.021632570512820512,38.42,2013-09-30 00:00:00,2013-10-23 00:00:00,66.11809878539705,4.490255175938947,75.0809837938307,3.731626656362954
sz300114,2014-03-05,18.79,19.16,18.61,18.8,-0.002653,2393363.0,45278172.03,2932800000.0,2932800000.0,0.015342070512820513,37.16,2013-09-30 00:00:00,2013-10-23 00:00:00,63.94134362439187,4.342425968686937,72.60915048390704,3.608773190634194
sz300114,2014-03-04,18.7,19.35,18.53,18.85,-0.007372,2691807.0,50734878.6,2940600000.0,2940600000.0,0.017255173076923078,37.25,2013-09-30 00:00:00,2013-10-23 00:00:00,64.11143125150211,4.353977069853258,72.802294972469,3.6183727334961593
sz300114,2014-03-03,18.73,19.08,18.48,18.99,0.035442,3318931.0,62264395.41,2962440000.0,2962440000.0,0.021275198717948716,37.53,2013-09-30 00:00:00,2013-10-23 00:00:00,64.58757082361379,4.386312969061177,73.34297941672914,3.6452454831982974
sz300114,2014-02-28,17.85,18.4,17.55,18.34,0.030337,2394966.0,42987280.5,2861040000.0,2861040000.0,0.015352346153846154,36.25,2013-09-30 00:00:00,2013-10-23 00:00:00,62.37681185775136,4.236174473375792,70.83253278960012,3.520472883269461
sz300114,2014-02-27,18.2,18.96,17.7,17.8,-0.026258,4465578.0,81957674.01,2776800000.0,2776800000.0,0.0286255,35.18,2013-09-30 00:00:00,2013-10-23 00:00:00,60.540203698160276,4.111445549733526,68.74695637407967,3.4168169087099276
sz300114,2014-02-26,18.14,18.57,17.59,18.28,-0.027142000000000003,4989262.0,90323629.1,2851680000.0,2851680000.0,0.03198244871794872,36.13,2013-09-30 00:00:00,2013-10-23 00:00:00,62.17273538386993,4.222315099619331,70.60079196961789,3.50895505042396
sz300114,2014-02-25,20.78,21.17,18.79,18.79,-0.100096,7484903.0,149978942.25,2931240000.0,2931240000.0,0.04798014743589744,37.14,2013-09-30 00:00:00,2013-10-23 00:00:00,63.907307524705494,4.340114487026196,72.57050049402677,3.60685223375247
sz300114,2014-02-24,20.0,21.24,19.87,20.88,0.040359,5444777.0,112837671.7,3257280000.0,3257280000.0,0.034902416666666665,41.27,2013-09-30 00:00:00,2013-10-23 00:00:00,71.0156944793061,4.822863868841782,80.64249130354656,4.008041117444161
sz300114,2014-02-21,19.58,20.07,19.51,20.07,0.021374,2664151.0,52980755.58,3130920000.0,3130920000.0,0.017077891025641025,39.67,2013-09-30 00:00:00,2013-10-23 00:00:00,68.26075852595702,4.635768872900396,77.51409975166897,3.852555817217096
sz300114,2014-02-20,20.28,20.28,19.37,19.65,-0.031065,3946085.0,77895977.82,3065400000.0,3065400000.0,0.025295416666666667,38.84,2013-09-30 00:00:00,2013-10-23 00:00:00,66.83228526079283,4.538757470721201,75.89198447548985,3.7719344894398095
sz300114,2014-02-19,20.82,20.88,19.99,20.28,-0.043396,5525833.0,112412682.18,3163680000.0,3163680000.0,0.03542200641025641,40.08,2013-09-30 00:00:00,2013-10-23 00:00:00,68.97499343175015,4.684274456719183,78.32515542888827,3.8928663836478297
sz300114,2014-02-18,22.0,22.66,21.04,21.2,0.009524,8340620.0,182134972.82,3307200000.0,3307200000.0,0.05346551282051282,41.9,2013-09-30 00:00:00,2013-10-23 00:00:00,72.10401946024703,4.896774900292265,81.87834822861734,4.069464881651999
sz300114,2014-02-17,20.4,21.4,20.16,21.0,0.034483,6998467.0,146458343.71,3276000000.0,3276000000.0,0.04486196794871795,41.5,2013-09-30 00:00:00,2013-10-23 00:00:00,71.42377938538066,4.850577995463471,81.10589567817836,4.031072942943406
sz300114,2014-02-14,19.98,20.5,19.48,20.3,0.015,3804935.0,76375117.57,3166800000.0,3166800000.0,0.024390608974358973,40.12,2013-09-30 00:00:00,2013-10-23 00:00:00,69.04297062917483,4.688890968206796,78.40234752835799,3.896702935614608
sz300114,2014-02-13,21.6,21.6,19.88,20.0,-0.061033000000000004,5742158.0,119220560.86,3120000000.0,3120000000.0,0.03680870512820513,39.53,2013-09-30 00:00:00,2013-10-23 00:00:00,68.0226311617486,4.619597013011623,77.24369214616551,3.839116192723752
sz300114,2014-02-12,21.28,21.48,20.5,21.3,-0.004673,6589845.0,138766520.59,3322800000.0,3322800000.0,0.04224259615384615,42.1,2013-09-30 00:00:00,2013-10-23 00:00:00,72.4441126916586,4.91987153223875,82.26454406402516,4.0886593381064
sz300114,2014-02-11,21.3,21.74,20.11,21.4,0.004695,13223055.0,279481219.18,3338400000.0,3338400000.0,0.08476317307692308,42.29,2013-09-30 00:00:00,2013-10-23 00:00:00,72.78423341440411,4.9429700311945215,82.65077111745704,4.107855346138907
sz300114,2014-02-10,21.3,21.3,20.4,21.3,0.100207,17165620.0,361843701.15,3322800000.0,3322800000.0,0.11003602564102564,42.1,2013-09-30 00:00:00,2013-10-23 00:00:00,72.44410832581443,4.91987123574271,82.26453910635273,4.08865909170336
sz300114,2014-02-07,18.48,19.36,18.2,19.36,0.1,3223938.0,61391739.04,3020160000.0,3020160000.0,0.02066626923076923,38.26,2013-09-30 00:00:00,2013-10-23 00:00:00,65.84588929702721,4.471768708745454,74.7718739349529,3.716263477421394
sz300114,2014-01-30,17.41,18.0,17.07,17.6,0.003421,2019785.0,35604331.63,2745600000.0,2745600000.0,0.012947339743589744,34.78,2013-09-30 00:00:00,2013-10-23 00:00:00,59.85989936093383,4.065244280677686,67.97443084995719,3.3784213431103582
sz300114,2014-01-29,17.25,17.65,17.2,17.54,0.018583000000000002,1726352.0,30114488.43,2736240000.0,2736240000.0,0.011066358974358974,34.67,2013-09-30 00:00:00,2013-10-23 00:00:00,59.655816811621285,4.051384494322609,67.74268313096616,3.36690316737477
sz300114,2014-01-28,17.78,18.0,17.15,17.22,-0.03367,2085865.0,36333705.24,2686320000.0,2686320000.0,0.013370929487179488,34.03,2013-09-30 00:00:00,2013-10-23 00:00:00,58.56745774435788,3.9774711479797022,66.50678749887457,3.3054774793755346
sz300114,2014-01-27,17.75,18.17,17.32,17.82,0.005076,3769720.0,66935250.81,2779920000.0,2779920000.0,0.024164871794871794,35.22,2013-09-30 00:00:00,2013-10-23 00:00:00,60.608133602762905,4.116058849440359,68.82409476977281,3.420650791526222
sz300114,2014-01-24,17.71,18.09,17.65,17.73,-0.012256,3767362.0,67113331.95,2765880000.0,2765880000.0,0.02414975641025641,35.04,2013-09-30 00:00:00,2013-10-23 00:00:00,60.30204044546174,4.095271252562352,68.47650801508823,3.4033752587129946
sz300114,2014-01-23,17.66,18.1,17.51,17.95,0.018729,4312780.0,77373708.77,2800200000.0,2800200000.0,0.02764602564102564,35.48,2013-09-30 00:00:00,2013-10-23 00:00:00,61.050272586279185,4.1460856786397615,69.32616954908178,3.445604588550267
sz300114,2014-01-22,17.5,17.8,17.33,17.62,0.003989,3373147.0,59261557.49,2748720000.0,2748720000.0,0.021622737179487178,34.82,2013-09-30 00:00:00,2013-10-23 00:00:00,59.92788326068973,4.069861247338362,68.05163056031759,3.382258273348719
sz300114,2014-01-21,16.85,17.58,16.85,17.55,0.029325999999999998,3045870.0,52774079.37,2737800000.0,2737800000.0,0.019524807692307692,34.69,2013-09-30 00:00:00,2013-10-23 00:00:00,59.689780725376195,4.053691073645589,67.7812511494823,3.3688200501685963
sz300114,2014-01-20,17.72,17.73,16.8,17.05,-0.029595999999999997,3549992.0,61321233.27,2659800000.0,2659800000.0,0.022756358974358973,33.7,2013-09-30 00:00:00,2013-10-23 00:00:00,57.9891897468598,3.938199436957378,65.85013023034716,3.2728407231223122
sz300114,2014-01-17,17.0,17.67,16.8,17.57,0.033529,4476541.0,77364529.53,2740920000.0,2740920000.0,0.028695775641025642,34.72,2013-09-30 00:00:00,2013-10-23 00:00:00,59.75778103435249,4.058309154699875,67.85846949347606,3.3726579065237896
sz300114,2014-01-16,17.08,17.25,16.75,17.0,-0.015634000000000002,3217831.0,54712309.53,2652000000.0,2652000000.0,0.020627121794871795,33.6,2013-09-30 00:00:00,2013-10-23 00:00:00,57.81916234024637,3.9266524255244653,65.65705412569562,3.26324457903338
sz300114,2014-01-15,16.63,17.55,16.54,17.27,0.029200999999999998,5182625.0,88974660.22,2694120000.0,2694120000.0,0.03322195512820513,34.13,2013-09-30 00:00:00,2013-10-23 00:00:00,58.737463850078505,3.9890167128125773,66.69983941511148,3.315072421267476
sz300114,2014-01-14,15.99,16.87,15.73,16.78,0.049406,3964822.0,64844035.44,2617680000.0,2617680000.0,0.02541552564102564,33.16,2013-09-30 00:00:00,2013-10-23 00:00:00,57.07093546360576,3.875838356951244,64.80739856948398,3.2210155462999706
sz300114,2014-01-13,16.0,16.1,15.63,15.99,0.005028,2506013.0,39851610.81,2494440000.0,2494440000.0,0.016064185897435898,31.6,2013-09-30 00:00:00,2013-10-23 00:00:00,54.384037697140805,3.69336401445317,61.7562683741888,3.0693702402120535
sz300114,2014-01-10,16.25,16.59,15.25,15.91,-0.046163,4719495.0,76081080.05,2481960000.0,2481960000.0,0.030253173076923077,31.44,2013-09-30 00:00:00,2013-10-23 00:00:00,54.111962748441634,3.6748866842049868,61.447311293007544,3.0540146545290803
sz300114,2014-01-09,17.49,18.17,16.65,16.68,-0.017089,10259614.0,179430786.2,2602080000.0,2602080000.0,0.06576675641025641,32.97,2013-09-30 00:00:00,2013-10-23 00:00:00,56.73082795953778,3.8527407557108675,64.42118652663667,3.2018202843138615
sz300114,2014-01-08,16.37,16.97,16.21,16.97,0.09980599999999999,3506671.0,59150735.36,2647320000.0,2647320000.0,0.022478660256410255,33.54,2013-09-30 00:00:00,2013-10-23 00:00:00,57.71715644604423,3.919724935127258,65.54122044278341,3.257487487996229
sz300114,2014-01-07,15.21,15.64,14.8,15.43,0.012467,1413088.0,21735102.24,2407080000.0,2407080000.0,0.009058256410256411,30.5,2013-09-30 00:00:00,2013-10-23 00:00:00,52.47939768108577,3.564014867283191,59.5934377906498,2.9618746287947406
sz300114,2014-01-06,16.02,16.27,15.21,15.24,-0.063307,2312580.0,36190586.11,2377440000.0,2377440000.0,0.014824230769230768,30.12,2013-09-30 00:00:00,2013-10-23 00:00:00,51.83319326070457,3.5201294138803445,58.85963472453897,2.925403621841246
sz300114,2014-01-03,16.38,16.46,16.08,16.27,-0.0024519999999999998,1824753.0,29623255.65,2538120000.0,2538120000.0,0.011697134615384616,32.16,2013-09-30 00:00:00,2013-10-23 00:00:00,55.33637302798737,3.7580396286513778,62.83770106591912,3.1231189107223454
sz300114,2014-01-02,16.04,16.44,15.92,16.31,0.020651,1649257.0,26869578.42,2544360000.0,2544360000.0,0.010572160256410256,32.23,2013-09-30 00:00:00,2013-10-23 00:00:00,55.472391331532286,3.767276991835358,62.992157836935284,3.1307956215864756
sz300114,2013-12-31,16.29,16.47,15.92,15.98,-0.032102,1761387.0,28416821.1,2492880000.0,2492880000.0,0.011290942307692307,31.58,2013-09-30 00:00:00,2013-10-23 00:00:00,54.35000928969088,3.691053055192576,61.71762711929473,3.0674497174709825
sz300114,2013-12-30,16.18,16.63,16.04,16.51,0.022291,2899423.0,47570351.71,2575560000.0,2575560000.0,0.018586044871794872,32.63,2013-09-30 00:00:00,2013-10-23 00:00:00,56.15262072004579,3.8134731709256307,63.76459825239305,3.1691869571700555
sz300114,2013-12-27,15.6,16.28,15.6,16.15,0.029974,2217478.0,35712955.44,2519400000.0,2519400000.0,0.014214602564102565,31.92,2013-09-30 00:00:00,2013-10-23 00:00:00,54.928215860303744,3.730320594552461,62.37421463398684,3.100083006864048
sz300114,2013-12-26,16.12,16.13,15.68,15.68,-0.026087,1611320.0,25599527.53,2446080000.0,2446080000.0,0.010328974358974358,30.99,2013-09-30 00:00:00,2013-10-23 00:00:00,53.3297110997984,3.6217619032640256,60.559018610165744,3.0098653042349115
sz300114,2013-12-25,15.86,16.13,15.61,16.1,0.022222,2364493.0,37782797.92,2511600000.0,2511600000.0,0.015157006410256411,31.82,2013-09-30 00:00:00,2013-10-23 00:00:00,54.75818794881924,3.7187735488324165,62.18113795602455,3.0904868342807945
sz300114,2013-12-24,15.28,15.93,15.28,15.75,0.028738999999999997,2416599.0,37989649.49,2457000000.0,2457000000.0,0.01549101923076923,31.13,2013-09-30 00:00:00,2013-10-23 00:00:00,53.56780420380235,3.63793143645159,60.82938731119518,3.023302995123168
sz300114,2013-12-23,15.06,15.32,14.7,15.31,0.007237,1381773.0,20860045.84,2388360000.0,2388360000.0,0.008857519230769231,30.26,2013-09-30 00:00:00,2013-10-23 00:00:00,52.071326355666834,3.536301662959788,59.130048837649944,2.938843569771504
sz300114,2013-12-20,15.35,15.5,15.1,15.2,-0.000657,881883.0,13476769.34,2371200000.0,2371200000.0,0.0056530961538461535,30.04,2013-09-30 00:00:00,2013-10-23 00:00:00,51.697193764393916,3.5108933279454466,58.705199310241724,2.917727972434992
sz300114,2013-12-19,15.25,15.42,15.19,15.21,0.0,835878.0,12786302.16,2372760000.0,2372760000.0,0.005358192307692308,30.06,2013-09-30 00:00:00,2013-10-23 00:00:00,51.73118115040974,3.513201501331822,58.743793982888484,2.919646179975236
sz300114,2013-12-18,15.51,15.57,15.2,15.21,-0.028736,1348756.0,20702242.14,2372760000.0,2372760000.0,0.008645871794871795,30.06,2013-09-30 00:00:00,2013-10-23 00:00:00,51.73118115040974,3.513201501331822,58.743793982888484,2.919646179975236
sz300114,2013-12-17,15.64,15.96,15.0,15.66,0.008371,2079035.0,32120138.83,2442960000.0,2442960000.0,0.013327147435897435,30.95,2013-09-30 00:00:00,2013-10-23 00:00:00,53.261709638584094,3.617143743958205,60.48179895773804,3.0060273828487785
sz300114,2013-12-16,15.89,16.01,15.48,15.53,-0.033602999999999994,1818692.0,28547063.14,2422680000.0,2422680000.0,0.01165828205128205,30.69,2013-09-30 00:00:00,2013-10-23 00:00:00,52.81955712588332,3.5871159959560566,59.97970881524562,2.981072822253693
sz300114,2013-12-13,15.94,16.51,15.7,16.07,0.029468,3591064.0,58156867.55,2506920000.0,2506920000.0,0.023019641025641024,31.76,2013-09-30 00:00:00,2013-10-23 00:00:00,54.656168350981346,3.711845127785016,62.06528871182922,3.0847289698267817
sz300114,2013-12-12,15.29,15.87,15.29,15.61,0.021597,2263960.0,35332634.91,2435160000.0,2435160000.0,0.014512564102564103,30.85,2013-09-30 00:00:00,2013-10-23 00:00:00,53.09166321923687,3.605595441320193,60.288701263010815,2.9964301657038215
sz300114,2013-12-11,15.22,15.5,14.94,15.28,-0.008436,2135226.0,32409154.47,2383680000.0,2383680000.0,0.013687346153846154,30.2,2013-09-30 00:00:00,2013-10-23 00:00:00,51.96928262244003,3.5293716028142144,59.01417218630322,2.9330843431449205
sz300114,2013-12-10,16.0,16.03,15.4,15.41,-0.032643,2760224.0,43057444.71,2403960000.0,2403960000.0,0.01769374358974359,30.46,2013-09-30 00:00:00,2013-10-23 00:00:00,52.41142540717496,3.5593986901644414,59.51625128211918,2.958038354705214
sz300114,2013-12-09,15.65,16.08,15.63,15.93,0.0205,1904404.0,30198733.89,2485080000.0,2485080000.0,0.01220771794871795,31.48,2013-09-30 00:00:00,2013-10-23 00:00:00,54.18002392826532,3.6795088991597114,61.52459875942302,3.0578559463623187
sz300114,2013-12-06,15.98,15.98,15.36,15.61,-0.02193,2504695.0,39119014.08,2435160000.0,2435160000.0,0.01605573717948718,30.85,2013-09-30 00:00:00,2013-10-23 00:00:00,53.09164520163187,3.605594217696925,60.2886808029623,2.9964291488116794
sz300114,2013-12-05,15.72,16.36,15.58,15.96,0.013333000000000001,3494247.0,55992826.27,2489760000.0,2489760000.0,0.02239901923076923,31.54,2013-09-30 00:00:00,2013-10-23 00:00:00,54.28205057064614,3.6864377986206764,61.640456003110515,3.0636142084019338
sz300114,2013-12-04,15.95,16.58,15.68,15.75,-0.028977,5023698.0,80920446.11,2457000000.0,2457000000.0,0.03220319230769231,31.13,2013-09-30 00:00:00,2013-10-23 00:00:00,53.56783068413457,3.6379332348010736,60.8294173811674,3.023304489641543
sz300114,2013-12-03,15.6,16.4,15.3,16.22,-0.045882,6572654.0,104367996.73,2530320000.0,2530320000.0,0.04213239743589744,32.06,2013-09-30 00:00:00,2013-10-23 00:00:00,55.166387082627885,3.7464954329620137,62.644672042956145,3.113525106657147
sz300114,2013-12-02,17.1,17.76,17.0,17.0,-0.100053,5533777.0,95263974.84,2652000000.0,2652000000.0,0.035472929487179485,33.6,2013-09-30 00:00:00,2013-10-23 00:00:00,57.81924990685416,3.926658372404685,65.6571535627209,3.263249521188309
sz300114,2013-11-29,18.45,19.76,18.45,18.89,0.015046,8916783.0,169825843.67,2946840000.0,2946840000.0,0.057158865384615384,37.33,2013-09-30 00:00:00,2013-10-23 00:00:00,64.2473944652898,4.363210691745942,72.95668918583083,3.6260463351600802
sz300114,2013-11-28,18.7,19.1,18.35,18.61,-0.020011,6015210.0,111857251.17,2903160000.0,2903160000.0,0.038559038461538464,36.78,2013-09-30 00:00:00,2013-10-23 00:00:00,63.29505703710945,4.298534935112243,71.87525411245484,3.57229754627877
sz300114,2013-11-27,18.18,19.28,17.92,18.99,0.023719999999999998,10179944.0,188835902.1,2962440000.0,2962440000.0,0.06525605128205128,37.53,2013-09-30 00:00:00,2013-10-23 00:00:00,64.58751785694477,4.386309371954423,73.34291926996613,3.6452424938226553
sz300114,2013-11-26,17.97,19.35,17.8,18.55,0.054576,14049220.0,262744545.32,2893800000.0,2893800000.0,0.09005910256410256,36.66,2013-09-30 00:00:00,2013-10-23 00:00:00,63.090999352308025,4.28467683737196,71.6435346285763,3.560780773866541
sz300114,2013-11-25,16.33,17.59,16.33,17.59,0.100063,3470847.0,59890517.21,2744040000.0,2744040000.0,0.022249019230769232,34.76,2013-09-30 00:00:00,2013-10-23 00:00:00,59.825938910337456,4.062937936546973,67.93586676406092,3.3765046557730707
sz300114,2013-11-22,16.48,17.13,15.99,15.99,-0.035003,3878122.0,64556805.43,2494440000.0,2494440000.0,0.02485975641025641,31.6,2013-09-30 00:00:00,2013-10-23 00:00:00,54.384102465347404,3.6933684130335926,61.756341922290744,3.069373895652404
sz300114,2013-11-21,17.28,17.28,16.39,16.57,-0.040533,5160017.0,86814014.86,2584920000.0,2584920000.0,0.033077032051282054,32.75,2013-09-30 00:00:00,2013-10-23 00:00:00,56.35675806800166,3.8273366788016885,63.99640819846149,3.1807082256757315
sz300114,2013-11-20,15.83,17.27,15.71,17.27,0.1,6303636.0,105267211.77,2694120000.0,2694120000.0,0.04040792307692308,34.13,2013-09-30 00:00:00,2013-10-23 00:00:00,58.73756790801733,3.989023779662759,66.69995757901157,3.3150782941734644
sz300114,2013-11-19,16.0,16.21,15.68,15.7,-0.011335,2163384.0,34316844.3,2449200000.0,2449200000.0,0.013867846153846154,31.03,2013-09-30 00:00:00,2013-10-23 00:00:00,53.39778900728847,3.6263852542388713,60.636325071828686,3.0137075401576947
sz300114,2013-11-18,15.7,16.42,15.45,15.88,0.031839,3923917.0,62834473.45,2477280000.0,2477280000.0,0.025153314102564103,31.38,2013-09-30 00:00:00,2013-10-23 00:00:00,54.00999226966513,3.6679615989631182,61.33151782639083,3.0482595622963236
sz300114,2013-11-15,14.89,15.85,14.81,15.39,0.02737,3255591.0,50619159.39,2400840000.0,2400840000.0,0.020869173076923077,30.42,2013-09-30 00:00:00,2013-10-23 00:00:00,52.34342980800797,3.5547809289657772,59.43903828639045,2.9542007641660413
sz300114,2013-11-14,14.1,15.2,14.1,14.98,0.04682,2258100.0,33408467.38,2336880000.0,2336880000.0,0.014475,29.61,2013-09-30 00:00:00,2013-10-23 00:00:00,50.948956858783085,3.4600785782783006,57.85553236554548,2.8754983736784623
sz300114,2013-11-13,14.39,14.91,13.13,14.31,0.012739,2712799.0,39353942.22,2232360000.0,2232360000.0,0.01738973717948718,28.28,2013-09-30 00:00:00,2013-10-23 00:00:00,48.670217285477044,3.3053233395218857,55.26788976666998,2.7468890293254447
sz300114,2013-11-12,14.33,14.33,13.97,14.13,-0.001413,874304.0,12366109.58,2204280000.0,2204280000.0,0.005604512820512821,27.93,2013-09-30 00:00:00,2013-10-23 00:00:00,48.05800634267767,3.2637464731997934,54.57268829053684,2.712336573712916
sz300114,2013-11-11,13.5,14.3,13.5,14.15,0.048148,2042440.0,28708268.4,2207400000.0,2207400000.0,0.013092564102564102,27.97,2013-09-30 00:00:00,2013-10-23 00:00:00,48.12600839253633,3.2683646724820106,54.64990861140475,2.716174528321434
sz300114,2013-11-08,13.39,13.58,13.2,13.5,0.002972,565891.0,7582987.59,2106000000.0,2106000000.0,0.0036275064102564104,26.68,2013-09-30 00:00:00,2013-10-23 00:00:00,45.915279514473454,3.1182282201387688,52.139496150738964,2.5914036265121276
sz300114,2013-11-07,13.82,13.83,13.43,13.46,-0.031655,906048.0,12327400.45,2099760000.0,2099760000.0,0.005808,26.6,2013-09-30 00:00:00,2013-10-23 00:00:00,45.77922366175073,3.1089883068906894,51.98499674042642,2.583724796417176
sz300114,2013-11-06,14.15,14.23,13.9,13.9,-0.017668,793763.0,11127747.24,2168400000.0,2168400000.0,0.005088224358974359,27.47,2013-09-30 00:00:00,2013-10-23 00:00:00,47.27573712029362,3.210620498779556,53.68437565168035,2.66818623157777
sz300114,2013-11-05,13.9,14.18,13.72,14.15,0.008553,534531.0,7483101.73,2207400000.0,2207400000.0,0.0034264807692307693,27.97,2013-09-30 00:00:00,2013-10-23 00:00:00,48.12602777909467,3.268365989074525,54.649930625980176,2.7161756224756703
sz300114,2013-11-04,13.6,14.2,13.6,14.03,0.04003,1300138.0,18156918.6,2188680000.0,2188680000.0,0.00833421794871795,27.73,2013-09-30 00:00:00,2013-10-23 00:00:00,47.717896609394515,3.240648720567511,54.18647371628479,2.69314118591256
sz300114,2013-11-01,13.45,13.64,13.12,13.49,0.0,777656.0,10444076.01,2104440000.0,2104440000.0,0.004984974358974359,26.66,2013-09-30 00:00:00,2013-10-23 00:00:00,45.881269395492936,3.115918502896562,52.100875663475854,2.589484135950463
sz300114,2013-10-31,13.8,13.9,13.44,13.49,-0.019622,805056.0,11036928.73,2104440000.0,2104440000.0,0.005160615384615385,26.66,2013-09-30 00:00:00,2013-10-23 00:00:00,45.881269395492936,3.115918502896562,52.100875663475854,2.589484135950463
sz300114,2013-10-30,13.4,13.97,13.3,13.76,0.028401,1126868.0,15374889.68,2146560000.0,2146560000.0,0.0072235128205128205,27.19,2013-09-30 00:00:00,2013-10-23 00:00:00,46.79957056920181,3.1782827673576532,53.143660571204016,2.641311959214163
sz300114,2013-10-29,14.31,14.48,13.0,13.38,-0.066294,1857892.0,25172698.74,2087280000.0,2087280000.0,0.011909564102564102,26.44,2013-09-30 00:00:00,2013-10-23 00:00:00,45.507122775261614,3.090509215138505,51.67601020536155,2.568367746836267
sz300114,2013-10-28,14.3,14.41,14.06,14.33,0.009866,624249.0,8903758.87,2235480000.0,2235480000.0,0.004001596153846154,28.32,2013-09-30 00:00:00,2013-10-23 00:00:00,48.73817108946672,3.3099382622993803,55.345055301520546,2.750724260994646
sz300114,2013-10-25,14.92,15.18,14.14,14.19,-0.047651,1293633.0,18784266.42,2213640000.0,2213640000.0,0.00829251923076923,28.04,2013-09-30 00:00:00,2013-10-23 00:00:00,48.26201801968451,3.2776014464289127,54.804355529862924,2.723850749500078
sz300114,2013-10-24,14.71,15.1,14.69,14.9,0.005398,801056.0,11914438.51,2324400000.0,2324400000.0,0.005134974358974359,29.45,2013-09-30 00:00:00,2013-10-23 00:00:00,50.67681912795048,3.4415969843291827,57.54650399156499,2.86013924464674
sz300114,2013-10-23,15.08,15.45,14.79,14.82,-0.028834,1747072.0,26243213.06,2311920000.0,2311920000.0,0.011199179487179488,29.29,2013-09-30 00:00:00,2013-10-23 00:00:00,50.40473437181144,3.423118988031787,57.237535773459854,2.8447831054435557
sz300114,2013-10-22,15.96,16.04,15.2,15.26,-0.04386,1937302.0,30205229.19,2380560000.0,2380560000.0,0.012418602564102564,30.16,2013-06-30 00:00:00,2013-08-22 00:00:00,51.80577027159358,3.720962999721263,65.63536360613033,2.9759016649045638
sz300114,2013-10-21,15.66,16.1,15.35,15.96,0.022422,1780823.0,28038039.76,2489760000.0,2489760000.0,0.01141553205128205,31.54,2013-06-30 00:00:00,2013-08-22 00:00:00,54.182201635318656,3.8916508039840014,68.64618529308504,3.1124120577578216
sz300114,2013-10-18,15.35,15.75,15.3,15.61,0.017601,1214272.0,18907615.39,2435160000.0,2435160000.0,0.007783794871794872,30.85,2013-06-30 00:00:00,2013-08-22 00:00:00,52.99397082155769,3.8063058150000697,67.14075527823643,3.0441559921028905
sz300114,2013-10-17,15.42,15.64,15.18,15.34,-0.002601,1447628.0,22411738.51,2393040000.0,2393040000.0,0.009279666666666667,30.32,2013-06-30 00:00:00,2013-08-22 00:00:00,52.07735725648628,3.740469805945621,65.97945096185678,2.9915025556213983
sz300114,2013-10-16,16.18,16.45,15.24,15.38,-0.065046,2538520.0,39592440.48,2399280000.0,2399280000.0,0.016272564102564103,30.4,2013-06-30 00:00:00,2013-08-22 00:00:00,52.213163695257634,3.7502241389309803,66.15151104207722,2.999303744661262
sz300114,2013-10-15,16.8,16.84,16.36,16.45,-0.026626999999999998,2604473.0,43072960.69,2566200000.0,2566200000.0,0.016695339743589742,32.51,2013-06-30 00:00:00,2013-08-22 00:00:00,55.84570331295191,4.011132247074166,70.75376012304052,3.2079693168447454
sz300114,2013-10-14,16.26,17.09,16.05,16.9,0.041282,3586780.0,59656785.66,2636400000.0,2636400000.0,0.022992179487179486,33.4,2013-06-30 00:00:00,2013-08-22 00:00:00,57.373384419900596,4.12085834215061,72.68925696833641,3.295724575106095
sz300114,2013-10-11,16.45,16.5,15.88,16.23,-0.02111,3693908.0,59750109.58,2531880000.0,2531880000.0,0.023678897435897437,32.08,2013-06-30 00:00:00,2013-08-22 00:00:00,55.0987959264643,3.9574854286836905,69.80746519034844,3.165064387078712
sz300114,2013-10-10,15.87,17.07,15.6,16.58,0.065553,6019073.0,99451823.69,2586480000.0,2586480000.0,0.03858380128205127,32.77,2013-06-30 00:00:00,2013-08-22 00:00:00,56.287014809084056,4.042829560710284,71.31288008902781,3.233319767367847
sz300114,2013-10-09,15.4,15.91,15.32,15.56,0.023011,3234526.0,50621318.7,2427360000.0,2427360000.0,0.020734141025641025,30.75,2013-06-30 00:00:00,2013-08-22 00:00:00,52.82422817924971,3.7941140053195705,66.92569969680328,3.0344053907856736
sz300114,2013-10-08,15.02,15.24,14.82,15.21,0.00396,1861401.0,27944631.48,2372760000.0,2372760000.0,0.011932057692307691,30.06,2013-06-30 00:00:00,2013-08-22 00:00:00,51.63603145933887,3.708771465135342,65.42031287718635,2.9661512835987827
sz300114,2013-09-30,14.87,15.25,14.83,15.15,0.021578,1468366.0,22212969.76,2363400000.0,2363400000.0,0.009412602564102564,29.94,2013-06-30 00:00:00,2013-08-22 00:00:00,51.432359316445734,3.6941426602009453,65.1622702868504,2.954451655044805
sz300114,2013-09-27,14.64,14.92,14.64,14.83,0.010907,1214201.0,17940478.61,2313480000.0,2313480000.0,0.007783339743589744,29.31,2013-06-30 00:00:00,2013-08-22 00:00:00,50.3459934693638,3.6161141490918416,63.785898176008494,2.89204706350842
sz300114,2013-09-26,14.92,15.25,14.66,14.67,-0.022,2157944.0,32313525.96,2288520000.0,2288520000.0,0.013832974358974359,28.99,2013-06-30 00:00:00,2013-08-22 00:00:00,49.80279439094179,3.577098733208733,63.0976916531476,2.8608438397482847
sz300114,2013-09-25,15.58,15.6,14.94,15.0,-0.037226999999999996,2616698.0,39820337.22,2340000000.0,2340000000.0,0.016773705128205127,29.65,2013-06-30 00:00:00,2013-08-22 00:00:00,50.92310264922474,3.6575651668800955,64.51706713000777,2.9251982001516206
sz300114,2013-09-24,15.25,15.64,15.1,15.58,0.020301,3290053.0,50877299.38,2430480000.0,2430480000.0,0.021090083333333332,30.79,2013-06-30 00:00:00,2013-08-22 00:00:00,52.89211750768326,3.79899017409098,67.01171213776017,3.0383051873615283
sz300114,2013-09-23,15.2,15.41,14.88,15.27,0.0026260000000000003,3250573.0,49310854.13,2382120000.0,2382120000.0,0.02083700641025641,30.18,2013-06-30 00:00:00,2013-08-22 00:00:00,51.839719364857295,3.7234014022244226,65.67837543799347,2.9778518176121835
sz300114,2013-09-18,14.93,15.41,14.87,15.23,0.023522,3948146.0,60193436.06,2375880000.0,2375880000.0,0.025308628205128206,30.1,2013-06-30 00:00:00,2013-08-22 00:00:00,51.70394480579728,3.713649359007669,65.50635574779976,2.970052459852611
sz300114,2013-09-17,14.7,14.88,14.65,14.88,0.010183,2044916.0,30261124.93,2321280000.0,2321280000.0,0.013108435897435898,29.41,2013-06-30 00:00:00,2013-08-22 00:00:00,50.51571417692759,3.628304383303602,64.00092596719931,2.9017964048184712
sz300114,2013-09-16,14.56,14.88,14.52,14.73,0.017265,1300564.0,19132701.31,2297880000.0,2297880000.0,0.008336948717948718,29.11,2013-06-30 00:00:00,2013-08-22 00:00:00,50.00649800771502,3.5917297987628,63.35577411934203,2.872545276270211
sz300114,2013-09-13,14.4,14.66,14.34,14.48,-0.012952000000000002,1606136.0,23277150.04,2258880000.0,2258880000.0,0.01029574358974359,28.62,2013-06-30 00:00:00,2013-08-22 00:00:00,49.15778878435316,3.5307710368122365,62.280501265001774,2.8237924987787952
sz300114,2013-09-12,14.83,15.1,14.65,14.67,-0.022652000000000002,2161821.0,31986645.07,2288520000.0,2288520000.0,0.013857826923076922,28.99,2013-06-30 00:00:00,2013-08-22 00:00:00,49.80283510462831,3.577101657479916,63.097743235386496,2.8608461784825003
sz300114,2013-09-11,14.65,15.47,14.62,15.01,0.047452999999999995,5311561.0,79334583.36,2341560000.0,2341560000.0,0.03404846794871795,29.67,2013-06-30 00:00:00,2013-08-22 00:00:00,50.95711568922053,3.6600081623740124,64.56015997923615,2.9271520261795185
sz300114,2013-09-10,14.75,14.75,14.24,14.33,-0.028475,2497449.0,36072499.34,2235480000.0,2235480000.0,0.01600928846153846,28.32,2013-06-30 00:00:00,2013-08-22 00:00:00,48.64859396003499,3.4941979853740572,61.63537646007616,2.7945425963546993
sz300114,2013-09-09,14.79,15.06,14.3,14.75,0.004768,3343429.0,48967813.59,2301000000.0,2301000000.0,0.02143223717948718,29.15,2013-06-30 00:00:00,2013-08-22 00:00:00,50.07446433188542,3.5966114977731474,63.44188411011159,2.8764494957460687
sz300114,2013-09-06,14.33,14.68,14.21,14.68,0.028011,2334982.0,33763546.27,2290080000.0,2290080000.0,0.014967833333333333,29.01,2013-06-30 00:00:00,2013-08-22 00:00:00,49.83684226795182,3.57954423088031,63.14082863916006,2.8627996669341265
sz300114,2013-09-05,14.34,14.34,14.16,14.28,0.001403,1671894.0,23808679.5,2227680000.0,2227680000.0,0.010717269230769232,28.22,2013-06-30 00:00:00,2013-08-22 00:00:00,48.47889980549997,3.4820096583405333,61.42038231026717,2.7847947803419677
sz300114,2013-09-04,14.12,14.41,14.07,14.26,0.006351,1785229.0,25481656.06,2224560000.0,2224560000.0,0.01144377564102564,28.18,2013-06-30 00:00:00,2013-08-22 00:00:00,48.41097920168001,3.4771312432063146,61.334330244933525,2.7808931872003253
sz300114,2013-09-03,14.15,14.17,13.85,14.17,0.007107,1473914.0,20672238.19,2210520000.0,2210520000.0,0.009448166666666667,28.01,2013-06-30 00:00:00,2013-08-22 00:00:00,48.10546141622556,3.4551873483569,60.94725423329785,2.763343194571601
sz300114,2013-09-02,13.99,14.22,13.81,14.07,0.01223,1650000.0,23192969.6,2194920000.0,2194920000.0,0.010576923076923078,27.81,2013-06-30 00:00:00,2013-08-22 00:00:00,47.76598853570232,3.4308046199231064,60.51715878580712,2.7438427044709264
sz300114,2013-08-30,15.01,15.05,13.86,13.9,-0.075183,4487401.0,64219441.07,2168400000.0,2168400000.0,0.028765391025641025,27.47,2013-06-30 00:00:00,2013-08-22 00:00:00,47.188868671845654,3.3893528347540647,59.78597629571059,2.710690954102256
sz300114,2013-08-29,15.1,15.75,15.0,15.03,-0.01378,3498475.0,53632822.27,2344680000.0,2344680000.0,0.022426121794871794,29.71,2013-06-30 00:00:00,2013-08-22 00:00:00,51.025087851808145,3.664890280730203,64.64627736699323,2.9310565810341456
sz300114,2013-08-28,14.79,15.7,14.7,15.24,0.022819,5459314.0,83602981.36,2377440000.0,2377440000.0,0.034995602564102564,30.12,2013-06-30 00:00:00,2013-08-22 00:00:00,51.738038015664,3.716098112723534,65.54955016831259,2.972010891113693
sz300114,2013-08-27,14.95,15.09,14.63,14.9,-0.00534,2831484.0,41947012.29,2324400000.0,2324400000.0,0.01815053846153846,29.45,2013-06-30 00:00:00,2013-08-22 00:00:00,50.583767035676885,3.633192297682712,64.08714559302534,2.9057055951382336
sz300114,2013-08-26,14.6,15.05,14.47,14.98,0.015593000000000001,3551288.0,52570610.63,649652640.0,2336880000.0,0.08188729016786571,29.61,2013-06-30 00:00:00,2013-08-22 00:00:00,50.8553345220245,3.6526977034189696,64.43120824505394,2.921305365791561
sz300114,2013-08-23,14.6,15.35,14.3,14.75,-0.001354,4113172.0,61118742.0,639678000.0,2301000000.0,0.09484347906290352,29.15,2013-06-30 00:00:00,2013-08-22 00:00:00,50.07452249279436,3.5966156751956437,63.441957797123386,2.876452836708761
sz300114,2013-08-22,14.72,14.97,14.5,14.77,-0.014019,2918007.0,42974433.43,640545360.0,2304120000.0,0.0672847952407305,29.19,2013-06-30 00:00:00,2013-08-22 00:00:00,50.14241532314189,3.601492095492941,63.52797467483311,2.8803528344466014
sz300114,2013-08-21,14.2,14.99,14.15,14.98,0.051966,3930883.0,57718933.7,649652640.0,2336880000.0,0.09064017247740269,29.61,2013-03-31 00:00:00,2013-04-23 00:00:00,50.33569414727749,3.9833369525542017,105.24470012674036,2.957400087332986
sz300114,2013-08-20,14.23,14.47,14.08,14.24,0.0007030000000000001,1870672.0,26701437.4,617560320.0,2221440000.0,0.043134845969378346,28.14,2013-03-31 00:00:00,2013-04-23 00:00:00,47.84916446660586,3.786564349564722,100.0457240317086,2.8113076728078537
sz300114,2013-08-19,13.71,14.26,13.7,14.23,0.023005,1668015.0,23402965.7,617126640.0,2219880000.0,0.0384618843386829,28.12,2013-03-31 00:00:00,2013-04-23 00:00:00,47.815550134861056,3.783904264866521,99.97544129647719,2.80933271191138
sz300114,2013-08-16,14.27,14.87,13.9,13.91,-0.036036,3390157.0,49013622.91,603248880.0,2169960000.0,0.07817185482383324,27.49,2013-03-31 00:00:00,2013-04-23 00:00:00,46.740289768731394,3.698813070186872,97.72722645195009,2.7461573618031
sz300114,2013-08-15,14.01,14.47,13.88,14.43,0.026316000000000003,2841362.0,40506494.79,625800240.0,2251080000.0,0.06551747832503228,28.52,2013-03-31 00:00:00,2013-04-23 00:00:00,48.48758850821338,3.8370863125457717,101.38057692190796,2.84881734359696
sz300114,2013-08-14,14.35,14.39,13.94,14.06,-0.020209,2562883.0,36203518.34,609754080.0,2193360000.0,0.05909617690463014,27.79,2013-03-31 00:00:00,2013-04-23 00:00:00,47.244307316862816,3.7386987171064,98.7810546867709,2.775770175654438
sz300114,2013-08-13,14.19,14.38,14.0,14.35,0.008433,2387577.0,33914672.06,622330800.0,2238600000.0,0.05505388765910349,28.36,2013-03-31 00:00:00,2013-04-23 00:00:00,48.21876024260563,3.815812471339704,100.8184956656786,2.8330227320463632
sz300114,2013-08-12,14.25,14.42,13.8,14.23,-0.0055899999999999995,2974711.0,41926856.12,617126640.0,2219880000.0,0.06859230308061243,28.12,2013-03-31 00:00:00,2013-04-23 00:00:00,47.815531862409934,3.783902818868189,99.97540309140877,2.80933163834024
sz300114,2013-08-09,14.75,15.0,13.86,14.31,-0.032454000000000004,3881777.0,56132815.71,620596080.0,2232360000.0,0.08950786294041689,28.28,2013-03-31 00:00:00,2013-04-23 00:00:00,48.08432322926151,3.8051737400752095,100.53740719764359,2.8251240819583874
sz300114,2013-08-08,14.71,15.15,14.62,14.79,0.006807,3469934.0,51695344.89,641412720.0,2307240000.0,0.08001139088729017,29.23,2013-03-31 00:00:00,2013-04-23 00:00:00,49.69719602919293,3.932809127499064,103.90969235327682,2.9198860642888165
sz300114,2013-08-07,15.19,15.52,14.68,14.69,-0.047958999999999995,4495767.0,67450888.62,637075920.0,2291640000.0,0.10366553680132817,29.03,2013-03-31 00:00:00,2013-04-23 00:00:00,49.3611943790547,3.9062194914209614,103.20716120694118,2.9001447787796635
sz300114,2013-08-06,14.6,15.48,14.48,15.43,0.04966,6161068.0,93670747.73,669168240.0,2407080000.0,0.14206484043534404,30.5,2013-03-31 00:00:00,2013-04-23 00:00:00,51.8477611563522,4.1029950300679925,108.40621486568455,3.04623937286279
sz300114,2013-08-05,14.18,14.74,14.1,14.7,0.028691,3833227.0,55575681.38,637509600.0,2293200000.0,0.08838837391625161,29.05,2013-03-31 00:00:00,2013-04-23 00:00:00,49.39481466032068,3.908880046937096,103.27745638176604,2.902120089231551
sz300114,2013-08-02,14.6,14.99,14.25,14.29,-0.002095,5996579.0,87804866.3,619728720.0,2229240000.0,0.13827197472790997,28.24,2013-03-31 00:00:00,2013-04-23 00:00:00,48.01715448110334,3.7998583121045058,100.39696700152528,2.8211776804031055
sz300114,2013-08-01,13.58,14.36,13.58,14.32,0.044493,4514867.0,63895327.37,621029760.0,2233920000.0,0.1041059536985796,28.3,2013-03-31 00:00:00,2013-04-23 00:00:00,48.1179616106777,3.80783572795457,100.60774021728047,2.827100455858128
sz300114,2013-07-31,13.68,14.02,13.31,13.71,0.011062,3791440.0,52304957.46,594575280.0,2138760000.0,0.08742482936727541,27.1,2013-03-31 00:00:00,2013-04-23 00:00:00,46.06824709277871,3.645630682019478,96.32208183040048,2.706672477324528
sz300114,2013-07-30,14.2,14.44,12.89,13.56,-0.051748,5107912.0,70043469.65,588070080.0,2115360000.0,0.11778066777347353,26.8,2013-03-31 00:00:00,2013-04-23 00:00:00,45.56421573828184,3.605743942527242,95.26822472845433,2.6770588523003815
sz300114,2013-07-29,15.06,15.23,14.25,14.3,-0.07142899999999999,5622109.0,82391525.32,620162400.0,2230800000.0,0.12963726710938941,28.26,2013-03-31 00:00:00,2013-04-23 00:00:00,48.05074572822608,3.802516569991144,100.46720147013066,2.8231512849963742
sz300114,2013-07-26,15.0,15.9,14.7,15.4,-0.055215,11015233.0,169422116.97,667867200.0,2402400000.0,0.25399448902416527,30.44,2013-03-31 00:00:00,2013-04-23 00:00:00,51.746980821311546,4.095019734614955,108.19549767344733,3.0403181716814056
sz300114,2013-07-25,16.51,16.89,15.88,16.3,0.061889,17336283.0,287446777.17,706898400.0,2542800000.0,0.3997482706142778,32.22,2013-03-31 00:00:00,2013-04-23 00:00:00,54.771171029717394,4.3343403362828115,114.51864463708392,3.218000044117345
sz300114,2013-07-24,14.5,15.35,14.5,15.35,0.100358,2622041.0,39668303.02,665698800.0,2394600000.0,0.06046027024534219,30.34,2013-03-31 00:00:00,2013-04-23 00:00:00,51.57899839787152,4.0817263727967905,107.84427057544048,3.0304486100876313
sz300114,2013-07-23,13.54,14.18,13.54,13.95,0.029519999999999998,2625753.0,36596866.14,604983600.0,2176200000.0,0.06054586330935252,27.57,2013-03-31 00:00:00,2013-04-23 00:00:00,46.874742945360985,3.709453080539961,98.00834871509134,2.754056961541272
sz300114,2013-07-22,13.23,13.56,12.93,13.55,0.018032,1585403.0,21041077.06,587636400.0,2113800000.0,0.03655697749492714,26.78,2013-03-31 00:00:00,2013-04-23 00:00:00,45.5306773499893,3.6030898676470207,95.19810078006385,2.675088353350369
sz300114,2013-07-19,13.75,14.1,13.3,13.31,-0.032,2353536.0,32375648.76,577228080.0,2076360000.0,0.05426895406751522,26.31,2013-03-31 00:00:00,2013-04-23 00:00:00,44.72421038826804,3.539269755417335,93.51189430200999,2.627705566573908
sz300114,2013-07-18,14.0,14.0,13.65,13.75,-0.019258,1725341.0,23818456.93,596310000.0,2145000000.0,0.03978373455082088,27.18,2013-03-31 00:00:00,2013-04-23 00:00:00,46.20269668209509,3.6562704084889823,96.60319659298554,2.7145718662953597
sz300114,2013-07-17,14.19,14.3,13.7,14.02,-0.018894,2379080.0,33346583.33,608019360.0,2187120000.0,0.05485795978601734,27.71,2013-03-31 00:00:00,2013-04-23 00:00:00,47.10993990478137,3.7280654937679665,98.50011174497018,2.767875614886851
sz300114,2013-07-16,13.66,14.38,13.55,14.29,0.046886000000000004,3073754.0,42937582.51,619728720.0,2229240000.0,0.0708760837483859,28.24,2013-03-31 00:00:00,2013-04-23 00:00:00,48.01717643637015,3.7998600495440513,100.39701290683186,2.8211789703526944
sz300114,2013-07-15,13.18,13.65,13.1,13.65,0.034875,1601936.0,21469852.02,591973200.0,2129400000.0,0.036938203283527024,26.98,2013-03-31 00:00:00,2013-04-23 00:00:00,45.86667166851992,3.629678923535181,95.900616597062,2.6948292081016407
sz300114,2013-07-12,13.33,13.75,13.16,13.19,-0.015672,1901816.0,25614803.64,572023920.0,2057640000.0,0.04385297915513743,26.07,2013-03-31 00:00:00,2013-04-23 00:00:00,44.32097757557185,3.507359752177974,92.66879246001884,2.6040142124427015
sz300114,2013-07-11,13.0,13.63,12.86,13.4,0.028395999999999998,2146548.0,28635246.72,581131200.0,2090400000.0,0.04949612617598229,26.48,2013-03-31 00:00:00,2013-04-23 00:00:00,45.02663499928058,3.5632022579647984,94.14422068661955,2.6454740822598786
sz300114,2013-07-10,12.68,13.05,12.6,13.03,0.027602999999999996,1381934.0,17761221.08,565085040.0,2032680000.0,0.031865292381479435,25.75,2013-03-31 00:00:00,2013-04-23 00:00:00,43.783362633927574,3.4648153609745647,91.54471690537453,2.5724274328759336
sz300114,2013-07-09,12.43,12.86,12.35,12.68,0.0144,1205819.0,15232817.39,549906240.0,1978080000.0,0.027804348828629404,25.06,2013-03-31 00:00:00,2013-04-23 00:00:00,42.6072740483704,3.371745081490191,89.08568474924122,2.5033280682091563
sz300114,2013-07-08,12.94,13.18,12.41,12.5,-0.06994,2175341.0,27655167.72,542100000.0,1950000000.0,0.05016004888396975,24.7,2013-03-31 00:00:00,2013-04-23 00:00:00,42.00243892780994,3.323881192320772,87.82106146415737,2.467791865348143
sz300114,2013-07-05,13.97,14.29,13.44,13.44,-0.041369,2723841.0,37701118.66,582865920.0,2096640000.0,0.06280762313226342,26.56,2013-03-31 00:00:00,2013-04-23 00:00:00,45.16099921274966,3.5738352281796577,94.42515694058166,2.6533684550976746
sz300114,2013-07-04,14.23,14.88,13.92,14.02,-0.027739,4134057.0,59792992.22,608019360.0,2187120000.0,0.0953250553403431,27.71,2013-03-31 00:00:00,2013-04-23 00:00:00,47.109888176732916,3.7280614002464527,98.50000358905736,2.7678725756810225
sz300114,2013-07-03,14.03,14.94,13.7,14.42,0.013352000000000001,4664929.0,66789643.87,625366560.0,2249520000.0,0.10756615476849289,28.5,2013-03-31 00:00:00,2013-04-23 00:00:00,48.45395236128253,3.8344245014933778,101.31024857425872,2.8468411009811385
sz300114,2013-07-02,13.37,14.28,13.33,14.23,0.057992999999999996,5557681.0,76907239.44,617126640.0,2219880000.0,0.12815165559859804,28.12,2013-03-31 00:00:00,2013-04-23 00:00:00,47.81551954432668,3.783901844071337,99.97537733606755,2.8093309146092755
sz300114,2013-07-01,13.1,13.53,12.5,13.45,0.018938999999999998,3003854.0,39301770.04,583299600.0,2098200000.0,0.06926429625530345,26.58,2013-03-31 00:00:00,2013-04-23 00:00:00,45.19455189620979,3.576490434314156,94.49531077811247,2.655339793939351
sz300114,2013-06-28,12.55,13.3,12.3,13.2,0.019305000000000003,3049471.0,39143227.98,572457600.0,2059200000.0,0.0703161547684929,26.09,2013-03-31 00:00:00,2013-04-23 00:00:00,44.35452161141127,3.5100142739792632,92.73892821661795,2.605985043206071
sz300114,2013-06-27,13.87,14.15,12.8,12.95,-0.078947,5040177.0,68058498.29,561615600.0,2020200000.0,0.11621880188157166,25.59,2013-03-31 00:00:00,2013-04-23 00:00:00,43.51447467775717,3.443536796129974,90.98251084475987,2.5566293142936325
sz300114,2013-06-26,13.3,14.29,12.98,14.06,0.048471,5837677.0,79737461.75,609754080.0,2193360000.0,0.13460793672754104,27.79,2013-03-31 00:00:00,2013-04-23 00:00:00,47.24426789528634,3.7386955974628755,98.7809722619218,2.775767859497371
sz300114,2013-06-25,13.49,13.6,12.63,13.41,-0.044191,6939706.0,90771569.19,581564880.0,2091960000.0,0.16001904630142041,26.5,2013-03-31 00:00:00,2013-04-23 00:00:00,45.0601570241679,3.5658550379198624,94.21431042148215,2.647443619801951
sz300114,2013-06-24,15.48,15.48,14.03,14.03,-0.100064,4371416.0,63137868.75,608453040.0,2188680000.0,0.1007981922154584,27.73,2013-03-31 00:00:00,2013-04-23 00:00:00,47.14347429681861,3.730719252402794,98.57022733776533,2.7698458790427285
sz300114,2013-06-21,14.87,16.45,14.81,15.59,0.01735,7302370.0,114361503.63,676107120.0,2432040000.0,0.16838152554879174,30.81,2013-03-31 00:00:00,2013-04-23 00:00:00,52.38536328896568,4.145538407623202,109.53026363848689,3.0778253998536877
sz300114,2013-06-20,20.08,21.2,19.91,20.0,-0.019608,5032820.0,104179518.69,667200000.0,2400000000.0,0.1508639088729017,30.29,2013-03-31 00:00:00,2013-04-23 00:00:00,51.491977479693,4.074839934755199,107.66232234578747,3.0253358233191014
sz300114,2013-06-19,20.55,20.7,19.85,20.4,-0.029033999999999997,3915461.0,79257323.26,680544000.0,2448000000.0,0.11736993405275778,30.89,2013-03-31 00:00:00,2013-04-23 00:00:00,52.52182543277893,4.156337398464287,109.81558636319704,3.085843033520369
sz300114,2013-06-18,21.76,21.82,20.66,21.01,-0.024152,4905167.0,103443440.23,700893600.0,2521200000.0,0.14703738009592326,31.82,2013-03-31 00:00:00,2013-04-23 00:00:00,54.092342505071166,4.280620947040665,113.09931178145995,3.178116467023942
sz300114,2013-06-17,21.5,21.53,20.6,21.53,0.10015299999999999,7628933.0,161851158.29,718240800.0,2583600000.0,0.22868504196642686,32.6,2013-03-31 00:00:00,2013-04-23 00:00:00,55.43111478946635,4.386565271477387,115.89849216420993,3.2567740744705542
sz300114,2013-06-14,19.57,19.57,19.57,19.57,0.10005599999999999,821022.0,16067400.54,652855200.0,2348400000.0,0.024610971223021583,29.64,2013-03-31 00:00:00,2013-04-23 00:00:00,50.38491445232286,3.9872320227071936,105.34761270860501,2.960291954365033
sz300114,2013-06-13,17.79,17.79,17.79,17.79,0.100186,210380.0,3742660.2,593474400.0,2134800000.0,0.006306354916067146,26.94,2013-03-31 00:00:00,2013-04-23 00:00:00,45.80213593882753,3.624571860620908,95.76568166402893,2.6910375056951947
sz300114,2013-03-01,16.15,16.6,16.01,16.17,0.001859,1385056.0,22472402.08,539431200.0,1940400000.0,0.04151846522781775,24.49,2012-09-30 00:00:00,2012-10-24 00:00:00,33.30396329453789,3.682527230479237,141.59470211216473,2.5031782655201718
sz300114,2013-02-28,15.48,16.5,15.21,16.14,0.037942000000000004,1625421.0,25726343.07,538430400.0,1936800000.0,0.04872365107913669,24.44,2012-09-30 00:00:00,2012-10-24 00:00:00,33.242166107743586,3.6756941151192297,141.33196598739414,2.4985334917589914
sz300114,2013-02-27,15.59,15.59,15.05,15.55,0.019672,1243011.0,19084791.79,518748000.0,1866000000.0,0.03726052158273381,23.55,2012-09-30 00:00:00,2012-10-24 00:00:00,32.02699775877996,3.5413290098283237,136.1655718598863,2.4071995272943876
sz300114,2013-02-26,14.8,15.64,14.62,15.25,0.033198000000000005,1437252.0,21893365.96,508740000.0,1830000000.0,0.043083093525179854,23.09,2012-09-30 00:00:00,2012-10-24 00:00:00,31.409117597403842,3.473007996520768,133.53860051064103,2.3607586824923983
sz300114,2013-02-25,14.63,14.9,14.54,14.76,0.003399,581039.0,8563173.14,492393600.0,1771200000.0,0.017417236211031174,22.35,2012-09-30 00:00:00,2012-10-24 00:00:00,30.399901662027837,3.3614157175302,129.24783101655348,2.2849044253786763
sz300114,2013-02-22,14.5,15.09,14.5,14.71,0.018698,961215.0,14287932.48,490725600.0,1765200000.0,0.028813399280575542,22.28,2012-09-30 00:00:00,2012-10-24 00:00:00,30.296922422713035,3.3500289690643505,128.81000580681612,2.277164343774188
sz300114,2013-02-21,14.64,14.65,14.33,14.44,-0.021016999999999997,420560.0,6084387.3,481718400.0,1732800000.0,0.012606714628297362,21.87,2012-09-30 00:00:00,2012-10-24 00:00:00,29.7408284130459,3.2885398509316306,126.44572366571457,2.235367443319009
sz300114,2013-02-20,14.59,14.76,14.44,14.75,0.010966,340333.0,4974120.13,492060000.0,1770000000.0,0.010201828537170264,22.34,2012-09-30 00:00:00,2012-10-24 00:00:00,30.379310379287382,3.359138872617431,129.16028538362215,2.2833567521795666
sz300114,2013-02-19,14.88,14.88,14.41,14.59,-0.016183000000000003,479910.0,7033894.19,486722400.0,1750800000.0,0.014385791366906474,22.09,2012-09-30 00:00:00,2012-10-24 00:00:00,30.049784443084516,3.322702121156825,127.75927715039096,2.2585890644982785
sz300114,2013-02-18,14.8,15.0,14.66,14.83,0.004062,510610.0,7545199.69,494728800.0,1779600000.0,0.0153060551558753,22.46,2012-09-30 00:00:00,2012-10-24 00:00:00,30.544079278041057,3.377357904119186,129.86081471492255,2.295741041777362
sz300114,2013-02-08,14.52,14.83,14.52,14.77,0.009569,534322.0,7849427.34,492727200.0,1772400000.0,0.016016846522781774,22.37,2012-09-30 00:00:00,2012-10-24 00:00:00,30.420511161702215,3.363694576748433,129.33545410036683,2.2864534677911936
sz300114,2013-02-07,14.55,14.74,14.31,14.63,0.007576,334837.0,4857624.24,488056800.0,1755600000.0,0.010037080335731415,22.15,2012-09-30 00:00:00,2012-10-24 00:00:00,30.132176366055436,3.331812463287238,128.10957359067766,2.264781771024263
sz300114,2013-02-06,14.7,14.81,14.5,14.52,-0.010898999999999999,418222.0,6114982.8,484387200.0,1742400000.0,0.012536630695443645,21.99,2012-09-30 00:00:00,2012-10-24 00:00:00,29.905611453682337,3.3067604461472264,127.14631312246189,2.247752795842956
sz300114,2013-02-05,14.14,14.68,14.14,14.68,0.029452999999999997,462240.0,6695533.77,489724800.0,1761600000.0,0.01385611510791367,22.23,2012-09-30 00:00:00,2012-10-24 00:00:00,30.235144291313365,3.343197960721126,128.5473506977163,2.2725210022464406
sz300114,2013-02-04,14.47,14.65,14.07,14.26,-0.017228999999999998,596617.0,8531799.64,475713600.0,1711200000.0,0.017884202637889687,21.59,2012-09-30 00:00:00,2012-10-24 00:00:00,29.370106543293737,3.24754793149481,124.86956733111306,2.207503404474455
sz300114,2013-02-01,14.47,14.72,14.36,14.51,-0.0034340000000000004,439556.0,6387188.38,484053600.0,1741200000.0,0.013176139088729017,21.97,2012-09-30 00:00:00,2012-10-24 00:00:00,29.884995124290132,3.304480831744944,127.05866100150803,2.246203240098105
sz300114,2013-01-31,14.81,14.93,14.26,14.56,-0.024128999999999998,693012.0,10043443.37,485721600.0,1747200000.0,0.020773741007194244,22.05,2012-09-30 00:00:00,2012-10-24 00:00:00,29.987973826410023,3.31586752081141,127.49648392731443,2.253943281326179
sz300114,2013-01-30,15.17,15.17,14.81,14.92,-0.009295999999999999,597620.0,8935260.77,497731200.0,1790400000.0,0.017914268585131895,22.59,2012-09-30 00:00:00,2012-10-24 00:00:00,30.72944459504383,3.3978543483835564,130.64891151321683,2.309673390567174
sz300114,2013-01-29,15.09,15.26,14.79,15.06,-0.003968,755338.0,11335420.26,502401600.0,1807200000.0,0.022642026378896882,22.81,2012-09-30 00:00:00,2012-10-24 00:00:00,31.017785933077718,3.429737185257712,131.8748198384349,2.3313455790702102
sz300114,2013-01-28,14.62,15.18,14.62,15.12,0.035616,991227.0,14847378.95,504403200.0,1814400000.0,0.029713039568345322,22.9,2012-09-30 00:00:00,2012-10-24 00:00:00,31.141354829039347,3.4434005988338847,132.40018376762484,2.340633211654054
sz300114,2013-01-25,15.14,15.37,14.52,14.6,-0.050098000000000004,1364810.0,20310553.69,487056000.0,1752000000.0,0.040911570743405276,22.11,2012-09-30 00:00:00,2012-10-24 00:00:00,30.070368581635805,3.3249781761134285,127.84679240917949,2.260136200728893
sz300114,2013-01-24,14.76,15.94,14.76,15.37,0.041328,2787665.0,43146134.4,512743200.0,1844400000.0,0.0835630995203837,23.28,2012-09-30 00:00:00,2012-10-24 00:00:00,31.656285155348446,3.5003381149986295,134.58945492185453,2.3793361849210686
sz300114,2013-01-23,14.37,14.96,14.19,14.76,0.027139999999999997,1282439.0,18851425.68,492393600.0,1771200000.0,0.03844241606714628,22.35,2012-09-30 00:00:00,2012-10-24 00:00:00,30.399917370269925,3.361417454441472,129.24789780151357,2.28490560603486
sz300114,2013-01-22,14.48,14.56,14.26,14.37,-0.029054000000000003,796050.0,11449594.09,479383200.0,1724400000.0,0.023862410071942446,21.76,2012-09-30 00:00:00,2012-10-24 00:00:00,29.596663911706223,3.2725991144746307,125.83279572552289,2.2245318126398153
sz300114,2013-01-21,14.42,15.0,14.42,14.8,0.005435,881801.0,13021161.12,493728000.0,1776000000.0,0.026432883693045563,22.41,2012-09-30 00:00:00,2012-10-24 00:00:00,30.482296555839586,3.3705263881561183,129.59814008762885,2.29109735519773
sz300114,2013-01-18,14.16,14.78,13.95,14.72,0.03662,1324701.0,19090633.72,491059200.0,1766400000.0,0.03970926258992806,22.29,2012-09-30 00:00:00,2012-10-24 00:00:00,30.317520830127833,3.352306601775468,128.89758173092127,2.278712552475028
sz300114,2013-01-17,15.08,15.08,14.1,14.2,-0.060847000000000005,1757120.0,25419133.2,473712000.0,1704000000.0,0.05267146282973621,21.5,2012-09-30 00:00:00,2012-10-24 00:00:00,29.246513505554432,3.2338818484839846,124.34410076105156,2.198213957356628
sz300114,2013-01-16,14.55,15.21,14.43,15.12,0.037037,2434484.0,36044919.45,504403200.0,1814400000.0,0.07297613908872902,22.9,2012-09-30 00:00:00,2012-10-24 00:00:00,31.141372604415285,3.44340256431485,132.4002593411846,2.3406345476792683
sz300114,2013-01-15,14.2,15.5,14.08,14.58,0.026761,3184388.0,47286312.71,486388800.0,1749600000.0,0.0954552757793765,22.08,2012-09-30 00:00:00,2012-10-24 00:00:00,30.02918179815695,3.320424019890178,127.67168321013101,2.257040537299314
sz300114,2013-01-14,13.25,14.35,13.2,14.2,0.06367,2269906.0,31630461.95,473712000.0,1704000000.0,0.06804274580335731,21.5,2012-09-30 00:00:00,2012-10-24 00:00:00,29.2465157891242,3.2338821009856997,124.34411046984742,2.1982141289933237
sz300114,2013-01-11,13.46,13.79,13.3,13.35,-0.006696,1434724.0,19426988.86,445356000.0,1602000000.0,0.04300731414868106,20.22,2012-09-30 00:00:00,2012-10-24 00:00:00,27.495854719155563,3.040305828862053,116.90102237521734,2.066631689333462
sz300114,2013-01-10,13.02,13.44,13.0,13.44,0.02361,742856.0,9838061.41,448358400.0,1612800000.0,0.022267865707434054,20.35,2012-09-30 00:00:00,2012-10-24 00:00:00,27.681208088516264,3.0608009520368915,117.68906837707019,2.0805631401197036
sz300114,2013-01-09,13.24,13.38,12.9,13.13,-0.003037,669386.0,8801259.29,438016800.0,1575600000.0,0.020065527577937652,19.88,2012-09-30 00:00:00,2012-10-24 00:00:00,27.042729250902457,2.9902022762935996,114.97451996079579,2.0325740664117227
sz300114,2013-01-08,12.77,13.48,12.72,13.17,0.02093,1371054.0,18173443.82,439351200.0,1580400000.0,0.041098741007194246,19.94,2012-09-30 00:00:00,2012-10-24 00:00:00,27.125108204519588,2.999311184360503,115.3247612607447,2.0387657981406764
sz300114,2013-01-07,12.48,13.13,12.33,12.9,0.032,620571.0,7917967.0,430344000.0,1548000000.0,0.01860224820143885,19.53,2012-09-30 00:00:00,2012-10-24 00:00:00,26.569018644294506,2.9378225582170208,112.96049803683376,1.9969692321125603
sz300114,2013-01-04,12.71,12.76,12.33,12.5,-0.016522,484811.0,6074991.57,417000000.0,1500000000.0,0.014532703836930456,18.93,2012-09-30 00:00:00,2012-10-24 00:00:00,25.745173104936534,2.8467272850940124,109.45784693491643,1.9350477055354267
