code,date,open,high,low,close,change,volume,money,traded_market_value,market_value,turnover,adjust_price,report_type,report_date,PE_TTM,PS_TTM,PC_TTM,PB
sz300266,2014-12-31,44.6,48.0,44.6,47.9,0.008421,1121838.0,51492719.33,2481673710.0,7365004850.0,0.021653144804439257,110.74,2014-09-30 00:00:00,2014-10-27 00:00:00,181.72349256921433,13.997594395639911,207.62052775923917,7.812341861157953
sz300266,2014-12-30,49.5,49.5,46.08,47.5,-0.026041,471056.0,22398801.9,2460949920.0,7303501680.0,0.009092082621494387,109.81,2014-09-30 00:00:00,2014-10-27 00:00:00,180.20597802823855,13.880704979011655,205.88675539208242,7.747103502562871
sz300266,2014-12-29,50.0,50.0,48.6,48.77,-0.0246,425959.0,20845489.53,2526747950.0,7498774250.0,0.008221643330115299,112.75,2014-09-30 00:00:00,2014-10-27 00:00:00,185.0241930391716,14.2518370681021,211.39160415590635,7.954239862830849
sz300266,2014-12-26,49.2,50.95,48.1,50.0,0.0006,926733.0,46096272.7,2590473600.0,7687896500.0,0.01788732762997469,115.59,2014-09-30 00:00:00,2014-10-27 00:00:00,189.690581340139,14.611274418804696,216.72298970259007,8.154849151969293
sz300266,2014-12-25,48.23,49.99,47.17,49.97,0.036077,598655.0,29318189.76,2588919320.0,7683283760.0,0.011554933411366408,115.52,2014-09-30 00:00:00,2014-10-27 00:00:00,189.5768352389956,14.602512911058062,216.59303388226073,8.149959176463415
sz300266,2014-12-24,46.16,48.3,45.0,48.23,0.037204,906523.0,42356184.41,2498770830.0,7415744960.0,0.017497244551234015,111.5,2014-09-30 00:00:00,2014-10-27 00:00:00,182.9756236640671,14.094042152328507,209.05109743992074,7.866171313969344
sz300266,2014-12-23,50.32,50.32,45.02,46.5,-0.059466,1231716.0,58557413.92,2409140450.0,7149743750.0,0.02377395390127628,107.5,2014-09-30 00:00:00,2014-10-27 00:00:00,176.41237756899037,13.58849575621431,201.55253685863218,7.5840155976735
sz300266,2014-12-22,52.0,52.94,47.76,49.44,-0.0684,1481050.0,72786032.78,2561460300.0,7601792060.0,0.028586471552965315,114.3,2014-09-30 00:00:00,2014-10-27 00:00:00,187.566188536502,14.447639060591442,214.2958541197152,8.063520933505329
sz300266,2014-12-19,55.05,55.94,52.07,53.07,-0.037715,1014073.0,54123988.82,2749528680.0,8159933350.0,0.01957311975010932,122.69,2014-09-30 00:00:00,2014-10-27 00:00:00,201.3376862779112,15.508414620643457,230.02989922683042,8.655561328365533
sz300266,2014-12-18,50.58,56.58,50.58,55.15,0.069213,1591158.0,85351483.87,2857292380.0,8479749840.0,0.030711720058554177,127.5,2014-09-30 00:00:00,2014-10-27 00:00:00,209.2287485286699,16.116238557852874,239.04550026949434,8.994800218610422
sz300266,2014-12-17,52.84,52.84,50.89,51.58,-0.024768000000000002,1216708.0,62300453.4,2672332570.0,7930834030.0,0.023484277123486916,119.25,2014-09-30 00:00:00,2014-10-27 00:00:00,195.6848154003645,15.072991590873732,223.57144953296898,8.412542887722486
sz300266,2014-12-16,53.11,53.9,51.96,52.89,-0.002075,736553.0,39048272.45,2740202970.0,8132256920.0,0.014216570303914386,122.27,2014-09-30 00:00:00,2014-10-27 00:00:00,200.65462925782222,15.455800866741177,229.24950117814936,8.626196523209334
sz300266,2014-12-15,50.79,53.99,50.79,53.0,0.043512999999999996,745251.0,39117977.74,2745902020.0,8149170290.0,0.014384454620853514,122.53,2014-09-30 00:00:00,2014-10-27 00:00:00,201.07185335353083,15.487938338794175,229.72618300789077,8.64413309939057
sz300266,2014-12-12,50.01,51.98,49.05,50.79,0.003557,1028157.0,51789922.1,2631403080.0,7809365260.0,0.019844961962269952,117.42,2014-09-30 00:00:00,2014-10-27 00:00:00,192.68744457762466,14.842113455983947,220.1469296576955,8.283685109232536
sz300266,2014-12-11,53.24,53.24,48.58,50.61,0.041787,1970829.0,99930584.88,2622077380.0,7781688840.0,0.03803993598770148,117.0,2014-09-30 00:00:00,2014-10-27 00:00:00,192.00448462581065,14.789507178948428,219.3666425102864,8.254324477067607
sz300266,2014-12-03,48.5,49.28,47.06,48.58,0.022737,1564573.0,75494513.72,2516904150.0,7469560240.0,0.030198589938357404,112.31,2014-09-30 00:00:00,2014-10-27 00:00:00,184.30301455653665,14.19628693672356,210.5676520347119,7.923236205738415
sz300266,2014-12-02,43.29,47.5,43.2,47.5,0.10004600000000001,2122284.0,99604519.67,2460949920.0,7303501680.0,0.04096324316912552,109.81,2014-09-30 00:00:00,2014-10-27 00:00:00,180.205678054609,13.880681872977668,205.8864126698378,7.747090606615792
sz300266,2014-12-01,43.45,43.66,42.3,43.18,-0.008268000000000001,1008402.0,43500426.08,2237133000.0,6639267420.0,0.019463661016130916,99.83,2014-09-30 00:00:00,2014-10-27 00:00:00,163.8164931781116,12.618274029429374,187.16163930402706,7.042515137199526
sz300266,2014-11-28,43.57,43.96,43.02,43.54,-0.005482,1108937.0,48132316.98,2255784410.0,6694620270.0,0.021404136302192105,100.66,2014-09-30 00:00:00,2014-10-27 00:00:00,165.18221977117975,12.723471693390326,188.7219927400014,7.101228091056382
sz300266,2014-11-27,44.35,44.35,43.03,43.78,0.008523000000000001,1532971.0,66679168.25,2268218680.0,6731522180.0,0.029588624312008576,101.21,2014-09-30 00:00:00,2014-10-27 00:00:00,166.09274017280708,12.79360624281343,189.76226950140816,7.140371608212604
sz300266,2014-11-26,40.78,43.48,40.3,43.41,0.082544,2152219.0,91222922.15,2249049180.0,6674631740.0,0.04154103326010861,100.36,2014-09-30 00:00:00,2014-10-27 00:00:00,164.68909501598583,12.685487830038015,188.15859380639623,7.080028525093233
sz300266,2014-11-25,39.02,40.4,38.95,40.1,0.020616,1229676.0,48876928.31,2077559830.0,6165692990.0,0.023734578849649784,92.71,2014-09-30 00:00:00,2014-10-27 00:00:00,152.13154847838595,11.718219148633233,173.81149755242856,6.54017621925135
sz300266,2014-11-24,39.0,39.29,38.61,39.29,0.012107,998242.0,38829533.13,2035594150.0,6041149070.0,0.019267557916689826,90.83,2014-09-30 00:00:00,2014-10-27 00:00:00,149.05855726187514,11.481516210438826,170.30058077908689,6.408067499677989
sz300266,2014-11-21,38.32,39.2,38.32,38.82,0.003101,399063.0,15541729.92,2011243700.0,5968882840.0,0.007702510471505765,89.75,2014-09-30 00:00:00,2014-10-27 00:00:00,147.27549286970162,11.344172316206514,168.2634156063409,6.331413081500265
sz300266,2014-11-20,38.98,39.24,38.6,38.7,-0.008201,373450.0,14492766.73,2005026570.0,5950431890.0,0.0072081413863757425,89.47,2014-09-30 00:00:00,2014-10-27 00:00:00,146.82020341889964,11.309102788459501,167.7432438072945,6.3118400654572815
sz300266,2014-11-19,38.64,39.41,38.01,39.02,0.002827,353736.0,13835488.98,2021605600.0,5999634430.0,0.00682763181898586,90.21,2014-09-30 00:00:00,2014-10-27 00:00:00,148.0342321568177,11.402615639317546,169.1302812437747,6.36403148768781
sz300266,2014-11-18,38.88,39.44,38.68,38.91,0.000772,249212.0,9715124.39,2015906560.0,5982721060.0,0.004810162887708446,89.95,2014-09-30 00:00:00,2014-10-27 00:00:00,147.61691912644724,11.370471316904656,168.65349780547862,6.34609108818152
sz300266,2014-11-17,38.68,39.47,38.19,38.88,0.005171,400287.0,15621895.9,2014352270.0,5978108320.0,0.007726135488704764,89.89,2014-09-30 00:00:00,2014-10-27 00:00:00,147.50304677433746,11.36170008443947,168.52339774242148,6.341195685112614
sz300266,2014-11-14,39.0,39.21,38.0,38.68,-0.017776,1271210.0,49174235.07,2003990380.0,5947356730.0,0.02453624692549672,89.42,2014-09-30 00:00:00,2014-10-27 00:00:00,146.7442323488615,11.3032509736547,167.65644625881714,6.308574048706752
sz300266,2014-11-13,40.26,40.26,38.8,39.38,-0.01991,636409.0,24966328.16,2040257010.0,6054987280.0,0.01228364186333564,91.04,2014-09-30 00:00:00,2014-10-27 00:00:00,149.3999661470922,11.507813873062254,170.69064313111585,6.4227447595525575
sz300266,2014-11-12,39.51,40.18,39.31,40.18,0.015416,685930.0,27299772.17,2081704580.0,6177993630.0,0.013239470991604389,92.89,2014-09-30 00:00:00,2014-10-27 00:00:00,152.43494592036672,11.741588908225015,174.15813152987567,6.553219356949421
sz300266,2014-11-11,40.04,40.3,38.0,39.57,-0.011244,1252428.0,49269870.29,2050100810.0,6084201290.0,0.024173726344705947,91.48,2014-09-30 00:00:00,2014-10-27 00:00:00,150.12068543372047,11.56332863400322,171.5140706172403,6.453728675685059
sz300266,2014-11-10,39.65,40.5,39.62,40.02,-0.000749,428913.0,17140550.86,2073415070.0,6153392360.0,0.00827865993083575,92.52,2014-09-30 00:00:00,2014-10-27 00:00:00,151.82783764014624,11.694825249104147,173.4645055172765,6.527119608563749
sz300266,2014-11-07,40.53,41.28,39.88,40.05,-0.011843000000000001,622402.0,25400983.1,2074969350.0,6158005100.0,0.012013285931187367,92.59,2014-09-30 00:00:00,2014-10-27 00:00:00,151.9416419299518,11.703591238942114,173.59452781861268,6.532012085615876
sz300266,2014-11-06,39.72,40.61,39.7,40.53,0.013757,724732.0,29080276.22,2099837900.0,6231808900.0,0.013988407371826179,93.7,2014-09-30 00:00:00,2014-10-27 00:00:00,153.7626530297835,11.843858049826206,175.67504740503045,6.610297842970172
sz300266,2014-11-05,39.45,40.17,38.8,39.98,0.013434999999999999,1097091.0,43680389.22,2071342690.0,6147242040.0,0.021175490850333413,92.43,2014-09-30 00:00:00,2014-10-27 00:00:00,151.6760456695081,11.683133186578448,173.29108199009278,6.520594030887257
sz300266,2014-11-04,40.2,40.59,39.06,39.45,-0.019875999999999998,1209625.0,48039648.78,2043883670.0,6065750340.0,0.023347564712428083,91.2,2014-09-30 00:00:00,2014-10-27 00:00:00,149.66529246523766,11.528251132611809,170.99378054842467,6.434151209389114
sz300266,2014-11-03,39.9,40.88,39.83,40.25,0.000995,998962.0,40422119.99,2085331250.0,6188756680.0,0.019281454924727187,93.05,2014-09-30 00:00:00,2014-10-27 00:00:00,152.70036491835486,11.76203330661407,174.46137483463795,6.564629791117363
sz300266,2014-10-31,41.66,42.26,39.8,40.21,-0.033645999999999995,1943598.0,79588232.33,2083258870.0,6182606370.0,0.03751433713084346,92.96,2014-09-30 00:00:00,2014-10-27 00:00:00,152.54857908216812,11.750341716606046,174.28795831611342,6.558104477162586
sz300266,2014-10-30,40.14,41.61,40.01,41.61,0.036622,1725785.0,70808605.9,2155792130.0,6397867470.0,0.03331022172810326,96.2,2014-09-30 00:00:00,2014-10-27 00:00:00,157.8599344362088,12.159458869737225,180.35622382285726,6.786441073522317
sz300266,2014-10-29,39.99,40.88,39.61,40.14,0.004253,1340880.0,54047075.59,2079632210.0,6171843310.0,0.02588098171455038,92.8,2014-09-30 00:00:00,2014-10-27 00:00:00,152.28302547718337,11.729886949859472,173.98456122179275,6.546688256203628
sz300266,2014-10-28,39.7,39.97,39.1,39.97,0.008579,1556935.0,61585759.08,2070824600.0,6145704460.0,0.030051165101090644,92.4,2014-09-30 00:00:00,2014-10-27 00:00:00,151.63810860130204,11.680211012423634,173.2477385895713,6.518963106113328
sz300266,2014-10-27,39.67,39.77,38.51,39.63,-0.0067670000000000004,1663898.0,65302251.28,2053209380.0,6093426770.0,0.032115710351956414,91.62,2014-09-30 00:00:00,2014-10-27 00:00:00,150.348270786227,11.580858824567668,171.7740886827619,6.463512631249836
sz300266,2014-10-24,38.2,41.14,38.2,39.9,0.039875,1985493.0,79246104.67,2067197930.0,6134941410.0,0.038322973117528226,92.24,2014-06-30 00:00:00,2014-08-22 00:00:00,203.73734788537803,14.389483398460875,1984.1823168666979,6.583478540272063
sz300266,2014-10-23,38.5,39.1,37.85,38.37,-0.008527,1255219.0,48069735.3,1987929440.0,5899691770.0,0.02422759684569086,88.71,2014-06-30 00:00:00,2014-08-22 00:00:00,195.9248447028518,13.837704914976197,1908.0969509476597,6.331028768142385
sz300266,2014-10-22,38.89,39.36,38.6,38.7,-0.004886,1165643.0,45391995.59,2005026570.0,5950431890.0,0.022498646539132895,89.47,2014-06-30 00:00:00,2014-08-22 00:00:00,197.60986401329313,13.95671381366532,1924.5072240471093,6.385477736804113
sz300266,2014-10-21,38.07,39.34,37.4,38.89,0.026392000000000002,1968859.0,76002787.74,2014870370.0,5979645900.0,0.038001912008860404,89.91,2014-06-30 00:00:00,2014-08-22 00:00:00,198.58012651142795,14.025241141884566,1933.9565356804437,6.416830369991892
sz300266,2014-10-20,39.4,39.74,37.0,37.89,-0.022194,2673522.0,101987334.51,1963060890.0,5825887970.0,0.051602957960208765,87.6,2014-06-30 00:00:00,2014-08-22 00:00:00,193.47396171387535,13.66460488963726,1884.2279905537491,6.251832019337536
sz300266,2014-10-17,38.5,41.0,37.93,38.75,0.000775,3362720.0,132500226.79,2007617040.0,5958119790.0,0.06490550608197668,89.58,2014-06-30 00:00:00,2014-08-22 00:00:00,197.8653860928194,13.974760729262513,1926.9957338712886,6.393734564256649
sz300266,2014-10-16,38.51,39.44,38.51,38.72,-0.025912,1998593.0,77924565.04,2006062760.0,5953507050.0,0.038575822503180306,89.52,2014-06-30 00:00:00,2014-08-22 00:00:00,197.71215916946306,13.963938676788002,1925.5034686830593,6.388783257232294
sz300266,2014-10-15,38.0,40.02,37.35,39.75,0.08874299999999999,3397507.0,132795315.21,2059426510.0,6111877720.0,0.0655769470744552,91.9,2014-06-30 00:00:00,2014-08-22 00:00:00,202.97155818515685,14.335397496723093,1976.7243500413304,6.558733150631457
sz300266,2014-10-14,34.8,38.2,34.72,36.51,0.051253,3408715.0,124839726.95,1891563820.0,5613702020.0,0.06579327820406292,84.41,2014-06-30 00:00:00,2014-08-22 00:00:00,186.42742886535837,13.166925065624387,1815.6023506386084,6.024133473768793
sz300266,2014-10-13,33.88,34.8,33.51,34.73,0.024484,2494883.0,85211964.83,1799342960.0,5340012910.0,0.04815495906905929,80.29,2014-06-30 00:00:00,2014-08-22 00:00:00,177.33830853786705,12.524982155222755,1727.0841088097807,5.730431659903746
sz300266,2014-10-10,34.03,34.58,33.5,33.9,-0.0038200000000000005,3043501.0,104078040.76,1756341100.0,5212393830.0,0.05874410380762598,78.37,2014-06-30 00:00:00,2014-08-22 00:00:00,173.10012507551806,12.225649356381119,1685.8087669595432,5.593480874180315
sz300266,2014-10-09,33.88,35.0,33.5,34.03,0.004427,2796407.0,96059686.01,1763076330.0,5232382360.0,0.05397482150418298,78.67,2014-06-30 00:00:00,2014-08-22 00:00:00,173.7639031856874,12.272530422595436,1692.2732507775133,5.614929906422851
sz300266,2014-10-08,32.9,33.88,32.9,33.88,0.030414,1888674.0,63168079.93,1755304910.0,5209318670.0,0.036454222144231344,78.33,2014-06-30 00:00:00,2014-08-22 00:00:00,172.9980408588055,12.218439391409666,1684.8145766466985,5.590182169956454
sz300266,2014-09-30,32.07,33.33,32.07,32.88,0.025577000000000003,2072671.0,68056289.78,1703495440.0,5055560740.0,0.040005638336196546,76.01,2014-06-30 00:00:00,2014-08-22 00:00:00,167.8917802541556,11.857796372535375,1635.0850984620731,5.425180723433934
sz300266,2014-09-29,31.43,32.35,31.43,32.06,0.020694,2367378.0,75958824.8,1661011670.0,4929479240.0,0.04569392259598032,74.12,2014-06-30 00:00:00,2014-08-22 00:00:00,163.70470501401223,11.562073225643102,1594.307495645937,5.289881426196117
sz300266,2014-09-26,30.28,31.7,30.28,31.41,0.023459999999999998,1411886.0,43954935.34,1006125120.0,4829536580.0,0.04407736013986014,72.62,2014-06-30 00:00:00,2014-08-22 00:00:00,160.38568367602065,11.327658657387133,1561.9838028301697,5.18263203878549
sz300266,2014-09-25,31.5,31.5,30.63,30.69,-0.027257999999999998,2239182.0,69430004.99,983062080.0,4718830870.0,0.06990453296703297,70.95,2014-06-30 00:00:00,2014-08-22 00:00:00,156.70928387628302,11.068003299969838,1526.1796287399306,5.063834481841488
sz300266,2014-09-24,31.57,31.75,31.31,31.55,-0.000634,1718055.0,54204236.99,1010609600.0,4851062690.0,0.053635583166833166,72.94,2014-06-30 00:00:00,2014-08-22 00:00:00,161.10056302316855,11.37814888220087,1568.945957653654,5.205732333796102
sz300266,2014-09-23,31.2,31.6,31.11,31.57,0.016747,2184373.0,68549058.16,1011250240.0,4854137850.0,0.06819346278721279,72.99,2014-06-30 00:00:00,2014-08-22 00:00:00,161.2027655765441,11.385367205008846,1569.9413004381317,5.209034861898545
sz300266,2014-09-22,30.8,31.5,30.79,31.05,0.008444,2360466.0,73476554.84,994593600.0,4774183730.0,0.07369087162837162,71.78,2014-06-30 00:00:00,2014-08-22 00:00:00,158.54756943127845,11.197837028295972,1544.0825499737216,5.123236028135362
sz300266,2014-09-19,31.31,31.35,30.6,30.79,-0.000973,1505289.0,46516992.46,986265280.0,4734206660.0,0.046993287962037965,71.18,2014-06-30 00:00:00,2014-08-22 00:00:00,157.22000371986792,11.104074225535552,1531.1534899049643,5.080337656959993
sz300266,2014-09-18,29.93,30.87,29.72,30.82,0.029048,1681292.0,50715343.45,987226240.0,4738819400.0,0.05248788711288711,71.25,2014-06-30 00:00:00,2014-08-22 00:00:00,157.37312777319121,11.114889012544756,1532.6447532498764,5.085285639887603
sz300266,2014-09-17,30.19,30.55,29.41,29.95,-0.008934000000000001,2035238.0,60860061.89,959358400.0,4605050000.0,0.06353764985014985,69.24,2014-06-30 00:00:00,2014-08-22 00:00:00,152.93079406712926,10.80113756845624,1489.3812079221536,4.941738033490763
sz300266,2014-09-16,30.8,31.39,30.16,30.22,-0.010154,2571094.0,79532303.03,968007040.0,4646564640.0,0.08026642107892108,69.86,2014-06-30 00:00:00,2014-08-22 00:00:00,154.30939419486617,10.898504810432645,1502.8072882352471,4.986285508221211
sz300266,2014-09-15,31.37,31.37,30.23,30.53,-0.021788,2879953.0,88154969.98,977936960.0,4694229600.0,0.08990862262737263,70.58,2014-06-30 00:00:00,2014-08-22 00:00:00,155.89232486150996,11.010303431475851,1518.223327906813,5.037435629604213
sz300266,2014-09-12,31.48,31.48,30.95,31.21,-0.009521,1690720.0,52644735.71,999718720.0,4798785000.0,0.05278221778221778,72.15,2014-06-30 00:00:00,2014-08-22 00:00:00,159.36455989244658,11.255539117773909,1552.039157060855,5.149635896517537
sz300266,2014-09-11,32.15,32.32,31.48,31.51,-0.019602,2241532.0,71418637.97,1009328320.0,4844912370.0,0.0699778971028971,72.85,2014-06-30 00:00:00,2014-08-22 00:00:00,160.89645504089088,11.36373322177846,1566.9581657570275,5.1991368787400205
sz300266,2014-09-10,31.98,32.25,31.81,32.14,0.0050030000000000005,1918194.0,61405932.27,1029508480.0,4941779870.0,0.05988367882117882,74.3,2014-06-30 00:00:00,2014-08-22 00:00:00,164.11340602580879,11.590938804218757,1598.2878032768606,5.303088009910281
sz300266,2014-09-09,32.09,32.48,31.63,31.98,-0.003428,2783685.0,89102845.67,1024383360.0,4917178600.0,0.086903252997003,73.93,2014-06-30 00:00:00,2014-08-22 00:00:00,163.2964339666735,11.53323801443255,1590.3313754057056,5.276688736163257
sz300266,2014-09-05,32.57,32.67,31.95,32.09,-0.039222,3836585.0,123600787.04,1027906880.0,4934091970.0,0.11977350774225776,74.19,2014-06-30 00:00:00,2014-08-22 00:00:00,163.85813966946043,11.572909949740259,1595.801783920987,5.294839445783402
sz300266,2014-09-04,34.4,34.4,31.81,33.4,0.0523,9387354.0,304447653.58,1069868800.0,5135514860.0,0.2930617507492507,77.22,2014-06-30 00:00:00,2014-08-22 00:00:00,170.54734774262155,12.045352776333617,1660.9474654092694,5.510991556617036
sz300266,2014-09-03,31.74,31.74,31.74,31.74,0.100173,1116322.0,35432060.28,1016695680.0,4880276700.0,0.03485021228771229,73.38,2014-06-30 00:00:00,2014-08-22 00:00:00,162.07103273080068,11.446690845133155,1578.3972872843005,5.237091662659922
sz300266,2014-07-18,28.7,28.96,28.21,28.85,0.005226,416563.0,11966839.28,924123200.0,4435916280.0,0.01300458916083916,66.7,2014-03-31 00:00:00,2014-04-25 00:00:00,172.23887691358084,12.994001009311463,120.07360825550435,4.796772363890684
sz300266,2014-07-17,28.69,28.79,27.85,28.7,0.000349,764736.0,21601898.01,919318400.0,4412852590.0,0.023874125874125875,66.35,2014-03-31 00:00:00,2014-04-25 00:00:00,171.34343611643635,12.926447395224022,119.4493658694705,4.771834755458657
sz300266,2014-07-16,30.02,30.5,28.6,28.69,-0.05376,1289168.0,37982894.45,918998080.0,4411315010.0,0.04024625374625375,66.33,2014-03-31 00:00:00,2014-04-25 00:00:00,171.28365811975257,12.921937638988016,119.40769258475842,4.770169966140474
sz300266,2014-07-15,31.25,31.25,30.08,30.32,-0.031310000000000004,679202.0,20892464.95,971210240.0,4661940440.0,0.021203858641358642,70.1,2014-03-31 00:00:00,2014-04-25 00:00:00,181.0150259128261,13.65608898269785,126.19176169339535,5.0411840190020225
sz300266,2014-07-14,30.2,31.61,30.19,31.3,0.036767,777964.0,24134136.89,1002601600.0,4812623210.0,0.02428708791208791,72.36,2014-03-31 00:00:00,2014-04-25 00:00:00,186.8657939204762,14.097481116454027,130.27053205194164,5.204125178335714
sz300266,2014-07-11,30.39,30.4,29.8,30.19,-0.006908,636607.0,19131032.32,967046080.0,4641951910.0,0.019874094655344655,69.8,2014-03-31 00:00:00,2014-04-25 00:00:00,180.23894850094206,13.597540350391194,125.6507316030908,5.019570625160441
sz300266,2014-07-10,30.42,30.86,30.0,30.4,-0.014906,633932.0,19388066.86,973772800.0,4674241070.0,0.019790584415584414,70.28,2014-03-31 00:00:00,2014-04-25 00:00:00,181.49270007304668,13.692125553716265,126.52476467748285,5.054487021504996
sz300266,2014-07-09,31.01,32.5,30.61,30.86,0.000973,1253277.0,39771841.76,988507520.0,4744969720.0,0.03912578046953047,71.34,2014-03-31 00:00:00,2014-04-25 00:00:00,184.23896610175944,13.899308648429756,128.43928059401725,5.130969249132566
sz300266,2014-07-08,31.0,31.0,30.04,30.83,-0.006125,646115.0,19724743.07,987546560.0,4740356980.0,0.020170922827172828,71.27,2014-03-31 00:00:00,2014-04-25 00:00:00,184.05987584256468,13.885797767202272,128.31443065299192,5.1259816689686595
sz300266,2014-07-07,31.39,31.46,29.86,31.02,-0.014299000000000001,1154689.0,35324354.91,993632640.0,4769570990.0,0.036047983266733266,71.71,2014-03-31 00:00:00,2014-04-25 00:00:00,185.19419025789426,13.971372423294952,129.10520000301034,5.15757179622051
sz300266,2014-07-04,31.28,31.9,30.78,31.47,0.0009539999999999999,936502.0,29273018.02,1008047040.0,4838762060.0,0.029236451048951048,72.75,2014-03-31 00:00:00,2014-04-25 00:00:00,187.8806963347854,14.174047123108279,130.9780552145228,5.232389737070887
sz300266,2014-07-03,29.71,31.94,29.7,31.44,0.04975,1459919.0,45256703.39,1007086080.0,4834149320.0,0.04557689185814186,72.69,2014-03-31 00:00:00,2014-04-25 00:00:00,187.70162898073775,14.160537969885008,130.85322124145847,5.227402794804644
sz300266,2014-07-02,30.05,30.28,29.35,29.95,-0.001667,795459.0,23705408.5,959358400.0,4605050000.0,0.02483326048951049,69.24,2014-03-31 00:00:00,2014-04-25 00:00:00,178.80602903618745,13.489438409035495,124.65179446673825,4.97966448659647
sz300266,2014-07-01,30.25,30.66,29.6,30.0,-0.00728,1179003.0,35406948.3,960960000.0,4612737900.0,0.036807036713286716,69.36,2014-03-31 00:00:00,2014-04-25 00:00:00,179.10459639838353,13.51196285110829,124.85993598001693,4.987979448336847
sz300266,2014-06-30,28.5,30.49,28.22,30.22,0.060351,1972471.0,58897210.32,968007040.0,4646564640.0,0.06157814060939061,69.86,2014-03-31 00:00:00,2014-04-25 00:00:00,180.41803972760044,13.611051304605818,125.77558221856809,5.024558232267755
sz300266,2014-06-27,28.27,28.88,27.91,28.5,0.008493,1246279.0,35265479.96,912912000.0,4382101010.0,0.03890731143856144,65.89,2014-03-31 00:00:00,2014-04-25 00:00:00,170.14935594685198,12.836363906485513,118.6169317693557,4.73858017983456
sz300266,2014-06-26,27.7,28.65,27.43,28.26,0.030258999999999998,714421.0,20183040.2,905224320.0,4345199100.0,0.022303352897102897,65.33,2014-03-31 00:00:00,2014-04-25 00:00:00,168.71644716111265,12.728262770773332,117.6180020777097,4.698674338676183
sz300266,2014-06-25,27.81,28.04,27.36,27.43,-0.018605,506075.0,13943734.02,878637760.0,4217580019.9999995,0.015799044705294706,63.41,2014-03-31 00:00:00,2014-04-25 00:00:00,163.7611970981206,12.354430071247455,114.16352788736589,4.560672936296778
sz300266,2014-06-24,28.01,28.35,27.8,27.95,-0.005692,533322.0,14947050.71,895294400.0,4297534140.0,0.016649662837162838,64.62,2014-03-31 00:00:00,2014-04-25 00:00:00,166.86573408069185,12.58864175102528,116.32780673160744,4.647132842837775
sz300266,2014-06-23,28.23,28.61,28.06,28.11,-0.000711,465995.0,13213609.42,900419520.0,4322135410.0,0.014547795954045954,64.99,2014-03-31 00:00:00,2014-04-25 00:00:00,167.8209710478965,12.660706492379907,116.9937350716352,4.673735746708037
sz300266,2014-06-20,27.35,28.38,27.35,28.13,0.01736,554476.0,15564311.07,901060160.0,4325210570.0,0.017310064935064935,65.03,2014-03-31 00:00:00,2014-04-25 00:00:00,167.94037665569869,12.669714659502812,117.07697680214152,4.67706113717657
sz300266,2014-06-19,28.23,28.69,26.89,27.65,-0.025379,796600.0,22156582.03,885684800.0,4251406760.0,0.02486888111888112,63.92,2014-03-31 00:00:00,2014-04-25 00:00:00,165.07468020729996,12.45352152581467,115.07920185788856,4.597252828081082
sz300266,2014-06-18,28.69,28.99,28.2,28.37,-0.019357,716352.0,20359566.56,908747840.0,4362112470.0,0.022363636363636363,65.59,2014-03-31 00:00:00,2014-04-25 00:00:00,169.3732027191082,12.777809554498281,118.07584882522393,4.716964674556655
sz300266,2014-06-17,28.61,29.18,28.31,28.93,0.008365000000000001,1217687.0,34930714.42,926685760.0,4448216910.0,0.03801470404595404,66.88,2014-03-31 00:00:00,2014-04-25 00:00:00,172.71647553605973,13.030031881631016,120.40655857965024,4.810073262702794
sz300266,2014-06-16,28.65,28.85,28.25,28.69,0.001396,746082.0,21312422.68,918998080.0,4411315010.0,0.02329177072927073,66.33,2014-03-31 00:00:00,2014-04-25 00:00:00,171.2836874902042,12.921939854746064,119.40771305990413,4.770170784093849
sz300266,2014-06-13,27.99,28.7,27.67,28.65,0.025412,1173585.0,33316355.26,917716800.0,4405164690.0,0.03663789335664336,66.23,2014-03-31 00:00:00,2014-04-25 00:00:00,171.04490879752285,12.903925974086242,119.2412522717328,4.763520908905018
sz300266,2014-06-12,28.1,28.1,27.42,27.94,-0.013069999999999998,784130.0,21803413.38,894974080.0,4295996560.0,0.024479582917082916,64.59,2014-03-31 00:00:00,2014-04-25 00:00:00,166.80603386494684,12.584137862718832,116.28618767064634,4.645470219682448
sz300266,2014-06-11,28.05,29.58,27.8,28.31,0.035479000000000004,1507885.0,43337230.23,906825920.0,4352887000.0,0.04707433191808192,65.45,2014-03-31 00:00:00,2014-04-25 00:00:00,169.0150607084057,12.750790697130325,117.82617578819811,4.7069905866499635
sz300266,2014-06-10,26.61,27.44,26.61,27.34,0.012593,632885.0,17135983.37,875754880.0,4203741809.9999995,0.019757898351648352,63.21,2014-03-31 00:00:00,2014-04-25 00:00:00,163.22403516479397,12.313905638965467,113.78905394334225,4.545713227066858
sz300266,2014-06-09,28.1,28.1,26.87,27.0,-0.035344,874396.0,23946956.94,864864000.0,4151464110.0,0.02729757742257742,62.42,2014-03-31 00:00:00,2014-04-25 00:00:00,161.19411764133662,12.160765123761934,112.3739290547557,4.489180971097823
sz300266,2014-06-06,31.08,31.08,30.56,30.84,-0.005161,706038.0,21741029.76,898060800.0,4310813260.0,0.02424581043956044,64.71,2014-03-31 00:00:00,2014-04-25 00:00:00,167.10010370674792,12.60632300401587,116.49119380873151,4.653659927578144
sz300266,2014-06-05,30.86,31.12,29.9,31.0,0.004536999999999999,778284.0,23835845.57,902720000.0,4333178050.0,0.026726785714285713,65.04,2014-03-31 00:00:00,2014-04-25 00:00:00,167.96698129722287,12.67172176001933,117.09552380709995,4.677802064030606
sz300266,2014-06-04,29.55,32.0,29.03,30.86,0.047878,1251855.0,38718056.82,898643200.0,4313608860.0,0.042989526098901096,64.75,2014-03-31 00:00:00,2014-04-25 00:00:00,167.20835698159738,12.614489819707318,116.56666086674753,4.656674730777071
sz300266,2014-06-03,29.79,29.95,29.09,29.45,-0.015378999999999999,426011.0,12612646.07,857584000.0,4116519140.0,0.014629498626373626,61.79,2014-03-31 00:00:00,2014-04-25 00:00:00,159.56853467827108,12.038128312367773,111.24067960845395,4.443909243993166
sz300266,2014-05-30,29.27,30.24,28.52,29.91,0.018039,605856.0,17909854.79,870979200.0,4180817920.0,0.020805494505494505,62.76,2014-03-31 00:00:00,2014-04-25 00:00:00,162.06086877922684,12.226154339962049,112.97817089870514,4.513319585904796
sz300266,2014-05-29,30.16,30.66,29.2,29.38,-0.025862,692113.0,20571749.33,855545600.0,4106734550.0,0.02376761675824176,61.64,2014-03-31 00:00:00,2014-04-25 00:00:00,159.18925382939835,12.009514704212759,110.97626996480996,4.43334644930577
sz300266,2014-05-28,29.24,30.75,28.92,30.16,0.032523,1250094.0,37621332.63,878259200.0,4215762900.0000005,0.0429290521978022,63.28,2014-03-31 00:00:00,2014-04-25 00:00:00,163.41550563616073,12.328350504972354,113.9225345534308,4.551045590363757
sz300266,2014-05-27,28.98,29.53,28.8,29.21,-0.005109000000000001,979452.0,28543074.57,850595200.0,4082971960.0,0.03363502747252747,61.29,2014-03-31 00:00:00,2014-04-25 00:00:00,158.26815057500968,11.94002506963269,110.33413740268333,4.407694153412328
sz300266,2014-05-26,27.49,29.8,27.31,29.36,0.070361,1565065.0,44202245.33,854963200.0,4103938950.0,0.05374536401098901,61.6,2014-03-31 00:00:00,2014-04-25 00:00:00,159.0808948668846,12.00133991525975,110.90072922831075,4.430328702754702
sz300266,2014-05-23,27.08,27.43,26.5,27.43,0.025037,862109.0,23393943.1,798761600.0,3834163670.0,0.029605391483516482,57.55,2014-03-31 00:00:00,2014-04-25 00:00:00,148.62359042125468,11.212422645499743,103.6105848665177,4.139097652805644
sz300266,2014-05-22,27.08,27.36,26.73,26.76,-0.00037400000000000004,707802.0,19160280.67,779251200.0,3740511110.0,0.024306387362637363,56.15,2014-03-31 00:00:00,2014-04-25 00:00:00,144.99339089345523,10.938554067316343,101.0798486947473,4.037998289628222
sz300266,2014-05-21,26.5,26.8,26.01,26.77,0.011715999999999999,412187.0,10931692.24,779542400.0,3741908910.0,0.014154773351648352,56.17,2014-03-31 00:00:00,2014-04-25 00:00:00,145.0476387103329,10.942646617151157,101.11766670209389,4.039509066018913
sz300266,2014-05-20,26.27,27.26,26.1,26.46,0.025581,828335.0,22065995.82,770515200.0,3698577130.0,0.028445570054945055,55.52,2014-03-31 00:00:00,2014-04-25 00:00:00,143.36793992615802,10.815927213912952,99.94669126720729,3.9927302385441292
sz300266,2014-05-19,26.1,26.2,25.23,25.8,-0.009217,678030.0,17370464.98,751296000.0,3606322370.0,0.023283997252747254,54.13,2014-03-31 00:00:00,2014-04-25 00:00:00,139.79192275028302,10.54614624677422,97.45372746492697,3.893139828588994
sz300266,2014-05-16,28.0,28.67,26.0,26.04,-0.07331,1540368.0,40810295.7,758284800.0,3639869560.0,0.052897252747252745,54.64,2014-03-31 00:00:00,2014-04-25 00:00:00,141.09237113503465,10.64425433901694,98.3603144835216,3.929356709379344
sz300266,2014-05-15,29.1,29.28,28.1,28.1,-0.033035,399054.0,11398228.98,818272000.0,3927816230.0,0.013703777472527472,58.96,2014-03-31 00:00:00,2014-04-25 00:00:00,152.2541207254148,11.486316178028185,106.1415516337951,4.240206227950386
sz300266,2014-05-14,28.85,29.3,28.44,29.06,0.009378000000000001,380935.0,11050039.17,846227200.0,4062004970.0,0.013081559065934067,60.97,2014-03-31 00:00:00,2014-04-25 00:00:00,157.45566874231724,11.878730024383701,109.76772854632289,4.385066913435736
sz300266,2014-05-13,29.02,29.29,28.68,28.79,-0.015390000000000001,559448.0,16179812.79,838364800.0,4024264390.0,0.019211813186813188,60.41,2014-03-31 00:00:00,2014-04-25 00:00:00,155.99276855877307,11.768366285359598,108.7478908261552,4.344325825840999
sz300266,2014-05-12,29.21,29.79,28.3,29.24,0.001713,938990.0,27013439.84,851468800.0,4087165360.0,0.03224553571428571,61.35,2014-03-31 00:00:00,2014-04-25 00:00:00,158.4310219871554,11.95231237277663,110.44768063106733,4.41223004625283
sz300266,2014-05-09,28.99,29.69,28.09,29.19,0.02963,1070101.0,31189990.99,850012800.0,4080176360.0,0.0367479739010989,61.25,2014-03-31 00:00:00,2014-04-25 00:00:00,158.16009374656753,11.931873074200524,110.25880729417241,4.404684821154192
sz300266,2014-05-08,28.73,29.18,28.01,28.35,-0.003515,519682.0,14866037.74,825552000.0,3962761210.0,0.017846222527472526,59.48,2014-03-31 00:00:00,2014-04-25 00:00:00,153.60866888743288,11.588505651739485,107.08585345626332,4.2779297622973225
sz300266,2014-05-07,30.35,30.38,28.45,28.45,-0.047539,880251.0,25767620.55,828464000.0,3976739210.0,0.030228399725274725,59.69,2014-03-31 00:00:00,2014-04-25 00:00:00,154.15050792278146,11.629382932748094,107.46358796797075,4.29301972663645
sz300266,2014-05-06,29.8,30.87,29.8,29.87,0.005724,564614.0,17097256.12,869814400.0,4175226720.0,0.019389217032967032,62.67,2014-03-31 00:00:00,2014-04-25 00:00:00,161.84443029455426,12.20982584352335,112.82728423312948,4.507291875086171
sz300266,2014-05-05,29.87,29.95,29.13,29.7,0.014691,480933.0,14206091.47,864864000.0,4151464130.0,0.016515556318681318,62.32,2014-03-31 00:00:00,2014-04-25 00:00:00,160.92330529504542,12.140334568453522,112.1851365117363,4.481638973601277
sz300266,2014-04-30,29.18,29.98,29.07,29.27,0.005842,474389.0,13914109.76,852342400.0,4091358760.0,0.016290831043956042,61.41,2014-03-31 00:00:00,2014-04-25 00:00:00,158.5934095158481,11.964563170909686,110.56088652775702,4.416752463164921
sz300266,2014-04-29,28.3,29.43,28.3,29.1,0.010417000000000001,655717.0,19053000.67,847392000.0,4067596170.0,0.02251775412087912,61.06,2014-03-31 00:00:00,2014-04-25 00:00:00,157.67228800929777,11.895072159354736,109.91874124142461,4.391099658957293
sz300266,2014-04-28,31.7,31.8,28.62,28.8,-0.09434,1163489.0,34407908.02,838656000.0,4025662190.0,0.0399549793956044,60.43,2014-03-31 00:00:00,2014-04-25 00:00:00,156.04674902470742,11.772438665773377,108.78552245402109,4.345829156632652
sz300266,2014-04-25,32.54,32.9,31.17,31.8,-0.0296,1405143.0,44683346.9,926016000.0,4445002000.0,0.048253537087912086,66.72,2014-03-31 00:00:00,2014-04-25 00:00:00,172.30169050715216,12.998739776266344,120.11739775856402,4.798521693165925
sz300266,2014-04-24,31.2,32.94,30.66,32.77,0.060517999999999995,1600139.0,51559250.23,954262400.0,4580588540.0,0.05494982829670331,68.76,2013-09-30 00:00:00,2013-10-26 00:00:00,136.34912241289948,12.484970256625779,116.13690071176262,6.964667191384984
sz300266,2014-04-23,31.47,31.94,30.53,30.9,-0.024929,680050.0,21297319.51,899808000.0,4319200050.0,0.023353365384615386,64.83,2013-09-30 00:00:00,2013-10-26 00:00:00,128.56841884145246,11.772520840406084,109.5095988109232,6.567231476867893
sz300266,2014-04-22,32.31,32.61,31.11,31.69,-0.015533000000000002,999840.0,31707472.76,922812800.0,4429626200.0,0.034335164835164834,66.49,2013-09-30 00:00:00,2013-10-26 00:00:00,131.85544318460137,12.07350115058912,112.3093588168689,6.73513157182184
sz300266,2014-04-21,30.51,32.3,30.28,32.19,0.029421,1044227.0,33162359.53,937372800.0,4499516170.0,0.03585944368131868,67.54,2013-09-30 00:00:00,2013-10-26 00:00:00,133.93586903837445,12.263997828864879,114.08138496960174,6.841399022843671
sz300266,2014-04-18,31.15,31.95,31.01,31.27,-0.005091,659098.0,20733218.17,910582400.0,4370918630.0,0.02263385989010989,65.61,2013-09-30 00:00:00,2013-10-26 00:00:00,130.1079626686987,11.91349100986368,110.82092260562175,6.64587085637817
sz300266,2014-04-17,31.68,32.0,31.08,31.43,0.0009550000000000001,547720.0,17309713.09,915241600.0,4393283420.0,0.018809065934065936,65.95,2013-09-30 00:00:00,2013-10-26 00:00:00,130.7737317369716,11.97445294983127,111.38799890806268,6.6798781158660425
sz300266,2014-04-16,32.75,33.4,31.0,31.4,-0.040636,1425977.0,45390453.25,914368000.0,4389090020.0,0.048968990384615385,65.88,2013-09-30 00:00:00,2013-10-26 00:00:00,130.64896197828233,11.963028257845028,111.2817248608206,6.673504918668714
sz300266,2014-04-15,34.0,35.29,32.7,32.73,-0.052677,1436084.0,48411526.47,953097600.0,4574997340.0,0.049316071428571424,68.67,2013-09-30 00:00:00,2013-10-26 00:00:00,136.18288989193084,12.469748977286024,115.9953102897551,6.9561760902730505
sz300266,2014-04-14,34.66,35.3,33.41,34.55,0.000579,1645502.0,56776313.91,1006096000.0,4829396820.0,0.05650762362637362,72.49,2013-09-30 00:00:00,2013-10-26 00:00:00,143.75549827453872,13.163143908979327,122.44536476973016,7.342982372720867
sz300266,2014-04-11,33.3,34.98,32.39,34.53,0.023111000000000003,2249254.0,76110863.67,1005513600.0,4826601220.0,0.07724086538461539,72.45,2013-09-30 00:00:00,2013-10-26 00:00:00,143.67231200588728,13.155526858928006,122.37450992848156,7.338733246171333
sz300266,2014-04-10,31.16,34.14,31.1,33.75,0.086607,2470063.0,81453865.87,982800000.0,4717572870.0,0.08482359203296704,70.81,2013-09-30 00:00:00,2013-10-26 00:00:00,140.426905786261,12.858357361936296,119.61019862799007,7.172958990931905
sz300266,2014-04-09,29.6,31.2,29.6,31.06,0.048616,1180461.0,35982308.15,904467200.0,4341564840.0,0.040537809065934065,65.17,2013-09-30 00:00:00,2013-10-26 00:00:00,129.23430990805414,11.83349395129637,110.0767790268147,6.601244967989258
sz300266,2014-04-08,29.5,31.2,29.5,29.62,-0.026298000000000002,1370644.0,41451612.05,862534400.0,4140281730.0,0.04706881868131868,62.15,2013-09-30 00:00:00,2013-10-26 00:00:00,123.24274082033284,11.28486877111962,104.97339257346323,6.295197639545132
sz300266,2014-04-04,29.04,30.58,28.52,30.42,0.021491,1243427.0,36865073.39,885830400.0,4252105679.9999995,0.04270010302197802,63.83,2013-09-30 00:00:00,2013-10-26 00:00:00,126.57131321526796,11.589653478291735,107.80854160047245,6.465219994972931
sz300266,2014-04-03,29.38,31.19,29.31,29.78,-0.0033469999999999997,1148351.0,34820671.71,867193600.0,4162646520.0,0.0394351304945055,62.48,2013-09-30 00:00:00,2013-10-26 00:00:00,123.90839783734557,11.34582045097973,105.54037343498128,6.329199175492423
sz300266,2014-04-02,30.7,31.47,29.63,29.88,-0.040154,1215199.0,36993496.89,870105600.0,4176624520.0,0.04173073489010989,62.69,2013-09-30 00:00:00,2013-10-26 00:00:00,124.32451197893909,11.38392243938435,105.89480334176618,6.35045414551747
sz300266,2014-04-01,30.01,31.39,29.7,31.13,0.037321,1689594.0,51658189.69,906505600.0,4351349440.0,0.058021771978021976,65.32,2013-09-30 00:00:00,2013-10-26 00:00:00,129.5254780234945,11.860155107573872,110.32478474855985,6.616117737134364
sz300266,2014-03-31,30.0,30.05,28.52,30.01,0.004351,1461196.0,43194043.94,873891200.0,4194795910.0,0.050178434065934065,62.97,2013-09-30 00:00:00,2013-10-26 00:00:00,124.86537727809859,11.433447416541142,106.3554914520769,6.378081362600743
sz300266,2014-03-28,30.6,30.88,28.08,29.88,-0.025758,3051125.0,89536270.9,870105600.0,4176624520.0,0.10477764423076923,62.69,2013-09-30 00:00:00,2013-10-26 00:00:00,124.32444163255535,11.383915998033698,105.89474342344151,6.350450552247913
sz300266,2014-03-27,34.43,34.43,30.67,30.67,-0.10005900000000001,4292435.0,134539309.71,893110400.0,4287050670.0,0.1474050480769231,64.35,2013-09-30 00:00:00,2013-10-26 00:00:00,127.61145755629026,11.684895537283033,108.69449625805653,6.51835021714103
sz300266,2014-03-26,33.42,34.97,33.03,34.08,0.011576000000000001,1300384.0,44499192.99,992409600.0,3969638400.0,0.04465604395604396,71.51,2013-09-30 00:00:00,2013-10-26 00:00:00,141.79980416081753,12.984068441467867,120.77958028143684,7.243086176917188
sz300266,2014-03-25,32.7,34.5,32.48,33.69,0.002679,1427361.0,48035195.34,981052800.0,3924211200.0,0.04901651785714285,70.69,2013-09-30 00:00:00,2013-10-26 00:00:00,140.17711389042196,12.83548486862862,119.39743556730963,7.160199705130595
sz300266,2014-03-24,35.23,35.91,33.45,33.6,-0.047079,2140410.0,73533607.15,978432000.0,3913728000.0,0.07350309065934066,70.5,2013-09-30 00:00:00,2013-10-26 00:00:00,139.80258277117798,12.801190479334483,119.07842446815943,7.141068781863981
sz300266,2014-03-21,35.5,36.95,33.42,35.26,-0.021914,2151285.0,75416193.2,1026771200.0,4107084800.0,0.07387654532967033,73.98,2013-09-30 00:00:00,2013-10-26 00:00:00,146.70952027626421,13.433632462013623,124.9614862807719,7.493872820374388
sz300266,2014-03-20,36.84,37.76,35.8,36.05,-0.011245,2527490.0,92284298.34,1049776000.0,4199104000.0,0.08679567307692307,75.64,2013-09-30 00:00:00,2013-10-26 00:00:00,149.9965445536121,13.734612766171507,127.76124623067084,7.661772911967239
sz300266,2014-03-19,36.8,38.44,36.13,36.46,-0.034939,2941117.0,108489276.16,1061715200.0,4246860800.0,0.10099989697802197,76.5,2013-09-30 00:00:00,2013-10-26 00:00:00,151.7024384742551,13.890814980628678,129.21426059101682,7.748909398149429
sz300266,2014-03-18,39.0,40.44,37.6,37.78,-0.02352,4437323.0,172171881.52,1100153600.0,4400614400.0,0.15238059752747252,79.27,2013-09-30 00:00:00,2013-10-26 00:00:00,157.19466279774554,14.393717061023787,133.89232451732772,8.02945036443233
sz300266,2014-03-17,39.44,40.5,37.5,38.69,-0.014769999999999998,4432485.0,170080400.02,1126652800.0,4506611200.0,0.1522144574175824,81.18,2013-09-30 00:00:00,2013-10-26 00:00:00,160.98093437422733,14.740411540455293,137.11732397727317,8.222851839702123
sz300266,2014-03-14,35.0,39.27,33.35,39.27,0.1,4288042.0,158500488.29,1143542400.0,4574169600.0,0.1472541895604396,82.39,2013-09-30 00:00:00,2013-10-26 00:00:00,163.39426770827862,14.961391289805723,139.17290782586116,8.346124092549072
sz300266,2014-03-13,32.29,35.7,31.53,35.7,0.10015399999999999,3515415.0,120876452.71,1039584000.0,4158336000.0,0.12072166895604397,74.9,2013-09-30 00:00:00,2013-10-26 00:00:00,148.54024337116238,13.601264808914292,126.52082529623739,7.587385538680975
sz300266,2014-03-12,30.58,33.0,30.1,32.45,0.055628,2280704.0,73571338.17,944944000.0,3779776000.0,0.07832087912087914,68.09,2013-09-30 00:00:00,2013-10-26 00:00:00,135.01768240733784,12.36305536217138,115.00283169105178,6.896657684906817
sz300266,2014-03-11,30.08,31.08,30.0,30.74,-0.011576000000000001,979887.0,29870488.3,895148800.0,3580595200.0,0.03364996565934066,64.5,2013-09-30 00:00:00,2013-10-26 00:00:00,127.90271043145675,11.711564454686101,108.94257417485305,6.533227315784364
sz300266,2014-03-10,31.09,33.25,30.61,31.1,-0.025689,1539477.0,49069906.94,905632000.0,3622528000.0,0.05286665521978022,65.25,2013-09-30 00:00:00,2013-10-26 00:00:00,129.40065238344755,11.848725298744366,110.21846310374198,6.609741685536131
sz300266,2014-03-07,30.4,33.1,30.4,31.92,0.029677,2466693.0,79110694.67,929510400.0,3718041600.0,0.08470786401098901,66.97,2013-09-30 00:00:00,2013-10-26 00:00:00,132.81247197604006,12.16113263500501,113.12451886896687,6.784016279746539
sz300266,2014-03-06,30.79,31.58,30.0,31.0,0.0,1432587.0,44286134.63,902720000.0,3610880000.0,0.04919598214285714,65.04,2013-09-30 00:00:00,2013-10-26 00:00:00,128.98459611707366,11.81062860975336,109.86408249282725,6.5884896717577845
sz300266,2014-03-05,30.49,31.5,30.05,31.0,0.030243,1862322.0,57195197.5,902720000.0,3610880000.0,0.06395336538461538,65.04,2013-09-30 00:00:00,2013-10-26 00:00:00,128.98459611707366,11.81062860975336,109.86408249282725,6.5884896717577845
sz300266,2014-03-04,31.2,32.23,29.8,30.09,-0.066398,3291100.0,101441543.09,876220800.0,3504883200.0,0.11301854395604395,63.13,2013-09-30 00:00:00,2013-10-26 00:00:00,125.19822616321942,11.463925122280239,106.6389992388468,6.395083171404983
sz300266,2014-03-03,29.22,32.45,28.52,32.23,0.092542,3022801.0,93608971.84,938537600.0,3754150400.0,0.10380497939560439,67.62,2013-09-30 00:00:00,2013-10-26 00:00:00,134.10235428289505,12.279242249138537,114.22319065174109,6.849903032989413
sz300266,2014-02-28,27.79,29.61,27.52,29.5,0.065367,1800504.0,51438781.98,859040000.0,3436160000.0,0.06183049450549451,61.9,2013-09-30 00:00:00,2013-10-26 00:00:00,122.74343163273821,11.239148928955169,104.54810034922328,6.269693094626489
sz300266,2014-02-27,28.82,30.2,25.95,27.69,-0.039209,2936985.0,85239698.71,806332800.0,3225331200.0,0.10085800137362637,58.1,2013-09-30 00:00:00,2013-10-26 00:00:00,115.21234619876363,10.549556095650766,98.13341350841849,5.885007790391939
sz300266,2014-02-26,28.8,29.94,27.36,28.82,-0.042525,3156513.0,89705669.04,839238400.0,3356953600.0,0.10839673763736264,60.47,2013-09-30 00:00:00,2013-10-26 00:00:00,119.91405643762654,10.98007380965347,102.13814815960859,6.125169563819749
sz300266,2014-02-25,34.0,34.88,30.1,30.1,-0.09988,4129264.0,133274524.75,876512000.0,3506048000.0,0.14180164835164835,63.15,2013-09-30 00:00:00,2013-10-26 00:00:00,125.23988243831593,11.467739428865997,106.67448044033378,6.39721095988903
sz300266,2014-02-24,30.19,33.44,29.73,33.44,0.1,4677564.0,147078768.73,973772800.0,3895091200.0,0.16063063186813184,70.16,2013-09-30 00:00:00,2013-10-26 00:00:00,139.13687334834904,12.740234000873214,118.51139896939718,7.107064569045272
sz300266,2014-02-21,29.8,30.5,29.0,30.4,0.016722,3024904.0,90092828.04,885248000.0,3540992000.0,0.1038771978021978,63.78,2013-09-30 00:00:00,2013-10-26 00:00:00,126.4880666803173,11.58203090988474,107.7376354267247,6.460967790041155
sz300266,2014-02-20,30.5,30.86,28.8,29.9,-0.049285,4781428.0,142669971.03,870688000.0,3482752000.0,0.16419739010989012,62.74,2013-09-30 00:00:00,2013-10-26 00:00:00,124.40772077354214,11.391541552051338,105.9656773697478,6.354704422685018
sz300266,2014-02-19,32.1,32.8,30.52,31.45,0.04485,6481886.0,204860048.59,915824000.0,3663296000.0,0.222592239010989,65.99,2013-09-30 00:00:00,2013-10-26 00:00:00,130.85700843422282,11.982078280085345,111.45893077288966,6.684131861477958
sz300266,2014-02-18,31.7,31.8,28.7,30.1,0.019648,11209350.0,338280747.78,876512000.0,3506048000.0,0.3849364697802198,63.15,2013-09-30 00:00:00,2013-10-26 00:00:00,125.23999467313278,11.467749705781062,106.67457603760315,6.3972166928056255
sz300266,2014-02-17,29.52,29.52,29.52,29.52,0.099851,227681.0,6721143.12,859622400.0,3438489600.0,0.007818715659340659,61.94,2013-09-30 00:00:00,2013-10-26 00:00:00,122.82669575493972,11.246773107759797,104.61902150311002,6.2739461979091065
sz300266,2014-02-14,25.77,26.84,25.0,26.84,0.1,3310888.0,87230082.43,781580800.0,3126323200.0,0.11369807692307693,56.31,2013-09-30 00:00:00,2013-10-26 00:00:00,111.67575949373118,10.22572430971086,95.12108594992415,5.704360134153724
sz300266,2014-02-13,24.4,24.4,23.6,24.4,0.10009,3603539.0,87515934.15,710528000.0,2842112000.0,0.12374790521978021,51.2,2013-09-30 00:00:00,2013-10-26 00:00:00,101.5234177215738,9.296113008828053,86.47371449993105,5.185781940139749
sz300266,2014-02-12,20.18,22.18,20.18,22.18,0.100198,2832845.0,61969242.43,645881600.0,2583526400.0,0.0972817651098901,46.54,2013-09-30 00:00:00,2013-10-26 00:00:00,92.28646539971619,8.450320436353437,78.60603632423806,4.713961530547272
sz300266,2014-02-11,19.75,21.15,19.7,20.16,0.01154,6078965.0,124028593.51,587059200.0,2348236800.0,0.2087556662087912,42.3,2013-09-30 00:00:00,2013-10-26 00:00:00,83.88168802317055,7.68072695674182,71.44717253097902,4.284648336524218
sz300266,2014-02-10,18.99,19.95,18.85,19.93,0.042364,4862127.0,94485067.2,580361600.0,2321446400.0,0.16696864697802197,41.82,2013-09-30 00:00:00,2013-10-26 00:00:00,82.92473656323085,7.593102553277002,70.63207834685629,4.235767578666407
sz300266,2014-02-07,17.84,19.55,17.65,19.12,0.071148,4069393.0,76580095.31,556774400.0,2227097600.0,0.13974563873626375,40.12,2013-09-30 00:00:00,2013-10-26 00:00:00,79.55449014282041,7.2845019141844904,67.761432999275,4.063616528071199
sz300266,2014-01-30,18.06,18.65,17.71,17.85,-0.026718000000000002,1504913.0,27362093.24,519792000.0,2079168000.0,0.051679704670329674,37.45,2013-09-30 00:00:00,2013-10-26 00:00:00,74.27030638419753,6.800649316606567,63.26056996724543,3.793702203683524
sz300266,2014-01-29,17.97,18.53,17.87,18.34,0.016066,1677132.0,30555741.24,534060800.00000006,2136243200.0000002,0.05759381868131867,38.48,2013-09-30 00:00:00,2013-10-26 00:00:00,76.30913382164422,6.987336986203964,64.99716420035038,3.897844821627775
sz300266,2014-01-28,18.55,18.78,17.6,18.05,-0.019022,2406536.0,43430462.27,525616000.0,2102464000.0,0.08264203296703297,37.87,2013-09-30 00:00:00,2013-10-26 00:00:00,75.10253647070587,6.876853458539077,63.96943131681446,3.836212235846663
sz300266,2014-01-27,18.65,18.75,18.26,18.4,-0.023355,2641402.0,48820005.53,535808000.0,2143232000.0,0.09070748626373626,38.61,2013-09-30 00:00:00,2013-10-26 00:00:00,76.55883870046613,7.010201511694529,65.20985314330642,3.9105996626291946
sz300266,2014-01-24,18.96,19.05,18.4,18.84,-0.00159,5262497.0,98378339.47,548620800.0,2194483200.0,0.18071761675824174,39.53,2013-09-30 00:00:00,2013-10-26 00:00:00,78.38962847346389,7.177839964055035,66.76924895259428,4.004115786830625
sz300266,2014-01-23,17.66,18.87,17.2,18.87,0.10029199999999999,7415755.0,138620941.98,549494400.0,2197977600.0,0.2546619162087912,39.59,2013-09-30 00:00:00,2013-10-26 00:00:00,78.5144664751594,7.189270904793657,66.87558112658554,4.010492469857699
sz300266,2014-01-15,16.32,17.25,16.32,17.15,0.026331999999999998,2303283.0,38996009.64,499408000.0,1997632000.0,0.07909625686813186,35.98,2013-09-30 00:00:00,2013-10-26 00:00:00,71.35784544026438,6.533966351471842,60.77984855527944,3.644934680846264
sz300266,2014-01-14,15.87,16.79,15.61,16.71,0.054924,1880890.0,30673429.56,486595200.0,1946380800.0,0.06459100274725274,35.06,2013-09-30 00:00:00,2013-10-26 00:00:00,69.52705892466024,6.366328197378473,59.2204555205133,3.551418723031402
sz300266,2014-01-13,15.7,16.09,15.66,15.84,-0.003147,1321391.0,20975879.16,461260800.0,1845043200.0,0.04537743818681319,33.24,2013-09-30 00:00:00,2013-10-26 00:00:00,65.90717333633535,6.034869049693127,56.13717719998151,3.366516187925767
sz300266,2014-01-10,16.5,16.73,15.88,15.89,-0.05416699999999999,2330062.0,37925074.28,462716800.0,1850867200.0,0.08001586538461539,33.34,2013-09-30 00:00:00,2013-10-26 00:00:00,66.1152379902908,6.05392073825642,56.31439861241478,3.377144060283479
sz300266,2014-01-09,17.18,17.8,16.8,16.8,-0.036697,2803170.0,48430950.58,489216000.0,1956864000.0,0.09626270604395605,35.25,2013-09-30 00:00:00,2013-10-26 00:00:00,69.90159784051814,6.400623300578876,59.53947326051721,3.570550044546425
sz300266,2014-01-08,16.85,18.01,16.78,17.44,0.040573000000000005,3746409.0,65553123.31,507852800.0,2031411200.0,0.12865415521978024,36.59,2013-09-30 00:00:00,2013-10-26 00:00:00,72.56449719404812,6.644454860598249,61.80762777705167,3.7065700455063717
sz300266,2014-01-07,16.21,16.8,16.06,16.76,0.025704,1681876.0,27939554.43,488051200.0,1952204800.0,0.057756730769230775,35.17,2013-09-30 00:00:00,2013-10-26 00:00:00,69.73513361777417,6.385380805189303,59.39768548391287,3.5620471081859435
sz300266,2014-01-06,17.12,17.12,16.01,16.34,-0.04723,2615645.0,43099990.56,475820800.0,1903283200.0,0.0898229739010989,34.28,2013-09-30 00:00:00,2013-10-26 00:00:00,67.98758083986625,6.2253640477070435,57.90918772268889,3.4727827016234163
sz300266,2014-01-03,17.08,17.99,17.01,17.15,-0.004065,3120546.0,54377783.87,499408000.0,1997632000.0,0.10716160714285713,35.98,2013-09-30 00:00:00,2013-10-26 00:00:00,71.35781021638617,6.533963126155361,60.779818552944455,3.6449328816224438
sz300266,2014-01-02,16.55,17.43,16.24,17.22,0.017129,3400047.0,57819502.09,501446400.0,2005785600.0,0.11675985576923076,36.13,2013-09-30 00:00:00,2013-10-26 00:00:00,71.64906366016474,6.560632095624071,61.02789695406271,3.6598100093102897
sz300266,2013-12-31,16.8,17.47,16.56,16.93,-0.00118,4160646.0,70986098.13,493001600.0,1972006400.0,0.14287932692307692,35.52,2013-09-30 00:00:00,2013-10-26 00:00:00,70.4424548510216,6.450147518774976,60.0001543108718,3.5981768382479413
sz300266,2013-12-30,17.32,17.45,16.54,16.95,-0.004698,5899429.0,100265472.31,493584000.0,1974336000.0,0.20259028159340658,35.56,2013-09-30 00:00:00,2013-10-26 00:00:00,70.52567514769588,6.457767684642854,60.07103813587213,3.6024277029374074
sz300266,2013-12-27,15.41,17.03,15.3,17.03,0.100129,4278555.0,71896096.78,495913600.0,1983654400.0,0.14692839972527474,35.73,2013-09-30 00:00:00,2013-10-26 00:00:00,70.85856870346475,6.488249480703198,60.35458397136962,3.619431793503286
sz300266,2013-12-26,15.93,16.09,15.48,15.48,-0.030683,1902342.0,30021073.2,450777600.0,1803110400.0,0.06532767857142857,32.48,2013-09-30 00:00:00,2013-10-26 00:00:00,64.40932718205296,5.897716977466459,54.8613698678697,3.2900067114886395
sz300266,2013-12-25,15.09,16.3,14.9,15.97,0.058316999999999994,2970976.0,46964153.92,465046400.0,1860185600.0,0.10202527472527473,33.51,2013-09-30 00:00:00,2013-10-26 00:00:00,66.44815595110059,6.084404768993486,56.597965235180745,3.394149397450617
sz300266,2013-12-24,14.7,15.27,14.7,15.09,0.009365,1669442.0,25045813.6,439420800.0,1757683200.0,0.05732973901098901,31.66,2013-09-30 00:00:00,2013-10-26 00:00:00,62.786628156876056,5.749132602985198,53.479217696758866,3.207119792510767
sz300266,2013-12-23,15.53,15.65,14.58,14.95,-0.029220999999999997,2356051.0,35261778.9,435344000.0,1741376000.0,0.08090834478021978,31.37,2013-09-30 00:00:00,2013-10-26 00:00:00,62.20408688321474,5.695791515443074,52.98303160577082,3.1773637807044692
sz300266,2013-12-20,16.02,16.3,15.3,15.4,-0.038702,3962696.0,62784303.01,448448000.0,1793792000.0,0.1360815934065934,32.31,2013-09-30 00:00:00,2013-10-26 00:00:00,64.07646527501598,5.867238079360053,54.57785098953604,3.273004237529313
sz300266,2013-12-19,14.8,16.02,14.79,16.02,0.100275,3442151.0,54950159.01,466502400.0,1866009600.0,0.1182057348901099,33.61,2013-09-30 00:00:00,2013-10-26 00:00:00,66.65619326682878,6.103453954299346,56.775163361971046,3.404775873380901
sz300266,2013-12-18,14.42,14.6,14.23,14.56,0.0034460000000000003,537623.0,7775166.0,423987200.0,1695948800.0,0.018462328296703297,30.55,2013-09-30 00:00:00,2013-10-26 00:00:00,60.581393984984466,5.547207701983001,51.60088465335579,3.0944771746889645
sz300266,2013-12-17,14.51,14.78,14.2,14.51,-0.012253,702950.0,10140910.94,422531200.0,1690124800.0,0.024139766483516484,30.44,2013-09-30 00:00:00,2013-10-26 00:00:00,60.37334742974158,5.528157670649941,51.42367865670479,3.083850226807386
sz300266,2013-12-16,14.9,15.24,14.55,14.69,-0.020666999999999998,994482.0,14737562.7,427772800.0,1711091200.0,0.03415116758241758,30.82,2013-09-30 00:00:00,2013-10-26 00:00:00,61.12227871078482,5.596734457963366,52.06158931052667,3.1221053840785
sz300266,2013-12-13,14.68,15.08,14.48,15.0,0.017639,1234691.0,18408149.19,436800000.0,1747200000.0,0.042400103021978025,31.47,2013-09-30 00:00:00,2013-10-26 00:00:00,62.412150627809766,5.714843120739693,53.160252243646106,3.1879916066123575
sz300266,2013-12-12,14.55,14.89,14.52,14.74,0.010974,957784.0,14116443.47,429228800.0,1716915200.0,0.03289093406593407,30.93,2013-09-30 00:00:00,2013-10-26 00:00:00,61.330344678033924,5.615786266779962,52.238811841572605,3.1327333235188095
sz300266,2013-12-11,14.56,14.72,14.41,14.58,0.002751,973016.0,14185112.53,424569600.0,1698278400.0,0.03341401098901099,30.59,2013-09-30 00:00:00,2013-10-26 00:00:00,60.66461123434818,5.554827588820248,51.67176588277503,3.0987278837228347
sz300266,2013-12-10,14.62,14.68,14.36,14.54,-0.005472,1104454.0,16041239.47,423404800.0,1693619200.0,0.03792767857142857,30.51,2013-09-30 00:00:00,2013-10-26 00:00:00,60.49818073913482,5.539588181732302,51.53000683397476,3.090226670153243
sz300266,2013-12-09,14.2,14.74,14.2,14.62,0.039829,1692048.0,24560481.51,425734400.0,1702937600.0,0.058106043956043955,30.68,2013-09-30 00:00:00,2013-10-26 00:00:00,60.83104823507716,5.570067591593502,51.813530472721496,3.1072294295919707
sz300266,2013-12-06,14.25,14.51,14.04,14.06,-0.013333000000000001,1974986.0,28228406.66,409427200.0,1637708800.0,0.06782232142857143,29.5,2013-09-30 00:00:00,2013-10-26 00:00:00,58.501011450033765,5.356714990246956,49.82889539791782,2.988211936377972
sz300266,2013-12-05,14.65,14.98,14.23,14.25,-0.027967000000000002,1700879.0,24670801.83,414960000.0,1659840000.0,0.05840930631868132,29.9,2013-09-30 00:00:00,2013-10-26 00:00:00,59.29154562789043,5.4291011964998885,50.502241787672865,3.0285921555884325
sz300266,2013-12-04,14.5,14.99,14.36,14.66,-0.003399,2275334.0,33520901.43,426899200.0,1707596800.0,0.07813646978021978,30.76,2013-09-30 00:00:00,2013-10-26 00:00:00,60.997461637506575,5.5853054335602685,51.95527496255051,3.1157297700679223
sz300266,2013-12-03,14.2,14.8,13.7,14.71,-0.033509,2000011.0,28467823.45,428355200.0,1713420800.0,0.06868169642857143,30.86,2013-09-30 00:00:00,2013-10-26 00:00:00,61.20549912904621,5.604354634964514,52.13247323909019,3.1263562549785946
sz300266,2013-12-02,15.49,16.03,15.22,15.22,-0.099941,2403679.0,37260831.51,443206400.0,1772825600.0,0.0825439217032967,31.93,2013-09-30 00:00:00,2013-10-26 00:00:00,63.327541724699145,5.798661999919826,53.939946920447454,3.2347494751410975
sz300266,2013-11-29,16.7,17.18,16.51,16.91,0.032357,2425236.0,40881614.21,492419200.0,1969676800.0,0.0832842032967033,35.48,2013-09-30 00:00:00,2013-10-26 00:00:00,70.35932280517073,6.442535433699155,59.92934565450428,3.593930481380774
sz300266,2013-11-28,16.5,16.58,16.22,16.38,-0.007873999999999999,1735240.0,28431816.57,476985600.0,1907942400.0,0.05958928571428571,34.37,2013-09-30 00:00:00,2013-10-26 00:00:00,68.15406182664594,6.240608078115569,58.05098977824946,3.481286494285188
sz300266,2013-11-27,15.95,16.73,15.95,16.51,0.02738,2099964.0,34551727.96,480771200.0,1923084800.0,0.07211414835164837,34.64,2013-09-30 00:00:00,2013-10-26 00:00:00,68.6949659888421,6.290136613812732,58.511710990589364,3.5089156964792663
sz300266,2013-11-26,15.86,16.25,15.76,16.07,0.010692,1271957.0,20427286.01,467958400.0,1871833600.0,0.043679842032967035,33.72,2013-09-30 00:00:00,2013-10-26 00:00:00,66.86422354809525,6.122502495486317,56.95235549707934,3.415401989993251
sz300266,2013-11-25,15.77,16.1,15.61,15.9,0.000629,1095591.0,17449474.1,463008000.0,1852032000.0,0.037623317307692306,33.36,2013-09-30 00:00:00,2013-10-26 00:00:00,66.15687424862891,6.057733211983786,56.34986276440235,3.3792708263182565
sz300266,2013-11-22,15.51,15.95,15.39,15.89,0.025161000000000003,1262113.0,19802039.6,462716800.0,1850867200.0,0.04334179258241758,33.34,2013-09-30 00:00:00,2013-10-26 00:00:00,66.11528773264507,6.053925292974505,56.314440981025285,3.3771466011061606
sz300266,2013-11-21,15.8,15.8,15.36,15.5,-0.019608,1046959.0,16303978.84,451360000.0,1805440000.0,0.035953262362637364,32.52,2013-09-30 00:00:00,2013-10-26 00:00:00,64.49258968361563,5.905341007875354,54.932289641359056,3.2942597319895714
sz300266,2013-11-20,15.5,15.87,15.45,15.81,0.014112000000000001,1092492.0,17108515.21,460387200.0,1841548800.0,0.037516895604395605,33.17,2013-09-30 00:00:00,2013-10-26 00:00:00,65.78245200248026,6.023448791784667,56.03094439913733,3.360145464252637
sz300266,2013-11-19,15.72,16.2,15.48,15.59,-0.013290999999999999,1769982.0,27985198.94,453980800.0,1815923200.0,0.060782348901098904,32.71,2013-09-30 00:00:00,2013-10-26 00:00:00,64.86704821802746,5.939628750852635,55.25123891556094,3.3133869476474365
sz300266,2013-11-18,15.8,15.96,15.51,15.8,0.016731,1676859.0,26430187.11,460096000.0,1840384000.0,0.05758444368131868,33.15,2013-09-30 00:00:00,2013-10-26 00:00:00,65.74080931462818,6.019635729331175,55.99547477073883,3.358018369800454
sz300266,2013-11-15,15.25,15.88,15.11,15.54,0.023715,2034553.0,31609650.62,452524800.0,1810099200.0,0.06986789148351648,32.61,2013-09-30 00:00:00,2013-10-26 00:00:00,64.65899959244695,5.920578529946638,55.07403115547655,3.3027598940137106
sz300266,2013-11-14,14.72,15.35,14.6,15.18,0.03055,1478713.0,22272994.4,442041600.0,1768166400.0,0.05077997939560439,31.85,2013-09-30 00:00:00,2013-10-26 00:00:00,63.1611333158613,5.783424615197236,53.79820668396629,3.226249389736119
sz300266,2013-11-13,14.76,15.18,14.72,14.73,-0.014716,1503387.0,22495869.71,428937600.0,1715750400.0,0.051627300824175826,30.91,2013-09-30 00:00:00,2013-10-26 00:00:00,61.28876164752928,5.611978666922746,52.20339302699169,3.130609276343815
sz300266,2013-11-12,14.26,14.97,14.21,14.95,0.046919,1604555.0,23499864.59,435344000.0,1741376000.0,0.05510147664835165,31.37,2013-09-30 00:00:00,2013-10-26 00:00:00,62.204158037204785,5.695798030743162,52.98309221198324,3.177367415226285
sz300266,2013-11-11,14.1,14.42,13.9,14.28,0.007051999999999999,831451.0,11794205.47,415833600.0,1663334400.0,0.028552575549450548,29.96,2013-09-30 00:00:00,2013-10-26 00:00:00,59.41639996714625,5.440533633206735,50.608587877365146,3.034969673132578
sz300266,2013-11-08,14.34,14.44,13.95,14.18,-0.021394,1177061.0,16673916.66,412921600.0,1651686400.0,0.040421050824175825,29.75,2013-09-30 00:00:00,2013-10-26 00:00:00,59.00032964250728,5.402435656953896,50.254195292164795,3.013716941262792
sz300266,2013-11-07,14.38,14.79,14.13,14.49,0.000691,1222697.0,17692774.48,421948800.0,1687795200.0,0.04198822115384616,30.4,2013-09-30 00:00:00,2013-10-26 00:00:00,60.29017770431336,5.520542135398613,51.35283790633287,3.079601945280115
sz300266,2013-11-06,14.7,14.89,14.43,14.48,-0.008219,2224736.0,32682386.64,421657600.0,1686630400.0,0.0763989010989011,30.38,2013-09-30 00:00:00,2013-10-26 00:00:00,60.24854595905565,5.516730074916846,51.31737759841237,3.0774754097719623
sz300266,2013-11-05,14.2,14.64,14.06,14.6,0.028169,1768834.0,25534158.24,425152000.0,1700608000.0,0.06074292582417582,30.63,2013-09-30 00:00:00,2013-10-26 00:00:00,60.7478323934978,5.562447833661711,51.74265044239844,3.1029787924672503
sz300266,2013-11-04,13.93,14.38,13.93,14.2,0.021583,1218190.0,17283372.47,413504000.0,1654016000.0,0.041833447802197804,29.79,2013-09-30 00:00:00,2013-10-26 00:00:00,59.083509027696614,5.410052076712788,50.325044270347036,3.017965716207404
sz300266,2013-11-01,14.45,14.58,13.86,13.9,-0.048597,1568624.0,22153551.67,404768000.0,1619072000.0,0.05386758241758242,29.16,2013-09-30 00:00:00,2013-10-26 00:00:00,57.8352508094757,5.295753821973142,49.26182627387792,2.9542051073749307
sz300266,2013-10-31,14.81,14.95,14.56,14.61,-0.022742,980690.0,14448261.12,425443200.0,1701772800.0,0.03367754120879121,30.65,2013-09-30 00:00:00,2013-10-26 00:00:00,60.78943498126,5.566257224302575,51.77808591509374,3.105103838620365
sz300266,2013-10-30,14.81,15.05,14.52,14.95,-0.001336,1265685.0,18769550.03,435344000.0,1741376000.0,0.04346445741758242,31.37,2013-09-30 00:00:00,2013-10-26 00:00:00,62.204080172543996,5.695790900972491,52.983025889881425,3.1773634379256706
sz300266,2013-10-29,15.81,16.38,14.48,14.97,-0.069608,2108359.0,31873949.67,435926400.0,1743705600.0,0.07240243818681319,31.41,2013-09-30 00:00:00,2013-10-26 00:00:00,62.287296,5.70341065761106,53.05390590817475,3.1816140743289743
sz300266,2013-10-28,15.85,16.27,15.1,16.09,0.01195,1468936.0,23271463.69,468540800.0,1874163200.0,0.05044423076923077,33.76,2013-09-30 00:00:00,2013-10-26 00:00:00,66.94736842105263,6.130115755091467,57.0231750790793,3.4196490020646935
sz300266,2013-10-25,15.94,16.8,15.69,15.9,0.000629,1502480.0,24359227.13,463008000.0,1852032000.0,0.05159615384615385,33.36,2013-06-30 00:00:00,2013-08-24 00:00:00,65.7924744445918,6.4027195474405465,57.38788251925583,3.45321673766394
sz300266,2013-10-24,16.25,16.44,15.7,15.89,-0.037552999999999996,1655164.0,26568356.25,462716800.0,1850867200.0,0.05683942307692308,33.34,2013-06-30 00:00:00,2013-08-24 00:00:00,65.75111699200383,6.398694768431203,57.35180823187798,3.4510460297112515
sz300266,2013-10-23,16.5,17.19,16.2,16.51,-0.035067,2917452.0,48385676.36,480771200.0,1923084800.0,0.10018722527472529,34.64,2013-06-30 00:00:00,2013-08-24 00:00:00,68.31661067259168,6.648360656151667,59.58957556299514,3.585699814858638
sz300266,2013-10-22,17.59,18.5,17.08,17.11,-0.014968,4924086.0,87504646.02,498243200.0,1992972800.0,0.16909635989010988,35.9,2013-06-30 00:00:00,2013-08-24 00:00:00,70.79933080596442,6.889971278992082,61.75514316848437,3.7160091061852354
sz300266,2013-10-21,16.52,18.16,16.52,17.37,0.047016,4755827.0,82629917.68,505814400.0,2023257600.0,0.16331823489010988,36.45,2013-06-30 00:00:00,2013-08-24 00:00:00,71.87515817350544,6.994667461556661,62.69354007634713,3.7724755197650786
sz300266,2013-10-18,17.0,17.08,16.0,16.59,-0.053622,4733082.0,78705758.5,483100800.0,1932403200.0,0.1625371565934066,34.81,2013-06-30 00:00:00,2013-08-24 00:00:00,68.64762159652331,6.680573612587259,59.87830183717072,3.6030734198570786
sz300266,2013-10-17,16.73,17.53,16.51,17.53,0.099749,7200621.0,124349831.41,510473600.0,2041894400.0,0.24727407280219785,36.78,2013-06-30 00:00:00,2013-08-24 00:00:00,72.53721197716274,7.059096484266604,63.2710204983323,3.8072244070097563
sz300266,2013-10-16,16.9,16.9,15.65,15.94,-0.058476,3086633.0,49814434.51,464172800.0,1856691200.0,0.10599701236263737,33.44,2013-06-30 00:00:00,2013-08-24 00:00:00,65.95797038884575,6.4188250994241445,57.532237354462055,3.461903040611772
sz300266,2013-10-15,17.37,17.64,16.88,16.93,-0.034227,2517527.0,43241560.06,493001600.0,1972006400.0,0.08645353708791209,35.52,2013-06-30 00:00:00,2013-08-24 00:00:00,70.05447592291408,6.817484312055926,61.10543900576306,3.6769142800520984
sz300266,2013-10-14,17.2,17.57,16.78,17.53,-0.016274,3613168.0,62135693.92,510473600.0,2041894400.0,0.12407857142857144,36.78,2013-06-30 00:00:00,2013-08-24 00:00:00,72.53720690360373,7.059095990523577,63.271016072889864,3.8072241407163987
sz300266,2013-10-11,18.02,18.65,17.68,17.82,0.009632,5231433.0,94645326.26,518918400.0,2075673600.0,0.17965085851648352,37.39,2013-06-30 00:00:00,2013-08-24 00:00:00,73.7372061972579,7.1758761997991085,64.31772269197913,3.870207904148512
sz300266,2013-10-10,18.55,18.55,17.3,17.65,0.046856,7229515.0,130033779.03,513968000.0,2055872000.0,0.24826631181318679,37.03,2013-06-30 00:00:00,2013-08-24 00:00:00,73.0337451638398,7.107417553919753,63.70412456417698,3.8332856963215427
sz300266,2013-08-06,16.7,16.86,16.22,16.86,0.018116,4436747.0,73774875.81,490963200.0,1963852800.0,0.1523608173076923,35.38,2013-03-31 00:00:00,2013-04-19 00:00:00,63.31130606488223,7.0041869619156,78.86635148857204,3.689886405912213
sz300266,2013-08-05,17.18,17.25,16.4,16.56,-0.023009,6261800.0,104637238.08,482227200.0,1928908800.0,0.21503434065934063,34.75,2013-03-31 00:00:00,2013-04-19 00:00:00,62.18476682900792,6.879556908953007,77.46303121507965,3.62422985780816
sz300266,2013-08-02,16.28,17.26,15.92,16.95,0.08030599999999999,9266427.0,154611007.09,493584000.0,1974336000.0,0.31821521291208793,35.56,2013-03-31 00:00:00,2013-04-19 00:00:00,63.64927295032189,7.041576543645753,79.28735394192952,3.709583668435186
sz300266,2013-08-01,14.25,15.69,14.23,15.69,0.100281,6305328.0,95978295.43,456892800.0,1827571200.0,0.21652912087912088,32.92,2013-03-31 00:00:00,2013-04-19 00:00:00,58.91781860909954,6.518131477234926,73.39342181005152,3.4338267754091767
sz300266,2013-07-31,13.89,14.9,13.82,14.26,0.035585000000000006,3317935.0,47729832.95,415251200.0,1661004800.0,0.11394007554945056,29.92,2013-03-31 00:00:00,2013-04-19 00:00:00,53.54797420758837,5.924060741969483,66.70425265005169,3.1208634661592596
sz300266,2013-07-30,13.78,14.12,13.35,13.77,-0.009353,1951730.0,26740833.25,400982400.0,1603929600.0,0.06702369505494506,28.89,2013-03-31 00:00:00,2013-04-19 00:00:00,51.70794691656249,5.720496861164929,64.41214641970643,3.0136236679357657
sz300266,2013-07-29,14.29,14.38,13.77,13.9,-0.040718,1973643.0,27735161.93,404768000.0,1619072000.0,0.06777620192307693,29.16,2013-03-31 00:00:00,2013-04-19 00:00:00,52.196137389567106,5.774505814043679,65.02028110891814,3.0420762066970024
sz300266,2013-07-26,14.1,14.6,13.74,14.49,0.020423,3320539.0,47400805.12,421948800.0,1687795200.0,0.11402949862637363,30.4,2013-03-31 00:00:00,2013-04-19 00:00:00,54.41167184369884,6.019612391396565,67.78015339484963,3.171201176189069
sz300266,2013-07-25,14.94,15.0,13.88,14.2,-0.067017,5362016.0,77821535.95,413504000.0,1654016000.0,0.18413516483516484,29.79,2013-03-31 00:00:00,2013-04-19 00:00:00,53.32266309530346,5.899134370154892,66.4235845280336,3.1077319662424987
sz300266,2013-07-24,14.38,15.64,14.11,15.22,0.036785000000000005,6895091.0,102811703.47,443206400.0,1772825600.0,0.23678197115384617,31.93,2013-03-31 00:00:00,2013-04-19 00:00:00,57.15287748576711,6.322874446967299,71.19484977543385,3.3309631217744573
sz300266,2013-07-23,14.62,14.76,14.1,14.68,0.034531,7332272.0,105780114.15,427481600.0,1709926400.0,0.25179505494505494,30.8,2013-03-31 00:00:00,2013-04-19 00:00:00,55.125100658060354,6.0985396653764266,68.66886555595794,3.2127809736584316
sz300266,2013-07-22,12.82,14.19,12.72,14.19,0.1,6139033.0,85434832.4,413212800.0,1652851200.0,0.21081844093406593,29.77,2013-03-31 00:00:00,2013-04-19 00:00:00,53.28511244038154,5.894980107291542,66.37680799894632,3.1055434526934733
sz300266,2013-07-19,13.82,14.12,12.87,12.9,-0.06657,4169067.0,56693927.71,375648000.0,1502592000.0,0.1431685096153846,27.07,2013-03-31 00:00:00,2013-04-19 00:00:00,48.44101130943776,5.359072824810493,60.34255272631483,2.82322132063043
sz300266,2013-07-18,13.63,14.15,13.35,13.82,0.025983999999999997,4350746.0,60248776.87,402438400.0,1609753600.0,0.14940748626373626,29.0,2013-03-31 00:00:00,2013-04-19 00:00:00,51.89570863314631,5.741269109424909,64.64603958123783,3.0245667276929495
sz300266,2013-07-17,13.45,13.74,13.23,13.47,-0.011013,4235150.0,57007525.71,392246400.0,1568985600.0,0.1454378434065934,28.26,2013-03-31 00:00:00,2013-04-19 00:00:00,50.58140149665717,5.595866124057402,63.00881844281961,2.9479667594162775
sz300266,2013-07-16,13.49,13.74,13.13,13.62,0.041283999999999994,7530604.0,100850168.87,396614400.0,1586457600.0,0.2586059065934066,28.58,2013-03-31 00:00:00,2013-04-19 00:00:00,51.1446576109263,5.658179656615711,63.710461758162246,2.9807942464524584
sz300266,2013-07-15,12.16,13.09,12.1,13.08,0.075658,5317291.0,67216055.76,380889600.0,1523558400.0,0.18259927884615385,27.44,2013-03-31 00:00:00,2013-04-19 00:00:00,49.11691489634558,5.433848648990775,61.18452003311513,2.8626140865051783
sz300266,2013-07-12,11.8,12.42,11.75,12.16,0.017573,4561145.0,55479414.86,354099200.0,1416396800.0,0.15663272664835165,25.51,2013-03-31 00:00:00,2013-04-19 00:00:00,45.66220387553068,5.051650849053115,56.88101611582411,2.6612678811529116
sz300266,2013-07-11,11.8,12.07,11.54,11.95,-0.00665,4261185.0,50459667.8,347984000.0,1391936000.0,0.14633190247252748,25.07,2013-03-31 00:00:00,2013-04-19 00:00:00,44.87363941017566,4.964411250154156,55.89870811806534,2.615309055127162
sz300266,2013-07-10,11.74,12.15,11.6,12.03,0.029085000000000003,1491757.0,17661710.79,350313600.0,1401254400.0,0.05122791895604396,25.24,2013-03-31 00:00:00,2013-04-19 00:00:00,45.1740468215389,4.997645593349934,56.27292305639035,2.63281729010637
sz300266,2013-07-09,11.6,11.89,11.5,11.69,0.005159,993315.0,11611549.45,340412800.0,1361651200.0,0.034111092032967034,24.53,2013-03-31 00:00:00,2013-04-19 00:00:00,43.897294024826806,4.856397278504626,54.68248303725187,2.5584060501381027
sz300266,2013-07-08,12.2,12.2,11.62,11.63,-0.081359,2319311.0,27552358.24,338665600.0,1354662400.0,0.07964666895604397,24.4,2013-03-31 00:00:00,2013-04-19 00:00:00,43.67199022724446,4.831471715922184,54.40182402709609,2.5452749765341633
sz300266,2013-07-05,13.59,13.59,12.61,12.66,-0.050975,2787501.0,36591896.9,368659200.0,1474636800.0,0.09572462225274725,26.56,2013-03-31 00:00:00,2013-04-19 00:00:00,47.53977911637348,5.25936869345281,59.21989550553054,2.7706960352674903
sz300266,2013-07-04,13.1,13.71,13.01,13.34,0.006033,3107707.0,41861522.13,388460800.0,1553843200.0,0.10672070741758241,27.99,2013-03-31 00:00:00,2013-04-19 00:00:00,50.09328428268325,5.5418652758913725,62.40077501175473,2.9195184903110984
sz300266,2013-07-03,13.4,13.47,12.75,13.26,-0.011186,2553741.0,33649985.75,386131200.0,1544524800.0,0.08769714972527473,27.82,2013-03-31 00:00:00,2013-04-19 00:00:00,49.7928838146296,5.508631700840204,62.02656872265098,2.9020106599993225
sz300266,2013-07-02,13.01,13.55,12.89,13.41,0.039535,3177271.0,42026260.77,390499200.0,1561996800.0,0.10910958104395604,28.14,2013-03-31 00:00:00,2013-04-19 00:00:00,50.35616790885808,5.570948328846683,62.728246892389244,2.934839777753271
sz300266,2013-07-01,12.33,12.98,12.3,12.9,0.027888,2012194.0,25459980.6,375648000.0,1502592000.0,0.06910006868131868,27.07,2013-03-31 00:00:00,2013-04-19 00:00:00,48.441050959186626,5.359077211298015,60.342602117667255,2.8232236314826054
sz300266,2013-06-28,12.8,13.28,12.3,12.55,-0.035357,2245157.0,28531604.94,365456000.0,1461824000.0,0.07710017170329671,26.33,2013-03-31 00:00:00,2013-04-19 00:00:00,47.126779337035394,5.21367815491378,58.70542521915546,2.7466257330395973
sz300266,2013-06-27,13.38,14.2,13.01,13.01,-0.029104,4163419.0,56766935.28,378851200.0,1515404800.0,0.14297455357142858,27.3,2013-03-31 00:00:00,2013-04-19 00:00:00,48.85411425474024,5.404774776693325,60.85715152564779,2.8472976355393627
sz300266,2013-06-26,12.55,13.44,12.51,13.4,0.05511799999999999,3499448.0,46004726.24,390208000.0,1560832000.0,0.12017335164835165,28.12,2013-03-31 00:00:00,2013-04-19 00:00:00,50.31858639312577,5.566790651824011,62.68143192025488,2.9326494655857704
sz300266,2013-06-25,12.0,12.85,11.27,12.7,0.058333,2651009.0,31908771.41,369824000.0,1479296000.0,0.09103739697802198,26.65,2013-03-31 00:00:00,2013-04-19 00:00:00,47.69000850438128,5.275988706309637,59.40703496694671,2.7794516495650448
sz300266,2013-06-24,12.11,12.6,11.66,12.0,-0.023596000000000002,1774733.0,21549187.69,349440000.0,1397760000.0,0.06094550137362637,25.18,2013-03-31 00:00:00,2013-04-19 00:00:00,45.06143955104989,4.985187749328082,56.13264914440607,2.626254354314799
sz300266,2013-06-21,11.86,12.42,11.44,12.29,-0.003244,1947815.0,23266803.4,357884800.0,1431539200.0,0.06688925137362636,25.79,2013-03-31 00:00:00,2013-04-19 00:00:00,46.150404495526324,5.105660924502645,57.489163445055596,2.689721011297372
sz300266,2013-06-20,12.6,13.0,12.28,12.33,-0.036719,1653729.0,21008206.42,359049600.0,1436198400.0,0.05679014423076923,25.87,2013-03-31 00:00:00,2013-04-19 00:00:00,46.300603653779184,5.122277593014385,57.67626524952506,2.698474863755395
sz300266,2013-06-19,12.85,12.85,12.5,12.8,-0.006211,1179427.0,14914993.75,372736000.0,1490944000.0,0.04050230082417582,26.86,2013-03-31 00:00:00,2013-04-19 00:00:00,48.06552153917619,5.317532052448231,59.87480833684568,2.8013371630452526
sz300266,2013-06-18,12.59,12.97,12.33,12.88,0.021412,2066659.0,26171884.35,375065600.0,1500262400.0,0.0709704326923077,27.02,2013-03-31 00:00:00,2013-04-19 00:00:00,48.365922282472624,5.350765657949756,60.24901496881701,2.8188450093986273
sz300266,2013-06-17,12.83,13.03,12.31,12.61,-0.011755,2217319.0,28245054.94,367203200.0,1468812800.0,0.07614419642857143,26.46,2013-03-31 00:00:00,2013-04-19 00:00:00,47.35202081282835,5.238596822780383,58.986006595592194,2.75975317442778
sz300266,2013-06-14,12.37,12.76,12.22,12.76,0.04848,2519579.0,31678232.01,371571200.0,1486284800.0,0.08652400412087913,26.77,2013-03-31 00:00:00,2013-04-19 00:00:00,47.91526474996417,5.300909008171438,59.68763474198421,2.792579951760727
sz300266,2013-06-13,12.05,12.32,11.61,12.17,-0.018548,1872215.0,22524085.56,354390400.0,1417561600.0,0.06429309752747253,25.53,2013-03-31 00:00:00,2013-04-19 00:00:00,45.69974129212209,5.055803647348006,56.927776154036515,2.6634556231503956
sz300266,2013-06-07,12.93,13.06,12.15,12.4,-0.03876,2554047.0,32038722.07,361088000.0,1444352000.0,0.08770765796703296,26.02,2013-03-31 00:00:00,2013-04-19 00:00:00,46.5633992208708,5.1513509039138,58.003627435714144,2.713791018970256
sz300266,2013-06-06,13.34,13.58,12.88,12.9,-0.046563,2043289.0,26870427.81,375648000.0,1502592000.0,0.07016789148351649,27.07,2013-03-31 00:00:00,2013-04-19 00:00:00,48.440971267186974,5.359068394900128,60.342502846026115,2.823218986902601
sz300266,2013-06-05,13.34,13.88,13.19,13.53,0.005947999999999999,2400101.0,32534546.12,393993600.0,1575974400.0,0.08242105082417582,28.39,2013-03-31 00:00:00,2013-04-19 00:00:00,50.806682840278874,5.6207892025379005,63.289449482269006,2.961096524366687
sz300266,2013-06-04,13.58,13.92,13.17,13.45,-0.008843,3693619.0,50016214.87,391664000.0,1566656000.0,0.1268413118131868,28.22,2013-03-31 00:00:00,2013-04-19 00:00:00,50.50627153717575,5.587554428795425,62.915229696036974,2.9435880625705173
sz300266,2013-06-03,14.3,14.5,13.51,13.57,-0.050385,4311118.0,59689730.28,395158400.0,1580633600.0,0.14804663461538461,28.47,2013-03-31 00:00:00,2013-04-19 00:00:00,50.95688325580686,5.637406010143121,63.47655285291531,2.9698504501007585
sz300266,2013-05-31,14.55,14.99,14.13,14.29,-0.029212000000000002,7533695.0,109473829.7,416124800.0,1664499200.0,0.25871205357142857,29.98,2013-03-31 00:00:00,2013-04-19 00:00:00,53.660571132308206,5.936517441429549,66.84451367439995,3.127425798982492
sz300266,2013-05-30,13.24,14.72,13.2,14.72,0.100149,6563012.0,95209827.38,428646400.0,1714585600.0,0.22537815934065933,30.89,2013-03-31 00:00:00,2013-04-19 00:00:00,55.27527238934577,6.11515329961799,68.85593319488906,3.2215332276279596
sz300266,2013-05-29,13.3,13.7,13.16,13.38,0.0045049999999999995,2281070.0,30631358.18,389625600.0,1558502400.0,0.07833344780219781,28.07,2013-03-31 00:00:00,2013-04-19 00:00:00,50.24344192409008,5.558477351356943,62.587825099044814,2.928269923099471
sz300266,2013-05-28,14.0,14.0,13.0,13.32,-0.042094,3701054.0,49678907.86,387878400.0,1551513600.0,0.12709663461538462,27.95,2013-03-31 00:00:00,2013-04-19 00:00:00,50.018110337021795,5.533548714398578,62.30713147176452,2.9151372298788667
sz300266,2013-05-27,18.11,18.27,17.81,18.15,0.006097999999999999,3858918.0,69665225.78,406560000.0,1626240000.0,0.172273125,29.18,2013-03-31 00:00:00,2013-04-19 00:00:00,52.216094624129916,5.776713700925328,65.04514166501151,3.043239346949352
sz300266,2013-05-24,17.8,18.17,17.5,18.04,0.002222,4514934.0,80848731.09,404096000.0,1616384000.0,0.20155955357142857,29.0,2013-03-31 00:00:00,2013-04-19 00:00:00,51.89961079748685,5.7417008093896715,64.65090047392154,3.0247941522091812
sz300266,2013-05-23,16.35,18.05,16.2,18.0,0.09689199999999999,7085218.0,125624963.81,403200000.0,1612800000.0,0.316304375,28.93,2013-03-31 00:00:00,2013-04-19 00:00:00,51.78454553730296,5.728971035748239,64.50756466523539,3.0180879607603717
sz300266,2013-05-22,16.81,16.9,16.13,16.41,-0.023214,2255950.0,36904161.2,367584000.0,1470336000.0,0.10071205357142857,26.38,2013-03-31 00:00:00,2013-04-19 00:00:00,47.2102499948062,5.222912589159405,58.80940390233076,2.7514905394153404
sz300266,2013-05-21,16.21,17.09,16.21,16.8,0.026895,2991185.0,49720090.64,376320000.0,1505280000.0,0.13353504464285715,27.01,2013-03-31 00:00:00,2013-04-19 00:00:00,48.332234486168105,5.347038746623523,60.207050369610904,2.81688162956404
sz300266,2013-05-20,15.68,16.49,15.6,16.36,0.042038,3238520.0,52439027.95,366464000.0,1465856000.0,0.14457678571428573,26.3,2013-03-31 00:00:00,2013-04-19 00:00:00,47.06638408617056,5.206996573771929,58.630191372643665,2.743105799097318
sz300266,2013-05-17,15.55,15.77,15.36,15.7,-0.003175,2947681.0,45933604.07,351680000.0,1406720000.0,0.13159290178571428,25.24,2013-03-31 00:00:00,2013-04-19 00:00:00,45.16762736691997,4.996935403288487,56.26492639677599,2.6324431537979596
sz300266,2013-05-16,16.1,16.45,15.5,15.75,-0.037874,3183241.0,50872277.46,352800000.0,1411200000.0,0.14210897321428573,25.32,2013-03-31 00:00:00,2013-04-19 00:00:00,45.31149135196245,5.012851205867115,56.44413653025956,2.640827782005828
sz300266,2013-05-15,15.78,16.8,15.44,16.37,0.042675,3989363.0,64554525.57,366688000.0,1466752000.0,0.1780965625,26.31,2013-03-31 00:00:00,2013-04-19 00:00:00,47.09517397093775,5.210181624721829,58.66605468541497,2.7447837206414003
sz300266,2013-05-14,15.69,15.87,15.25,15.7,-0.02545,3150955.0,48803785.4,351680000.0,1406720000.0,0.14066763392857143,25.24,2013-03-31 00:00:00,2013-04-19 00:00:00,45.16764473199966,4.996937324402934,56.26494802830697,2.6324441658631885
sz300266,2013-05-13,16.08,17.1,15.88,16.11,0.03071,6582206.0,107698039.22,360864000.0,1443456000.0,0.29384848214285714,25.9,2013-03-31 00:00:00,2013-04-19 00:00:00,46.347180475090724,5.127430428816309,57.73428559674411,2.7011894370357483
sz300266,2013-05-10,15.25,15.63,15.25,15.63,0.09992999999999999,2193263.0,34112574.79,350112000.0,1400448000.0,0.09791352678571429,25.12,2013-03-31 00:00:00,2013-04-19 00:00:00,44.96626643293528,4.974658661326958,56.014092806651824,2.6207075094214165
sz300266,2013-05-09,13.72,14.4,13.72,14.21,0.023775,1304737.0,18453689.3,318304000.0,1273216000.0,0.0582471875,22.84,2013-03-31 00:00:00,2013-04-19 00:00:00,40.88102554974888,4.522704773328265,50.925143242435276,2.382612993028117
sz300266,2013-05-08,13.76,13.88,13.59,13.88,0.013138999999999998,1007228.0,13860326.21,310912000.0,1243648000.0,0.044965535714285715,22.31,2013-03-31 00:00:00,2013-04-19 00:00:00,39.93165055773863,4.4176745606488375,49.74251494951064,2.3272818666485473
sz300266,2013-05-07,13.57,14.04,13.56,13.7,0.00958,1061763.0,14687431.38,306880000.0,1227520000.0,0.047400133928571425,22.02,2013-03-31 00:00:00,2013-04-19 00:00:00,39.41379273499355,4.360383482077817,49.097423896928895,2.2971002662502844
sz300266,2013-05-06,13.23,13.65,13.17,13.57,0.025699,942344.0,12715571.27,303968000.0,1215872000.0,0.04206892857142857,21.81,2013-03-31 00:00:00,2013-04-19 00:00:00,39.03979153211588,4.319007391269456,48.631533803095245,2.2753028648054485
sz300266,2013-05-03,12.7,13.34,12.7,13.23,0.037647,798472.0,10508416.53,296352000.0,1185408000.0,0.03564607142857143,21.27,2013-03-31 00:00:00,2013-04-19 00:00:00,38.06164530931188,4.210794191346054,47.41306543449418,2.21829490406586
sz300266,2013-05-02,12.63,12.78,12.51,12.75,0.007905,385012.0,4883615.53,285600000.0,1142400000.0,0.017188035714285715,20.5,2013-03-31 00:00:00,2013-04-19 00:00:00,36.680726016951695,4.058021843021812,45.69286610426685,2.137812670461014
sz300266,2013-04-26,13.24,13.34,12.61,12.65,-0.042392,523752.0,6782929.31,283360000.0,1133440000.0,0.023381785714285713,20.33,2013-03-31 00:00:00,2013-04-19 00:00:00,36.39303904331429,4.0261947733385695,45.33449690622315,2.1210458033852535
sz300266,2013-04-25,13.56,13.7,13.2,13.21,-0.032943,745376.0,10040710.58,295904000.0,1183616000.0,0.03327571428571428,21.23,2013-03-31 00:00:00,2013-04-19 00:00:00,38.00410924231449,4.204428924297385,47.341393248827444,2.2149416080329885
sz300266,2013-04-24,13.3,13.67,13.23,13.66,0.027068000000000002,742725.0,10023630.95,305984000.0,1223936000.0,0.03315736607142857,21.96,2013-03-31 00:00:00,2013-04-19 00:00:00,39.29872721288868,4.34765367945983,48.95408776197002,2.2903940595362924
sz300266,2013-04-23,13.96,13.96,13.29,13.3,-0.041787,603548.0,8158530.93,297920000.0,1191680000.0,0.02694410714285714,21.38,2013-03-31 00:00:00,2013-04-19 00:00:00,38.26302368770975,4.233072863198765,47.66392075497437,2.2300315651313176
sz300266,2013-04-22,13.9,13.95,13.75,13.88,-0.0071530000000000005,657103.0,9092446.34,310912000.0,1243648000.0,0.029334955357142856,22.31,2013-03-31 00:00:00,2013-04-19 00:00:00,39.931647439253844,4.41767421564805,49.742511064840876,2.3272816848981566
sz300266,2013-04-19,13.92,14.05,13.79,13.98,0.008657999999999999,912509.0,12694539.11,313152000.0,1252608000.0,0.040737008928571426,22.47,2013-03-31 00:00:00,2013-04-19 00:00:00,40.219336352180996,4.449501499876668,50.10088267864119,2.3440486649988936
sz300266,2013-04-18,13.48,13.86,13.38,13.86,0.025148,954968.0,13118929.54,310464000.0,1241856000.0,0.0426325,22.28,2012-09-30 00:00:00,2012-10-26 00:00:00,34.612423918088616,4.139757635622218,40.65741663674335,2.3872951996072667
sz300266,2013-04-17,13.39,13.58,13.31,13.52,0.010463,707871.0,9523421.91,302848000.0,1211392000.0,0.03160138392857143,21.73,2012-09-30 00:00:00,2012-10-26 00:00:00,33.76334335928922,4.038204859807773,39.66004580484316,2.3287322412054325
sz300266,2013-04-16,13.06,13.44,13.06,13.38,0.00905,277219.0,3687965.09,299712000.0,1198848000.0,0.012375848214285714,21.51,2012-09-30 00:00:00,2012-10-26 00:00:00,33.41373544532478,3.9963906247015206,39.249379546646594,2.3046190124778763
sz300266,2013-04-15,13.53,13.53,13.06,13.26,-0.019956,605813.0,8024949.68,297024000.0,1188096000.0,0.027045223214285714,21.32,2012-09-30 00:00:00,2012-10-26 00:00:00,33.11405326329199,3.9605476683033753,38.89735845265011,2.2839492715701666
sz300266,2013-04-12,13.78,13.78,13.41,13.53,-0.014566999999999998,779009.0,10549966.11,303072000.0,1212288000.0,0.0347771875,21.75,2012-09-30 00:00:00,2012-10-26 00:00:00,33.78833324145854,4.041193730386978,39.68940012147425,2.330455848482483
sz300266,2013-04-11,13.87,13.94,13.71,13.73,-0.006512,818423.0,11294297.77,307552000.0,1230208000.0,0.03653674107142857,22.07,2012-09-30 00:00:00,2012-10-26 00:00:00,34.287803677630585,4.100932006931956,40.27610210077626,2.364905425820409
sz300266,2013-04-10,13.81,13.82,13.65,13.82,0.009496,936830.0,12902420.34,309568000.0,1238272000.0,0.04182276785714286,22.22,2012-09-30 00:00:00,2012-10-26 00:00:00,34.51254939931895,4.127812320764776,40.540099226942104,2.3804066338198435
sz300266,2013-04-09,13.6,13.84,13.6,13.69,0.005878,907677.0,12445423.1,306656000.0,1226624000.0,0.04052129464285714,22.01,2012-09-30 00:00:00,2012-10-26 00:00:00,34.18790109056297,4.088983335015469,40.15875172060326,2.3580149241005848
sz300266,2013-04-08,13.93,14.09,13.5,13.61,-0.092667,2319879.0,31850918.61,304864000.0,1219456000.0,0.10356602678571429,21.88,2012-09-30 00:00:00,2012-10-26 00:00:00,33.988118927507074,4.06508874338187,39.924077990177,2.3442355077858195
sz300266,2013-04-03,15.45,15.45,14.96,15.0,-0.018325,551556.0,8330846.06,336000000.0,1344000000.0,0.024623035714285715,24.11,2012-09-30 00:00:00,2012-10-26 00:00:00,37.4593659962848,4.480261098606433,44.00157162825224,2.5836550723778586
sz300266,2013-04-02,15.55,15.85,15.15,15.28,-0.01292,744986.0,11560180.17,342272000.0,1369088000.0,0.033258303571428574,24.56,2012-09-30 00:00:00,2012-10-26 00:00:00,38.15862275833122,4.563894464671539,44.82295222782718,2.63188435314932
sz300266,2013-04-01,15.38,15.76,15.35,15.48,0.006502,549216.0,8544018.37,346752000.0,1387008000.0,0.024518571428571428,24.88,2012-09-30 00:00:00,2012-10-26 00:00:00,38.658085219365425,4.623631787364285,45.40964483914899,2.6663333804244034
sz300266,2013-03-29,15.77,15.83,15.35,15.38,-0.020382,754347.0,11738679.41,344512000.0,1378048000.0,0.03367620535714286,24.72,2012-09-30 00:00:00,2012-10-26 00:00:00,38.40835410100072,4.593763139431701,45.11629866522768,2.6491088745222595
sz300266,2013-03-28,16.03,16.03,15.65,15.7,-0.029066,938366.0,14815071.92,351680000.0,1406720000.0,0.041891339285714285,25.24,2012-09-30 00:00:00,2012-10-26 00:00:00,39.20748097830044,4.689341293679475,46.054991502021885,2.7042264173609096
sz300266,2013-03-27,16.21,16.36,15.96,16.17,-0.000618,919986.0,14863151.68,362208000.0,1448832000.0,0.04107080357142858,25.99,2012-09-30 00:00:00,2012-10-26 00:00:00,40.38120096556557,4.829721993131846,47.433699409045204,2.7851804729888023
sz300266,2013-03-26,16.52,16.75,16.01,16.18,-0.03805,1267518.0,20617897.16,362432000.0,1449728000.0,0.056585625,26.01,2012-09-30 00:00:00,2012-10-26 00:00:00,40.40617197984912,4.832708607051004,47.46303156255086,2.7869027789061667
sz300266,2013-03-25,17.1,17.1,16.68,16.82,-0.012911,1133304.0,19116765.46,376768000.0,1507072000.0,0.050593928571428574,27.04,2012-09-30 00:00:00,2012-10-26 00:00:00,42.00444095831293,5.023866736369879,49.34043511882204,2.8971389146069617
sz300266,2013-03-22,17.01,17.13,16.85,17.04,-0.001172,1297409.0,22013068.1,381696000.0,1526784000.0,0.05792004464285714,27.39,2012-09-30 00:00:00,2012-10-26 00:00:00,42.55385376426333,5.08957828156314,49.985801805938515,2.9350331273137087
sz300266,2013-03-21,16.6,17.4,16.52,17.06,0.027092,2334679.0,39760695.66,382144000.0,1528576000.0,0.10422674107142857,27.42,2012-09-30 00:00:00,2012-10-26 00:00:00,42.603785400753004,5.095550266475448,50.04445390591624,2.9384770223839425
sz300266,2013-03-20,16.09,16.63,16.09,16.61,0.031677,1385821.0,22808345.41,372064000.0,1488256000.0,0.06186700892857143,26.7,2012-09-30 00:00:00,2012-10-26 00:00:00,41.480008997006124,4.961142980838571,48.724412132424604,2.8609676858391877
sz300266,2013-03-19,16.3,16.49,15.7,16.1,-0.015892,879556.0,14173049.07,360640000.0,1442560000.0,0.03926589285714286,25.88,2012-09-30 00:00:00,2012-10-26 00:00:00,40.206391144714985,4.808814174241133,47.228359391965306,2.7731234541810927
sz300266,2013-03-18,16.12,16.58,16.03,16.36,0.015518,975072.0,15941067.11,366464000.0,1465856000.0,0.04353,26.3,2012-09-30 00:00:00,2012-10-26 00:00:00,40.85566944351126,4.886469954762215,47.99103288659914,2.8179056101373963
sz300266,2013-03-15,16.29,16.64,16.07,16.11,-0.004326,1077455.0,17651670.3,360864000.0,1443456000.0,0.04810066964285714,25.9,2012-09-30 00:00:00,2012-10-26 00:00:00,40.23135921127077,4.811800435602535,47.25768808292827,2.7748455567871733
sz300266,2013-03-14,16.1,16.36,15.65,16.18,0.0049689999999999995,533604.0,8631294.59,362432000.0,1449728000.0,0.023821607142857144,26.01,2012-09-30 00:00:00,2012-10-26 00:00:00,40.40615624317876,4.832706724894429,47.46301307750154,2.786901693513312
sz300266,2013-03-13,16.31,16.31,15.71,16.1,-0.00984,955356.0,15285283.68,360640000.0,1442560000.0,0.04264982142857143,25.88,2012-09-30 00:00:00,2012-10-26 00:00:00,40.20637078673945,4.80881173936154,47.228335478508825,2.77312205004663
sz300266,2013-03-12,16.53,16.96,15.83,16.26,-0.013947999999999999,1566865.0,25681239.44,364224000.0,1456896000.0,0.06994933035714287,26.14,2012-09-30 00:00:00,2012-10-26 00:00:00,40.605933169123624,4.856600690152642,47.69768065616549,2.8006807486129817
sz300266,2013-03-11,16.3,16.67,16.3,16.49,0.009179999999999999,817555.0,13504328.59,369376000.0,1477504000.0,0.036497991071428565,26.51,2012-09-30 00:00:00,2012-10-26 00:00:00,41.18031621975679,4.925298757218323,48.37237859277755,2.84029721415603
sz300266,2013-03-08,16.55,16.7,16.19,16.34,-0.009696999999999999,1262706.0,20676821.93,366016000.0,1464064000.0,0.05637080357142857,26.27,2012-09-30 00:00:00,2012-10-26 00:00:00,40.80571971279335,4.8804958057217975,47.932359532271306,2.8144604670683426
sz300266,2013-03-07,17.38,17.71,16.43,16.5,-0.054440999999999996,2450567.0,41669168.16,369600000.0,1478400000.0,0.1094003125,26.52,2012-09-30 00:00:00,2012-10-26 00:00:00,41.20528738456144,4.9282853891402905,48.40171092309253,2.842019530455166
sz300266,2013-03-06,17.64,17.73,17.33,17.45,-0.009648,2063288.0,36135505.75,390880000.0,1563520000.0,0.09211107142857143,28.05,2012-09-30 00:00:00,2012-10-26 00:00:00,43.577701004973186,5.212033716711798,51.188461981846224,3.0056501291354283
sz300266,2013-03-05,17.45,17.72,17.03,17.62,0.010901000000000001,2038309.0,35546015.21,394688000.0,1578752000.0,0.0909959375,28.32,2012-09-30 00:00:00,2012-10-26 00:00:00,44.00223456404711,5.262809300846363,51.68713950377867,3.0349311448206575
sz300266,2013-03-04,17.89,18.64,17.25,17.43,-0.034884,4325215.0,77721686.28,390432000.0,1561728000.0,0.19308995535714285,28.02,2012-09-30 00:00:00,2012-10-26 00:00:00,43.52773868464578,5.206058061913445,51.12977383915801,3.0022041177332475
sz300266,2013-03-01,17.59,18.29,17.43,18.06,0.024972,3634870.0,65283526.6,404544000.0,1618176000.0,0.16227098214285715,29.03,2012-09-30 00:00:00,2012-10-26 00:00:00,45.101043485597366,5.394230395013081,52.977853272723706,3.110718419063872
sz300266,2013-02-28,17.25,17.74,16.99,17.62,0.019676,2586185.0,44997224.3,394688000.0,1578752000.0,0.1154546875,28.32,2012-09-30 00:00:00,2012-10-26 00:00:00,44.00222004659383,5.262807564512086,51.68712245088033,3.034930143519893
sz300266,2013-02-27,17.26,17.56,16.8,17.28,0.004651,2326723.0,39879862.11,387072000.0,1548288000.0,0.1038715625,27.78,2012-09-30 00:00:00,2012-10-26 00:00:00,43.15313888587534,5.161254716706176,50.689750911937054,2.976367143602373
sz300266,2013-02-26,17.65,18.02,17.1,17.2,-0.043913,4227732.0,74061597.88,385280000.0,1541120000.0,0.1887380357142857,27.65,2012-09-30 00:00:00,2012-10-26 00:00:00,42.953362795513414,5.1373608513863775,50.45508431478897,2.9625881461347006
sz300266,2013-02-25,16.43,17.99,16.42,17.99,0.10030599999999999,5575733.0,97668169.66,402976000.0,1611904000.0,0.24891665178571423,28.92,2012-09-30 00:00:00,2012-10-26 00:00:00,44.92620733836295,5.373319427401877,52.772482331408106,3.098659584467419
sz300266,2013-02-22,16.41,16.68,16.16,16.35,-0.009091,1252465.0,20618190.15,366240000.0,1464960000.0,0.05591361607142858,26.28,2012-09-30 00:00:00,2012-10-26 00:00:00,40.830648327249826,4.883477348484763,47.961641880902306,2.81617984857614
sz300266,2013-02-21,16.83,17.07,16.23,16.5,-0.030552,2245508.0,37528294.8,369600000.0,1478400000.0,0.10024589285714286,26.52,2012-09-30 00:00:00,2012-10-26 00:00:00,41.20524521146727,4.9282803451020865,48.40166138454925,2.842016621683868
sz300266,2013-02-20,16.49,17.12,16.39,17.02,0.032141,3021891.0,50980227.09,381248000.0,1524992000.0,0.13490584821428572,27.36,2012-09-30 00:00:00,2012-10-26 00:00:00,42.50382198061916,5.083594318727861,49.92703206829996,2.9315823248734008
sz300266,2013-02-19,16.8,16.8,16.23,16.49,-0.011983,2221941.0,36676213.78,369376000.0,1477504000.0,0.09919379464285713,26.51,2012-09-30 00:00:00,2012-10-26 00:00:00,41.18024764118387,4.925290554999618,48.372298037089855,2.8402924841406363
sz300266,2013-02-18,16.19,16.87,16.19,16.69,0.039875,2465357.0,40936557.49,373856000.0,1495424000.0,0.11006058035714286,26.83,2012-09-30 00:00:00,2012-10-26 00:00:00,41.679695431540004,4.985026123031909,48.95897341552812,2.874740499546704
sz300266,2013-02-08,15.95,16.22,15.91,16.05,0.00627,1044720.0,16779058.58,359520000.0,1438080000.0,0.046639285714285716,25.8,2012-09-30 00:00:00,2012-10-26 00:00:00,40.08144770432985,4.793870535431575,47.08159482200083,2.7645058295917337
sz300266,2013-02-07,15.75,16.0,15.75,15.95,0.009493999999999999,1024802.0,16264548.64,357280000.0,1429120000.0,0.045750089285714286,25.64,2012-09-30 00:00:00,2012-10-26 00:00:00,39.8317029269777,4.764000253839998,46.788232603576404,2.7472803815991074
sz300266,2013-02-06,15.48,15.95,15.45,15.8,0.020672,1190871.0,18702911.03,353920000.0,1415680000.0,0.05316388392857143,25.4,2012-09-30 00:00:00,2012-10-26 00:00:00,39.45709724572677,4.719196205069073,46.34820276651116,2.7214430017405826
sz300266,2013-02-05,15.23,15.55,15.23,15.48,0.007812999999999999,675424.0,10426280.25,346752000.0,1387008000.0,0.030152857142857144,24.88,2012-09-30 00:00:00,2012-10-26 00:00:00,38.657959898700824,4.623616798608243,45.409497631473336,2.6663247367818284
sz300266,2013-02-04,15.81,15.89,15.23,15.36,-0.028463,1363225.0,21060023.8,344064000.0,1376256000.0,0.060858258928571426,24.69,2012-09-30 00:00:00,2012-10-26 00:00:00,38.35826676050103,4.587772531817155,45.05746366783653,2.6456542402031213
sz300266,2013-02-01,15.71,15.98,15.5,15.81,-0.0006320000000000001,1396634.0,22052764.77,354144000.0,1416576000.0,0.06234973214285714,25.41,2012-09-30 00:00:00,2012-10-26 00:00:00,39.48204418411345,4.722179939433243,46.377506639311235,2.7231636470902507
sz300266,2013-01-31,15.53,16.1,15.33,15.82,0.019987,1994525.0,31404550.09,354368000.0,1417472000.0,0.08904129464285715,25.43,2012-09-30 00:00:00,2012-10-26 00:00:00,39.50701261608682,4.725166244499767,46.40683575951125,2.7248857748999877
sz300266,2013-01-30,15.91,16.08,15.3,15.51,-0.025754000000000003,1755194.0,27445090.58,347424000.0,1389696000.0,0.078356875,24.93,2012-09-30 00:00:00,2012-10-26 00:00:00,38.73285896397387,4.632574968602312,45.49747767325589,2.671490690469572
sz300266,2013-01-29,15.95,16.47,15.85,15.92,0.009512,1983484.0,32040603.69,356608000.0,1426432000.0,0.08854839285714286,25.59,2012-09-30 00:00:00,2012-10-26 00:00:00,39.75675441723535,4.7550361701277835,46.70019448194387,2.742111017617288
sz300266,2013-01-28,15.26,15.77,15.13,15.77,0.033421,1164794.0,18106797.36,353248000.0,1412992000.0,0.05199973214285714,25.35,2012-09-30 00:00:00,2012-10-26 00:00:00,39.38215139318339,4.7102324391664325,46.26016776615223,2.716273821031635
sz300266,2013-01-25,15.45,15.8,15.25,15.26,-0.024297,1243621.0,19289504.17,341824000.0,1367296000.0,0.055518794642857146,24.53,2012-09-30 00:00:00,2012-10-26 00:00:00,38.108526334556196,4.5579027706679405,44.76410656078427,2.6284290923366527
sz300266,2013-01-24,16.57,16.6,15.41,15.64,-0.056126,2103941.0,33832541.94,350336000.0,1401344000.0,0.0939259375,25.14,2012-09-30 00:00:00,2012-10-26 00:00:00,39.05750657172951,4.671403870509715,45.878824356166035,2.693882351839292
sz300266,2013-01-23,16.26,16.57,16.06,16.57,0.02284,1698478.0,27850415.94,371168000.0,1484672000.0,0.07582491071428571,26.64,2012-09-30 00:00:00,2012-10-26 00:00:00,41.3800004785909,4.949181639190946,48.606937320199556,2.8540698778007356
sz300266,2013-01-22,16.93,16.99,16.06,16.2,-0.057592,2832641.0,46532704.19,362880000.0,1451520000.0,0.1264571875,26.04,2012-09-30 00:00:00,2012-10-26 00:00:00,40.45598576374692,4.838666496412875,47.521545227210076,2.790338545423268
sz300266,2013-01-21,16.9,17.49,16.74,17.19,0.018969,2616473.0,44968228.5,385056000.0,1540224000.0,0.11680683035714286,27.63,2012-09-30 00:00:00,2012-10-26 00:00:00,42.92831317619006,5.1343648360507075,50.42565982802573,2.960860418654413
sz300266,2013-01-18,16.79,17.17,16.75,16.87,0.011391,2367882.0,40103691.97,377888000.0,1511552000.0,0.10570901785714286,27.12,2012-09-30 00:00:00,2012-10-26 00:00:00,42.129165044461665,5.03878413970465,49.48694202475809,2.9057414098509504
sz300266,2013-01-17,17.22,17.35,16.51,16.68,-0.043029000000000005,3365984.0,56954842.73,373632000.0,1494528000.0,0.15026714285714285,26.81,2012-09-30 00:00:00,2012-10-26 00:00:00,41.65467662304852,4.982033792771194,48.92958512064879,2.8730148971574305
sz300266,2013-01-16,18.68,18.68,17.12,17.43,-0.034349,5497950.0,97643869.82,390432000.0,1561728000.0,0.24544419642857143,28.02,2012-09-30 00:00:00,2012-10-26 00:00:00,43.5276268800711,5.206044689725387,51.12964250813116,3.002196406325197
sz300266,2013-01-15,16.31,18.05,16.31,18.05,0.099939,5547941.0,97565110.68,404320000.0,1617280000.0,0.2476759375,29.01,2012-09-30 00:00:00,2012-10-26 00:00:00,45.07594035533655,5.391227979596549,52.94836592944154,3.1089870008162337
sz300266,2013-01-14,16.64,16.97,16.0,16.41,0.023706,4755840.0,78131847.53,367584000.0,1470336000.0,0.2123142857142857,26.38,2012-09-30 00:00:00,2012-10-26 00:00:00,40.9804001452231,4.90138814933969,48.13754756349356,2.8265085616713597
sz300266,2013-01-11,15.58,16.36,15.56,16.03,0.021019,4196988.0,66881301.8,359072000.0,1436288000.0,0.1873655357142857,25.77,2012-09-30 00:00:00,2012-10-26 00:00:00,40.031415411478584,4.7878865116934834,47.02282448622316,2.7610549920302896
sz300266,2013-01-10,15.38,15.96,15.2,15.7,0.022801,2707674.0,42231770.03,351680000.0,1406720000.0,0.12087830357142858,25.24,2012-09-30 00:00:00,2012-10-26 00:00:00,39.20731681925468,4.689321659727669,46.054798672917116,2.7042150949495456
sz300266,2013-01-09,15.32,15.71,15.11,15.35,-0.003247,2363574.0,36421651.93,343840000.0,1375360000.0,0.10551669642857144,24.67,2012-09-30 00:00:00,2012-10-26 00:00:00,38.33327970861847,4.584783999749383,45.02811267579629,2.6439308281371896
sz300266,2013-01-08,15.58,16.27,15.23,15.4,-0.012821,4111666.0,64604900.51,344960000.0,1379840000.0,0.18355651785714286,24.76,2012-09-30 00:00:00,2012-10-26 00:00:00,38.458153332489054,4.599719288278423,45.17479523592734,2.6525436373275917
sz300266,2013-01-07,14.79,15.6,14.55,15.6,0.050505,3049145.0,46635593.73,349440000.0,1397760000.0,0.13612254464285714,25.08,2012-09-30 00:00:00,2012-10-26 00:00:00,38.95762909511755,4.659458201884786,45.76150347194108,2.6869935820429642
sz300266,2013-01-04,15.18,15.3,14.62,14.85,-0.011318,1464335.0,21871802.09,332640000.0,1330560000.0,0.06537209821428572,23.87,2012-09-30 00:00:00,2012-10-26 00:00:00,37.08466794076901,4.4354460015752295,43.5614332839359,2.5578113212625966
