code,date,open,high,low,close,change,volume,money,traded_market_value,market_value,turnover,adjust_price,report_type,report_date,PE_TTM,PS_TTM,PC_TTM,PB
sz300165,2014-12-31,20.48,22.35,20.2,21.9,0.073529,9725254.0,206582620.91,1948114500.0,3370848000.0,0.10932779495250408,47.46,2014-09-30 00:00:00,2014-10-22 00:00:00,60.63559421129356,11.41806061043858,171.50912447074742,2.2941305982201885
sz300165,2014-12-30,19.28,20.46,19.15,20.4,0.063054,6071936.0,121148943.14,1814682000.0,3139968000.0,0.0682585127311562,44.21,2014-09-30 00:00:00,2014-10-22 00:00:00,56.48249298462692,10.636005744081976,159.7619854431016,2.1369991851363013
sz300165,2014-12-29,19.83,19.83,19.0,19.19,-0.030808,2245414.0,43311616.28,1707046450.0,2953724800.0,0.025242133663088077,41.59,2014-09-30 00:00:00,2014-10-22 00:00:00,53.13228959641461,10.005141548860149,150.285860777629,2.0102451852269985
sz300165,2014-12-26,19.7,19.88,19.53,19.8,0.001517,1863235.0,36689259.56,1761309000.0,3047616000.0,0.02094581529987072,42.91,2014-09-30 00:00:00,2014-10-22 00:00:00,54.82122179755363,10.323178017214492,155.06304300657558,2.0741454585128625
sz300165,2014-12-25,19.82,19.97,19.55,19.77,0.001013,2628649.0,51795915.04,1758640350.0,3042998400.0,0.02955032319712214,42.84,2014-09-30 00:00:00,2014-10-22 00:00:00,54.7381839724674,10.307541476794196,154.82816867469606,2.071003745830438
sz300165,2014-12-24,19.34,19.8,19.33,19.75,0.031869999999999996,2708725.0,53109465.52,1756861250.0,3039920000.0,0.030450508684166152,42.8,2014-09-30 00:00:00,2014-10-22 00:00:00,54.682790305887536,10.297110503853792,154.6714864589132,2.0689079420851058
sz300165,2014-12-23,19.29,19.69,18.9,19.14,-0.006745999999999999,2624577.0,50684495.48,1702598700.0,2946028800.0,0.029504547242988028,41.48,2014-09-30 00:00:00,2014-10-22 00:00:00,52.99387549389704,9.979077309984584,149.89435341555932,2.00500832671277
sz300165,2014-12-22,20.82,20.98,19.18,19.27,-0.08281799999999999,3431482.0,67729792.77,1714162850.0,2966038400.0,0.038575481985273455,41.76,2014-09-30 00:00:00,2014-10-22 00:00:00,53.35380023025031,10.046853382905665,150.91240852345857,2.0186259775573716
sz300165,2014-12-19,21.6,21.69,20.59,21.01,-0.028664,2666790.0,56540285.46,1868944550.0,3233859200.0,0.029979090551402396,45.53,2014-09-30 00:00:00,2014-10-22 00:00:00,58.17144277826026,10.954045525212731,164.5392174328089,2.2009001240292236
sz300165,2014-12-18,21.81,22.23,21.56,21.63,-0.008708,2579553.0,56556265.67,1924096650.0,3329289600.0,0.0289984036872576,46.88,2014-09-30 00:00:00,2014-10-22 00:00:00,59.88807454707769,11.277297994939682,169.39474850392543,2.2658484026425705
sz300165,2014-12-17,22.12,22.7,21.71,21.82,-0.017117,2447783.0,53817823.7,1940998100.0,3358534400.0,0.02751709291214659,47.29,2014-09-30 00:00:00,2014-10-22 00:00:00,60.41416106160212,11.376363367140744,170.88279589054025,2.285752737480551
sz300165,2014-12-16,22.1,22.42,22.0,22.2,0.004525,2782758.0,61821011.2,1974801000.0,3417024000.0,0.03128276094654601,48.11,2014-09-30 00:00:00,2014-10-22 00:00:00,61.46627936550142,11.57448380645585,173.85873587246934,2.3255593366459193
sz300165,2014-12-15,22.01,22.19,21.71,22.1,0.003633,2481488.0,54706887.25,1965905500.0,3401632000.0,0.027895992355685458,47.89,2014-09-30 00:00:00,2014-10-22 00:00:00,61.1893973425265,11.522345194450962,173.07556892309236,2.315083583430895
sz300165,2014-12-12,21.5,22.19,21.25,22.02,0.028491000000000002,3138117.0,68160436.78,1958789100.0,3389318400.0,0.03527757855095273,47.72,2014-09-30 00:00:00,2014-10-22 00:00:00,60.96790095834483,11.480636043704184,172.4490614827256,2.3067033302321613
sz300165,2014-12-11,21.19,21.94,21.04,21.41,0.009906,2605266.0,55988313.73,1904526550.0,3295427200.0,0.029287459951660953,46.4,2014-09-30 00:00:00,2014-10-22 00:00:00,59.27898344112376,11.162602340423186,167.67192078756702,2.2428036125081907
sz300165,2014-12-10,20.36,21.29,20.05,21.2,0.054202,2824120.0,58817987.9,1885846000.0,3263104000.0,0.03174773762014502,45.94,2014-09-30 00:00:00,2014-10-22 00:00:00,58.69752575103403,11.053110230480051,166.02725480150335,2.2208043248660676
sz300165,2014-12-09,21.44,21.78,20.11,20.11,-0.07752300000000001,3866335.0,81451465.84,1788885050.0,3095331200.0,0.043463942442808164,43.58,2014-09-30 00:00:00,2014-10-22 00:00:00,55.67958109644454,10.484812427295765,157.4909313409606,2.1066212403942197
sz300165,2014-12-08,21.69,22.06,21.33,21.8,-0.007737999999999999,3276085.0,71271370.41,1939219000.0,3355456000.0,0.0368285650047777,47.24,2014-09-30 00:00:00,2014-10-22 00:00:00,60.358774361251854,11.365933705984826,170.72613337889246,2.28365719730055
sz300165,2014-12-05,22.83,22.83,21.53,21.97,-0.038512,4508044.0,99409468.37,1954341350.0,3381622400.0,0.05067780338373335,47.61,2014-09-30 00:00:00,2014-10-22 00:00:00,60.82947282194809,11.454569162161633,172.0575144255171,2.301465940750074
sz300165,2014-12-04,23.17,23.25,22.79,22.85,-0.005224,3977025.0,91293463.24,2032621750.0,3517072000.0,0.04470827946714631,49.52,2014-09-30 00:00:00,2014-10-22 00:00:00,63.265971933033065,11.913377142680545,178.94920625688215,2.393650197142423
sz300165,2014-12-03,22.6,23.13,21.96,22.97,0.01234,4016359.0,90179847.97,2043296350.0,3535542400.0,0.04515045809679051,49.78,2014-09-30 00:00:00,2014-10-22 00:00:00,63.598208976727484,11.975939450369275,179.88894611136794,2.406220291947557
sz300165,2014-12-02,21.99,22.99,21.9,22.69,0.032302,3439103.0,77680549.0,2018388950.0,3492444800.0,0.03866115451632848,49.17,2014-09-30 00:00:00,2014-10-22 00:00:00,62.82297348393572,11.829957771469344,177.69617530806642,2.3768894758159878
sz300165,2014-12-01,22.57,22.61,21.89,21.98,-0.035542000000000004,3294386.0,72816543.08,1955230900.0,3383161600.0,0.037034298240683494,47.63,2014-09-30 00:00:00,2014-10-22 00:00:00,60.85716532946339,11.459783834061488,172.13584329785894,2.3025136789582774
sz300165,2014-11-28,23.2,23.29,22.68,22.79,-0.021888,2973252.0,68207496.13,2027284450.0,3507836800.0,0.03342422573211174,49.39,2014-09-30 00:00:00,2014-10-22 00:00:00,63.099860573983925,11.882097337635738,178.47935658977264,2.3873654207423
sz300165,2014-11-27,23.4,23.8,22.78,23.3,-0.002141,3817128.0,88915405.36,2072651500.0,3586336000.0,0.042910775111011185,50.49,2014-09-30 00:00:00,2014-10-22 00:00:00,64.51189697497212,12.147992599657032,182.4733329002943,2.440789419557577
sz300165,2014-11-26,22.77,23.37,22.77,23.35,0.025022,3310176.0,76398880.01,2077099250.0,3594032000.0,0.03721180372098252,50.6,2014-09-30 00:00:00,2014-10-22 00:00:00,64.65031329573829,12.174057256242646,182.86484653672943,2.4460263619986153
sz300165,2014-11-25,22.4,22.84,22.33,22.78,0.018784,2792387.0,63226243.87,2026394900.0,3506297600.0,0.03139100668877522,49.37,2014-09-30 00:00:00,2014-10-22 00:00:00,63.07212264296599,11.876874112207002,178.4008992360451,2.3863159639486913
sz300165,2014-11-24,22.85,22.94,22.2,22.36,-0.010619,2706910.0,60763900.79,1989033800.0,3441651200.0,0.03043010510932494,48.46,2014-09-30 00:00:00,2014-10-22 00:00:00,61.909219857168935,11.6578922639215,175.11160288740803,2.3423178651693504
sz300165,2014-11-21,22.49,22.77,22.12,22.6,0.0035520000000000005,1847335.0,41672735.71,2010383000.0,3478592000.0,0.020767073239278285,48.98,2014-09-30 00:00:00,2014-10-22 00:00:00,62.57368986989738,11.78301611201499,176.99107107111217,2.3674579006159915
sz300165,2014-11-20,22.3,22.57,22.14,22.52,0.004012,1664335.0,37243033.08,2003266600.0,3466278400.0,0.018709853296610644,48.8,2014-09-30 00:00:00,2014-10-22 00:00:00,62.352214802917416,11.741310975430261,176.36462392692377,2.35907845394757
sz300165,2014-11-19,22.3,22.54,22.15,22.43,0.012641,1527923.0,34150527.48,1995260650.0,3452425600.0,0.01717635883311787,48.61,2014-09-30 00:00:00,2014-10-22 00:00:00,62.103057336881854,11.69439307043169,175.65987650239614,2.349651651521665
sz300165,2014-11-18,21.78,22.2,21.7,22.15,0.013730000000000001,1712062.0,37749095.14,1970353250.0,3409328000.0,0.019246383002641785,48.0,2014-09-30 00:00:00,2014-10-22 00:00:00,61.32781245958031,11.54840962437003,173.46707915480036,2.3203204803298165
sz300165,2014-11-17,21.24,21.99,21.24,21.85,0.016279,2435006.0,52984537.33,1943666750.0,3363152000.0,0.027373458490247877,47.35,2014-09-30 00:00:00,2014-10-22 00:00:00,60.49718609450278,11.391997498712705,171.11763403943885,2.288893966174244
sz300165,2014-11-14,21.35,21.53,21.03,21.5,0.010338,2404211.0,51354867.37,1912532500.0,3309280000.0,0.027027272216289134,46.59,2014-09-30 00:00:00,2014-10-22 00:00:00,59.528127703615624,11.209517759112119,168.3766308655781,2.2522299153817444
sz300165,2014-11-13,22.5,22.5,21.25,21.28,-0.057573,4774015.0,103755038.51,1892962400.0,3275417600.0,0.05366775335843966,46.12,2014-09-30 00:00:00,2014-10-22 00:00:00,58.91902284543947,11.094819514966396,166.65376425075382,2.229184604935917
sz300165,2014-11-12,22.4,22.69,22.17,22.58,0.004895,2283016.0,51193971.31,2008603900.0,3475513600.0,0.02566484177393064,48.93,2014-09-30 00:00:00,2014-10-22 00:00:00,62.518394364167705,11.772603623374964,176.83466650547345,2.3653658107587296
sz300165,2014-11-11,24.11,24.11,22.11,22.47,-0.06686,4193052.0,96995189.37,1998818850.0,3458582400.0,0.04713677702208982,48.7,2014-09-30 00:00:00,2014-10-22 00:00:00,62.21385753155076,11.7152574382149,175.9732773130262,2.3538437456239003
sz300165,2014-11-10,24.33,24.35,23.78,24.08,-0.010275,2487208.0,59651075.72,2142036400.0,3706393600.0,0.027960294530942613,52.18,2014-09-30 00:00:00,2014-10-22 00:00:00,66.67151502620267,12.554662149532655,188.5818605064901,2.5224979591742938
sz300165,2014-11-07,24.9,25.37,24.21,24.33,-0.02485,4518394.0,112575114.03,2164275150.0,3744873600.0,0.050794154347703895,52.73,2014-09-30 00:00:00,2014-10-22 00:00:00,67.36367680537793,12.685000529978181,190.53965546640745,2.5486857047910214
sz300165,2014-11-06,24.13,24.97,24.13,24.95,0.027172,3511169.0,86802788.32,2219427250.0,3840304000.0,0.039471294474734415,54.07,2014-09-30 00:00:00,2014-10-22 00:00:00,69.0803228276449,13.008255683718588,195.39522685372248,2.61363452267961
sz300165,2014-11-05,24.27,24.39,24.02,24.29,0.0028899999999999998,1906261.0,46175689.0,2160716950.0,3738716800.0,0.021429498060817266,52.64,2014-09-30 00:00:00,2014-10-22 00:00:00,67.25292631384511,12.664145521605523,190.22639524220136,2.544495491192916
sz300165,2014-11-04,24.21,24.64,24.09,24.22,0.000413,2770806.0,67535651.84,2154490100.0,3727942400.0,0.031148400876847844,52.49,2014-09-30 00:00:00,2014-10-22 00:00:00,67.0591254413197,12.62765160845708,189.67822517145584,2.537163089863211
sz300165,2014-11-03,23.79,24.57,23.51,24.21,0.017227000000000003,2978216.0,71342545.78,2153600550.0,3726403200.0,0.03348002922826148,52.47,2014-09-30 00:00:00,2014-10-22 00:00:00,67.03144145599836,12.622438541339507,189.59992040432886,2.536115674089812
sz300165,2014-10-31,24.06,24.28,23.53,23.8,-0.010395,2303950.0,54818929.49,2117129000.0,3663296000.0,0.02590017424540498,51.58,2014-09-30 00:00:00,2014-10-22 00:00:00,65.89624681216519,12.408674309018052,186.38899715041856,2.4931659050436252
sz300165,2014-10-30,24.25,24.73,24.01,24.05,-0.017164,2452367.0,59747741.19,2139367750.0,3701776000.0,0.027568624585464562,52.12,2014-09-30 00:00:00,2014-10-22 00:00:00,66.5884335792212,12.539017394837389,188.3468627891114,2.5193545960697707
sz300165,2014-10-29,24.08,24.76,23.92,24.47,0.014931999999999999,3257779.0,79463597.51,2176728850.0,3766422400.0,0.036622775560676744,53.03,2014-09-30 00:00:00,2014-10-22 00:00:00,67.75131718742618,12.757995631862679,191.6361048935035,2.5633519692703266
sz300165,2014-10-28,23.66,24.19,23.53,24.11,0.029462000000000002,2087090.0,49984122.76,2144705049.9999998,3711011200.0,0.023462312405148674,52.25,2014-09-30 00:00:00,2014-10-22 00:00:00,66.75453841974259,12.57029597240276,188.81669401842043,2.5256391258432354
sz300165,2014-10-27,23.2,23.83,23.15,23.42,0.010790000000000001,1669069.0,39205766.53,2083326100.0,3604806400.0,0.018763071215783262,50.75,2014-09-30 00:00:00,2014-10-22 00:00:00,64.84410150131096,12.210548784124873,183.41298077871784,2.453358284077737
sz300165,2014-10-24,23.09,23.45,22.8,23.17,-0.002583,1661184.0,38492462.57,2061087350.0,3566326400.0,0.018674430892024058,50.21,2014-09-30 00:00:00,2014-10-22 00:00:00,64.15190247362058,12.08020338955161,181.4550804605485,2.42716912917395
sz300165,2014-10-23,24.35,24.35,22.9,23.23,-0.054153,3799093.0,89275471.64,2066424650.0,3575561600.0,0.04270803215108763,50.34,2014-09-30 00:00:00,2014-10-22 00:00:00,64.31803596050656,12.111487361406121,181.92499271673583,2.4334547427745363
sz300165,2014-10-22,25.1,25.24,24.32,24.56,-0.013655,2206223.0,54812202.18,2184734800.0,3780275200.0,0.024801562587825305,53.22,2014-09-30 00:00:00,2014-10-22 00:00:00,68.00046514976161,12.804911747255234,192.34082543660426,2.5727784121264183
sz300165,2014-10-21,25.09,25.36,24.84,24.9,-0.013080000000000001,1856972.0,46630402.39,2214979500.0,3832608000.0,0.020875408914619753,53.96,2014-06-30 00:00:00,2014-08-20 00:00:00,74.97684380028842,12.39544582389504,231.54283378978405,2.6495719328503413
sz300165,2014-10-20,24.45,25.29,24.4,25.23,0.029376,2585818.0,64493111.47,2244334650.0,3883401600.0,0.029068832555786635,54.68,2014-06-30 00:00:00,2014-08-20 00:00:00,75.97053844312448,12.559727053758197,234.61155290173878,2.684687647276721
sz300165,2014-10-17,24.7,25.0,23.87,24.51,-0.010497,3134130.0,76488007.09,2180287050.0,3772579200.0,0.03523275813613625,53.12,2014-06-30 00:00:00,2014-08-20 00:00:00,73.80251574072494,12.201301617444155,227.91628413887517,2.6080728978300645
sz300165,2014-10-16,25.2,25.39,24.68,24.77,-0.024803,2534803.0,63693301.15,2203415350.0,3812598400.0,0.028495340340621664,53.68,2014-06-30 00:00:00,2014-08-20 00:00:00,74.58543909490415,12.330737367591766,230.33410119916275,2.635740263374709
sz300165,2014-10-15,25.25,25.4,24.61,25.4,0.0047469999999999995,3154403.0,78958322.79,2259457000.0,3909568000.0,0.03546065988421112,55.05,2014-06-30 00:00:00,2014-08-20 00:00:00,76.48243287756642,12.644355312405358,236.19238082065755,2.7027772474430387
sz300165,2014-10-14,25.7,25.86,24.97,25.28,-0.018252,3114043.0,79088406.11,2248782400.0,3891097600.0,0.03500694733292114,54.79,2014-06-30 00:00:00,2014-08-20 00:00:00,76.12108608193547,12.584616139590718,235.07647280425573,2.6900077805089624
sz300165,2014-10-13,26.17,26.18,24.93,25.75,-0.017925,3834968.0,97625462.52,2290591250.0,3963440000.0,0.043111325951323706,55.8,2014-06-30 00:00:00,2014-08-20 00:00:00,77.53627823223016,12.818580877771813,239.44685683521206,2.7400185999960915
sz300165,2014-10-10,25.79,26.6,25.71,26.22,0.016279,5579038.0,146234181.67,2332400100.0,4035782400.0,0.0627175313360688,56.82,2014-06-30 00:00:00,2014-08-20 00:00:00,78.95148357531772,13.052547797033641,243.81728160803613,2.7900298856972143
sz300165,2014-10-09,26.24,26.24,25.29,25.8,-0.013007,6451721.0,166070679.93,2295039000.0,3971136000.0,0.07252791861053341,55.91,2014-06-30 00:00:00,2014-08-20 00:00:00,77.68681983522018,12.843468965740353,239.91175809795945,2.7453385199312534
sz300165,2014-10-08,26.58,26.6,25.79,26.14,-0.015443,4366498.0,113845976.44,2325283700.0,4023468800.0,0.049086594345455564,56.65,2014-06-30 00:00:00,2014-08-20 00:00:00,78.71060872287866,13.012725486138558,243.07341399377648,2.7815177209273556
sz300165,2014-09-30,26.65,27.1,26.13,26.55,-0.005618,5038450.0,133792495.52,2361755250.0,4086576000.0,0.0566404361755944,57.54,2014-06-30 00:00:00,2014-08-20 00:00:00,79.94520248485223,13.216833038756066,246.8860756601969,2.8251464576732026
sz300165,2014-09-29,26.08,27.18,25.7,26.7,0.017918,6776193.0,177749243.06,2375098500.0,4109664000.0,0.07617551571019054,57.86,2014-06-30 00:00:00,2014-08-20 00:00:00,80.39687211237958,13.291504712229372,248.28091785671592,2.841107801300911
sz300165,2014-09-26,24.26,26.37,24.26,26.23,0.081649,10966771.0,280529381.16,2333289650.0,4037321600.0,0.12328448091731775,56.84,2014-06-30 00:00:00,2014-08-20 00:00:00,78.98167839882933,13.057539715605156,243.91052899812743,2.791096926570618
sz300165,2014-09-25,24.2,24.98,23.98,24.25,0.016345,11779315.0,287296751.96,2157158750.0,3732560000.0,0.13241880726209881,52.55,2014-06-30 00:00:00,2014-08-20 00:00:00,73.01969344845632,12.071882575220942,225.49877917709665,2.580409103665439
sz300165,2014-09-24,23.1,24.02,22.95,23.86,0.029336,5687142.0,133850922.28,2122466299.9999998,3672531200.0,0.06393279748187287,51.71,2014-06-30 00:00:00,2014-08-20 00:00:00,71.84538070090011,11.877740900207057,221.8722768125948,2.53891060974909
sz300165,2014-09-23,22.7,23.3,22.7,23.18,0.022046,2512061.0,57820366.57,2061976900.0,3567865600.0,0.02823968298577933,50.23,2014-06-30 00:00:00,2014-08-20 00:00:00,69.7977926555567,11.539226161532342,215.54893330515478,2.4665518448291808
sz300165,2014-09-22,22.92,22.92,22.52,22.68,-0.013055,2099814.0,47611590.69,2017499400.0,3490905600.0,0.02360535102017874,49.15,2014-06-30 00:00:00,2014-08-20 00:00:00,68.2922223222406,11.29031977184231,210.89944415922065,2.4133471926206664
sz300165,2014-09-19,22.66,23.05,22.59,22.98,0.017715,2532961.0,57933374.56,2044185900.0,3537081600.0,0.028474633241526614,49.8,2014-06-30 00:00:00,2014-08-20 00:00:00,69.19557049505352,11.4396645931053,213.68915609200172,2.445270195016608
sz300165,2014-09-18,22.42,22.65,22.15,22.58,0.004895,2273408.0,51027206.97,2008603900.0,3475513600.0,0.025556832106121072,48.93,2014-06-30 00:00:00,2014-08-20 00:00:00,67.99110801654051,11.240538454385856,209.96954559184223,2.40270625373175
sz300165,2014-09-17,22.33,22.55,21.92,22.47,0.008981,3515857.0,78403115.88,1998818850.0,3458582400.0,0.03952399527851161,48.7,2014-06-30 00:00:00,2014-08-20 00:00:00,67.6599127436603,11.1857840415027,208.9467512445004,2.3910022974855583
sz300165,2014-09-16,23.48,23.52,22.2,22.27,-0.049915,4926873.0,112729193.54,1981027850.0,3427798400.0,0.05538612781743578,48.26,2014-06-30 00:00:00,2014-08-20 00:00:00,67.05766782888904,11.086218711256901,207.08690376181553,2.369719843570452
sz300165,2014-09-15,23.53,23.59,23.3,23.44,-0.002129,3172439.0,74368624.84,2085105200.0,3607884800.0,0.035663414085773705,50.8,2014-06-30 00:00:00,2014-08-20 00:00:00,70.58070365166175,11.66865986859797,217.96671220134576,2.49421877365757
sz300165,2014-09-12,23.0,23.68,22.96,23.49,0.018647,3710722.0,86290764.79,2089552950.0,3615580800.0,0.041714597268281715,50.91,2014-06-30 00:00:00,2014-08-20 00:00:00,70.73129056928376,11.693555448147075,218.4317534043436,2.499540294945509
sz300165,2014-09-11,23.58,23.82,23.0,23.06,-0.024534999999999998,5202684.0,121761430.44,2051302300.0,3549395200.0,0.05848669552020685,49.97,2014-06-30 00:00:00,2014-08-20 00:00:00,69.4365080045234,11.479497262689701,214.43321720315635,2.4537845739942385
sz300165,2014-09-10,23.5,23.86,23.37,23.64,-0.0033729999999999997,3956144.0,93240827.63,2102896200.0000002,3638668800.0,0.0444735428025406,51.23,2014-06-30 00:00:00,2014-08-20 00:00:00,71.1829824796619,11.768230805502709,219.82666441456774,2.5155024260165546
sz300165,2014-09-09,24.34,24.59,23.7,23.72,0.00042199999999999996,9867277.0,237360747.06,2110012600.0,3650982400.0,0.11092436625259963,51.4,2014-06-30 00:00:00,2014-08-20 00:00:00,71.42389527843606,11.808059389824587,220.5706492143678,2.524015931754362
sz300165,2014-09-05,22.93,23.75,22.61,23.71,0.028633,8725576.0,203304232.27,2109123049.9999998,3649443200.0,0.09808977572930135,51.38,2014-06-30 00:00:00,2014-08-20 00:00:00,71.39376710871619,11.80307849070151,220.47760766393364,2.5229512463284114
sz300165,2014-09-04,23.3,24.23,22.96,23.05,0.024444,11246609.0,262850918.63,2050412750.0,3547856000.0,0.12643031870046653,49.95,2014-06-30 00:00:00,2014-08-20 00:00:00,69.40645216390703,11.474528321278347,214.34039901882753,2.452722444572954
sz300165,2014-09-03,22.45,22.54,21.96,22.5,0.012145999999999999,5782248.0,128874482.44,2001487500.0,3463200000.0,0.06500194480355236,48.76,2014-06-30 00:00:00,2014-08-20 00:00:00,67.75036230765863,11.200737493975609,209.22607679758733,2.394198652706204
sz300165,2014-09-02,22.13,22.98,22.1,22.23,0.004065,10313187.0,231734664.9,1977469650.0,3421641600.0,0.11593712551289978,48.18,2014-06-30 00:00:00,2014-08-20 00:00:00,66.93734135950608,11.06632589959908,206.71531261061878,2.3654676822377443
sz300165,2014-09-01,21.5,22.17,21.38,22.14,0.034579,4091536.0,89371582.61,1969463700.0,3407788800.0,0.0459955707942218,47.98,2014-06-30 00:00:00,2014-08-20 00:00:00,66.666342676526,11.021523406949829,205.87841684613923,2.3558909853821657
sz300165,2014-08-29,21.44,21.45,21.15,21.4,-0.0009339999999999999,1847402.0,39380008.16,1903637000.0,3293888000.0,0.02076782642909336,46.38,2014-06-30 00:00:00,2014-08-20 00:00:00,64.43813635935585,10.653148195497716,198.99728957009495,2.2771494350669848
sz300165,2014-08-28,20.97,21.66,20.85,21.42,0.022434,3968814.0,84726936.17,1905416100.0,3296966400.0,0.04461597436906301,46.42,2014-06-30 00:00:00,2014-08-20 00:00:00,64.4983778442624,10.66310753793815,199.18332679732364,2.279278280981422
sz300165,2014-08-27,20.69,21.01,20.61,20.95,0.010125,1723387.0,35957819.21,1863607250.0,3224624000.0,0.01937369456466753,45.4,2014-06-30 00:00:00,2014-08-20 00:00:00,63.08317000829627,10.42914020654453,194.81289432601383,2.2292669071856195
sz300165,2014-08-26,21.2,21.24,20.63,20.74,-0.024918,3268324.0,68357774.84,1844926700.0,3192300800.0,0.036741318644258336,44.95,2014-06-30 00:00:00,2014-08-20 00:00:00,62.450855100404674,10.3246035951437,192.86018495336106,2.20692182372045
sz300165,2014-08-25,21.88,21.89,21.24,21.27,-0.028323,3473636.0,74448418.24,1892072850.0,3273878400.0,0.039049362036984996,46.1,2014-06-30 00:00:00,2014-08-20 00:00:00,64.0467725795417,10.588446505159258,197.78868336546165,2.2633192118411065
sz300165,2014-08-22,21.9,22.18,21.64,21.89,0.013895,4134335.0,90375918.18,1947224950.0,3369308800.0,0.04647670170310831,47.44,2014-06-30 00:00:00,2014-08-20 00:00:00,65.91364473949851,10.897084633226122,203.55394165495494,2.329291741845394
sz300165,2014-08-21,21.42,21.96,21.36,21.59,0.009822,3935022.0,85129797.23,1920538450.0,3323132800.0,0.04423609690292845,46.79,2014-06-30 00:00:00,2014-08-20 00:00:00,65.01032625616904,10.747744720337039,200.7643214089772,2.297369788632347
sz300165,2014-08-20,21.59,21.69,21.31,21.38,-0.017915,4130605.0,88674401.08,1901857900.0,3290809600.0,0.04643477038952279,46.33,2014-06-30 00:00:00,2014-08-20 00:00:00,64.37800548628277,10.643207139809826,198.8115939333637,2.275024498012865
sz300165,2014-08-19,21.4,21.94,21.16,21.77,0.019195,6871086.0,148432061.27,1936550350.0,3350838400.0,0.07724226856275646,47.18,2014-03-31 00:00:00,2014-04-25 00:00:00,60.179693146123725,10.562825264415201,-617.9569103752663,2.328325491032233
sz300165,2014-08-18,20.86,21.47,20.86,21.36,0.026923000000000002,5198066.0,110188745.86,1900078800.0,3287731200.0,0.05843478163116182,46.29,2014-03-31 00:00:00,2014-04-25 00:00:00,59.0462994285919,10.363890388409676,-606.3186243802867,2.284474993531398
sz300165,2014-08-15,20.49,20.92,20.41,20.8,0.015128999999999998,3310153.0,68591775.88,1850264000.0,3201536000.0,0.03721154516328481,45.08,2014-03-31 00:00:00,2014-04-25 00:00:00,57.49827341348076,10.092178662284978,-590.4226747090937,2.2245825573401294
sz300165,2014-08-14,20.71,21.2,20.49,20.49,-0.016794999999999997,4907440.0,102476120.1,1822687950.0,3153820800.0,0.05516766904614693,44.4,2014-03-31 00:00:00,2014-04-25 00:00:00,56.64134648254632,9.941769629559374,-581.623295865938,2.1914284365239585
sz300165,2014-08-13,21.05,21.16,20.55,20.84,-0.011385,5179310.0,107809938.72,1853822200.0,3207692800.0,0.05822393344949694,45.16,2014-03-31 00:00:00,2014-04-25 00:00:00,57.608887752346995,10.111593848240576,-591.5585212299958,2.22886217678303
sz300165,2014-08-12,20.99,22.3,20.73,21.08,0.034347,14096616.0,299839064.76,1875171400.0,3244633600.0,0.1584690686302063,45.68,2014-03-31 00:00:00,2014-04-25 00:00:00,58.27231809384543,10.22804008460379,-598.3709747778416,2.2545300008426232
sz300165,2014-08-11,20.39,20.45,20.16,20.38,0.003941,2798047.0,56817045.7,1812902900.0,3136889600.0,0.031454634365690515,44.17,2014-03-31 00:00:00,2014-04-25 00:00:00,56.33730082249519,9.888403103217577,-578.5011942586401,2.1796650455240103
sz300165,2014-08-08,20.26,20.38,20.11,20.3,0.00148,2226359.0,45147735.49,1805786500.0,3124576000.0,0.02502792423135293,43.99,2014-03-31 00:00:00,2014-04-25 00:00:00,56.116147086826004,9.849585885243831,-576.2302707615687,2.171108706113218
sz300165,2014-08-07,20.4,20.76,20.12,20.27,-0.000986,4329447.0,88231462.46,1803117850.0,3119958400.0,0.04867008037771907,43.93,2014-03-31 00:00:00,2014-04-25 00:00:00,56.03321792429804,9.83503004078347,-575.3787102703686,2.167900213796799
sz300165,2014-08-06,20.3,20.54,20.09,20.29,0.0,4509708.0,91504851.27,1804896950.0,3123036800.0,0.05069650947108088,43.97,2014-03-31 00:00:00,2014-04-25 00:00:00,56.08852120620737,9.84473695141757,-575.9465936116698,2.170039873111687
sz300165,2014-08-05,20.05,20.3,19.83,20.29,0.020624,4298918.0,86669892.8,1804896950.0,3123036800.0,0.048326884379742564,43.97,2014-03-31 00:00:00,2014-04-25 00:00:00,56.08852120620737,9.84473695141757,-575.9465936116698,2.170039873111687
sz300165,2014-08-04,19.75,19.91,19.51,19.88,0.00965,2266687.0,44808728.42,1768425400.0,3059929600.0,0.02548127705019392,43.08,2014-03-31 00:00:00,2014-04-25 00:00:00,54.95512667368921,9.645801932364485,-564.3082992479794,2.1261893440793935
sz300165,2014-08-01,19.4,20.11,19.38,19.69,-0.001521,5399472.0,106911262.8,1751523950.0,3030684800.0,0.06069891518183351,42.67,2014-03-31 00:00:00,2014-04-25 00:00:00,54.42987834763453,9.553609599727118,-558.9147717010642,2.1058677205758367
sz300165,2014-07-31,20.28,20.98,19.58,19.72,-0.002529,10766177.0,217637519.92,1754192600.0,3035302400.0,0.12102947557753921,42.74,2014-03-31 00:00:00,2014-04-25 00:00:00,54.51279230473003,9.568162775308362,-559.7661760548436,2.109075624600855
sz300165,2014-07-30,19.38,19.77,19.32,19.77,0.018547,2061680.0,40258510.11,1758640350.0,3042998400.0,0.023176662357371706,42.84,2014-03-31 00:00:00,2014-04-25 00:00:00,54.65100469560521,9.592422010573102,-561.1854139667655,2.114423000368787
sz300165,2014-07-29,19.3,19.46,19.2,19.41,0.005699,1713142.0,33157036.27,1726616550.0,2987587200.0,0.019258523972795233,42.06,2014-03-31 00:00:00,2014-04-25 00:00:00,53.65584965210756,9.417750983089736,-550.9666357730821,2.075920895519585
sz300165,2014-07-28,18.88,19.36,18.82,19.3,0.027142000000000003,2197027.0,41978491.95,1716831500.0,2970656000.0,0.024698184475296498,41.83,2014-03-31 00:00:00,2014-04-25 00:00:00,53.35179775669218,9.364383362307942,-547.8444701377671,2.0641572632761744
sz300165,2014-07-25,18.49,18.8,18.41,18.79,0.015676,1097474.0,20480507.34,1671464450.0,2892156800.0,0.012337406553875555,40.72,2014-03-31 00:00:00,2014-04-25 00:00:00,51.941988309982634,9.116931604693356,-533.3678012755462,2.0096123644794726
sz300165,2014-07-24,18.7,18.75,18.02,18.5,-0.015957,2581757.0,47501674.65,1645667500.0,2847520000.0,0.029023180259681862,40.09,2014-03-31 00:00:00,2014-04-25 00:00:00,51.14031276704642,8.976220374108827,-525.1357728995725,1.9785958952259115
sz300165,2014-07-23,19.42,19.55,18.7,18.8,-0.030927999999999997,2887393.0,55271698.61,1672354000.0,2893696000.0,0.03245902984655163,40.74,2014-03-31 00:00:00,2014-04-25 00:00:00,51.96959153923803,9.12177656272015,-533.6512458292701,2.010680321109861
sz300165,2014-07-22,19.83,19.84,19.37,19.4,-0.018715,3665334.0,71739305.92,1725727000.0,2986048000.0,0.04120436175594402,42.04,2014-03-31 00:00:00,2014-04-25 00:00:00,53.628204652737914,9.412898693513124,-550.6827623017383,2.0748513228221035
sz300165,2014-07-21,19.99,20.07,19.39,19.77,-0.002523,1584920.0,31236852.27,1758640350.0,3042998400.0,0.017817098532966105,42.84,2014-03-31 00:00:00,2014-04-25 00:00:00,54.650998081839546,9.592420849715552,-561.1853460531225,2.114422744485143
sz300165,2014-07-18,19.98,20.2,19.77,19.82,-0.017838999999999997,2042161.0,40806689.91,1763088100.0,3050694400.0,0.022957236805126187,42.95,2014-03-31 00:00:00,2014-04-25 00:00:00,54.78923131244083,9.616683742798633,-562.6047979583715,2.1197709265327855
sz300165,2014-07-17,19.88,20.47,19.54,20.18,0.01407,3805779.0,76166230.82,1795111900.0,3106105600.0,0.0427831937496487,43.73,2014-03-31 00:00:00,2014-04-25 00:00:00,55.78436866505678,9.791351665153304,-572.8233944927273,2.158272346929664
sz300165,2014-07-16,20.27,20.51,19.73,19.9,-0.018738,5114241.0,102424270.48,1770204500.0,3063008000.0,0.0574924512393907,43.13,2014-03-31 00:00:00,2014-04-25 00:00:00,55.01037272087409,9.655498797078412,-564.8755948728661,2.128326789008317
sz300165,2014-07-15,20.53,20.53,19.9,20.28,-0.012177,3301247.0,66533796.89,1804007400.0,3121497600.0,0.03711142712607498,43.95,2014-03-31 00:00:00,2014-04-25 00:00:00,56.06084075494015,9.839878439273518,-575.6623561014959,2.168968928796098
sz300165,2014-07-14,20.1,20.56,20.06,20.53,0.01684,3106988.0,63329497.44,1826246150.0,3159977600.0,0.03492763756955764,44.49,2014-03-31 00:00:00,2014-04-25 00:00:00,56.75190874776165,9.961175675473761,-582.7586076670576,2.1957060412605274
sz300165,2014-07-11,19.87,20.55,19.83,20.19,0.022278,2606710.0,52755705.53,1796001450.0,3107644800.0,0.029303692878421675,43.75,2014-03-31 00:00:00,2014-04-25 00:00:00,55.812034093625,9.796207540491878,-573.1074777418843,2.159342710023728
sz300165,2014-07-10,19.91,20.35,19.7,19.75,-0.006539,2955616.0,59286444.99,1756861250.0,3039920000.0,0.03322596818616154,42.8,2014-03-31 00:00:00,2014-04-25 00:00:00,54.59574997566709,9.582723623605203,-560.6180292854627,2.112285219894909
sz300165,2014-07-09,20.29,20.96,19.88,19.88,-0.039149,5970646.0,122433103.43,1768425400.0,3059929600.0,0.06711984711370918,43.08,2014-03-31 00:00:00,2014-04-25 00:00:00,54.95510138361454,9.645797493414639,-564.3080395561202,2.1261883656176828
sz300165,2014-07-08,20.0,21.52,19.6,20.69,0.016708,9353446.0,192481052.29,1840478950.0,3184604800.0,0.10514806362767691,44.84,2014-03-31 00:00:00,2014-04-25 00:00:00,57.1941970020477,10.038806738416923,-587.3002573303459,2.2128179765829277
sz300165,2014-07-07,20.78,21.46,20.1,20.35,0.007925,5107700.0,104983360.47,1810234250.0,3132272000.0,0.057418919678489125,44.1,2014-03-31 00:00:00,2014-04-25 00:00:00,56.25430015505701,9.873834708113758,-577.6488995172123,2.176453786714502
sz300165,2014-07-04,19.97,20.48,19.88,20.19,0.0095,3761731.0,75987024.92,1796001450.0,3107644800.0,0.0422880220336125,43.75,2014-03-31 00:00:00,2014-04-25 00:00:00,55.811990133251,9.79619982450456,-573.1070263335192,2.1593410092164618
sz300165,2014-07-03,19.93,20.48,19.68,20.0,0.0015019999999999999,3536356.0,71174534.58,1779100000.0,3078400000.0,0.03975443763700748,43.34,2014-03-31 00:00:00,2014-04-25 00:00:00,55.28676585760376,9.704011713228885,-567.7137457489046,2.1390203162124433
sz300165,2014-07-02,19.91,20.06,19.35,19.97,0.002007,4457272.0,87778119.5,1776431350.0,3073782400.0,0.0501070428868529,43.28,2014-03-31 00:00:00,2014-04-25 00:00:00,55.20384967539133,9.689458147091955,-566.8623185464479,2.1358123260986432
sz300165,2014-07-01,19.95,20.13,19.57,19.93,0.00555,3201054.0,63434917.65,1772873150.0,3067625600.0,0.03598509358664493,43.19,2014-03-31 00:00:00,2014-04-25 00:00:00,55.09327746751403,9.670050356027406,-565.7269046488177,2.1315343366849167
sz300165,2014-06-30,19.5,20.15,19.36,19.82,0.017454,4049757.0,79912716.48,1763088100.0,3050694400.0,0.04552590635714687,42.95,2014-03-31 00:00:00,2014-04-25 00:00:00,54.78919742182291,9.616677794269213,-562.6044499515864,2.1197696153198913
sz300165,2014-06-27,19.68,19.75,19.36,19.48,-0.011168,5118473.0,99870392.59,1732843400.0,2998361600.0,0.05754002585576977,42.22,2014-03-31 00:00:00,2014-04-25 00:00:00,53.84931153823455,9.451707688278006,-552.953204716465,2.0834058496206125
sz300165,2014-06-26,19.01,19.72,18.95,19.7,0.031954,5378444.0,104225709.53,1752413500.0,3032224000.0,0.06046252599629026,42.69,2014-03-31 00:00:00,2014-04-25 00:00:00,54.45749281802627,9.558456530814139,-559.19833168472,2.1069361121207772
sz300165,2014-06-25,18.65,19.2,18.62,19.09,0.019765,4089236.0,77476760.52,1698150950.0,2938332800.0,0.04596971502445057,41.37,2014-03-31 00:00:00,2014-04-25 00:00:00,52.77124059602101,9.262483144417423,-541.8830022314173,2.041695765625965
sz300165,2014-06-24,18.75,19.09,18.68,18.72,-0.0016,3689049.0,69391717.59,1665237600.0,2881382400.0,0.04147095722556349,40.57,2014-03-31 00:00:00,2014-04-25 00:00:00,51.748432821307865,9.082958470252876,-531.3802711717085,2.0021237889376136
sz300165,2014-06-23,18.01,19.13,18.01,18.75,0.046317000000000004,4589849.0,85264399.3,1667906250.0,2886000000.0,0.05159742566466191,40.63,2014-03-31 00:00:00,2014-04-25 00:00:00,51.831363002111246,9.097514493442384,-532.231842119099,2.0053323206506546
sz300165,2014-06-20,17.53,17.97,17.35,17.92,0.021665,2289684.0,40574622.29,1594073600.0,2758246400.0,0.025739801022989155,38.84,2014-03-31 00:00:00,2014-04-25 00:00:00,49.53695964235623,8.694797555083579,-508.6716952119664,1.9165628778378392
sz300165,2014-06-19,18.3,18.35,17.33,17.54,-0.047774000000000004,4011990.0,72065676.46,1560270700.0,2699756800.0,0.0451013433758642,38.01,2014-03-31 00:00:00,2014-04-25 00:00:00,48.486499627917404,8.510419320504841,-497.8850163331096,1.8759210483258597
sz300165,2014-06-18,19.55,20.16,18.37,18.42,-0.043614,8395584.0,160232406.46,1638551100.0,2835206400.0,0.09438012478219326,39.92,2014-03-31 00:00:00,2014-04-25 00:00:00,50.91910914837171,8.93739440059906,-522.8643371774239,1.9700376258638805
sz300165,2014-06-17,19.35,19.35,19.04,19.26,-0.0061920000000000005,3663967.0,70403406.05,1713273300.0,2964499200.0,0.04118899443538868,41.74,2014-03-31 00:00:00,2014-04-25 00:00:00,53.24116951562623,9.344965736218494,-546.7084808617273,2.0598771059633667
sz300165,2014-06-16,19.19,19.4,18.98,19.38,0.009375,4604241.0,88366786.19,1723947900.0,2982969600.0,0.05175921533359564,42.0,2014-03-31 00:00:00,2014-04-25 00:00:00,53.572892868266536,9.403190290497252,-550.114791651634,2.072711334546881
sz300165,2014-06-13,18.55,19.47,18.5,19.2,0.031702999999999995,6896007.0,131001661.71,1707936000.0,2955264000.0,0.07752242144904727,41.61,2014-03-31 00:00:00,2014-04-25 00:00:00,53.075311819954464,9.315854157768175,-545.0053663421762,2.053460145681121
sz300165,2014-06-12,18.2,18.77,18.12,18.61,0.018053,6462873.0,119564426.15,1655452550.0,2864451200.0,0.0726532853690068,40.33,2014-03-31 00:00:00,2014-04-25 00:00:00,51.44437092841105,9.029589094698935,-528.2580028769677,1.9903597698961044
sz300165,2014-06-11,17.83,18.28,17.72,18.28,0.025238,5164467.0,93398287.07,1626097400.0,2813657600.0,0.058057073801360236,39.62,2014-03-31 00:00:00,2014-04-25 00:00:00,50.53211466241054,8.869468578452137,-518.8904731649213,1.9550649817800292
sz300165,2014-06-10,17.65,17.87,17.4,17.83,0.008484,5056497.0,89480918.59,1586067650.0,2744393600.0,0.05684331403518632,38.64,2014-03-31 00:00:00,2014-04-25 00:00:00,49.2881795860186,8.651131326045403,-506.11709004633195,1.9069376884001852
sz300165,2014-06-09,18.1,18.26,17.61,17.68,-0.037561000000000004,4999048.0,89604126.74,1572724400.0,2721305600.0,0.056197493114496094,38.32,2014-03-31 00:00:00,2014-04-25 00:00:00,48.87353650233282,8.578352582733494,-501.8593156126741,1.890895332400103
sz300165,2014-06-06,18.51,18.85,18.2,18.37,-0.007562999999999999,4164355.0,77048979.78,1634103350.0,2827510400.0,0.046814175706818055,39.81,2014-03-31 00:00:00,2014-04-25 00:00:00,50.78091858531587,8.913138996584193,-521.4453234050927,1.9646910946045442
sz300165,2014-06-05,18.1,18.52,18.01,18.51,0.019835,4208394.0,76898910.12,1646557050.0,2849059200.0,0.04730924624810298,40.11,2014-03-31 00:00:00,2014-04-25 00:00:00,51.16790142378394,8.981062774346574,-525.4190678149774,1.9796632880520821
sz300165,2014-06-04,17.95,18.32,17.81,18.15,0.013966,3840074.0,69484254.89,1614533250.0,2793648000.0,0.04316872576021584,39.33,2014-03-31 00:00:00,2014-04-25 00:00:00,50.17272541517396,8.806388067036897,-515.2000743404349,1.941160372072033
sz300165,2014-06-03,17.8,18.07,17.7,17.9,0.005618,1950689.0,35020132.63,1592294500.0,2755168000.0,0.021928941599685232,38.79,2014-03-31 00:00:00,2014-04-25 00:00:00,49.48166448892169,8.685092071170926,-508.1038953381424,1.9144235330100154
sz300165,2014-05-30,17.8,17.96,17.63,17.8,0.0,2206409.0,39282997.67,1583399000.0,2739776000.0,0.024803653532685065,38.58,2014-03-31 00:00:00,2014-04-25 00:00:00,49.20522950953711,8.636571810738198,-505.26531479959834,1.9037283869322306
sz300165,2014-05-29,18.3,18.34,17.8,17.8,-0.027322000000000003,3580494.0,64661097.46,1583399000.0,2739776000.0,0.04025062110055646,38.58,2014-03-31 00:00:00,2014-04-25 00:00:00,49.20522950953711,8.636571810738198,-505.26531479959834,1.9037283869322306
sz300165,2014-05-28,17.86,18.48,17.74,18.3,0.028089999999999997,5449640.0,99229718.15,1627876500.0,2816736000.0,0.06126288572873925,39.66,2014-03-31 00:00:00,2014-04-25 00:00:00,50.58737784707489,8.879168451160814,-519.4579447665088,1.9572030897503905
sz300165,2014-05-27,18.3,18.38,17.7,17.8,-0.038876999999999995,6311314.0,113511436.89,1583399000.0,2739776000.0,0.07094951379911191,38.58,2014-03-31 00:00:00,2014-04-25 00:00:00,49.20520367582108,8.636567276367646,-505.265049525342,1.9037273874372773
sz300165,2014-05-26,17.9,18.69,17.85,18.52,0.034637,6106996.0,111752238.86,1647446600.0,2850598400.0,0.06865264459558204,40.14,2014-03-31 00:00:00,2014-04-25 00:00:00,51.19553238848834,8.985912600538795,-525.7027971709573,1.9807323177546239
sz300165,2014-05-23,17.55,17.93,17.31,17.9,0.019943000000000002,3483666.0,61601809.24,1592294500.0,2755168000.0,0.03916211567646563,38.79,2014-03-31 00:00:00,2014-04-25 00:00:00,49.48163693013911,8.685087234014242,-508.10361234999067,1.9144224667730072
sz300165,2014-05-22,17.64,17.94,17.51,17.55,-0.004538,3257293.0,57773432.11,1561160250.0,2701296000.0,0.036617312124107695,38.03,2014-03-31 00:00:00,2014-04-25 00:00:00,48.51411983820577,8.515267259066675,-498.1686352570592,1.8769896619448414
sz300165,2014-05-21,17.35,17.7,17.15,17.63,0.017311,2834563.0,49602919.41,1568276650.0,2713609600.0,0.031865134056545445,38.21,2014-03-31 00:00:00,2014-04-25 00:00:00,48.7352805413022,8.554085699973154,-500.43963029935765,1.8855462709222868
sz300165,2014-05-20,17.45,17.74,17.26,17.33,-0.001153,3317879.0,58123690.47,1541590150.0,2667433600.0,0.03729839806643808,37.56,2014-03-31 00:00:00,2014-04-25 00:00:00,47.90598011945433,8.408525711383396,-491.9239350595419,1.8534610074227906
sz300165,2014-05-19,17.25,17.49,17.07,17.35,0.0005769999999999999,2082395.0,35992678.49,1543369250.0,2670512000.0,0.023409532909898265,37.6,2014-03-31 00:00:00,2014-04-25 00:00:00,47.961279474688645,8.418231932801916,-492.49177807966777,1.855600514816374
sz300165,2014-05-16,17.31,17.53,16.83,17.34,-0.006873000000000001,3863053.0,66498019.63,1542479700.0,2668972800.0,0.04342704738350851,37.58,2014-03-31 00:00:00,2014-04-25 00:00:00,47.933621774924504,8.413377414034018,-492.2077741939578,1.854530450746293
sz300165,2014-05-15,17.94,17.99,17.27,17.46,-0.024036000000000002,5689306.0,100214071.88,1553154300.0,2687443200.0,0.06395712438873588,37.84,2014-03-31 00:00:00,2014-04-25 00:00:00,48.265349522190526,8.471602739663727,-495.6141301102052,1.8673648493559163
sz300165,2014-05-14,18.14,18.18,17.71,17.89,-0.043316,8450724.0,151369225.38,1591404950.0,2753628800.0,0.09499998875836096,38.77,2014-03-31 00:00:00,2014-04-25 00:00:00,49.45402650322196,8.680241012643629,-507.82009388687,1.9133542316682954
sz300165,2014-05-13,17.94,18.97,17.94,18.7,-0.061716,14708488.0,267484225.56,1663458500.0,2878304000.0,0.1653475127873644,40.53,2014-03-31 00:00:00,2014-04-25 00:00:00,51.69316775781967,9.073258267770369,-530.8127802773643,1.9999856082763956
sz300165,2014-05-12,19.93,19.93,19.93,19.93,-0.099819,218200.0,4348726.0,1772873150.0,3067625600.0,0.0024529256365578103,43.19,2014-03-31 00:00:00,2014-04-25 00:00:00,55.09330624610425,9.67005540728646,-565.7272001625993,2.131535450115739
sz300165,2014-05-09,22.44,22.45,21.52,22.14,-0.015125,1409876.0,31205773.79,1969463700.0,3407788800.0,0.01584931707042887,47.98,2014-03-31 00:00:00,2014-04-25 00:00:00,61.20247621989827,10.7423456030359,-628.4593877926764,2.3678965120522855
sz300165,2014-05-08,22.2,23.0,22.16,22.48,0.012157,1406936.0,31864929.37,1999708400.0,3460121600.0,0.015816266651677815,48.72,2014-03-31 00:00:00,2014-04-25 00:00:00,62.142379713058276,10.907318799884148,-638.1108138521909,2.4042609590580386
sz300165,2014-05-07,22.3,22.68,22.11,22.21,-0.009807999999999999,1235207.0,27712193.6,1975690550.0,3418563200.0,0.013885751222528244,48.13,2014-03-31 00:00:00,2014-04-25 00:00:00,61.39598867869143,10.776311184810409,-630.4464760429369,2.3753834227872144
sz300165,2014-05-06,22.42,23.0,22.26,22.43,0.0017870000000000002,1802507.0,40932016.16,1995260650.0,3452425600.0,0.020263133044797932,48.61,2014-03-31 00:00:00,2014-04-25 00:00:00,62.00412513804539,10.88305216039961,-636.6911427712372,2.3989119512046297
sz300165,2014-05-05,21.86,22.39,21.8,22.39,0.01819,1550703.0,34327219.64,1991702450.0,3446268800.0,0.01743244337024338,48.52,2014-03-31 00:00:00,2014-04-25 00:00:00,61.89352141527629,10.863638837796467,-635.555405262034,2.394632742493793
sz300165,2014-04-30,21.36,22.22,21.22,21.99,0.030458999999999996,1310755.0,28621757.46,1956120450.0,3384700800.0,0.01473503456804002,47.66,2014-03-31 00:00:00,2014-04-25 00:00:00,60.78779148810761,10.669559549589435,-624.2011856942554,2.3518525447055985
sz300165,2014-04-29,21.03,21.44,21.03,21.34,0.010895,917257.0,19506385.42,1898299700.0,3284652800.0,0.010311472092631106,46.25,2014-03-31 00:00:00,2014-04-25 00:00:00,58.99098507374637,10.354181534238078,-605.7506273362216,2.2823349058095457
sz300165,2014-04-28,22.01,22.26,21.1,21.11,-0.038269,1285433.0,27727880.01,1877840050.0,3249251200.0,0.01445037378449778,45.75,2014-03-31 00:00:00,2014-04-25 00:00:00,58.35520511402902,10.242588532179976,-599.2221025291662,2.257736862690532
sz300165,2014-04-25,22.38,22.76,21.93,21.95,-0.002273,1283401.0,28671306.7,1952562250.0,3378544000.0,0.014427530773986848,47.57,2014-03-31 00:00:00,2014-04-25 00:00:00,60.67726330338631,10.650159485531793,-623.0662238496692,2.3475762585281457
sz300165,2014-04-24,22.51,22.67,22.0,22.0,-0.029981999999999998,899135.0,19997528.69,1957010000.0,3386240000.0,0.010107751110111854,47.68,2013-12-31 00:00:00,2014-02-21 00:00:00,60.9535941705122,10.45759519216362,-221.76447053692414,2.357642716876235
sz300165,2014-04-23,22.28,22.75,22.22,22.68,0.017953,720588.0,16159743.64,2017499400.0,3490905600.0,0.008100590186049125,49.15,2013-12-31 00:00:00,2014-02-21 00:00:00,62.83759081843037,10.780825914739333,-228.61892308897785,2.4305143996051983
sz300165,2014-04-22,22.3,22.67,22.07,22.28,-0.011096,1009547.0,22513909.56,1981917400.0,3429337600.0,0.011348962958799393,48.28,2013-12-31 00:00:00,2014-02-21 00:00:00,61.72936355453578,10.590691234997424,-224.5869142180217,2.387648938217381
sz300165,2014-04-21,22.48,23.16,22.04,22.53,-0.008362999999999999,1588142.0,36123034.49,2004156150.0,3467817600.0,0.017853319093923892,48.83,2013-12-31 00:00:00,2014-02-21 00:00:00,62.42199804484134,10.709524114572721,-227.10689229492618,2.414439559570374
sz300165,2014-04-18,22.6,22.98,22.44,22.72,0.021583,1673580.0,38125542.51,2021057600.0,3497062400.0,0.01881378224945197,49.24,2013-12-31 00:00:00,2014-02-21 00:00:00,62.94843581355007,10.79984320328177,-229.0222049953019,2.4348018070830095
sz300165,2014-04-17,22.25,22.7,22.1,22.24,0.0022530000000000002,880819.0,19751503.13,1978359200.0,3423180800.0,0.009901849249620594,48.2,2013-12-31 00:00:00,2014-02-21 00:00:00,61.618523226747186,10.571674747212677,-224.18364929261932,2.3833617112686976
sz300165,2014-04-16,22.16,22.45,22.1,22.19,-0.00135,630678.0,14027834.75,1973911450.0,3415484800.0,0.007089854420774549,48.09,2013-12-31 00:00:00,2014-02-21 00:00:00,61.48000876699514,10.547910305294847,-223.67969893092794,2.3780040681032606
sz300165,2014-04-15,22.74,22.82,22.09,22.22,-0.026293,1167600.0,26142270.32,1976580100.0,3420102400.0,0.013125737732561408,48.15,2013-12-31 00:00:00,2014-02-21 00:00:00,61.56311897761491,10.562169233760423,-223.98207473181586,2.3812187133663048
sz300165,2014-04-14,22.49,23.16,22.32,22.82,0.027927999999999998,1359209.0,30927933.55,2029953100.0,3512454400.0,0.015279736945646676,49.45,2013-12-31 00:00:00,2014-02-21 00:00:00,63.2255072394621,10.84737937979333,-230.03026036766283,2.44551873753224
sz300165,2014-04-11,22.5,22.58,22.03,22.2,-0.030144,1673279.0,37238596.57,1974801000.0,3417024000.0,0.01881039851610365,48.11,2013-12-31 00:00:00,2014-02-21 00:00:00,61.50771964521065,10.552664563854014,-223.78051805930264,2.379075905639539
sz300165,2014-04-10,22.95,23.69,22.7,22.89,-0.002614,2450966.0,56780814.76,2036179950.0,3523228800.0,0.02755287504918217,49.61,2013-12-31 00:00:00,2014-02-21 00:00:00,63.419435096767614,10.880650904726078,-230.73581857440962,2.453019732454652
sz300165,2014-04-09,22.2,23.0,22.16,22.95,0.035183,2035023.0,46101299.39,2041517250.0,3532464000.0,0.02287699398572312,49.74,2013-12-31 00:00:00,2014-02-21 00:00:00,63.585647980588874,10.909167468488707,-231.3405427531664,2.4594487314386324
sz300165,2014-04-08,21.9,22.19,21.0,22.17,0.006812,1323670.0,28849331.11,1972132350.0,3412406400.0,0.014880220336125008,48.05,2013-12-31 00:00:00,2014-02-21 00:00:00,61.424548104623895,10.538395113220279,-223.47791912460542,2.3758588881759386
sz300165,2014-04-04,22.06,22.2,21.77,22.02,0.002732,1782551.0,39215515.5,1958789100.0,3389318400.0,0.02003879489629588,47.72,2013-12-31 00:00:00,2014-02-21 00:00:00,61.0089551024659,10.467093273838888,-221.96588749896247,2.3597840393002256
sz300165,2014-04-03,21.83,22.35,21.44,21.96,0.007339,1694829.0,37136851.61,1953451800.0,3380083200.0,0.01905265583722107,47.59,2013-12-31 00:00:00,2014-02-21 00:00:00,60.84273275657494,10.438575086702018,-221.36112889482186,2.3533546743299563
sz300165,2014-04-02,22.75,22.75,21.3,21.8,-0.042179,3572246.0,78104852.44,1939219000.0,3355456000.0,0.04015790006182902,47.24,2013-12-31 00:00:00,2014-02-21 00:00:00,60.3994611114778,10.362524519255205,-219.7483954208284,2.3362092347560814
sz300165,2014-04-01,22.68,22.99,21.98,22.76,0.0,2412453.0,53929833.59,2024615800.0,3503219200.0,0.027119925805182396,49.32,2013-12-31 00:00:00,2014-02-21 00:00:00,63.05923665432037,10.818852916416745,-229.42532625702336,2.4390875067012323
sz300165,2014-03-31,23.4,23.49,22.65,22.76,-0.033546,1224842.0,28269061.8,2024615800.0,3503219200.0,0.013769231633972234,49.32,2013-12-31 00:00:00,2014-02-21 00:00:00,63.05923665432037,10.818852916416745,-229.42532625702336,2.4390875067012323
sz300165,2014-03-28,24.44,24.44,22.5,23.55,-0.044795,3020760.0,70523871.89,2094890250.0,3624816000.0,0.0339582935191951,51.04,2013-12-31 00:00:00,2014-02-21 00:00:00,65.2480476611617,11.19437957359248,-237.38876993320258,2.523749197272951
sz300165,2014-03-27,25.0,25.6,24.41,24.78,-0.0064150000000000006,1936575.0,48233621.68,2204304900.0,3814137600.0,0.021770277106402114,53.43,2013-12-31 00:00:00,2014-02-21 00:00:00,68.30790004361546,11.719347756337623,-248.5212807022603,2.6421021636956996
sz300165,2014-03-26,25.12,25.47,24.86,24.94,-0.004391,1353707.0,34059979.67,2218537700.0,3838764800.0,0.015217885447698275,53.77,2013-12-31 00:00:00,2014-02-21 00:00:00,68.7489243936004,11.795012763213638,-250.12583795272704,2.6591606794543994
sz300165,2014-03-25,24.15,25.4,24.15,25.05,0.026219,2476419.0,61793804.19,2228322750.0,3855696000.0,0.027839008487437467,54.01,2013-12-31 00:00:00,2014-02-21 00:00:00,69.05213230655849,11.847033085492033,-251.22898442332988,2.6708885510822014
sz300165,2014-03-24,24.68,24.85,23.8,24.41,-0.013737000000000001,2841656.0,69061342.91,2171391550.0,3757187200.0,0.03194487100219212,52.63,2013-12-31 00:00:00,2014-02-21 00:00:00,67.28791057908546,11.544351727547465,-244.8103030866997,2.6026496791447062
sz300165,2014-03-21,24.0,25.09,23.6,24.75,0.026971,2162176.0,52485762.35,2201636250.0,3809520000.0,0.024306402113428136,53.36,2013-12-31 00:00:00,2014-02-21 00:00:00,68.22511903932872,11.705145308652423,-248.22010263661892,2.638900251905127
sz300165,2014-03-20,25.53,25.86,24.1,24.1,-0.054530999999999996,3649593.0,90944954.11,2143815500.0,3709472000.0,0.04102740711595751,51.96,2013-12-31 00:00:00,2014-02-21 00:00:00,66.43334528368251,11.397736945495465,-241.701180107928,2.5695956866407395
sz300165,2014-03-19,26.3,26.3,25.34,25.49,-0.038839,2882092.0,74245972.82,2267462950.0,3923420800.0,0.03239943791804845,54.96,2013-12-31 00:00:00,2014-02-21 00:00:00,70.26496403761784,12.055114388198307,-255.6415705939888,2.7178000406578526
sz300165,2014-03-18,26.17,27.2,26.16,26.52,0.014149,4125493.0,110203477.22,2359086600.0,4081958400.0,0.04637730313079647,57.18,2013-12-31 00:00:00,2014-02-21 00:00:00,73.10426040758816,12.542242546460278,-265.971643246021,2.827622053597527
sz300165,2014-03-17,25.4,26.3,25.11,26.15,0.034415,3009897.0,78012923.76,2326173250.0,4025008000.0,0.03383617559440166,56.38,2013-12-31 00:00:00,2014-02-21 00:00:00,72.08433909375069,12.367258210046334,-262.2609135797807,2.7881722050680198
sz300165,2014-03-14,25.2,25.59,24.75,25.28,-0.011341,2223954.0,56045966.42,2248782400.0,3891097600.0,0.025000888089483447,54.51,2013-12-31 00:00:00,2014-02-21 00:00:00,69.68609222966671,11.95579937457049,-253.5354897016968,2.695409680899852
sz300165,2014-03-13,25.14,25.9,24.7,25.57,0.017914,3237665.0,81750216.73,2274579350.0,3935734400.0,0.036396661233207804,55.13,2013-12-31 00:00:00,2014-02-21 00:00:00,70.48546792136288,12.09294546913596,-256.44381905358347,2.7263289778375066
sz300165,2014-03-12,24.28,25.18,23.7,25.12,0.034595999999999995,3068236.0,75083286.15,2234549600.0,3866470400.0,0.034492001573829464,54.16,2013-12-31 00:00:00,2014-02-21 00:00:00,69.24501276273132,11.880124911471855,-251.93073192193398,2.678349033255763
sz300165,2014-03-11,25.0,25.35,23.94,24.28,-0.034592000000000005,2907404.0,71406770.64,2159827400.0,3737177600.0,0.03268398628520038,52.35,2013-12-31 00:00:00,2014-02-21 00:00:00,66.92951911928068,11.482863756936865,-243.50638502558868,2.588787346225737
sz300165,2014-03-10,26.37,26.9,24.91,25.15,-0.061216999999999994,3814802.0,98817115.65,2237218250.0,3871088000.0,0.04288462705862515,54.23,2013-12-31 00:00:00,2014-02-21 00:00:00,69.3277030222255,11.894311790390036,-252.23157983524965,2.681547435100742
sz300165,2014-03-07,26.6,27.42,26.27,26.79,0.0033710000000000003,3243193.0,87151342.62,2383104450.0,4123516800.0,0.03645880501377101,57.76,2013-12-31 00:00:00,2014-02-21 00:00:00,73.84848577597326,12.66992669273947,-268.67932188295873,2.8564081743073126
sz300165,2014-03-06,26.49,26.98,25.77,26.7,-0.008172,3087975.0,81841119.51,2375098500.0,4109664000.0,0.0347139002866618,57.57,2013-12-31 00:00:00,2014-02-21 00:00:00,73.60037889870573,12.627359862642502,-267.77664680657375,2.8468115724964274
sz300165,2014-03-05,26.8,27.58,26.3,26.92,0.012029999999999999,3760294.0,101514676.56,2394668600.0,4143526400.0,0.042271867798324994,58.04,2013-12-31 00:00:00,2014-02-21 00:00:00,74.20679684250264,12.731400870556689,-269.982947453161,2.8702673976701876
sz300165,2014-03-04,28.01,28.08,25.6,26.6,-0.058074,6211276.0,166469382.52,2366203000.0,4094272000.0,0.06982492271373167,57.35,2013-12-31 00:00:00,2014-02-21 00:00:00,73.32470069316389,12.580062716082221,-266.7736603195172,2.8361485308441328
sz300165,2014-03-03,26.88,28.4,26.72,28.24,0.045152,6923665.0,190911946.65,2512089200.0,4346700800.0,0.07783334270136585,60.89,2013-12-31 00:00:00,2014-02-21 00:00:00,77.84550027620416,13.355680505774572,-283.2214635964154,3.0110099209960577
sz300165,2014-02-28,26.4,27.17,25.58,27.02,0.02271,7182863.0,188384838.33,2403564100.0,4158918400.0,0.08074715305491541,58.26,2013-12-31 00:00:00,2014-02-21 00:00:00,74.48246788620617,12.778696788385393,-270.98590788365266,2.8809301623075467
sz300165,2014-02-27,28.88,29.55,26.42,26.42,-0.088651,9020080.0,249955305.2,2350191100.0,4066566400.0,0.10140048339047833,56.97,2013-12-31 00:00:00,2014-02-21 00:00:00,72.82853192616301,12.49493677424235,-264.9684738426853,2.8169570673089606
sz300165,2014-02-26,28.6,29.5,27.76,28.99,-0.059987,10078913.0,287280610.34,2578805450.0,4462140800.0,0.11330350177055815,62.51,2013-12-31 00:00:00,2014-02-21 00:00:00,79.91288949256871,13.710375250581663,-290.7431443307506,3.090975100986516
sz300165,2014-02-25,34.67,34.67,30.84,30.84,-0.100088,10426966.0,342590213.19,2743372200.0,4746892800.0,0.1172161879602046,66.5,2013-12-31 00:00:00,2014-02-21 00:00:00,85.01253652084462,14.585303874075851,-309.2969398622686,3.2882259085635157
sz300165,2014-02-24,31.52,34.27,31.11,34.27,0.100161,12299929.0,404432203.34,3048487850.0,5274838400.0,0.13827136192456863,73.89,2013-12-31 00:00:00,2014-02-21 00:00:00,94.46761074510019,16.20747792459246,-343.69687243004705,3.653941617139804
sz300165,2014-02-21,28.69,32.18,28.31,31.15,0.064957,9855473.0,309906947.78,2770948250.0,4794608000.0,0.11079166994547805,67.16,2013-12-31 00:00:00,2014-02-21 00:00:00,85.8670783140833,14.731914623943641,-312.4059773342693,3.3212789920200807
sz300165,2014-02-20,29.22,30.3,28.22,29.25,-0.004764,3392158.0,99320326.93,2601933750.0,4502160000.0,0.03813341577201956,63.07,2013-09-30 00:00:00,2013-10-24 00:00:00,64.92697694909113,14.05378043301378,-536.2838303954246,3.1491568846214575
sz300165,2014-02-19,30.1,30.69,28.78,29.39,-0.031631,3629823.0,106817229.16,2614387450.0,4523708800.0,0.04080515991231522,63.37,2013-09-30 00:00:00,2013-10-24 00:00:00,65.23776968386507,14.121053130125699,-538.8509161600109,3.164231282451054
sz300165,2014-02-18,30.11,31.65,29.66,30.35,0.002643,5211958.0,159366040.64,2699784250.0,4671472000.0,0.05859095048058007,65.44,2013-09-30 00:00:00,2013-10-24 00:00:00,67.36870932863926,14.582306052884487,-556.4520509847082,3.267588370188486
sz300165,2014-02-17,28.9,31.1,28.52,30.27,0.051772000000000006,7087880.0,211203088.36,2692667850.0,4659158400.0,0.07967938845483671,65.27,2013-09-30 00:00:00,2013-10-24 00:00:00,67.19112319004796,14.543866613425203,-554.9852250349409,3.258974899529031
sz300165,2014-02-14,28.7,29.54,28.04,28.78,0.0034869999999999996,4565312.0,131136195.18,2560124900.0,4429817600.0,0.05132158956775898,62.05,2013-09-30 00:00:00,2013-10-24 00:00:00,63.88373448812857,13.827965199135559,-527.666856538243,3.098556435738003
sz300165,2014-02-13,30.9,31.28,28.46,28.68,-0.05284,5754655.0,168967795.2,2551229400.0,4414425600.0,0.06469175425777078,61.84,2013-09-30 00:00:00,2013-10-24 00:00:00,63.661745979896665,13.779914636797047,-525.8332759051617,3.0877893143986945
sz300165,2014-02-12,30.16,31.69,29.7,30.28,0.004978,9093816.0,278339985.57,2693557400.0,4660697600.0,0.10222939688606598,65.29,2013-09-30 00:00:00,2013-10-24 00:00:00,67.21329657069202,14.548666156506869,-555.1683727196689,3.260050376281404
sz300165,2014-02-11,28.75,30.28,28.3,30.13,0.043282999999999995,9309899.0,274251586.23,2680214150.0,4637609600.0,0.10465852397279524,64.96,2013-09-30 00:00:00,2013-10-24 00:00:00,66.8803661082054,14.476601633574935,-552.4184337564295,3.243902230975608
sz300165,2014-02-10,26.4,28.88,26.1,28.88,0.10019,8805256.0,245578530.51,2569020400.0,4445209600.0,0.09898550952728907,62.27,2013-09-30 00:00:00,2013-10-24 00:00:00,64.10567996239313,13.876006446548958,-529.5000817193701,3.109321469798327
sz300165,2014-02-07,25.38,26.37,24.99,26.25,0.047068,6358542.0,164315872.43,2335068750.0,4040400000.0,0.07148043392726659,56.6,2013-09-30 00:00:00,2013-10-24 00:00:00,58.26782643215547,12.612372814285676,-481.2805803719085,2.826167725391366
sz300165,2014-01-30,27.51,27.77,24.8,25.07,-0.089688,6587830.0,173408810.13,2230101850.0,3858774400.0,0.07405800685739981,54.05,2013-09-30 00:00:00,2013-10-24 00:00:00,55.648560009622564,12.045419031319529,-459.6459641321371,2.6991252959610703
sz300165,2014-01-29,27.38,27.89,26.86,27.54,0.009531,5336746.0,146172192.33,2449820700.0,4238956800.0,0.05999377213197684,59.38,2013-09-30 00:00:00,2013-10-24 00:00:00,61.13130444245771,13.232187460254867,-504.9323354323981,2.9650551634616162
sz300165,2014-01-28,28.2,28.7,26.82,27.28,-0.044483,5644650.0,154576377.67,2426692400.0,4198937599.9999995,0.06345511775616886,58.82,2013-09-30 00:00:00,2013-10-24 00:00:00,60.554162717596306,13.107262144753225,-500.1652603361344,2.9370620252984962
sz300165,2014-01-27,29.22,30.33,28.45,28.55,-0.032202999999999996,6107928.0,178852546.33,2539665250.0,4394416000.0,0.0686631218031589,61.56,2013-09-30 00:00:00,2013-10-24 00:00:00,63.37319243676073,13.717455727897281,-523.4498814109371,3.073793585355882
sz300165,2014-01-24,28.45,31.26,28.35,29.5,0.029668,7463313.0,221389105.84,2133292500.0,4540640000.0,0.10320560049782203,63.61,2013-09-30 00:00:00,2013-10-24 00:00:00,65.48190626418632,14.173897757378128,-540.8674354342255,3.176072653000456
sz300165,2014-01-23,27.88,29.68,27.85,28.65,0.018124,7415664.0,214011971.83,2071824750.0,4409808000.0,0.10254669155776809,61.77,2013-09-30 00:00:00,2013-10-24 00:00:00,63.59516491158929,13.765502819722599,-525.283329611317,3.084559929026109
sz300165,2014-01-22,26.8,28.71,26.65,28.14,0.046097000000000006,9425826.0,261937927.54,2034944100.0,4331308800.0,0.1303439950217797,60.67,2013-09-30 00:00:00,2013-10-24 00:00:00,62.46308397757964,13.52045803823758,-515.9325677533551,3.0296505425921687
sz300165,2014-01-21,27.0,27.8,26.06,26.9,-0.020036,7643380.0,204330027.63,1831486500.0,4140448000.0,0.11226231915987368,58.0,2013-09-30 00:00:00,2013-10-24 00:00:00,59.7106042533146,12.924669546167879,-493.1976363122685,2.8961468607520797
sz300165,2014-01-20,28.31,29.44,27.38,27.45,-0.027975,6846179.0,195117722.61,1868933250.0,4225104000.0,0.10055341117720497,59.19,2013-09-30 00:00:00,2013-10-24 00:00:00,60.93142631087938,13.188922803457963,-503.2813820836975,2.955360462988518
sz300165,2014-01-17,27.76,28.68,27.5,28.24,0.006774,5466191.0,154306910.07,1922720400.0,4346700800.0,0.080284805757509,60.89,2013-09-30 00:00:00,2013-10-24 00:00:00,62.68504031365385,13.568501636745932,-517.7658826508551,3.040416103483468
sz300165,2014-01-16,29.4,30.52,27.72,28.05,-0.0625,15715434.0,458268001.78,1909784250.0,4317456000.0,0.23082079753249615,60.48,2013-09-30 00:00:00,2013-10-24 00:00:00,62.26326892992255,13.477207036282156,-514.2821354652139,3.0199589018821187
sz300165,2014-01-15,26.98,29.92,26.83,29.92,0.1,11496488.0,331532670.27,2037103200.0,4605286400.0,0.1688549313358302,64.51,2013-09-30 00:00:00,2013-10-24 00:00:00,66.41415352525073,14.375687505367633,-548.5676111628948,3.2212894953409266
sz300165,2014-01-14,27.02,28.54,26.86,27.2,-0.001835,10207176.0,281517279.55,1851912000.0,4186624000.0,0.14991813174708085,58.65,2013-09-30 00:00:00,2013-10-24 00:00:00,60.37650320477338,13.068806823061484,-498.69782832990427,2.9284449957644787
sz300165,2014-01-13,26.91,27.63,26.08,27.25,-0.002927,7331239.0,198040850.66,1855316250.0,4194320000.0,0.1076777410589704,58.76,2013-09-30 00:00:00,2013-10-24 00:00:00,60.4874977631688,13.092832170093606,-499.6146211597324,2.9338285711926173
sz300165,2014-01-10,27.8,28.41,26.69,27.33,0.004779,12606336.0,348658487.78,1860763050.0,4206633599.9999995,0.18515584930601453,58.93,2013-09-30 00:00:00,2013-10-24 00:00:00,60.665064406687165,13.131267389743385,-501.08128608410055,2.9424410962814327
sz300165,2014-01-09,26.3,28.1,26.3,27.2,0.05508099999999999,17311085.0,471375714.07,1851912000.0,4186624000.0,0.2542569582139972,58.65,2013-09-30 00:00:00,2013-10-24 00:00:00,60.376524993742066,13.068811539396608,-498.6980083024232,2.9284460525960756
sz300165,2014-01-08,25.78,25.78,25.33,25.78,0.099829,6241993.0,160874596.34,1755231300.0,3968057600.0,0.09167941543658661,55.59,2013-09-30 00:00:00,2013-10-24 00:00:00,57.22454010046818,12.386548084361872,-472.66324415132414,2.775565148643636
sz300165,2014-01-07,23.44,23.44,23.44,23.44,0.099953,2651683.0,62155449.52,1595912400.0,3607884800.0,0.03894665491664831,50.54,2013-09-30 00:00:00,2013-10-24 00:00:00,52.030397544043836,11.262249026313974,-429.76066656846126,2.5236333544975045
sz300165,2013-12-25,21.31,21.31,21.31,21.31,0.100155,421027.0,8972085.37,1450891350.0,3280035200.0,0.00618384372475582,45.95,2013-09-30 00:00:00,2013-10-24 00:00:00,47.30238250547417,10.238845683691915,-390.70820895843843,2.294310170068634
sz300165,2013-12-24,19.37,19.37,19.37,19.37,0.09994299999999999,153917.0,2981372.29,1318806450.0,2981430400.0,0.0022606594697804215,41.76,2013-09-30 00:00:00,2013-10-24 00:00:00,42.99610737166506,9.306730127747379,-355.1392385240611,2.085442660414791
sz300165,2013-12-23,17.61,17.61,17.61,17.61,0.099938,320563.0,5645114.43,1198976850.0,2710531200.0,0.004708276419181905,37.97,2013-09-30 00:00:00,2013-10-24 00:00:00,39.08939587930017,8.461102191429354,-322.87058377030553,1.895955208965184
sz300165,2013-06-21,15.25,16.17,14.5,16.01,0.01201,5436777.0,83364188.12,1090040850.0,2464259200.0,0.07985278695747962,34.52,2013-03-31 00:00:00,2013-04-23 00:00:00,41.320146609416234,8.076657016223951,5191.253761817747,1.7506926951485515
sz300165,2013-06-20,16.31,16.85,15.8,15.82,-0.038298,6140735.0,100305336.34,1077104700.0,2435014400.0,0.090192186237791,34.11,2013-03-31 00:00:00,2013-04-23 00:00:00,40.829780940322955,7.980807517933569,5129.646704891993,1.7299163991942288
sz300165,2013-06-19,16.2,16.89,16.01,16.45,0.004887,7057262.0,116452617.07,1119998250.0,2531984000.0,0.10365369758390247,35.47,2013-03-31 00:00:00,2013-04-23 00:00:00,42.45575130375413,8.298628387934691,5333.925379059202,1.7988071140480404
sz300165,2013-06-18,15.53,16.85,15.36,16.37,0.042011,7877717.0,126949244.81,1114551450.0,2519670400.0,0.11570414922523316,35.3,2013-03-31 00:00:00,2013-04-23 00:00:00,42.24927907690528,8.25827022136289,5307.985255117443,1.7900590952495556
sz300165,2013-06-17,15.98,16.48,15.7,15.71,-0.005065999999999999,8920687.0,143236846.5,1069615350.0000001,2418083200.0,0.13102279503561726,33.87,2013-03-31 00:00:00,2013-04-23 00:00:00,40.54590505945262,7.925319618855165,5093.981978230021,1.7178888660959966
sz300165,2013-06-14,14.35,15.79,14.21,15.79,0.100348,7268899.0,111584083.36,1075062150.0,2430396800.0,0.10676212087831387,34.05,2013-03-31 00:00:00,2013-04-23 00:00:00,40.752356497468796,7.965673721930465,5119.919490368226,1.7266360040927304
sz300165,2013-06-13,14.32,14.66,13.6,14.35,-0.031714,3654290.0,51361836.68,977019750.0,2208752000.0,0.05367246823823162,30.94,2013-03-31 00:00:00,2013-04-23 00:00:00,37.03588001020477,7.239231335841448,4653.0002239002815,1.569172665459228
sz300165,2013-06-07,15.52,15.79,14.71,14.82,-0.027344,4646717.0,70830164.32,1009019700.0,2281094400.0,0.06824876257619153,31.95,2013-03-31 00:00:00,2013-04-23 00:00:00,38.24890580903242,7.4763358510207185,4805.398636250324,1.6205673380171022
sz300165,2013-06-06,15.32,15.95,15.2,15.36,0.000651,5440960.0,84762896.35,1045785600.0,2364211200.0,0.07991422486597635,32.85,2013-03-31 00:00:00,2013-04-23 00:00:00,39.32418636088445,7.6865159429651575,4940.491434022228,1.666125884194517
sz300165,2013-06-05,15.33,15.48,15.11,15.35,-0.014130000000000002,3787687.0,57970569.51,1045104750.0,2362672000.0,0.05563173973709334,32.83,2013-03-31 00:00:00,2013-04-23 00:00:00,39.29860297035074,7.681515276520143,4937.277266521722,1.6650419418903464
sz300165,2013-06-04,14.75,15.57,14.52,15.57,0.057026,6600442.0,99217052.32,1060083450.0,2396534400.0,0.09694414335022399,33.3,2013-03-31 00:00:00,2013-04-23 00:00:00,39.86185092390553,7.791610736222973,5008.040884215689,1.688906186302805
sz300165,2013-06-03,15.16,15.42,14.7,14.73,-0.028364,3226531.0,48491641.15,1002892050.0,2267241600.0,0.047389748108981423,31.51,2013-03-31 00:00:00,2013-04-23 00:00:00,37.7113249096101,7.371257411097715,4737.859697127307,1.5977905806506225
sz300165,2013-05-31,14.92,15.43,14.9,15.16,0.011341,5186397.0,78814740.72,1032168600.0,2333427200.0,0.07617532496144525,32.42,2013-03-31 00:00:00,2013-04-23 00:00:00,38.81219397964887,7.586439171765678,4876.167306612052,1.6444332863856659
sz300165,2013-05-30,14.85,15.01,14.63,14.99,0.00604,3384485.0,50171198.44,1020594150.0,2307260800.0,0.04970970110890798,32.06,2013-03-31 00:00:00,2013-04-23 00:00:00,38.37696086646231,7.50136617794164,4821.486824535,1.6259929008965972
sz300165,2013-05-29,14.68,15.08,14.65,14.9,0.014986000000000001,2561004.0,38117966.26,1014466500.0,2293408000.0,0.03761480502313285,31.87,2013-03-31 00:00:00,2013-04-23 00:00:00,38.14655567021422,7.456329945073397,4792.539883637828,1.6162308664631597
sz300165,2013-05-28,15.23,15.23,14.51,14.68,-0.031023000000000002,3362033.0,49617366.02,999487800.0,2259545600.0,0.049379936843651315,31.4,2013-03-31 00:00:00,2013-04-23 00:00:00,37.58333185897561,7.3462392043569045,4721.779299062084,1.5923676449361466
sz300165,2013-05-27,15.1,15.68,14.95,15.15,0.0059759999999999995,4321924.0,65820616.38,1031487750.0,2331888000.0,0.06347835793493427,32.4,2013-03-31 00:00:00,2013-04-23 00:00:00,38.78660882453929,7.581438160407217,4872.952917419178,1.6433492693182052
sz300165,2013-05-24,14.61,15.18,14.56,15.06,0.040774,4157019.0,61697875.36,1025360100.0,2318035200.0,0.06105631196298744,32.21,2013-03-31 00:00:00,2013-04-23 00:00:00,38.556196991319176,7.536400630240898,4844.005142686485,1.633586953682996
sz300165,2013-05-23,14.41,14.85,14.3,14.47,0.004164,3496630.0,51101936.39,985189950.0,2227222400.0,0.05135683337005214,30.95,2013-03-31 00:00:00,2013-04-23 00:00:00,37.04569579113157,7.24114998091891,4654.233428858219,1.5695885501396034
sz300165,2013-05-22,14.85,14.92,14.3,14.41,-0.033535,3366092.0,49174004.97,981104850.0,2217987200.0,0.04943955349930234,30.82,2013-03-31 00:00:00,2013-04-23 00:00:00,36.89207718174677,7.211122865307767,4634.933565491511,1.5630798854963963
sz300165,2013-05-21,14.76,15.0,14.53,14.91,0.009479000000000001,4156869.0,61369351.48,1015147350.0,2294947200.0,0.061054108834545054,31.89,2013-03-31 00:00:00,2013-04-23 00:00:00,38.17218128100528,7.461338864115893,4795.759355477448,1.617316597596805
sz300165,2013-05-20,14.61,14.87,14.51,14.77,0.019324,4280978.0,62842117.85,1005615450.0,2273398400.0,0.06287696262025409,31.59,2013-03-31 00:00:00,2013-04-23 00:00:00,37.813744794101986,7.391276949907718,4750.727212232693,1.6021300072580063
sz300165,2013-05-17,13.86,14.49,13.86,14.49,0.043197,4350733.0,62176185.08,986551650.0,2230300800.0,0.06390149078357935,30.99,2013-03-31 00:00:00,2013-04-23 00:00:00,37.09688459616569,7.251155618731354,4660.664530838766,1.5717573678810726
sz300165,2013-05-16,14.34,14.44,13.83,13.89,-0.030027999999999996,4216249.0,59784248.66,945700650.0,2137948799.9999998,0.06192625394727179,29.71,2013-03-31 00:00:00,2013-04-23 00:00:00,35.56076617950942,6.9508976911660545,4467.674399790994,1.5066735888629597
sz300165,2013-05-15,14.0,14.34,13.9,14.32,0.014163999999999998,3068554.0,43490578.85,974977200.0,2204134400.0,0.04506945729602702,30.63,2013-03-31 00:00:00,2013-04-23 00:00:00,36.66164196441694,7.166080764358203,4605.9828528978105,1.5533165791001797
sz300165,2013-05-14,14.06,14.45,14.0,14.12,0.008570999999999999,5150591.0,73324025.06,961360200.0,2173350400.0,0.07564942351472424,30.2,2013-03-31 00:00:00,2013-04-23 00:00:00,36.14961876424022,7.0659979691235355,4541.654853552097,1.5316226755240567
sz300165,2013-05-13,14.07,14.16,13.83,14.0,-0.007092,2290646.0,31936853.57,953190000.0,2154880000.0,0.03364391569361827,29.94,2013-03-31 00:00:00,2013-04-23 00:00:00,35.84241343865749,7.005949971914258,4503.059133717008,1.5186066975196157
sz300165,2013-05-10,13.88,14.35,13.71,14.1,0.012204000000000001,3641652.0,51203920.13,959998500.0,2170272000.0,0.053486847323198944,30.16,2013-03-31 00:00:00,2013-04-23 00:00:00,36.09842345782035,7.055991060515433,4535.222934770401,1.5294535823254682
sz300165,2013-05-09,13.48,13.98,13.42,13.93,0.030325,3798738.0,52133488.53,948424050.0,2144105600.0,0.055794051553205555,29.79,2013-03-31 00:00:00,2013-04-23 00:00:00,35.66318988842204,6.9709179775178045,4480.542395377215,1.5110131775071702
sz300165,2013-05-08,13.31,13.55,13.31,13.52,0.014254,2089626.0,28117211.38,920509200.0,2080998400.0,0.03069142983035911,28.92,2013-03-31 00:00:00,2013-04-23 00:00:00,34.61353445604255,6.765746708580112,4348.669007718162,1.466540341646733
sz300165,2013-05-07,13.24,13.55,13.2,13.33,0.009848,2304767.0,30839481.01,907573050.0,2051753600.0,0.033851318205184694,28.51,2013-03-31 00:00:00,2013-04-23 00:00:00,34.127086958535585,6.670663077079422,4287.554210008698,1.4459300546477836
sz300165,2013-05-06,13.01,13.29,12.93,13.2,0.023256,2120120.0,27836366.23,898722000.0,2031744000.0,0.03113931115517368,28.23,2013-03-31 00:00:00,2013-04-23 00:00:00,33.794280880425156,6.605611019756857,4245.742141400189,1.4318293987290995
sz300165,2013-05-03,12.5,12.95,12.5,12.9,0.032,1421217.0,18171150.42,878296500.0,1985568000.0,0.020874157303370788,27.59,2013-03-31 00:00:00,2013-04-23 00:00:00,33.02622303746585,6.455482322856506,4149.2472474143215,1.399287567069335
sz300165,2013-05-02,12.35,12.51,12.26,12.5,0.015434999999999999,787460.0,9758830.99,851062500.0,1924000000.0,0.011565836821620034,26.74,2013-03-31 00:00:00,2013-04-23 00:00:00,32.00215410607156,6.255312328349327,4020.588418037133,1.3558988052997432
sz300165,2013-04-26,12.81,12.95,12.3,12.31,-0.041277,1631703.0,20622967.17,838126350.0,1894755200.0,0.023965675258867593,26.33,2013-03-31 00:00:00,2013-04-23 00:00:00,31.515709135564126,6.160229190789491,3959.473937807081,1.3352886253672003
sz300165,2013-04-25,13.18,13.26,12.83,12.84,-0.028744,2031608.0,26561497.19,874211400.0,1976332800.0,0.029839289123889255,27.46,2013-03-31 00:00:00,2013-04-23 00:00:00,32.872591077468805,6.425452597663236,4129.945706744368,1.3927783367742301
sz300165,2013-04-24,13.09,13.29,12.91,13.22,0.009931,3503683.0,46053317.21,900083700.0,2034822400.0,0.051460424469413235,28.28,2013-03-31 00:00:00,2013-04-23 00:00:00,33.84544453518826,6.615611741562716,4252.170083628176,1.433997150879099
sz300165,2013-04-23,13.67,13.67,13.02,13.09,-0.041727999999999994,2512301.0,33161105.15,891232650.0,2014812800.0,0.036899478592935304,28.0,2013-03-31 00:00:00,2013-04-23 00:00:00,33.51263060069278,6.550558148589078,4210.357027983275,1.4198961620933501
sz300165,2013-04-22,13.56,13.69,13.35,13.66,0.000733,1656664.0,22440385.58,930041100.0,2102547200.0000002,0.024332290519203936,29.22,2012-12-31 00:00:00,2013-04-12 00:00:00,35.307103812808855,7.0112769152648875,105.770948618562,1.4966891726532143
sz300165,2013-04-19,13.5,13.75,13.41,13.65,0.012611,1769175.0,24059639.73,929360250.0,2101008000.0,0.025984798413747522,29.2,2012-12-31 00:00:00,2013-04-12 00:00:00,35.281242661937654,7.006141413608712,105.69347530116625,1.4955929030552748
sz300165,2013-04-18,13.14,13.56,13.06,13.48,0.017358000000000002,1741873.0,23334821.36,917785800.0,2074841600.0,0.025583799662186973,28.83,2012-12-31 00:00:00,2013-04-12 00:00:00,34.841852065539136,6.918887325546248,104.37717475038909,1.476966873809661
sz300165,2013-04-17,13.2,13.25,13.03,13.25,0.002269,1142204.0,15001799.52,902126250.0,2039440000.0,0.01677614746273041,28.34,2012-12-31 00:00:00,2013-04-12 00:00:00,34.24738594038592,6.800838373066559,102.59630803550873,1.4517671004795372
sz300165,2013-04-16,12.81,13.22,12.77,13.22,0.027993999999999998,1342168.0,17519751.88,900083700.0,2034822400.0,0.019713123301755158,28.28,2012-12-31 00:00:00,2013-04-12 00:00:00,34.169854540433676,6.7854422047040845,102.3640440196282,1.4484804982290556
sz300165,2013-04-15,13.13,13.18,12.8,12.86,-0.027231,1052452.0,13670481.5,875573100.0,1979411200.0,0.01545791290298891,27.51,2012-12-31 00:00:00,2013-04-12 00:00:00,33.23935211726301,6.6006632380189805,99.576499492826,1.4090359459579096
sz300165,2013-04-12,13.51,13.6,13.06,13.22,-0.04755,3687834.0,48983258.12,900083700.0,2034822400.0,0.05416514650804142,28.28,2012-12-31 00:00:00,2013-04-12 00:00:00,34.16983077921172,6.785437486205852,102.36397283715456,1.448479490976696
sz300165,2013-04-11,13.73,13.92,13.64,13.88,0.019837999999999998,1836176.0,25368162.32,945019800.0,2136409600.0,0.02696887713887053,29.69,2012-09-30 00:00:00,2012-10-24 00:00:00,41.523566876994806,7.331489115256781,-295.7101107078737,1.549510875837903
sz300165,2013-04-10,13.73,13.8,13.47,13.61,-0.008740000000000001,972067.0,13217496.02,926636850.0,2094851200.0,0.014277256370713079,29.11,2012-09-30 00:00:00,2012-10-24 00:00:00,40.715845925524256,7.188876189411241,-289.9579253841039,1.5193696212907373
sz300165,2013-04-09,13.51,13.78,13.51,13.73,0.013284,1055883.0,14460632.03,934807050.0,2113321600.0,0.015508305794227803,29.37,2012-09-30 00:00:00,2012-10-24 00:00:00,41.07484002736341,7.2522609501152475,-292.514502132744,1.5327659960966216
sz300165,2013-04-08,13.1,13.63,12.98,13.55,0.010440000000000001,1378168.0,18334440.5,922551750.0,2085616000.0,0.020241874127928324,28.98,2012-09-30 00:00:00,2012-10-24 00:00:00,40.53635508639573,7.157184905826252,-288.6796812470581,1.5126716656896009
sz300165,2013-04-03,13.45,13.59,13.26,13.41,-0.000745,940494.0,12632287.9,913019850.0,2064067200.0,0.013813527208636264,28.68,2012-09-30 00:00:00,2012-10-24 00:00:00,40.11752809310372,7.0832359227923,-285.69700451987063,1.4970425415557589
sz300165,2013-04-02,13.9,14.09,13.38,13.42,-0.034532,1867442.0,25627833.53,913700700.0,2065606400.0,0.027428097231401924,28.7,2012-09-30 00:00:00,2012-10-24 00:00:00,40.147437934364824,7.088516867858854,-285.91000747543984,1.4981586697647336
sz300165,2013-04-01,13.61,14.04,13.61,13.9,0.021308,1567911.0,21743695.68,946381500.0,2139488000.0,0.023028728794888743,29.73,2012-09-30 00:00:00,2012-10-24 00:00:00,41.58339575663287,7.342052629252191,-296.13618211627914,1.5517434754592936
sz300165,2013-03-29,13.95,14.15,13.55,13.61,-0.020158000000000002,2055145.0,28361265.91,926636850.0,2094851200.0,0.03018498935154586,29.11,2012-09-30 00:00:00,2012-10-24 00:00:00,40.715823000145754,7.188872141657746,-289.9577621210047,1.5193687657976764
sz300165,2013-03-28,14.28,14.28,13.87,13.89,-0.040083,1859984.0,26219094.44,945700650.0,2137948799.9999998,0.027318557685246384,29.71,2012-09-30 00:00:00,2012-10-24 00:00:00,41.553457598414596,7.336766684483565,-295.9229775014795,1.550626290562842
sz300165,2013-03-27,14.63,14.85,14.36,14.47,-0.014976,1931974.0,28200801.98,985189950.0,2227222400.0,0.028375912462363224,30.95,2012-09-30 00:00:00,2012-10-24 00:00:00,43.28859432473286,7.643126108281827,-308.27975491785185,1.6153753819995296
sz300165,2013-03-26,14.94,14.94,14.39,14.69,-0.027152,2643244.0,38519633.23,1000168650.0,2261084800.0,0.038822706910479544,31.42,2012-09-30 00:00:00,2012-10-24 00:00:00,43.946740713660645,7.759329831843515,-312.96674488931416,1.6399350492978135
sz300165,2013-03-25,15.21,15.33,14.78,15.1,-0.007884,2712650.0,40568046.99,1028083500.0,2324192000.0,0.039842109128295514,32.3,2012-09-30 00:00:00,2012-10-24 00:00:00,45.17328576885664,7.975891230535001,-321.7015863622212,1.685705320150541
sz300165,2013-03-22,15.22,15.37,15.1,15.22,-0.006527,1929436.0,29406944.82,1036253700.0,2342662400.0,0.028338635529118014,32.55,2012-09-30 00:00:00,2012-10-24 00:00:00,45.532262123437825,8.039272857745466,-324.2580367237513,1.6991010326922869
sz300165,2013-03-21,14.85,15.44,14.78,15.32,0.032345,4421311.0,67204912.11,1043062200.0,2358054400.0,0.06493810677829184,32.77,2012-09-30 00:00:00,2012-10-24 00:00:00,45.831403695357416,8.092089928710156,-326.3883736384896,1.7102639253329348
sz300165,2013-03-20,14.16,14.94,14.16,14.84,0.048763,3361247.0,49177055.11,1010381400.0,2284172800.0,0.049368392450613204,31.74,2012-09-30 00:00:00,2012-10-24 00:00:00,44.39543340197068,7.8385519653896285,-316.16211018456977,1.6566786542608671
sz300165,2013-03-19,14.5,14.57,13.73,14.15,-0.020761,2669851.0,37781745.86,963402750.0,2177968000.0,0.03921349783359036,30.26,2012-09-30 00:00:00,2012-10-24 00:00:00,42.33123537154788,7.474092779197615,-301.46192245966887,1.579650172880686
sz300165,2013-03-18,14.51,14.94,14.44,14.45,-0.016338,3986284.0,58692057.12,983828250.0,2224144000.0,0.05854863773224646,30.91,2012-09-30 00:00:00,2012-10-24 00:00:00,43.22870654819496,7.6325521953247515,-307.8532640751327,1.6131405845566669
sz300165,2013-03-15,14.47,14.94,14.14,14.69,0.015203999999999999,4488013.0,65737052.25,1000168650.0,2261084800.0,0.06591779393405302,31.42,2012-09-30 00:00:00,2012-10-24 00:00:00,43.946707861231765,7.759324031348932,-312.9665109307188,1.639933823362768
sz300165,2013-03-14,14.4,14.67,14.3,14.47,0.005559000000000001,2978543.0,43128227.72,985189950.0,2227222400.0,0.04374741866784167,30.95,2012-09-30 00:00:00,2012-10-24 00:00:00,43.28854876579659,7.643118064299324,-308.27943046985513,1.615373681903113
sz300165,2013-03-13,14.22,14.46,14.02,14.39,0.0,3101089.0,44149545.46,979743150.0,2214908800.0,0.04554731585518102,30.78,2012-09-30 00:00:00,2012-10-24 00:00:00,43.04923805146848,7.600864856561698,-306.57517904951885,1.606443462693997
sz300165,2013-03-12,15.0,15.28,14.11,14.39,-0.046388,4997736.0,73411625.2,979743150.0,2214908800.0,0.07340436219431593,30.78,2012-09-30 00:00:00,2012-10-24 00:00:00,43.04923805146848,7.600864856561698,-306.57517904951885,1.606443462693997
sz300165,2013-03-11,15.58,15.74,15.0,15.09,-0.034549,4568655.0,69900966.95,1027402650.0,2322652800.0,0.06710222515972682,32.27,2012-09-30 00:00:00,2012-10-24 00:00:00,45.1433476628529,7.970605294985484,-321.4883821192674,1.6845881372025489
sz300165,2013-03-08,15.55,15.98,15.32,15.63,0.005792,4164729.0,65214970.74,1064168550.0,2405769600.0,0.061169552764926194,33.43,2012-09-30 00:00:00,2012-10-24 00:00:00,46.7588180682944,8.255836179138543,-332.9929557473838,1.7448717099081663
sz300165,2013-03-07,15.78,15.96,15.2,15.54,-0.033582,7554174.0,117738567.5,1058040899.9999999,2391916800.0,0.11095210398766248,33.24,2012-09-30 00:00:00,2012-10-24 00:00:00,46.48955059126977,8.208293741786116,-331.075367220443,1.7348236115500681
sz300165,2013-03-06,16.56,16.98,16.0,16.08,-0.033073000000000005,8632325.0,141549396.28,1094806800.0,2475033600.0,0.12678747154292427,34.39,2012-09-30 00:00:00,2012-10-24 00:00:00,48.10501314262541,8.493523239205102,-342.57988491568136,1.795106891169316
sz300165,2013-03-05,16.25,17.1,15.9,16.63,0.007268000000000001,7905989.0,130240866.06,1132253550.0,2559689600.0,0.1161193948740545,35.57,2012-09-30 00:00:00,2012-10-24 00:00:00,49.75040839962626,8.784037718674837,-354.29756839521644,1.8565071522145067
sz300165,2013-03-04,16.59,17.21,15.93,16.51,0.017879,13648095.0,227721476.54,1124083350.0,2541219200.0,0.20045670852610709,35.31,2012-09-30 00:00:00,2012-10-24 00:00:00,49.39143147566115,8.720655990932736,-351.74111397881836,1.8431114184253907
sz300165,2013-03-01,15.57,16.29,15.35,16.22,0.027232,12945095.0,204358102.18,1104338700.0,2496582400.0,0.1901313798927811,34.69,2012-09-30 00:00:00,2012-10-24 00:00:00,48.523873147654236,8.567478050861386,-345.56279673597584,1.8107372471830059
sz300165,2013-02-28,14.56,15.88,14.55,15.79,0.066892,10578091.0,161605378.57,1075062150.0,2430396800.0,0.15536595432180364,33.77,2012-09-30 00:00:00,2012-10-24 00:00:00,47.23750150662581,8.34035354317368,-336.40190019000175,1.7627344623055028
sz300165,2013-02-27,15.22,15.91,14.71,14.8,-0.012015999999999999,10789766.0,164671048.37,1007658000.0,2278016000.0,0.1584749357420871,31.65,2012-09-30 00:00:00,2012-10-24 00:00:00,44.27580439878246,7.817430014634736,-315.31017215425913,1.6522145280923495
sz300165,2013-02-26,14.3,15.03,14.11,14.98,0.019048,10517718.0,153818475.72,1019913300.0,2305721600.0,0.1544792244987883,32.04,2012-09-30 00:00:00,2012-10-24 00:00:00,44.81429294278294,7.912506695082851,-319.14501869894565,1.6723089929516566
sz300165,2013-02-25,14.1,14.97,14.06,14.7,0.080088,13429643.0,199023153.59,1000849500.0,2262624000.0,0.1972481897627965,31.44,2012-09-30 00:00:00,2012-10-24 00:00:00,43.97662616754357,7.764606471022808,-313.17957417015253,1.641050267457133
sz300165,2013-02-22,13.61,14.06,13.51,13.61,0.0,3917656.0,53964430.97,926636850.0,2094851200.0,0.05754066240728501,29.11,2012-09-30 00:00:00,2012-10-24 00:00:00,40.71578072114825,7.188864676788196,-289.9574610310943,1.5193671880968338
sz300165,2013-02-21,13.54,13.93,13.45,13.61,-0.005117,3961299.0,54083742.95,926636850.0,2094851200.0,0.05818166997135933,29.11,2012-09-30 00:00:00,2012-10-24 00:00:00,40.71578072114825,7.188864676788196,-289.9574610310943,1.5193671880968338
sz300165,2013-02-20,13.06,13.74,13.06,13.68,0.042683,4492723.0,60686183.3,931402800.0,2105625600.0,0.06598697216714401,29.26,2012-09-30 00:00:00,2012-10-24 00:00:00,40.92519494367504,7.225839296468224,-291.44880456404854,1.5271817772510274
sz300165,2013-02-19,13.48,13.55,13.1,13.12,-0.028148000000000003,2326485.0,30905779.99,893275200.0,2019430400.0,0.03417030182859661,28.06,2012-09-30 00:00:00,2012-10-24 00:00:00,39.249891811485405,6.930044219065837,-279.51813213032966,1.4646654613636432
sz300165,2013-02-18,13.33,13.59,13.2,13.5,0.020408000000000003,4249484.0,56997418.75,919147500.0,2077920000.0,0.06241439377249027,28.87,2012-09-30 00:00:00,2012-10-24 00:00:00,40.38669654585822,7.1307608762093775,-287.613887845402,1.5070869446825679
sz300165,2013-02-08,13.08,13.37,13.0,13.23,0.006084,3027200.0,39890260.22,900764550.0,2036361600.0,0.04446206947198355,28.3,2012-09-30 00:00:00,2012-10-24 00:00:00,39.57896894757609,6.988146776788675,-281.8616551863588,1.4769454421001873
sz300165,2013-02-07,13.18,13.37,13.12,13.15,-0.009789,1981069.0,26174272.66,895317750.0,2024048000.0,0.029096996401556878,28.13,2012-09-30 00:00:00,2012-10-24 00:00:00,39.33962665898284,6.945887994231769,-280.15717890987116,1.4680140446525214
sz300165,2013-02-06,13.31,13.42,13.21,13.28,-0.003003,2206696.0,29412597.03,904168800.0,2044057600.0,0.03241089814202835,28.4,2012-09-30 00:00:00,2012-10-24 00:00:00,39.728529231631285,7.0145534580324505,-282.92674885440704,1.4825264965270248
sz300165,2013-02-05,13.32,13.44,13.1,13.32,-0.008929000000000001,1676934.0,22257822.0,906892200.0,2050214400.0,0.024630006609385326,28.49,2012-09-30 00:00:00,2012-10-24 00:00:00,39.84819335628019,7.035681609907001,-283.77893700222467,1.4869919333027328
sz300165,2013-02-04,13.86,13.89,13.32,13.44,-0.026792000000000003,2483283.0,33499298.57,915062400.0,2068684800.0,0.03647327605199383,28.75,2012-09-30 00:00:00,2012-10-24 00:00:00,40.20720347611845,7.099069198782932,-286.33562782305677,1.5003889058430049
sz300165,2013-02-01,13.72,14.1,13.63,13.81,-0.005043,3441750.0,47592816.5,940253850.0,2125635200.0000002,0.05055078211059705,29.54,2012-09-30 00:00:00,2012-10-24 00:00:00,41.31409059123894,7.294503537561276,-294.2183251915899,1.5416939707061648
sz300165,2013-01-31,13.51,14.13,13.33,13.88,0.021339,5281124.0,72512944.85,945019800.0,2136409600.0,0.07756662994785929,29.69,2012-09-30 00:00:00,2012-10-24 00:00:00,41.523493569308954,7.331476171896147,-295.70958864713737,1.549508140257483
sz300165,2013-01-30,13.86,14.0,13.45,13.59,-0.037535,5247043.0,71713217.03,925275150.0,2091772800.0,0.07706606447822574,29.07,2012-09-30 00:00:00,2012-10-24 00:00:00,40.65593653949272,7.178298461036098,-289.53128064936067,1.517134017458927
sz300165,2013-01-29,14.3,14.78,13.88,14.12,0.050595,10471037.0,151082414.18,961360200.0,2173350400.0,0.1537935962399941,30.2,2012-09-30 00:00:00,2012-10-24 00:00:00,42.24147012046435,7.458243635909979,-300.8226591609676,1.5763004550388087
sz300165,2013-01-28,13.14,13.51,12.7,13.44,0.021277,2775486.0,36547043.11,915062400.0,2068684800.0,0.04076501432033488,28.75,2012-09-30 00:00:00,2012-10-24 00:00:00,40.20718747039948,7.099066372779214,-286.33551383831787,1.500388308566868
sz300165,2013-01-25,12.91,13.7,12.91,13.16,0.023328,4756623.0,62899396.62,895998600.0,2025587200.0,0.06986300947345231,28.15,2012-09-30 00:00:00,2012-10-24 00:00:00,39.369522147663645,6.951166405176279,-280.37007965352973,1.4691296372745768
sz300165,2013-01-24,13.02,13.2,12.43,12.86,-0.023538,3136382.0,40300373.89,715749020.0,1979411200.0,0.05635197728946943,27.51,2012-09-30 00:00:00,2012-10-24 00:00:00,38.4720462526811,6.792706155969816,-273.97870443643654,1.4356390495272062
sz300165,2013-01-23,12.31,13.17,12.3,13.17,0.061241,3432276.0,43891614.56,733002690.0,2027126400.0,0.06166836157176995,28.17,2012-09-30 00:00:00,2012-10-24 00:00:00,39.399430036889406,6.9564470055873295,-280.58306870767785,1.4702456926405802
sz300165,2013-01-22,12.99,12.99,12.4,12.41,-0.047583,2267827.0,28654754.96,690703370.0,1910147200.0,0.040746482922184094,26.54,2012-09-30 00:00:00,2012-10-24 00:00:00,37.1258084043958,6.555011543643083,-264.39147065339336,1.385402272095198
sz300165,2013-01-21,12.83,13.07,12.72,13.03,0.017174000000000002,2116569.0,27428209.93,723295300.0,2005577600.0,0.03812950819672131,27.87,2012-09-30 00:00:00,2012-10-24 00:00:00,38.980623408019596,6.882501618138991,-277.6005370057374,1.4546173284340769
sz300165,2013-01-18,12.67,12.88,12.65,12.81,0.015055,1802325.0,23024959.07,711083100.0,1971715200.0,0.032468474148802016,27.4,2012-09-30 00:00:00,2012-10-24 00:00:00,38.32247325238317,6.766297229519228,-272.9135202096567,1.4300575205757096
sz300165,2013-01-17,12.93,12.95,12.54,12.62,-0.028482999999999998,2488742.0,31555132.33,700536200.0,1942470400.0,0.04483411997838228,26.99,2012-09-30 00:00:00,2012-10-24 00:00:00,37.75408549525215,6.665941480529851,-268.8657463976403,1.4088473241112152
sz300165,2013-01-16,13.3,13.3,12.73,12.99,-0.029873,4039577.0,52404061.64,721074900.0,1999420800.0,0.07277205908845254,27.78,2012-09-30 00:00:00,2012-10-24 00:00:00,38.86096228398695,6.861373996059617,-276.74837022681055,1.4501520036306264
sz300165,2013-01-15,12.9,13.85,12.86,13.39,0.027629,6819326.0,91079940.94,743278900.0,2060988800.0,0.12284860385516123,28.64,2012-09-30 00:00:00,2012-10-24 00:00:00,40.05760306020444,7.072655431772972,-285.2702483559478,1.4948063538388545
sz300165,2013-01-14,12.55,13.21,12.44,13.03,0.08492899999999999,7213383.0,92268357.37,723295300.0,2005577600.0,0.129947450909746,27.87,2012-09-30 00:00:00,2012-10-24 00:00:00,38.98060784602658,6.882498870480468,-277.60042618099317,1.4546167477162038
sz300165,2013-01-11,12.28,12.4,11.94,12.01,-0.019592,2725477.0,33235518.36,666675100.0,1848579200.0,0.04909884705458476,25.69,2012-09-30 00:00:00,2012-10-24 00:00:00,35.929178633833715,6.34373205111161,-255.86967090103883,1.3407483325786331
sz300165,2013-01-10,12.33,12.39,12.12,12.25,-0.011299,2154588.0,26414170.37,679997500.0,1885520000.0,0.038814411817690506,26.2,2012-09-30 00:00:00,2012-10-24 00:00:00,36.647169988243384,6.470502128819441,-260.9828468362548,1.3675411997644178
sz300165,2013-01-09,12.01,12.49,11.97,12.39,0.020593,3786430.0,46290253.59,687768900.0,1907068800.0,0.06821167357232931,26.5,2012-09-30 00:00:00,2012-10-24 00:00:00,37.06597847907849,6.544447845020326,-263.9653917981824,1.383169633452801
sz300165,2013-01-08,11.98,12.36,11.72,12.14,0.01675,3404517.0,41154125.45,673891400.0,1868588800.0,0.06133159791028644,25.97,2012-09-30 00:00:00,2012-10-24 00:00:00,36.31808025243999,6.41239734646458,-258.6392340513627,1.355260748851698
sz300165,2013-01-07,11.74,12.02,11.74,11.94,0.020513,1951209.0,23187455.79,662789400.0,1837804800.0,0.03515058548009368,25.54,2012-09-30 00:00:00,2012-10-24 00:00:00,35.71977403731496,6.306759131019994,-254.37839591970757,1.3329341026326016
sz300165,2013-01-04,11.94,12.0,11.63,11.7,-0.012657999999999999,1756835.0,20672779.41,649467000.0,1800864000.0,0.03164898216537561,25.02,2012-09-30 00:00:00,2012-10-24 00:00:00,35.00178247343734,6.179989016328057,-249.26521849276548,1.306141227630223
