code,date,open,high,low,close,change,volume,money,traded_market_value,market_value,turnover,adjust_price,report_type,report_date,PE_TTM,PS_TTM,PC_TTM,PB
sz300244,2014-10-10,44.65,44.7,43.66,43.93,-0.021168,1160289.0,51214411.25,6015906120.0,9031534790.0,0.008472787765178754,176.79,2014-06-30 00:00:00,2014-08-26 00:00:00,87.40181058465451,7.664756091830561,74.86196266616744,13.849894300457034
sz300244,2014-10-09,45.3,45.35,44.11,44.88,-0.010364,1754274.0,78589490.01,6146001970.0,9226844550.0,0.012810249248911321,180.61,2014-06-30 00:00:00,2014-08-26 00:00:00,89.29194242184,7.830512377844777,76.48091058135351,14.149408989956429
sz300244,2014-10-08,43.71,45.35,43.71,45.35,0.042529000000000004,2228239.0,99974184.43,6210365190.0,9323471490.0,0.01627128768735096,182.51,2014-06-30 00:00:00,2014-08-26 00:00:00,90.22705562635153,7.912517711405788,77.28185977607275,14.297589204471574
sz300244,2014-09-30,42.5,43.66,42.36,43.5,0.026912000000000002,1813742.0,78623577.2,5957020630.0,8943131420.0,0.013244502898422899,175.06,2014-06-30 00:00:00,2014-08-26 00:00:00,86.54632689004481,7.589733917623191,74.12921825299128,13.714332363389003
sz300244,2014-09-29,42.3,42.51,42.01,42.36,0.0037909999999999997,1020709.0,43167599.54,5800905610.0,8708759700.0,0.007453531594353938,170.47,2014-06-30 00:00:00,2014-08-26 00:00:00,84.2782311337727,7.390831850853033,72.18653424343202,13.354924631700671
sz300244,2014-09-26,41.7,42.36,41.55,42.2,0.010778,679264.0,28581672.51,5778994730.0,8675865420.0,0.00496019500609581,169.83,2014-06-30 00:00:00,2014-08-26 00:00:00,83.95993900500473,7.362919024829902,71.91390861586926,13.30448732026953
sz300244,2014-09-25,41.99,42.69,41.55,41.75,-0.004529999999999999,1155168.0,48829171.28,5717370380.0,8583350270.0,0.008435392635871179,168.02,2014-06-30 00:00:00,2014-08-26 00:00:00,83.0646680131589,7.284407678867073,71.14708533018057,13.162620595491324
sz300244,2014-09-24,41.72,42.25,41.45,41.94,0.005273,867377.0,36288323.91,5743389550.0,8622412220.0,0.006333854087957519,168.78,2014-06-30 00:00:00,2014-08-26 00:00:00,83.44266327780737,7.31755620849154,71.47084827285661,13.222518604770936
sz300244,2014-09-23,41.61,42.18,41.32,41.72,0.0012,638633.0,26656018.79,5713262090.0,8577182590.0,0.004663494924665709,167.9,2014-06-30 00:00:00,2014-08-26 00:00:00,83.00497802866222,7.279173128584513,71.09595927957541,13.153161981641738
sz300244,2014-09-22,41.49,42.37,41.01,41.67,0.003854,854605.0,35576912.53,5706414940.0,8566903130.000001,0.006240589008061163,167.7,2014-06-30 00:00:00,2014-08-26 00:00:00,82.9054914389355,7.270448590276181,71.01074638391471,13.1373971051156
sz300244,2014-09-19,41.7,41.96,41.41,41.51,-0.001684,611389.0,25459066.78,5684504050.0,8534008850.0,0.004464550850306809,167.05,2014-06-30 00:00:00,2014-08-26 00:00:00,82.58720036871448,7.242535857082983,70.73812166302541,13.08695996142427
sz300244,2014-09-18,41.75,41.86,41.11,41.58,0.0014449999999999999,560250.0,23298302.41,5694090060.0,8548400100.0,0.0040911181162456,167.33,2014-06-30 00:00:00,2014-08-26 00:00:00,82.72651181461028,7.25475286090074,70.85744560141819,13.109035577336504
sz300244,2014-09-17,41.26,41.8,40.86,41.52,0.0065450000000000005,994276.0,41107940.65,5685873480.0,8536064750.0,0.007260509693930088,167.09,2014-06-30 00:00:00,2014-08-26 00:00:00,82.60714449082104,7.2442848692646535,70.75520433115967,13.090120353425805
sz300244,2014-09-16,42.85,43.02,41.01,41.25,-0.037564,1532324.0,64240639.27,5648898870.0,8480555660.0,0.01118950196394647,166.01,2014-06-30 00:00:00,2014-08-26 00:00:00,82.06999636461464,7.197179330546229,70.29512275274297,13.00500261133462
sz300244,2014-09-15,42.9,43.25,42.48,42.86,-0.002095,1004321.0,42913090.53,5869377110.0,8811554310.0,0.007333861371194123,172.49,2014-06-30 00:00:00,2014-08-26 00:00:00,85.27319880450716,7.478086159023799,73.03875037170573,13.512589524222514
sz300244,2014-09-12,43.17,43.2,42.4,42.95,-0.007625,950388.0,40576579.57,5881701980.0,8830057340.0,0.006940025988872018,172.85,2014-06-30 00:00:00,2014-08-26 00:00:00,85.45222120793778,7.493785639939471,73.19208779563759,13.540957830878204
sz300244,2014-09-11,43.47,43.97,42.82,43.28,0.001157,1684036.0,73210632.49,5926893170.0,8897901790.0,0.012297349722603487,174.18,2014-06-30 00:00:00,2014-08-26 00:00:00,86.10880081414565,7.551364796512883,73.75446559580561,13.64500096322278
sz300244,2014-09-10,42.8,43.27,42.52,43.23,0.009104000000000001,840156.0,36088294.42,5920046020.0,8887622330.0,0.006135077963464885,173.97,2014-06-30 00:00:00,2014-08-26 00:00:00,86.00928806785113,7.542637964388085,73.66923029635272,13.629231941866038
sz300244,2014-09-09,43.32,43.32,42.7,42.84,-0.011537,1065340.0,45701438.12,5866638250.0,8807442530.0,0.0077794409089396305,172.41,2014-06-30 00:00:00,2014-08-26 00:00:00,85.23332388718222,7.474589303370203,73.00459645026947,13.506270852029164
sz300244,2014-09-05,43.86,43.95,43.2,43.34,-0.009370999999999999,863820.0,37465026.3,5935109750.0,8910237140.0,0.006307879782677987,174.42,2014-06-30 00:00:00,2014-08-26 00:00:00,86.22813791429952,7.561830137668485,73.85668097872099,13.663911397825885
sz300244,2014-09-04,43.6,43.76,43.08,43.75,0.007368,888335.0,38523612.75,5991256380.0,8994528730.0,0.0064868958670735435,176.07,2014-06-30 00:00:00,2014-08-26 00:00:00,87.04382560403492,7.633362376498654,74.5553390610622,13.793167167351132
sz300244,2014-09-03,43.0,43.59,42.99,43.43,0.01,1108700.0,48009078.18,5947434620.0,8928740170.0,0.00809606899049863,174.78,2014-06-30 00:00:00,2014-08-26 00:00:00,86.40717752006707,7.577531127153784,74.01003313690944,13.692282430403914
sz300244,2014-09-02,43.16,43.8,42.83,43.0,-0.00232,1385704.0,60021684.74,5888549130.0,8840336800.0,0.010118837541226389,173.05,2014-06-30 00:00:00,2014-08-26 00:00:00,85.55166091095748,7.502506066488895,73.2772605315935,13.556715277627637
sz300244,2014-09-01,42.25,43.55,42.01,43.1,0.026435000000000004,1182291.0,50809982.08,5902243430.0,8860895730.0,0.00863345314444274,173.45,2014-06-30 00:00:00,2014-08-26 00:00:00,85.75060230831276,7.51995235595471,73.44765910070714,13.58823999441468
sz300244,2014-08-29,41.24,42.04,41.2,41.99,0.011563,480075.0,20065678.74,5750236700.0,8632691680.0,0.0035056555584920533,168.98,2014-06-30 00:00:00,2014-08-26 00:00:00,83.54216517199119,7.3262820889337466,71.55607427718964,13.238285906476962
sz300244,2014-08-28,42.17,42.4,41.15,41.51,-0.009781,793099.0,33001986.8,5684504050.0,8534008850.0,0.005791453256155214,167.05,2014-06-30 00:00:00,2014-08-26 00:00:00,82.58720927118844,7.24253663779097,70.73812928822984,13.086961372131011
sz300244,2014-08-27,41.99,42.87,41.8,41.92,-0.001667,730047.0,30712886.09,5740650690.0,8618300440.0,0.005331028117302152,168.7,2014-06-30 00:00:00,2014-08-26 00:00:00,83.40297375751065,7.314075611345541,71.43685314887902,13.216229311022119
sz300244,2014-08-26,43.66,43.75,41.83,41.99,-0.031596,1022344.0,43404480.17,5750236700.0,8632691680.0,0.007465470866616674,168.98,2014-06-30 00:00:00,2014-08-26 00:00:00,83.5422386693725,7.326288534332273,71.55613722964084,13.238297553043042
sz300244,2014-08-25,44.4,44.4,43.03,43.36,-0.023423,884474.0,38409705.96,5937848610.0,8914348930.0,0.006458701654234326,174.5,2014-03-31 00:00:00,2014-04-23 00:00:00,98.56070213063914,8.171442104603996,91.29818724576356,14.83823457095676
sz300244,2014-08-22,42.63,44.47,42.58,44.4,0.039813,1744025.0,76462207.09,6080269330.0,9128161720.0,0.012735407890229098,178.68,2014-03-31 00:00:00,2014-04-23 00:00:00,100.92466045241608,8.367432475477095,93.48795563049667,15.194126598267989
sz300244,2014-08-21,42.91,43.15,41.36,42.7,-0.0021030000000000003,1249053.0,52722117.18,5847466230.0,8778660040.0,0.00912096983585316,171.84,2014-03-31 00:00:00,2014-04-23 00:00:00,97.06039494833789,8.047055071899559,89.90843125686702,14.612364529264386
sz300244,2014-08-20,43.17,43.56,42.38,42.79,-0.009491,981947.0,42108866.75,5859791100.0,8797163070.0,0.007170479529551831,172.2,2014-03-31 00:00:00,2014-04-23 00:00:00,97.26494312372708,8.064013692695296,90.09790715561527,14.643159092836619
sz300244,2014-08-19,43.71,43.8,42.93,43.2,-0.010309,901984.0,38976359.12,5915937730.0,8881454650.0,0.006586565068527184,173.85,2014-03-31 00:00:00,2014-04-23 00:00:00,98.19693018814274,8.141282605907968,90.96122009554206,14.783468997087983
sz300244,2014-08-18,42.14,43.9,42.01,43.65,0.045758999999999994,1458606.0,63290975.11,5977562080.0,8973969800.0,0.010651190409719676,175.66,2014-03-31 00:00:00,2014-04-23 00:00:00,99.21978697203748,8.226085319466346,91.90870695554679,14.93745926464723
sz300244,2014-08-15,41.5,42.1,41.5,41.74,0.009188,742785.0,31086552.67,5716000950.0,8581294380.000001,0.00542404491727735,167.98,2014-03-31 00:00:00,2014-04-23 00:00:00,94.87825299331632,7.86613867962537,87.88708197160798,14.283844809987034
sz300244,2014-08-14,41.5,41.8,41.0,41.36,-0.0009660000000000001,826173.0,34239170.72,5663962600.0,8503170470.000001,0.006032969793974275,166.45,2014-03-31 00:00:00,2014-04-23 00:00:00,94.01444824286092,7.7945226059221575,87.08692728372513,14.153799698358517
sz300244,2014-08-13,41.9,42.0,41.05,41.4,-0.011933,1426916.0,58969425.7,5669440320.0,8511394039.999999,0.01041978027206749,166.61,2014-03-31 00:00:00,2014-04-23 00:00:00,94.10535401483926,7.8020593952980155,87.17113459974848,14.167485489341221
sz300244,2014-08-12,40.56,42.0,40.4,41.9,0.031004000000000004,1770543.0,72494553.52,5737911830.0,8614188650.0,0.012929050480024542,168.62,2014-03-31 00:00:00,2014-04-23 00:00:00,95.24187531294868,7.896285773432384,88.22391052403177,14.338587858253764
sz300244,2014-08-11,40.55,40.73,39.49,40.64,0.008687,2043763.0,82203373.24,5565363640.0,8355146230.0,0.014924187113854074,163.55,2014-03-31 00:00:00,2014-04-23 00:00:00,92.37779418212604,7.658831365768109,85.57087123234416,13.907402743591453
sz300244,2014-08-08,40.14,41.05,40.11,40.29,0.0004969999999999999,1097120.0,44493076.12,5517433590.0,8283190000.0,0.008011508263572956,162.14,2014-03-31 00:00:00,2014-04-23 00:00:00,91.58221944183481,7.5928720859573975,84.8339189781807,13.787629605210984
sz300244,2014-08-07,40.31,40.56,39.7,40.27,-0.003464,1121483.0,45026743.96,5514694730.0,8279078210.0,0.008189414395744804,162.06,2014-03-31 00:00:00,2014-04-23 00:00:00,91.5367256891673,7.589100303106752,84.7917774647807,13.780780557274019
sz300244,2014-08-06,39.78,40.5,39.41,40.41,0.014306999999999999,2140842.0,85776388.94,5533866750.0,8307860700.0,0.015633087880187933,162.63,2014-03-31 00:00:00,2014-04-23 00:00:00,91.85491110122193,7.615480326959339,85.0865171602237,13.82868311558641
sz300244,2014-08-05,38.49,40.03,38.01,39.84,0.011168,2651473.0,103049863.24,5455809240.0,8190674840.0,0.019361872762252225,160.33,2014-03-31 00:00:00,2014-04-23 00:00:00,90.55927948956473,7.508062477099478,83.88635507812104,13.633626816719604
sz300244,2014-08-04,41.03,41.49,37.19,39.4,-0.046467,4919393.0,192984647.81,5395554320.0,8100215580.0,0.035922923337374534,158.56,2014-03-31 00:00:00,2014-04-23 00:00:00,89.55908364343485,7.4251385299964765,82.95985936869148,13.483048135146289
sz300244,2014-08-01,41.4,41.88,41.0,41.32,-0.0019320000000000001,1160200.0,48154311.13,5658484880.0,8494946900.0,0.008472137863165943,166.29,2014-03-31 00:00:00,2014-04-23 00:00:00,93.92342335654335,7.786975941049211,87.00260963038667,14.140095974807679
sz300244,2014-07-31,41.02,41.89,41.02,41.4,0.0038799999999999998,570648.0,23703794.54,5669440320.0,8511394039.999999,0.004167047515547355,166.61,2014-03-31 00:00:00,2014-04-23 00:00:00,94.10523466992565,7.802049500684535,87.17102404884906,14.167467522060301
sz300244,2014-07-30,41.01,41.58,41.01,41.24,-0.007937999999999999,988782.0,40840279.55,5647529440.0,8478499760.0,0.0072203908121637,165.97,2014-03-31 00:00:00,2014-04-23 00:00:00,93.7415175817086,7.771894549831188,86.83410771093064,14.112710206459237
sz300244,2014-07-29,41.48,42.03,41.21,41.57,0.00217,704168.0,29232373.42,5692720630.0,8546344210.000001,0.005142051694182646,167.29,2014-03-31 00:00:00,2014-04-23 00:00:00,94.4915918377164,7.834081488688396,87.52891221610204,14.225633283463369
sz300244,2014-07-28,40.3,41.48,39.7,41.48,0.030047000000000004,1311774.0,53061888.48,5680395760.0,8527841180.0,0.009578977912623469,166.93,2014-03-31 00:00:00,2014-04-23 00:00:00,94.28698907143139,7.817118341886503,87.33938574902666,14.1948305012756
sz300244,2014-07-25,39.45,40.27,39.09,40.27,0.024421,1356482.0,53614144.84,5514694730.0,8279078210.0,0.00990544949711115,162.06,2014-03-31 00:00:00,2014-04-23 00:00:00,91.5365891764467,7.58908898514971,84.79165101109625,13.78076000539354
sz300244,2014-07-24,41.6,41.6,38.77,39.31,-0.05754,2357532.0,93713138.04,5383229450.0,8081712550.0,0.01721542501221084,158.2,2014-03-31 00:00:00,2014-04-23 00:00:00,89.35446381560578,7.408173968661037,82.77031709726396,13.452242784356763
sz300244,2014-07-23,42.62,43.9,41.0,41.71,-0.034938,1294737.0,54678917.09,5711892660.0,8575126699.999999,0.009454568473981092,167.86,2014-03-31 00:00:00,2014-04-23 00:00:00,94.80982091081403,7.8604651323780725,87.82369235539329,14.273542414910727
sz300244,2014-07-22,43.0,43.5,42.2,43.22,0.005584,635749.0,27309812.74,5918676590.0,8885566430.0,0.004642435071790262,173.93,2014-03-31 00:00:00,2014-04-23 00:00:00,98.2422071440115,8.145036414632504,91.00316078696841,14.790285406440962
sz300244,2014-07-21,41.7,43.0,41.33,42.98,0.018483000000000003,921875.0,39148661.1,5885810270.0,8836225020.0,0.006731815278170697,172.97,2014-03-31 00:00:00,2014-04-23 00:00:00,97.69666894462472,8.099807091831716,90.49782095475705,14.708155068538245
sz300244,2014-07-18,43.1,43.29,40.21,42.2,-0.024052,1494134.0,62116093.76,4491822480.0,8675865420.0,0.014037165333390469,169.83,2014-03-31 00:00:00,2014-04-23 00:00:00,95.92371099431676,7.952815208336039,88.85550466208767,14.441237672634932
sz300244,2014-07-17,43.1,43.95,42.6,43.24,0.002783,449823.0,19495627.03,4601565820.0,8889678220.0,0.004226897382508809,174.01,2014-03-31 00:00:00,2014-04-23 00:00:00,98.28772741408022,8.148810395980155,91.04532686381619,14.797138446551386
sz300244,2014-07-16,45.0,45.13,42.5,43.12,-0.03707,840355.0,36515205.38,4588795520.0,8865007510.0,0.007896649009978112,173.53,2014-03-31 00:00:00,2014-04-23 00:00:00,98.01495180321187,8.126195194753155,90.79265091631606,14.756072297347867
sz300244,2014-07-15,44.28,45.25,44.2,44.78,0.00179,592015.0,26475993.56,4765451370.0,9206285630.0,0.005563047367745985,180.21,2014-03-31 00:00:00,2014-04-23 00:00:00,101.78824193161692,8.439030038271895,94.28790349902492,15.324138096588399
sz300244,2014-07-14,46.25,46.26,43.87,44.7,-0.019306999999999998,1025222.0,45859898.17,4756937840.0,9189838490.0,0.009633807491585806,179.89,2014-03-31 00:00:00,2014-04-23 00:00:00,101.60636653551836,8.42395116568532,94.11942971982644,15.296756901734296
sz300244,2014-07-11,45.6,45.92,45.33,45.58,-0.01128,508048.0,23176603.23,4850586730.0,9370757010.0,0.004774026139307893,183.43,2014-03-31 00:00:00,2014-04-23 00:00:00,103.6067011139249,8.589794324712544,95.9723682333069,15.59790566643618
sz300244,2014-07-10,44.9,46.85,44.87,46.1,0.01811,877216.0,40560996.87,4905924710.0,9477663410.0,0.008243024504140831,185.52,2014-03-31 00:00:00,2014-04-23 00:00:00,104.78871785128743,8.687792625528505,97.06728723329852,15.775857337199794
sz300244,2014-07-09,46.5,46.92,45.1,45.28,-0.026237,824119.0,37802450.55,4818660970.0,9309080240.0,0.00774408254747999,182.22,2014-03-31 00:00:00,2014-04-23 00:00:00,102.92475061760264,8.533255370763971,95.34066774051773,15.495238566755845
sz300244,2014-07-08,46.08,46.84,45.26,46.5,0.002587,796977.0,36730660.62,4948492380.0,9559899100.0,0.00748903456935302,187.13,2014-03-31 00:00:00,2014-04-23 00:00:00,105.69794767063713,8.763174787668015,97.90951981182046,15.912741156478367
sz300244,2014-07-07,47.5,47.83,45.86,46.38,-0.024606,1108972.0,51642956.56,4935722080.0,9535228390.0,0.01042078960815395,186.65,2014-03-31 00:00:00,2014-04-23 00:00:00,105.42521264552317,8.740562951312969,97.65688145948478,15.871681117427583
sz300244,2014-07-04,49.42,49.42,46.82,47.55,-0.018778,1843949.0,87769286.36,5060232530.0,9775767790.0,0.017327222500188148,191.36,2014-03-31 00:00:00,2014-04-23 00:00:00,108.08474590321775,8.961058763241285,100.12044513241293,16.27207171402283
sz300244,2014-07-03,44.05,48.46,43.9,48.46,0.100114,3311695.0,156322970.02,5157074000.0,9962853990.0,0.03111934009479019,195.02,2014-03-31 00:00:00,2014-04-23 00:00:00,110.15320274435116,9.132549783067729,102.03648627162143,16.583476230682585
sz300244,2014-07-02,44.15,44.89,43.51,44.05,-0.0022649999999999997,662185.0,29179933.5,4687765360.0,9056205490.0,0.006222420921255325,177.27,2014-03-31 00:00:00,2014-04-23 00:00:00,100.12889822723022,8.30145765172312,92.75082970639535,15.074325234187167
sz300244,2014-07-01,43.8,44.3,43.41,44.15,0.008681999999999999,818171.0,35983152.63,4698407280.0,9076764420.0,0.007688190379698203,177.68,2014-03-31 00:00:00,2014-04-23 00:00:00,100.35620503162686,8.320303138331441,92.96138724851323,15.108546091083472
sz300244,2014-06-30,42.88,43.78,42.25,43.77,0.020518,798841.0,34352282.32,4657967990.0,8998640510.0,0.007506550204953213,176.15,2014-03-31 00:00:00,2014-04-23 00:00:00,99.49241191141199,8.248688028864835,92.16124333388841,14.978502730378327
sz300244,2014-06-27,42.98,43.25,42.16,42.89,-0.002094,574214.0,24603856.68,4564319100.0,8817721990.0,0.005395774905396076,172.61,2014-03-31 00:00:00,2014-04-23 00:00:00,97.49206962680911,8.082844230934521,90.30829768204813,14.677352805514774
sz300244,2014-06-26,41.99,43.28,41.8,42.98,0.016076,902172.0,38509622.48,4573896830.0,8836225020.0,0.00847753108589465,172.97,2014-03-31 00:00:00,2014-04-23 00:00:00,97.69664640437988,8.099805223071634,90.49780007540605,14.708151675122481
sz300244,2014-06-25,43.0,43.0,41.39,42.3,-0.023094999999999997,1226212.0,51493268.42,4407413090.0,8598566340.0,0.011768528735753245,170.23,2014-03-31 00:00:00,2014-04-23 00:00:00,96.15092414778016,7.9716529305599515,89.06597545400741,14.475444430458431
sz300244,2014-06-24,43.86,45.5,43.3,43.3,-0.012768,946090.0,41979877.75,4447014480.0,8801842140.0,0.009211954938361253,174.26,2014-03-31 00:00:00,2014-04-23 00:00:00,98.42402705255903,8.16011068687329,91.17158316725518,14.817658247688804
sz300244,2014-06-23,42.98,44.46,42.74,43.86,0.026926,701526.0,30790303.24,4504527830.0,8915676590.0,0.006830667168949426,176.51,2014-03-31 00:00:00,2014-04-23 00:00:00,99.69695780987551,8.26564646088588,92.35071712348788,15.009296951161232
sz300244,2014-06-20,43.17,43.5,41.5,42.71,-0.003965,451924.0,19259238.04,4386420060.0,8681909420.0,0.004400325043197072,171.88,2014-03-31 00:00:00,2014-04-23 00:00:00,97.08290354891737,8.048921208427757,89.92928129532983,14.615753181009374
sz300244,2014-06-19,43.33,44.65,42.86,42.88,-0.018764,525176.0,22953549.27,4403879470.0,8716466300.0,0.005113570213128472,172.57,2014-03-31 00:00:00,2014-04-23 00:00:00,97.46936959937891,8.080962223644507,90.28727032215718,14.673935334611107
sz300244,2014-06-18,43.79,44.43,43.57,43.7,-0.002966,306663.0,13475245.48,4488095450.0,8883152460.0,0.0029859376319636877,175.87,2014-03-31 00:00:00,2014-04-23 00:00:00,99.33325886879292,8.235493014569895,92.0138175955195,14.95454236759669
sz300244,2014-06-17,45.02,45.45,43.71,43.83,-0.024916999999999998,514078.0,22761189.06,4501446760.0,8909578310.0,0.00500551043727106,176.39,2014-03-31 00:00:00,2014-04-23 00:00:00,99.62875776432192,8.259992151290625,92.28754244641559,14.999029489061249
sz300244,2014-06-16,45.35,46.5,44.8,44.95,-0.005531,520981.0,23603451.46,4616473460.0,9137247210.0,0.0050727240507086125,180.9,2014-03-31 00:00:00,2014-04-23 00:00:00,102.17464335274218,8.47106569521838,94.64583265877425,15.382310520295448
sz300244,2014-06-13,44.0,45.6,43.48,45.2,0.024943,1081537.0,48725278.84,4642149070.0,9188066160.0,0.010530784699682211,181.9,2014-03-31 00:00:00,2014-04-23 00:00:00,102.74291441235694,8.518179747401257,95.17223026436646,15.467863272053174
sz300244,2014-06-12,43.0,45.3,42.5,44.1,0.019653,1377755.0,60798295.4,4529176410.0,8964462780.0,0.013415020745460433,177.48,2014-03-31 00:00:00,2014-04-23 00:00:00,100.24256413513427,8.310881431846704,92.85612006166828,15.091437545359279
sz300244,2014-06-11,41.78,43.4,41.68,43.25,0.037917,1090858.0,46738139.39,4441879360.0,8791678350.0,0.010621542071777474,174.06,2014-03-31 00:00:00,2014-04-23 00:00:00,98.31046849774805,8.150695807148809,91.06639225468692,14.800562098438665
sz300244,2014-06-10,40.9,41.86,40.5,41.67,0.018826,514232.0,21283768.98,4279609550.0,8470502590.0,0.005007009912855251,167.7,2014-03-31 00:00:00,2014-04-23 00:00:00,94.7190078761096,7.852936031637221,87.73957094323238,14.259870585450152
sz300244,2014-06-09,43.12,43.12,40.81,40.9,-0.042155,559335.0,23288757.27,4200528690.0000005,8313980220.0,0.005446171943655978,164.6,2014-03-31 00:00:00,2014-04-23 00:00:00,92.96877766773679,7.707828453177697,86.11830768279606,13.996374832846973
sz300244,2014-06-06,42.3,43.5,42.03,42.7,0.0007030000000000001,543646.0,23306555.5,4385393040.0,8679876660.0,0.005293410188839083,171.84,2014-03-31 00:00:00,2014-04-23 00:00:00,97.06035701782312,8.047051927167441,89.908396121289,14.612358818855842
sz300244,2014-06-05,41.34,43.5,41.34,42.67,0.022771,533744.0,22754898.3,4382311960.0,8673778390.0,0.005196995715476176,171.72,2014-03-31 00:00:00,2014-04-23 00:00:00,96.9921715212437,8.041398823794315,89.84523492113945,14.60209354709224
sz300244,2014-06-04,42.23,42.23,40.5,41.72,-0.012029999999999999,581029.0,23988581.4,4284744670.0,8480666380.000001,0.005657403590398772,167.9,2014-03-31 00:00:00,2014-04-23 00:00:00,94.83273530559987,7.862364912374631,87.84491828683004,14.276992158647671
sz300244,2014-06-03,73.49,73.96,71.67,71.99,-0.011669,204747.0,14859827.7,4349145120.0,8608132260.0,0.0033891112214714967,169.94,2014-03-31 00:00:00,2014-04-23 00:00:00,95.98746450357793,7.958100865790087,88.9145604490319,14.450835712266233
sz300244,2014-05-30,73.98,73.98,71.52,72.84,-0.015009999999999999,288104.0,20960208.79,4400496320.0,8709770160.0,0.004768892832524855,171.95,2014-03-31 00:00:00,2014-04-23 00:00:00,97.1207667305568,8.052060358108859,89.96435450171238,14.62145345260468
sz300244,2014-05-29,73.5,75.94,73.39,73.95,0.002984,645105.0,47974819.05,4467554960.0,8842497300.0,0.010678215528880701,174.57,2014-03-31 00:00:00,2014-04-23 00:00:00,98.60076420121706,8.17476355913142,91.33529731440154,14.844265883516258
sz300244,2014-05-28,71.23,73.73,71.23,73.73,0.037866000000000004,542392.0,39605520.71,4454264060.0,8816191020.0,0.008978040282596089,174.05,2014-03-31 00:00:00,2014-04-23 00:00:00,98.30741487522937,8.150442638298736,91.06356364049829,14.800102378020243
sz300244,2014-05-27,71.28,71.6,70.34,71.04,-0.003367,346185.0,24559899.42,4291752590.0,8494536960.000001,0.00573028894007145,167.7,2014-03-31 00:00:00,2014-04-23 00:00:00,94.72072008836341,7.853077987234131,87.74115698991805,14.260128357630219
sz300244,2014-05-26,68.13,71.7,68.09,71.28,0.048235,785950.0,55516790.18,4306251760.0,8523234720.000001,0.013009577498552942,168.27,2014-03-31 00:00:00,2014-04-23 00:00:00,95.04072220001085,7.8796086294896215,88.03757952016244,14.30830441860767
sz300244,2014-05-23,66.96,68.12,66.1,68.0,0.0074069999999999995,373035.0,25023051.32,4108096510.0,8131032000.0,0.006174728353691963,160.52,2014-03-31 00:00:00,2014-04-23 00:00:00,90.66738107391075,7.517024931899452,83.98649112094373,13.649901423447671
sz300244,2014-05-22,65.0,68.47,65.0,67.5,0.033691000000000006,512629.0,34278089.54,4077889920.0,8071245000.0,0.008485382925687214,159.34,2014-03-31 00:00:00,2014-04-23 00:00:00,90.00074555160998,7.461755707374926,83.36897710750841,13.549539980809815
sz300244,2014-05-21,64.5,66.06,64.5,65.3,-0.004877,213609.0,13911503.1,3944980920.0,7808182200.0,0.0035358010552811493,154.15,2014-03-31 00:00:00,2014-04-23 00:00:00,87.06735915434109,7.218555358782195,80.65173935683721,13.107921013929516
sz300244,2014-05-20,65.3,67.5,65.3,65.62,0.005208,218302.0,14521986.81,3964313130.0,7846445880.0,0.0036134827825772685,154.91,2014-03-31 00:00:00,2014-04-23 00:00:00,87.49406772262432,7.25393278899412,81.04700560316384,13.172161646278417
sz300244,2014-05-19,65.0,65.5,63.56,65.28,-0.016867,338341.0,21776545.94,3943772650.0,7805790720.0,0.005600449731806929,154.1,2014-03-31 00:00:00,2014-04-23 00:00:00,87.04075944742215,7.216350037996235,80.62709966809241,13.103916449409889
sz300244,2014-05-16,67.6,67.6,62.83,66.4,-0.019057,600670.0,38563427.22,4011435420.0,7939713600.0,0.009942697270195616,156.75,2014-03-31 00:00:00,2014-04-23 00:00:00,88.5340634964162,7.3401564569557065,82.01036855450118,13.32873217500571
sz300244,2014-05-15,67.7,69.2,67.57,67.69,-0.000148,186316.0,12736736.33,4089368420.0,8093964060.0,0.003084028814405526,159.79,2014-03-31 00:00:00,2014-04-23 00:00:00,90.2540346344448,7.48275532518781,83.60360240554363,13.587672448863703
sz300244,2014-05-14,67.76,69.97,67.21,67.7,-0.001475,302004.0,20739236.36,4089972560.0,8095159800.0,0.004998975054248286,159.82,2014-03-31 00:00:00,2014-04-23 00:00:00,90.2673942087877,7.483862936902472,83.61597757022402,13.589683722054568
sz300244,2014-05-13,67.01,67.88,66.05,67.8,0.012999,296150.0,19942689.98,4096013880.0,8107117200.0,0.004902075673630286,160.05,2014-03-31 00:00:00,2014-04-23 00:00:00,90.40073529334539,7.494917940865249,83.73949332287526,13.609758115274598
sz300244,2014-05-12,65.1,66.96,63.2,66.93,0.028111,428608.0,28023825.86,4043454410.0,8003087820.0,0.007094610333445061,158.0,2014-03-31 00:00:00,2014-04-23 00:00:00,89.2406954926366,7.39874169753894,82.66493187345226,13.435115054678828
sz300244,2014-05-09,66.82,66.82,65.0,65.1,-0.026614999999999996,235056.0,15464160.57,3932898280.0,7784267400.0,0.003890806349560609,153.68,2014-03-31 00:00:00,2014-04-23 00:00:00,86.80064262772854,7.196442502355232,80.40467602569397,13.06776705499584
sz300244,2014-05-08,66.21,67.69,65.68,66.88,-0.0077150000000000005,554793.0,36987706.76,4040433750.0,7997109120.0,0.00918331004437333,157.88,2014-03-31 00:00:00,2014-04-23 00:00:00,89.17400887390758,7.393212862695883,82.60315910528102,13.425075437772145
sz300244,2014-05-07,69.28,69.28,66.14,67.4,-0.038516,968470.0,65209766.05,4071848600.0,8059287600.0,0.016030772362214056,159.11,2014-03-31 00:00:00,2014-04-23 00:00:00,89.86733536625825,7.45069497442356,83.2453973458039,13.529455184520723
sz300244,2014-05-06,70.19,71.09,68.52,70.1,-0.001425,574729.0,40151213.44,4234964200.0,8382137400.0,0.009513304244697039,165.48,2014-03-31 00:00:00,2014-04-23 00:00:00,93.46732277007028,7.749161685918392,86.58011713747071,14.071430397719277
sz300244,2014-05-05,70.11,72.65,69.21,70.2,0.001284,410906.0,29128432.24,4241005519.9999995,8394094800.000001,0.0068015948255592,165.72,2014-03-31 00:00:00,2014-04-23 00:00:00,93.60070377294672,7.760219999417562,86.70366986703122,14.091510800610147
sz300244,2014-04-30,69.0,70.68,67.0,70.11,0.019041,383257.0,26612854.38,4235568330.0,8383333140.0,0.006343929828656548,165.5,2014-03-31 00:00:00,2014-04-23 00:00:00,93.4806745867773,7.750268654465228,86.5924851161421,14.073440503004289
sz300244,2014-04-29,69.48,71.6,67.0,68.8,-0.015737,496298.0,34553075.75,4156427060.0,8226691200.0,0.008215061134742973,162.41,2014-03-31 00:00:00,2014-04-23 00:00:00,91.73396810018173,7.605453219708752,84.97448592955739,13.810475243885463
sz300244,2014-04-28,71.73,71.73,66.11,69.9,-0.025512,560030.0,38781177.0,4222881559.9999995,8358222600.0,0.009269996433430638,165.01,2014-03-31 00:00:00,2014-04-23 00:00:00,93.20066699670893,7.727053866404359,86.33311008293249,14.031285585138793
sz300244,2014-04-25,71.0,74.38,70.15,71.73,-0.008158,632385.0,45586302.91,4333437690.0,8577043020.0,0.010467665464459465,169.33,2014-03-31 00:00:00,2014-04-23 00:00:00,95.64065129248276,7.929347376678172,88.59330241412157,14.398623261793674
sz300244,2014-04-24,76.7,76.7,70.96,72.32,-0.04792,710900.0,51739877.76,4369081470.0,8647591680.0,0.011767298997058985,170.72,2014-03-31 00:00:00,2014-04-23 00:00:00,96.42730524870166,7.9945670547105,89.32199121848194,14.51705338329459
sz300244,2014-04-23,79.0,80.0,75.5,75.96,-0.0505,664747.0,51229962.11,4588985460.0,9082841040.0,0.01100334323569637,179.31,2014-03-31 00:00:00,2014-04-23 00:00:00,101.28067520450136,8.396948843280502,93.81773718435629,15.247724333348657
sz300244,2014-04-22,83.4,83.4,79.05,80.0,-0.031477,584203.0,47112760.6,4833054720.0,9565920000.0,0.009670124322531982,188.85,2013-12-31 00:00:00,2014-04-08 00:00:00,111.11108950111189,9.42014680604568,126.80335718420501,16.588472966652095
sz300244,2014-04-21,83.41,84.5,81.8,82.6,-0.015612000000000001,402222.0,33436986.79,4990129000.0,9876812400.0,0.0066578513701749985,194.99,2013-12-31 00:00:00,2014-04-08 00:00:00,114.72220019670355,9.726301601557921,130.92446662000285,17.127598380887285
sz300244,2014-04-18,80.13,84.5,80.12,83.91,0.039004000000000004,338974.0,28155791.73,5069270270.0,10033454340.0,0.005610927574394253,198.08,2013-12-31 00:00:00,2014-04-08 00:00:00,116.5416484117071,9.880556855181005,133.0008763008111,17.399235241477225
sz300244,2014-04-17,81.74,83.3,80.48,80.76,-0.011142,238442.0,19388276.61,4878968740.0,9656796240.0,0.003946853719747342,190.64,2013-12-31 00:00:00,2014-04-08 00:00:00,112.16669850328495,9.509642749384028,128.00805030665046,16.746071469866546
sz300244,2014-04-16,83.13,84.77,81.55,81.67,-0.017563,300325.0,24928692.18,4933944740.0,9765608580.0,0.004971183108548557,192.79,2013-12-31 00:00:00,2014-04-08 00:00:00,113.43054159776729,9.616793057632167,129.45038651318035,16.934758549626487
sz300244,2014-04-15,81.25,85.04,81.01,83.13,0.023138,695843.0,58105967.76,5022147990.0,9940186620.0,0.011518065318899533,196.24,2013-12-31 00:00:00,2014-04-08 00:00:00,115.45833635924471,9.788712210179552,131.76456761418834,17.237500775751002
sz300244,2014-04-14,79.04,83.0,79.04,81.25,0.019704,392342.0,32143674.14,4908571200.0,9715387500.0,0.0064943109106780405,191.8,2013-12-31 00:00:00,2014-04-08 00:00:00,112.84727608518565,9.567343027215829,128.7847461575939,16.84767917499985
sz300244,2014-04-11,77.56,81.0,76.1,79.68,0.016327,301067.0,23786221.19,4813722500.0,9527656320.0,0.004983465199749259,188.1,2013-12-31 00:00:00,2014-04-08 00:00:00,110.66669943943111,9.382470822136453,126.29620572008535,16.52212718102494
sz300244,2014-04-10,79.95,83.39,78.0,78.4,-0.01951,640130.0,51878356.14,4736393630.0,9374601600.0,0.010595865952129491,185.07,2013-12-31 00:00:00,2014-04-08 00:00:00,108.8888708451425,9.23174413563396,124.2672936171974,16.2567039752215
sz300244,2014-04-09,75.83,80.2,75.83,79.96,0.048106,730543.0,57694240.18,4830638190.0,9561137040.0,0.012092443271972723,188.76,2013-12-31 00:00:00,2014-04-08 00:00:00,111.05556491666667,9.415439357498762,126.73999083845568,16.58018335242736
sz300244,2014-04-08,74.6,76.36,73.16,76.29,0.030667000000000003,716738.0,53143992.36,4608921810.0,9122300460.0,0.011863933534598194,180.09,2013-12-31 00:00:00,2014-04-08 00:00:00,105.95833333333334,8.983289245075175,120.92287501307662,15.819185609496902
sz300244,2014-04-04,73.35,75.18,72.25,74.02,0.009685,384283.0,28281255.08,4471783880.0,8850867480.0,0.00636091287578057,174.73,2013-09-30 00:00:00,2013-10-24 00:00:00,110.32834908004266,9.454373959421865,136.57215918566783,15.776995424045124
sz300244,2014-04-03,75.0,75.48,72.66,73.31,-0.022533,385035.0,28484228.29,4428890520.0,8765969940.0,0.006373360488937984,173.06,2013-09-30 00:00:00,2013-10-24 00:00:00,109.27006846694034,9.363686654176169,135.2621453083564,15.625660898245616
sz300244,2014-04-02,78.78,78.78,74.05,75.0,-0.038462,441848.0,33586152.23,4530988800.0,8968050000.0,0.007313767802736568,177.05,2013-09-30 00:00:00,2013-10-24 00:00:00,111.78901023455559,9.579542484990458,138.3802678846001,15.985870518642182
sz300244,2014-04-01,77.8,78.88,75.0,78.0,0.015625,295707.0,22756745.31,4712228350.0,9326772000.0,0.0048947428449642085,184.13,2013-09-30 00:00:00,2013-10-24 00:00:00,116.26062644903851,9.96272896649998,143.91554767944697,16.62531331953826
sz300244,2014-03-31,73.08,79.2,70.75,76.8,0.055235,878635.0,66878679.4,4639732530.0,9183283200.0,0.01454376250434419,181.3,2013-09-30 00:00:00,2013-10-24 00:00:00,114.47200142674562,9.809456213169213,141.70146233053242,16.369539268468444
sz300244,2014-03-28,75.98,77.0,70.74,72.78,-0.051602999999999996,1120503.0,82673389.21,4396871530.0,8702595720.0,0.018547325702736647,171.81,2013-09-30 00:00:00,2013-10-24 00:00:00,108.48010294080997,9.295992090073977,134.28427064164137,15.512695530823411
sz300244,2014-03-27,79.56,80.0,76.6,76.74,-0.043023,391647.0,30685401.32,4636107740.0,9176108760.0,0.006482806799481325,181.16,2013-09-30 00:00:00,2013-10-24 00:00:00,114.38258760920795,9.80179406943925,141.5907796435895,16.356753058923015
sz300244,2014-03-26,74.98,80.3,74.28,80.19,0.077823,663378.0,51887338.91,4844533220.0,9588639060.0,0.01098068263839875,189.3,2013-09-30 00:00:00,2013-10-24 00:00:00,119.52490771377781,10.242455220385914,147.95630369757006,17.092106768420784
sz300244,2014-03-25,72.02,75.5,72.02,74.4,0.033333,664010.0,49294910.77,4494740890.0,8896305600.0,0.01099114391886559,175.63,2013-09-30 00:00:00,2013-10-24 00:00:00,110.89474590334203,9.502910237011006,137.27328485063882,15.8579903828558
sz300244,2014-03-24,73.42,75.09,71.0,72.0,-0.028339999999999997,534150.0,38620222.48,4349749250.0,8609328000.0,0.008841613111376477,169.97,2013-09-30 00:00:00,2013-10-24 00:00:00,107.31753065405054,9.19636771206475,132.84515722486248,15.346447256456338
sz300244,2014-03-21,76.82,77.8,73.5,74.1,-0.04817,1014018.0,76235284.2,4476616930.0,8860433400.0,0.016784713763748373,174.92,2013-09-30 00:00:00,2013-10-24 00:00:00,110.44761609415902,9.464594314950448,136.7197962506046,15.794050651932093
sz300244,2014-03-20,77.78,81.49,75.88,77.85,0.001673,727707.0,57402697.19,4703166370.0,9308835900.0,0.012045499880966362,183.78,2013-09-30 00:00:00,2013-10-24 00:00:00,116.03712437531809,9.943576389639375,143.6388811558835,16.59335243891461
sz300244,2014-03-19,78.34,79.0,76.0,77.72,-0.007914000000000001,427907.0,33169262.61,4695312660.0,9293291280.0,0.007083006915241295,183.47,2013-09-30 00:00:00,2013-10-24 00:00:00,115.8433185034618,9.926968571219726,143.39897467125851,16.56563812632926
sz300244,2014-03-18,79.01,80.96,77.41,78.34,-0.013971,681091.0,53943466.46,4732768830.0,9367427160.0,0.011273880228796216,184.93,2013-09-30 00:00:00,2013-10-24 00:00:00,116.76741583235906,10.006157300092658,144.5428870796065,16.69778439200761
sz300244,2014-03-17,78.58,81.48,78.0,79.45,0.0,509213.0,40781224.43,4799827470.0,9500154300.0,0.008428838974497557,187.55,2013-09-30 00:00:00,2013-10-24 00:00:00,118.42188803002658,10.147934087225282,146.59090866455904,16.934374538687614
sz300244,2014-03-14,75.68,80.6,74.6,79.45,0.041283999999999994,694914.0,54565266.47,4799827470.0,9500154300.0,0.011502687887237746,187.55,2013-09-30 00:00:00,2013-10-24 00:00:00,118.42188803002658,10.147934087225282,146.59090866455904,16.934374538687614
sz300244,2014-03-13,73.1,76.9,72.1,76.3,0.040928,741797.0,55816668.89,4609525940.0,9123496200.0,0.01227872710485278,180.12,2013-09-30 00:00:00,2013-10-24 00:00:00,113.72679118283443,9.745596866201037,140.77898888733432,16.262973923240548
sz300244,2014-03-12,70.82,75.8,70.58,73.3,0.033705,849937.0,61842082.5,4428286390.0,8764774200.0,0.014068733729753192,173.03,2013-09-30 00:00:00,2013-10-24 00:00:00,109.25519457910097,9.362412065196667,135.2437333680469,15.623533926689019
sz300244,2014-03-11,71.62,74.92,70.85,70.91,-0.028630000000000003,953053.0,69125575.46,4283898880.0,8478992340.0,0.01577557970509332,167.39,2013-09-30 00:00:00,2013-10-24 00:00:00,105.69281814357188,9.057141123624891,130.83397426543056,15.114112756239953
sz300244,2014-03-10,73.22,77.85,71.0,73.0,-0.006803,1433732.0,107219349.05,4410162430.0,8728902000.0,0.023732104579195737,172.33,2013-09-30 00:00:00,2013-10-24 00:00:00,108.80799092371794,9.324089815029177,134.6901533560132,15.55958363573093
sz300244,2014-03-07,73.3,75.17,71.7,73.5,0.000272,746491.0,54984777.33,4440369020.0,8788689000.0,0.012356425390068143,173.51,2013-09-30 00:00:00,2013-10-24 00:00:00,109.55328190048692,9.387956080243068,135.61272673599817,15.66616052578786
sz300244,2014-03-06,75.19,75.66,70.12,73.48,-0.004336,1260251.0,92047646.85,4439160760.0,8786297520.0,0.020860529385288585,173.46,2013-09-30 00:00:00,2013-10-24 00:00:00,109.52349151079599,9.385403250558916,135.5758501047697,15.661900488854892
sz300244,2014-03-05,68.3,73.8,68.21,73.8,0.10001499999999999,1824789.0,130373616.1,4458492980.0,8824561200.0,0.030205145282072417,174.21,2013-09-30 00:00:00,2013-10-24 00:00:00,110.00045347707257,9.426275581480214,136.16626703864927,15.730106229465855
sz300244,2014-03-04,63.01,67.98,62.58,67.09,0.046646,1549235.0,102627750.52,4053120510.0,8022219660.0,0.025643988599292847,158.38,2013-09-30 00:00:00,2013-10-24 00:00:00,99.99904862849377,8.569224584646769,123.78582750112432,14.299901573583865
sz300244,2014-03-03,59.8,64.45,57.01,64.1,0.060379999999999996,1409828.0,87780706.63,3872485090.0,7664693400.0,0.023336429372798437,151.32,2013-09-30 00:00:00,2013-10-24 00:00:00,95.54237882578613,8.187318906914818,118.26904942179523,13.6625961151945
sz300244,2014-02-28,66.02,66.02,56.8,60.45,-0.039561,1647805.0,98593931.4,3651976970.0,7228248300.0,0.02727558609166147,142.7,2013-09-30 00:00:00,2013-10-24 00:00:00,90.10201892320313,7.721117813345044,111.53459082762335,12.884622602458082
sz300244,2014-01-30,59.9,63.02,59.1,62.94,0.050575999999999996,1048985.0,64809252.5,3802405800.0,7525987560.0,0.01736351125384881,148.58,2013-09-30 00:00:00,2013-10-24 00:00:00,93.81336963951185,8.039154817062867,116.1287607308984,13.41534715110286
sz300244,2014-01-29,58.6,59.99,58.6,59.91,0.018878,337867.0,20151303.39,3619353850.0,7163678340.0,0.005592603765448355,141.43,2013-09-30 00:00:00,2013-10-24 00:00:00,89.29708049632949,7.6521401755445275,110.53818165549032,12.769516104596773
sz300244,2014-01-28,59.98,60.46,58.3,58.8,-0.019673,612660.0,36307679.51,3552295220.0,7030951200.0,0.01014116388671097,138.81,2013-09-30 00:00:00,2013-10-24 00:00:00,87.64256416992957,7.51035960688574,108.49010544490149,12.532919647491433
sz300244,2014-01-27,60.5,60.95,59.36,59.98,-0.016721,773424.0,46511805.67,3623582780.0,7172048520.0,0.012802238650664963,141.59,2013-09-30 00:00:00,2013-10-24 00:00:00,89.40135706751887,7.661075954131366,110.66726250006528,12.784427693505773
sz300244,2014-01-24,60.03,62.0,59.11,61.0,-0.008936,957266.0,58004994.24,3685204220.0,7294014000.0,0.015845316165409143,144.0,2013-09-30 00:00:00,2013-10-24 00:00:00,90.9216581128234,7.79135520450591,112.54919763369836,13.001831314922594
sz300244,2014-01-23,60.61,63.28,60.6,61.55,0.016012000000000002,807249.0,50338194.22,3718431480.0,7359779700.0,0.013362132990010076,145.3,2013-09-30 00:00:00,2013-10-24 00:00:00,91.74145979757452,7.861606520371954,113.56400558762941,13.119063264251949
sz300244,2014-01-22,59.97,60.9,59.41,60.58,0.013722,426728.0,25758864.81,3659830690.0,7243792920.0,0.0070634913004677825,143.01,2013-09-30 00:00:00,2013-10-24 00:00:00,90.29564591518067,7.7377103030003145,111.77427588220358,12.912311335153474
sz300244,2014-01-21,59.99,60.98,59.05,59.76,0.008097,269149.0,16141190.3,3610291880.0,7145742240.0,0.00445513680738744,141.07,2013-09-30 00:00:00,2013-10-24 00:00:00,89.07338098135453,7.632970679338433,110.26127072531088,12.737526989799447
sz300244,2014-01-20,61.0,62.37,59.23,59.28,-0.028197000000000003,378012.0,22876138.43,3581293550.0,7088346720.0,0.006257111026265915,139.94,2013-09-30 00:00:00,2013-10-24 00:00:00,88.35794668702964,7.571662924637641,109.3756560383682,12.635219616564127
sz300244,2014-01-17,61.2,62.0,60.53,61.0,-0.000655,324203.0,19897727.7,3685204220.0,7294014000.0,0.005366427969628234,144.0,2013-09-30 00:00:00,2013-10-24 00:00:00,90.92166487140878,7.79135578366978,112.54920599994878,13.001832281402846
sz300244,2014-01-16,61.08,61.98,59.65,61.04,-0.008286,332648.0,20179569.9,3687620750.0,7298796960.0,0.005506215334101262,144.09,2013-09-30 00:00:00,2013-10-24 00:00:00,90.9812575951336,7.796462466585393,112.6229740479502,13.010354063314317
sz300244,2014-01-15,58.3,61.66,58.24,61.55,0.056834,1229115.0,74681229.33,3718431480.0,7359779700.0,0.02034514516588591,145.3,2013-09-30 00:00:00,2013-10-24 00:00:00,91.74142705975066,7.861603714967614,113.5639650624577,13.11905858273082
sz300244,2014-01-14,58.36,58.49,57.47,58.24,0.005351,330508.0,19180147.61,3518463840.0,6963989760.0,0.0054707925945318234,137.48,2013-09-30 00:00:00,2013-10-24 00:00:00,86.8077929549491,7.4388255061510264,107.45676715781069,12.413547049707732
sz300244,2014-01-13,57.31,58.48,57.0,57.93,0.010995,257986.0,14889664.17,3499735750.0,6926921820.0,0.00427035926355297,136.75,2013-09-30 00:00:00,2013-10-24 00:00:00,86.34575681025738,7.399232214570857,106.88482645146885,12.34747570719851
sz300244,2014-01-10,57.8,59.0,57.2,57.3,-0.013938999999999998,325407.0,18877406.19,3461675440.0,6851590200.0,0.005386357393459162,135.26,2013-09-30 00:00:00,2013-10-24 00:00:00,85.40671003343971,7.318762421743783,105.72240856924995,12.213191664843555
sz300244,2014-01-09,59.5,59.65,58.11,58.11,-0.022046,379822.0,22367839.79,3510610120.0,6948445140.0,0.006287071382338521,137.18,2013-09-30 00:00:00,2013-10-24 00:00:00,86.61402289862363,7.422220756873848,107.21690500815868,12.385837858756767
sz300244,2014-01-08,58.78,61.1,58.62,59.42,0.010888,457790.0,27428616.24,3589751390.0,7105087080.0,0.0075776506071636345,140.27,2013-09-30 00:00:00,2013-10-24 00:00:00,88.56656130924729,7.589539750206909,109.63389383156945,12.665051586022212
sz300244,2014-01-07,57.08,58.89,57.08,58.78,0.016955,309363.0,18076252.61,3551086960.0,7028559720.0,0.005120786211329502,138.76,2013-09-30 00:00:00,2013-10-24 00:00:00,87.61263494002037,7.507794879558279,108.45305694752481,12.52863975635502
sz300244,2014-01-06,58.28,59.59,57.5,57.8,-0.017174000000000002,406824.0,23722065.59,3491882040.0,6911377200.0,0.0067340267886025155,136.44,2013-09-30 00:00:00,2013-10-24 00:00:00,86.15192898409502,7.382622514819514,106.64489279026584,12.319758255139135
sz300244,2014-01-03,58.53,59.9,58.53,58.81,-0.008263,251399.0,14878410.74,3552899350.0,7032146940.0,0.004161326773864281,138.83,2013-09-30 00:00:00,2013-10-24 00:00:00,87.65735642330893,7.51162720035847,108.50841633235775,12.535034945289537
sz300244,2014-01-02,58.68,59.5,57.81,59.3,0.010738,271594.0,15969574.62,3582501810.0,7090738200.0,0.004495608112477129,139.99,2013-09-30 00:00:00,2013-10-24 00:00:00,88.38770402163975,7.574212921730732,109.41249175170208,12.6394749266081
sz300244,2013-12-31,57.49,59.1,57.08,58.67,0.007383,367658.0,21469264.15,3544441510.0,7015406580.0,0.006085724591347538,138.5,2013-09-30 00:00:00,2013-10-24 00:00:00,87.44868009478199,7.49374508698667,108.25010215476424,12.505194151806009
sz300244,2013-12-30,57.0,58.25,56.81,58.24,0.02409,400130.0,23015684.11,3518463840.0,6963989760.0,0.006623223162071775,137.48,2013-09-30 00:00:00,2013-10-24 00:00:00,86.80777826783061,7.438824247566885,107.45674897706657,12.413544949444264
sz300244,2013-12-27,55.55,57.3,55.2,56.87,0.015536000000000001,318790.0,18113227.1,3435697770.0,6800173380.0,0.0052768283224167295,134.25,2013-09-30 00:00:00,2013-10-24 00:00:00,84.76577084809989,7.263838380969334,104.92900914672204,12.121537120218209
sz300244,2013-12-26,56.54,57.39,55.95,56.0,-0.01339,291818.0,16485494.34,3383138300.0,6696144000.0,0.004830369482678258,132.2,2013-09-30 00:00:00,2013-10-24 00:00:00,83.46899651819324,7.152713819076166,103.32377103984697,11.936097903194183
sz300244,2013-12-25,57.44,57.5,56.2,56.76,-0.000704,418279.0,23868790.52,3429052320.0,6787020240.0,0.006923637735571209,133.99,2013-09-30 00:00:00,2013-10-24 00:00:00,84.60181481861449,7.249788486915971,104.72605288801752,12.098091346321427
sz300244,2013-12-24,55.7,57.1,54.71,56.8,0.019749,456077.0,25701224.48,3431468850.0,6791803200.0,0.0075492958649471635,134.08,2013-09-30 00:00:00,2013-10-24 00:00:00,84.66141645579937,7.2548959336532635,104.79983196972421,12.106614402861041
sz300244,2013-12-23,53.09,55.9,52.61,55.7,0.047386000000000005,707529.0,38613558.43,3365014350.0,6660271800.0,0.011711499922726928,131.49,2013-09-30 00:00:00,2013-10-24 00:00:00,83.02181856103743,7.114393771068432,102.77022283887919,11.872151287092256
sz300244,2013-12-20,52.84,53.9,52.84,53.18,0.006625,271940.0,14543411.08,3212773130.0,6358945320.0,0.004501335330826799,125.54,2013-09-30 00:00:00,2013-10-24 00:00:00,79.26573255804206,6.792523263694982,98.12067646395808,11.335029575621839
sz300244,2013-12-19,52.3,53.8,52.01,52.83,0.00018899999999999999,322082.0,17112330.73,3191628510.0,6317094420.0,0.005331319734325847,124.71,2013-09-30 00:00:00,2013-10-24 00:00:00,78.74405320555525,6.747818963064677,97.47490521689612,11.260429231960101
sz300244,2013-12-18,52.17,52.96,52.01,52.82,0.012459,123834.0,6498193.51,3191024380.0,6315898680.0,0.002049784364229771,124.69,2013-09-30 00:00:00,2013-10-24 00:00:00,78.7291733917842,6.746543866273952,97.45648594105326,11.258301412993047
sz300244,2013-12-17,53.79,53.79,51.7,52.17,-0.027405000000000002,428326.0,22463632.03,3151755810.0,6238175580.0,0.007089942485106421,123.15,2013-09-30 00:00:00,2013-10-24 00:00:00,77.76035710264237,6.663523032808194,96.25721727107296,11.119760319176427
sz300244,2013-12-16,53.29,53.79,52.4,53.64,0.005436,349283.0,18587419.72,3240563190.0,6413949360.0,0.005781569135209488,126.62,2013-09-30 00:00:00,2013-10-24 00:00:00,79.9514259302612,6.851282427740421,98.96947575411448,11.433083985807482
sz300244,2013-12-13,53.5,53.68,52.71,53.35,-0.002804,247086.0,13138260.29,3223043370.0,6379272900.0,0.004089935066557917,125.94,2013-09-30 00:00:00,2013-10-24 00:00:00,79.51915977770956,6.814240217915831,98.43438642948381,11.371269763373784
sz300244,2013-12-12,52.11,53.99,52.0,53.5,0.027462999999999998,417026.0,22222084.13,3232105340.0,6397209000.0,0.006902897230447322,126.29,2013-09-30 00:00:00,2013-10-24 00:00:00,79.74275847246635,6.833401074528809,98.71117255733456,11.403244460841984
sz300244,2013-12-11,51.5,52.88,51.5,52.07,0.004824,198949.0,10369477.02,3145714490.0,6226218180.0,0.0032931387965854458,122.92,2013-09-30 00:00:00,2013-10-24 00:00:00,77.61131882361346,6.650751486456261,96.07272724889808,11.098447789206991
sz300244,2013-12-10,52.33,52.85,51.7,51.82,-0.018375,218194.0,11379482.35,3130611190.0,6196324680.0,0.003611695095231548,122.33,2013-09-30 00:00:00,2013-10-24 00:00:00,77.2387192419901,6.618822287740203,95.61149738551039,11.04516590886264
sz300244,2013-12-09,50.76,52.9,50.6,52.79,0.045347000000000005,590872.0,30777723.9,3189211980.0,6312311460.0,0.009780514144437648,124.62,2013-09-30 00:00:00,2013-10-24 00:00:00,78.6845478079614,6.742719763392541,97.40124526729697,11.251919937718212
sz300244,2013-12-06,50.5,51.6,50.08,50.5,-0.009804,726141.0,36907324.76,3050865790.0,6038487000.0,0.012019578383354582,119.21,2013-09-30 00:00:00,2013-10-24 00:00:00,75.27122363001128,6.450221566037441,93.17599349048399,10.763813296176496
sz300244,2013-12-05,54.18,54.48,50.0,51.0,-0.07053,1514913.0,78892514.83,3081072380.0,6098274000.0,0.02507586757828779,120.39,2013-09-30 00:00:00,2013-10-24 00:00:00,76.01648929102043,6.514085661866379,94.09853553284803,10.870386566070248
sz300244,2013-12-04,56.88,57.71,54.7,54.87,-0.038381,790187.0,44327758.78,3314871410.0,6561025380.0,0.013079711194588993,129.53,2013-09-30 00:00:00,2013-10-24 00:00:00,81.78476905227757,7.008387211923331,101.2389162994481,11.695252741960738
sz300244,2013-12-03,54.15,57.41,52.51,57.06,0.025889999999999996,1157853.0,63917517.04,3447176280.0,6822892440.0,0.019165568225597097,134.7,2013-09-30 00:00:00,2013-10-24 00:00:00,85.04903610710436,7.288112248118363,105.27965472754606,12.162044158820427
sz300244,2013-12-02,58.65,59.4,55.62,55.62,-0.1,1470678.0,83646273.29,3360181290.0,6650705880.0,0.02434365985056717,131.3,2013-09-30 00:00:00,2013-10-24 00:00:00,82.90268557750281,7.1041849010306795,102.62275168638556,11.855115225628897
sz300244,2013-11-29,62.14,62.2,61.0,61.8,-0.005632,336056.0,20643872.51,3733534770.0,7389673200.0,0.005562626861514403,145.89,2013-09-30 00:00:00,2013-10-24 00:00:00,92.11409508611423,7.893538778922977,114.02527965153949,13.172350250698772
sz300244,2013-11-28,60.05,62.57,60.05,62.15,0.035833,775480.0,48012576.33,3754679390.0,7431524100.0,0.012836270955214633,146.71,2013-09-30 00:00:00,2013-10-24 00:00:00,92.63582002449218,7.938246985947835,114.67110732801085,13.246957113160091
sz300244,2013-11-27,58.7,60.48,58.5,60.0,0.022147,555915.0,33214938.9,3624791040.0,7174440000.0,0.009201882158702313,141.64,2013-09-30 00:00:00,2013-10-24 00:00:00,89.43123073361457,7.663635920025561,110.70424221666124,12.78869963899595
sz300244,2013-11-26,57.01,59.65,57.01,58.7,0.025686,620363.0,36529741.91,3546253900.0,7018993800.0,0.010268669172277823,138.57,2013-09-30 00:00:00,2013-10-24 00:00:00,87.49351192501136,7.497586863754001,108.30559813477049,12.511605120394574
sz300244,2013-11-25,58.18,58.57,56.81,57.23,-0.022712,567358.0,32485556.18,3457446520.0,6843220020.0,0.009391294457390478,135.1,2013-09-30 00:00:00,2013-10-24 00:00:00,85.30243361517203,7.309826656261273,105.59332791397219,12.198280097802419
sz300244,2013-11-22,57.62,59.98,57.62,58.56,0.021455000000000002,434395.0,25645218.67,3537796060.0,7002253440.0,0.007190400681264821,138.24,2013-09-30 00:00:00,2013-10-24 00:00:00,87.2848470616359,7.479705732866129,108.04729814954464,12.481765966432022
sz300244,2013-11-21,57.98,58.16,56.9,57.33,-0.013253000000000001,386468.0,22134325.02,3463487840.0,6855177420.0,0.006397080475963213,135.34,2013-09-30 00:00:00,2013-10-24 00:00:00,85.45148544148876,7.3225993635217685,105.77783470592892,12.219594565039106
sz300244,2013-11-20,58.4,58.4,56.93,58.1,-0.006498,449643.0,25890855.98,3510005990.0,6947249400.0,0.007442795930955093,137.15,2013-09-30 00:00:00,2013-10-24 00:00:00,86.59918443277634,7.420949203313279,107.19853691567234,12.383715952558363
sz300244,2013-11-19,59.02,59.78,58.03,58.48,-0.009149,327278.0,19271121.72,3532963000.0,6992687520.0,0.005417327450075191,138.05,2013-09-30 00:00:00,2013-10-24 00:00:00,87.1655864132899,7.469485922839893,107.89966896460433,12.464711648852607
sz300244,2013-11-18,59.1,60.98,58.9,59.02,-0.001354,562730.0,33723153.86,3565586120.0,7057257480.0,0.009314688660499948,139.32,2013-09-30 00:00:00,2013-10-24 00:00:00,87.97042785776054,7.538455249921423,108.89595808512513,12.579804278193802
sz300244,2013-11-15,57.3,59.8,57.3,59.1,0.014766,577932.0,34189705.35,3570419170.0,7066823400.0,0.00956632248868415,139.51,2013-09-30 00:00:00,2013-10-24 00:00:00,88.08970131333881,7.548676157438596,109.0436031237547,12.596860427212247
sz300244,2013-11-14,56.4,58.6,56.01,58.24,0.021754,397410.0,22937312.06,3518463840.0,6963989760.0,0.0065781998771372915,137.48,2013-09-30 00:00:00,2013-10-24 00:00:00,86.8078959221523,7.438834329725863,107.45689461782784,12.413561774056527
sz300244,2013-11-13,58.5,59.29,56.63,57.0,-0.031929,489602.0,28214613.6,3443551490.0,6815718000.0,0.008104224397701688,134.56,2013-09-30 00:00:00,2013-10-24 00:00:00,84.95968297863507,7.280455305020448,105.1690471657834,12.149266627834614
sz300244,2013-11-12,56.6,59.4,55.02,58.88,0.048060000000000005,931773.0,53564126.56,3557128270.0,7040517120.0,0.015423338737233673,138.99,2013-09-30 00:00:00,2013-10-24 00:00:00,87.7618304635043,7.5205799006689045,108.63774161790136,12.549974772340677
sz300244,2013-11-11,54.1,56.24,53.8,56.18,0.035194,432624.0,24057136.31,3394012680.0,6717667320.0,0.007161085891994959,132.62,2013-09-30 00:00:00,2013-10-24 00:00:00,83.73741051419222,7.175715036036968,103.65603268696579,11.974481205599563
sz300244,2013-11-08,53.36,54.52,52.85,54.27,0.0068650000000000004,410178.0,22061470.32,3278623500.0,6489280980.0,0.00678954447194074,128.11,2013-09-30 00:00:00,2013-10-24 00:00:00,80.89054854857372,6.931758719657348,100.13198751824856,11.567378873524735
sz300244,2013-11-07,53.01,54.34,53.0,53.9,0.008608,446598.0,23972360.01,3256270620.0,6445038600.0,0.007392393019226393,127.24,2013-09-30 00:00:00,2013-10-24 00:00:00,80.33902116825367,6.884496650154041,99.44926829142791,11.488510250653995
sz300244,2013-11-06,55.09,55.7,53.39,53.44,-0.034508,637468.0,34959955.49,3228480550.0,6390034560.0,0.010551802742005059,126.15,2013-09-30 00:00:00,2013-10-24 00:00:00,79.65336500231376,6.825740674428561,98.6005150578103,11.39046116098028
sz300244,2013-11-05,54.51,55.35,54.01,55.35,0.016529,507655.0,27912746.76,3343869730.0,6618420900.0,0.00840304991486615,130.66,2013-09-30 00:00:00,2013-10-24 00:00:00,82.50028483127127,7.069701949294827,102.12463185382198,11.797571767534354
sz300244,2013-11-04,54.11,55.84,54.02,54.45,-0.01,966152.0,52799473.72,3289497870.0,6510804300.0,0.015992403241775015,128.54,2013-09-30 00:00:00,2013-10-24 00:00:00,81.15881084678476,6.954746937170338,100.46406138321876,11.60574048308937
sz300244,2013-11-01,57.06,59.87,53.7,55.0,-0.045139,1962374.0,109185392.59,3322725120.0,6576570000.0,0.03248254553178326,129.83,2013-09-30 00:00:00,2013-10-24 00:00:00,81.97859681493411,7.024996906232666,101.47884988203916,11.722970184938758
sz300244,2013-10-31,61.0,61.44,57.5,57.6,-0.061125,662319.0,38849306.67,3479799400.0,6887462400.0,0.010963153335792862,135.97,2013-09-30 00:00:00,2013-10-24 00:00:00,85.85395865464619,7.357088525170329,106.27604424312979,12.277148385931312
sz300244,2013-10-30,60.81,61.88,59.57,61.35,0.009046,598562.0,36108492.37,3706348840.0,7335864900.0,0.009907804226004803,144.82,2013-09-30 00:00:00,2013-10-24 00:00:00,91.44343885463579,7.836068193497887,113.19509438757001,13.076446157296031
sz300244,2013-10-29,59.0,61.91,56.51,60.8,0.032257999999999995,1097163.0,65375507.44,3673121590.0,7270099200.0,0.018160986170893404,143.53,2013-09-30 00:00:00,2013-10-24 00:00:00,90.62365725114195,7.76581859845625,112.18031129162594,12.959217079594023
sz300244,2013-10-28,57.3,60.5,56.81,58.9,0.028102999999999996,505825.0,29879591.1,3558336540.0,7042908600.0,0.008372758496867753,139.04,2013-09-30 00:00:00,2013-10-24 00:00:00,87.79167344902338,7.523137237450571,108.67468335593037,12.554242330496857
sz300244,2013-10-25,58.25,58.6,56.0,57.29,-0.021018000000000002,498284.0,28515706.69,3461071310.0,6850394460.0,0.008247934758674474,135.24,2013-09-30 00:00:00,2013-10-24 00:00:00,85.39190474983866,7.317493711671468,105.70408155207247,12.211074503718846
sz300244,2013-10-24,57.06,60.2,57.04,58.52,0.026667000000000003,950867.0,55978749.66,3535379530.0,6997470480.0,0.0157393955494221,138.14,2013-09-30 00:00:00,2013-10-24 00:00:00,87.22520408938945,7.474594744000879,107.97346790040315,12.473236998963053
sz300244,2013-10-23,59.0,59.0,55.7,57.0,-0.035858999999999995,916629.0,52462350.03,3443551490.0,6815718000.0,0.015172664951207103,134.56,2013-06-30 00:00:00,2013-08-15 00:00:00,91.07805796009578,7.992517121799114,99.14753767965693,12.544727674864632
sz300244,2013-10-22,62.2,62.2,58.43,59.12,-0.054534000000000006,978657.0,58971621.03,3571627440.0,7069214880.0,0.016199394481077233,139.56,2013-06-30 00:00:00,2013-08-15 00:00:00,94.46549618789759,8.28978035556948,102.83510158748247,13.0112998771597
sz300244,2013-10-21,61.03,64.3,61.03,62.53,0.024578,1000110.0,62699239.83,3777636400.0,7476962220.0,0.016554499077783134,147.61,2013-06-30 00:00:00,2013-08-15 00:00:00,99.91421816109472,8.767930687692079,108.7665781609095,13.76178506383064
sz300244,2013-10-18,60.05,62.48,59.06,61.03,0.000492,707289.0,42798527.04,3687016620.0,7297601220.0,0.011707527282586538,144.07,2013-06-30 00:00:00,2013-08-15 00:00:00,97.51743465221264,8.557601947037785,106.15744058618232,13.431661682986206
sz300244,2013-10-17,63.0,63.1,60.0,61.0,-0.033281,1025983.0,62939597.22,3685204220.0,7294014000.0,0.01698276656157742,144.0,2013-06-30 00:00:00,2013-08-15 00:00:00,97.46947966821588,8.553393677348529,106.10523680967195,13.425056555161065
sz300244,2013-10-16,64.76,65.77,60.5,63.1,0.006701,2474437.0,155342441.28,3812071910.0,7545119400.0,0.040958559645848866,148.96,2013-06-30 00:00:00,2013-08-15 00:00:00,100.82503774955893,8.847859282116653,109.7580960027391,13.887237713504197
sz300244,2013-10-15,62.0,62.68,60.94,62.68,0.100035,1287210.0,80345965.73,3786698370.0,7494898320.0,0.021306773055705518,147.96,2013-06-30 00:00:00,2013-08-15 00:00:00,100.15390642262096,8.78896443146143,109.02750270709883,13.794798766966753
sz300244,2013-10-14,55.5,58.42,55.5,56.98,0.027407,1120167.0,64439227.12,3442343220.0,6813326520.0,0.018541764019684243,134.51,2013-06-30 00:00:00,2013-08-15 00:00:00,91.04610891709895,7.98971344680981,99.11275796415462,12.540327141378912
sz300244,2013-10-11,55.72,56.8,55.01,55.46,-0.007871,793447.0,44312000.7,3350515180.0,6631574040.0,0.013133672959511856,130.92,2013-06-30 00:00:00,2013-08-15 00:00:00,88.61737258661753,7.776580699576516,96.4688365605399,12.20580270659915
sz300244,2013-10-10,57.81,58.88,55.03,55.9,-0.036041000000000004,807446.0,45714407.63,3377096990.0,6684186600.0,0.01336539386747077,131.96,2013-06-30 00:00:00,2013-08-15 00:00:00,89.32041356176217,7.838275768147606,97.23416668652958,12.302636760541372
sz300244,2013-10-09,57.5,58.78,56.5,57.99,-0.00617,660409.0,37989894.4,3503360540.0,6934096260.0,0.01093153772577458,136.89,2013-06-30 00:00:00,2013-08-15 00:00:00,92.65997159813038,8.131337295619012,100.86960823699928,12.762614136640016
sz300244,2013-10-08,57.8,59.69,56.11,58.35,0.014959,674197.0,38665617.58,3525109290.0,6977142900.0,0.011159766042317514,137.74,2013-06-30 00:00:00,2013-08-15 00:00:00,93.23523298565186,8.181819119586864,101.49583755471185,12.84184834090339
sz300244,2013-09-30,53.6,57.84,52.91,57.49,0.08533099999999999,884420.0,49474108.25,3473153950.0,6874309260.0,0.014639519736808673,135.71,2013-06-30 00:00:00,2013-08-15 00:00:00,91.86108304439081,8.061231162625154,99.99993847506337,12.652578420313914
sz300244,2013-09-27,52.84,55.23,52.0,52.97,0.006268999999999999,1023488.0,55077942.65,3200086360.0,6333834780.0,0.016941467592143357,125.04,2013-06-30 00:00:00,2013-08-15 00:00:00,84.63877199157751,7.427440257972132,92.13773353480494,11.657806162648917
sz300244,2013-09-26,48.51,53.0,48.51,52.64,0.08001599999999999,1109717.0,56564371.48,3180150010.0,6294375360.0,0.01836878848366024,124.26,2013-06-30 00:00:00,2013-08-15 00:00:00,84.1114771413782,7.381167717550805,91.56372057054816,11.585178677519545
sz300244,2013-09-25,50.5,50.5,48.63,48.74,-0.023246,758228.0,37305948.4,2944538590.0,5828036760.0,0.01255070415633439,115.06,2013-06-30 00:00:00,2013-08-15 00:00:00,77.87984357766756,6.834313304201795,84.77996675100013,10.726858377579171
sz300244,2013-09-24,49.99,50.8,49.02,49.9,0.002008,599752.0,29921378.29,3014617880.0,5966742600.0,0.009927501922731247,117.8,2013-06-30 00:00:00,2013-08-15 00:00:00,79.73332443754266,6.996964746703668,86.79766527805377,10.982149423067806
sz300244,2013-09-23,49.26,50.29,48.81,49.8,-0.002404,876730.0,43570568.99,3008576560.0,5954785200.0,0.014512229663851399,117.56,2013-06-30 00:00:00,2013-08-15 00:00:00,79.57354076768115,6.98294299716536,86.62372483857789,10.960141459018097
sz300244,2013-09-18,48.1,51.6,48.1,49.92,0.03354,756837.0,37832963.77,3015826150.0,5969134080.0,0.012527679369051165,117.84,2013-06-30 00:00:00,2013-08-15 00:00:00,79.76529654056468,6.9997704453158995,86.83247009669034,10.986553132749226
sz300244,2013-09-17,49.5,49.98,48.01,48.3,-0.024242,579811.0,28478076.7,2917956790.0,5775424200.0,0.009597424950216621,114.02,2013-06-30 00:00:00,2013-08-15 00:00:00,77.17678710119075,6.772616875317744,84.01461975026642,10.630022188545414
sz300244,2013-09-16,47.98,50.49,47.35,49.5,0.035565,1177046.0,58243458.76,2990452610.0,5918913000.0,0.019483263772569863,116.85,2013-06-30 00:00:00,2013-08-15 00:00:00,79.09418841679059,6.94087763084468,86.10190206000506,10.894117382122836
sz300244,2013-09-13,45.53,47.95,45.53,47.8,0.041394,995146.0,46885574.88,2887750200.0,5715637200.0,0.01647233157494024,112.84,2013-06-30 00:00:00,2013-08-15 00:00:00,76.37781154904866,6.702503107815231,83.14485528190413,10.519974489407073
sz300244,2013-09-12,44.95,48.0,44.94,45.9,0.02,720752.0,33316983.25,2772965150.0,5488446600.0,0.011930375973170813,108.35,2013-06-30 00:00:00,2013-08-15 00:00:00,73.34189706206169,6.436087693817355,79.83995997855196,10.101819762171736
sz300244,2013-09-11,46.0,46.0,44.51,45.0,-0.026395,648578.0,29157451.43,2718593280.0,5380830000.0,0.010735702988274877,106.23,2013-06-30 00:00:00,2013-08-15 00:00:00,71.90382064908007,6.309889895899367,78.2744705672078,9.90374486487425
sz300244,2013-09-10,47.0,47.0,45.14,46.22,0.004783,576722.0,26552127.97,2792297360.0,5526710280.0,0.009546293751464922,109.11,2013-06-30 00:00:00,2013-08-15 00:00:00,73.85317520871409,6.480954695075896,80.39653716569636,10.172241170571485
sz300244,2013-09-09,46.99,46.99,44.66,46.0,-0.021277,715789.0,32837475.27,2779006460.0,5500404000.0,0.01184822506673842,108.59,2013-06-30 00:00:00,2013-08-15 00:00:00,73.50161697472399,6.450103848369147,80.01383101196613,10.123818944559657
sz300244,2013-09-06,47.0,48.5,46.1,47.0,-0.014468,902548.0,42428950.76,2839419650.0,5619978000.0,0.014939586686314578,110.95,2013-06-30 00:00:00,2013-08-15 00:00:00,75.09950923266746,6.590326219338002,81.7532958885876,10.343906237576574
sz300244,2013-09-05,47.63,48.5,47.54,47.69,-0.006458,888144.0,42612750.89,2881104740.0,5702484060.0,0.01470116194387296,112.58,2013-06-30 00:00:00,2013-08-15 00:00:00,76.20199976527141,6.68707481780196,82.9534666439929,10.495758877009143
sz300244,2013-09-04,47.3,48.23,46.1,48.0,0.018675999999999998,1170508.0,55225674.04,2899832830.0,5739552000.0,0.019375042388219323,113.31,2013-06-30 00:00:00,2013-08-15 00:00:00,76.69731099970751,6.7305406493152375,83.49266225684761,10.563981066738137
sz300244,2013-09-03,44.45,47.3,44.45,47.12,0.052254999999999996,1218196.0,56237092.34,2846669230.0,5634326880.0,0.020164406498327167,111.23,2013-06-30 00:00:00,2013-08-15 00:00:00,75.29117305179224,6.607145598124662,81.96194104587487,10.370305245964504
sz300244,2013-09-02,43.21,45.07,43.0,44.78,0.036574,372082.0,16500859.57,2705302380.0,5354523720.0,0.006158953647170487,105.71,2013-06-30 00:00:00,2013-08-15 00:00:00,71.5522122031183,6.279034642861913,77.89170975274516,9.855315722866134
sz300244,2013-08-30,44.02,45.11,43.0,43.2,-0.027246,613082.0,27070993.28,2609849550.0,5165596800.0,0.010148149114572524,101.98,2013-06-30 00:00:00,2013-08-15 00:00:00,69.02759687501162,6.057488074041904,75.14341451044032,9.507585298170834
sz300244,2013-08-29,44.7,45.45,44.11,44.41,-0.007598000000000001,441709.0,19660982.2,2682949500.0,5310281340.0,0.0073114669843767095,104.84,2013-06-30 00:00:00,2013-08-15 00:00:00,70.96100028888252,6.2271530870517156,77.24811669799385,9.773884556805559
sz300244,2013-08-28,45.83,45.83,44.58,44.75,-0.036806,561514.0,25428414.88,2703489980.0,5350936500.0,0.009294560618271646,105.64,2013-06-30 00:00:00,2013-08-15 00:00:00,71.50428988341672,6.274829239614305,77.83954153457356,9.848715094090458
sz300244,2013-08-27,46.9,46.9,45.01,46.46,-0.007476999999999999,828277.0,37928457.8,2806796530.0,5555408040.0,0.013710202719967023,109.68,2013-06-30 00:00:00,2013-08-15 00:00:00,74.23664379493302,6.514605821479686,80.81398091617424,10.225058600957292
sz300244,2013-08-26,45.88,49.86,45.6,46.81,0.02027,1026908.0,48484388.8,2827941140.0,5597258940.0,0.016998077788846766,110.5,2013-06-30 00:00:00,2013-08-15 00:00:00,74.79589268453527,6.563682475347861,81.42277903501908,10.302087307757391
sz300244,2013-08-23,44.97,45.9,44.2,45.88,0.020463,982272.0,44217401.98,2771756880.0,5486055120.0,0.016259232433112964,108.31,2013-06-30 00:00:00,2013-08-15 00:00:00,73.30990099143882,6.433279891938272,79.80512906879461,10.097412751288768
sz300244,2013-08-22,45.5,45.5,43.35,44.96,-0.013819,768121.0,34309855.48,2716176750.0,5376047040.0,0.012714459822984641,106.13,2013-06-30 00:00:00,2013-08-15 00:00:00,71.83984229848492,6.304275502334012,78.20482376018985,9.894932742577408
sz300244,2013-08-21,46.0,46.1,44.5,45.59,-0.014057,606821.0,27390091.95,2754237060.0,5451378660.0,0.010044512795133183,107.62,2013-06-30 00:00:00,2013-08-15 00:00:00,72.84650819523488,6.392615049705898,79.30067985510759,10.033586879667535
sz300244,2013-08-20,45.73,46.89,45.1,46.24,0.007847,642664.0,29449926.34,2793505630.0,5529101760.0,0.010637810441785293,109.16,2013-06-30 00:00:00,2013-08-15 00:00:00,73.88511120342137,6.483757225017976,80.43130267683587,10.176639906837956
sz300244,2013-08-19,43.59,45.9,42.5,45.88,0.048686,1266436.0,55912115.51,2771756880.0,5486055120.0,0.020962907713608706,108.31,2013-06-30 00:00:00,2013-08-15 00:00:00,73.30984881973293,6.433275313631906,79.80507227469634,10.097405565366525
sz300244,2013-08-16,46.4,47.47,42.0,43.75,-0.057112,2218270.0,98560616.4,2643076800.0,5231362500.0,0.03671830969875715,103.28,2013-06-30 00:00:00,2013-08-15 00:00:00,69.90638648721632,6.134605891212343,76.10006453285,9.62862626693455
sz300244,2013-08-15,48.04,48.04,46.35,46.4,-0.026233,376075.0,17723424.73,2803171740.0,5548233600.0,0.0062250484873966365,109.53,2013-06-30 00:00:00,2013-08-15 00:00:00,74.14071076015001,6.506187257884651,80.70954825265568,10.211845168179625
sz300244,2013-08-14,47.3,47.9,46.88,47.65,0.010819,464767.0,22059523.07,2878688220.0,5697701100.0,0.007693138630344622,112.48,2013-03-31 00:00:00,2013-04-19 00:00:00,90.00675103995387,7.443489676724051,99.5594442211469,10.90848803075392
sz300244,2013-08-13,46.33,48.1,45.7,47.14,0.0017,926178.0,43364346.04,2847877490.0,5636718360.0,0.015330726505373657,111.28,2013-03-31 00:00:00,2013-04-19 00:00:00,89.04339059708401,7.363820502705282,98.49383937297074,10.791732279224984
sz300244,2013-08-12,48.8,48.8,45.83,47.06,-0.036643,1104651.0,52118100.11,2843044440.0,5627152440.0,0.018284932633694604,111.09,2013-03-31 00:00:00,2013-04-19 00:00:00,88.89227373174006,7.351323253174885,98.32668401015349,10.77341746952679
sz300244,2013-08-09,49.13,49.65,48.0,48.85,-0.009128,356829.0,17350137.59,2951184040.0,5841189900.0,0.005906475642908397,115.32,2013-03-31 00:00:00,2013-04-19 00:00:00,92.27344975096464,7.630943931662804,102.06671463450566,11.183203599005132
sz300244,2013-08-08,49.8,50.45,49.01,49.3,-0.01004,400781.0,19872920.5,2978369970.0,5894998200.0,0.006633998965548259,116.38,2013-03-31 00:00:00,2013-04-19 00:00:00,93.12348088447816,7.701240858216606,103.00696218533338,11.286224253995606
sz300244,2013-08-07,48.96,50.98,48.0,49.8,0.0074849999999999995,866311.0,42953074.47,3008576560.0,5954785200.0,0.014339767308431067,117.56,2013-03-31 00:00:00,2013-04-19 00:00:00,94.06792282968824,7.779345486905134,104.05164065753505,11.400687153011845
sz300244,2013-08-06,50.02,51.58,48.38,49.43,-0.019635,871024.0,43091743.62,2986223690.0,5910542820.0,0.01441778004245891,116.69,2013-03-31 00:00:00,2013-04-19 00:00:00,93.36905544964763,7.72154968749424,103.27860033403479,11.315986990388785
sz300244,2013-08-05,49.52,51.46,49.02,50.42,0.015918,537187.0,26988292.95,3046032740.0,6028921080.0,0.008891883591507293,119.02,2013-03-31 00:00:00,2013-04-19 00:00:00,95.23907468100924,7.876198851952323,105.34709045512109,11.54262646094953
sz300244,2013-08-02,49.65,51.66,48.56,49.63,0.00121,854456.0,42904544.74,2998306320.0,5934457620.0,0.014143535300956175,117.16,2013-03-31 00:00:00,2013-04-19 00:00:00,93.74681291305917,7.752789941660964,103.69645035831739,11.361769809127832
sz300244,2013-08-01,46.06,49.7,46.06,49.57,0.077609,1012216.0,48993041.31,2994681530.0,5927283180.0,0.016754885825872777,117.02,2013-03-31 00:00:00,2013-04-19 00:00:00,93.63351635826567,7.743420402973367,103.57112929187423,11.348038682322223
sz300244,2013-07-31,44.92,47.18,44.6,46.0,0.029082999999999998,412405.0,18953783.7,2779006460.0,5500404000.0,0.006826407305292842,108.59,2013-03-31 00:00:00,2013-04-19 00:00:00,86.8900652818097,7.185742141141516,96.11197502236362,10.530757150619772
sz300244,2013-07-30,45.9,46.48,44.0,44.7,-0.02805,601546.0,27020919.26,2700469320.0,5344957800.0,0.00995719744003609,105.52,2013-03-31 00:00:00,2013-04-19 00:00:00,84.43445794149714,6.982665286611008,93.39574652614378,10.23314654952008
sz300244,2013-07-29,46.8,47.99,45.5,45.99,-0.021488999999999998,598581.0,28083237.03,2778402330.0,5499208260.0,0.009908118738872495,108.57,2013-03-31 00:00:00,2013-04-19 00:00:00,86.87119496012875,7.184181579927987,96.09110193543266,10.528470136858974
sz300244,2013-07-26,45.2,47.38,44.22,47.0,0.036384,951022.0,43842304.0,2839419650.0,5619978000.0,0.015741961213799446,110.95,2013-03-31 00:00:00,2013-04-19 00:00:00,88.77896616402754,7.341952803727283,98.20135076195635,10.759685007995797
sz300244,2013-07-25,48.7,49.15,45.0,45.35,-0.08068099999999999,1431106.0,66694736.94,2739737890.0,5422680900.0,0.0236886372732539,107.05,2013-03-31 00:00:00,2013-04-19 00:00:00,85.66223153196842,7.084201226309248,94.75382750211925,10.381948204522452
sz300244,2013-07-24,48.9,50.07,48.01,49.33,0.008175,1089691.0,53667805.13,2980182370.0,5898585420.0,0.01803730455260696,116.45,2013-03-31 00:00:00,2013-04-19 00:00:00,93.18009475706302,7.705922782308696,103.06958466225461,11.293085647661425
sz300244,2013-07-23,47.55,49.3,47.2,48.93,0.017467,1271251.0,61196638.15,2956017090.0,5850755820.0,0.021042608867325594,115.51,2013-03-31 00:00:00,2013-04-19 00:00:00,92.4245242711464,7.643437679280577,102.23382315793846,11.201513276625015
sz300244,2013-07-22,45.5,48.39,45.05,48.09,0.058086,1317111.0,62443214.7,2905270020.0,5750313660.0,0.02180171466127613,113.52,2013-03-31 00:00:00,2013-04-19 00:00:00,90.83785938133266,7.512221702797808,100.47876064573934,11.009215312757087
sz300244,2013-07-19,43.99,47.3,43.99,45.45,0.040046,1789762.0,82019911.39,2745779210.0,5434638300.0,0.029625354654790326,107.29,2013-03-31 00:00:00,2013-04-19 00:00:00,85.85111170673524,7.09982147273266,94.96275411047812,10.404839788785683
sz300244,2013-07-18,44.12,45.94,42.86,43.7,-0.001827,1782426.0,78229426.4,2640056140.0,5225383800.0,0.029503924185491,103.16,2013-03-31 00:00:00,2013-04-19 00:00:00,82.54549482112833,6.826449476977613,91.30630194287379,10.004211149108484
sz300244,2013-07-17,46.8,46.8,43.73,43.78,-0.05524400000000001,1543361.0,69467832.07,2644889200.0,5234949720.0,0.02554675809481925,103.35,2013-03-31 00:00:00,2013-04-19 00:00:00,82.69658147548404,6.83894422808232,91.47342388831774,10.022522297345734
sz300244,2013-07-16,46.46,48.36,45.0,46.34,-0.008981999999999999,799984.0,36770861.15,2799546950.0,5541059160.0,0.01324187778311773,109.39,2013-03-31 00:00:00,2013-04-19 00:00:00,87.5322109364577,7.23884709711536,96.82227356938482,10.608582848212377
sz300244,2013-07-15,44.98,48.0,44.63,46.76,0.029501999999999997,1503134.0,69518547.2,2824920480.0,5591280240.0,0.024880893581825707,110.38,2013-03-31 00:00:00,2013-04-19 00:00:00,88.32555103586182,7.304455718377831,97.69981329237697,10.704732757843328
sz300244,2013-07-12,41.81,45.8,41.63,45.42,0.08634299999999999,1590123.0,70155701.15,2743966820.0,5431051080.0,0.026320794454795925,107.22,2013-03-31 00:00:00,2013-04-19 00:00:00,85.79444336763,7.095135044300866,94.90007138633725,10.397971793977407
sz300244,2013-07-11,41.31,42.39,41.18,41.81,0.000239,847769.0,35348697.45,2525875220.0,4999388940.0,0.0140328475489775,98.7,2013-03-31 00:00:00,2013-04-19 00:00:00,78.97546480957672,6.531210717334089,87.35737367142536,9.571536608582562
sz300244,2013-07-10,41.2,43.0,41.2,41.8,-0.004762,1430770.0,60229326.08,2525271090.0,4998193200.0,0.023683075546554487,98.67,2013-03-31 00:00:00,2013-04-19 00:00:00,78.95659418356682,6.529650130952789,87.3365002478661,9.569249557938212
sz300244,2013-07-09,40.9,43.46,39.9,42.0,0.045556,2255726.0,94855139.8,2537353730.0,5022108000.0,0.037338306787836006,99.15,2013-03-31 00:00:00,2013-04-19 00:00:00,79.33438452266375,6.560893103913627,87.75438663703166,9.615036361089722
sz300244,2013-07-08,37.38,40.69,37.0,40.17,0.074639,1685517.0,66302352.95,2426797600.0,4803287580.0,0.027899820689619933,94.83,2013-03-31 00:00:00,2013-04-19 00:00:00,75.87770002052855,6.275027931467685,83.93083358235394,9.196098880490116
sz300244,2013-07-05,37.3,38.38,37.0,37.38,-0.003997,459575.0,17324835.21,2258244820.0,4469676120.0,0.007607197124003588,88.24,2013-03-31 00:00:00,2013-04-19 00:00:00,70.60761801919395,5.8391961686368035,78.10142157724961,8.557384275547523
sz300244,2013-07-04,38.0,38.68,37.0,37.53,-0.023927,767542.0,29043458.64,2267306800.0,4487612220.0,0.01270487578478572,88.59,2013-03-31 00:00:00,2013-04-19 00:00:00,70.89096922317898,5.862629097138064,78.41484571557477,8.591725401979234
sz300244,2013-07-03,38.02,38.84,37.7,38.45,0.001302,823737.0,31736963.77,2322886920.0,4597620300.0,0.013635053595290813,90.77,2013-03-31 00:00:00,2013-04-19 00:00:00,72.62875750397663,6.006342862816679,80.33707080881733,8.80233896642898
sz300244,2013-07-02,37.89,38.6,37.05,38.4,0.018838,1150299.0,43958757.03,2319866270.0,4591641600.0,0.019040529262921692,90.65,2013-03-31 00:00:00,2013-04-19 00:00:00,72.53431782217218,5.998532773146043,80.2326079532622,8.790893223452047
sz300244,2013-07-01,36.04,37.77,35.42,37.69,0.046944,1024061.0,37543375.28,2276972900.0,4506744060.0,0.016950952332370754,88.97,2013-03-31 00:00:00,2013-04-19 00:00:00,71.19318068443873,5.8876217545341305,78.74913180825824,8.628352322402629
sz300244,2013-06-28,35.5,36.45,35.0,36.0,-0.002494,618424.0,22039507.88,2174874620.0,4304664000.0,0.010236573545559145,84.98,2013-03-31 00:00:00,2013-04-19 00:00:00,68.00094435274353,5.623626244129705,75.21809362129993,8.24146498991601
sz300244,2013-06-27,36.36,37.37,35.33,36.09,-0.000277,900467.0,32850751.13,2180311810.0,4315425660.0,0.014905140577117731,85.2,2013-03-31 00:00:00,2013-04-19 00:00:00,68.17096273380163,5.637686634596387,75.40615657579997,8.262070593977388
sz300244,2013-06-26,34.11,36.57,34.11,36.1,0.050335000000000005,865684.0,30840590.84,2180915940.0,4316621400.0,0.014329388779651913,85.22,2013-03-31 00:00:00,2013-04-19 00:00:00,68.189851322618,5.639248706488085,75.42704986861358,8.264359821647986
sz300244,2013-06-25,33.55,35.17,31.7,34.37,0.002625,1215387.0,40566187.42,2076401130.0,4109758380.0,0.020117910063938368,81.13,2013-03-31 00:00:00,2013-04-19 00:00:00,64.92200233508166,5.369000087103719,71.81237402220584,7.868308512663089
sz300244,2013-06-24,35.83,35.83,33.19,34.28,-0.051729,1036624.0,35637438.97,2070963950.0,4098996720.0,0.01715890357241612,80.92,2013-03-31 00:00:00,2013-04-19 00:00:00,64.75202826089681,5.354943360781668,71.62436007700371,7.847708278432205
sz300244,2013-06-21,34.95,36.88,34.18,36.15,0.0041670000000000006,1064915.0,37600245.43,2183936600.0,4322600100.0,0.01762719542774273,85.34,2013-03-31 00:00:00,2013-04-19 00:00:00,68.28430718739348,5.647060134478084,75.5315306246882,8.275807525941639
sz300244,2013-06-20,38.04,38.73,36.0,36.0,-0.055614,1127847.0,41925069.16,2174874620.0,4304664000.0,0.018668888600116177,84.98,2013-03-31 00:00:00,2013-04-19 00:00:00,68.00094724024339,5.623626482923741,75.21809681525902,8.241465339870398
sz300244,2013-06-19,38.0,38.53,37.32,38.12,-0.010641,607236.0,22977962.11,2302950570.0,4558160880.0,0.01005138217968786,89.99,2013-03-31 00:00:00,2013-04-19 00:00:00,72.00545882747456,5.954796537563815,79.64761952767091,8.726797453446366
sz300244,2013-06-18,38.7,39.4,37.35,38.53,-0.013316,823747.0,31481447.29,2327719980.0,4607186220.0,0.01363521909108672,90.96,2013-03-31 00:00:00,2013-04-19 00:00:00,72.77990984816894,6.01884304642078,80.50426541596218,8.820658076033439
sz300244,2013-06-17,38.16,39.49,36.98,39.05,0.024934,1368426.0,52755913.1,2359134840.0,4669364700.0,0.02265111531310351,92.18,2013-03-31 00:00:00,2013-04-19 00:00:00,73.76212632227636,6.100071599844306,81.59072754393723,8.93969910937386
sz300244,2013-06-14,35.76,38.1,35.0,38.1,0.055402,1251345.0,46723021.22,2301742310.0,4555769400.0,0.020713111234419632,89.94,2013-03-31 00:00:00,2013-04-19 00:00:00,71.96768408724499,5.951672595351804,79.60583563813596,8.722219293509495
sz300244,2013-06-13,34.11,36.1,33.6,36.1,0.037356,1136701.0,40072607.98,2180915940.0,4316621400.0,0.018815446000179176,85.22,2013-03-31 00:00:00,2013-04-19 00:00:00,68.18983106649883,5.639247031322475,75.4270274626502,8.264357366680652
sz300244,2013-06-07,35.6,36.13,34.79,34.8,-0.022472,806867.0,28460546.79,2102378799.9999998,4161175200.0,0.013355809904475826,82.15,2013-03-31 00:00:00,2013-04-19 00:00:00,65.73426197611893,5.436173340032232,72.71084127594597,7.966751401332477
sz300244,2013-06-06,34.6,35.81,34.6,35.6,0.022989,899090.0,31777171.53,2150709350.0,4256834400.0000005,0.014882347538034371,84.04,2013-03-31 00:00:00,2013-04-19 00:00:00,67.24540061882516,5.561143353471442,74.38236170825385,8.149895861123648
sz300244,2013-06-05,34.1,35.35,34.02,34.8,0.016652,1332172.0,46393174.75,2102378799.9999998,4161175200.0,0.022051014593564205,82.15,2013-03-31 00:00:00,2013-04-19 00:00:00,65.7342362614116,5.436171213445544,72.7108128320577,7.966748284804283
sz300244,2013-06-04,35.5,35.5,33.43,34.23,-0.035775,1721627.0,59234110.99,2067943290.0,4093018020.0,0.028497537865267087,80.8,2013-03-31 00:00:00,2013-04-19 00:00:00,64.65755859567638,5.3471307915053945,71.5198640558005,7.836258901575251
sz300244,2013-06-03,37.01,38.5,35.45,35.5,-0.048257,1398784.0,51819805.24,2144668029.9999998,4244877000.0,0.023153621588698745,83.8,2013-03-31 00:00:00,2013-04-19 00:00:00,67.05650506435363,5.545521835158179,74.17341808789493,8.127002412896628
sz300244,2013-05-31,37.96,39.81,37.02,37.3,0.006212,1850656.0,70380585.94,2253411760.0,4460110200.0,0.030633313460652213,88.05,2013-03-31 00:00:00,2013-04-19 00:00:00,70.4565256212587,5.82670094254245,77.93429327864239,8.539072431209506
sz300244,2013-05-30,46.54,48.62,46.53,48.29,0.037825,995010.0,47633678.94,2244117430.0,4441714200.0,0.02141110454277787,87.51,2013-03-31 00:00:00,2013-04-19 00:00:00,70.02155174183841,5.790728934401945,77.45315428422876,8.486355192752129
sz300244,2013-05-29,46.55,47.99,46.0,46.53,-0.005982,859242.0,40149235.12,2162327270.0,4279829400.0000005,0.018489583336753646,84.32,2013-03-31 00:00:00,2013-04-19 00:00:00,67.46951725178947,5.579677628118367,74.63026452844049,8.177057974853303
sz300244,2013-05-28,49.79,49.9,46.5,46.81,-0.060039999999999996,1511800.0,71851196.91,2175339340.0,4305583800.0,0.032531640787593165,84.83,2013-03-31 00:00:00,2013-04-19 00:00:00,67.87554878461907,5.613256126265689,75.07938943604692,8.22626750708066
sz300244,2013-05-27,47.47,50.23,47.47,49.8,0.041841,1294183.0,63358546.03,2314289660.0,4580604000.0,0.027848853371275916,90.24,2013-03-31 00:00:00,2013-04-19 00:00:00,72.2111034348473,5.971803189780085,79.87508982940436,8.751720825440083
sz300244,2013-05-24,44.53,47.88,44.4,47.8,0.07174900000000001,909195.0,42046973.78,2221346300.0,4396644000.0,0.019564496089601157,86.62,2013-03-31 00:00:00,2013-04-19 00:00:00,69.31105939855247,5.731971759395231,76.6672552043972,8.400246127230627
sz300244,2013-05-23,43.51,46.0,42.8,44.6,0.020595,772102.0,34609318.41,2072636930.0,4102308000.0,0.01661446281380309,80.82,2013-03-31 00:00:00,2013-04-19 00:00:00,64.67098117054691,5.348240828211858,71.5347112098049,7.83788566840802
sz300244,2013-05-22,44.06,45.37,43.28,43.7,-0.015987,716641.0,31808690.81,2030812420.0,4019526000.0,0.015421026280703957,79.19,2013-03-31 00:00:00,2013-04-19 00:00:00,63.36595923999913,5.240316509694696,70.09118328994842,7.679721797978651
sz300244,2013-05-21,42.71,45.5,42.2,44.41,0.029439,1261750.0,55529960.91,2063807310.0,4084831800.0,0.02715094438734205,80.48,2013-03-31 00:00:00,2013-04-19 00:00:00,64.39544928776259,5.3254545516113065,71.22993628127719,7.804492215020177
sz300244,2013-05-20,42.88,43.35,42.0,43.14,-0.008732,1021377.0,43667297.41,2004788280.0,3968017200.0,0.021978482326323257,78.18,2013-03-31 00:00:00,2013-04-19 00:00:00,62.553924310000475,5.173161840197724,69.19296459652023,7.5813061434627755
sz300244,2013-05-17,40.84,44.0,40.6,43.52,0.061463,993360.0,42171822.05,2022447510.0,4002969600.0,0.02137559911258216,78.86,2013-03-31 00:00:00,2013-04-19 00:00:00,63.104956792714454,5.218731806330603,69.80247985057545,7.648089258871239
sz300244,2013-05-16,42.3,43.2,40.22,41.0,-0.023809999999999998,1375003.0,57254669.71,1905338880.0,3771180000.0,0.0295879770217044,74.3,2013-03-31 00:00:00,2013-04-19 00:00:00,59.450924613212564,4.916546131453101,65.7606340028578,7.205233963756851
sz300244,2013-05-15,41.5,42.48,41.15,42.0,0.009615,688211.0,28800334.74,1951810560.0,3863160000.0,0.01480925587368479,76.11,2013-03-31 00:00:00,2013-04-19 00:00:00,60.90097687254794,5.036464347568712,67.36458476613959,7.380974977982619
sz300244,2013-05-14,41.58,41.99,40.5,41.6,0.014634000000000001,558392.0,23034786.01,1933221890.0,3826368000.0,0.01201574807328506,75.38,2013-03-31 00:00:00,2013-04-19 00:00:00,60.32099054842483,4.988499920829932,66.72304271047832,7.310682763214312
sz300244,2013-05-13,42.0,43.72,40.91,41.0,-0.028436000000000003,690541.0,28540581.01,1905338880.0,3771180000.0,0.014859393936263978,74.3,2013-03-31 00:00:00,2013-04-19 00:00:00,59.450984836329965,4.916551111858987,65.76070061763978,7.205241262577748
sz300244,2013-05-10,41.5,42.97,40.63,42.2,0.014178999999999999,631766.0,26326055.25,1961104900.0,3881556000.0,0.013594645141114074,76.47,2013-03-31 00:00:00,2013-04-19 00:00:00,61.191012466836945,5.0604500700509565,67.68540272966041,7.416126227997073
sz300244,2013-05-09,41.62,42.29,40.6,41.61,-0.00023999999999999998,1092362.0,45447568.99,1933686600.0,3827287800.0,0.023505971867416365,75.4,2013-03-31 00:00:00,2013-04-19 00:00:00,60.335515196860655,4.9897010981798635,66.73910890450345,7.312443097320171
sz300244,2013-05-08,38.76,41.88,38.52,41.62,0.07268,1090723.0,44272539.01,1934151320.0,3828207600.0,0.023470703036823404,75.42,2013-03-31 00:00:00,2013-04-19 00:00:00,60.34999919666786,4.990898913919205,66.75513013573602,7.314198504961361
sz300244,2013-05-07,39.18,40.5,38.34,38.8,-0.013225,676041.0,26624788.22,1803101180.0,3568824000.0,0.014547375982528057,70.31,2013-03-31 00:00:00,2013-04-19 00:00:00,56.26095312364159,4.652737921765302,62.232101032680795,6.818621121826977
sz300244,2013-05-06,38.05,40.47,38.03,39.32,0.023958,847799.0,33573151.13,1827266460.0,3616653600.0,0.018243347322207185,71.25,2013-03-31 00:00:00,2013-04-19 00:00:00,57.01497618367063,4.715095053852502,63.066150878042905,6.910005950522638
sz300244,2013-05-03,37.9,38.99,37.9,38.4,0.021005000000000003,1073116.0,41384412.16,1784512510.0,3532032000.0,0.02309182713434718,69.59,2013-03-31 00:00:00,2013-04-19 00:00:00,55.68097146921128,4.6047738812065555,61.590564142321185,6.748329473008306
sz300244,2013-05-02,36.86,38.5,36.21,37.61,0.020901,948309.0,35721290.53,1747799880.0,3459367800.0,0.020406170007289393,68.15,2013-03-31 00:00:00,2013-04-19 00:00:00,54.53545425263469,4.510040480905143,60.32346966206942,6.609496988759416
sz300244,2013-04-26,37.15,37.55,36.55,36.84,-0.005668,945302.0,34985841.7,1712016690.0,3388543200.0,0.020341463890752143,66.76,2013-03-31 00:00:00,2013-04-19 00:00:00,53.418944885581155,4.417706007639471,59.08846172358477,6.474180149455643
sz300244,2013-04-25,36.9,38.65,36.58,37.05,-0.009093,1351003.0,50988266.96,1721775740.0,3407859000.0,0.029071533526195455,67.14,2013-03-31 00:00:00,2013-04-19 00:00:00,53.72344939676201,4.442888298515457,59.425284234626645,6.51108497911728
sz300244,2013-04-24,37.8,38.85,37.08,37.39,-0.016053,1816952.0,68667008.63,1737576120.0,3439132200.0,0.039098048423915954,67.76,2013-03-31 00:00:00,2013-04-19 00:00:00,54.2164394809624,4.483658202551256,59.970596871983595,6.5708335687579975
sz300244,2013-04-23,39.78,39.78,37.8,38.0,-0.045706000000000004,1094966.0,42139662.15,1765923840.0,3495240000.0,0.023562005935658017,68.86,2013-03-31 00:00:00,2013-04-19 00:00:00,55.10097543969584,4.556808651839231,60.949011351204476,6.678036081982055
sz300244,2013-04-22,38.68,39.9,37.82,39.82,0.029473000000000003,964227.0,37666680.77,1850502300.0,3662643600.0,0.02074870111752901,72.16,2013-03-31 00:00:00,2013-04-19 00:00:00,57.74004178973759,4.7750574265784245,63.868169925834685,6.997881242030292
sz300244,2013-04-19,38.49,39.26,37.9,38.68,0.000776,1003004.0,38708911.36,1797524580.0,3557786400.0,0.021583123341768155,70.09,2013-03-31 00:00:00,2013-04-19 00:00:00,56.08698993537236,4.638351298750355,62.03967459645341,6.7975374216033755
sz300244,2013-04-18,38.17,39.49,37.75,38.65,-0.002323,915470.0,35173782.59,1796130430.0,3555027000.0,0.019699524549561805,70.04,2012-12-31 00:00:00,2013-03-26 00:00:00,59.06577772565917,5.0324702732337006,138.56489974026348,6.982618999214195
sz300244,2013-04-17,36.93,38.75,36.51,38.74,0.05329,1095137.0,41301987.33,1800312880.0,3563305200.0,0.023565685637932002,70.2,2012-12-31 00:00:00,2013-03-26 00:00:00,59.20330700783837,5.044187921775986,138.8875354851956,6.998877391394404
sz300244,2013-04-16,37.12,37.73,36.0,36.78,-0.026983999999999998,1013717.0,37116852.26,1709228390.0,3383024400.0,0.021813650813511238,66.65,2012-12-31 00:00:00,2013-03-26 00:00:00,56.20798356372733,4.788983016810171,131.86067985568607,6.644777213677528
sz300244,2013-04-15,37.49,38.88,36.81,37.8,0.002653,1061841.0,40316654.77,1756629500.0,3476844000.0,0.02284920627827325,68.5,2012-12-31 00:00:00,2013-03-26 00:00:00,57.76676186591725,4.921792670223483,135.5174836340678,6.829052362630757
sz300244,2013-04-12,35.33,38.35,35.22,37.7,0.05720700000000001,953428.0,35232321.23,1751982340.0,3467646000.0,0.020516323012707997,68.32,2012-12-31 00:00:00,2013-03-26 00:00:00,57.61391215696483,4.908769704198245,135.15890705365442,6.810982825195514
sz300244,2013-04-11,35.25,35.94,35.06,35.66,0.0036590000000000004,382119.0,13538935.39,1657180110.0,3280006800.0,0.008222620738550863,64.62,2012-12-31 00:00:00,2013-03-26 00:00:00,54.49634003271339,4.643149075061217,127.8452630881695,6.442430692565896
sz300244,2013-04-10,36.05,36.11,34.63,35.53,-0.018508,756852.0,26827030.1,1651138790.0,3268049400.0,0.016286305986427708,64.39,2012-12-31 00:00:00,2013-03-26 00:00:00,54.29766487692869,4.626221729752054,127.37918265882085,6.4189437772848095
sz300244,2013-04-09,36.18,36.42,35.74,36.2,-0.017106,888179.0,32032068.8,1682274820.0,3329676000.0,0.019112263595552122,65.6,2012-12-31 00:00:00,2013-03-26 00:00:00,55.3215562398152,4.713458418155272,129.7811726013262,6.539985835121234
sz300244,2013-04-08,33.34,36.87,33.2,36.83,0.09678400000000001,1130327.0,39698524.38,1711551970.0,3387623400.0,0.02432292103289157,66.74,2012-12-31 00:00:00,2013-03-26 00:00:00,56.28435644109659,4.795490071315189,132.0398462106048,6.653805837782338
sz300244,2013-04-03,33.91,34.3,33.32,33.58,-0.019847999999999998,522338.0,17629271.54,1560519010.0,3088688400.0,0.011239920774819653,60.85,2012-12-31 00:00:00,2013-03-26 00:00:00,51.31763085630042,4.3723195007541955,120.38819513286555,6.066651079686008
sz300244,2013-04-02,34.8,35.54,33.42,34.26,-0.009826999999999999,954111.0,32999572.45,1592119760.0,3151234800.0,0.020531020141349162,62.08,2012-12-31 00:00:00,2013-03-26 00:00:00,52.35680879730942,4.460858622697495,122.82604650387447,6.189500281268628
sz300244,2013-04-01,33.05,34.68,32.69,34.6,0.054877999999999996,789250.0,26675365.44,1607920130.0,3182508000.0,0.01698346173450792,62.7,2012-12-31 00:00:00,2013-03-26 00:00:00,52.87642543001013,4.505130540519177,124.04503708329197,6.250928152220499
sz300244,2013-03-29,33.65,33.8,32.7,32.8,-0.02555,447343.0,14877510.78,1524271100.0,3016944000.0,0.009626142226274578,59.44,2012-12-31 00:00:00,2013-03-26 00:00:00,50.12563104928734,4.270759785035973,117.59183249939043,5.925735632196803
sz300244,2013-03-28,33.95,33.99,32.78,33.66,-0.012903,543740.0,18231183.97,1564236750.0,3096046800.0,0.011700459281499428,61.0,2012-12-31 00:00:00,2013-03-26 00:00:00,51.439921031645895,4.382738760363255,120.67508081419307,6.0811079400654755
sz300244,2013-03-27,33.85,34.32,33.18,34.1,0.005307,466563.0,15820906.88,1584684290.0,3136518000.0,0.010039727408416474,61.79,2012-12-31 00:00:00,2013-03-26 00:00:00,52.112326378913004,4.440028447420318,122.25250488472061,6.160598137837999
sz300244,2013-03-26,34.35,34.5,32.74,33.92,-0.009056,705774.0,23734454.46,1576319390.0,3119961600.0,0.015187184927034364,61.47,2012-12-31 00:00:00,2013-03-26 00:00:00,51.837226219366826,4.416589606379264,121.60713581495067,6.128076436191133
sz300244,2013-03-25,33.64,34.39,33.37,34.23,0.012722,566454.0,19212434.09,1590725610.0,3148475400.0,0.01218923005835054,62.03,2012-09-30 00:00:00,2012-10-22 00:00:00,58.82966035214251,4.862416266942733,-193.63280912820625,6.416488484766919
sz300244,2013-03-22,33.55,34.57,33.14,33.8,0.008052,588391.0,19958844.91,1570742780.0,3108924000.0,0.01266128105328614,61.25,2012-09-30 00:00:00,2012-10-22 00:00:00,58.090631340232086,4.801333699616217,-191.20035817154786,6.335883376451703
sz300244,2013-03-21,32.8,33.9,32.77,33.53,0.026952999999999998,714441.0,23991226.8,1558195430.0,3084089400.0,0.015373685655078581,60.76,2012-09-30 00:00:00,2012-10-22 00:00:00,57.62662178164627,4.762982167205875,-189.6731102875128,6.285274347406386
sz300244,2013-03-20,31.6,32.69,31.55,32.65,0.030293,697835.0,22573868.37,1517300350.0,3003147000.0,0.015016349762260319,59.17,2012-09-30 00:00:00,2012-10-22 00:00:00,56.114176385527166,4.6379748315705545,-184.69502527137348,6.120313536652979
sz300244,2013-03-19,32.29,32.68,31.0,31.69,-0.020402,707308.0,22431620.2,1472687540.0,2914846200.0,0.015220194312230007,57.43,2012-09-30 00:00:00,2012-10-22 00:00:00,54.464289658890394,4.501607631586893,-179.2645638389987,5.940362146159372
sz300244,2013-03-18,32.98,33.26,32.31,32.35,-0.012214000000000001,332528.0,10892389.69,1503358850.0,2975553000.0,0.007155497704357147,58.62,2012-09-30 00:00:00,2012-10-22 00:00:00,55.59861255217998,4.595362211424374,-182.9980908893227,6.064081537691353
sz300244,2013-03-15,32.32,33.5,32.14,32.75,0.019614,567867.0,18646300.93,1521947520.0,3012345000.0,0.012219635700710626,59.35,2012-09-30 00:00:00,2012-10-22 00:00:00,56.28609086601751,4.6521839866371595,-185.26086712033037,6.139064066195868
sz300244,2013-03-14,31.93,32.86,31.61,32.12,0.0056359999999999995,699378.0,22644208.78,1492670360.0,2954397600.0,0.015049552776006081,58.21,2012-09-30 00:00:00,2012-10-22 00:00:00,55.20333269846972,4.562691358334781,-181.6970609665328,6.020968784457518
sz300244,2013-03-13,31.9,32.22,31.51,31.94,0.001254,389035.0,12405581.65,1484305460.0,2937841200.0,0.008371442560077897,57.88,2012-09-30 00:00:00,2012-10-22 00:00:00,54.89395039404886,4.537120149174036,-180.6787555005318,5.987224785566068
sz300244,2013-03-12,32.6,33.0,31.41,31.9,-0.02327,880412.0,28169931.57,1482446590.0,2934162000.0,0.018945129618464028,57.81,2012-09-30 00:00:00,2012-10-22 00:00:00,54.825199593758285,4.531437726265299,-180.45246810552746,5.979726208900106
sz300244,2013-03-11,32.88,32.97,32.05,32.66,-0.0012230000000000001,467219.0,15250368.74,1517765070.0,3004066800.0,0.01005384353719512,59.18,2012-09-30 00:00:00,2012-10-22 00:00:00,56.13137673027171,4.639396482411003,-184.75163873898362,6.122189559960385
sz300244,2013-03-08,33.71,33.97,32.31,32.7,-0.028232,846969.0,27982958.69,1519623940.0,3007746000.0,0.018225486958306277,59.26,2012-09-30 00:00:00,2012-10-22 00:00:00,56.20010946414637,4.645077412085985,-184.97786666992096,6.129686166141577
sz300244,2013-03-07,35.0,35.0,33.24,33.65,-0.040217,1155630.0,39043249.37,1563772030.0,3095127000.0,0.024867403146991953,60.98,2012-09-30 00:00:00,2012-10-22 00:00:00,57.832846383237936,4.780027138253147,-190.35188097356667,6.307767045366359
sz300244,2013-03-06,34.48,35.8,34.3,35.06,0.017707,747625.0,26189282.48,1629297100.0,3224818800.0,0.01608775495887153,63.53,2012-09-30 00:00:00,2012-10-22 00:00:00,60.25616872067742,4.980320695670946,-198.32803974811668,6.572076235322317
sz300244,2013-03-05,33.0,34.5,33.0,34.45,0.031437,898289.0,30743710.14,1600949380.0,3168711000.0,0.019329815443633828,62.43,2012-09-30 00:00:00,2012-10-22 00:00:00,59.20777662006592,4.893668507410234,-194.87734657235993,6.457729223953769
sz300244,2013-03-04,33.19,34.58,32.81,33.4,0.0021,1089703.0,36573504.46,1552154110.0,3072132000.0,0.02344875419619254,60.53,2012-09-30 00:00:00,2012-10-22 00:00:00,57.40319245874049,4.744515183583905,-188.9377117287434,6.260905148791219
sz300244,2013-03-01,31.92,33.41,31.8,33.33,0.039613,960477.0,31647935.34,1548901090.0,3065693400.0,0.02066800689642487,60.4,2012-09-30 00:00:00,2012-10-22 00:00:00,57.28289837215896,4.734572581163462,-188.5417740033364,6.247784800709728
sz300244,2013-02-28,31.32,32.4,30.65,32.06,0.034194,717280.0,22891321.98,1489882060.0,2948878800.0,0.015434776629231982,58.1,2012-09-30 00:00:00,2012-10-22 00:00:00,55.10021361040981,4.554168311827058,-181.35765328380506,6.0097216951978565
sz300244,2013-02-27,32.4,33.3,30.5,31.0,-0.01211,1498664.0,47328656.07,1440622080.0,2851380000.0,0.03224897399878808,56.18,2012-09-30 00:00:00,2012-10-22 00:00:00,53.27841160402188,4.403591890715918,-175.3613473717746,5.811019687986835
sz300244,2013-02-22,30.92,31.5,30.5,31.38,0.009003,711241.0,22097865.18,1458281320.0,2886332400.0,0.015304826492600206,56.86,2012-09-30 00:00:00,2012-10-22 00:00:00,53.93152233955388,4.457573100968649,-177.5110056501985,5.882253781278113
sz300244,2013-02-21,31.55,32.1,30.9,31.1,-0.014263,1182825.0,37124159.2,1445269250.0,2860578000.0,0.025452598192343745,56.36,2012-09-30 00:00:00,2012-10-22 00:00:00,53.45030920577429,4.417799650713277,-175.92713366580526,5.829768376583729
sz300244,2013-02-20,30.18,31.95,30.1,31.55,0.047825,1017745.0,31657801.54,1466181500.0,2901969000.0,0.02190032731281905,57.17,2012-09-30 00:00:00,2012-10-22 00:00:00,54.22370186548165,4.481722458133636,-178.47268963811365,5.914121491415792
sz300244,2013-02-19,30.7,30.8,29.92,30.11,-0.018579,817542.0,24650234.52,1399262280.0,2769517800.0,0.017592262702886552,54.56,2012-09-30 00:00:00,2012-10-22 00:00:00,51.74881479777792,4.2771669488069435,-170.32680995215196,5.644188191172945
sz300244,2013-02-18,30.8,31.19,30.49,30.68,-0.003896,811878.0,25010782.48,1425751140.0,2821946400.0,0.01747038199106753,55.6,2012-09-30 00:00:00,2012-10-22 00:00:00,52.72845679660199,4.358136771891924,-173.5512180319679,5.751036702060528
sz300244,2013-02-08,29.05,30.8,28.93,30.8,0.060240999999999996,1329121.0,39963162.26,1431327740.0,2832984000.0,0.02860066611997613,55.81,2012-09-30 00:00:00,2012-10-22 00:00:00,52.93469035020639,4.375182482845088,-174.23001818280812,5.77353037640701
sz300244,2013-02-07,28.5,29.17,27.97,29.05,0.014669999999999999,1085802.0,30943439.85,1350002300.0,2672019000.0,0.023364810637730028,52.64,2012-09-30 00:00:00,2012-10-22 00:00:00,49.92703578734117,4.126592428367784,-164.33057972933335,5.445488692105861
sz300244,2013-02-06,28.5,28.92,28.5,28.63,-0.002439,524004.0,15037510.64,1330484200.0,2633387400.0,0.011275770520236168,51.88,2012-09-30 00:00:00,2012-10-22 00:00:00,49.205195568353425,4.066930557095198,-161.9547042184487,5.366758347153124
sz300244,2013-02-05,28.81,28.95,28.39,28.7,-0.006233,575279.0,16485785.55,1333737220.0,2639826000.0,0.012379130650638961,52.01,2012-09-30 00:00:00,2012-10-22 00:00:00,49.32550046398508,4.076874052910246,-162.35067752092223,5.379879874166216
sz300244,2013-02-04,29.39,29.51,28.49,28.88,-0.014334,453157.0,13077616.36,1342102120.0,2656382400.0,0.0097512506425368,52.33,2012-09-30 00:00:00,2012-10-22 00:00:00,49.63487463760126,4.102444590039965,-163.3689562250731,5.413622986239446
sz300244,2013-02-01,29.18,29.65,28.91,29.3,0.009301,601845.0,17647959.02,1361620220.0,2695014000.0,0.01295079071314026,53.1,2012-09-30 00:00:00,2012-10-22 00:00:00,50.35668739471713,4.16210419152123,-165.74474134754888,5.492350335955025
sz300244,2013-01-31,28.6,29.19,28.22,29.03,0.011146,540456.0,15448784.89,1349072870.0,2670179400.0,0.011629792599713314,52.61,2012-09-30 00:00:00,2012-10-22 00:00:00,49.89263598739833,4.123749200210076,-164.21735572197875,5.441736742512912
sz300244,2013-01-30,29.39,29.43,28.58,28.71,-0.022805000000000002,724333.0,20952398.15,1334201930.0,2640745800.0,0.015586546505745199,52.03,2012-09-30 00:00:00,2012-10-22 00:00:00,49.34266266928646,4.078292551431817,-162.4071654558083,5.38175173764512
sz300244,2013-01-29,29.58,29.58,29.02,29.38,-0.007097,878280.0,25654295.55,1365337960.0,2702372400.0,0.01889925216757322,53.24,2012-09-30 00:00:00,2012-10-22 00:00:00,50.494182501226945,4.1734685005877195,-166.19729476287566,5.507346780985493
sz300244,2013-01-28,28.7,29.67,28.4,29.59,0.044107,803423.0,23398863.83,1375097010.0,2721688200.0,0.01728844321318101,53.62,2012-09-30 00:00:00,2012-10-22 00:00:00,50.85510115411772,4.203299315832181,-167.38522772403314,5.546711794591712
sz300244,2013-01-25,28.01,28.8,28.01,28.34,0.011781999999999999,588095.0,16747132.15,1317007410.0,2606713200.0,0.012654911561963042,51.36,2012-09-30 00:00:00,2012-10-22 00:00:00,48.70679073516193,4.025736170557406,-160.31424722182032,5.312397862088571
sz300244,2013-01-24,29.22,29.44,27.92,28.01,-0.039108,709303.0,20327253.63,1301671760.0,2576359800.0,0.015263123654153795,50.76,2012-09-30 00:00:00,2012-10-22 00:00:00,48.139609851887,3.9788572741533312,-158.44741972264808,5.250536046390004
sz300244,2013-01-23,28.71,29.29,28.65,29.15,0.013913,404010.0,11735865.31,1354649470.0,2681217000.0,0.008693681842285,52.82,2012-09-30 00:00:00,2012-10-22 00:00:00,50.098876722760735,4.14079550475322,-164.89617951096284,5.4642312001661
sz300244,2013-01-22,29.32,29.79,28.53,28.75,-0.024432,503636.0,14572179.29,1336060800.0,2644425000.0,0.010837482096623148,52.1,2012-09-30 00:00:00,2012-10-22 00:00:00,49.41141569617978,4.083975158374752,-162.63346017948564,5.3892505571642735
sz300244,2013-01-21,29.11,29.94,29.11,29.47,0.015857,701350.0,20688594.98,1369520410.0,2710650600.0,0.015091987201563501,53.4,2012-09-30 00:00:00,2012-10-22 00:00:00,50.64886886017149,4.186253708992866,-166.70643171925036,5.524218257634807
sz300244,2013-01-18,29.0,29.47,28.68,29.01,0.00034500000000000004,514812.0,14951961.02,1348143440.0,2668339800.0,0.011077972622853842,52.57,2012-09-30 00:00:00,2012-10-22 00:00:00,49.858266330961435,4.120908463487347,-164.10423092940283,5.437988080640097
sz300244,2013-01-17,29.35,29.42,28.51,29.0,-0.010914,630311.0,18275083.76,1347678720.0,2667420000.0,0.013563335777832865,52.55,2012-09-30 00:00:00,2012-10-22 00:00:00,49.841071161410746,4.119487240389413,-164.04763449550188,5.436112621785581
sz300244,2013-01-16,29.97,30.14,29.0,29.32,-0.021688,713651.0,21068172.21,1362549660.0,2696853600.0,0.015356686023465743,53.13,2012-09-30 00:00:00,2012-10-22 00:00:00,50.39103896062703,4.164943433017363,-165.85780659669823,5.496097024713301
sz300244,2013-01-15,29.95,30.34,29.61,29.97,0.0010019999999999999,788938.0,23624219.31,1392756250.0,2756640600.0,0.016976747984437334,54.31,2012-09-30 00:00:00,2012-10-22 00:00:00,51.508147667234,4.257275217944136,-169.5346746198536,5.617938883212412
sz300244,2013-01-14,29.23,30.3,29.18,29.94,0.024641,840348.0,25199597.62,1391362100.0,2753881200.0,0.018083013127926942,54.26,2012-09-30 00:00:00,2012-10-22 00:00:00,51.45658816589178,4.253013698218522,-169.3649709189928,5.612315343238488
sz300244,2013-01-11,29.59,29.8,28.91,29.22,-0.011836,895723.0,26223214.12,1357902490.0,2687655600.0,0.019274599061969464,52.95,2012-09-30 00:00:00,2012-10-22 00:00:00,50.21913837714066,4.150735426572353,-165.2920104885446,5.4773480109018555
sz300244,2013-01-10,28.15,29.98,28.15,29.57,0.048582,1129493.0,33286747.1,1374167580.0,2719848600.0,0.0243049745140982,53.58,2012-09-30 00:00:00,2012-10-22 00:00:00,50.82065160959179,4.200451976162209,-167.2718399866263,5.542954419409993
sz300244,2013-01-09,28.86,28.9,27.89,28.2,-0.022869,711614.0,20178202.36,1310501380.0,2593836000.0,0.0153128528563625,51.1,2012-09-30 00:00:00,2012-10-22 00:00:00,48.466072858004225,4.00584024536203,-159.52194486137117,5.286143019248845
sz300244,2013-01-08,28.79,29.17,28.1,28.86,0.014411000000000002,808315.0,23207685.62,1341172680.0,2654542800.0,0.017393711673279834,52.3,2012-09-30 00:00:00,2012-10-22 00:00:00,49.600384040629386,4.0995938572842645,-163.25543336704206,5.409861133511111
sz300244,2013-01-07,28.5,29.17,28.03,28.45,0.012456,771529.0,22053014.84,1322119300.0,2616831000.0,0.01660213268953868,51.56,2012-09-30 00:00:00,2012-10-22 00:00:00,48.895747424494985,4.04135390614284,-160.93618204755475,5.333007167224242
sz300244,2013-01-04,27.98,28.7,27.66,28.1,0.007168000000000001,779503.0,21982312.26,1305854210.0,2584638000.0,0.016773721087900005,50.92,2012-09-30 00:00:00,2012-10-22 00:00:00,48.29419493241681,3.991634111648151,-158.95622332975927,5.2673964767103385
