code,date,open,high,low,close,change,volume,money,traded_market_value,market_value,turnover,adjust_price,report_type,report_date,PE_TTM,PS_TTM,PC_TTM,PB
sz300385,2014-12-31,43.38,43.8,43.1,43.78,0.010851999999999999,765962.0,33306432.68,875600000.0,3502400000.0,0.0382981,43.78,2014-09-30 00:00:00,2014-10-27 00:00:00,105.39157300306425,11.563618585315913,-58.05446567477003,5.497135799820759
sz300385,2014-12-30,43.39,43.82,42.7,43.31,-0.0018440000000000002,452552.0,19503453.01,866200000.0,3464800000.0,0.0226276,43.31,2014-09-30 00:00:00,2014-10-27 00:00:00,104.26014194270203,11.439477376822632,-57.43122205305031,5.4381213073929295
sz300385,2014-12-29,44.1,44.79,43.0,43.39,-0.033415,687476.0,29971583.85,867800000.0,3471200000.0,0.0343738,43.39,2014-09-30 00:00:00,2014-10-27 00:00:00,104.45275281890007,11.460610743032783,-57.53732087273964,5.448167728684624
sz300385,2014-12-26,44.83,45.22,44.24,44.89,0.001338,530147.0,23702483.44,897800000.0,3591200000.0,0.02650735,44.89,2014-09-30 00:00:00,2014-10-27 00:00:00,108.0637014012219,11.856805912602393,-59.52639537416746,5.636511769461169
sz300385,2014-12-25,45.0,45.29,44.1,44.83,0.00134,605412.0,27029072.78,896600000.0,3586400000.0,0.0302706,44.83,2014-09-30 00:00:00,2014-10-27 00:00:00,107.919305370636,11.840962704503767,-59.44685548153316,5.628980193961649
sz300385,2014-12-24,44.65,44.98,44.01,44.77,0.042375,974970.0,43434176.4,895400000.0,3581600000.0,0.0487485,44.77,2014-09-30 00:00:00,2014-10-27 00:00:00,107.77488702202649,11.825117047659903,-59.36730329511771,5.62144745437279
sz300385,2014-12-23,42.55,43.98,42.55,42.95,0.011064000000000001,1007517.0,43640611.44,859000000.0,3436000000.0,0.05037585,42.95,2014-09-30 00:00:00,2014-10-27 00:00:00,103.39358390409065,11.344398174994511,-56.95388252319722,5.392922368986967
sz300385,2014-12-22,47.0,47.0,42.48,42.48,-0.1,1548771.0,66878888.65,849600000.0,3398400000.0,0.07743855,42.48,2014-09-30 00:00:00,2014-10-27 00:00:00,102.2621554165618,11.220257248793855,-56.330640318711005,5.333908010755962
sz300385,2014-12-19,49.1,49.38,46.6,47.2,-0.039674,1305926.0,62094520.85,944000000.0,3776000000.0,0.0652963,47.2,2014-09-30 00:00:00,2014-10-27 00:00:00,113.62461712951311,12.46695249865984,-62.58960035412334,5.926564456395514
sz300385,2014-12-18,48.9,50.45,48.81,49.15,0.002039,703442.0,34992193.69,983000000.0,3932000000.0,0.0351721,49.15,2014-09-30 00:00:00,2014-10-27 00:00:00,118.31879708506604,12.982000381807678,-65.17536790019571,6.171408934461334
sz300385,2014-12-17,50.39,50.42,48.85,49.05,-0.030632,989428.0,48873148.45,981000000.0,3924000000.0,0.0494714,49.05,2014-09-30 00:00:00,2014-10-27 00:00:00,118.07803596972377,12.955583946141497,-65.04274574162854,6.15885103719649
sz300385,2014-12-16,51.99,52.17,50.55,50.6,-0.019,931145.0,47681755.95,1012000000.0,4048000000.0,0.04655725,50.6,2014-09-30 00:00:00,2014-10-27 00:00:00,121.80929839825926,13.364980013928145,-67.09809457463888,6.353470546991948
sz300385,2014-12-15,50.18,51.73,50.18,51.58,0.017758000000000003,943617.0,48466878.03,1031600000.0,4126400000.0,0.04718085,51.58,2014-09-30 00:00:00,2014-10-27 00:00:00,124.16849989628875,13.623832837847242,-68.39764992317929,6.476524512733892
sz300385,2014-12-12,50.85,51.2,49.9,50.68,0.0,854865.0,43084321.59,1013600000.0,4054400000.0,0.04274325,50.68,2014-09-30 00:00:00,2014-10-27 00:00:00,122.00198858303129,13.386122081916568,-67.20423708109323,6.363521104952152
sz300385,2014-12-11,49.85,51.71,49.07,50.68,0.014615000000000001,1324795.0,67200645.36,1013600000.0,4054400000.0,0.06623975,50.68,2014-09-30 00:00:00,2014-10-27 00:00:00,122.00198858303129,13.386122081916568,-67.20423708109323,6.363521104952152
sz300385,2014-12-10,47.81,50.47,47.81,49.95,0.050473000000000004,1658630.0,81956334.52,999000000.0,3996000000.0,0.0829315,49.95,2014-09-30 00:00:00,2014-10-27 00:00:00,120.24461355591163,13.1933019735728,-66.23619508985499,6.271857901718534
sz300385,2014-12-09,51.17,51.17,47.51,47.55,-0.071652,2308963.0,113625916.22,951000000.0,3804000000.0,0.11544815,47.55,2014-09-30 00:00:00,2014-10-27 00:00:00,114.46711486721851,12.559391791671754,-63.05368637733193,5.970508429744063
sz300385,2014-12-08,52.61,52.62,51.1,51.22,-0.026236000000000002,1460221.0,75540899.25,1024400000.0,4097600000.0,0.07301105,51.22,2014-09-30 00:00:00,2014-10-27 00:00:00,123.30194589444748,13.528754078935654,-67.92031261696253,6.431325784882462
sz300385,2014-12-05,56.18,56.46,52.2,52.6,-0.071328,2966148.0,159299246.72,1052000000.0,4208000000.0,0.1483074,52.6,2014-09-30 00:00:00,2014-10-27 00:00:00,126.6240545906888,13.89325758493398,-69.75028098898967,6.604604180152956
sz300385,2014-12-04,57.3,57.98,56.5,56.64,-0.008403,1868198.0,106479214.03,1132800000.0,4531200000.0,0.0934099,56.64,2014-09-30 00:00:00,2014-10-27 00:00:00,136.3495987718902,14.96034938593387,-75.10755249322652,7.111880384196955
sz300385,2014-12-03,56.5,57.38,55.23,57.12,0.005634,2642702.0,148406696.25,1142400000.0,4569600000.0,0.1321351,57.12,2014-09-30 00:00:00,2014-10-27 00:00:00,137.50505373845442,15.08712650999738,-75.74402957373462,7.172147943365053
sz300385,2014-12-02,55.1,58.0,54.98,56.8,0.035929,2968141.0,168813964.31,1136000000.0,4544000000.0,0.14840705,56.8,2014-09-30 00:00:00,2014-10-27 00:00:00,136.73469049222126,15.002601851167901,-75.31967850503725,7.131966444417206
sz300385,2014-12-01,55.15,55.48,53.92,54.83,-0.0049,1549092.0,84057523.65,1096600000.0,4386400000.0,0.0774546,54.83,2014-09-30 00:00:00,2014-10-27 00:00:00,131.99233778784188,14.48226842878991,-72.70737522073159,6.8846093162921465
sz300385,2014-11-28,55.2,56.19,54.8,55.1,-0.005236,1687993.0,93527559.85,1102000000.0,4408000000.0,0.08439965,55.1,2014-09-30 00:00:00,2014-10-27 00:00:00,132.64228498426476,14.5535809755702,-73.06539565946294,6.9185100153674455
sz300385,2014-11-27,56.1,56.5,54.9,55.39,0.005263,2208992.0,123304749.15,1107800000.0,4431200000.0,0.1104496,55.39,2014-09-30 00:00:00,2014-10-27 00:00:00,133.34045560983787,14.630184622252315,-73.44997975345203,6.954926007945047
sz300385,2014-11-26,54.15,55.63,54.13,55.1,0.018296,1614345.0,88733782.32,1102000000.0,4408000000.0,0.08071725,55.1,2014-09-30 00:00:00,2014-10-27 00:00:00,132.64235887507834,14.553589082908964,-73.06543636187945,6.91851386945013
sz300385,2014-11-25,54.68,55.97,53.5,54.11,-0.011689,1784518.0,97315847.08,1082200000.0,4328800000.0,0.0892259,54.11,2014-09-30 00:00:00,2014-10-27 00:00:00,130.25913769186792,14.292100806552282,-71.7526498796808,6.7942070571328275
sz300385,2014-11-24,54.93,54.96,54.0,54.75,0.012015000000000001,1385694.0,75620282.98,1095000000.0,4380000000.0,0.0692847,54.75,2014-09-30 00:00:00,2014-10-27 00:00:00,131.7997449101223,14.461137037382242,-72.60128631542176,6.874563833785951
sz300385,2014-11-21,53.25,54.65,53.1,54.1,0.015581,1368149.0,74071479.56,1082000000.0,4328000000.0,0.06840745,54.1,2014-09-30 00:00:00,2014-10-27 00:00:00,130.23497172484826,14.289449303994743,-71.73933816734115,6.792946580619803
sz300385,2014-11-20,53.23,53.98,53.05,53.27,-0.014066,1237556.0,66079515.99,1065400000.0,4261600000.0,0.0618778,53.27,2014-09-30 00:00:00,2014-10-27 00:00:00,128.23691239285517,14.070221187669661,-70.63871632823097,6.688729486490789
sz300385,2014-11-19,54.16,54.9,53.58,54.03,-0.007712999999999999,1084752.0,58822034.28,1080600000.0,4322400000.0,0.0542376,54.03,2014-09-30 00:00:00,2014-10-27 00:00:00,130.06642675154237,14.270956461253657,-71.64649594012478,6.78415541658041
sz300385,2014-11-18,54.08,54.9,53.01,54.45,0.010767,1363340.0,73736303.21,1089000000.0,4356000000.0,0.068167,54.45,2014-09-30 00:00:00,2014-10-27 00:00:00,131.07742694557356,14.381883932021337,-72.20340077026583,6.836888336318434
sz300385,2014-11-17,52.53,55.37,52.52,53.87,0.009179000000000001,1731149.0,94018097.34,1077400000.0,4309600000.0,0.08655745,53.87,2014-09-30 00:00:00,2014-10-27 00:00:00,129.68115000348604,14.22868369468071,-71.43426800663836,6.764059705469642
sz300385,2014-11-14,56.05,57.45,52.49,53.38,-0.059383000000000005,3344851.0,183459430.84,1067600000.0,4270400000.0,0.16724255,53.38,2014-09-30 00:00:00,2014-10-27 00:00:00,128.5016335095023,14.09926652722729,-70.78453674386641,6.702537117270219
sz300385,2014-11-13,57.77,59.48,56.68,56.75,-0.053694000000000006,3917055.0,227184655.52,1135000000.0,4540000000.0,0.19585275,56.75,2014-09-30 00:00:00,2014-10-27 00:00:00,136.6141942039133,14.989380935308729,-75.253303676062,7.125681459372113
sz300385,2014-11-12,55.3,61.17,55.06,59.97,0.075695,6543840.0,386881014.45,1199400000.0,4797600000.0,0.327192,59.97,2014-09-30 00:00:00,2014-10-27 00:00:00,144.36576985025278,15.839887874861546,-79.52322364653928,7.5299971250019695
sz300385,2014-11-11,54.9,56.15,53.2,55.75,0.014005000000000002,3326294.0,181751190.43,1115000000.0,4460000000.0,0.1663147,55.75,2014-09-30 00:00:00,2014-10-27 00:00:00,134.20697302697585,14.725259367071098,-73.92729690715238,7.0001228275691245
sz300385,2014-11-10,53.55,55.3,53.0,54.98,0.018713999999999998,2336485.0,126626183.52,1099600000.0,4398400000.0,0.11682425,54.98,2014-09-30 00:00:00,2014-10-27 00:00:00,132.35336416188855,14.52188043162617,-72.90624494667419,6.903440148292289
sz300385,2014-11-07,55.6,56.87,53.79,53.97,-0.022283,3012148.0,166353508.72,1079400000.0,4317600000.0,0.1506074,53.97,2014-09-30 00:00:00,2014-10-27 00:00:00,129.92200378309178,14.25511029751841,-71.56694120889101,6.776622436024526
sz300385,2014-11-06,52.42,55.33,52.41,55.2,0.053636,2771187.0,151056422.78,1104000000.0,4416000000.0,0.13855935,55.2,2014-09-30 00:00:00,2014-10-27 00:00:00,132.88303648508904,14.579996356326435,-73.1980125219169,6.931067411147119
sz300385,2014-11-05,53.1,53.74,52.01,52.39,-0.018914,1450035.0,76584901.51,1047800000.0,4191200000.0,0.07250175,52.39,2014-09-30 00:00:00,2014-10-27 00:00:00,126.1185423477264,13.837792516890497,-69.47182188337993,6.578237086761575
sz300385,2014-11-04,55.2,55.78,53.39,53.4,-0.037663999999999996,1975102.0,107003175.95,1068000000.0,4272000000.0,0.0987551,53.4,2014-09-30 00:00:00,2014-10-27 00:00:00,128.5499358340924,14.10456628357809,-70.8111438583161,6.7050565258923
sz300385,2014-11-03,54.1,55.5,53.6,55.49,0.030264,2718837.0,148454887.86,1109800000.0,4439200000.0,0.13594185,55.49,2014-09-30 00:00:00,2014-10-27 00:00:00,133.58113573023604,14.65659217111081,-73.58255729632491,6.967479680581732
sz300385,2014-10-31,51.54,53.86,51.25,53.86,0.045216,2637426.0,138932043.83,1077200000.0,4308800000.0,0.1318713,53.86,2014-09-30 00:00:00,2014-10-27 00:00:00,129.6571905164463,14.226054847214703,-71.4210700328507,6.7628099987786925
sz300385,2014-10-30,52.1,52.8,51.48,51.53,-0.012078,1618293.0,84078336.67,1030600000.0,4122400000.0,0.08091465,51.53,2014-09-30 00:00:00,2014-10-27 00:00:00,124.0482259326745,13.610636315569897,-68.33139756074411,6.4702511239578175
sz300385,2014-10-29,51.97,53.2,51.61,52.16,0.015774,2374637.0,124259273.82,1043200000.0,4172800000.0,0.11873185,52.16,2014-09-30 00:00:00,2014-10-27 00:00:00,125.56479755757488,13.77703534850919,-69.16679409988248,6.549354224278654
sz300385,2014-10-28,49.91,51.44,49.9,51.35,0.034448,1750461.0,88910280.57,1027000000.0,4108000000.0,0.08752305,51.35,2014-09-30 00:00:00,2014-10-27 00:00:00,123.61489618515034,13.56309114872914,-68.09269985241058,6.44764900881363
sz300385,2014-10-27,51.0,51.0,49.58,49.64,-0.031981,2013848.0,100877687.19,992800000.0,3971200000.0,0.1006924,49.64,2014-09-30 00:00:00,2014-10-27 00:00:00,119.49841479238235,13.111428654440957,-65.82515491586872,6.232936801863051
sz300385,2014-10-24,53.8,54.5,51.2,51.28,-0.045065,2273555.0,120012634.4,1025600000.0,4102400000.0,0.11367775,51.28,2014-06-30 00:00:00,2014-08-26 00:00:00,155.46569465775355,19.293321970351474,-72.39059325710872,6.508787483272151
sz300385,2014-10-23,54.28,55.28,53.22,53.7,-0.021858000000000002,2512351.0,136001629.19,1074000000.0,4296000000.0,0.12561755,53.7,2014-06-30 00:00:00,2014-08-26 00:00:00,162.8023840970889,20.203806510758824,-75.8068279590849,6.815948188381568
sz300385,2014-10-22,52.83,57.58,52.19,54.9,0.042735,4715036.0,258778170.72,1098000000.0,4392000000.0,0.2357518,54.9,2014-06-30 00:00:00,2014-08-26 00:00:00,166.4404392175051,20.65528983599398,-77.50084134929784,6.968260424745657
sz300385,2014-10-21,50.6,53.0,50.55,52.65,0.022330000000000003,3150552.0,164700977.4,1053000000.0,4212000000.0,0.1575276,52.65,2014-06-30 00:00:00,2014-08-26 00:00:00,159.6191162831449,19.808762375861537,-74.32458040566189,6.682676254988715
sz300385,2014-10-20,52.77,53.67,51.15,51.5,0.003899,3500253.0,183092564.37,1030000000.0,4120000000.0,0.17501265,51.5,2014-06-30 00:00:00,2014-08-26 00:00:00,156.13267367987334,19.376094192542073,-72.70116342635147,6.536711487473434
sz300385,2014-10-10,52.0,52.58,51.1,51.3,-0.014787999999999999,2682904.0,138580959.37,1026000000.0,4104000000.0,0.1341452,51.3,2014-06-30 00:00:00,2014-08-26 00:00:00,155.52627672691509,19.30084021653779,-72.41880251534413,6.511323835837502
sz300385,2014-10-09,49.75,54.15,49.75,52.07,0.054049,4853527.0,252473880.8,1041400000.0,4165600000.0,0.24267635,52.07,2014-06-30 00:00:00,2014-08-26 00:00:00,157.86072107009971,19.59054519893971,-73.50580638009295,6.609058594330461
sz300385,2014-10-08,48.77,49.58,48.54,49.4,0.012709999999999999,1622678.0,79781568.48,988000000.0,3952000000.0,0.0811339,49.4,2014-06-30 00:00:00,2014-08-26 00:00:00,149.7660175856148,18.585990972848236,-69.73661222589551,6.270162577195615
sz300385,2014-09-30,48.43,48.78,48.01,48.78,0.013926,1157326.0,55917641.61,975600000.0,3902400000.0,0.0578663,48.78,2014-06-30 00:00:00,2014-08-26 00:00:00,147.88638167453152,18.352727802478732,-68.86138403481304,6.191469006127732
sz300385,2014-09-29,47.27,48.3,47.27,48.11,0.021227,1197983.0,57379982.72,962200000.0,3848800000.0,0.05989915,48.11,2014-06-30 00:00:00,2014-08-26 00:00:00,145.85520212967367,18.10065803863273,-67.91559150747987,6.106430850109112
sz300385,2014-09-26,47.01,47.28,46.7,47.11,-0.001695,874534.0,41092289.85,942200000.0,3768800000.0,0.0437267,47.11,2014-06-30 00:00:00,2014-08-26 00:00:00,142.8234879509391,17.724421738391886,-66.50391294734654,5.979503920390973
sz300385,2014-09-25,47.92,48.0,47.0,47.19,-0.008822,1265088.0,60267314.0,943800000.0,3775200000.0,0.0632544,47.19,2014-06-30 00:00:00,2014-08-26 00:00:00,143.06598479516686,17.75451564240576,-66.6168284716059,5.989656387968578
sz300385,2014-09-24,47.48,47.88,47.21,47.61,0.002949,1012741.0,48254060.95,952200000.0,3808800000.0,0.05063705,47.61,2014-06-30 00:00:00,2014-08-26 00:00:00,144.3393465100788,17.91254007091134,-67.20975291179376,6.042967446784108
sz300385,2014-09-23,46.78,47.65,46.78,47.47,0.01867,935370.0,44277035.95,949400000.0,3797600000.0,0.0467685,47.47,2014-06-30 00:00:00,2014-08-26 00:00:00,143.9149413480434,17.85987131041692,-67.01213412824954,6.02519913453636
sz300385,2014-09-22,48.2,48.2,46.52,46.6,-0.036194,1465202.0,69018315.25,932000000.0,3728000000.0,0.0732601,46.6,2014-06-30 00:00:00,2014-08-26 00:00:00,141.27729426413208,17.532538810818934,-65.78394782240524,5.914770371696782
sz300385,2014-09-19,48.35,48.85,48.08,48.35,0.011506,1279012.0,61941171.01,967000000.0,3868000000.0,0.0639506,48.35,2014-06-30 00:00:00,2014-08-26 00:00:00,146.58270882743213,18.19094175676322,-68.25434560731645,6.136888929615276
sz300385,2014-09-18,48.5,48.65,47.71,47.8,-0.013212,1303859.0,62641608.65,956000000.0,3824000000.0,0.06519295,47.8,2014-06-30 00:00:00,2014-08-26 00:00:00,144.91531323336898,17.98401764968593,-67.47794437928835,6.067081094541482
sz300385,2014-09-17,48.42,48.7,47.58,48.44,0.009167,1385768.0,66870847.87,968800000.0,3875200000.0,0.0692884,48.44,2014-06-30 00:00:00,2014-08-26 00:00:00,146.8555690111442,18.224803756922388,-68.38139942853819,6.148312600620884
sz300385,2014-09-16,49.91,50.48,48.0,48.0,-0.039807999999999996,2149912.0,105631547.38,960000000.0,3840000000.0,0.1074956,48.0,2014-06-30 00:00:00,2014-08-26 00:00:00,145.52157275371096,18.059254570276664,-67.76024129657252,6.092462992369831
sz300385,2014-09-15,50.25,50.3,49.28,49.99,-0.005174,1807270.0,89752326.71,999800000.0,3999200000.0,0.0903635,49.99,2014-06-30 00:00:00,2014-08-26 00:00:00,151.55466068631165,18.807961918321194,-70.56947078977174,6.34504660773036
sz300385,2014-09-12,50.68,50.68,49.41,50.25,-0.00868,2201896.0,109969641.66,1005000000.0,4020000000.0,0.1100948,50.25,2014-06-30 00:00:00,2014-08-26 00:00:00,152.3428827617208,18.905780426246594,-70.93649622122035,6.378046620947141
sz300385,2014-09-11,51.2,51.29,49.91,50.69,-0.021429,3638341.0,184454698.87,1013800000.0,4055200000.0,0.18191705,50.69,2014-06-30 00:00:00,2014-08-26 00:00:00,153.67679736283014,19.07131947932715,-71.55761633097319,6.433892810542651
sz300385,2014-09-10,48.63,52.55,48.63,51.8,0.067381,5692648.0,290819241.52,1036000000.0,4144000000.0,0.2846324,51.8,2014-06-30 00:00:00,2014-08-26 00:00:00,157.04205148408255,19.488948149216718,-73.12460345848507,6.574783853744543
sz300385,2014-09-09,49.6,49.62,48.4,48.53,-0.010198,1890038.0,92251511.77,970600000.0,3882400000.0,0.0945019,48.53,2014-06-30 00:00:00,2014-08-26 00:00:00,147.12839322049254,18.25866129265625,-68.50843649876198,6.159734765509732
sz300385,2014-09-05,49.48,49.76,48.7,49.03,-0.012288,2073859.0,101797975.53,980600000.0,3922400000.0,0.10369295,49.03,2014-06-30 00:00:00,2014-08-26 00:00:00,148.64426746005017,18.446781571118517,-69.21428376459332,6.223198948385368
sz300385,2014-09-04,48.66,50.48,48.3,49.64,0.018465000000000002,3606997.0,179087895.59,992800000.0,3971200000.0,0.18034985,49.64,2014-06-30 00:00:00,2014-08-26 00:00:00,150.4935319810331,18.676275646259757,-70.07536991004798,6.300620978975012
sz300385,2014-09-03,49.15,49.25,47.78,48.74,-0.005509,2923223.0,141654985.7,974800000.0,3899200000.0,0.14616115,48.74,2014-06-30 00:00:00,2014-08-26 00:00:00,147.76505032674967,18.33767055938079,-68.80488765941685,6.18638930054053
sz300385,2014-09-02,47.75,49.65,47.55,49.01,0.031789,4386260.0,213714096.84,980200000.0,3920800000.0,0.219313,49.01,2014-06-30 00:00:00,2014-08-26 00:00:00,148.58359736463143,18.439252400857114,-69.1860335180679,6.220658910478357
sz300385,2014-09-01,46.87,47.83,46.5,47.5,0.012145999999999999,1956352.0,92627640.44,950000000.0,3800000000.0,0.0978176,47.5,2014-06-30 00:00:00,2014-08-26 00:00:00,144.00579708121666,17.871146524005503,-67.05443992722147,6.029002936141359
sz300385,2014-08-29,46.2,47.5,45.6,46.93,0.013607,2650537.0,123893109.15,938600000.0,3754400000.0,0.13252685,46.93,2014-06-30 00:00:00,2014-08-26 00:00:00,142.27769223137437,17.65668838685872,-66.24977021815178,5.956653423657614
sz300385,2014-08-28,45.8,46.4,45.6,46.3,0.012022,1672621.0,77068700.99,926000000.0,3704000000.0,0.08363105,46.3,2014-06-30 00:00:00,2014-08-26 00:00:00,140.36770881749473,17.419659085679875,-65.36041110425617,5.8766893121866906
sz300385,2014-08-27,45.61,46.5,45.6,45.75,0.00395,1314146.0,60472901.52,915000000.0,3660000000.0,0.0657073,45.75,2014-06-30 00:00:00,2014-08-26 00:00:00,138.70025435958382,17.212727673588,-64.58398246703746,5.806879012696058
sz300385,2014-08-26,47.45,47.7,45.5,45.57,-0.050031,3214686.0,148071883.86,911400000.0,3645600000.0,0.1607343,45.57,2014-06-30 00:00:00,2014-08-26 00:00:00,138.15454391113485,17.145004904216346,-64.32987944323668,5.784032085956531
sz300385,2014-08-25,47.05,48.53,47.05,47.97,0.007773,2895866.0,138883743.95,959400000.0,3837600000.0,0.1447933,47.97,,,,,,
sz300385,2014-08-22,46.65,48.4,46.15,47.6,0.021897999999999997,3087255.0,146063015.98,952000000.0,3808000000.0,0.15436275,47.6,,,,,,
sz300385,2014-08-21,47.9,48.3,46.0,46.58,-0.03361,2962807.0,138983900.78,931600000.0,3726400000.0,0.14814035,46.58,,,,,,
sz300385,2014-08-20,47.2,48.97,46.63,48.2,0.021186,3540828.0,169655937.31,964000000.0,3856000000.0,0.1770414,48.2,,,,,,
sz300385,2014-08-19,47.3,48.2,46.82,47.2,0.0,2425904.0,114861850.79,944000000.0,3776000000.0,0.1212952,47.2,,,,,,
sz300385,2014-08-18,46.2,47.2,46.18,47.2,0.020319999999999998,2128030.0,99597646.18,944000000.0,3776000000.0,0.1064015,47.2,,,,,,
sz300385,2014-08-15,46.0,46.48,45.9,46.26,0.002384,1484965.0,68591633.2,925200000.0,3700800000.0,0.07424825,46.26,,,,,,
sz300385,2014-08-14,46.0,47.05,45.87,46.15,-0.00367,2690241.0,124798775.04,923000000.0,3692000000.0,0.13451205,46.15,,,,,,
sz300385,2014-08-13,48.4,48.4,45.6,46.32,-0.051209000000000005,4337982.0,201911804.96,926400000.0,3705600000.0,0.2168991,46.32,,,,,,
sz300385,2014-08-12,49.06,49.44,48.58,48.82,-0.008931999999999999,2233538.0,109185426.89,976400000.0,3905600000.0,0.1116769,48.82,,,,,,
sz300385,2014-08-11,48.5,49.5,48.5,49.26,0.012955000000000001,2272737.0,111713282.26,985200000.0,3940800000.0,0.11363685,49.26,,,,,,
sz300385,2014-08-08,48.93,49.53,48.49,48.63,-0.011585,2754951.0,134697996.67,972600000.0,3890400000.0,0.13774755,48.63,,,,,,
sz300385,2014-08-07,49.0,50.0,48.8,49.2,-0.005257,3239975.0,159780660.22,984000000.0,3936000000.0,0.16199875,49.2,,,,,,
sz300385,2014-08-06,50.38,51.65,49.0,49.46,-0.027718,4364282.0,217982990.15,989200000.0,3956800000.0,0.2182141,49.46,,,,,,
sz300385,2014-08-05,51.11,51.98,49.9,50.87,-0.010119,4094043.0,208476187.51,1017400000.0,4069600000.0,0.20470215,50.87,,,,,,
sz300385,2014-08-04,51.48,52.28,50.68,51.39,0.008042,3184310.0,163458806.94,1027800000.0,4111200000.0,0.1592155,51.39,,,,,,
sz300385,2014-08-01,52.48,53.3,50.34,50.98,-0.035930000000000004,5268708.0,272557982.02,1019600000.0,4078400000.0,0.2634354,50.98,,,,,,
sz300385,2014-07-31,53.52,54.0,51.9,52.88,-0.033272,6081613.0,320401777.4,1057600000.0,4230400000.0,0.30408065,52.88,,,,,,
sz300385,2014-07-30,50.6,55.98,50.03,54.7,0.07486699999999999,10468889.0,562628292.64,1094000000.0,4376000000.0,0.52344445,54.7,,,,,,
sz300385,2014-07-29,48.8,53.0,48.75,50.89,0.035401999999999996,7189088.0,366556285.94,1017800000.0,4071200000.0,0.3594544,50.89,,,,,,
sz300385,2014-07-28,47.3,51.36,46.69,49.15,0.032129000000000005,6690477.0,326307160.03,983000000.0,3932000000.0,0.33452385,49.15,,,,,,
sz300385,2014-07-25,48.67,48.9,46.2,47.62,-0.03798,6548536.0,311534924.71,952400000.0,3809600000.0,0.3274268,47.62,,,,,,
sz300385,2014-07-24,44.5,49.5,43.88,49.5,0.1,6577453.0,312408734.43,990000000.0,3960000000.0,0.32887265,49.5,,,,,,
sz300385,2014-07-23,47.19,47.3,45.0,45.0,-0.055216999999999995,5394819.0,249031614.8,900000000.0,3600000000.0,0.26974095,45.0,,,,,,
sz300385,2014-07-22,46.74,47.99,45.9,47.63,-0.000629,4935119.0,231582864.43,952600000.0,3810400000.0,0.24675595,47.63,,,,,,
sz300385,2014-07-21,45.41,48.88,45.08,47.66,0.030931999999999998,5896844.0,278132718.56,953200000.0,3812800000.0,0.2948422,47.66,,,,,,
sz300385,2014-07-18,48.97,49.58,46.05,46.23,-0.075215,5953218.0,281895376.47,924600000.0,3698400000.0,0.2976609,46.23,,,,,,
sz300385,2014-07-17,53.58,54.32,48.76,49.99,-0.077335,7897094.0,400822131.01,999800000.0,3999200000.0,0.3948547,49.99,,,,,,
sz300385,2014-07-16,48.9,54.18,48.61,54.18,0.100102,10709016.0,554973611.01,1083600000.0,4334400000.0,0.5354508,54.18,,,,,,
sz300385,2014-07-15,50.2,51.28,48.05,49.25,-0.013619,6756864.0,333638538.33,985000000.0,3940000000.0,0.3378432,49.25,,,,,,
sz300385,2014-07-14,51.9,54.2,49.4,49.93,-0.078782,9197100.0,469166983.16,998600000.0,3994400000.0,0.459855,49.93,,,,,,
sz300385,2014-07-11,54.0,59.45,53.52,54.2,-0.014903999999999999,13339365.0,749869805.58,1084000000.0,4336000000.0,0.66696825,54.2,,,,,,
sz300385,2014-07-10,48.01,55.02,47.21,55.02,0.09996000000000001,12604930.0,651804789.53,1100400000.0,4401600000.0,0.6302465,55.02,,,,,,
sz300385,2014-07-09,46.28,50.02,46.06,50.02,0.100066,16032624.0,770002273.47,1000400000.0,4001600000.0,0.8016312,50.02,,,,,,
sz300385,2014-07-08,45.47,45.47,45.01,45.47,0.09990299999999999,11590990.0,526945405.92,909400000.0,3637600000.0,0.5795495,45.47,,,,,,
sz300385,2014-07-07,41.34,41.34,41.34,41.34,0.100053,1488859.0,61549431.06,826800000.0,3307200000.0,0.07444295,41.34,,,,,,
sz300385,2014-07-04,37.58,37.58,37.58,37.58,0.100117,908479.0,34140640.82,751600000.0,3006400000.0,0.04542395,37.58,,,,,,
sz300385,2014-07-03,34.16,34.16,34.16,34.16,0.100161,404762.0,13826669.92,683200000.0,2732800000.0,0.020238099999999995,34.16,,,,,,
sz300385,2014-07-02,31.05,31.05,31.05,31.05,0.09989400000000001,362316.0,11249911.8,621000000.0,2484000000.0,0.0181158,31.05,,,,,,
sz300385,2014-07-01,28.23,28.23,28.23,28.23,0.100156,212195.0,5990264.85,564600000.0,2258400000.0,0.01060975,28.23,,,,,,
sz300385,2014-06-30,25.66,25.66,25.66,25.66,0.099871,116977.0,3001629.82,513200000.0,2052800000.0,0.00584885,25.66,,,,,,
sz300385,2014-06-27,23.33,23.33,23.33,23.33,0.099953,61100.0,1425463.0,466600000.0,1866400000.0,0.003055,23.33,,,,,,
sz300385,2014-06-26,17.68,21.21,17.68,21.21,0.43991899999999995,252267.0,5337369.23,424200000.0,1696800000.0,0.01261335,21.21,,,,,,
