code,date,open,high,low,close,change,volume,money,traded_market_value,market_value,turnover,adjust_price,report_type,report_date,PE_TTM,PS_TTM,PC_TTM,PB
sz300290,2014-12-31,20.35,21.65,20.32,21.01,0.017433,2738971.0,57677516.14,1197309480.0,2857360000.0,0.04806257836528614,43.1,2014-09-30 00:00:00,2014-10-24 00:00:00,56.343541756371586,7.807125678910893,-209.41047240113429,7.197027213993923
sz300290,2014-12-30,20.15,21.0,19.02,20.65,0.0053549999999999995,4258025.0,86298302.33,1176793940.0,2808400000.0,0.07471844752191704,42.36,2014-09-30 00:00:00,2014-10-24 00:00:00,55.37813473356141,7.673356062670361,-205.82237100736293,7.073711206530478
sz300290,2014-12-29,22.58,22.58,20.54,20.54,-0.099912,5351295.0,111623347.21,1170525300.0,2793440000.0,0.09390279671870398,42.14,2014-09-30 00:00:00,2014-10-24 00:00:00,55.08316438826227,7.63248411025992,-204.72606294031755,7.036033248484842
sz300290,2014-12-26,23.66,24.18,22.38,22.82,-0.035503,3658559.0,83928890.62,1300457030.0,3103520000.0,0.06419921185708073,46.81,2014-09-30 00:00:00,2014-10-24 00:00:00,61.197532228251326,8.479708773208753,-227.45116359768997,7.817050386723124
sz300290,2014-12-25,22.9,24.19,22.9,23.66,0.015887000000000002,2029058.0,48116559.79,1348326620.0,3217760000.0,0.035605254370784434,48.54,2014-09-30 00:00:00,2014-10-24 00:00:00,63.450204851079185,8.791845670031895,-235.82360919493783,8.104794920796149
sz300290,2014-12-24,22.98,23.38,22.77,23.29,0.044395,3173541.0,73224170.18,1327241200.0,3167440000.0,0.05568827270431327,47.78,2014-09-30 00:00:00,2014-10-24 00:00:00,62.45793562776095,8.654353948846571,-232.13566980868723,7.978047677346152
sz300290,2014-12-23,24.7,25.21,22.3,22.3,-0.09753099999999999,3360846.0,79482108.38,1270823480.0,3032800000.0,0.05897504018418042,45.75,2014-09-30 00:00:00,2014-10-24 00:00:00,59.80298223158954,8.286475853337645,-222.26807846522362,7.638917916445552
sz300290,2014-12-22,27.0,27.1,24.71,24.71,-0.09981799999999999,3035911.0,75911238.95,1408163600.0,3360560000.0,0.0532731855943443,50.69,2014-09-30 00:00:00,2014-10-24 00:00:00,66.26596839513549,9.182006089225942,-246.28887913626244,8.464465722862005
sz300290,2014-12-19,28.7,29.2,26.62,27.45,-0.046875,2994856.0,82929301.45,1564309620.0,3733200000.0,0.05255276586485481,56.31,2014-09-30 00:00:00,2014-10-24 00:00:00,73.61396739230011,10.200166287735081,-273.5989823571927,9.403060406520021
sz300290,2014-12-18,28.55,30.45,28.55,28.8,-0.013699000000000001,4684319.0,137595252.05,1641242880.0,3916800000.0,0.08219891695737318,59.08,2014-09-30 00:00:00,2014-10-24 00:00:00,77.23432644438043,10.701813810082708,-287.0546700141038,9.865506000283299
sz300290,2014-12-17,27.15,30.18,27.15,29.2,0.051116,6623361.0,192030386.25,1664037920.0,3971200000.0,0.11622459973748675,59.9,2014-09-30 00:00:00,2014-10-24 00:00:00,78.30705478792014,10.85045418192084,-291.0416495715849,10.002530667902901
sz300290,2014-12-16,27.9,28.5,27.03,27.78,-0.013144,3271906.0,91049018.41,1583115530.0,3778080000.0,0.05741434971584165,56.99,2014-09-30 00:00:00,2014-10-24 00:00:00,74.49896565928039,10.322794231959977,-276.888230767665,9.516105423095931
sz300290,2014-12-15,26.34,28.89,26.34,28.15,0.069935,6675252.0,186247963.66,1604200940.0,3828400000.0,0.11713516624669226,57.75,2014-09-30 00:00:00,2014-10-24 00:00:00,75.49122228499435,10.460284207584467,-280.5761233327507,9.642851057394322
sz300290,2014-12-12,24.16,26.31,24.1,26.31,0.09991599999999999,5035966.0,127399211.03,1499343760.0,3578160000.0,0.08836950470918023,53.97,2014-09-30 00:00:00,2014-10-24 00:00:00,70.5568303541751,9.77656045234941,-262.23660627304525,9.012557825843926
sz300290,2014-12-11,23.88,24.34,23.32,23.92,-0.014015000000000001,2711212.0,64396405.99,1363143390.0,3253120000.0,0.047575472628745244,49.07,2014-09-30 00:00:00,2014-10-24 00:00:00,64.14747158344375,8.888460984611015,-238.41512103928412,8.19386010008394
sz300290,2014-12-10,24.21,24.76,22.7,24.26,0.009571,4951200.0,118740285.05,1382519180.0,3299360000.0,0.08688205830171558,49.77,2014-09-30 00:00:00,2014-10-24 00:00:00,65.05927735558222,9.014803455033308,-241.80400415755224,8.310329366150539
sz300290,2014-12-09,24.5,25.96,23.5,24.03,-0.038415,3565020.0,87559453.42,1369412030.0,3268080000.0,0.0625578195044774,49.3,2014-09-30 00:00:00,2014-10-24 00:00:00,64.44249820525968,8.929340734859961,-239.51163826769212,8.231545246595374
sz300290,2014-12-08,26.51,27.29,24.94,24.99,-0.091273,4572392.0,118542997.06,1424120120.0,3398640000.0,0.08023485833484326,51.26,2014-09-30 00:00:00,2014-10-24 00:00:00,67.01695451287164,9.286064918712293,-249.0800483240609,8.56039273345089
sz300290,2014-12-05,28.89,28.9,27.0,27.5,-0.051724,2871283.0,80023587.08,1567159000.0,3740000000.0,0.050384346770174566,56.41,2014-09-30 00:00:00,2014-10-24 00:00:00,73.74817135715308,10.218761981004521,-274.0977744955976,9.420202914022463
sz300290,2014-12-04,28.97,30.0,28.56,29.0,-0.012934000000000001,3090944.0,90395060.09,1652640400.0,3944000000.0,0.05423888705613151,59.49,2014-09-30 00:00:00,2014-10-24 00:00:00,77.77078757361052,10.776147430710596,-289.0485201519364,9.93403071892831
sz300290,2014-12-03,29.98,29.98,26.95,29.38,-0.004068,4925244.0,140297253.08,1674295690.0,3995680000.0,0.08642659094463774,60.27,2014-09-30 00:00:00,2014-10-24 00:00:00,78.78985556549462,10.917352467525571,-292.8360617749334,10.064201095902717
sz300290,2014-12-02,28.79,30.16,28.5,29.5,0.005796,7221483.0,213869506.98,1681134200.0,4012000000.0,0.1267202514231166,60.52,2014-09-30 00:00:00,2014-10-24 00:00:00,79.1116818874126,10.96194566248054,-294.0321847023023,10.105309494928083
sz300290,2014-12-01,26.5,29.33,26.03,29.33,0.10015,10109335.0,291714867.05,1671446310.0,3988880000.0,0.17739534544187663,60.17,2014-09-30 00:00:00,2014-10-24 00:00:00,78.65579291169642,10.898776354728534,-292.33779484339004,10.047076638730005
sz300290,2014-11-28,26.97,27.13,25.72,26.66,-0.011128,4065297.0,106654186.68,1519289420.0,3625760000.0,0.07133651863382291,54.69,2014-09-30 00:00:00,2014-10-24 00:00:00,71.49551689469293,9.90662760053496,-265.72539639448263,9.132460699659143
sz300290,2014-11-27,26.83,27.18,26.2,26.96,0.010495,1480825.0,39386588.82,1536385700.0,3666560000.0,0.02598503878290458,55.31,2014-09-30 00:00:00,2014-10-24 00:00:00,72.30007209698822,10.018109118809068,-268.7156643068897,9.235230342915102
sz300290,2014-11-26,26.8,26.99,26.08,26.68,-0.010019,2309688.0,61061502.75,1520429170.0,3628480000.0,0.040529659030417046,54.73,2014-09-30 00:00:00,2014-10-24 00:00:00,71.54916362474651,9.914061048109163,-265.9247837019379,9.139313250352652
sz300290,2014-11-25,27.06,28.0,26.61,26.95,-0.00296,1748773.0,47759851.01,1535815820.0,3665200000.0,0.030686903817672615,55.29,2014-09-30 00:00:00,2014-10-24 00:00:00,72.27326951198711,10.014395274363007,-268.6160478857048,9.231806721899362
sz300290,2014-11-24,26.1,27.1,25.48,27.03,0.031679,2410149.0,63210464.63,1540374830.0,3676080000.0,0.042292516211784634,55.45,2014-09-30 00:00:00,2014-10-24 00:00:00,72.48783349914459,10.044125886988493,-269.4135118808722,9.259213995325526
sz300290,2014-11-21,25.72,26.95,25.5,26.2,0.027451,2541468.0,66806103.02,1493075120.0,3563200000.0,0.04459685966771719,53.75,2014-09-30 00:00:00,2014-10-24 00:00:00,70.26200349056691,9.735708381181057,-261.1408314804044,8.97489819539365
sz300290,2014-11-20,25.6,25.9,25.0,25.5,-0.017341,2097404.0,53248297.86,1453183800.0,3468000000.0,0.03680456801128667,52.31,2014-09-30 00:00:00,2014-10-24 00:00:00,68.38477308462099,9.475593854287027,-254.16378151406195,8.735110672327588
sz300290,2014-11-19,23.96,26.2,23.71,25.95,0.08396,3967705.0,100550446.88,1478828220.0,3529200000.0,0.06962400592409577,53.23,2014-09-30 00:00:00,2014-10-24 00:00:00,69.59156033234419,9.64280981936463,-258.6490140669978,8.889259318163868
sz300290,2014-11-18,24.2,24.2,23.38,23.94,0.002093,2111786.0,50276235.07,1364283140.0,3255840000.0,0.03705693881110339,49.11,2014-09-30 00:00:00,2014-10-24 00:00:00,64.20122544406082,8.895909276508938,-238.61490651592106,8.200726335071282
sz300290,2014-11-17,21.8,23.89,21.61,23.89,0.09990800000000001,2624518.0,60748384.44,1361433760.0,3249040000.0,0.04605419438107661,49.01,2014-09-30 00:00:00,2014-10-24 00:00:00,64.06713293482824,8.87732902685573,-238.1165286215162,8.183598064322656
sz300290,2014-11-14,21.64,22.0,21.4,21.72,-0.00595,1861743.0,40349801.29,1237770670.0,2953920000.0,0.032669264945500764,44.56,2014-09-30 00:00:00,2014-10-24 00:00:00,58.24771975004112,8.07097414225165,-216.4876777162419,7.440256879959646
sz300290,2014-11-13,22.6,22.8,21.28,21.85,-0.031901,2448839.0,53450588.34,1245179060.0,2971600000.0,0.04297143589131671,44.82,2014-09-30 00:00:00,2014-10-24 00:00:00,58.59636814047697,8.119283881345659,-217.78348947863984,7.484791388722546
sz300290,2014-11-12,22.49,22.87,22.01,22.57,0.007589,1986547.0,44592270.65,1286210130.0,3069520000.0,0.03485928523203281,46.3,2014-09-30 00:00:00,2014-10-24 00:00:00,60.52724787493528,8.386832215863933,-224.95993641005705,7.731431794395559
sz300290,2014-11-11,24.0,24.17,22.21,22.4,-0.06666699999999999,2681391.0,60994464.15,1276522240.0,3046400000.0,0.047052183281977134,45.95,2014-09-30 00:00:00,2014-10-24 00:00:00,60.0713662762647,8.32366393029691,-223.26557396920475,7.673199880502425
sz300290,2014-11-10,24.28,24.4,23.41,24.0,-0.004562,1474685.0,35212450.53,1367702400.0,3264000000.0,0.02587729611354049,49.23,2014-09-30 00:00:00,2014-10-24 00:00:00,64.36220113964114,8.918214538966167,-239.21320040029093,8.22128852242707
sz300290,2014-11-07,24.72,25.19,24.0,24.11,-0.028606,2148450.0,52872919.83,1373971040.0,3278960000.0,0.03770030662363888,49.46,2014-09-30 00:00:00,2014-10-24 00:00:00,64.6571671361161,8.95908588879083,-240.30949230418258,8.258965924976813
sz300290,2014-11-06,24.35,24.99,24.28,24.82,0.034167,1531765.0,37833790.09,1414432230.0,3375520000.0,0.0268789175569055,50.92,2014-09-30 00:00:00,2014-10-24 00:00:00,66.56121731873587,9.2229166422593,-247.38622258752125,8.50217926503233
sz300290,2014-11-05,24.77,25.0,23.88,24.0,-0.027552999999999998,1808689.0,44372519.0,1367702400.0,3264000000.0,0.0317382904351122,49.23,2014-09-30 00:00:00,2014-10-24 00:00:00,64.36215555005708,8.918208221940269,-239.21303095875354,8.221282699053761
sz300290,2014-11-04,25.8,26.08,24.6,24.68,-0.041553,2304884.0,58220367.16,1406453970.0,3356480000.0,0.04044535998572353,50.63,2014-09-30 00:00:00,2014-10-24 00:00:00,66.18577212954237,9.170893860478019,-245.99081590950826,8.454221874357946
sz300290,2014-11-03,25.45,25.93,24.9,25.75,0.003116,2330655.0,59002156.92,1467430700.0,3502000000.0,0.04089758122819701,52.82,2014-09-30 00:00:00,2014-10-24 00:00:00,69.05522384601585,9.568493469621187,-256.65562718596664,8.820750520746524
sz300290,2014-10-31,26.01,26.5,25.3,25.67,-0.026545,2364784.0,60927491.97,1462871690.0,3491120000.0,0.04149646595457733,52.66,2014-09-30 00:00:00,2014-10-24 00:00:00,68.84071617441637,9.538770660243868,-255.85837249726524,8.793350440773077
sz300290,2014-10-30,26.65,27.0,25.93,26.37,0.004571,2314473.0,61230961.84,1502763010.0,3586320000.0,0.04061362477241172,54.1,2014-09-30 00:00:00,2014-10-24 00:00:00,70.71792345246197,9.798881982468494,-262.8353365047847,9.033135009602987
sz300290,2014-10-29,25.66,26.73,25.53,26.25,0.017442,3373243.0,88262144.83,1495924500.0,3570000000.0,0.059192578736426874,53.85,2014-09-30 00:00:00,2014-10-24 00:00:00,70.39614268425225,9.754295099568365,-261.63938288561457,8.992032429368344
sz300290,2014-10-28,25.28,26.3,24.73,25.8,0.020569999999999998,3308554.0,83849883.77,1470280080.0,3508800000.0,0.05805743705648246,52.93,2014-09-30 00:00:00,2014-10-24 00:00:00,69.18934217798386,9.587077297348022,-257.15410105501303,8.837882089955343
sz300290,2014-10-27,24.5,25.52,24.38,25.28,0.037767,2236226.0,56236392.65,1440646530.0,3438080000.0,0.03924057157865087,51.86,2014-09-30 00:00:00,2014-10-24 00:00:00,67.7948030786559,9.393845887443312,-251.97105642436387,8.659751011645788
sz300290,2014-10-24,24.88,25.53,24.3,24.36,-0.017741999999999997,2091057.0,52004446.97,1388217940.0,3312960000.0,0.03669319279939575,49.97,2014-09-30 00:00:00,2014-10-24 00:00:00,65.32757649709029,9.051979767561805,-242.80118410429685,8.344600485124106
sz300290,2014-10-23,26.03,26.34,23.77,24.8,-0.057034,5234912.0,130949442.54,1413292480.0,3372800000.0,0.09186054510103953,50.87,2014-06-30 00:00:00,2014-08-26 00:00:00,65.38350192471022,9.117968983330869,-793.9057450395197,8.550569030612904
sz300290,2014-10-22,26.85,27.8,26.3,26.3,-0.027367000000000002,4054678.0,109423554.53,1498773880.0,3576800000.0,0.07115018003916641,53.95,2014-06-30 00:00:00,2014-08-26 00:00:00,69.33813300236724,9.669456781401312,-841.9240407814489,9.067738423880504
sz300290,2014-10-21,26.4,27.5,25.81,27.04,0.061640999999999994,8770096.0,233255566.9,1540944700.0,3677440000.0,0.15389481260424204,55.47,2014-06-30 00:00:00,2014-08-26 00:00:00,71.28910185277205,9.941526538171448,-865.6132793987545,9.322877615586254
sz300290,2014-10-20,23.21,25.47,23.21,25.47,0.100216,6404735.0,160523443.9,1451474170.0,3463920000.0,0.11238822145212544,52.25,2014-06-30 00:00:00,2014-08-26 00:00:00,67.14991400367171,9.364301621896148,-815.3540409599426,8.781572693204438
sz300290,2014-10-17,24.49,24.75,23.15,23.15,-0.059708000000000004,3875162.0,91824846.43,1319262940.0,3148400000.0,0.0680000912479206,47.49,2014-06-30 00:00:00,2014-08-26 00:00:00,61.03339162825455,8.511330158710788,-741.0854240984885,7.981680591087966
sz300290,2014-10-16,23.92,25.28,23.76,24.62,0.011087999999999999,3938796.0,97009484.31,1403034710.0,3348320000.0,0.06911672022711399,50.51,2014-06-30 00:00:00,2014-08-26 00:00:00,64.90897681598328,9.051794717716186,-788.1439213547371,8.488512707848164
sz300290,2014-10-15,24.28,24.6,23.63,24.35,-0.0053100000000000005,2962083.0,71658070.49,1387648060.0,3311600000.0,0.051977675845271604,49.95,2014-06-30 00:00:00,2014-08-26 00:00:00,64.19715872009486,8.952529075328938,-779.5008163035632,8.395424243832549
sz300290,2014-10-14,23.64,24.94,23.64,24.48,0.041701999999999996,4918239.0,120164212.87,1395056450.0,3329280000.0,0.08630366944649444,50.22,2014-06-30 00:00:00,2014-08-26 00:00:00,64.53986540539753,9.000320778663642,-783.6620618519974,8.440241928472739
sz300290,2014-10-13,24.18,24.2,22.7,23.5,-0.048968,5977797.0,140974509.33,1339208600.0,3196000000.0,0.10489645115779574,48.21,2014-06-30 00:00:00,2014-08-26 00:00:00,61.95616923592116,8.640014878212428,-752.2900616990247,8.102357419370167
sz300290,2014-10-10,24.4,25.55,24.28,24.71,0.004472,5933667.0,148067072.57,1408163600.0,3360560000.0,0.10412207187431916,50.69,2014-06-30 00:00:00,2014-08-26 00:00:00,65.14625084741749,9.084883451043106,-791.0249725551029,8.519542370151756
sz300290,2014-10-09,26.5,26.52,23.95,24.6,0.01569,11168549.0,280856748.21,1401894960.0,3345600000.0,0.1959820908408145,50.46,2014-06-30 00:00:00,2014-08-26 00:00:00,64.85621385903985,9.044436729986606,-787.5032579853922,8.481612598610768
sz300290,2014-10-08,23.2,24.22,22.22,24.22,0.099909,3014431.0,71053742.52,1380239670.0,3293920000.0,0.05289626171953165,49.69,2014-06-30 00:00:00,2014-08-26 00:00:00,63.854339275802516,8.904721647339843,-775.3382016022528,8.350591813063797
sz300290,2014-09-30,22.02,22.02,22.02,22.02,0.0999,501324.0,11039154.48,1254866950.0,2994720000.0,0.008797071657676537,45.17,2014-06-30 00:00:00,2014-08-26 00:00:00,58.054202007441084,8.095871246930285,-704.9112259307386,7.5920751744587935
sz300290,2014-09-05,19.98,20.4,19.5,20.02,0.003006,3215610.0,64065281.83,1140891750.0,2722720000.0,0.056426485860731304,41.07,2014-06-30 00:00:00,2014-08-26 00:00:00,52.78134558363586,7.360552092854156,-640.8866496324563,6.902514023510132
sz300290,2014-09-04,20.56,20.56,19.54,19.96,-0.010902,4182261.0,82971335.03,1137472500.0,2714560000.0,0.07338896506069378,40.95,2014-06-30 00:00:00,2014-08-26 00:00:00,52.623160363582926,7.338492584146211,-638.9659180826997,6.8818272507942435
sz300290,2014-09-03,19.65,21.45,19.65,20.18,0.034872,7829622.0,159701268.52,1150009770.0,2744480000.0,0.13739167795070123,41.4,2014-06-30 00:00:00,2014-08-26 00:00:00,53.203181447726024,7.419378650190588,-646.0087049844399,6.9576798768112385
sz300290,2014-09-02,18.5,20.24,18.4,19.5,0.059783,6550591.0,128679420.19,1111258200.0,2652000000.0,0.11494765527939411,40.0,2014-06-30 00:00:00,2014-08-26 00:00:00,51.41039804703,7.169368434154745,-624.2402007054399,6.723227487854768
sz300290,2014-09-01,17.8,18.44,17.7,18.4,0.02507,3665169.0,66560583.39,1048571840.0,2502400000.0,0.064315201903572,37.75,2014-06-30 00:00:00,2014-08-26 00:00:00,48.510306399545954,6.764940024660468,-589.026433435373,6.343966158972892
sz300290,2014-08-29,17.23,18.35,17.13,17.95,0.041788,3798244.0,68031542.05,1022927420.0,2441200000.0,0.06665035902547221,36.82,2014-06-30 00:00:00,2014-08-26 00:00:00,47.32389631883281,6.59949079054159,-574.6206926701327,6.188812626428333
sz300290,2014-08-28,17.1,17.68,17.0,17.23,0.007601999999999999,2688954.0,46678412.47,981896350.0,2343280000.0,0.04718489626730968,35.35,2014-06-30 00:00:00,2014-08-26 00:00:00,45.42564928645061,6.334773284527745,-551.5716179012743,5.940568163991458
sz300290,2014-08-27,17.21,17.4,16.9,17.1,0.0,3266511.0,56066709.55,974487960.0,2325600000.0,0.05731968007075224,35.08,2014-06-30 00:00:00,2014-08-26 00:00:00,45.0829288612474,6.2869796651135506,-547.4102055189194,5.895748682507039
sz300290,2014-08-26,18.0,18.04,17.1,17.1,-0.058888,5449311.0,95686415.78,974487960.0,2325600000.0,0.09562274951041982,35.08,2014-06-30 00:00:00,2014-08-26 00:00:00,45.0829288612474,6.2869796651135506,-547.4102055189194,5.895748682507039
sz300290,2014-08-25,18.83,19.37,18.1,18.17,-0.006561,9247691.0,174015399.48,1035464690.0,2471120000.0,0.16227549533340438,37.27,2014-03-31 00:00:00,2014-04-26 00:00:00,46.29192568981437,6.321588513217918,-60.15417461738574,6.346853629290375
sz300290,2014-08-22,16.92,18.29,16.92,18.29,0.09982,10188277.0,184541485.39,1042303200.0,2487440000.0,0.17878059506101487,37.52,2014-03-31 00:00:00,2014-04-26 00:00:00,46.59765289042847,6.363338376304854,-60.551452698540864,6.388770351567006
sz300290,2014-08-21,15.96,16.63,15.81,16.63,0.043287,4580011.0,74233342.33,947703790.0,2261680000.0,0.080368553691233,34.11,2014-03-31 00:00:00,2014-04-26 00:00:00,42.36843564440406,5.785799836614041,-55.05578430883315,5.808923598013317
sz300290,2014-08-20,15.96,16.45,15.73,15.94,0.004411,4076660.0,65377228.58,908382340.0,2167840000.0,0.07153591339083057,32.7,2014-03-31 00:00:00,2014-04-26 00:00:00,40.610527730532496,5.545741331593359,-52.7714658658961,5.567905665472029
sz300290,2014-08-19,15.9,16.21,15.7,15.87,-0.003766,3287970.0,52513858.32,904393210.0,2158320000.0,0.05769623579991274,32.56,2014-03-31 00:00:00,2014-04-26 00:00:00,40.43218137847206,5.5213864957605585,-52.53971319101055,5.543453492118295
sz300290,2014-08-18,15.02,16.3,15.02,15.93,0.062708,6404627.0,100440653.88,907812470.0,2166480000.0,0.1123863259005464,32.68,2014-03-31 00:00:00,2014-04-26 00:00:00,40.585024581044266,5.542258641805598,-52.73832572569351,5.564409056625547
sz300290,2014-08-15,14.78,15.28,14.76,14.99,0.00604,2533047.0,38115430.48,854244120.0,2038640000.0,0.044449090887508834,30.75,2014-03-31 00:00:00,2014-04-26 00:00:00,38.19019390184723,5.215222471088576,-49.62635618221892,5.236065839934908
sz300290,2014-08-14,14.69,15.39,14.69,14.9,0.018455000000000003,3809596.0,57464786.32,849115240.0,2026400000.0,0.06684956025521341,30.57,2014-03-31 00:00:00,2014-04-26 00:00:00,37.960910005414526,5.18391164475426,-49.32841257029435,5.204629875486967
sz300290,2014-08-13,14.7,14.8,14.37,14.63,-0.010818000000000001,2318484.0,33778826.29,833728590.0,1989680000.0,0.040684008353365934,30.01,2014-03-31 00:00:00,2014-04-26 00:00:00,37.2730361237507,5.089976135179522,-48.43455289658781,5.110318939459246
sz300290,2014-08-12,14.83,14.92,14.61,14.79,0.001354,2182299.0,32286868.18,842846600.0,2011440000.0,0.03829427823520911,30.34,2014-03-31 00:00:00,2014-04-26 00:00:00,37.68066556382011,5.145641686948935,-48.96424813288941,5.166206966421999
sz300290,2014-08-11,14.65,14.87,14.5,14.77,0.012337,2375888.0,35022112.28,841706850.0,2008720000.0,0.041691315402743845,30.3,2014-03-31 00:00:00,2014-04-26 00:00:00,37.62971492980515,5.138683908936235,-48.89804018647691,5.159221380672569
sz300290,2014-08-08,14.32,14.7,14.31,14.59,0.027464999999999996,2828888.0,41170503.8,831449080.0,1984240000.0,0.04964041324094075,29.93,2014-03-31 00:00:00,2014-04-26 00:00:00,37.17113464173013,5.076060549931728,-48.30213672569205,5.096347738621199
sz300290,2014-08-07,14.26,14.46,14.16,14.2,-0.0021079999999999996,1897565.0,27131811.6,809223920.0,1931200000.0,0.03329785777958714,29.13,2014-03-31 00:00:00,2014-04-26 00:00:00,36.17751908019263,4.9403731999938945,-47.01098015571533,4.960118095138227
sz300290,2014-08-06,14.19,14.36,14.16,14.23,-0.0014039999999999999,1565746.0,22324080.73,810933550.0,1935280000.0,0.027475205064582668,29.19,2014-03-31 00:00:00,2014-04-26 00:00:00,36.25394239075234,4.9508095064334565,-47.11028864417725,4.970596111741779
sz300290,2014-08-05,13.89,14.3,13.73,14.25,0.029624,2454417.0,34572903.18,812073300.0,1938000000.0,0.04306931683383754,29.23,2014-03-31 00:00:00,2014-04-26 00:00:00,36.30491449069728,4.9577702158164625,-47.17652448455357,4.977584640577149
sz300290,2014-08-04,13.79,13.94,13.67,13.84,0.0065450000000000005,1217278.0,16789533.17,788708380.0,1882240000.0,0.021360401318418855,28.39,2014-03-31 00:00:00,2014-04-26 00:00:00,35.26036154042376,4.815126896630676,-45.81917717977977,4.834371227338473
sz300290,2014-08-01,14.03,14.08,13.67,13.75,-0.022743,1861100.0,25922263.32,783579500.0,1870000000.0,0.03265798173637774,28.21,2014-03-31 00:00:00,2014-04-26 00:00:00,35.03108310152428,4.783816815572751,-45.521240659662276,4.802936011145526
sz300290,2014-07-31,14.16,14.16,13.92,14.07,-0.004246,1225072.0,17186027.85,801815530.0,1913520000.0,0.021497167858547214,28.86,2014-03-31 00:00:00,2014-04-26 00:00:00,35.84633632864669,4.89514714714016,-46.580623786437215,4.9147112900143215
sz300290,2014-07-30,14.0,14.16,13.9,14.13,0.007845999999999999,1578169.0,22165616.52,805234790.0,1921680000.0,0.027693199855411115,28.99,2014-03-31 00:00:00,2014-04-26 00:00:00,35.99918888465092,4.916020570482428,-46.77924847546404,4.9356681369237
sz300290,2014-07-29,13.79,14.16,13.73,14.02,0.015941999999999998,2173022.0,30444922.83,798966150.0,1906720000.0,0.03813148834903707,28.76,2014-03-31 00:00:00,2014-04-26 00:00:00,35.71893809634698,4.877749745975504,-46.41507579080934,4.897244357693238
sz300290,2014-07-28,13.54,13.85,13.43,13.8,0.022222,1907923.0,26044069.25,786428880.0,1876800000.0,0.03347961661835206,28.31,2014-03-31 00:00:00,2014-04-26 00:00:00,35.158442210625196,4.80120887410453,-45.6867378165381,4.82039757948115
sz300290,2014-07-25,13.42,13.55,13.31,13.5,0.010479,1062420.0,14292147.18,769332600.0,1836000000.0,0.01864300303925766,27.69,2014-03-31 00:00:00,2014-04-26 00:00:00,34.394135726510676,4.696835789196995,-44.69355757999544,4.715607352885332
sz300290,2014-07-24,13.64,13.69,13.14,13.36,-0.017647,1662362.0,22251124.04,761354340.0,1816960000.0,0.02917059134384129,27.41,2014-03-31 00:00:00,2014-04-26 00:00:00,34.03745721238213,4.648128055305449,-44.23007066945027,4.666704951696505
sz300290,2014-07-23,13.96,14.04,13.48,13.6,-0.02509,2159592.0,29800056.76,775031360.0,1849600000.0,0.03789582295095775,27.9,2014-03-31 00:00:00,2014-04-26 00:00:00,34.64890646476585,4.731627078357219,-45.024620141079915,4.750537690317539
sz300290,2014-07-22,13.83,14.01,13.82,13.95,0.013808,2012135.0,28007578.66,794977020.0,1897200000.0,0.03530829513788965,28.62,2014-03-31 00:00:00,2014-04-26 00:00:00,35.54062063653656,4.853398855645362,-46.18336066004033,4.872796145610917
sz300290,2014-07-21,14.13,14.17,13.61,13.76,-0.026185000000000003,1670171.0,23107295.0,784149380.0,1871360000.0,0.029307621157591168,28.23,2014-03-31 00:00:00,2014-04-26 00:00:00,35.056559660741044,4.787295874214212,-45.55434624706091,4.806428974333323
sz300290,2014-07-18,14.19,14.32,14.05,14.13,-0.007026999999999999,1201782.0,17032863.1,805234790.0,1921680000.0,0.021088482354320533,28.99,2014-03-31 00:00:00,2014-04-26 00:00:00,35.99919867812782,4.916021907871836,-46.779261201625474,4.935669479658172
sz300290,2014-07-17,14.11,14.3,14.06,14.23,0.005621,1121499.0,15910424.7,810933550.0,1935280000.0,0.019679702202480095,29.19,2014-03-31 00:00:00,2014-04-26 00:00:00,36.253955221469084,4.95081125858592,-47.11030531708865,4.970597870896965
sz300290,2014-07-16,14.63,14.66,14.01,14.23,-0.031314,2632580.0,37810660.46,810933550.0,1935280000.0,0.04619566350411819,29.03,2014-03-31 00:00:00,2014-04-26 00:00:00,36.05131080344293,4.923138298211671,-46.846978451214376,4.942814311651174
sz300290,2014-07-15,15.11,15.23,14.51,14.69,-0.031641,3098969.0,45645640.65,837147840.0,1997840000.0,0.05437970742419881,29.97,2014-03-31 00:00:00,2014-04-26 00:00:00,37.21671501750095,5.082284969754565,-48.361366274741634,5.1025970352117955
sz300290,2014-07-14,14.72,15.18,14.67,15.17,0.022237,2989028.0,44659919.4,864501890.0,2063120000.0,0.05245049812441706,30.95,2014-03-31 00:00:00,2014-04-26 00:00:00,38.43276617194755,5.24834794715035,-49.941567409134045,5.269323706612728
sz300290,2014-07-11,14.67,15.0,14.52,14.84,0.010898999999999999,2053850.0,30438621.93,845695980.0,2018240000.0,0.0360402966560158,30.27,2014-03-31 00:00:00,2014-04-26 00:00:00,37.59672773725422,5.134179204186847,-48.855174885211596,5.154698672238168
sz300290,2014-07-10,14.65,14.96,14.56,14.68,0.0,2284936.0,33761535.12,836577970.0,1996480000.0,0.04009531888581766,29.95,2014-03-31 00:00:00,2014-04-26 00:00:00,37.19137889863797,5.078825089535994,-48.328443182960505,5.099123327096147
sz300290,2014-07-09,15.36,15.47,14.64,14.68,-0.049223,3713655.0,55934188.12,836577970.0,1996480000.0,0.06516601841666952,29.95,2014-03-31 00:00:00,2014-04-26 00:00:00,37.19137889863797,5.078825089535994,-48.328443182960505,5.099123327096147
sz300290,2014-07-08,15.16,15.57,15.07,15.44,0.010471,2845578.0,43632102.09,879888540.0,2099840000.0,0.049933283958897796,31.5,2014-03-31 00:00:00,2014-04-26 00:00:00,39.116826446830295,5.34176267361957,-50.830471480652676,5.36311177815213
sz300290,2014-07-07,15.58,15.75,15.11,15.28,-0.011003,2459213.0,37764099.19,870770530.0,2078080000.0,0.043153475393798636,31.17,2014-03-31 00:00:00,2014-04-26 00:00:00,38.711478554882135,5.286408688244959,-50.30374100855214,5.30753656280302
sz300290,2014-07-04,15.22,15.52,15.08,15.45,0.014445,3436703.0,52793160.67,880458420.0,2101200000.0,0.060306154321290946,31.52,2014-03-31 00:00:00,2014-04-26 00:00:00,39.14215973848468,5.345222167756786,-50.86339089860954,5.366585098643394
sz300290,2014-07-03,15.29,15.46,14.96,15.23,-0.001966,2881401.0,43850868.98,867921150.0,2071280000.0,0.050561894049937606,31.07,2014-03-31 00:00:00,2014-04-26 00:00:00,38.584802269698876,5.26910987560369,-50.139131149159915,5.290168613028201
sz300290,2014-07-02,15.45,15.56,14.93,15.26,-0.011017,4072163.0,61877358.34,869630780.0,2075360000.0,0.07145700084350741,31.13,2014-03-31 00:00:00,2014-04-26 00:00:00,38.66080942102061,5.279489351669072,-50.23789885831537,5.300589572127003
sz300290,2014-07-01,15.35,15.73,15.31,15.43,0.004557,3921591.0,60718332.49,879318670.0,2098480000.0,0.06881481218862326,31.48,2014-03-31 00:00:00,2014-04-26 00:00:00,39.09148025903439,5.338301418395536,-50.797535304768004,5.359636689535617
sz300290,2014-06-30,15.42,15.56,15.1,15.36,-0.009670999999999999,3316672.0,50786406.26,875222750.0,2088960000.0,0.05820699007195596,31.33,2014-03-31 00:00:00,2014-04-26 00:00:00,38.91414848439102,5.314085132446976,-50.567101025395274,5.335323619800188
sz300290,2014-06-27,15.5,15.78,15.33,15.51,0.0006450000000000001,3944674.0,61331041.42,883769850.0,2109360000.0,0.06922831067387057,31.64,2014-03-31 00:00:00,2014-04-26 00:00:00,39.2941623282677,5.365979520388654,-51.0609110966106,5.38742541094948
sz300290,2014-06-26,15.3,15.78,15.25,15.5,0.019737,4765468.0,74049867.94,883200040.0,2108000000.0,0.0836330963028489,31.62,2014-03-31 00:00:00,2014-04-26 00:00:00,39.268833930382606,5.362520694540676,-51.02799803787617,5.3839527614183655
sz300290,2014-06-25,15.16,15.3,14.8,15.2,0.001318,3351253.0,50296294.53,866105850.0,2067200000.0,0.05881388008174751,31.01,2014-03-31 00:00:00,2014-04-26 00:00:00,38.508786020692206,5.258729157165697,-50.040351617991874,5.279746406591471
sz300290,2014-06-24,15.09,15.55,14.88,15.18,0.007298999999999999,4450277.0,67594279.15,864966240.0,2064480000.0,0.07810155094608086,30.97,2014-03-31 00:00:00,2014-04-26 00:00:00,38.4580982472024,5.251807275177014,-49.97448524643707,5.2727968603295565
sz300290,2014-06-23,14.74,15.89,14.73,15.07,0.040027999999999994,6598488.0,100601182.57,858698370.0,2049520000.0,0.11580226262686397,30.74,2014-03-31 00:00:00,2014-04-26 00:00:00,38.17942661235879,5.213752098609265,-49.61236459724181,5.2345895909055375
sz300290,2014-06-20,13.9,14.49,13.8,14.49,0.04924,3294557.0,46758681.56,825649590.0,1970640000.0,0.057818875595880816,29.56,2014-03-31 00:00:00,2014-04-26 00:00:00,36.709998781147036,5.01308820398034,-47.70291241893661,5.033123714847617
sz300290,2014-06-19,14.4,15.13,13.78,13.81,-0.039638,5050729.0,72869469.48,786902750.0,1878160000.0,0.08863937442079088,28.17,2014-03-31 00:00:00,2014-04-26 00:00:00,34.98722768970592,4.7778279554537955,-45.4642526199312,4.796923215706242
sz300290,2014-06-18,14.6,14.7,14.3,14.38,-0.015743,2906847.0,42220440.28,819381720.0,1955680000.0,0.051014635596215156,29.33,2014-03-31 00:00:00,2014-04-26 00:00:00,36.43129121071629,4.9750281200774245,-47.34074507314033,4.994911518475576
sz300290,2014-06-17,14.65,14.93,14.46,14.61,-0.006122,3573464.0,52355163.74,832487270.0,1986960000.0,0.06271364250410699,29.8,2014-03-31 00:00:00,2014-04-26 00:00:00,37.01400265450618,5.054602730869503,-48.097951117584465,5.0748041603723175
sz300290,2014-06-16,14.24,14.9,14.23,14.7,0.028691,4431873.0,64665858.7,837615530.0,1999200000.0,0.0777785639910473,29.99,2014-03-31 00:00:00,2014-04-26 00:00:00,37.241998167286305,5.085737616558071,-48.394220535704044,5.106063481003018
sz300290,2014-06-13,14.05,14.54,14.01,14.29,0.009181,4508804.0,64606655.06,814253460.0,1943440000.0,0.07912868943780724,29.15,2014-03-31 00:00:00,2014-04-26 00:00:00,36.20328958578067,4.943892399717768,-47.0444677125629,4.9636513598379075
sz300290,2014-06-12,14.09,14.28,13.79,14.16,0.004968,3635046.0,50910875.15,806845980.0,1925760000.0,0.0637943952574443,28.89,2014-03-31 00:00:00,2014-04-26 00:00:00,35.873931025039774,4.898915456907896,-46.61648179321934,4.918494660361132
sz300290,2014-06-11,14.0,14.25,13.86,14.09,0.0007099999999999999,4913832.0,69035789.31,802857330.0,1916240000.0,0.08623685715119522,28.74,2014-03-31 00:00:00,2014-04-26 00:00:00,35.69659036411087,4.874697957455258,-46.38603596653758,4.894180372271685
sz300290,2014-06-10,13.22,14.48,13.19,14.08,0.065053,6773509.0,93585230.11,802287520.0,1914880000.0,0.11887385051184643,28.72,2014-03-31 00:00:00,2014-04-26 00:00:00,35.67126376683641,4.8712393774972345,-46.35312524761178,4.89070796961326
sz300290,2014-06-09,13.35,13.45,13.17,13.22,-0.0171,2024285.0,26878404.09,753284170.0,1797920000.0,0.03552583309961233,26.97,2014-03-31 00:00:00,2014-04-26 00:00:00,33.49247762020896,4.573706076126948,-43.52189538700119,4.591985534629037
sz300290,2014-06-06,13.49,13.65,13.3,13.45,-0.005178,2877767.0,38772110.21,766389720.0,1829200000.0,0.05050428670937809,27.44,2014-03-31 00:00:00,2014-04-26 00:00:00,34.07516290589985,4.653277114789855,-44.279067440229106,4.671874590120091
sz300290,2014-06-05,13.05,13.54,12.96,13.52,0.032061,2690378.0,35697053.17,770378360.0,1838720000.0,0.04721564421928986,27.58,2014-03-31 00:00:00,2014-04-26 00:00:00,34.252522467235195,4.677497195266947,-44.50953782709782,4.696191469549418
sz300290,2014-06-04,13.38,13.38,12.82,13.1,-0.020927,3104370.0,40683095.69,746446490.0,1781600000.0,0.054481128312358997,26.72,2014-03-31 00:00:00,2014-04-26 00:00:00,33.18846702591727,4.532190631432588,-43.126847954818395,4.550304167631001
sz300290,2014-06-03,13.4,13.63,13.31,13.38,-0.008889,2444280.0,32879265.34,762401070.0,1819680000.0,0.04289666907209351,27.29,2014-03-31 00:00:00,2014-04-26 00:00:00,33.89784727585917,4.629063033535383,-44.04865414000631,4.64756373389012
sz300290,2014-05-30,13.48,13.74,13.17,13.5,0.000741,3422360.0,46088042.14,769238750.0,1836000000.0,0.06006179485887834,27.54,2014-03-31 00:00:00,2014-04-26 00:00:00,34.20186767764577,4.670579817533438,-44.44371431656627,4.689246445544566
sz300290,2014-05-29,13.77,13.9,13.33,13.49,-0.016047,4354951.0,59361569.61,768668940.0,1834640000.0,0.07642859745315063,27.52,2014-03-31 00:00:00,2014-04-26 00:00:00,34.17654285938696,4.667121480516376,-44.41080590938741,4.685774286798049
sz300290,2014-05-28,13.3,13.94,13.27,13.71,0.030826999999999997,6072510.0,82966022.89,781204680.0,1864560000.0,0.10657144565493387,27.97,2014-03-31 00:00:00,2014-04-26 00:00:00,34.73391804221031,4.743236191684335,-45.135088677393554,4.7621932010960375
sz300290,2014-05-27,13.26,13.54,13.2,13.3,0.0,4030453.0,53917901.98,757842620.0,1808800000.0,0.07073371632226227,27.13,2014-03-31 00:00:00,2014-04-26 00:00:00,33.69519622808707,4.601389167808308,-43.78531865908979,4.619779265673132
sz300290,2014-05-26,13.16,13.39,13.14,13.3,0.010638,4665838.0,61913206.72,757842620.0,1808800000.0,0.08188460738721716,27.13,2014-03-31 00:00:00,2014-04-26 00:00:00,33.69519622808707,4.601389167808308,-43.78531865908979,4.619779265673132
sz300290,2014-05-23,12.73,13.18,12.71,13.16,0.033777999999999996,4391696.0,57025645.56,749865330.0,1789760000.0,0.07707346512473114,26.85,2014-03-31 00:00:00,2014-04-26 00:00:00,33.34051977868146,4.552954834281224,-43.32443333724815,4.5711513575317095
sz300290,2014-05-22,12.88,13.09,12.71,12.73,-0.016229,4013697.0,51882274.97,725363650.0,1731280000.0,0.07043965162853143,25.97,2014-03-31 00:00:00,2014-04-26 00:00:00,32.25114074654468,4.404190101048024,-41.9088366527902,4.421792065154907
sz300290,2014-05-21,12.55,12.97,12.4,12.94,0.032721,3793189.0,48268097.07,737329590.0,1759840000.0,0.06656977602106,26.4,2014-03-31 00:00:00,2014-04-26 00:00:00,32.78317895785165,4.476844815559743,-42.60019522103234,4.49473715443422
sz300290,2014-05-20,12.52,12.86,12.45,12.53,0.015397,4049999.0,51223069.53,713967520.0,1704080000.0,0.07107674515781894,25.56,2014-03-31 00:00:00,2014-04-26 00:00:00,31.74446821343969,4.3349993033546745,-41.250439587296405,4.352324736723878
sz300290,2014-05-19,12.25,12.37,12.03,12.34,-0.00081,1984666.0,24234563.11,703141200.0,1678240000.0,0.03483052684155046,25.17,2014-03-31 00:00:00,2014-04-26 00:00:00,31.263110107120355,4.269265423627088,-40.6249374257521,4.286328142316629
sz300290,2014-05-16,11.97,12.39,11.86,12.35,0.019818000000000002,3673032.0,44460773.83,703711000.0,1679600000.0,0.06446104324076218,25.19,2014-03-31 00:00:00,2014-04-26 00:00:00,31.28845375466163,4.2727263319559725,-40.65787030069566,4.289802882651577
sz300290,2014-05-15,12.62,12.72,12.09,12.11,-0.045705,4288621.0,53111084.37,690035650.0,1646960000.0,0.07526451757963519,24.7,2014-03-31 00:00:00,2014-04-26 00:00:00,30.680429012492066,4.189694957292353,-39.86777081861241,4.206439661441136
sz300290,2014-05-14,12.56,12.9,12.43,12.69,0.011155,3903904.0,49592509.75,723084420.0,1725840000.0,0.0685128048534084,25.89,2014-03-31 00:00:00,2014-04-26 00:00:00,32.14983732754763,4.3903561868105285,-41.77719763659289,4.407902861736818
sz300290,2014-05-13,12.54,12.73,12.38,12.55,-0.0071200000000000005,4042375.0,50717433.67,715107130.0,1706800000.0,0.07094294563948762,25.6,2014-03-31 00:00:00,2014-04-26 00:00:00,31.795162292178382,4.341922046383124,-41.31631415222481,4.359275147466825
sz300290,2014-05-12,12.38,12.75,12.13,12.64,0.026807,5241434.0,65211516.9,720235390.0,1719040000.0,0.09198621267416476,25.78,2014-03-31 00:00:00,2014-04-26 00:00:00,32.02316724294817,4.373058220916047,-41.61259583456693,4.390535762092926
sz300290,2014-05-09,12.93,12.93,12.24,12.31,-0.044996,5958206.0,74538763.21,701431780.0,1674160000.0,0.10456543024041484,25.11,2014-03-31 00:00:00,2014-04-26 00:00:00,31.187133748550767,4.258890152595421,-40.52620973032607,4.275911405057548
sz300290,2014-05-08,13.1,13.75,12.75,12.89,-0.030826999999999997,6899426.0,90777474.95,734480550.0,1753040000.0,0.1210836708201463,26.29,2014-03-31 00:00:00,2014-04-26 00:00:00,32.656547772104375,4.459552161661544,-42.435643966230586,4.47737538801675
sz300290,2014-05-07,14.13,14.29,13.13,13.3,-0.071877,9548321.0,132355758.66,757842620.0,1808800000.0,0.1675712950797093,27.13,2014-03-31 00:00:00,2014-04-26 00:00:00,33.695271919568924,4.601399504176801,-43.78541701660136,4.619789643352374
sz300290,2014-05-06,13.67,14.58,13.45,14.33,0.036153,11932265.0,166620561.1,816532690.0,1948880000.0,0.2094090776083931,29.23,2014-03-31 00:00:00,2014-04-26 00:00:00,36.3047483141447,4.957747522878758,-47.17630854595927,4.977561856943932
sz300290,2014-05-05,13.25,13.98,13.07,13.83,-0.012143000000000001,12179811.0,163867864.6,788042360.0,1880880000.0,0.21375346641264312,28.21,2014-03-31 00:00:00,2014-04-26 00:00:00,35.03801881975413,4.784763951731798,-45.53025329846004,4.803886932667214
sz300290,2014-04-30,14.0,14.0,14.0,14.0,-0.100257,228600.0,3200400.0,797729070.0,1904000000.0,0.004011888397147167,28.56,2014-03-31 00:00:00,2014-04-26 00:00:00,35.46871543123562,4.843579538062491,-46.089923236318654,4.86293758374665
sz300290,2014-04-29,15.56,15.56,15.56,15.56,-0.10005800000000001,32700.0,508812.0,886618880.0,2116160000.0,0.0005738790493610964,31.74,2014-03-31 00:00:00,2014-04-26 00:00:00,39.420940681100745,5.383292271306908,-51.22565358810089,5.404807354707566
sz300290,2014-01-29,16.73,17.73,16.73,17.29,0.026722000000000003,7178112.0,124096962.71,985195400.0,2351440000.0,0.1259745594427258,35.27,2013-09-30 00:00:00,2013-10-28 00:00:00,45.91239027595877,6.186197203239804,-40.91727641456509,6.583625511797894
sz300290,2014-01-28,17.14,17.16,16.36,16.84,-0.02093,5852441.0,98110148.46,959554110.0,2290240000.0,0.10270927445665362,34.35,2013-09-30 00:00:00,2013-10-28 00:00:00,44.71745056203995,6.025192022027194,-39.852342128214936,6.412276655022387
sz300290,2014-01-27,16.63,17.27,16.31,17.2,0.018956999999999998,8402247.0,142191988.0,980067150.0,2339200000.0,0.14745790469561193,35.09,2013-09-30 00:00:00,2013-10-28 00:00:00,45.673394713391225,6.153995140313965,-40.70428276651816,6.549354647800859
sz300290,2014-01-24,16.73,17.13,16.42,16.88,-0.011131,10766905.0,180794869.0,961833340.0,2295680000.0,0.18895722246434085,34.43,2013-09-30 00:00:00,2013-10-28 00:00:00,44.82367235652852,6.039504258093292,-39.947007348217994,6.42750837160043
sz300290,2014-01-23,16.2,17.96,16.11,17.07,0.045315,15885008.0,269047365.83,972659660.0,2321520000.0,0.27877899918250953,34.82,2013-09-30 00:00:00,2013-10-28 00:00:00,45.32822078205355,6.107486692467142,-40.396662599614295,6.499858294273993
sz300290,2014-01-22,16.3,16.88,15.87,16.33,-0.016265,12253811.0,199182987.73,930493980.0,2220880000.0,0.21505215286830762,33.31,2013-09-30 00:00:00,2013-10-28 00:00:00,43.36321662087844,5.842723669388789,-38.64544429154302,6.218085739010721
sz300290,2014-01-21,15.95,16.95,15.01,16.6,0.022167,14699897.0,236617779.15,945878760.0,2257600000.0,0.25798051560011775,33.86,2013-09-30 00:00:00,2013-10-28 00:00:00,44.080180760955386,5.9393268201180085,-39.28440514116406,6.32089509777605
sz300290,2014-01-20,15.85,16.6,15.66,16.24,0.057291999999999996,18678838.0,300436160.97,925365720.0,2208640000.0,0.3278102079683695,33.13,2013-09-30 00:00:00,2013-10-28 00:00:00,43.12424560855063,5.8105249143417925,-38.4324725227522,6.183818395405103
sz300290,2014-01-17,13.72,15.36,13.72,15.36,0.100287,10767117.0,160670003.27,875222750.0,2088960000.0,0.1889609440796643,31.33,2013-09-30 00:00:00,2013-10-28 00:00:00,40.78745096770868,5.495667151876487,-36.34991329051219,5.848732796053602
sz300290,2014-01-16,14.12,14.65,13.82,13.96,-0.0007160000000000001,4364512.0,61948328.6,795449850.0,1898560000.0,0.0765963907341236,28.48,2013-09-30 00:00:00,2013-10-28 00:00:00,37.069829024344266,4.9947578694254195,-33.03675612863933,5.315642915033624
sz300290,2014-01-15,13.77,14.15,13.7,13.97,0.014524,4661309.0,64787112.24,796019650.0,1899920000.0,0.08180512469761268,28.5,2013-09-30 00:00:00,2013-10-28 00:00:00,37.09639003961263,4.998336678487217,-33.06042739465391,5.31945164240959
sz300290,2014-01-14,13.09,13.82,13.02,13.77,0.05923099999999999,5037423.0,67887631.39,784623520.0,1872720000.0,0.08840585700260425,28.09,2013-09-30 00:00:00,2013-10-28 00:00:00,36.56531539876102,4.926780123966724,-32.58713189106803,5.243297982511592
sz300290,2014-01-13,13.17,13.29,12.77,13.0,-0.004594,3451302.0,45019340.43,740748420.0,1768000000.0,0.06056972217369022,26.52,2013-09-30 00:00:00,2013-10-28 00:00:00,34.520624300800314,4.651280149435509,-30.764896317298145,4.950098687171723
sz300290,2014-01-10,13.91,14.1,12.96,13.06,-0.073759,6745313.0,90968670.99,744167260.0,1776160000.0,0.11837901573364032,26.64,2013-09-30 00:00:00,2013-10-28 00:00:00,34.679943963368025,4.672746747995801,-30.906882535667,4.972944393716456
sz300290,2014-01-09,15.0,15.18,14.1,14.1,-0.077829,7881641.0,116152525.52,803427140.0,1917600000.0,0.13832136427455013,28.76,2013-09-30 00:00:00,2013-10-28 00:00:00,37.44159885317971,5.044849826336559,-33.36807864871777,5.368952997887652
sz300290,2014-01-08,15.35,15.54,14.89,15.29,-0.011635,9249639.0,140282535.53,871234110.0,2079440000.0,0.16232948031614602,31.19,2013-09-30 00:00:00,2013-10-28 00:00:00,40.60157915742277,5.470622939060716,-36.18426370891925,5.822079633698795
sz300290,2014-01-07,14.4,15.88,13.91,15.47,0.05814,12714170.0,193519589.41,881490620.0,2103920000.0,0.22313137024645824,31.56,2013-09-30 00:00:00,2013-10-28 00:00:00,41.07953960067664,5.535022930861287,-36.61022366121752,5.890616962052274
sz300290,2014-01-06,14.72,15.69,14.42,14.62,-0.018133,8199736.0,123871650.86,833057070.0,1988320000.0,0.14390387482096514,29.82,2013-09-30 00:00:00,2013-10-28 00:00:00,38.822404975406506,5.230898492506934,-34.598657702399976,5.566954242399184
sz300290,2014-01-03,14.72,15.25,14.56,14.89,-0.013907,8414340.0,125094903.52,848441850.0,2025040000.0,0.14767013508350632,30.37,2013-09-30 00:00:00,2013-10-28 00:00:00,39.53937241541522,5.327502087866212,-35.237621492931304,5.669764074359546
sz300290,2014-01-02,14.2,15.85,14.08,15.1,0.044982999999999995,9939040.0,149884735.21,860407780.0,2053600000.0,0.1744283437325497,30.8,2013-09-30 00:00:00,2013-10-28 00:00:00,40.09700141408085,5.402636554428651,-35.73458232938607,5.749725506985189
sz300290,2013-12-31,13.59,14.75,13.08,14.45,0.067208,8294100.0,115397659.83,823370360.0,1965200000.0,0.1455599458304523,29.48,2013-09-30 00:00:00,2013-10-28 00:00:00,38.37096049799934,5.17007123984663,-34.19632886792041,5.50221918154189
sz300290,2013-12-30,13.01,13.66,12.98,13.54,0.04556,4898153.0,65669540.83,771517970.0,1841440000.0,0.08596169395769225,27.62,2013-09-30 00:00:00,2013-10-28 00:00:00,35.95452854363849,4.844483212126062,-32.042796594403725,5.155713957861907
sz300290,2013-12-27,12.57,13.18,12.52,12.95,0.030231,3433562.0,44228258.72,737899390.0,1761200000.0,0.060258388206554825,26.42,2013-09-30 00:00:00,2013-10-28 00:00:00,34.38781948777544,4.633386139605629,-30.646540221894224,4.931055088050334
sz300290,2013-12-26,12.99,13.07,12.5,12.57,-0.044106,3225279.0,41379805.88,716246750.0,1709520000.0,0.056603058973740544,25.64,2013-09-30 00:00:00,2013-10-28 00:00:00,33.378746599331066,4.497424499559448,-29.74725107465629,4.786358678830606
sz300290,2013-12-25,12.25,13.15,12.15,13.15,0.084089,4969978.0,63486740.77,749295520.0,1788400000.0,0.08722220933604408,26.83,2013-09-30 00:00:00,2013-10-28 00:00:00,34.91887866157865,4.7049406101089115,-31.11982194119462,5.00720653004476
sz300290,2013-12-24,11.7,12.17,11.69,12.13,0.036752,1632778.0,19673521.72,691175260.0,1649680000.0,0.028654956689277335,24.74,2013-09-30 00:00:00,2013-10-28 00:00:00,32.21034311904156,4.339994788351243,-28.705965968840765,4.6188149958580516
sz300290,2013-12-23,11.86,11.97,11.5,11.7,-0.020101,1213795.0,14179137.6,666673580.0,1591200000.0,0.021301881349490407,23.87,2013-09-30 00:00:00,2013-10-28 00:00:00,31.06851312468321,4.186145566491547,-27.688363242936372,4.455081828497126
sz300290,2013-12-20,12.2,12.36,11.91,11.94,-0.018899000000000003,1471767.0,17904752.08,680348940.0,1623840000.0,0.025829242829422207,24.36,2013-09-30 00:00:00,2013-10-28 00:00:00,31.70583205481709,4.272017388007893,-28.256344013961005,4.5464704306230805
sz300290,2013-12-19,12.09,12.26,11.99,12.17,0.01586,2178488.0,26460187.65,693454490.0,1655120000.0,0.03823206762998967,24.83,2013-09-30 00:00:00,2013-10-28 00:00:00,32.31658315995712,4.354309482925706,-28.800647450120838,4.634049328889769
sz300290,2013-12-18,11.88,11.98,11.75,11.98,0.016115,1093862.0,13000998.52,682628160.0,1629280000.0,0.0191970790657098,24.44,2013-09-30 00:00:00,2013-10-28 00:00:00,31.812044139898333,4.286328315836539,-28.351000580907645,4.561700754916789
sz300290,2013-12-17,12.15,12.15,11.72,11.79,-0.024007,1427677.0,16974261.16,671801840.0,1603440000.0,0.025055471461644104,24.05,2013-09-30 00:00:00,2013-10-28 00:00:00,31.307523400302454,4.218349611841709,-27.90137000330439,4.4893548022780765
sz300290,2013-12-16,12.06,12.25,12.01,12.08,0.0016579999999999998,1853201.0,22457160.52,688326230.0,1642880000.0,0.03252334010284629,24.64,2013-09-30 00:00:00,2013-10-28 00:00:00,32.077610597926885,4.322110519073098,-28.587674300230013,4.5997817630639535
sz300290,2013-12-13,11.83,12.15,11.78,12.06,0.018581,2078098.0,25002575.33,687186610.0,1640160000.0,0.036470241875056326,24.6,2013-09-30 00:00:00,2013-10-28 00:00:00,32.024513953791505,4.314956321492064,-28.540354392647007,4.592167948605167
sz300290,2013-12-12,11.65,12.04,11.65,11.84,0.011966,2072969.0,24634194.93,674650870.0,1610240000.0,0.03638022872482177,24.15,2013-09-30 00:00:00,2013-10-28 00:00:00,31.440321342918732,4.23624269595846,-28.019719975777093,4.5083974162144855
sz300290,2013-12-11,11.67,11.89,11.65,11.7,-0.007634,1074168.0,12628935.43,666673580.0,1591200000.0,0.01885145291043332,23.87,2013-09-30 00:00:00,2013-10-28 00:00:00,31.06855501362569,4.1861512105727465,-27.688400574502598,4.455087835178737
sz300290,2013-12-10,11.95,12.04,11.57,11.79,-0.007576,1999889.0,23655863.73,671801840.0,1603440000.0,0.03509768789856247,24.05,2013-09-30 00:00:00,2013-10-28 00:00:00,31.307556903023368,4.2183541259704045,-27.901399861041792,4.489359606414102
sz300290,2013-12-09,11.87,11.98,11.82,11.88,0.000842,2778185.0,33031404.44,676930100.0,1615680000.0,0.04875664089985067,24.23,2013-09-30 00:00:00,2013-10-28 00:00:00,31.546553593044276,4.2505563408083695,-28.11439451387894,4.523630632082761
sz300290,2013-12-06,12.21,12.25,11.8,11.87,-0.0326,2146602.0,25677493.73,676360290.0,1614320000.0,0.037672474444057025,24.21,2013-09-30 00:00:00,2013-10-28 00:00:00,31.520013741473953,4.246980383325609,-28.090742109023143,4.519824939483716
sz300290,2013-12-05,12.2,12.56,11.8,12.27,0.004092,3113093.0,37910963.34,699152550.0,1668720000.0,0.05463421553708128,25.03,2013-09-30 00:00:00,2013-10-28 00:00:00,32.58219324113495,4.390097563909044,-29.037360046540357,4.67213659239582
sz300290,2013-12-04,11.8,12.47,11.71,12.22,0.029486000000000002,3493308.0,42374853.81,696303520.0,1661920000.0,0.06130691937332157,24.93,2013-09-30 00:00:00,2013-10-28 00:00:00,32.44941025437405,4.372206494931783,-28.919023402776197,4.653096123060257
sz300290,2013-12-03,12.01,12.18,11.31,11.87,-0.055688,3926785.0,46160599.66,676360290.0,1614320000.0,0.06891436212199861,24.21,2013-09-30 00:00:00,2013-10-28 00:00:00,31.520011204012544,4.246980041430174,-28.09073984762901,4.519824575623425
sz300290,2013-12-02,13.25,13.25,12.57,12.57,-0.100215,3344246.0,42947650.14,716246750.0,1709520000.0,0.05869090815420803,25.64,2013-09-30 00:00:00,2013-10-28 00:00:00,33.37881039742431,4.497433095661364,-29.747307931731264,4.786367827183628
sz300290,2013-11-29,13.37,13.97,13.35,13.97,0.040984,4416989.0,60714697.08,796019650.0,1899920000.0,0.07751735315830457,28.5,2013-09-30 00:00:00,2013-10-28 00:00:00,37.09642903296266,4.998341932418704,-33.06046214565842,5.319457233876567
sz300290,2013-11-28,13.68,13.78,13.4,13.42,-0.019006,3952389.0,53550978.55,764680300.0,1825120000.0,0.06936370713355633,27.38,2013-09-30 00:00:00,2013-10-28 00:00:00,35.63592623225973,4.801555002208203,-31.75885714445027,5.110027852374837
sz300290,2013-11-27,13.29,13.84,13.29,13.68,0.023186000000000002,3000451.0,40950402.64,779495260.0,1860480000.0,0.05265736918015384,27.91,2013-09-30 00:00:00,2013-10-28 00:00:00,36.3263447403957,4.894581416612337,-32.37416043772976,5.209030689662565
sz300290,2013-11-26,12.97,13.45,12.88,13.37,0.02139,2362225.0,31088175.65,761831260.0,1818320000.0,0.041456618949975876,27.27,2013-09-30 00:00:00,2013-10-28 00:00:00,35.503168280640764,4.783667306445102,-31.640542812088682,5.090990972963435
sz300290,2013-11-25,13.3,13.3,12.93,13.09,-0.023863,2224221.0,29210697.92,745876680.0,1780240000.0,0.03903467378816563,26.7,2013-09-30 00:00:00,2013-10-28 00:00:00,34.759659170973634,4.683487508635391,-30.977924996415357,4.9843751876985625
sz300290,2013-11-22,13.39,13.55,13.24,13.41,0.005247,1253431.0,16806207.32,764110490.0,1823760000.0,0.02199748587406515,27.36,2013-09-30 00:00:00,2013-10-28 00:00:00,35.60940643677438,4.797981747065617,-31.735222613644762,5.106225035726094
sz300290,2013-11-21,13.69,13.69,13.23,13.34,-0.023426,1949952.0,26134920.17,760121840.0,1814240000.0,0.034221302837450375,27.21,2013-09-30 00:00:00,2013-10-28 00:00:00,35.42353912697514,4.772938140641671,-31.56957704290066,5.079572518720369
sz300290,2013-11-20,13.66,13.72,13.46,13.66,-0.000732,2111119.0,28619865.68,778355650.0,1857760000.0,0.037049754235098056,27.87,2013-09-30 00:00:00,2013-10-28 00:00:00,36.273276911913634,4.887431101628418,-32.32686621075378,5.201421007235877
sz300290,2013-11-19,13.49,13.95,13.43,13.67,0.011095,2693059.0,36872933.81,778925460.0,1859120000.0,0.047262695110774786,27.89,2013-09-30 00:00:00,2013-10-28 00:00:00,36.29984840094312,4.891011321916061,-32.35054681101944,5.205231236500994
sz300290,2013-11-18,13.29,13.65,13.21,13.52,0.023467,2829432.0,38088861.21,770378360.0,1838720000.0,0.04965601660981235,27.58,2013-09-30 00:00:00,2013-10-28 00:00:00,35.90152102516887,4.837341023262957,-31.99555611591338,5.1481129236135015
sz300290,2013-11-15,12.79,13.68,12.79,13.21,0.029618000000000002,3874172.0,51642055.06,752714360.0,1796560000.0,0.06799101337723915,26.95,2013-09-30 00:00:00,2013-10-28 00:00:00,35.078337674950795,4.7264259846804615,-31.261932349468406,5.030072218853664
sz300290,2013-11-14,12.4,12.84,12.06,12.83,0.033011,3101100.0,38743681.31,731061710.0,1744880000.0,0.05442374078106211,26.17,2013-09-30 00:00:00,2013-10-28 00:00:00,34.06927391998858,4.590465575272054,-30.36265134202045,4.885377119333252
sz300290,2013-11-13,12.5,12.7,12.4,12.42,-0.00321,2488054.0,31276878.14,707699650.0,1689120000.0,0.043664894676717726,25.34,2013-09-30 00:00:00,2013-10-28 00:00:00,32.98055288858355,4.443772210820654,-29.392379502270988,4.729259532892924
sz300290,2013-11-12,12.4,12.59,12.3,12.46,0.004839,1987985.0,24714960.19,709978870.0,1694560000.0,0.03488877507016512,25.42,2013-09-30 00:00:00,2013-10-28 00:00:00,33.08676139265397,4.458082656146885,-29.48703287780875,4.744489343686157
sz300290,2013-11-11,12.39,12.55,12.2,12.4,0.000807,1925333.0,23909396.65,706560040.0,1686400000.0,0.03378924344490243,25.3,2013-09-30 00:00:00,2013-10-28 00:00:00,32.92742558027104,4.436613881573949,-29.345032266670334,4.72164132133223
sz300290,2013-11-08,12.9,13.04,12.33,12.39,-0.046923,3153525.0,40139034.58,705990230.0,1685040000.0,0.05534378960173429,25.27,2013-09-30 00:00:00,2013-10-28 00:00:00,32.90087457448943,4.433036421182056,-29.321369921143972,4.717834029270609
sz300290,2013-11-07,13.96,13.96,12.9,13.0,-0.078014,5174688.0,68590622.78,740748420.0,1768000000.0,0.09081483292262708,26.52,2013-09-30 00:00:00,2013-10-28 00:00:00,34.52068885776221,4.651288847786754,-30.764953850679404,4.950107944343017
sz300290,2013-11-06,14.3,14.63,14.09,14.1,-0.019471000000000002,3395330.0,48673577.91,803427140.0,1917600000.0,0.05958742319807618,28.76,2013-09-30 00:00:00,2013-10-28 00:00:00,37.441662734317234,5.044858433627792,-33.368135579802086,5.3689621581488405
sz300290,2013-11-05,14.15,14.43,13.82,14.38,0.014103999999999998,4574393.0,64954806.91,819381720.0,1955680000.0,0.08027976428373336,29.33,2013-09-30 00:00:00,2013-10-28 00:00:00,38.185166103518846,5.145037457971964,-34.030748279553265,5.475577120257371
sz300290,2013-11-04,14.08,14.43,14.0,14.18,0.007818,2641348.0,37492283.03,807985590.0,1928480000.0,0.04635517650754143,28.93,2013-09-30 00:00:00,2013-10-28 00:00:00,37.65409277896434,5.073481080808246,-33.55745394905579,5.399423649110321
sz300290,2013-11-01,14.36,14.75,13.98,14.07,-0.024947999999999998,4000309.0,57070496.69,801717720.0,1913520000.0,0.07020469452764497,28.7,2013-09-30 00:00:00,2013-10-28 00:00:00,37.3619966888509,5.034124297053878,-33.29713693251736,5.3575384137913
sz300290,2013-10-31,14.22,14.58,13.9,14.43,0.009797,4805072.0,68594303.76,822230750.0,1962480000.0,0.08432813898045043,29.44,2013-09-30 00:00:00,2013-10-28 00:00:00,38.31795297979072,5.1629290510186925,-34.149088389662666,5.494618147330911
sz300290,2013-10-30,13.88,14.35,13.53,14.29,0.022175,5671705.0,79133582.22,814253460.0,1943440000.0,0.09953739029859326,29.15,2013-09-30 00:00:00,2013-10-28 00:00:00,37.94619411603591,5.112838571533379,-33.81777564170092,5.441309636818994
sz300290,2013-10-29,15.36,15.55,13.85,13.98,-0.09161799999999999,6267156.0,89207149.27,796589460.0,1901280000.0,0.10998744683365506,28.52,2013-09-30 00:00:00,2013-10-28 00:00:00,37.12299177345945,5.001920973936341,-33.08413494920236,5.323266208642351
sz300290,2013-10-28,14.98,15.71,14.91,15.39,0.001953,3330538.0,51144064.82,876932170.0,2093040000.0,0.05845033581103542,31.39,2013-09-30 00:00:00,2013-10-28 00:00:00,40.867159161519545,5.506406967483218,-36.42094950054312,5.860162584289815
sz300290,2013-10-25,15.78,16.17,14.65,15.36,-0.01853,4674172.0,71823123.85,875222750.0,2088960000.0,0.08203086805044772,31.33,2013-06-30 00:00:00,2013-08-23 00:00:00,40.534292496083594,5.629642345027411,-43.305986240977,5.905562318889525
sz300290,2013-10-24,15.8,16.1,15.51,15.65,-0.002549,2908647.0,45893368.43,891747140.0,2128400000.0,0.05104622544682341,31.93,2013-06-30 00:00:00,2013-08-23 00:00:00,41.29957359479515,5.7359291114628155,-44.12359648382222,6.0170584112499865
sz300290,2013-10-23,16.65,16.71,15.06,15.69,-0.062164,5656928.0,89123449.05,894026370.0,2133840000.0,0.09927805632847272,32.01,2013-06-30 00:00:00,2013-08-23 00:00:00,41.4051152335254,5.750587358639988,-44.236354952596386,6.032435088290037
sz300290,2013-10-22,16.85,17.49,16.26,16.73,-0.02449,6798332.0,114120760.22,953286240.0,2275280000.0,0.11930948920441777,34.13,2013-06-30 00:00:00,2013-08-23 00:00:00,44.14963302061916,6.13176222563432,-47.16854007800551,6.432292094022875
sz300290,2013-10-21,17.5,17.99,17.11,17.15,0.001168,6460515.0,112764934.99,977218110.0,2332400000.0,0.11338086258962186,34.99,2013-06-30 00:00:00,2013-08-23 00:00:00,45.25800147678565,6.285698993997315,-48.35269764328969,6.593773609725042
sz300290,2013-10-18,16.73,17.29,16.23,17.13,0.020858,6486859.0,109644475.69,976078500.0,2329680000.0,0.11384319465084006,34.94,2013-06-30 00:00:00,2013-08-23 00:00:00,45.205201801081984,6.278365862669716,-48.296287579396946,6.58608106703874
sz300290,2013-10-17,16.47,17.45,16.3,16.78,0.0263,6744507.0,113324494.82,956135270.0,2282080000.0,0.11836487054807633,34.23,2013-06-30 00:00:00,2013-08-23 00:00:00,44.28157667479902,6.150087340912953,-47.30950590522574,6.451515359666809
sz300290,2013-10-16,16.05,16.65,15.46,16.35,0.008015000000000001,5301251.0,85367417.17,931633590.0,2223600000.0,0.09303599052284064,33.35,2013-06-30 00:00:00,2013-08-23 00:00:00,43.1468154290159,5.992484985786761,-46.09715083818156,6.286188599499959
sz300290,2013-10-15,16.2,16.38,15.62,16.22,-0.013382,4698862.0,74938993.76,924226110.0,2205920000.0,0.08246417279858063,33.09,2013-06-30 00:00:00,2013-08-23 00:00:00,42.80374342546083,5.944837116299619,-45.73061991952656,6.2362054131138525
sz300290,2013-10-14,16.66,16.88,16.18,16.44,0.025577000000000003,5555169.0,91563545.78,936761850.0,2235840000.0,0.09749220504656547,33.54,2013-06-30 00:00:00,2013-08-23 00:00:00,43.38431229255986,6.025469955240649,-46.350887495998,6.320790227944201
sz300290,2013-10-11,15.56,16.13,14.88,16.03,0.040909,6314858.0,98009350.17,913399790.0,2180080000.0,0.11082460807222214,32.7,2013-06-30 00:00:00,2013-08-23 00:00:00,42.30234520914555,5.875199965717494,-45.19493660251547,6.163155207209407
sz300290,2013-10-10,15.77,16.3,15.36,15.4,-0.035088,5783610.0,90836690.04,877501980.0,2094400000.0,0.10150130259535141,31.42,2013-06-30 00:00:00,2013-08-23 00:00:00,40.63981117383513,5.64429740324802,-43.418720178724044,5.920935650675905
sz300290,2013-10-09,15.81,16.88,15.58,15.96,0.005671,8161109.0,132622145.65,909411140.0,2170560000.0,0.14322597768045817,32.56,2013-06-30 00:00:00,2013-08-23 00:00:00,42.11763474165015,5.849546283234139,-44.997595820887334,6.136244186698793
sz300290,2013-10-08,14.83,16.48,14.68,15.87,0.055888,7946962.0,122457589.06,904282880.0,2158320000.0,0.13946773706475565,32.37,2013-06-30 00:00:00,2013-08-23 00:00:00,41.88013251018489,5.816560568251584,-44.74385342809661,6.1016417761860415
sz300290,2013-09-30,14.51,15.16,14.22,15.03,0.023145,7913403.0,115756450.12,856419140.0,2044080000.0,0.13887878205290927,30.66,2013-06-30 00:00:00,2013-08-23 00:00:00,39.66342311891498,5.508690853813648,-42.37556770045365,5.778682754407704
sz300290,2013-09-27,13.75,14.96,13.61,14.69,0.080147,10493077.0,150492844.74,837045720.0,1997840000.0,0.18415159106243323,29.97,2013-06-30 00:00:00,2013-08-23 00:00:00,38.76617988546587,5.384076405410424,-41.41697188614874,5.647960703915579
sz300290,2013-09-26,13.3,14.16,13.11,13.6,0.022556,7119032.0,98037520.12,774936810.0,1849600000.0,0.1249377161474624,27.74,2013-06-30 00:00:00,2013-08-23 00:00:00,35.88972601457567,4.9845774745570965,-38.34382902155794,5.228881535490612
sz300290,2013-09-25,13.4,13.48,13.12,13.3,-0.014815,3679011.0,48845381.22,757842620.0,1808800000.0,0.06456597320958275,27.13,2013-06-30 00:00:00,2013-08-23 00:00:00,35.0980543017455,4.874625423504528,-37.49802360120906,5.113540515620281
sz300290,2013-09-24,13.13,13.69,13.1,13.5,0.02118,5227280.0,70230827.3,769238750.0,1836000000.0,0.09173781222019821,27.54,2013-06-30 00:00:00,2013-08-23 00:00:00,35.6258512885859,4.9479289915138045,-38.061910809857096,5.190436837365857
sz300290,2013-09-23,12.78,13.25,12.75,13.22,0.044233999999999996,3534868.0,46165156.4,753284170.0,1797920000.0,0.06203628965148704,26.97,2013-06-30 00:00:00,2013-08-23 00:00:00,34.88694577702844,4.845305422661828,-37.27247969002242,5.082783483191854
sz300290,2013-09-18,12.46,12.7,12.45,12.66,0.013611000000000002,1508069.0,19004197.75,721375000.0,1721760000.0,0.026466336565586553,25.83,2013-06-30 00:00:00,2013-08-23 00:00:00,33.409126476468344,4.640057135337318,-35.69360860690461,4.8674755688781
sz300290,2013-09-17,12.87,13.0,12.42,12.49,-0.035521,2611929.0,33135008.23,711688290.0,1698640000.0,0.04583887871753517,25.48,2013-06-30 00:00:00,2013-08-23 00:00:00,32.96050109605,4.577749388411647,-35.214306678700815,4.802113995288232
sz300290,2013-09-16,12.82,13.2,12.56,12.95,0.000773,2793676.0,36129106.24,737899390.0,1761200000.0,0.04902850536304143,26.42,2013-06-30 00:00:00,2013-08-23 00:00:00,34.17441032521186,4.746344283713431,-36.51122178782619,4.978972061898944
sz300290,2013-09-13,12.79,13.18,12.47,12.94,0.003101,2775910.0,35668408.36,737329590.0,1759840000.0,0.048716714868312826,26.4,2013-06-30 00:00:00,2013-08-23 00:00:00,34.14801391045907,4.74267819346988,-36.4830204130469,4.975126289277333
sz300290,2013-09-12,12.68,13.19,12.6,12.9,0.01735,3244472.0,42086748.45,735050360.0,1754400000.0,0.05693989293468273,26.32,2013-06-30 00:00:00,2013-08-23 00:00:00,34.04244827834792,4.728016613950021,-36.37023631024883,4.959746116569851
sz300290,2013-09-11,13.36,13.36,12.42,12.68,-0.055142,5048751.0,64216096.35,722514620.0,1724480000.0,0.08860466059496484,25.87,2013-06-30 00:00:00,2013-08-23 00:00:00,33.46188458086983,4.6473844929965304,-35.749974256891754,4.875162054917039
sz300290,2013-09-10,13.36,13.79,13.24,13.42,0.010542000000000001,5453075.0,73469076.94,764680300.0,1825120000.0,0.09570047312582787,27.38,2013-06-30 00:00:00,2013-08-23 00:00:00,35.41472325034008,4.918606280516787,-37.83634605082642,5.159676961953055
sz300290,2013-09-09,13.63,13.88,13.15,13.28,0.011424,7232814.0,97353716.56,756703010.0,1806080000.0,0.12693456831894984,27.09,2013-06-30 00:00:00,2013-08-23 00:00:00,35.04527595126188,4.86729525394965,-37.44163632073325,5.105851079869075
sz300290,2013-09-06,13.05,13.38,13.01,13.13,0.009224,4583185.0,60525831.68,748155910.0,1785680000.0,0.08043406226651341,26.78,2013-06-30 00:00:00,2013-08-23 00:00:00,34.6494407402453,4.812319318060131,-37.01873430008903,5.04818066396395
sz300290,2013-09-05,12.77,13.23,12.71,13.01,0.024409,3869815.0,50399501.39,741318230.0,1769360000.0,0.06791454885710824,26.54,2013-06-30 00:00:00,2013-08-23 00:00:00,34.33275540439517,4.768336185088871,-36.68039434267222,5.002041830122897
sz300290,2013-09-04,12.7,13.1,12.63,12.7,0.00316,3781069.0,48474676.1,723654230.0,1727200000.0,0.06635707263122058,25.91,2013-06-30 00:00:00,2013-08-23 00:00:00,33.51469520903777,4.654719145467164,-35.80639602216715,4.882856193300623
sz300290,2013-09-03,12.6,12.94,12.54,12.66,0.01199,2827030.0,35997052.32,721375000.0,1721760000.0,0.04961386213827759,25.83,2013-06-30 00:00:00,2013-08-23 00:00:00,33.409122382309675,4.64005656671634,-35.69360423279153,4.867474972387877
sz300290,2013-09-02,12.57,12.83,12.14,12.51,-0.007143000000000001,3132424.0,39434514.04,712827910.0,1701360000.0,0.05497347072170617,25.52,2013-06-30 00:00:00,2013-08-23 00:00:00,33.013292999248684,4.5850814402477695,-35.270708438612566,4.809805405575032
sz300290,2013-08-30,13.85,13.94,12.59,12.6,-0.099357,6926911.0,91089435.74,717956160.0,1713600000.0,0.12156602793128761,25.7,2013-06-30 00:00:00,2013-08-23 00:00:00,33.25080348856752,4.618068302129883,-35.524459653920516,4.844409019199173
sz300290,2013-08-29,13.2,14.0,13.2,13.99,0.06307,6960232.0,95386908.8,797159270.0,1902640000.0,0.1221508039165122,28.54,2013-06-30 00:00:00,2013-08-23 00:00:00,36.91896066317899,5.127523671565629,-39.44344168990435,5.378833810065888
sz300290,2013-08-28,13.7,13.85,13.11,13.16,-0.051873,5680370.0,76735216.92,749865330.0,1789760000.0,0.09968945917262237,26.85,2013-06-30 00:00:00,2013-08-23 00:00:00,34.72862620822617,4.823317064319028,-37.10333438993137,5.059717431651621
sz300290,2013-08-27,13.83,14.06,13.43,13.88,0.002166,5220019.0,71992709.14,790891390.0,1887680000.0,0.09161038372158788,28.31,2013-06-30 00:00:00,2013-08-23 00:00:00,36.62866494491368,5.0872056848070235,-39.13329584531543,5.336539758546715
sz300290,2013-08-26,13.09,13.85,13.09,13.85,0.056445,6282682.0,85416334.59,789181970.0,1883600000.0,0.11025992611057751,28.25,2013-06-30 00:00:00,2013-08-23 00:00:00,36.54949873066307,5.0762106126200885,-39.048716325753844,5.325005795992595
sz300290,2013-08-23,13.54,13.54,12.7,13.11,-0.033186,5643440.0,74175761.81,747016300.0,1782960000.0,0.09904134407776644,26.74,2013-06-30 00:00:00,2013-08-23 00:00:00,34.59668864035805,4.804992794343376,-36.9623750651987,5.040495052740649
sz300290,2013-08-22,13.13,13.86,13.05,13.56,0.026494999999999998,7589092.0,102101403.95,772657590.0,1844160000.0,0.13318718259145038,27.66,2013-03-31 00:00:00,2013-04-25 00:00:00,36.68896730924406,5.3243443360010625,-541.0881281278262,5.336350408956639
sz300290,2013-08-21,13.03,13.32,12.82,13.21,0.007628,4210233.0,55236155.33,752714360.0,1796560000.0,0.07388882275342801,26.95,2013-03-31 00:00:00,2013-04-25 00:00:00,35.74198345753663,5.186916970858174,-527.1220299444481,5.198613153455826
sz300290,2013-08-20,12.88,13.13,12.7,13.11,0.024219,5078167.0,65788215.35,747016300.0,1782960000.0,0.08912090588920214,26.74,2013-03-31 00:00:00,2013-04-25 00:00:00,35.471407560663884,5.147650691384295,-523.1315822351581,5.159258330907662
sz300290,2013-08-19,12.13,12.81,12.13,12.8,0.055235,3389009.0,42625902.91,729352290.0,1740800000.0,0.05947649139485118,26.11,2013-03-31 00:00:00,2013-04-25 00:00:00,34.63263966072088,5.025927747273088,-510.7614506615853,5.037260908953712
sz300290,2013-08-16,12.4,13.09,12.0,12.13,-0.028823,4612699.0,58068605.34,691175260.0,1649680000.0,0.08095202781129637,24.74,2013-03-31 00:00:00,2013-04-25 00:00:00,32.8198360182527,4.762851637097982,-484.02626018051467,4.773591578135404
sz300290,2013-08-15,12.52,12.84,12.32,12.49,-0.007943,3670369.0,46487486.94,625056730.0,1698640000.0,0.07334199698961724,25.48,2013-03-31 00:00:00,2013-04-25 00:00:00,33.79387693309531,4.904205553774423,-498.39139536924233,4.915264239304889
sz300290,2013-08-14,12.8,12.8,12.2,12.59,-0.012549,3531932.0,44167517.77,630061190.0,1712240000.0,0.07057572278019537,25.68,2013-03-31 00:00:00,2013-04-25 00:00:00,34.06445086632654,4.94347154828243,-502.3818141187879,4.9546187762446
sz300290,2013-08-13,12.39,12.89,12.32,12.75,0.022454,2907628.0,36936314.44,638068320.0,1734000000.0,0.058100764194028626,26.01,2013-03-31 00:00:00,2013-04-25 00:00:00,34.49735821456107,5.00629555115386,-508.76632270238,5.017584443425142
sz300290,2013-08-12,12.7,12.75,12.1,12.47,-0.019653999999999998,3250032.0,40325452.0,624055840.0,1695920000.0,0.06494274461080278,25.44,2013-03-31 00:00:00,2013-04-25 00:00:00,33.739765519584324,4.8963528443860165,-497.59336136626206,4.907393822533965
sz300290,2013-08-09,13.03,13.1,12.4,12.72,-0.023791,3588535.0,45621975.14,636566980.0,1729920000.0,0.07170677498854873,25.95,2013-03-31 00:00:00,2013-04-25 00:00:00,34.41618114378426,4.994515043041963,-507.56912494798974,5.005777370983269
sz300290,2013-08-08,12.53,13.38,12.51,13.03,0.031671,4832142.0,62987242.55,652080800.0,1772080000.0,0.09655676146268989,26.58,2013-03-31 00:00:00,2013-04-25 00:00:00,35.254931212255016,5.116235399429796,-519.9389935433803,5.127772199378687
sz300290,2013-08-07,13.21,13.21,12.6,12.63,-0.052513,4915169.0,62914457.29,632062970.0,1717680000.0,0.09821582249945762,25.76,2013-03-31 00:00:00,2013-04-25 00:00:00,34.172649238231,4.959173418104994,-503.9775214611832,4.970356052829524
sz300290,2013-08-06,13.19,13.46,12.88,13.33,-0.012593,6407264.0,84378170.48,667094170.0,1812880000.0,0.12803114306935107,27.19,2013-03-31 00:00:00,2013-04-25 00:00:00,36.06661541343681,5.234027926615345,-531.909695289944,5.245830341555634
sz300290,2013-08-05,12.88,13.92,12.85,13.5,0.067194,8720303.0,118893674.71,675601750.0,1836000000.0,0.17425071871113418,27.54,2013-03-31 00:00:00,2013-04-25 00:00:00,36.52659482203064,5.300780657434417,-538.6934620576359,5.31273359572662
sz300290,2013-08-02,12.54,13.25,12.49,12.65,0.013622,5364270.0,69093064.74,633063860.0,1720400000.0,0.10718984258554895,25.81,2013-03-31 00:00:00,2013-04-25 00:00:00,34.226761790293644,4.967026292721301,-504.7755722554997,4.978226635200929
sz300290,2013-08-01,11.8,12.63,11.61,12.48,0.061224,3518211.0,43249955.76,624556280.0,1697280000.0,0.07030154797258623,25.46,2013-03-31 00:00:00,2013-04-25 00:00:00,33.76679056916054,4.900274750075769,-497.9919262363087,4.911324571882742
sz300290,2013-07-31,11.79,12.05,11.57,11.76,0.005128,1968069.0,23394286.89,588524190.0,1599360000.0,0.03932632138706142,23.99,2013-03-31 00:00:00,2013-04-25 00:00:00,31.818721183426444,4.617568722603116,-469.2618393819861,4.6279810594961495
sz300290,2013-07-30,12.18,12.35,11.0,11.7,-0.029046,3307248.0,38624721.84,585521520.0,1591200000.0,0.06608604513801644,23.87,2013-03-31 00:00:00,2013-04-25 00:00:00,31.656387229712475,4.594010636061394,-466.86774160304566,4.6043698509007305
sz300290,2013-07-29,12.38,12.76,11.95,12.05,-0.040605,2724813.0,33644360.22,603037120.0,1638800000.0,0.05444772064777704,24.58,2013-03-31 00:00:00,2013-04-25 00:00:00,32.60338515492236,4.7314400435668365,-480.8340473421457,4.742109153369502
sz300290,2013-07-26,12.5,12.77,11.93,12.56,0.0048,4264560.0,52784902.92,628559850.0,1708160000.0,0.08521523224876676,25.62,2013-03-31 00:00:00,2013-04-25 00:00:00,33.98327608015714,4.931691371715338,-501.18465005774027,4.9428120360951455
sz300290,2013-07-25,13.68,13.7,12.5,12.5,-0.092888,7378931.0,96449340.78,625557180.0,1700000000.0,0.14744717261497983,25.5,2013-03-31 00:00:00,2013-04-25 00:00:00,33.82093558932837,4.908132336500138,-498.7904558695664,4.919199876687049
sz300290,2013-07-24,12.83,14.08,12.8,13.78,0.062452,9424785.0,127170483.47,689614230.0,1874080000.0,0.1883278094478996,28.11,2013-03-31 00:00:00,2013-04-25 00:00:00,37.284189371685486,5.410723633355239,-549.866450746508,5.4229244863777
sz300290,2013-07-23,13.15,13.15,12.52,12.97,0.005425999999999999,6474268.0,83188955.1,649078120.0,1763920000.0,0.12937003015908163,26.46,2013-03-31 00:00:00,2013-04-25 00:00:00,35.09258712081627,5.092675841690014,-517.5447462534854,5.104159516267747
sz300290,2013-07-22,11.93,12.95,11.81,12.9,0.068766,5727426.0,71590538.03,645575000.0,1754400000.0,0.11444649405568678,26.32,2013-03-31 00:00:00,2013-04-25 00:00:00,34.90320234489289,5.065192109304927,-514.7517035102388,5.07661380973612
sz300290,2013-07-19,12.98,13.29,12.05,12.07,-0.066512,8036241.0,102680308.78,604038010.0,1641520000.0,0.16058166417374958,24.62,2013-03-31 00:00:00,2013-04-25 00:00:00,32.657478199056555,4.739290087170556,-481.6318104339386,4.749976898344557
sz300290,2013-07-18,12.47,13.31,12.13,12.93,0.037721,9240406.0,118341113.86,647076340.0,1758480000.0,0.18464351451947694,26.38,2013-03-31 00:00:00,2013-04-25 00:00:00,34.98435780540999,5.07696948131155,-515.9485825569676,5.088417739000992
sz300290,2013-07-17,12.19,12.69,12.02,12.46,0.01964,9087841.0,112246937.01,623555390.0,1694560000.0,0.18159493234434237,25.42,2013-03-31 00:00:00,2013-04-25 00:00:00,33.7126817375865,4.892422415380965,-497.19393031168084,4.903454530650331
sz300290,2013-07-16,11.77,12.3,11.5,12.22,0.02862,6781680.0,80734923.95,611544690.0,1661920000.0,0.13551279400365654,24.93,2013-03-31 00:00:00,2013-04-25 00:00:00,33.0633181687522,4.798186041525406,-487.61712988082144,4.809005659497794
sz300290,2013-07-15,10.95,11.88,10.75,11.88,0.1,6032564.0,68755985.42,594529540.0,1615680000.0,0.12054381741906384,24.23,2013-03-31 00:00:00,2013-04-25 00:00:00,32.143374782477686,4.6646828192387915,-474.0498239202246,4.675201395556954
sz300290,2013-07-12,10.6,11.2,10.54,10.8,0.009346,4240901.0,46523665.48,540481400.0,1468800000.0,0.0847424736540425,22.03,2013-03-31 00:00:00,2013-04-25 00:00:00,29.22124980225244,4.240620744762537,-430.9543853820223,4.250183086869957
sz300290,2013-07-11,10.88,10.95,10.31,10.7,-0.013825,4418452.0,46904798.53,535476939.99999994,1455200000.0,0.08829033123256438,21.83,2013-03-31 00:00:00,2013-04-25 00:00:00,28.95067677709372,4.201354882035037,-426.9639800247113,4.210828682007911
sz300290,2013-07-10,10.65,10.93,10.6,10.85,0.009302,2844875.0,30625547.41,542983630.0,1475600000.0,0.05684682197509343,22.13,2013-03-31 00:00:00,2013-04-25 00:00:00,29.356530815619656,4.260252878074415,-432.9495069584113,4.2698594894495505
sz300290,2013-07-09,10.55,10.93,10.38,10.75,0.014150999999999999,2585428.0,27644207.1,537979170.0,1462000000.0,0.05166250395902875,21.93,2013-03-31 00:00:00,2013-04-25 00:00:00,29.0859730939002,4.22098923619929,-428.9593272959048,4.2305073104477655
sz300290,2013-07-08,11.02,11.2,10.5,10.6,-0.076655,3582608.0,38810492.02,530472480.0,1441600000.0,0.07158834102006573,21.62,2013-03-31 00:00:00,2013-04-25 00:00:00,28.680120705792532,4.162091479670473,-422.9738247025392,4.17147674305677
sz300290,2013-07-05,11.41,12.08,11.26,11.48,-0.003472,5410614.0,63314701.34,574511710.0,1561280000.0,0.10811589674995485,23.42,2013-03-31 00:00:00,2013-04-25 00:00:00,31.061110100550213,4.50762334736255,-458.0886068615082,4.517787764115006
sz300290,2013-07-04,11.83,12.13,11.41,11.52,-0.04,4736380.0,55830260.56,576513490.0,1566720000.0,0.09464322786271662,23.5,2013-03-31 00:00:00,2013-04-25 00:00:00,31.169330014360074,4.523328343370734,-459.6846319034771,4.533528173934909
sz300290,2013-07-03,11.82,12.09,11.3,12.0,0.005868,4701526.0,55416896.42,600534890.0,1632000000.0,0.09394676802208778,24.48,2013-03-31 00:00:00,2013-04-25 00:00:00,32.46805209829174,4.7118003576778476,-478.8381582327886,4.722425181182196
sz300290,2013-07-02,11.98,12.23,11.8,11.93,-0.001674,5129267.0,61667429.54,597031770.0,1622480000.0,0.10249396830255784,24.34,2013-03-31 00:00:00,2013-04-25 00:00:00,32.27864103271179,4.684312810108133,-476.04472777023284,4.694875650862932
sz300290,2013-07-01,11.08,11.99,11.07,11.95,0.062222,4318624.0,50236650.71,598032660.0,1625200000.0,0.08629554914275082,24.38,2013-03-31 00:00:00,2013-04-25 00:00:00,32.33276608313495,4.6921674985006225,-476.84296289011087,4.702748051100474
sz300290,2013-06-28,11.71,12.25,11.07,11.25,-0.071782,5128876.0,59837632.08,563001460.0,1530000000.0,0.10248615518687998,22.95,2013-03-31 00:00:00,2013-04-25 00:00:00,30.438802889730162,4.417313422712599,-448.9108330368895,4.427274196072454
sz300290,2013-06-27,12.38,12.93,11.82,12.12,-0.038095,8168306.0,101743158.05,606540240.0,1648320000.0,0.16322061124913986,24.72,2013-03-31 00:00:00,2013-04-25 00:00:00,32.792730683665006,4.75891808035677,-483.6265112687856,4.769649151462754
sz300290,2013-06-26,11.3,12.72,11.26,12.6,0.089965,9718145.0,118654644.24,630561630.0,1713600000.0,0.19418978443074628,25.7,2013-03-31 00:00:00,2013-04-25 00:00:00,34.09144425246257,4.947388858938013,-502.7799120170761,4.958544920197685
sz300290,2013-06-25,11.01,11.59,10.08,11.56,0.032143,5662068.0,61417601.93,578515280.0,1572160000.0,0.11314049661747914,23.58,2013-03-31 00:00:00,2013-04-25 00:00:00,31.277558685336285,4.53903461022878,-461.28078609595354,4.549269857470363
sz300290,2013-06-24,10.97,11.54,10.4,11.2,0.018182,4795912.0,53264100.61,560499230.0,1523200000.0,0.09583280676406995,22.85,2013-03-31 00:00:00,2013-04-25 00:00:00,30.303512871119878,4.397679982549685,-446.9155786513628,4.407596483694956
sz300290,2013-06-21,10.33,11.12,10.1,11.0,0.020408000000000003,3354860.0,35712434.56,550490310.0,1496000000.0,0.06703743795235924,22.44,2013-03-31 00:00:00,2013-04-25 00:00:00,29.76237339799749,4.319149211584653,-438.93486493707684,4.3288886306131475
sz300290,2013-06-20,11.81,12.09,10.76,10.78,-0.09790800000000001,5420624.0,62175399.74,539480510.0,1466080000.0,0.1083159180671791,21.99,2013-03-31 00:00:00,2013-04-25 00:00:00,29.167130596778435,4.232766904595665,-430.15623646333313,4.24231153677073
sz300290,2013-06-19,11.5,12.08,11.4,11.95,0.021368,5259478.0,62211980.11,598032660.0,1625200000.0,0.10509586901156868,24.38,2013-03-31 00:00:00,2013-04-25 00:00:00,32.3327671643008,4.69216765540063,-476.8429788351223,4.702748208354281
sz300290,2013-06-18,11.18,11.8,10.9,11.7,0.046512,5916816.0,66943147.12,585521520.0,1591200000.0,0.11823091865180292,23.87,2013-03-31 00:00:00,2013-04-25 00:00:00,31.656334606430587,4.5940029993113445,-466.86696551597686,4.604362196930275
sz300290,2013-06-17,11.06,11.44,10.9,11.18,0.011765000000000001,5016635.0,56013807.72,559498340.0,1520480000.0,0.10024333459148423,22.81,2013-03-31 00:00:00,2013-04-25 00:00:00,30.249375646366772,4.3898235274046975,-446.1171639847196,4.399722312720996
sz300290,2013-06-14,10.54,11.14,10.38,11.05,0.042453,4068484.0,43952518.25,552992540.0,1502800000.0,0.0812972055644729,22.54,2013-03-31 00:00:00,2013-04-25 00:00:00,29.89763002907471,4.338777806511094,-440.9296269239592,4.3485614868284586
sz300290,2013-06-13,10.01,10.66,9.9,10.6,0.0314,3601923.0,37090701.74,530472480.0,1441600000.0,0.07197429695127634,21.62,2013-03-31 00:00:00,2013-04-25 00:00:00,28.680074813036857,4.162084819661985,-422.9731478771314,4.1714700680303665
sz300290,2013-06-07,22.06,22.08,20.26,20.7,-0.058663,1924718.0,40392779.6,517961340.0,1407600000.0,0.07692014736080496,20.97,2013-03-31 00:00:00,2013-04-25 00:00:00,27.806936991503637,4.035374073746348,-410.09612941354595,4.044473597081991
sz300290,2013-06-06,21.81,22.28,21.52,21.99,0.000455,1344360.0,29536354.23,550240090.0,1495320000.0,0.0537265040066419,22.27,2013-03-31 00:00:00,2013-04-25 00:00:00,29.53983216584883,4.286853776858179,-435.65283146582567,4.296520371643727
sz300290,2013-06-05,22.73,22.88,21.58,21.98,-0.023111000000000003,1955704.0,43330683.84,549989870.0,1494640000.0,0.07815848302806014,22.26,2013-03-31 00:00:00,2013-04-25 00:00:00,29.52639765491584,4.28490414547199,-435.4546995775179,4.294566343957226
sz300290,2013-06-04,25.15,25.2,22.3,22.5,-0.09201000000000001,3200603.0,74102927.39,563001460.0,1530000000.0,0.12791009014434881,22.79,2013-03-31 00:00:00,2013-04-25 00:00:00,30.224925917802164,4.386275355206159,-445.7565798954824,4.396166139609747
sz300290,2013-06-03,25.0,25.37,24.21,24.78,-0.018225,2042613.0,50617336.52,620052270.0,1685040000.0,0.08163174717512123,25.1,2013-03-31 00:00:00,2013-04-25 00:00:00,33.287729950552496,4.830752932528066,-490.92675017949796,4.84164598686081
sz300290,2013-05-31,23.75,25.67,23.71,25.24,0.06095,3786216.0,93980174.21,631562520.0,1716320000.0,0.151313747750579,25.56,2013-03-31 00:00:00,2013-04-25 00:00:00,33.90566061526572,4.92042772786847,-500.03997879300044,4.931522993415814
sz300290,2013-05-30,23.65,24.21,23.38,23.79,-0.008337,1344826.0,31972440.8,595280210.0,1617720000.0,0.0537451270889721,24.09,2013-03-31 00:00:00,2013-04-25 00:00:00,31.957830826396833,4.637756470963259,-471.3134255082713,4.6482143300021805
sz300290,2013-05-29,22.9,24.0,22.9,23.99,0.042137,1676321.0,39117334.97,600284670.0,1631320000.0,0.06699311643257522,24.3,2013-03-31 00:00:00,2013-04-25 00:00:00,32.226503183437146,4.676746506588689,-475.27579985163436,4.687292285788802
sz300290,2013-05-28,24.6,24.7,22.55,23.02,-0.072896,3282124.0,76818568.78,576013050.0,1565360000.0,0.13116802558553142,23.31,2013-03-31 00:00:00,2013-04-25 00:00:00,30.923480486190535,4.4876503824244685,-456.0588481664449,4.497769761354602
sz300290,2013-05-27,24.25,25.5,24.22,24.83,0.035878,3311104.0,82836836.69,621303390.0,1688440000.0,0.13232619303751103,25.15,2013-03-31 00:00:00,2013-04-25 00:00:00,33.35492079226336,4.840503743295756,-491.91767931801047,4.851418785114293
sz300290,2013-05-24,22.8,23.98,22.6,23.97,0.0449,2629962.0,61446276.97,599784220.0,1629960000.0,0.10510478108277006,24.28,2013-03-31 00:00:00,2013-04-25 00:00:00,32.19966134261308,4.6728511883597825,-474.8799369404606,4.68338818385398
sz300290,2013-05-23,22.79,23.99,22.77,22.94,-0.005635,3151256.0,73490677.14,574011260.0,1559920000.0,0.12593796964888807,23.23,2013-03-31 00:00:00,2013-04-25 00:00:00,30.8160219567548,4.47205587937581,-454.47405200541743,4.482140093649134
sz300290,2013-05-22,23.73,24.39,22.56,23.07,-0.037948,4493599.0,105703646.55,577264160.0,1568760000.0,0.1795838649155007,23.37,2013-03-31 00:00:00,2013-04-25 00:00:00,30.990654293699794,4.497398721169599,-457.04952608490584,4.507540082011268
sz300290,2013-05-21,23.6,24.49,23.29,23.98,0.063415,6054243.0,143944102.66,600034440.0,1630640000.0,0.2419540237390374,24.29,2013-03-31 00:00:00,2013-04-25 00:00:00,32.213076105761225,4.674797953925151,-475.0777775888474,4.685339339257408
sz300290,2013-05-20,20.9,22.55,20.9,22.55,0.1,2558381.0,56414489.92,564252570.0,1533400000.0,0.10224409177259042,22.84,2013-03-31 00:00:00,2013-04-25 00:00:00,30.292102430153065,4.396024086480961,-446.7472977048917,4.405936853681213
sz300290,2013-05-17,19.51,20.95,19.42,20.5,0.040609,2623820.0,53429809.91,512956880.0,1394000000.0,0.10485932072886907,20.76,2013-03-31 00:00:00,2013-04-25 00:00:00,27.538274936502784,3.99638553316451,-406.13390700444694,4.005397139710194
sz300290,2013-05-16,20.01,20.48,19.4,19.7,-0.021361,2821384.0,56472395.61,492939050.0,1339600000.0,0.11275484220615103,19.95,2013-03-31 00:00:00,2013-04-25 00:00:00,26.463614034188428,3.8404295303658817,-390.2848303295925,3.8490894656015793
sz300290,2013-05-15,19.35,20.28,19.23,20.13,0.037629,1945261.0,38619209.05,503698640.0,1368840000.0,0.07774113491749748,20.39,2013-03-31 00:00:00,2013-04-25 00:00:00,27.04124200464975,3.924255553238612,-398.8036756450464,3.933104511062383
sz300290,2013-05-14,20.0,20.16,19.3,19.4,-0.036264,1617509.0,31918598.24,485432370.0,1319200000.0,0.06464273200404826,19.65,2013-03-31 00:00:00,2013-04-25 00:00:00,26.060607408476194,3.781944754087069,-384.3412969809502,3.790472809705957
sz300290,2013-05-13,19.35,20.26,18.97,20.13,0.040310000000000006,2357052.0,46267387.8,503698640.0,1368840000.0,0.09419810377093732,20.39,2013-03-31 00:00:00,2013-04-25 00:00:00,27.041230594764748,3.9242538974232253,-398.80350737229924,3.933102851513233
sz300290,2013-05-10,20.0,20.0,19.0,19.35,-0.028613999999999997,2252601.0,43662631.74,484181250.0,1315800000.0,0.09002378623707549,19.6,2013-03-31 00:00:00,2013-04-25 00:00:00,25.993435221005996,3.772196650443834,-383.3506429547916,3.7807027246813285
sz300290,2013-05-09,20.08,20.38,19.52,19.92,-0.001504,2138290.0,42554491.35,498443960.0,1354560000.0,0.08545541769630433,20.18,2013-03-31 00:00:00,2013-04-25 00:00:00,26.759120700736876,3.883313791267152,-394.64295651243845,3.8920704279054137
sz300290,2013-05-08,18.6,19.98,18.6,19.95,0.07373500000000001,2593318.0,50614917.42,499194630.0,1356600000.0,0.10364032581840874,20.21,2013-03-31 00:00:00,2013-04-25 00:00:00,26.799427039003536,3.8891630925583596,-395.2373935523412,3.897932919015613
sz300290,2013-05-07,18.8,18.98,18.44,18.58,-0.02159,1064044.0,19796491.94,464914090.0,1263440000.0,0.04252385106246188,18.82,2013-03-31 00:00:00,2013-04-25 00:00:00,24.959070011691463,3.6220884040832786,-368.0958463236656,3.630255993346228
sz300290,2013-05-06,18.52,19.01,18.45,18.99,0.024272,1548518.0,29148444.55,475173230.0,1291320000.0,0.06188555028657653,19.23,2013-03-31 00:00:00,2013-04-25 00:00:00,25.509827180518865,3.702014905901696,-376.21840161452315,3.7103627245696877
sz300290,2013-05-03,18.05,18.65,18.05,18.54,0.03,837618.0,15456830.69,463913200.0,1260720000.0,0.03347487788663914,18.78,2013-03-31 00:00:00,2013-04-25 00:00:00,24.905325128988068,3.6142888860592657,-367.3032179094256,3.622438887882992
sz300290,2013-05-02,17.54,18.07,17.53,18.0,0.026226,339352.0,6062318.78,450401170.0,1224000000.0,0.013561989636927452,18.23,2013-03-31 00:00:00,2013-04-25 00:00:00,24.179927309697145,3.509018335979869,-356.6050659314811,3.5169309591097
sz300290,2013-04-26,17.81,18.06,17.45,17.54,-0.024472,530030.0,9405568.84,438890910.0,1192720000.0,0.021182316580673773,17.76,2013-03-31 00:00:00,2013-04-25 00:00:00,23.56199054564701,3.4193426554968096,-347.4917473650844,3.4270530654160973
sz300290,2013-04-25,18.48,18.55,17.88,17.98,-0.018559,1503396.0,27405215.36,449900720.0,1222640000.0,0.06008227788566331,18.21,2013-03-31 00:00:00,2013-04-25 00:00:00,24.15306433607955,3.5051199509361184,-356.208891354307,3.513023783444553
sz300290,2013-04-24,17.46,18.32,17.42,18.32,0.058960000000000005,1271860.0,22913802.1,458408300.0,1245760000.0,0.05082908664611876,18.55,2012-12-31 00:00:00,2013-03-27 00:00:00,24.98403607680535,3.7216474698320896,40.57784334163728,3.6262544413174793
sz300290,2013-04-23,18.0,18.14,17.3,17.3,-0.041551,888465.0,15622483.96,432885570.0,1176400000.0,0.035506945865624494,17.52,2012-12-31 00:00:00,2013-03-27 00:00:00,23.592993197859553,3.514436305273183,38.318579872362776,3.42435449999762
sz300290,2013-04-22,17.62,18.14,17.52,18.05,0.017475,855804.0,15343875.69,451652280.0,1227400000.0,0.0342016699218257,18.28,2012-12-31 00:00:00,2013-03-27 00:00:00,24.615804490233234,3.6667953175110863,39.97977969862014,3.5728082558358554
sz300290,2013-04-19,17.36,17.8,17.29,17.74,0.026026999999999998,869716.0,15311225.14,443895370.0,1206320000.0,0.034757654354448435,17.97,2012-12-31 00:00:00,2013-03-27 00:00:00,24.193031268810767,3.6038185876911832,39.293132213194575,3.5114457415030893
sz300290,2013-04-18,16.92,17.3,16.86,17.29,0.019458,513496.0,8807430.4,432635340.0,1175720000.0,0.020521545558437274,17.51,2012-12-31 00:00:00,2013-03-27 00:00:00,23.57933199497749,3.512401318572692,38.296392018138484,3.4223716739453147
sz300290,2013-04-17,16.69,17.0,16.61,16.96,0.017397,398076.0,6691888.78,424377990.0,1153280000.0,0.015908857478683095,17.18,2012-12-31 00:00:00,2013-03-27 00:00:00,23.129282417694,3.445361474992292,37.565443616253425,3.3570501913225606
sz300290,2013-04-16,16.49,16.7,16.37,16.67,0.009691,343533.0,5670014.29,417121520.0,1133560000.0,0.01372908094024974,16.88,2012-12-31 00:00:00,2013-03-27 00:00:00,22.733782798351083,3.3864474487267917,36.92309257473083,3.2996462455880646
sz300290,2013-04-15,16.64,16.8,16.48,16.51,-0.01315,199083.0,3307510.62,413117960.0,1122680000.0,0.00795622715119914,16.72,2012-12-31 00:00:00,2013-03-27 00:00:00,22.51558427117909,3.353944373800293,36.56870525213242,3.2679762873869973
sz300290,2013-04-12,16.71,16.87,16.7,16.73,-0.0041670000000000006,206111.0,3458779.01,418622860.0,1137640000.0,0.008237096822662765,16.94,2012-12-31 00:00:00,2013-03-27 00:00:00,22.815609536585185,3.3986364430260867,37.05599154089519,3.3115228123696587
sz300290,2013-04-11,16.86,17.0,16.73,16.8,0.0029850000000000002,252206.0,4257828.52,420374420.0,1142400000.0,0.010079254584520154,17.02,2012-12-31 00:00:00,2013-03-27 00:00:00,22.91108000697425,3.4128578215685628,37.21104998618763,3.3253796694522664
sz300290,2013-04-10,17.14,17.14,16.63,16.75,-0.017019,465781.0,7868375.3,419123310.0,1139000000.0,0.01861464529376808,16.96,2012-12-31 00:00:00,2013-03-27 00:00:00,22.84289396847834,3.402700759800558,37.100305574049095,3.3154829528380447
sz300290,2013-04-09,17.17,17.35,16.94,17.04,0.002353,551083.0,9472673.77,426379770.0,1158720000.0,0.022023686348909097,17.26,2012-12-31 00:00:00,2013-03-27 00:00:00,23.238388095475234,3.4616139679205986,37.74264769517325,3.3728861013977327
sz300290,2013-04-08,16.8,17.12,16.22,17.0,0.011303,419850.0,7017042.0,425378880.0,1156000000.0,0.01677904178035355,17.22,2012-12-31 00:00:00,2013-03-27 00:00:00,23.183836528124555,3.45348791086633,37.654047720886005,3.3649683309150893
sz300290,2013-04-03,17.04,17.15,16.6,16.81,-0.012338,504530.0,8481901.65,420624640.0,1143080000.0,0.02016322510255224,17.03,2012-12-31 00:00:00,2013-03-27 00:00:00,22.92471843564644,3.4148894157995477,37.233200851659696,3.327359189990625
sz300290,2013-04-02,17.43,17.72,17.01,17.02,-0.027429000000000002,615460.0,10660697.02,425879320.0,1157360000.0,0.024596473010241492,17.24,2012-12-31 00:00:00,2013-03-27 00:00:00,23.211096949813236,3.45754865105628,37.69832275784599,3.368924986473738
sz300290,2013-04-01,17.55,17.61,17.3,17.5,0.011561,362023.0,6315204.92,437890020.0,1190000000.0,0.014468022130305687,17.72,2012-12-31 00:00:00,2013-03-27 00:00:00,23.86570949556715,3.555060402845941,38.76151227812262,3.4639373233149438
sz300290,2013-03-29,17.41,17.52,17.16,17.3,0.004063000000000001,514421.0,8930393.82,432885570.0,1176400000.0,0.020558512264569135,17.52,2012-12-31 00:00:00,2013-03-27 00:00:00,23.59295138460968,3.514430076728879,38.318511961337606,3.424348431102963
sz300290,2013-03-28,17.85,17.9,17.21,17.23,-0.046486,1199365.0,20908169.34,431134010.0,1171640000.0,0.04793186914203312,17.45,2012-12-31 00:00:00,2013-03-27 00:00:00,23.4974811188239,3.500208728664316,38.16345384835175,3.4104916037170603
sz300290,2013-03-27,18.9,18.9,17.98,18.07,-0.038318,2442365.0,44668800.12,452152730.0,1228760000.0,0.09760758394624755,18.3,2012-12-31 00:00:00,2013-03-27 00:00:00,24.64303735322596,3.6708519525296075,40.02400997610077,3.5767609114465655
sz300290,2013-03-26,18.88,18.99,18.52,18.79,0.002133,943482.0,17705490.69,470168770.0,1277720000.0,0.0377056663716733,19.03,2012-09-30 00:00:00,2012-10-24 00:00:00,18.974196427272446,3.0293485638653412,-20.050981077328608,4.0415188045439
sz300290,2013-03-25,19.22,19.28,18.73,18.75,-0.024454,734619.0,13962198.55,469167880.0,1275000000.0,0.02935858748471869,18.99,2012-09-30 00:00:00,2012-10-24 00:00:00,18.933810609242936,3.0229007166367556,-20.008303366248402,4.032916593450072
sz300290,2013-03-22,19.1,19.53,18.9,19.22,0.008924,845448.0,16303667.61,480928360.0,1306960000.0,0.033787798581892736,19.47,2012-09-30 00:00:00,2012-10-24 00:00:00,19.408424214996458,3.098675733011827,-20.509851269185052,4.134009665817985
sz300290,2013-03-21,18.86,19.24,18.73,19.05,0.010074,920076.0,17543727.12,476674570.0,1295400000.0,0.03677025984415321,19.29,2012-09-30 00:00:00,2012-10-24 00:00:00,19.236755409720114,3.0712677397027197,-20.328440268231358,4.097444074893634
sz300290,2013-03-20,18.01,18.94,18.01,18.86,0.032859,922215.0,17163923.42,471920330.0,1282480000.0,0.036855744061714824,19.1,2012-09-30 00:00:00,2012-10-24 00:00:00,19.044897116171803,3.040636368922198,-20.125694026607317,4.05657810704328
sz300290,2013-03-19,18.35,18.5,17.8,18.26,-0.009761,756048.0,13732298.85,456906960.0,1241680000.0,0.03021498398711195,18.49,2012-09-30 00:00:00,2012-10-24 00:00:00,18.439009696552773,2.9439026710540332,-19.48542252776741,3.9275236087823027
sz300290,2013-03-18,18.3,18.7,18.13,18.44,0.010411,714320.0,13151156.35,461410970.0,1253920000.0,0.02854735074894297,18.68,2012-09-30 00:00:00,2012-10-24 00:00:00,18.620767003271713,2.9729213564139907,-19.677494552090362,3.966238058471039
sz300290,2013-03-15,18.06,18.7,17.99,18.25,0.01052,1023763.0,18841349.35,456656740.0,1241000000.0,0.04091404574473159,18.48,2012-09-30 00:00:00,2012-10-24 00:00:00,18.428903686986494,2.942289183722258,-19.474743002689365,3.9253710207737633
sz300290,2013-03-14,18.19,18.34,18.0,18.06,-0.005507,563141.0,10219480.3,451902500.0,1228080000.0,0.022505576888820045,18.29,2012-09-30 00:00:00,2012-10-24 00:00:00,18.237049921809064,2.911658535924334,-19.272001546421013,3.8845060174699784
sz300290,2013-03-13,18.07,18.34,17.83,18.16,0.001655,791835.0,14357277.87,454404730.0,1234880000.0,0.03164518908066824,18.39,2012-09-30 00:00:00,2012-10-24 00:00:00,18.338037494290116,2.9277818304647028,-19.37872015833295,3.9060164500604615
sz300290,2013-03-12,18.8,19.14,17.8,18.13,-0.050288,1362116.0,24868822.41,453654060.0,1232840000.0,0.054436111692684946,18.36,2012-09-30 00:00:00,2012-10-24 00:00:00,18.307738187589656,2.922944357552953,-19.346701367569626,3.8995626738352644
sz300290,2013-03-11,18.66,19.25,18.66,19.09,0.017048,611744.0,11581961.81,477675460.0,1298120000.0,0.02444796506816574,19.33,2012-09-30 00:00:00,2012-10-24 00:00:00,19.277147374772202,3.0777165683417214,-20.371124475177343,4.106047595308119
sz300290,2013-03-08,19.49,19.78,18.67,18.77,-0.030976,1331530.0,25497400.44,469668330.0,1276360000.0,0.053213760655311804,19.01,2012-09-30 00:00:00,2012-10-24 00:00:00,18.954019254521125,3.0261271526434554,-20.02965885108406,4.037221050833509
sz300290,2013-03-07,19.13,20.14,19.01,19.37,0.00938,2622763.0,51517683.46,484681700.0,1317160000.0,0.10481707749642705,19.62,2012-09-30 00:00:00,2012-10-24 00:00:00,19.559906931635464,3.1228608916223495,-20.66993062203213,4.166275603941192
sz300290,2013-03-06,18.85,19.48,18.8,19.19,0.012131,1477882.0,28279800.06,480177690.0,1304920000.0,0.05906262654560232,19.44,2012-09-30 00:00:00,2012-10-24 00:00:00,19.37813997863586,3.0938406661736413,-20.477848404002586,4.1275590995870655
sz300290,2013-03-05,17.9,19.18,17.82,18.96,0.060403,1831433.0,34030096.67,474422560.0,1289280000.0,0.07319207096728284,19.2,2012-09-30 00:00:00,2012-10-24 00:00:00,19.14588129267443,3.056759121273473,-20.232409049819235,4.07808781628768
sz300290,2013-03-04,18.5,18.5,17.82,17.88,-0.037675,1823131.0,33099295.29,447398490.0,1215840000.0,0.0728602867658315,18.11,2012-09-30 00:00:00,2012-10-24 00:00:00,18.05528774689852,2.882639073327285,-19.079924377636836,3.845790530852591
sz300290,2013-03-01,17.85,18.58,17.71,18.58,0.029932999999999998,2600124.0,47288588.77,464914090.0,1263440000.0,0.10391232479101675,18.82,2012-09-30 00:00:00,2012-10-24 00:00:00,18.762151816588492,2.995494321905058,-19.82690294613237,3.996353135222083
sz300290,2013-02-28,17.6,18.25,17.51,18.04,0.011211,2917490.0,52213083.81,451402060.0,1226720000.0,0.11659565665251947,18.27,2012-09-30 00:00:00,2012-10-24 00:00:00,18.216866355955673,2.9084361040039095,-19.250672564266196,3.880206902023805
sz300290,2013-02-27,18.28,18.28,17.61,17.84,0.073406,5239450.0,94828802.7,446397600.0,1213120000.0,0.20939133185303863,18.07,2012-09-30 00:00:00,2012-10-24 00:00:00,18.014901297509294,2.8761911252981913,-19.037245999367286,3.8371881852786456
sz300290,2013-02-26,17.0,17.15,16.31,16.62,-0.02522,808069.0,13624773.75,415870410.0,1130160000.0,0.032293970566456026,16.83,2012-09-30 00:00:00,2012-10-24 00:00:00,16.78293329598427,2.679499765511084,-17.735363878501968,3.574778029262595
sz300290,2013-02-25,17.05,17.29,16.68,17.05,0.000587,886733.0,14991905.74,426629990.0,1159400000.0,0.03543772825253096,17.27,2012-09-30 00:00:00,2012-10-24 00:00:00,17.21714981430094,2.748825135426541,-18.194222161412796,3.6672664901440273
sz300290,2013-02-22,16.75,17.42,16.64,17.04,0.024038,1208885.0,20694934.23,426379770.0,1158720000.0,0.048312330577972774,17.26,2012-09-30 00:00:00,2012-10-24 00:00:00,17.20704927637571,2.747212521676318,-18.183548418491146,3.665115067599347
sz300290,2013-02-21,16.75,17.11,16.42,16.64,-0.015967,835308.0,14046471.53,416370860.0,1131520000.0,0.03338255976895213,16.85,2012-09-30 00:00:00,2012-10-24 00:00:00,16.80313550510402,2.6827251739450273,-17.756712561927532,3.579081115739208
sz300290,2013-02-20,16.32,16.91,16.32,16.91,0.036152,614371.0,10238035.7,423126870.0,1149880000.0,0.02455295171871264,17.13,2012-09-30 00:00:00,2012-10-24 00:00:00,17.075784557127676,2.7262552921955128,-18.04483443332442,3.637155578866977
sz300290,2013-02-19,16.71,16.79,16.26,16.32,-0.026833999999999997,733814.0,12072861.04,408363720.0,1109760000.0,0.02932641636235462,16.53,2012-09-30 00:00:00,2012-10-24 00:00:00,16.479999611184148,2.6311345171321516,-17.41523872301016,3.5102529154670132
sz300290,2013-02-18,16.47,16.95,16.4,16.77,0.023809999999999998,996329.0,16694981.9,419623750.0,1140360000.0,0.039817663633195215,16.98,2012-09-30 00:00:00,2012-10-24 00:00:00,16.934417777834557,2.703685205948575,-17.895445096735973,3.607044343377197
sz300290,2013-02-08,16.22,16.41,16.0,16.38,0.019291,845824.0,13753559.7,278460000.0,1113840000.0,0.04975435294117647,16.59,2012-09-30 00:00:00,2012-10-24 00:00:00,16.540586415286587,2.6408075775276423,-17.479263825061263,3.5231579525275167
sz300290,2013-02-07,16.31,16.31,15.8,16.07,-0.008637,798935.0,12740261.51,273190000.0,1092760000.0,0.046996176470588236,16.28,2012-09-30 00:00:00,2012-10-24 00:00:00,16.22754092333454,2.5908279161962997,-17.14845301789309,3.456479015833081
sz300290,2013-02-06,16.15,16.44,16.15,16.21,-0.003075,400470.0,6533982.05,275570000.0,1102280000.0,0.02355705882352941,16.42,2012-09-30 00:00:00,2012-10-24 00:00:00,16.368919279148546,2.613399850706855,-17.297854587969383,3.486592717130941
sz300290,2013-02-05,16.05,16.32,15.32,16.26,0.009937999999999999,432116.0,6921965.04,276420000.0,1105680000.0,0.025418588235294116,16.47,2012-09-30 00:00:00,2012-10-24 00:00:00,16.41940896170579,2.62146084279846,-17.351209557358256,3.4973470593384066
sz300290,2013-02-04,16.4,16.4,16.01,16.1,-0.015290999999999999,556794.0,8995847.93,273700000.0,1094800000.0,0.03275258823529412,16.31,2012-09-30 00:00:00,2012-10-24 00:00:00,16.257838562075882,2.5956651228079943,-17.180470046040707,3.4629324367816703
sz300290,2013-02-01,16.14,16.48,16.14,16.35,0.008015000000000001,496418.0,8100158.67,277950000.0,1111800000.0,0.029201058823529413,16.56,2012-09-30 00:00:00,2012-10-24 00:00:00,16.510297521476783,2.6359717670987,-17.44725603811959,3.5167063942562424
sz300290,2013-01-31,16.67,16.67,16.0,16.22,-0.019347,576940.0,9335239.14,275740000.0,1102960000.0,0.03393764705882353,16.43,2012-09-30 00:00:00,2012-10-24 00:00:00,16.379019678751582,2.615012442373079,-17.308528184719062,3.488744110212885
sz300290,2013-01-30,16.84,16.88,16.25,16.54,-0.011356999999999999,593263.0,9804346.85,281180000.0,1124720000.0,0.034897823529411766,16.75,2012-09-30 00:00:00,2012-10-24 00:00:00,16.702156296622334,2.666603214769219,-17.65000278867149,3.557572464687188
sz300290,2013-01-29,16.52,16.88,16.39,16.73,0.01517,673702.0,11219998.04,284410000.0,1137640000.0,0.03962952941176471,16.94,2012-09-30 00:00:00,2012-10-24 00:00:00,16.89402170108152,2.6972357208509234,-17.852756544750218,3.598439947167166
sz300290,2013-01-28,15.8,16.5,15.8,16.48,0.03,847705.0,13801408.0,280160000.0,1120640000.0,0.049865,16.69,2012-09-30 00:00:00,2012-10-24 00:00:00,16.641569097866878,2.656930091364918,-17.58597726957083,3.5446673435652807
sz300290,2013-01-25,16.16,16.28,15.88,16.0,-0.004975,650128.0,10433223.28,272000000.0,1088000000.0,0.03824282352941177,16.2,2012-09-30 00:00:00,2012-10-24 00:00:00,16.156863201812506,2.579543778024192,-17.073764339389157,3.4414246054031854
sz300290,2013-01-24,16.69,16.89,15.7,16.08,-0.044563,1177459.0,19181391.65,273360000.0,1093440000.0,0.06926229411764706,16.29,2012-09-30 00:00:00,2012-10-24 00:00:00,16.23764548811588,2.592441172859166,-17.159131016194724,3.458631296101289
sz300290,2013-01-23,16.55,16.89,16.4,16.83,0.018149000000000002,959494.0,15993725.93,286110000.0,1144440000.0,0.056440823529411766,17.05,2012-09-30 00:00:00,2012-10-24 00:00:00,16.994993378020613,2.713356477569077,-17.959458359049023,3.6199469939946733
sz300290,2013-01-22,17.0,17.03,16.31,16.53,-0.034463,1229774.0,20556916.7,281010000.0,1124040000.0,0.07233964705882354,16.74,2012-09-30 00:00:00,2012-10-24 00:00:00,16.692049373933102,2.6649895816516804,-17.63932229865081,3.555419682182739
sz300290,2013-01-21,16.9,17.12,16.45,17.12,0.020871,1888096.0,31488201.68,291040000.0,1164160000.0,0.11106447058823529,17.34,2012-09-30 00:00:00,2012-10-24 00:00:00,17.287840211129247,2.7601112972901927,-18.26892423454597,3.682323600424157
sz300290,2013-01-18,16.64,16.86,16.51,16.77,0.006603,839575.0,14037493.72,285090000.0,1140360000.0,0.04938676470588235,16.98,2012-09-30 00:00:00,2012-10-24 00:00:00,16.934402300711106,2.7036827349294796,-17.895428741286576,3.6070410467376943
sz300290,2013-01-17,16.99,17.15,16.55,16.66,-0.014200999999999998,1094033.0,18308006.68,283220000.0,1132880000.0,0.06435488235294118,16.87,2012-09-30 00:00:00,2012-10-24 00:00:00,16.823317932403448,2.685947424088225,-17.778040340915513,3.5833799886724904
sz300290,2013-01-16,17.26,17.5,16.75,16.9,-0.017442,2276593.0,38911398.39,287300000.0,1149200000.0,0.13391723529411764,17.12,2012-09-30 00:00:00,2012-10-24 00:00:00,17.065667476233443,2.7246400372573167,-18.034143208621146,3.6350006326568507
sz300290,2013-01-15,16.8,17.28,16.58,17.2,0.031175,1994101.0,33674576.06,292400000.0,1169600000.0,0.11730005882352941,17.42,2012-09-30 00:00:00,2012-10-24 00:00:00,17.368610785555095,2.773006822251019,-18.35427853482557,3.699527796483109
sz300290,2013-01-14,16.37,16.89,16.03,16.68,0.030902,1242599.0,20620030.47,283560000.0,1134240000.0,0.07309405882352941,16.89,2012-09-30 00:00:00,2012-10-24 00:00:00,16.843514229451934,2.689171888623191,-17.79938277676008,3.5876818158732604
sz300290,2013-01-11,15.87,17.15,15.87,16.18,0.019534,1956141.0,32238045.3,275060000.0,1100240000.0,0.11506711764705882,16.39,2012-09-30 00:00:00,2012-10-24 00:00:00,16.338618248341678,2.6085621025307852,-17.2658339752567,3.4801385736697195
sz300290,2013-01-10,15.6,16.04,15.5,15.87,0.021893,979508.0,15493740.77,269790000.0,1079160000.0,0.05761811764705883,16.07,2012-09-30 00:00:00,2012-10-24 00:00:00,16.02557467268544,2.5585827471479963,-16.93502519313402,3.413460045147802
sz300290,2013-01-09,15.74,15.8,15.36,15.53,-0.01771,998539.0,15572578.24,264010000.0,1056040000.0,0.05873758823529412,15.73,2012-09-30 00:00:00,2012-10-24 00:00:00,15.682243319687522,2.50376775958735,-16.572209803897294,3.340330196163201
sz300290,2013-01-08,15.98,16.09,15.61,15.81,-0.011257,1174152.0,18607825.7,268770000.0,1075080000.0,0.06906776470588236,16.01,2012-09-30 00:00:00,2012-10-24 00:00:00,15.96498317165758,2.548908936859126,-16.87099512760722,3.400554007638479
sz300290,2013-01-07,15.95,15.99,15.53,15.99,0.003766,894228.0,14100680.65,271830000.0,1087320000.0,0.05260164705882353,16.19,2012-09-30 00:00:00,2012-10-24 00:00:00,16.14674710380511,2.577928680009998,-17.063074153351497,3.4392698685487315
sz300290,2013-01-04,15.56,16.08,15.34,15.93,0.036435,1409822.0,22146171.38,270810000.0,1083240000.0,0.08293070588235295,16.13,2012-09-30 00:00:00,2012-10-24 00:00:00,16.08616660038805,2.5682566255581456,-16.99905570954933,3.426366173539183
