code,date,open,high,low,close,change,volume,money,traded_market_value,market_value,turnover,adjust_price,report_type,report_date,PE_TTM,PS_TTM,PC_TTM,PB
sz300053,2014-12-31,17.2,17.75,17.1,17.42,0.013969999999999998,4770284.0,83103269.52,2754097650.0,3484000000.0,0.030172621976566446,35.54,2014-09-30 00:00:00,2014-10-23 00:00:00,181.77065081891286,23.927276315184375,145.3870897630616,5.383730160999123
sz300053,2014-12-30,17.01,17.27,16.33,17.18,0.004678,6399959.0,107460019.41,2716153710.0,3436000000.0,0.040480513019272385,35.05,2014-09-30 00:00:00,2014-10-23 00:00:00,179.26630059953732,23.597617597349398,143.38401507249876,5.309555668312792
sz300053,2014-12-29,18.18,18.2,16.88,17.1,-0.058370000000000005,7179909.0,123661291.94,2703505730.0,3420000000.0,0.04541379089290852,34.88,2014-09-30 00:00:00,2014-10-23 00:00:00,178.43159758602985,23.4877419405515,142.7163878103221,5.284833218516573
sz300053,2014-12-26,18.6,18.67,18.0,18.16,-0.018909,4500328.0,82196251.81,2871091460.0,3632000000.0,0.02846511775002807,37.05,2014-09-30 00:00:00,2014-10-23 00:00:00,189.49226085195872,24.943706063476636,151.56312756637118,5.612430804579902
sz300053,2014-12-25,18.78,18.8,18.21,18.51,-0.0037670000000000004,4441412.0,82447420.81,2926426370.0,3702000000.0,0.02809246696338374,37.76,2014-09-30 00:00:00,2014-10-23 00:00:00,193.14442885721988,25.42445712321959,154.48427063990107,5.720601661395223
sz300053,2014-12-24,18.02,18.77,18.02,18.58,0.019199,4730759.0,87280568.3,2937493360.0,3716000000.0,0.029922621585091857,37.9,2014-09-30 00:00:00,2014-10-23 00:00:00,193.87475505952912,25.520593197795687,155.06841335300183,5.7422326517945335
sz300053,2014-12-23,18.0,19.58,18.0,18.23,0.024156999999999998,10251282.0,193374758.25,2882158440.0,3646000000.0,0.0648405959458634,37.19,2014-09-30 00:00:00,2014-10-23 00:00:00,190.2226700178563,25.039853058917533,152.1473366369098,5.634064252216235
sz300053,2014-12-22,19.65,19.65,17.69,17.8,-0.094608,7244285.0,131751926.26,2814175550.0,3560000000.0,0.04582097694651636,36.31,2014-09-30 00:00:00,2014-10-23 00:00:00,185.73584911088466,24.44923293881459,148.5586063825271,5.501172429828859
sz300053,2014-12-19,21.3,21.3,19.41,19.66,-0.086431,8513731.0,171798554.22,3108241090.0,3932000000.0,0.053850376020863934,40.11,2014-09-30 00:00:00,2014-10-23 00:00:00,205.14412443547621,27.004030230899534,164.0820842049931,6.076011749417777
sz300053,2014-12-18,21.41,21.93,21.2,21.52,0.00093,4172997.0,89869694.23,3402306620.0,4304000000.0,0.026394709669053874,43.9,2014-09-30 00:00:00,2014-10-23 00:00:00,224.55241414220077,29.558829416168386,179.60557353083686,6.65085149498043
sz300053,2014-12-17,22.25,22.25,21.35,21.5,-0.038031,5125888.0,111081307.58,3399144630.0,4300000000.0,0.032421860201929685,43.86,2014-09-30 00:00:00,2014-10-23 00:00:00,224.343774431979,29.531365246489145,179.43869554398094,6.644671950066867
sz300053,2014-12-16,22.73,23.06,22.31,22.35,-0.023163999999999997,4993220.0,112582209.66,3533529410.0,4470000000.0,0.03158271916010458,45.59,2014-09-30 00:00:00,2014-10-23 00:00:00,233.21310191074662,30.698874128468947,186.5327214743728,6.907365985875706
sz300053,2014-12-15,22.28,23.23,22.0,22.88,0.006157,5870921.0,133785659.64,3617322280.0,4576000000.0,0.03713428389355455,46.67,2014-09-30 00:00:00,2014-10-23 00:00:00,238.7433529382073,31.426845579471838,190.95602688104537,7.071162391512708
sz300053,2014-12-12,21.73,22.77,21.43,22.74,0.049377,6395661.0,141319120.0,3595188320.0,4548000000.0,0.04045332766879928,46.39,2014-09-30 00:00:00,2014-10-23 00:00:00,237.28240516957817,31.234534550245968,189.7875052114584,7.027891662546408
sz300053,2014-12-11,21.6,22.07,21.0,21.67,-0.012756,5990001.0,129024986.84,3426021580.0,4334000000.0,0.037887479293110586,44.21,2014-09-30 00:00:00,2014-10-23 00:00:00,226.11740601288017,29.764836231636455,180.8573136360511,6.697203829078022
sz300053,2014-12-10,21.5,22.6,20.88,21.95,0.010589,7346588.0,160236562.55,3470289510.0,4390000000.0,0.04646805580206476,44.78,2014-09-30 00:00:00,2014-10-23 00:00:00,229.03902785216235,30.149422262010663,183.19413806115924,6.7837371805531586
sz300053,2014-12-09,24.58,24.58,21.72,21.72,-0.09987599999999999,13922239.0,320392842.34,3433926570.0,4344000000.0,0.08805984196685954,44.31,2014-09-30 00:00:00,2014-10-23 00:00:00,226.63914593584767,29.833515169876836,181.27462109834883,6.712656857093397
sz300053,2014-12-08,23.39,25.02,23.33,24.13,0.018143,12598744.0,307620780.52,3814946970.0,4826000000.0,0.07968857630542633,49.22,2014-09-30 00:00:00,2014-10-23 00:00:00,251.78658266621895,33.14378371188507,201.3884988049967,7.457480143950607
sz300053,2014-12-05,23.88,24.36,22.2,23.7,-0.003783,11936645.0,278728516.23,3746964080.0,4740000000.0,0.07550072017236951,48.35,2014-09-30 00:00:00,2014-10-23 00:00:00,247.29982199575008,32.55317152097994,197.79981673006316,7.324590105663554
sz300053,2014-12-04,23.8,24.48,23.62,23.79,-0.006681,8425687.0,202529609.16,3761193050.0,4758000000.0,0.05329348721677554,48.53,2014-09-30 00:00:00,2014-10-23 00:00:00,248.23890979149127,32.67678780926237,198.5509349168536,7.352404250944878
sz300053,2014-12-03,23.5,23.95,22.48,23.95,0.028338,8864246.0,206390612.05,3786489010.0,4790000000.0,0.05606742582358637,48.86,2014-09-30 00:00:00,2014-10-23 00:00:00,249.90854880606457,32.89656979204301,199.88637579353016,7.401856051223099
sz300053,2014-12-02,23.3,24.29,22.99,23.29,-0.009358,7754929.0,183809789.3,3682143180.0,4658000000.0,0.04905086184345498,47.51,2014-09-30 00:00:00,2014-10-23 00:00:00,243.0217971192979,31.990036147689775,194.3780894934644,7.19788245812476
sz300053,2014-12-01,24.57,24.7,23.0,23.51,-0.051251,9477761.0,225308203.0,3716925120.0,4702000000.0,0.059947982247756444,47.96,2014-09-30 00:00:00,2014-10-23 00:00:00,245.3174780791627,32.29222680614165,196.21426256252448,7.265876530699042
sz300053,2014-11-28,24.61,25.17,24.2,24.78,0.023967,8379430.0,206225802.1,3917711810.0,4956000000.0,0.05300090600589634,50.55,2014-09-30 00:00:00,2014-10-23 00:00:00,258.5694193924449,34.03663856946532,206.81366996173327,7.658375956864294
sz300053,2014-11-27,25.71,26.6,24.2,24.2,-0.047244,14216203.0,361748633.22,3826013950.0,4840000000.0,0.08991919974573015,49.37,2014-09-30 00:00:00,2014-10-23 00:00:00,252.51733639115798,33.23997606315957,201.97298346698014,7.479123796825769
sz300053,2014-11-26,24.75,25.66,24.6,25.4,0.016,10822397.0,271181271.27,4015733650.0,5080000000.0,0.06845296719318025,51.82,2014-09-30 00:00:00,2014-10-23 00:00:00,265.03883091909995,34.888235879028386,211.98815170618727,7.849988661132304
sz300053,2014-11-25,24.3,25.48,24.02,25.0,0.035626,11882115.0,295965589.46,3952493750.0,5000000000.0,0.07515581144182708,51.0,2014-09-30 00:00:00,2014-10-23 00:00:00,260.86499106210624,34.33881484156337,208.64975561632602,7.726366792453055
sz300053,2014-11-24,24.2,24.6,23.8,24.14,0.005833,8094077.0,196010619.04,3816527970.0,4828000000.0,0.05119601384186895,49.24,2014-09-30 00:00:00,2014-10-23 00:00:00,251.8911180890652,33.15754417286102,201.47211021770988,7.460576301148344
sz300053,2014-11-21,24.8,25.04,24.0,24.0,-0.044205,11642471.0,285775408.0,3794394000.0,4800000000.0,0.07364003421890294,48.96,2014-09-30 00:00:00,2014-10-23 00:00:00,250.4303578119481,32.96525782397378,200.30373851097536,7.417311125354153
sz300053,2014-11-20,23.51,25.3,23.42,25.11,0.050628,14924162.0,368588163.97,3969884720.0,5022000000.0,0.09439712592460367,51.22,2014-09-30 00:00:00,2014-10-23 00:00:00,262.012625941701,34.48988310670571,209.56767770387518,7.7603577392162055
sz300053,2014-11-19,24.82,25.09,23.9,23.9,-0.029639,10890861.0,266531663.03,3778584030.0,4780000000.0,0.06888601016502999,48.76,2014-09-30 00:00:00,2014-10-23 00:00:00,249.38667724608618,32.82787352583951,199.46896304293736,7.386399124348681
sz300053,2014-11-18,23.38,25.63,23.36,24.63,0.053014,15042043.0,372215787.97,3893996840.0,4926000000.0,0.0951427374784413,50.24,2014-09-30 00:00:00,2014-10-23 00:00:00,257.0040193763828,33.83057802801175,205.5616034062966,7.612011534211166
sz300053,2014-11-17,21.83,23.99,21.56,23.39,0.071461,8860817.0,204328421.88,3697953150.0,4678000000.0,0.05604573698560784,47.71,2014-09-30 00:00:00,2014-10-23 00:00:00,244.06514953873625,32.12737725045608,195.21260249749443,7.228784740004564
sz300053,2014-11-14,21.4,21.9,20.95,21.83,0.005991,6507925.0,140337599.5,3451317540.0,4366000000.0,0.04116341110415473,44.53,2014-09-30 00:00:00,2014-10-23 00:00:00,227.7872452088655,29.984644565183498,182.19291462544547,6.746661558381093
sz300053,2014-11-13,22.77,22.77,21.14,21.7,-0.044474,9056791.0,196510243.38,3430764580.0,4340000000.0,0.05728529606656951,44.27,2014-09-30 00:00:00,2014-10-23 00:00:00,226.43069889180472,29.80607636170055,181.10789721324096,6.706483018616562
sz300053,2014-11-12,22.43,22.81,22.1,22.71,0.018843000000000002,5535177.0,124309886.61,3590445320.0,4542000000.0,0.035010662596582864,46.33,2014-09-30 00:00:00,2014-10-23 00:00:00,236.96968883296185,31.19337031300095,189.5373827747659,7.018629549187109
sz300053,2014-11-11,23.87,24.3,22.0,22.29,-0.066192,10325750.0,235499399.07,3524043430.0,4458000000.0,0.06531161493092041,45.47,2014-09-30 00:00:00,2014-10-23 00:00:00,232.5870510303961,30.616464276636297,186.03198213538877,6.888823448938757
sz300053,2014-11-10,24.05,24.88,23.25,23.87,-0.001255,9262657.0,223155767.18,3773841030.0,4774000000.0,0.058587423485085166,48.69,2014-09-30 00:00:00,2014-10-23 00:00:00,249.07374003049463,32.78668021331612,199.21866393882766,7.37713046893875
sz300053,2014-11-07,23.96,24.96,23.9,23.9,-0.0016710000000000002,12140343.0,297412671.42,3778584030.0,4780000000.0,0.07678913460606564,48.76,2014-09-30 00:00:00,2014-10-23 00:00:00,249.38672036455213,32.827879201714275,199.46899753072873,7.386400401442561
sz300053,2014-11-06,22.8,23.99,22.72,23.94,0.055555999999999994,9511191.0,223180492.79,3784908020.0,4788000000.0,0.06015943091266985,48.84,2014-09-30 00:00:00,2014-10-23 00:00:00,249.8041430876516,32.88282640463642,199.80286812336286,7.398763735644823
sz300053,2014-11-05,23.2,23.26,22.38,22.68,-0.032836000000000004,9754623.0,222562267.39,3585702330.0,4536000000.0,0.06169916777224505,46.27,2014-09-30 00:00:00,2014-10-23 00:00:00,236.6564569645302,31.152138214018414,189.286847996092,7.009352166673132
sz300053,2014-11-04,24.13,24.96,23.2,23.45,-0.025758,10376692.0,249049435.91,3707439140.0,4690000000.0,0.06563382923124667,47.84,2014-09-30 00:00:00,2014-10-23 00:00:00,244.69113507588185,32.209778500873085,195.7132895724944,7.247325341589566
sz300053,2014-11-03,23.8,24.73,23.0,24.07,-0.004961,12470287.0,297658702.66,3805460980.0,4814000000.0,0.07887607038083466,49.1,2014-09-30 00:00:00,2014-10-23 00:00:00,251.1605279549453,33.06137335577103,200.8877564018944,7.438937493548385
sz300053,2014-10-31,24.98,25.68,23.8,24.19,-0.006571,18627754.0,461661902.26,3824432950.0,4838000000.0,0.11782279233317453,49.35,2014-09-30 00:00:00,2014-10-23 00:00:00,252.4127475957679,33.22620857651914,201.88932936487353,7.476026058826222
sz300053,2014-10-30,23.11,25.0,23.1,24.35,0.045064,20089214.0,483011037.03,3849728910.0,4870000000.0,0.12706670322404598,49.67,2014-09-30 00:00:00,2014-10-23 00:00:00,254.08232253715957,33.445982125062926,203.224718993379,7.5254759613683735
sz300053,2014-10-29,23.12,24.15,23.03,23.3,-0.015216,18969436.0,445010250.32,3683724180.0,4660000000.0,0.11998397198131158,47.53,2014-09-30 00:00:00,2014-10-23 00:00:00,243.1260884856426,32.00376448242685,194.46150570049207,7.200971386793895
sz300053,2014-10-28,23.5,23.82,22.61,23.66,0.035449,25008295.0,582523226.01,3740640090.0,4732000000.0,0.15818048394492826,48.27,2014-09-30 00:00:00,2014-10-23 00:00:00,246.88265496356826,32.498257975786416,197.46615064876366,7.312234344581039
sz300053,2014-10-27,20.6,22.85,20.55,22.85,0.10014400000000001,19565196.0,430742971.27,3612579290.0,4570000000.0,0.12375222596152347,46.61,2014-09-30 00:00:00,2014-10-23 00:00:00,238.4305310677476,31.38566745033933,190.7058200343654,7.061897152424733
sz300053,2014-10-24,22.18,22.39,20.38,20.77,-0.07483300000000001,18588722.0,397177799.18,3283731810.0,4154000000.0,0.11757591005582152,42.37,2014-09-30 00:00:00,2014-10-23 00:00:00,216.72665675379557,28.52869028994326,173.3462347059707,6.419066188085137
sz300053,2014-10-23,22.0,22.82,21.52,22.45,0.029344,22912133.0,510093473.93,3549339390.0,4490000000.0,0.14492200641596012,45.8,2014-09-30 00:00:00,2014-10-23 00:00:00,234.2567955339907,30.8362601454043,187.3675073862024,6.9382783736181
sz300053,2014-10-22,21.96,22.37,20.5,21.81,0.072271,34272534.0,735022176.37,3448155550.0,4362000000.0,0.21677791378640096,44.49,2014-06-30 00:00:00,2014-08-22 00:00:00,191.096053484292,28.74534410774798,196.5748867076677,6.783700469452247
sz300053,2014-10-21,20.34,20.34,20.34,20.34,0.10005399999999999,239466.0,4870738.44,3215748920.0,4068000000.0,0.0015146513490860475,41.49,2014-06-30 00:00:00,2014-08-22 00:00:00,178.21619113478963,26.807909668123056,183.32575133307503,6.326479471562923
sz300053,2014-08-29,17.81,18.6,17.81,18.49,0.02951,8328129.0,153005488.38,2923264380.0,3698000000.0,0.05267642101190998,37.72,2014-06-30 00:00:00,2014-08-22 00:00:00,162.00676615401574,24.36963064369845,166.65159286096414,5.751062649254421
sz300053,2014-08-28,18.1,18.4,17.6,17.96,-0.012101,7571217.0,135963067.9,2839471510.0,3592000000.0,0.047888861304334764,36.64,2014-06-30 00:00:00,2014-08-22 00:00:00,157.3629844819533,23.671096583518814,161.8746713105887,5.58621348918847
sz300053,2014-08-27,17.1,18.74,17.1,18.18,0.063158,11708775.0,211074845.31,2874253460.0,3636000000.0,0.07405941489238044,37.09,2014-06-30 00:00:00,2014-08-22 00:00:00,159.29055954298298,23.961049240376614,163.85751105182686,5.654640291354148
sz300053,2014-08-26,17.81,17.97,16.91,17.1,-0.036077,8631727.0,150352082.27,2703505730.0,3420000000.0,0.054596714947595104,34.88,2014-06-30 00:00:00,2014-08-22 00:00:00,149.8277391911484,22.537618341184107,154.12338622465037,5.318720539519194
sz300053,2014-08-25,17.99,18.45,17.7,17.74,-0.023128,8772074.0,159175012.88,2804689570.0,3548000000.0,0.055484426663304484,36.19,2014-06-30 00:00:00,2014-08-22 00:00:00,155.43538144763474,23.381139718819977,159.8918027940514,5.517785694001693
sz300053,2014-08-22,17.87,18.41,17.52,18.16,-0.002198,11401909.0,204805628.54,2871091460.0,3632000000.0,0.07211845053518427,37.05,2014-06-30 00:00:00,2014-08-22 00:00:00,159.11540247610202,23.93470149499625,163.67733213159082,5.648422407440989
sz300053,2014-08-21,18.61,18.73,17.82,18.2,-0.018868,11911812.0,215758243.06,2877415450.0,3640000000.0,0.07534364855099392,37.13,2014-03-31 00:00:00,2014-04-24 00:00:00,134.6551046648596,24.992631587472008,279.94555280219015,5.665424182881287
sz300053,2014-08-20,19.0,19.6,18.23,18.55,-0.013297999999999999,19879658.0,375321583.73,2932750360.0,3710000000.0,0.12574123625714942,37.84,2014-03-31 00:00:00,2014-04-24 00:00:00,137.24463646569433,25.473261077481936,285.32914307370476,5.774375092119396
sz300053,2014-08-19,17.18,18.8,17.03,18.8,0.10005900000000001,17525948.0,317661263.28,2972275300.0,3760000000.0,0.1108537363278563,38.35,2014-03-31 00:00:00,2014-04-24 00:00:00,139.09431263511613,25.816569822988033,289.17458672801394,5.852197616017192
sz300053,2014-08-18,17.2,17.42,16.7,17.09,0.000585,9298596.0,158824206.13,2701924730.0,3418000000.0,0.0588147419043757,34.86,2014-03-31 00:00:00,2014-04-24 00:00:00,126.44259320192475,23.468350173025296,262.8718884423599,5.319894311138942
sz300053,2014-08-15,16.48,17.4,16.38,17.08,0.035779000000000005,10830730.0,183170220.46,2700343730.0,3416000000.0,0.06850567442390008,34.84,2014-03-31 00:00:00,2014-04-24 00:00:00,126.36866753141885,23.454629214934556,262.7181982963565,5.316783992503327
sz300053,2014-08-14,16.0,17.0,16.0,16.49,0.02486,12196812.0,202648126.39,2607064880.0,3298000000.0,0.0771463078740104,33.64,2014-03-31 00:00:00,2014-04-24 00:00:00,122.00350415621368,22.644434010473816,253.64310175853777,5.133125881586059
sz300053,2014-08-13,16.42,16.48,15.77,16.09,-0.020097,6575080.0,105681062.19,2543824980.0,3218000000.0,0.04158817451348402,32.82,2014-03-31 00:00:00,2014-04-24 00:00:00,119.04406861055526,22.09514861588296,247.49048822135484,5.00861179242634
sz300053,2014-08-12,16.1,16.46,16.03,16.42,0.014206,5848495.0,95151202.43,2595997900.0,3284000000.0,0.03699243666568452,33.5,2014-03-31 00:00:00,2014-04-24 00:00:00,121.48556399006355,22.54830183791963,252.5663134222008,5.111334277399232
sz300053,2014-08-11,15.93,16.45,15.93,16.19,0.017599,7395269.0,120206041.04,2559634950.0,3238000000.0,0.046775969014644064,33.03,2014-03-31 00:00:00,2014-04-24 00:00:00,119.78391371187273,22.2324674059507,249.0286129466803,5.039739734727691
sz300053,2014-08-08,15.88,15.98,15.35,15.91,0.004419,6506068.0,102085597.86,2515367020.0,3182000000.0,0.04115166536611425,32.46,2014-03-31 00:00:00,2014-04-24 00:00:00,117.7122950316114,21.847965068706536,244.72175478423262,4.9525792917718
sz300053,2014-08-07,16.25,16.42,15.71,15.84,-0.023428,6180795.0,99730453.83,2504300040.0,3168000000.0,0.0390942743426223,32.31,2014-03-31 00:00:00,2014-04-24 00:00:00,117.19441292091388,21.751843671522078,243.64508714414265,4.930790130186505
sz300053,2014-08-06,16.29,16.4,16.05,16.22,-0.004908,5143246.0,83639478.51,2564377950.0,3244000000.0,0.03253165163114898,33.09,2014-03-31 00:00:00,2014-04-24 00:00:00,120.0059114135096,22.273671241364774,249.4901421954988,5.049079975860977
sz300053,2014-08-05,16.4,16.41,15.95,16.3,-0.006703,6171728.0,99987327.57,2577025930.0,3260000000.0,0.03903692439757485,33.25,2014-03-31 00:00:00,2014-04-24 00:00:00,120.59780544262196,22.383529604664464,250.7206792894514,5.073983084841378
sz300053,2014-08-04,16.2,16.48,16.0,16.41,0.009225,4766481.0,77566071.32,2594416900.0,3282000000.0,0.030148567568304075,33.48,2014-03-31 00:00:00,2014-04-24 00:00:00,121.41162758230615,22.534578886943645,252.41260095364365,5.108223507008858
sz300053,2014-08-01,16.57,17.03,16.01,16.26,-0.032719,11155021.0,185693972.27,2570701940.0,3252000000.0,0.07055685400074035,33.17,2014-03-31 00:00:00,2014-04-24 00:00:00,120.30184307989414,22.32859757432054,250.10537883390094,5.0615308845984375
sz300053,2014-07-31,16.35,16.89,16.17,16.81,0.026251999999999998,16019892.0,264519147.29,2657656800.0,3362000000.0,0.10132775026481974,34.29,2014-03-31 00:00:00,2014-04-24 00:00:00,124.37114249105909,23.0838790117045,258.5653794852798,5.232740935259182
sz300053,2014-07-30,15.96,16.53,15.8,16.38,0.030188999999999997,12448787.0,201945260.08,2589673910.0,3276000000.0,0.07874008008212895,33.41,2014-03-31 00:00:00,2014-04-24 00:00:00,121.18967124162397,22.493382728320626,251.95115769350977,5.0988850060795805
sz300053,2014-07-29,15.65,16.36,15.46,15.9,0.020538999999999998,10736317.0,171476922.97,2513786030.0,3180000000.0,0.06790850066900882,32.44,2014-03-31 00:00:00,2014-04-24 00:00:00,117.63828893690768,21.834229183499946,244.56789743776122,4.94946558940115
sz300053,2014-07-28,15.5,15.64,14.97,15.58,0.005161,9784157.0,150119316.89,2463194110.0,3116000000.0,0.06188597376111784,31.78,2014-03-31 00:00:00,2014-04-24 00:00:00,115.27074314348366,21.39480135839977,239.6458121029781,4.849854429278204
sz300053,2014-07-25,14.49,15.91,14.46,15.5,0.071923,15385603.0,239229641.49,2450546130.0,3100000000.0,0.09731579568347078,31.62,2014-03-31 00:00:00,2014-04-24 00:00:00,114.67888541585243,21.284949732828643,238.4153504791552,4.824952847631578
sz300053,2014-07-24,14.41,14.65,13.95,14.46,0.002079,6811751.0,97498616.07,2286122390.0,2892000000.0,0.04308514709923296,29.5,2014-03-31 00:00:00,2014-04-24 00:00:00,106.98425671979466,19.856789837356455,222.4183551236005,4.501212165082359
sz300053,2014-07-23,15.28,15.4,14.41,14.43,-0.054390999999999995,6636542.0,98957291.68,2281379390.0,2886000000.0,0.04197692916827832,29.44,2014-03-31 00:00:00,2014-04-24 00:00:00,106.76229790245546,19.815593219054044,221.956906714541,4.491873559951221
sz300053,2014-07-22,15.0,15.45,14.9,15.26,0.007261,7700461.0,116952239.31,2412602190.0,3052000000.0,0.048706345102007886,31.13,2014-03-31 00:00:00,2014-04-24 00:00:00,112.90321676555052,20.955377136907586,234.72376713265314,4.750244086034737
sz300053,2014-07-21,14.87,15.33,14.39,15.15,0.023649,8523808.0,126229632.66,2395211210.0,3030000000.0,0.05391411440496723,30.91,2014-03-31 00:00:00,2014-04-24 00:00:00,112.08933609615633,20.804316991234234,233.03172378624123,4.71600120131201
sz300053,2014-07-18,15.58,15.59,14.8,14.8,-0.041451,7185775.0,109071986.42,2339876300.0,2960000000.0,0.04545089413487371,30.19,2014-03-31 00:00:00,2014-04-24 00:00:00,109.49977589599202,20.323682230172874,227.64807447302857,4.607049097212043
sz300053,2014-07-17,15.35,15.68,15.16,15.44,0.00915,5346706.0,82379457.54,2441060140.0,3088000000.0,0.03381856075041232,31.5,2014-03-31 00:00:00,2014-04-24 00:00:00,114.23492789204518,21.20254909261068,237.49237073225112,4.806273959090294
sz300053,2014-07-16,15.75,15.96,15.1,15.3,-0.039548,7613389.0,118169706.62,2418926180.0,3060000000.0,0.04815560419458523,31.21,2014-03-31 00:00:00,2014-04-24 00:00:00,113.1991556181392,21.010304803657217,235.33901871104504,4.762695297121631
sz300053,2014-07-15,16.4,16.45,15.61,15.93,-0.036298000000000004,11929197.0,191268849.95,2518529020.0,3186000000.0,0.0754536106993121,32.5,2014-03-31 00:00:00,2014-04-24 00:00:00,117.8602945468792,21.875434486738765,245.02944312786593,4.9588061632664955
sz300053,2014-07-14,16.62,17.0,16.33,16.53,-0.000605,9967551.0,165997782.23,2613388870.0,3306000000.0,0.0630459630104723,33.72,2014-03-31 00:00:00,2014-04-24 00:00:00,122.29952261890003,22.69937645323841,254.25851884489805,5.145580442155869
sz300053,2014-07-11,16.05,16.74,15.8,16.54,0.020988,11215277.0,183399776.07,2614969870.0,3308000000.0,0.07093798047470427,33.74,2014-03-31 00:00:00,2014-04-24 00:00:00,122.37355862186627,22.713117889561595,254.41243837011194,5.148695402874608
sz300053,2014-07-10,16.65,17.1,16.13,16.2,-0.038576,13054999.0,215194967.0,2561215950.0,3240000000.0,0.08257444429861527,33.05,2014-03-31 00:00:00,2014-04-24 00:00:00,119.85797935124238,22.246214342932134,249.1825940854466,5.042855942356431
sz300053,2014-07-09,16.4,17.94,16.36,16.85,0.013838999999999999,24710408.0,427296673.25,2663980790.0,3370000000.0,0.15629631278234557,34.37,2014-03-31 00:00:00,2014-04-24 00:00:00,124.6671389015069,23.138817361468128,259.18075072543076,5.245194568012064
sz300053,2014-07-08,16.62,16.9,16.02,16.62,-0.010714,17044979.0,279469869.1,2627617850.0,3324000000.0,0.10781154914897538,33.9,2014-03-31 00:00:00,2014-04-24 00:00:00,122.96542044792804,22.822970275821046,255.64290851449869,5.173597156956938
sz300053,2014-07-07,16.49,17.18,16.3,16.8,0.038961,21466407.0,361228691.1,2656075800.0,3360000000.0,0.1357776150816178,34.27,2014-03-31 00:00:00,2014-04-24 00:00:00,124.29714000595182,23.07014379645628,258.4115296430948,5.229627384757227
sz300053,2014-07-04,16.43,16.85,16.15,16.17,-0.027661,18336757.0,301531793.61,2556472960.0,3234000000.0,0.11598220099695483,32.99,2014-03-31 00:00:00,2014-04-24 00:00:00,119.63600174207869,22.205014236777203,248.72110660852024,5.033516546585702
sz300053,2014-07-03,17.01,17.45,16.44,16.63,-0.038172000000000005,24115737.0,405374139.07,2629198840.0,3326000000.0,0.15253494722749839,33.92,2014-03-31 00:00:00,2014-04-24 00:00:00,123.03939443144695,22.836700201038116,255.7966991023915,5.17670950829464
sz300053,2014-07-02,16.96,18.65,16.96,17.29,0.00993,31538219.0,558071094.95,2733544680.0,3458000000.0,0.19948304137834688,35.27,2014-03-31 00:00:00,2014-04-24 00:00:00,127.92245020050046,23.743018711285302,265.94848465878675,5.3821572134463125
sz300053,2014-07-01,17.96,17.99,16.55,17.12,0.010626,35722349.0,615627618.69,2706667720.0,3424000000.0,0.22594816879849589,34.92,2014-03-31 00:00:00,2014-04-24 00:00:00,126.66467002713104,23.509568694152367,263.3335821876632,5.329237881285151
sz300053,2014-06-30,16.0,16.94,15.86,16.94,0.1,17434989.0,286614179.28,2500339770.0,3388000000.0,0.11812343154466565,34.56,2014-03-31 00:00:00,2014-04-24 00:00:00,125.3328828143458,23.262382616469758,260.56482040602873,5.273204807005906
sz300053,2014-06-27,14.2,15.4,14.2,15.4,0.1,19840310.0,293791649.11,2273036150.0,3080000000.0,0.13441967212004086,31.42,2014-03-31 00:00:00,2014-04-24 00:00:00,113.938984376678,21.14762056042705,236.8771094600261,4.793822551823551
sz300053,2014-06-26,13.6,14.22,13.5,14.0,0.009373000000000001,21305798.0,296182238.74,2066396500.0,2800000000.0,0.14434846942491433,28.56,2014-03-31 00:00:00,2014-04-24 00:00:00,103.58089488788907,19.22510960038823,215.34282678184192,4.358020501657773
sz300053,2014-06-25,15.59,15.72,13.78,13.87,-0.085092,29855693.0,435051582.74,2047208530.0,2774000000.0,0.2022746856716155,28.29,2014-03-31 00:00:00,2014-04-24 00:00:00,102.61904656444058,19.046585950276288,213.34316133068936,4.317552085956106
sz300053,2014-06-24,15.3,15.55,14.92,15.16,-0.022566,17750128.0,269345268.61,2237612210.0,3032000000.0,0.12025852347310886,30.93,2014-03-31 00:00:00,2014-04-24 00:00:00,112.16324107390093,20.81803410864949,233.18537091236422,4.719110649328791
sz300053,2014-06-23,15.18,15.95,14.9,15.51,0.013725,23619289.0,363302638.26,2289272120.0,3102000000.0,0.1600225544134963,31.64,2014-03-31 00:00:00,2014-04-24 00:00:00,114.752751668042,21.298659662595625,238.56891709554228,4.828060666325084
sz300053,2014-06-20,15.29,15.77,14.6,15.3,0.026157,29739804.0,452460198.68,2258276180.0,3060000000.0,0.20148952782205765,31.21,2014-03-31 00:00:00,2014-04-24 00:00:00,113.19909410149891,21.010293385874494,235.3388908190508,4.762692708895493
sz300053,2014-06-19,16.14,16.72,14.85,14.91,-0.019079,40885619.0,650740286.39,2200712270.0,2982000000.0,0.2770033082471067,30.42,2014-03-31 00:00:00,2014-04-24 00:00:00,110.3136207242156,20.474735723553504,229.3400433062882,4.641290473967914
sz300053,2014-06-18,13.92,15.2,13.92,15.2,0.099855,16135878.0,240232740.63,2243516200.0,3040000000.0,0.10932185183240486,31.01,2014-03-31 00:00:00,2014-04-24 00:00:00,112.45923038064798,20.87297113993227,233.80072738404846,4.731563983203452
sz300053,2014-06-17,13.16,14.44,13.03,13.82,0.05175,17930378.0,247623671.4,2039828550.0,2764000000.0,0.12147973120584081,28.19,2014-03-31 00:00:00,2014-04-24 00:00:00,102.24914227843487,18.977929945249393,212.5741369399134,4.3019888832650235
sz300053,2014-06-16,12.78,13.2,12.78,13.14,0.023364,8947081.0,116988105.17,1939460720.0,2628000000.0,0.060617182460905944,26.81,2014-03-31 00:00:00,2014-04-24 00:00:00,97.21810532772508,18.044145419775983,202.11470115513512,4.09031507797958
sz300053,2014-06-13,12.54,13.08,12.38,12.84,0.019857,11075631.0,141494991.11,1895180790.0,2568000000.0,0.07503827750385757,26.19,2014-03-31 00:00:00,2014-04-24 00:00:00,94.99855899535756,17.632187002646162,197.50030405128103,3.996930787070466
sz300053,2014-06-12,12.55,12.75,12.41,12.59,-0.004743,6263291.0,79036768.24,1858280850.0,2518000000.0,0.04243429279809884,25.68,2014-03-31 00:00:00,2014-04-24 00:00:00,93.1489012629786,17.28888167914341,193.65489872725394,3.91910903888532
sz300053,2014-06-11,12.16,12.7,12.12,12.65,0.036885,9369267.0,116995006.03,1867136840.0,2530000000.0,0.06347752613032905,25.81,2014-03-31 00:00:00,2014-04-24 00:00:00,93.59281197015302,17.37127362997036,194.5777811432162,3.937785957682609
sz300053,2014-06-10,12.0,12.26,11.82,12.2,0.018364,5060453.0,61098202.08,1800716950.0,2440000000.0,0.034284969994867874,24.89,2014-03-31 00:00:00,2014-04-24 00:00:00,90.26344480839535,16.75332715775651,187.65608639648195,3.797707515956551
sz300053,2014-06-09,12.36,12.37,11.98,11.98,-0.0416,7142880.0,87025029.08,1768245010.0,2396000000.0,0.04839357776556089,24.44,2014-03-31 00:00:00,2014-04-24 00:00:00,88.6357381136758,16.451217008610385,184.27211330769936,3.729224045583456
sz300053,2014-06-06,12.39,12.5,12.15,12.5,0.00321,5753919.0,71092735.16,1844996880.0,2500000000.0,0.03898325697981668,25.5,2014-03-31 00:00:00,2014-04-24 00:00:00,92.4830322555048,17.16529320597912,192.2705689771487,3.8910935367106174
sz300053,2014-06-05,12.15,12.52,12.1,12.46,0.022149000000000002,5908906.0,72621012.58,1839092890.0,2492000000.0,0.04003330618063561,25.42,2014-03-31 00:00:00,2014-04-24 00:00:00,92.18711162718155,17.11036892174033,191.65535528667849,3.878643092384065
sz300053,2014-06-04,12.4,12.41,11.94,12.19,-0.020096,5043153.0,61396165.62,1799240950.0,2438000000.0,0.03416776117173189,24.87,2014-03-31 00:00:00,2014-04-24 00:00:00,90.18950429651797,16.739603445036224,187.50236539553282,3.7945965728910998
sz300053,2014-06-03,12.47,12.74,12.38,12.44,0.004036,6985268.0,87784444.77,1836140890.0,2488000000.0,0.04732574411542025,25.38,2014-03-31 00:00:00,2014-04-24 00:00:00,92.03912250232469,17.082901432218076,191.34768854452358,3.8724166580512986
sz300053,2014-05-30,12.4,12.65,12.12,12.39,-0.009592,7149442.0,88769405.78,1828760900.0,2478000000.0,0.04843803603850017,25.28,2014-03-31 00:00:00,2014-04-24 00:00:00,91.66914582975579,17.014231991898775,190.5785136633782,3.8568504097973566
sz300053,2014-05-29,12.55,12.68,12.22,12.51,-0.017282,10672137.0,132750655.81,1846472870.0,2502000000.0,0.07230457378450407,25.52,2014-03-31 00:00:00,2014-04-24 00:00:00,92.55695211443748,17.179013085414066,192.42424704099543,3.8942036108324616
sz300053,2014-05-28,12.3,12.8,12.24,12.73,0.039184,9607185.0,121054336.66,1878944820.0,2546000000.0,0.06508943942802961,25.97,2014-03-31 00:00:00,2014-04-24 00:00:00,94.18465125746907,17.48112183293078,195.8082044299539,3.9626867634789043
sz300053,2014-05-27,12.23,12.41,12.13,12.25,-0.0016300000000000002,4100610.0,50277461.7,1808096940.0,2450000000.0,0.027781957586853725,24.99,2014-03-31 00:00:00,2014-04-24 00:00:00,90.63327693408391,16.82196976948334,188.42496076724993,3.813267682603758
sz300053,2014-05-26,12.26,12.45,12.17,12.27,0.003271,4017618.0,49332158.68,1811048930.0,2454000000.0,0.02721968028771039,25.03,2014-03-31 00:00:00,2014-04-24 00:00:00,90.7812503721906,16.849434347469717,188.73259489693197,3.8194934569385683
sz300053,2014-05-23,11.96,12.24,11.86,12.23,0.023431,4125290.0,49812604.91,1805144940.0,2446000000.0,0.02794916661927435,24.95,2014-03-31 00:00:00,2014-04-24 00:00:00,90.48527304406345,16.79449953947609,188.11726332858413,3.8070406270474955
sz300053,2014-05-22,11.87,12.19,11.78,11.95,0.017021,4476033.0,53817655.83,1763817010.0,2390000000.0,0.030325478236543368,24.38,2014-03-31 00:00:00,2014-04-24 00:00:00,88.41365274655882,16.40999690206383,183.81040180391656,3.719880116048366
sz300053,2014-05-21,11.46,11.78,11.3,11.75,0.021738999999999998,2243414.0,25994264.0,1734297060.0,2350000000.0,0.015199307608812992,23.97,2014-03-31 00:00:00,2014-04-24 00:00:00,86.93394998388314,16.135356990724706,180.73412624116565,3.6576237029996093
sz300053,2014-05-20,11.6,11.8,11.42,11.5,0.009193999999999999,2813335.0,32714259.12,1697397130.0,2300000000.0,0.019060567458364916,23.46,2014-03-31 00:00:00,2014-04-24 00:00:00,85.0843023354136,15.792053538843781,176.8887418814058,3.579802379080773
sz300053,2014-05-19,11.4,11.58,11.28,11.42,0.007055,1801125.0,20606299.43,1685589150.0,2284000000.0,0.012202764534880875,23.25,2014-03-31 00:00:00,2014-04-24 00:00:00,84.30916388267627,15.648184133916553,175.27724291009045,3.5471895186463387
sz300053,2014-05-16,11.6,11.7,11.14,11.34,-0.029939999999999998,3086215.0,35050131.82,1673781170.0,2268000000.0,0.020909351071263398,23.08,2014-03-31 00:00:00,2014-04-24 00:00:00,83.7185296559535,15.538559595967003,174.04932492276035,3.5223394140800037
sz300053,2014-05-15,12.12,12.18,11.61,11.69,-0.037860000000000005,4831178.0,57209788.28,1725441080.0,2338000000.0,0.03273161365788277,23.8,2014-03-31 00:00:00,2014-04-24 00:00:00,86.3024242376281,16.018142791133545,179.42119551652513,3.631053145248752
sz300053,2014-05-14,12.21,12.38,12.08,12.15,-0.012195000000000001,3077268.0,37537152.83,1793336960.0,2430000000.0,0.02084873452895322,24.73,2014-03-31 00:00:00,2014-04-24 00:00:00,89.69840588441194,16.648453230437923,186.48138058549185,3.773934297762022
sz300053,2014-05-13,12.35,12.44,12.1,12.3,-0.012048,4497490.0,55180080.89,1815476930.0,2460000000.0,0.030470850984594997,25.04,2014-03-31 00:00:00,2014-04-24 00:00:00,90.80578240078957,16.85398760933375,188.78359654536254,3.820525607546046
sz300053,2014-05-12,12.42,12.6,12.22,12.45,0.011373000000000001,5895695.0,73202165.35,1837616890.0,2490000000.0,0.039943800663477795,25.34,2014-03-31 00:00:00,2014-04-24 00:00:00,91.9131520567695,17.059520714906945,191.08579824258922,3.867116628688484
sz300053,2014-05-09,11.95,12.31,11.95,12.31,0.024125999999999998,5055320.0,61602465.59,1816952920.0,2462000000.0,0.03425019356032626,25.06,2014-03-31 00:00:00,2014-04-24 00:00:00,90.87957860924654,16.867684538648888,188.93701754208308,3.823630479247996
sz300053,2014-05-08,12.07,12.45,11.91,12.02,-0.017974,5441423.0,66040558.63,1774149000.0,2404000000.0,0.036866071823730695,24.47,2014-03-31 00:00:00,2014-04-24 00:00:00,88.73866946962242,16.470321560676016,184.48610575464647,3.733554737647512
sz300053,2014-05-07,12.1,12.55,12.04,12.24,-0.000816,6692705.0,82374077.4,1806620940.0,2448000000.0,0.045343606611799814,24.92,2014-03-31 00:00:00,2014-04-24 00:00:00,90.36285135996646,16.77177748926812,187.8627508382125,3.8018899068329266
sz300053,2014-05-06,11.77,12.36,11.68,12.25,0.039898,7497922.0,91108406.95,1808096940.0,2450000000.0,0.050799015510750216,24.94,2014-03-31 00:00:00,2014-04-24 00:00:00,90.43664766446065,16.78547443640823,188.01617203459273,3.8049947825755086
sz300053,2014-05-05,11.84,12.06,11.31,11.78,-0.007581999999999999,6169074.0,73312263.48,1738725060.0,2356000000.0,0.04179596498137549,23.98,2014-03-31 00:00:00,2014-04-24 00:00:00,86.96684450249992,16.14146237074043,180.80251335668763,3.6590076936156324
sz300053,2014-04-30,11.48,11.98,11.41,11.87,0.035776999999999996,5091662.0,60177622.43,1752009030.0,2374000000.0,0.034496413491658766,24.16,2014-03-31 00:00:00,2014-04-24 00:00:00,87.63126475184843,16.26478194746612,182.18383116457744,3.686962241329392
sz300053,2014-04-29,11.1,11.48,11.02,11.46,0.02965,2246453.0,25253183.34,1691493140.0,2292000000.0,0.01521989700768163,23.33,2014-03-31 00:00:00,2014-04-24 00:00:00,84.60437406106568,15.702976555248977,175.8909795878625,3.5596100717909276
sz300053,2014-04-28,11.52,11.68,11.08,11.13,-0.042169,2846726.0,32053791.64,1642785220.0,2226000000.0,0.01928679415559875,22.66,2014-03-31 00:00:00,2014-04-24 00:00:00,82.16809018702054,15.250790613557013,170.82598901360902,3.4571068535822156
sz300053,2014-04-25,11.68,11.93,11.56,11.62,-0.005988,4150608.0,48679168.62,1715109100.0,2324000000.0,0.028120697954433335,23.65,2014-03-31 00:00:00,2014-04-24 00:00:00,85.78558241174127,15.922214475786454,178.34669060993957,3.609307752184066
sz300053,2014-04-24,11.13,11.86,11.08,11.69,0.056962,6027582.0,69259935.64,1725441080.0,2338000000.0,0.04083734553254058,23.8,2014-03-31 00:00:00,2014-04-24 00:00:00,86.3023609491045,16.018131044480803,179.42106394081716,3.6310504824731145
sz300053,2014-04-23,11.12,11.24,11.0,11.06,-0.005396,1270702.0,14130790.96,1632453240.0,2212000000.0,0.008609106696373122,22.51,2013-12-31 00:00:00,2014-04-18 00:00:00,78.9593358590409,14.62600136268883,182.52016787325198,3.4776459189348143
sz300053,2014-04-22,11.5,11.5,10.96,11.12,-0.027122000000000004,2588076.0,28866536.03,1641309220.0,2224000000.0,0.01753441994312321,22.64,2013-12-31 00:00:00,2014-04-18 00:00:00,79.38771195273787,14.705351439053963,183.51038993735392,3.4965131036420662
sz300053,2014-04-21,11.52,11.72,11.39,11.43,-0.013805000000000001,2418316.0,28013413.83,1687065140.0,2286000000.0,0.016384282517982678,23.27,2013-12-31 00:00:00,2014-04-18 00:00:00,81.60089132731738,15.115308845563334,188.6263127929236,3.593989280919156
sz300053,2014-04-18,11.6,11.75,11.5,11.59,-0.0008619999999999999,2328334.0,26990608.22,1710681100.0,2318000000.0,0.015774647337835204,23.59,2013-12-31 00:00:00,2014-04-18 00:00:00,82.74316066023188,15.326896653870008,191.26675028054655,3.6442988262150546
sz300053,2014-04-17,11.59,11.68,11.53,11.6,0.000863,2139903.0,24827722.23,1712157100.0,2320000000.0,0.014498012361132047,23.61,2013-09-30 00:00:00,2013-10-25 00:00:00,97.34435389558509,15.845295714500711,581.7180648897947,3.6687369442333027
sz300053,2014-04-16,11.49,11.64,11.38,11.59,0.019349,2669227.0,30796261.72,1710681100.0,2318000000.0,0.018084224423827445,23.59,2013-09-30 00:00:00,2013-10-25 00:00:00,97.26041815471754,15.831633015208585,581.2164750718077,3.665573554255979
sz300053,2014-04-15,11.51,11.66,11.32,11.37,-0.008718,2772269.0,31931154.06,1678209160.0,2274000000.0,0.01878234208303332,23.14,2013-09-30 00:00:00,2013-10-25 00:00:00,95.41424787263004,15.531121348241463,570.1839851432707,3.5959946537015095
sz300053,2014-04-14,11.28,11.56,11.24,11.47,0.019556,2483240.0,28324537.15,1692969130.0,2294000000.0,0.01682414776222175,23.35,2013-09-30 00:00:00,2013-10-25 00:00:00,96.25338488203158,15.667712465515827,575.198566243784,3.627620247014985
sz300053,2014-04-11,11.32,11.32,11.09,11.25,-0.020888,2449475.0,27450248.69,1660497190.0,2250000000.0,0.016595387162323352,22.9,2013-09-30 00:00:00,2013-10-25 00:00:00,94.40715849058964,15.367191665309047,564.1657410125428,3.5580392317979457
sz300053,2014-04-10,11.55,11.74,11.48,11.49,-0.003469,3279007.0,38080057.71,1695921130.0,2298000000.0,0.02221553217513128,23.39,2013-09-30 00:00:00,2013-10-25 00:00:00,96.42120461253627,15.695029440257136,576.2014366206753,3.633945076557069
sz300053,2014-04-09,11.37,11.59,11.32,11.53,0.018550999999999998,2898823.0,33311293.34,1701825120.0,2306000000.0,0.019639755458539708,23.47,2013-09-30 00:00:00,2013-10-25 00:00:00,96.75685413954635,15.749665028240099,578.2072375276587,3.6465951150110416
sz300053,2014-04-08,11.18,11.34,11.03,11.32,0.011618,2302823.0,25823508.99,1670829170.0,2264000000.0,0.015601808268645441,23.04,2013-09-30 00:00:00,2013-10-25 00:00:00,94.99460914529205,15.462814359065083,567.6762749510419,3.5801792104774743
sz300053,2014-04-04,11.0,11.22,10.84,11.19,0.020985,2661019.0,29454014.15,1651641200.0,2238000000.0,0.0180286145744003,22.78,2013-09-30 00:00:00,2013-10-25 00:00:00,93.90363669417907,15.285230550529038,561.1567557625922,3.539062383703606
sz300053,2014-04-03,10.95,11.12,10.81,10.96,0.00828,2057600.0,22618945.51,1617693260.0,2192000000.0,0.013940403015587764,22.31,2013-09-30 00:00:00,2013-10-25 00:00:00,91.97357130043935,14.971062797718904,549.6229188113361,3.4663216244152513
sz300053,2014-04-02,11.09,11.15,10.8,10.87,-0.020721,1825880.0,19926691.71,1604409280.0,2174000000.0,0.012370481676595636,22.13,2013-09-30 00:00:00,2013-10-25 00:00:00,91.21828390966729,14.848120361128757,545.1094128727498,3.4378561752839003
sz300053,2014-04-01,10.96,11.2,10.9,11.1,0.018349,2139014.0,23697340.55,1638357230.0,2220000000.0,0.014491989271472864,22.59,2013-09-30 00:00:00,2013-10-25 00:00:00,93.14841215799306,15.162298345138371,556.6436254353966,3.510599303450703
sz300053,2014-03-31,10.79,11.07,10.78,10.9,0.0,1753644.0,19156871.8,1608837280.0,2180000000.0,0.01188107699742015,22.19,2013-09-30 00:00:00,2013-10-25 00:00:00,91.47002860315379,14.88909828078426,546.613808660289,3.4473439886038113
sz300053,2014-03-28,11.5,11.5,10.8,10.9,-0.048035,4475059.0,49202891.1,1608837280.0,2180000000.0,0.030318879172168363,22.19,2013-09-30 00:00:00,2013-10-25 00:00:00,91.47002860315379,14.88909828078426,546.613808660289,3.4473439886038113
sz300053,2014-03-27,11.78,11.88,11.45,11.45,-0.03943,3016429.0,34964149.09,1690017140.0,2290000000.0,0.02043654542462214,23.31,2013-09-30 00:00:00,2013-10-25 00:00:00,96.08549537341584,15.640384132593384,574.195278881355,3.6212927876590126
sz300053,2014-03-26,11.66,11.94,11.56,11.92,0.023176,3199184.0,37843128.87,1759389020.0,2384000000.0,0.021674725058816156,24.26,2013-09-30 00:00:00,2013-10-25 00:00:00,100.02966506700795,16.282399130301158,597.7651591048595,3.769941584329109
sz300053,2014-03-25,11.58,11.73,11.44,11.65,0.005177,2241677.0,26004620.67,1719537090.0,2330000000.0,0.015187539252206533,23.71,2013-09-30 00:00:00,2013-10-25 00:00:00,97.76388917156768,15.91358586430991,584.2251568692576,3.6845484885582818
sz300053,2014-03-24,11.81,11.83,11.56,11.59,-0.023589,2892072.0,33677118.27,1710681100.0,2318000000.0,0.019594016956170263,23.59,2013-09-30 00:00:00,2013-10-25 00:00:00,97.26037222456115,15.831625538895052,581.2162005987578,3.665571823229423
sz300053,2014-03-21,11.51,12.01,11.25,11.87,0.018884,3726680.0,43191387.65,1752009030.0,2374000000.0,0.025248552286285874,24.16,2013-09-30 00:00:00,2013-10-25 00:00:00,99.61007426643201,16.2140999424372,595.2577353171541,3.754127947380174
sz300053,2014-03-20,12.32,12.37,11.56,11.65,-0.054383,3504881.0,42201289.82,1719537090.0,2330000000.0,0.023745846418468355,23.71,2013-09-30 00:00:00,2013-10-25 00:00:00,97.76390076439714,15.913587751340883,584.2252261466018,3.684548925471569
sz300053,2014-03-19,12.2,12.47,12.16,12.32,-0.006451999999999999,2944051.0,36225807.3,1818428920.0,2464000000.0,0.019946178770627997,25.08,2013-09-30 00:00:00,2013-10-25 00:00:00,103.3863612481556,16.82878771356784,617.8243687947677,3.896449540851708
sz300053,2014-03-18,12.41,12.52,12.28,12.4,0.0,3446907.0,42765768.3,1830236900.0,2480000000.0,0.02335306800993904,25.24,2013-09-30 00:00:00,2013-10-25 00:00:00,104.05774179823783,16.938072155112632,621.8364576193276,3.9217526892024424
sz300053,2014-03-17,12.01,12.45,11.86,12.4,0.042017,4025586.0,49161034.68,1830236900.0,2480000000.0,0.02727366408140935,25.24,2013-09-30 00:00:00,2013-10-25 00:00:00,104.05774179823783,16.938072155112632,621.8364576193276,3.9217526892024424
sz300053,2014-03-14,11.95,12.13,11.73,11.9,-0.010806,2786207.0,33208156.57,1756437030.0,2380000000.0,0.018876773111530222,24.22,2013-09-30 00:00:00,2013-10-25 00:00:00,99.86184659006315,16.25508235960894,596.7622962190901,3.7636168020314855
sz300053,2014-03-13,12.29,12.29,11.66,12.03,0.01519,4195241.0,50643210.57,1775624990.0,2406000000.0,0.028423090187528845,24.49,2013-09-30 00:00:00,2013-10-25 00:00:00,100.95274191924247,16.43265361456796,603.2813545362084,3.8047307222157487
sz300053,2014-03-12,11.7,11.9,11.45,11.85,0.021552,4246346.0,49888816.06,1749057040.0,2370000000.0,0.02876933053023817,24.12,2013-09-30 00:00:00,2013-10-25 00:00:00,99.4422146782794,16.186776479839203,594.2546267557879,3.7478016156736653
sz300053,2014-03-11,11.41,11.89,11.3,11.6,0.023831,4304618.0,49851978.77,1712157100.0,2320000000.0,0.02916412798802166,23.61,2013-09-30 00:00:00,2013-10-25 00:00:00,97.3442513726951,15.84527902626514,581.7174522254256,3.66873308032647
sz300053,2014-03-10,11.88,11.95,11.24,11.33,-0.062086,4428571.0,51597751.15,1672305170.0,2266000000.0,0.030003919338478152,23.06,2013-09-30 00:00:00,2013-10-25 00:00:00,95.07843713727665,15.476459519456961,568.1772208747592,3.583338539589512
sz300053,2014-03-07,12.4,12.48,11.99,12.08,-0.026591000000000004,4194706.0,51230055.68,1783004980.0,2416000000.0,0.02841946548012446,24.59,2013-09-30 00:00:00,2013-10-25 00:00:00,101.37223363472201,16.500936673785613,605.7881862033825,3.820540624822225
sz300053,2014-03-06,12.56,12.61,12.15,12.41,-0.016640000000000002,3855083.0,47525587.32,1831712900.0,2482000000.0,0.02611849271247694,25.26,2013-09-30 00:00:00,2013-10-25 00:00:00,104.14145917566204,16.951699310141592,622.3367425238337,3.9249078494468668
sz300053,2014-03-05,12.53,12.75,12.41,12.62,0.0096,4739471.0,59578452.28,1862708850.0,2524000000.0,0.03211029142852894,25.69,2013-09-30 00:00:00,2013-10-25 00:00:00,105.90369668855966,17.238548761533508,632.8676603927694,3.9913234720213007
sz300053,2014-03-04,12.53,12.65,12.12,12.5,-0.014196,4711105.0,58484356.71,1844996880.0,2500000000.0,0.03191810953089525,25.44,2013-09-30 00:00:00,2013-10-25 00:00:00,104.89668847915972,17.074632291534773,626.8499013399062,3.9533711093713357
sz300053,2014-03-03,12.3,12.69,12.15,12.68,0.026720999999999998,4689716.0,58720301.72,1871564830.0,2536000000.0,0.03177319744782765,25.81,2013-09-30 00:00:00,2013-10-25 00:00:00,106.40724573968023,17.32051431271812,635.8768085135649,4.010301347297573
sz300053,2014-02-28,12.2,12.35,11.75,12.35,0.029167000000000002,4239692.0,51301459.78,1822856910.0,2470000000.0,0.028724249233583563,25.14,2013-09-30 00:00:00,2013-10-25 00:00:00,103.63793644006525,16.86973804248488,619.32775166142,3.905930965956255
sz300053,2014-02-27,12.5,12.83,11.82,12.0,-0.039231,7054650.0,87580104.87,1771197000.0,2400000000.0,0.04779581266228432,24.43,2013-09-30 00:00:00,2013-10-25 00:00:00,100.70079631397552,16.391642991356,601.7757581242112,3.795235336885321
sz300053,2014-02-26,12.23,12.57,11.81,12.49,-0.014984,6379718.0,78414193.74,1843520880.0,2498000000.0,0.043223094831451,25.42,2013-09-30 00:00:00,2013-10-25 00:00:00,104.81270348437089,17.06096157490094,626.3480171864529,3.9502058631006216
sz300053,2014-02-25,14.0,14.28,12.64,12.68,-0.096866,13275234.0,179813872.04,1871564830.0,2536000000.0,0.08994076209478674,25.81,2013-09-30 00:00:00,2013-10-25 00:00:00,106.40710758441578,17.320491824397717,635.875982914443,4.010296140469416
sz300053,2014-02-24,13.73,14.06,13.35,14.04,0.026316000000000003,7307697.0,100269789.1,2072300490.0,2808000000.0,0.04951022613520687,28.58,2013-09-30 00:00:00,2013-10-25 00:00:00,117.81984465695652,19.178208133452753,704.0771169222319,4.4404220641338
sz300053,2014-02-21,13.45,13.8,13.36,13.68,0.014085,4571010.0,62246159.3,2019164580.0,2736000000.0,0.030968954893216282,27.85,2013-09-30 00:00:00,2013-10-25 00:00:00,114.79879945061415,18.68645537383491,686.0237167911558,4.3265642006300205
sz300053,2014-02-20,13.85,13.93,13.14,13.49,-0.025993000000000002,7315055.0,98805215.99,1991120630.0,2698000000.0,0.04956007710592602,27.46,2013-09-30 00:00:00,2013-10-25 00:00:00,113.2043166505906,18.42691231389372,676.4952807616284,4.266470957197889
sz300053,2014-02-19,14.35,14.38,13.63,13.85,-0.036857,12692670.0,176765929.36,2044256540.0,2770000000.0,0.08599384473535791,28.19,2013-09-30 00:00:00,2013-10-25 00:00:00,116.22536249800115,18.918665177861886,694.5486847236502,4.380328844862397
sz300053,2014-02-18,14.68,14.7,14.29,14.38,-0.021103,9282041.0,134101815.13,2122484410.0000002,2876000000.0,0.06288656300660413,29.27,2013-09-30 00:00:00,2013-10-25 00:00:00,120.67300753678441,19.642633729219735,721.127272610246,4.547952738962332
sz300053,2014-02-17,14.32,14.87,14.02,14.69,0.030876999999999998,12447508.0,179291826.05,2168240330.0,2938000000.0,0.0843328527700617,29.9,2013-09-30 00:00:00,2013-10-25 00:00:00,123.27446864867744,20.066088392568098,736.6732890286169,4.645997218259256
sz300053,2014-02-14,13.87,14.49,13.61,14.25,0.025918,10517327.0,148092241.57,2103296440.0,2850000000.0,0.07125572358692339,29.01,2013-09-30 00:00:00,2013-10-25 00:00:00,119.58213118410579,19.465065563173976,714.608327694397,4.506839533968899
sz300053,2014-02-13,14.72,15.19,13.71,13.89,-0.035417000000000004,16103989.0,235293135.07,2050160530.0,2778000000.0,0.10910580119791889,28.27,2013-09-30 00:00:00,2013-10-25 00:00:00,116.56110057929172,18.973315180330175,696.5550148202848,4.392982220770957
sz300053,2014-02-12,14.7,14.72,14.1,14.4,-0.036145,12610589.0,181346794.67,2125436400.0,2880000000.0,0.085437739562567,29.31,2013-09-30 00:00:00,2013-10-25 00:00:00,120.84092356934728,19.66996637959634,722.1307184765694,4.554281197959074
sz300053,2014-02-11,14.37,15.09,14.04,14.94,0.031056,17130166.0,249920459.46,2205140270.0,2988000000.0,0.11605823154279432,30.41,2013-09-30 00:00:00,2013-10-25 00:00:00,125.37251305367225,20.407599047155784,749.2109481992305,4.725068810100143
sz300053,2014-02-10,14.18,14.82,14.1,14.49,0.002075,17437761.0,252252563.04,2138720380.0,2898000000.0,0.11814221216239593,29.49,2013-09-30 00:00:00,2013-10-25 00:00:00,121.59622081988977,19.792910421117558,726.6442833359494,4.582747018687775
sz300053,2014-02-07,13.26,14.88,13.25,14.46,0.068736,21887494.0,313456609.07,2134292390.0000002,2892000000.0,0.14828950556301237,29.43,2013-09-30 00:00:00,2013-10-25 00:00:00,121.34443112530475,19.751925176376574,725.1396186272976,4.573257509355861
sz300053,2014-01-30,13.06,13.88,12.8,13.53,0.070411,19216779.0,255494798.73,1997024620.0,2706000000.0,0.1301952000321358,27.54,2013-09-30 00:00:00,2013-10-25 00:00:00,113.5401363155211,18.481575596196418,678.5020983922107,4.2791274078498915
sz300053,2014-01-29,11.5,12.64,11.31,12.64,0.100087,8503327.0,104688874.72,1865660840.0,2528000000.0,0.057610714110288126,25.73,2013-09-30 00:00:00,2013-10-25 00:00:00,106.07153356563143,17.265868527319338,633.8706332354682,3.997648947787244
sz300053,2014-01-28,11.55,12.17,11.01,11.49,-0.036882,12701824.0,146395596.68,1695921130.0,2298000000.0,0.08605586378890155,23.39,2013-09-30 00:00:00,2013-10-25 00:00:00,96.42104085007043,15.695002783706505,576.2004579960204,3.633938904638673
sz300053,2014-01-17,11.57,12.34,11.56,11.93,0.031114999999999997,12295974.0,147421723.69,1760865020.0,2386000000.0,0.08330619789357846,24.28,2013-09-30 00:00:00,2013-10-25 00:00:00,100.11342415993722,16.296033075600814,598.2656932961697,3.7730983167573164
sz300053,2014-01-16,11.75,11.81,11.44,11.57,-0.016992,6200808.0,72099806.68,1707729110.0,2314000000.0,0.042010965404226205,23.55,2013-09-30 00:00:00,2013-10-25 00:00:00,97.09239431095195,15.80428281578758,580.2123849387989,3.6592410320452284
sz300053,2014-01-15,11.24,11.9,11.21,11.77,0.033363,9242185.0,107256061.6,1737249060.0,2354000000.0,0.06261653550700438,23.96,2013-09-30 00:00:00,2013-10-25 00:00:00,98.7707061498502,16.07747120652892,590.241773148132,3.7224936440448384
sz300053,2014-01-14,10.8,11.44,10.77,11.39,0.05463,6303405.0,70658667.5,1681161150.0,2278000000.0,0.04270606833259263,23.18,2013-09-30 00:00:00,2013-10-25 00:00:00,95.58181021562625,15.558396426549933,571.1853174035957,3.6023097827625317
sz300053,2014-01-13,10.7,10.98,10.51,10.8,0.014085,3998467.0,43241391.34,1594077300.0,2160000000.0,0.027089930707877217,21.98,2013-09-30 00:00:00,2013-10-25 00:00:00,90.63065740176768,14.752469042744783,541.5978280568501,3.4157095690076438
sz300053,2014-01-10,10.85,11.23,10.4,10.65,-0.037071,6442920.0,69699054.05,1571937340.0,2130000000.0,0.04365129337788999,21.68,2013-09-30 00:00:00,2013-10-25 00:00:00,89.37185482653594,14.547566567639583,534.0753763805303,3.3682675209747157
sz300053,2014-01-09,11.31,11.8,11.02,11.06,-0.033217,8609437.0,99386722.8,1632453240.0,2212000000.0,0.05832961758831144,22.51,2013-09-30 00:00:00,2013-10-25 00:00:00,92.81250728406344,15.107621192880869,554.6362986061592,3.4979396414218655
sz300053,2014-01-08,11.25,11.75,11.25,11.44,0.013286000000000001,8310177.0,95731138.81,1688541140.0,2288000000.0,0.05630210755777025,23.29,2013-09-30 00:00:00,2013-10-25 00:00:00,96.00138529955889,15.626693056126214,573.692647270545,3.6181228273789108
sz300053,2014-01-07,10.8,11.38,10.6,11.29,0.03578,4823720.0,53597702.83,1666401180.0,2258000000.0,0.0326810851154102,22.98,2013-09-30 00:00:00,2013-10-25 00:00:00,94.74263465552558,15.421799034158385,566.1705059287752,3.570682736541224
sz300053,2014-01-06,11.32,11.53,10.9,10.9,-0.033688,6586894.0,73963410.95,1608837280.0,2180000000.0,0.0446267285651163,22.19,2013-09-30 00:00:00,2013-10-25 00:00:00,91.46984364973797,14.889068174861832,546.6127034010846,3.4473370180359004
sz300053,2014-01-03,11.1,11.35,10.96,11.28,0.009848,6658085.0,74409882.6,1664925180.0,2256000000.0,0.04510905336899283,22.96,2013-09-30 00:00:00,2013-10-25 00:00:00,94.65870614225837,15.408137511343986,565.668959302052,3.567519618959404
sz300053,2014-01-02,10.39,11.52,10.35,11.17,0.066858,10444755.0,116735615.91,1648689210.0,2234000000.0,0.07076404251471992,22.74,2013-09-30 00:00:00,2013-10-25 00:00:00,93.73559797341618,15.257877929494327,560.15257672645,3.532729300805076
sz300053,2013-12-31,10.75,10.75,10.3,10.47,-0.026047000000000004,3172164.0,33283615.05,1545369380.0,2094000000.0,0.021491662452895244,21.31,2013-09-30 00:00:00,2013-10-25 00:00:00,87.86136296809524,14.301695192325806,525.0488600417767,3.311339747937472
sz300053,2013-12-30,10.58,11.09,10.58,10.75,0.019924,4589178.0,49570531.06,1586697310.0,2150000000.0,0.03109204458158437,21.88,2013-09-30 00:00:00,2013-10-25 00:00:00,90.21109126220182,14.684173869094101,539.090551640353,3.3998968614886675
sz300053,2013-12-27,9.85,10.85,9.78,10.54,0.068966,6908196.0,72840615.23,1555701370.0,2108000000.0,0.046803575058881636,21.45,2013-09-30 00:00:00,2013-10-25 00:00:00,88.44883664096719,14.397321632880589,528.5595315340682,3.3334805941311973
sz300053,2013-12-26,10.13,10.22,9.86,9.86,-0.035225,2939434.0,29542266.56,1455333540.0,1972000000.0,0.019914898161420783,20.07,2013-09-30 00:00:00,2013-10-25 00:00:00,82.74242271593968,13.468456090166187,494.45869329246045,3.118415921676833
sz300053,2013-12-25,9.95,10.24,9.85,10.22,0.034413,4020064.0,40612760.55,1508469450.0,2044000000.0,0.027236252003645156,20.8,2013-09-30 00:00:00,2013-10-25 00:00:00,85.76343988592124,13.960204286145666,512.5119258816412,3.2322727285396415
sz300053,2013-12-24,9.45,9.93,9.45,9.88,0.045502999999999995,2596208.0,25349061.43,1458285530.0,1976000000.0,0.017589514887389714,20.11,2013-09-30 00:00:00,2013-10-25 00:00:00,82.91024947087986,13.495774208314923,495.46160564652723,3.124741015957496
sz300053,2013-12-23,9.65,9.74,9.15,9.45,-0.01971,1858267.0,17467573.37,1394817640.0,1890000000.0,0.012589906125649515,19.24,2013-09-30 00:00:00,2013-10-25 00:00:00,79.30178055049086,12.908403140225252,473.8978325710468,2.9887441891199695
sz300053,2013-12-20,9.91,9.95,9.63,9.64,-0.019329,1768068.0,17304285.57,1422861590.0,1928000000.0,0.011978800777101587,19.62,2013-09-30 00:00:00,2013-10-25 00:00:00,80.89624555028702,13.167943302721902,483.426162228572,3.0488367616929377
sz300053,2013-12-19,9.84,10.11,9.8,9.83,0.002039,2090630.0,20826183.23,1450905540.0,1966000000.0,0.014164183906831041,20.01,2013-09-30 00:00:00,2013-10-25 00:00:00,82.49070845399427,13.427483124026203,492.9544793601238,3.108929255268013
sz300053,2013-12-18,9.83,9.89,9.73,9.81,0.0,1192492.0,11710594.51,1447953550.0,1962000000.0,0.008079227762520421,19.97,2013-09-30 00:00:00,2013-10-25 00:00:00,82.32285215844323,13.400160197383741,491.95139047494547,3.1026030476538473
sz300053,2013-12-17,9.82,9.94,9.65,9.81,-0.001018,1578514.0,15478228.41,1447953550.0,1962000000.0,0.010694557391015755,19.97,2013-09-30 00:00:00,2013-10-25 00:00:00,82.32285215844323,13.400160197383741,491.95139047494547,3.1026030476538473
sz300053,2013-12-16,10.03,10.12,9.8,9.82,-0.027723,2620760.0,26038266.7,1449429550.0,1964000000.0,0.01775585657129731,19.99,2013-09-30 00:00:00,2013-10-25 00:00:00,82.40674222202524,13.413815461523571,492.4527073310084,3.1057647161348725
sz300053,2013-12-13,10.25,10.3,10.05,10.1,-0.007859,2946457.0,29875110.55,1490757480.0,2020000000.0,0.019962479544291804,20.56,2013-09-30 00:00:00,2013-10-25 00:00:00,84.75644515094488,13.796290009455712,506.49424735030084,3.1943208737169266
sz300053,2013-12-12,9.99,10.4,9.91,10.18,0.016983,4277403.0,43704256.82,1502565460.0,2036000000.0,0.028979744110449603,20.72,2013-09-30 00:00:00,2013-10-25 00:00:00,85.42782240724341,13.905573914852537,510.50631649160835,3.2196238979307643
sz300053,2013-12-11,9.97,10.12,9.91,10.01,0.004012,2570344.0,25774767.05,1477473500.0,2002000000.0,0.017414284208819988,20.38,2013-09-30 00:00:00,2013-10-25 00:00:00,84.00122952619995,13.673359254631137,501.9811702767975,3.165858129320514
sz300053,2013-12-10,10.09,10.1,9.87,9.97,-0.003996,2256157.0,22481087.96,1471569510.0,1994000000.0,0.015285642395512803,20.29,2013-09-30 00:00:00,2013-10-25 00:00:00,83.66556328629535,13.618720946195005,499.9752694955813,3.1532074609870344
sz300053,2013-12-09,9.84,10.04,9.81,10.01,0.020387,3007164.0,29899036.38,1477473500.0,2002000000.0,0.020373774311349745,20.38,2013-09-30 00:00:00,2013-10-25 00:00:00,84.00123221020735,13.673359691522327,501.98118631610043,3.165858230476017
sz300053,2013-12-06,9.66,9.82,9.63,9.81,0.006154,2608264.0,25402133.28,1447953550.0,1962000000.0,0.01767119521202873,19.97,2013-09-30 00:00:00,2013-10-25 00:00:00,82.32291494325912,13.400170417226335,491.9517656693984,3.102605413902781
sz300053,2013-12-05,10.03,10.07,9.73,9.75,-0.027916000000000003,5273345.0,51755064.01,1439097560.0,1950000000.0,0.03572733022353259,19.85,2013-09-30 00:00:00,2013-10-25 00:00:00,81.8193983657165,13.318210151951227,488.94281160677036,3.083628762498366
sz300053,2013-12-04,10.08,10.42,9.95,10.03,-0.014735,5713246.0,58181073.92,1480425490.0,2006000000.0,0.0387076943534659,20.42,2013-09-30 00:00:00,2013-10-25 00:00:00,84.16906189765133,13.700678287011439,502.98411619445477,3.172183435277575
sz300053,2013-12-03,10.08,10.22,9.58,10.18,-0.043233,8020348.0,79648705.52,1502565460.0,2036000000.0,0.054338492939934875,20.72,2013-09-30 00:00:00,2013-10-25 00:00:00,85.42784113680212,13.905576963569638,510.506428417182,3.2196246038147858
sz300053,2013-12-02,11.09,11.36,10.64,10.64,-0.09983099999999999,8763885.0,95206207.98,1570461340.0,2128000000.0,0.05937601520327778,21.66,2013-09-30 00:00:00,2013-10-25 00:00:00,89.2880305620931,14.533922014000943,533.5744527321511,3.365108332347151
sz300053,2013-11-29,11.51,11.88,11.51,11.82,0.026933,7349974.0,86406813.72,1744629050.0,2364000000.0,0.0497966560169338,24.06,2013-09-30 00:00:00,2013-10-25 00:00:00,99.19029711320107,16.145770420888677,592.7491979085606,3.738307287128473
sz300053,2013-11-28,11.56,11.88,11.46,11.51,-0.006903,6782732.0,78984273.13,1698873120.0,2302000000.0,0.045953546736909934,23.43,2013-09-30 00:00:00,2013-10-25 00:00:00,96.58886910168538,15.722321145477533,577.2033792940343,3.640264055326368
sz300053,2013-11-27,11.05,11.75,10.9,11.59,0.049819,10704961.0,123182055.46,1710681100.0,2318000000.0,0.07252695899311683,23.59,2013-09-30 00:00:00,2013-10-25 00:00:00,97.26025665336354,15.831606726712025,581.2155099592833,3.665567467554899
sz300053,2013-11-26,10.9,11.12,10.75,11.04,0.003636,4121451.0,45133412.3,1629501240.0,2208000000.0,0.02792315705141777,22.47,2013-09-30 00:00:00,2013-10-25 00:00:00,92.64478605679982,15.080320252073951,553.6340168727021,3.491618524293139
sz300053,2013-11-25,10.88,11.18,10.81,11.0,0.018519,4723201.0,52254546.93,1623597250.0,2200000000.0,0.032000060975713035,22.39,2013-09-30 00:00:00,2013-10-25 00:00:00,92.3091499874455,15.025686854670372,551.628296387039,3.4789689930344663
sz300053,2013-11-22,10.91,11.0,10.65,10.8,-0.010081999999999999,3633742.0,39301682.73,1594077300.0,2160000000.0,0.024618889937144204,21.98,2013-09-30 00:00:00,2013-10-25 00:00:00,90.63075896222405,14.752485574319547,541.5984349698325,3.415713396642052
sz300053,2013-11-21,11.18,11.18,10.85,10.91,-0.029358999999999996,4614280.0,50756732.42,1610313270.0,2182000000.0,0.03126211261986309,22.21,2013-09-30 00:00:00,2013-10-25 00:00:00,91.55380441837008,14.90273494806595,547.1144427819603,3.450501351265511
sz300053,2013-11-20,10.89,11.31,10.77,11.24,0.033088,6923318.0,76551709.42,1659021190.0,2248000000.0,0.04690602795736443,22.88,2013-09-30 00:00:00,2013-10-25 00:00:00,94.32303438487563,15.353498304796469,563.663025549055,3.5548687426819088
sz300053,2013-11-19,10.91,11.1,10.74,10.88,0.0036899999999999997,5289035.0,57718931.98,1605885280.0,2176000000.0,0.035833631154524315,22.15,2013-09-30 00:00:00,2013-10-25 00:00:00,91.30203272603653,14.86175263365412,545.6098856525823,3.441012520406692
sz300053,2013-11-18,10.71,11.04,10.64,10.84,0.019755,5843087.0,63572552.4,1599981290.0,2168000000.0,0.039587377349893885,22.07,2013-09-30 00:00:00,2013-10-25 00:00:00,90.96636683242488,14.807114381586068,543.6039869407709,3.4283618651243835
sz300053,2013-11-15,10.56,10.86,10.48,10.63,0.020154,5797040.0,62178618.3,1568985340.0,2126000000.0,0.03927540533935136,21.64,2013-09-30 00:00:00,2013-10-25 00:00:00,89.20413906519201,14.520266516551592,533.073127310747,3.361946609846859
sz300053,2013-11-14,9.99,10.55,9.98,10.42,0.045135,3651555.0,37719861.41,1537989400.0,2084000000.0,0.024739574342970114,21.21,2013-09-30 00:00:00,2013-10-25 00:00:00,87.4418362964729,14.233406443097406,522.5418194809284,3.29552852789565
sz300053,2013-11-13,10.28,10.45,9.95,9.97,-0.023506,2512239.0,25756408.77,1471569510.0,1994000000.0,0.017020618230939023,20.29,2013-09-30 00:00:00,2013-10-25 00:00:00,83.66558989649462,13.618725277688918,499.9754285149081,3.153208463878494
sz300053,2013-11-12,10.15,10.29,10.02,10.21,0.013903,2002463.0,20431186.13,1506993450.0,2042000000.0,0.013566845449792767,20.78,2013-09-30 00:00:00,2013-10-25 00:00:00,85.67957396204649,13.946552951363673,512.0107532815441,3.2291119698415907
sz300053,2013-11-11,9.99,10.14,9.72,10.07,0.008008,1944636.0,19342433.54,1486329480.0,2014000000.0,0.013175062988052958,20.5,2013-09-30 00:00:00,2013-10-25 00:00:00,84.50470504776737,13.755312836990987,504.989878993892,3.1848332333976628
sz300053,2013-11-08,10.05,10.21,9.84,9.99,-0.013819999999999999,2511545.0,25194835.62,1474521500.0,1998000000.0,0.01701591638372177,20.34,2013-09-30 00:00:00,2013-10-25 00:00:00,83.83336744129745,13.646035385622918,500.9780467951564,3.159531703515907
sz300053,2013-11-07,10.2,10.31,10.03,10.13,-0.018411,2747387.0,27959529.69,1495185470.0,2026000000.0,0.018613764558586838,20.62,2013-09-30 00:00:00,2013-10-25 00:00:00,85.0081804957487,13.837266407372809,507.9985872712449,3.2038083347014816
sz300053,2013-11-06,10.58,10.74,10.32,10.32,-0.026414999999999998,3393136.0,35824660.97,1523229420.0,2064000000.0,0.022988765224873347,21.01,2013-09-30 00:00:00,2013-10-25 00:00:00,86.60262135756278,14.096802640792436,517.5267726831137,3.2638999975564937
sz300053,2013-11-05,10.35,10.71,10.1,10.6,0.023166,3893641.0,40909885.99,1564557350.0,2120000000.0,0.02637972625292387,21.58,2013-09-30 00:00:00,2013-10-25 00:00:00,88.95229626335941,14.479272627241007,531.5681452396182,3.352455098996486
sz300053,2013-11-04,10.18,10.47,10.18,10.36,0.0038759999999999997,3009989.0,31048853.82,1529133410.0,2072000000.0,0.02039291394463744,21.09,2013-09-30 00:00:00,2013-10-25 00:00:00,86.93828397675394,14.151440359864388,519.5326518273849,3.2765505294316717
sz300053,2013-11-01,10.84,10.84,10.15,10.32,-0.07194199999999999,8839149.0,92600248.16,1523229420.0,2064000000.0,0.05988593476614967,21.01,2013-09-30 00:00:00,2013-10-25 00:00:00,86.60261225166647,14.096801158573756,517.5267182673806,3.263899654371328
sz300053,2013-10-31,11.12,11.12,11.0,11.12,0.099901,8148187.0,90589021.02,1641309220.0,2224000000.0,0.05520461247393712,22.64,2013-09-30 00:00:00,2013-10-25 00:00:00,93.3159481968438,15.18956914177105,557.6448005053354,3.5169134411548937
sz300053,2013-10-30,9.9,10.13,9.62,10.11,0.021212,2787322.0,27746367.98,1492233470.0,2022000000.0,0.018884327410240973,20.58,2013-09-30 00:00:00,2013-10-25 00:00:00,84.84031580737158,13.809942114582176,506.99544823155486,3.1974818107765093
sz300053,2013-10-29,10.52,10.76,9.53,9.9,-0.064272,4374798.0,43736943.95,1461237530.0,1980000000.0,0.029639602946688617,20.15,2013-09-30 00:00:00,2013-10-25 00:00:00,83.078063915594,13.523090322657954,496.4644444361747,3.13106564628746
sz300053,2013-10-28,10.66,10.67,10.37,10.58,-0.0028280000000000002,2195689.0,23161564.3,1561605360.0,2116000000.0,0.014875966883207931,21.54,2013-09-30 00:00:00,2013-10-25 00:00:00,88.78441589392857,14.45194578195582,530.5649124918509,3.3461279840802667
sz300053,2013-10-25,10.85,10.99,10.48,10.61,-0.019409,3177184.0,33897807.09,1566033350.0,2122000000.0,0.021525673281478964,21.6,2013-09-30 00:00:00,2013-10-25 00:00:00,89.0362102966475,14.492931793066612,532.0696053357404,3.3556176708534404
sz300053,2013-10-24,10.9,11.06,10.76,10.82,-0.007339,3050582.0,33225735.84,1597029300.0,2164000000.0,0.020667934670954378,22.02,2013-06-30 00:00:00,2013-08-23 00:00:00,87.06508906465284,14.801275949749229,716.1303821238818,3.4612049467367725
sz300053,2013-10-23,11.55,11.55,10.8,10.9,-0.057093,5104813.0,56806740.28,1608837280.0,2180000000.0,0.03458551240185086,22.19,2013-06-30 00:00:00,2013-08-23 00:00:00,87.70878382917516,14.9107056182818,721.4249196088914,3.4867945318056943
sz300053,2013-10-22,11.9,11.92,11.34,11.56,-0.031014,6563796.0,76666417.74,1706253110.0,2312000000.0,0.04447023792384472,23.53,2013-06-30 00:00:00,2013-08-23 00:00:00,93.01954893661322,15.813548545383371,765.1071840689394,3.6979198710007397
sz300053,2013-10-21,11.8,12.05,11.72,11.93,0.010161,5569100.0,66576605.29,1760865020.0,2386000000.0,0.03773109366440819,24.28,2013-06-30 00:00:00,2013-08-23 00:00:00,95.99679348990927,16.319687328179533,789.5957052722531,3.8162779142327543
sz300053,2013-10-18,11.35,11.83,11.33,11.81,0.036874000000000004,4947018.0,57895633.73,1743153050.0,2362000000.0,0.03351643883478849,24.04,2013-06-30 00:00:00,2013-08-23 00:00:00,95.03118165313178,16.155530977912957,781.6533258285095,3.7778907661578245
sz300053,2013-10-17,11.37,11.64,11.27,11.39,0.007073,3974574.0,45596620.09,1681161150.0,2278000000.0,0.026928053779972257,23.18,2013-06-30 00:00:00,2013-08-23 00:00:00,91.65161982375079,15.58099728406051,753.8556524982877,3.6435389123054724
sz300053,2013-10-16,11.87,11.99,11.13,11.31,-0.05197,7122902.0,81636533.15,1669353170.0,2262000000.0,0.04825822544189376,23.02,2013-06-30 00:00:00,2013-08-23 00:00:00,91.00792079993286,15.471566891437371,748.5610799795919,3.6179491579115637
sz300053,2013-10-15,12.24,12.26,11.75,11.93,-0.028502,7365450.0,87894223.64,1760865020.0,2386000000.0,0.04990150721490282,24.28,2013-06-30 00:00:00,2013-08-23 00:00:00,95.99687857972096,16.319701793653547,789.5964051555245,3.8162812969120847
sz300053,2013-10-14,12.13,12.34,12.13,12.28,0.012366,5085909.0,62194163.89,1812524930.0,2456000000.0,0.03445743641164704,25.0,2013-06-30 00:00:00,2013-08-23 00:00:00,98.81325394362207,16.79849242474359,812.7617402768967,3.9282441105510095
sz300053,2013-10-11,12.3,12.4,11.89,12.13,-0.005738,8824421.0,107031188.28,1790384970.0,2426000000.0,0.05978615131582568,24.69,2013-06-30 00:00:00,2013-08-23 00:00:00,97.60625499436179,16.593299680889707,802.8338963150646,3.8802608054310492
sz300053,2013-10-10,12.89,12.99,12.2,12.2,-0.042386,11220153.0,140503305.28,1800716950.0,2440000000.0,0.07601742550376948,24.83,2013-06-30 00:00:00,2013-08-23 00:00:00,98.16955188306682,16.689061515867753,807.467142780338,3.9026542354339684
sz300053,2013-10-09,12.4,12.84,12.23,12.74,0.014331,12058491.0,151631333.88,1880420820.0,2548000000.0,0.08169723165477397,25.93,2013-06-30 00:00:00,2013-08-23 00:00:00,102.51474172585908,17.42775431005369,843.207328610837,4.075393880450754
sz300053,2013-10-08,12.3,12.61,12.03,12.56,0.025306,10373255.0,127389102.7,1853852860.0,2512000000.0,0.0702796244573585,25.57,2013-06-30 00:00:00,2013-08-23 00:00:00,101.06635972464518,17.18152586291229,831.2940535297028,4.017814579708945
sz300053,2013-09-30,11.8,12.37,11.78,12.25,0.039898,9488369.0,114593408.66,1808096940.0,2450000000.0,0.06428445161242295,24.94,2013-06-30 00:00:00,2013-08-23 00:00:00,98.57189924241658,16.757461541151898,810.7765423490184,3.9186492419911176
sz300053,2013-09-27,11.87,12.15,11.62,11.78,-0.007581999999999999,7244218.0,85792346.84,1738725060.0,2356000000.0,0.04908015073987603,23.98,2013-06-30 00:00:00,2013-08-23 00:00:00,94.78996905698115,16.11452425252467,779.669296747391,3.768301546873941
sz300053,2013-09-26,11.98,12.67,11.8,11.87,-0.021434,14779652.0,179633283.01,1752009030.0,2374000000.0,0.10013331337681518,24.16,2013-06-30 00:00:00,2013-08-23 00:00:00,95.51415739837562,16.237638024022807,785.6259124153239,3.7970910915299205
sz300053,2013-09-25,11.6,12.73,11.53,12.13,0.036752,20743244.0,253618481.01,1790384970.0,2426000000.0,0.14053712130972595,24.69,2013-06-30 00:00:00,2013-08-23 00:00:00,97.60624975563798,16.59329879029397,802.8338532253563,3.8802605971696553
sz300053,2013-09-24,11.49,11.94,11.36,11.7,0.018277,12381621.0,144904765.43,1726917080.0,2340000000.0,0.08388646297945006,23.82,2013-06-30 00:00:00,2013-08-23 00:00:00,94.14618901688927,16.0050800869388,774.3740578512087,3.7427085717410296
sz300053,2013-09-23,11.28,11.64,11.1,11.49,0.014122,10737628.0,122222086.17,1695921130.0,2298000000.0,0.07274828029296386,23.39,2013-06-30 00:00:00,2013-08-23 00:00:00,92.45636405112681,15.71780575122368,760.4748588558994,3.675530893598725
sz300053,2013-09-18,10.98,11.45,10.86,11.33,0.031876,6512961.0,73114425.5,1672305170.0,2266000000.0,0.044125826705421235,23.06,2013-06-30 00:00:00,2013-08-23 00:00:00,91.16887716776365,15.498929863688671,749.8849831242192,3.6243478532156144
sz300053,2013-09-17,11.36,11.51,10.94,10.98,-0.035149,6063925.0,67559383.4,1620645260.0,2196000000.0,0.04108357216927287,22.35,2013-06-30 00:00:00,2013-08-23 00:00:00,88.35255124430034,15.020147637592764,726.7200546618191,3.512387005042868
sz300053,2013-09-16,11.18,11.68,11.1,11.38,0.017889,7531315.0,85837859.24,1679685160.0,2276000000.0,0.05102525564969569,23.16,2013-06-30 00:00:00,2013-08-23 00:00:00,91.57118689238064,15.56732349097712,753.1940731385665,3.640341363633212
sz300053,2013-09-13,11.06,11.23,10.78,11.18,0.014518999999999999,5706380.0,63219638.92,1650165210.0,2236000000.0,0.03866117647699044,22.76,2013-06-30 00:00:00,2013-08-23 00:00:00,89.96185919327218,15.29373388549942,739.9569826754847,3.5763637917623745
sz300053,2013-09-12,10.87,11.29,10.73,11.02,0.011009,5850493.0,64604292.7,1626549250.0,2204000000.0,0.039637553464796714,22.43,2013-06-30 00:00:00,2013-08-23 00:00:00,88.67439564293245,15.074861964634886,729.3672988632887,3.525181678965475
sz300053,2013-09-11,11.5,11.51,10.74,10.9,-0.06837599999999999,12081562.0,133212258.75,1608837280.0,2180000000.0,0.08185353947044291,22.19,2013-06-30 00:00:00,2013-08-23 00:00:00,87.7088093606807,14.91070995869956,721.4251296113966,3.486795546790854
sz300053,2013-09-10,11.54,12.2,11.38,11.7,0.008621,14082309.0,165415168.76,1726917080.0,2340000000.0,0.09540875888493731,23.82,2013-06-30 00:00:00,2013-08-23 00:00:00,94.1461462571603,16.005072817681338,774.3737061426034,3.742706871861238
sz300053,2013-09-09,11.5,11.71,11.18,11.6,-0.010239,15536938.0,178001275.67,1712157100.0,2320000000.0,0.10526398588073489,23.61,2013-06-30 00:00:00,2013-08-23 00:00:00,93.34144961998639,15.868272440967758,767.7548912253496,3.7107167824794822
sz300053,2013-09-06,11.8,11.98,11.4,11.72,0.036251,29917327.0,351409293.86,1729869070.0,2344000000.0,0.20269226065762305,23.86,2013-06-30 00:00:00,2013-08-23 00:00:00,94.30705960326421,16.0324284761349,775.6972554236321,3.7491038568699735
sz300053,2013-09-05,10.29,11.31,10.29,11.31,0.100195,15111497.0,168048384.38,1669353170.0,2262000000.0,0.10238158955303628,23.02,2013-06-30 00:00:00,2013-08-23 00:00:00,91.00793109320445,15.471568641318465,748.5611646441182,3.6179495671125754
sz300053,2013-09-04,10.45,10.48,10.2,10.28,-0.016268,6060900.0,62546126.47,1517325430.0,2056000000.0,0.041063077681364635,20.93,2013-06-30 00:00:00,2013-08-23 00:00:00,82.71981884411804,14.062569491152445,680.389535167964,3.2884621063653037
sz300053,2013-09-03,10.35,10.53,10.22,10.45,0.015549,5801567.0,60106642.36,1542417390.0,2090000000.0,0.03930607599671837,21.27,2013-06-30 00:00:00,2013-08-23 00:00:00,84.08775849938604,14.295122544709782,691.6411534523263,3.3428434841657113
sz300053,2013-09-02,10.1,10.43,9.93,10.29,0.0058649999999999996,5919467.0,60582950.88,1518801430.0,2058000000.0,0.04010485783516809,20.95,2013-06-30 00:00:00,2013-08-23 00:00:00,82.80029668621212,14.076250919167643,681.0514839287187,3.2916614404284883
sz300053,2013-08-30,11.11,11.16,10.16,10.23,-0.089047,13844725.0,146305462.55,1509945440.0,2046000000.0,0.09379910889362997,20.82,2013-06-30 00:00:00,2013-08-23 00:00:00,82.31750452218948,13.994175082309896,677.0804073396715,3.272468413185157
sz300053,2013-08-29,11.34,11.43,10.9,11.23,-0.007073,9751328.0,109061712.8,1657545190.0,2246000000.0,0.06606601985916294,22.86,2013-06-30 00:00:00,2013-08-23 00:00:00,90.36416206125834,15.362126347144029,743.2660162924667,3.592357029599943
sz300053,2013-08-28,11.45,11.95,11.3,11.31,-0.034158999999999995,14678386.0,169777950.31,1669353170.0,2262000000.0,0.09944722820995391,23.02,2013-06-30 00:00:00,2013-08-23 00:00:00,91.00786065970443,15.471556667452923,748.5605853123811,3.617946767083525
sz300053,2013-08-27,11.04,11.98,11.0,11.71,0.053058,20802783.0,240692195.06,1728393070.0,2342000000.0,0.14094050315186696,23.84,2013-06-30 00:00:00,2013-08-23 00:00:00,94.22654521779924,16.01874083565817,775.0350060852471,3.745903070053482
sz300053,2013-08-26,11.25,11.65,11.05,11.12,0.010909,13731453.0,154932358.88,1641309220.0,2224000000.0,0.09303168196423096,22.64,2013-06-30 00:00:00,2013-08-23 00:00:00,89.47897002615169,15.211641557880165,735.9851082136474,3.5571669082362813
sz300053,2013-08-23,10.7,11.07,10.55,11.0,0.015697,14909181.0,161950725.2,1623597250.0,2200000000.0,0.1010108824710069,22.39,2013-06-30 00:00:00,2013-08-23 00:00:00,88.51337759002213,15.047488505770712,728.0428883446951,3.518780531419031
sz300053,2013-08-22,10.36,11.25,10.34,10.83,0.038350999999999996,15334112.0,166664030.03,1598505290.0,2166000000.0,0.10388982382410508,22.04,2013-03-31 00:00:00,2013-04-25 00:00:00,96.06329634625887,13.540391637298017,83.77996540216196,3.485129503355589
sz300053,2013-08-21,10.38,10.48,10.21,10.43,0.002885,5579788.0,57876209.47,1539465390.0,2086000000.0,0.037803505826136174,21.23,2013-03-31 00:00:00,2013-04-25 00:00:00,92.51524421535576,13.040283716487025,80.68559225364253,3.3564079038355903
sz300053,2013-08-20,10.27,10.45,10.22,10.4,0.01069,5831492.0,60378290.88,1535037400.0,2080000000.0,0.039508820306267456,21.17,2013-03-31 00:00:00,2013-04-25 00:00:00,92.24910554585595,13.002770722951308,80.45348395243973,3.3467525228072907
sz300053,2013-08-19,10.06,10.36,10.06,10.29,0.029,5160976.0,52801166.26,1518801430.0,2058000000.0,0.034966021226356093,20.95,2013-03-31 00:00:00,2013-04-25 00:00:00,91.2733929749537,12.86524129352354,79.60253287599534,3.3113541469761163
sz300053,2013-08-16,10.5,10.63,9.94,10.0,-0.056603999999999995,8769101.0,90142418.84,1475997500.0,2000000000.0,0.059411354016521034,20.36,2013-03-31 00:00:00,2013-04-25 00:00:00,88.70106217196667,12.502664036466028,77.35911844120052,3.218031240987479
sz300053,2013-08-15,10.38,10.84,10.34,10.6,0.015326,11765891.0,124874334.55,1564557350.0,2120000000.0,0.07971484369045341,21.58,2013-03-31 00:00:00,2013-04-25 00:00:00,94.02314846784029,13.25282705933248,82.000685227837,3.4111139341140717
sz300053,2013-08-14,10.31,10.55,10.15,10.44,0.00675,8435316.0,87429717.06,1540941390.0,2088000000.0,0.05714993419704301,21.25,2013-03-31 00:00:00,2013-04-25 00:00:00,92.6039010798899,13.052780150742207,80.76291282586776,3.3596243316078502
sz300053,2013-08-13,10.16,10.41,10.08,10.37,0.018664,7775371.0,79944248.89,1530609410.0,2074000000.0,0.05267875445114374,21.11,2013-03-31 00:00:00,2013-04-25 00:00:00,91.98301572375456,12.9652646145937,80.22141825266229,3.3370989139387635
sz300053,2013-08-12,10.23,10.35,9.89,10.18,-0.007797,9122556.0,92163432.07,1502565460.0,2036000000.0,0.061806039438707716,20.72,2013-03-31 00:00:00,2013-04-25 00:00:00,90.29769946101418,12.727714550228239,78.75159841975595,3.275956462522248
sz300053,2013-08-09,10.61,10.69,10.05,10.26,-0.032075,9935996.0,102434924.53,1514373440.0,2052000000.0,0.06731715986778004,20.88,2013-03-31 00:00:00,2013-04-25 00:00:00,91.00728324850276,12.827732379591918,79.37044981697895,3.3016998159875026
sz300053,2013-08-08,10.53,10.78,10.28,10.6,-0.004695,9585433.0,100586948.32,1564557350.0,2120000000.0,0.06494206799130757,21.58,2013-03-31 00:00:00,2013-04-25 00:00:00,94.02307332541547,13.25281646779649,82.00061969365287,3.411111207983576
sz300053,2013-08-07,11.2,11.21,10.64,10.65,-0.046553,11953897.0,129118591.54,1571937340.0,2130000000.0,0.08098859910662852,21.68,2013-03-31 00:00:00,2013-04-25 00:00:00,94.46659398417115,13.315331951307881,82.38742867126444,3.4272019210026836
sz300053,2013-08-06,10.88,11.44,10.85,11.17,0.027599000000000002,15406615.0,173030605.51,1648689210.0,2234000000.0,0.10438103707247529,22.74,2013-03-31 00:00:00,2013-04-25 00:00:00,99.07901958280969,13.965466304165709,86.41007698515435,3.594538470415958
sz300053,2013-08-05,10.76,11.05,10.7,10.87,-0.007306,10387942.0,112534625.92,1604409280.0,2174000000.0,0.07037913015561714,22.13,2013-03-31 00:00:00,2013-04-25 00:00:00,96.41797975942922,13.59038526133804,84.08929649129121,3.4979972444659424
sz300053,2013-08-02,11.19,11.66,10.92,10.95,-0.026667000000000003,17624792.0,199762472.45,1616217260.0,2190000000.0,0.11940936232793356,22.29,2013-03-31 00:00:00,2013-04-25 00:00:00,97.12759396090762,13.690407377639072,84.70817441355666,3.523741701335903
sz300053,2013-08-01,10.73,11.42,10.63,11.25,0.034007,16147463.0,179473632.07,1660497190.0,2250000000.0,0.10940034096052882,22.9,2013-03-31 00:00:00,2013-04-25 00:00:00,99.78865810663731,14.065491848770229,87.02897611974181,3.6202838096888765
sz300053,2013-07-31,11.0,11.07,10.51,10.88,-0.028571,15133624.0,163234628.41,1605885280.0,2176000000.0,0.10253150157774657,22.15,2013-03-31 00:00:00,2013-04-25 00:00:00,96.50675295876847,13.602898093311001,84.16671852293246,3.5012178928081497
sz300053,2013-07-30,11.52,11.69,10.57,11.2,-0.045997,26892352.0,298045273.25,1653117200.0,2240000000.0,0.18219781537570354,22.8,2013-03-31 00:00:00,2013-04-25 00:00:00,99.34514304058092,14.002977153565523,86.64217201970752,3.604193299570169
sz300053,2013-07-29,11.42,12.17,11.35,11.74,0.061483,41337046.0,487599822.61,1732821070.0,2348000000.0,0.28006176081411566,23.9,2013-03-31 00:00:00,2013-04-25 00:00:00,104.1350425948146,14.678126959313044,90.81960121688036,3.7779685174681514
sz300053,2013-07-26,10.65,11.06,10.65,11.06,0.100498,10582312.0,116484653.4,1632453240.0,2212000000.0,0.07169600197552979,22.51,2013-03-31 00:00:00,2013-04-25 00:00:00,98.10335407615064,13.82794350857531,85.5591669549869,3.5591418020525545
sz300053,2013-07-25,11.1,11.1,10.01,10.05,-0.094595,15206632.0,159719260.31,1483377490.0,2010000000.0,0.10302613638825005,20.46,2013-03-31 00:00:00,2013-04-25 00:00:00,89.14450919143026,12.56516914031221,77.74586319555955,3.2341192824090133
sz300053,2013-07-24,10.8,11.28,10.68,11.1,0.022099,16651298.0,183020945.21,1638357230.0,2220000000.0,0.11281386282282284,22.59,2013-03-31 00:00:00,2013-04-25 00:00:00,98.4581587150836,13.877954219727316,85.8686037690973,3.572013941174406
sz300053,2013-07-23,10.82,11.08,10.52,10.86,0.010232999999999999,14701633.0,158136356.85,1602933290.0,2172000000.0,0.0996047280170967,22.11,2013-03-31 00:00:00,2013-04-25 00:00:00,96.32937583843011,13.577896289622936,84.01202209286703,3.4947827374592926
sz300053,2013-07-22,9.98,10.78,9.85,10.75,0.052889,14125688.0,147634030.92,1586697310.0,2150000000.0,0.09570265547371476,21.88,2013-03-31 00:00:00,2013-04-25 00:00:00,95.35362222223004,13.440361074745072,83.16103521946624,3.4593828725247473
sz300053,2013-07-19,10.66,11.55,10.2,10.21,-0.044902,24440507.0,268499086.95,1506993450.0,2042000000.0,0.16558637097593226,20.78,2013-03-31 00:00:00,2013-04-25 00:00:00,90.56379373536056,12.765221286142292,78.98366800248291,3.28561023291605
sz300053,2013-07-18,10.33,10.79,9.91,10.69,0.025912,18507378.0,193913350.87,1577841330.0,2138000000.0,0.1253889520183883,21.76,2013-03-31 00:00:00,2013-04-25 00:00:00,94.8214672581877,13.365352336767842,82.69692534429232,3.440076550171867
sz300053,2013-07-17,10.26,10.93,10.12,10.42,0.01165,23561565.0,248540302.03,1537989400.0,2084000000.0,0.1596314690465357,21.21,2013-03-31 00:00:00,2013-04-25 00:00:00,92.42651149239671,13.027776589773627,80.6082055227859,3.353188723956701
sz300053,2013-07-16,10.15,10.47,10.01,10.3,0.009804,14143602.0,144996836.29,1520277430.0,2060000000.0,0.09582402377702864,20.97,2013-03-31 00:00:00,2013-04-25 00:00:00,91.36214253190008,12.877750793034773,79.67993428832689,3.3145739375838494
sz300053,2013-07-15,9.65,10.26,9.61,10.2,0.045082,13548220.0,136115672.3,1505517450.0,2040000000.0,0.09179026387239816,20.76,2013-03-31 00:00:00,2013-04-25 00:00:00,90.47512441216324,12.752723095803516,78.90633656464709,3.2823933531495713
sz300053,2013-07-12,9.61,10.08,9.48,9.76,0.0072239999999999995,11906162.0,117735845.37,1440573560.0,1952000000.0,0.08066519082857525,19.87,2013-03-31 00:00:00,2013-04-25 00:00:00,86.57227319211624,12.202605246098884,75.50253144217113,3.1407998158513597
sz300053,2013-07-11,9.48,9.78,9.26,9.69,0.007277,11277372.0,107501997.11,1430241580.0,1938000000.0,0.07640508862845395,19.72,2013-03-31 00:00:00,2013-04-25 00:00:00,85.95136056340621,12.115085865804316,74.96101308365482,3.118273408746575
sz300053,2013-07-10,9.52,9.84,9.42,9.62,0.0,11577173.0,111596586.72,1419909600.0,1924000000.0,0.07843626401286391,19.58,2013-03-31 00:00:00,2013-04-25 00:00:00,85.33041116138482,12.027561302208147,74.41946265392222,3.0957456675240027
sz300053,2013-07-09,9.38,9.66,9.12,9.62,0.032188999999999995,8609313.0,81325632.26,1419909600.0,1924000000.0,0.058328777451747624,19.58,2013-03-31 00:00:00,2013-04-25 00:00:00,85.33041116138482,12.027561302208147,74.41946265392222,3.0957456675240027
sz300053,2013-07-08,9.29,9.68,9.0,9.32,-0.027139999999999997,10290692.0,96018533.83,1375629670.0,1864000000.0,0.06972025359121543,18.97,2013-03-31 00:00:00,2013-04-25 00:00:00,82.66936690992135,11.652479635229737,72.09867829818204,2.9992042809252983
sz300053,2013-07-05,10.28,10.6,9.56,9.58,-0.082375,16429251.0,167016716.38,1414005610.0,1916000000.0,0.1113094767566021,19.5,2013-03-31 00:00:00,2013-04-25 00:00:00,84.97560482486827,11.977550351776962,74.11002435929325,3.0828734668146476
sz300053,2013-07-04,10.7,10.86,10.39,10.44,-0.050908999999999996,20755182.0,220485154.29,1540941390.0,2088000000.0,0.14061800240176558,21.25,2013-03-31 00:00:00,2013-04-25 00:00:00,92.60384669649179,13.05277248524938,80.76286539631468,3.3596223586047107
sz300053,2013-07-03,10.4,11.59,10.25,11.0,0.034807,28293019.0,309390962.76,1623597250.0,2200000000.0,0.19168744527006312,22.39,2013-03-31 00:00:00,2013-04-25 00:00:00,97.57109349524102,13.752919883603765,85.09496496786365,3.5398316479712806
sz300053,2013-07-02,10.62,10.97,10.41,10.63,-0.020276,24395705.0,260920886.17,1568985340.0,2126000000.0,0.16528283441450128,21.64,2013-03-31 00:00:00,2013-04-25 00:00:00,94.28917034310842,13.290323590392957,82.23269166894276,3.4207650779046532
sz300053,2013-07-01,10.23,11.05,9.8,10.85,0.023585,33980495.0,351850932.46,1601457290.0,2170000000.0,0.23022054540711478,22.09,2013-03-31 00:00:00,2013-04-25 00:00:00,96.24054360524843,13.565375136663954,83.93454857586703,3.491559947398097
sz300053,2013-06-28,9.73,10.86,9.5,10.6,0.073961,34916903.0,368860853.62,1564557350.0,2120000000.0,0.2365647841544447,21.58,2013-03-31 00:00:00,2013-04-25 00:00:00,94.02301089332927,13.252807667818455,82.00056524457376,3.411108942977962
sz300053,2013-06-27,10.15,10.37,9.73,9.87,-0.034247,25233821.0,252691448.4,1456809530.0,1974000000.0,0.17096113674517216,20.09,2013-03-31 00:00:00,2013-04-25 00:00:00,87.54788199322812,12.340120048883017,76.3533920175628,3.176194426965189
sz300053,2013-06-26,9.54,10.38,9.45,10.22,0.044989999999999995,32522542.0,324461489.01,1508469450.0,2044000000.0,0.22034279795324993,20.8,2013-03-31 00:00:00,2013-04-25 00:00:00,90.65245667704697,12.77771857698917,79.06099387479284,3.288826881164428
sz300053,2013-06-25,8.9,10.12,8.32,9.78,0.058441999999999994,38022897.0,341733313.12,1443525560.0,1956000000.0,0.25760813868789406,19.91,2013-03-31 00:00:00,2013-04-25 00:00:00,86.7495925100211,12.227598902371474,75.65717746083008,3.1472328741561424
sz300053,2013-06-24,9.24,9.24,9.0,9.24,0.1,29209535.0,269767004.88,1363821690.0,1848000000.0,0.19789691378203553,18.81,2013-03-31 00:00:00,2013-04-25 00:00:00,81.95970351707615,11.552450585267284,71.47975747450506,2.97345803941656
sz300053,2013-06-21,8.54,8.68,7.97,8.4,-0.05191900000000001,7475918.0,62328229.4,1239837900.0,1680000000.0,0.05064993673769773,17.1,2013-03-31 00:00:00,2013-04-25 00:00:00,74.50882137916012,10.502227804788438,64.9815977040955,2.7031436721968727
sz300053,2013-06-20,9.04,9.4,8.67,8.86,-0.036957,12699856.0,115649773.38,1307733790.0,1772000000.0,0.08604253023086601,18.03,2013-03-31 00:00:00,2013-04-25 00:00:00,78.58908825212204,11.07735288945611,68.54013286216632,2.8511737627870115
sz300053,2013-06-19,8.68,9.2,8.66,9.2,0.045455,14970917.0,133863674.12,1357917700.0,1840000000.0,0.10142914876210833,18.73,2013-03-31 00:00:00,2013-04-25 00:00:00,81.60496286471326,11.502448893202184,71.17037646519036,2.9605882216962396
sz300053,2013-06-18,8.46,8.88,8.38,8.8,0.028037,12188163.0,106017940.05,1298877800.0,1760000000.0,0.0825757699454098,17.91,2013-03-31 00:00:00,2013-04-25 00:00:00,78.05688706325307,11.002337635959638,68.0759826727983,2.8318657634199838
sz300053,2013-06-17,8.29,8.75,8.15,8.56,0.027611,11215419.0,95097235.41,1263453860.0,1712000000.0,0.07598535227871321,17.42,2013-03-31 00:00:00,2013-04-25 00:00:00,75.92809117108925,10.70227787128249,66.21938964531267,2.754634087508508
sz300053,2013-06-14,8.07,8.53,8.06,8.33,0.032218000000000004,7988914.0,66610765.18,1229505920.0,1666000000.0,0.054125525170305805,16.96,2013-03-31 00:00:00,2013-04-25 00:00:00,73.8879704198274,10.414717116965944,64.44013312947475,2.680619502426996
sz300053,2013-06-13,8.18,8.18,7.82,8.07,-0.014652000000000002,4401904.0,35180720.2,1191129980.0,1614000000.0,0.02982324840820479,16.43,2013-03-31 00:00:00,2013-04-25 00:00:00,71.58174961086455,10.089648811555254,62.42880198705577,2.596950937134399
sz300053,2013-06-07,8.22,8.3,8.05,8.19,-0.00365,4255944.0,34849474.09,1208841950.0,1638000000.0,0.028834357841403497,16.67,2013-03-31 00:00:00,2013-04-25 00:00:00,72.64616116424304,10.239680611880527,63.3571103681702,2.6355672687562155
sz300053,2013-06-06,8.56,8.56,8.2,8.22,-0.044186,8137704.0,67894928.51,1213269950.0,1644000000.0,0.05513358909119937,16.73,2013-03-31 00:00:00,2013-04-25 00:00:00,72.91229102648973,10.277192364009162,63.589210988277415,2.6452223302616704
sz300053,2013-06-05,8.53,8.73,8.47,8.6,0.0,4060920.0,34941699.62,1269357850.0,1720000000.0,0.02751305473078376,17.51,2013-03-31 00:00:00,2013-04-25 00:00:00,76.2829285054307,10.752293190944226,66.52885497416592,2.7675074128038206
sz300053,2013-06-04,8.92,8.97,8.28,8.6,-0.048673,10721880.0,92776882.4,1269357850.0,1720000000.0,0.07264158645255157,17.51,2013-03-31 00:00:00,2013-04-25 00:00:00,76.2829285054307,10.752293190944226,66.52885497416592,2.7675074128038206
sz300053,2013-06-03,9.05,9.36,9.0,9.04,0.0,7637328.0,70026407.89,1334301740.0,1808000000.0,0.051743502275579736,18.4,2013-03-31 00:00:00,2013-04-25 00:00:00,80.18581256017194,11.302415668791303,69.93268873286044,2.909102141328713
sz300053,2013-05-31,9.25,9.28,9.04,9.04,-0.023758,7305942.0,66669089.97,1334301740.0,1808000000.0,0.049498335871165096,18.4,2013-03-31 00:00:00,2013-04-25 00:00:00,80.18581256017194,11.302415668791303,69.93268873286044,2.909102141328713
sz300053,2013-05-30,9.23,9.44,9.02,9.26,-0.012793,10456246.0,96275864.35,1366773690.0,1852000000.0,0.07084189479825295,18.85,2013-03-31 00:00:00,2013-04-25 00:00:00,82.1372288430245,11.57747327895266,71.63458315956538,2.9798985715926096
sz300053,2013-05-29,9.21,9.42,9.01,9.38,0.020675,10776619.0,99942307.0,1384485660.0,1876000000.0,0.07301244725062737,19.09,2013-03-31 00:00:00,2013-04-25 00:00:00,83.20162726056897,11.727503227745204,72.56288008448621,3.018514426652779
sz300053,2013-05-28,9.76,9.77,8.95,9.19,-0.067308,19566174.0,181042999.36,1356441700.0,1838000000.0,0.13256237924563954,18.71,2013-03-31 00:00:00,2013-04-25 00:00:00,81.51627820860605,11.489948541646662,71.0930316550187,2.9573707856592737
sz300053,2013-05-27,9.93,10.2,9.83,9.88,-0.021782,15901851.0,158746279.43,1458285530.0,1976000000.0,0.1077363003663624,20.06,2013-03-31 00:00:00,2013-04-25 00:00:00,87.39892505629517,12.319124149930161,76.22348176570478,3.1707903419985097
sz300053,2013-05-24,10.58,10.74,9.95,10.1,-0.018465000000000002,33346052.0,343798483.96,1490757480.0,2020000000.0,0.22592214341933067,20.5,2013-03-31 00:00:00,2013-04-25 00:00:00,89.34503868901939,12.593434336651095,77.92075157654507,3.241394394703951
sz300053,2013-05-23,9.26,10.29,9.26,10.29,0.100535,13906263.0,138823020.48,1518801430.0,2058000000.0,0.09421603340865961,20.89,2013-03-31 00:00:00,2013-04-25 00:00:00,91.02583065200872,12.830346688249623,79.38662561859238,3.3023727067337902
sz300053,2013-05-22,9.17,9.8,9.1,9.35,0.049382999999999996,21267555.0,201388572.98,1380057660.0,1870000000.0,0.14408937033109182,18.98,2013-03-31 00:00:00,2013-04-25 00:00:00,82.71052774515006,11.658281370651203,72.13457601856585,3.000697575936967
sz300053,2013-05-21,8.1,8.91,8.07,8.91,0.1,9272013.0,79531348.44,1315113770.0,1782000000.0,0.06281862277968545,18.09,2013-03-31 00:00:00,2013-04-25 00:00:00,78.81824628867636,11.109653358832004,68.73998913510688,2.8594875045021384
sz300053,2013-05-20,7.82,8.14,7.81,8.1,0.035806,8069221.0,64448846.68,1195557980.0,1620000000.0,0.054669611339133874,16.44,2013-03-31 00:00:00,2013-04-25 00:00:00,71.65295117152397,10.09968487166546,62.490899213733535,2.5995340950019443
sz300053,2013-05-17,7.8,7.93,7.76,7.82,-0.0025510000000000003,5599517.0,43853313.03,1154230050.0,1564000000.0,0.037937171138457196,15.87,2013-03-31 00:00:00,2013-04-25 00:00:00,69.17603409472812,9.750556447506057,60.330698232809546,2.5096727524284894
sz300053,2013-05-16,7.92,8.09,7.75,7.84,-0.013836000000000001,6692779.0,52817985.41,1157182040.0,1568000000.0,0.04534410796766255,15.92,2013-03-31 00:00:00,2013-04-25 00:00:00,69.3529534790532,9.77549373201643,60.484995456218364,2.516091301338203
sz300053,2013-05-15,7.83,8.04,7.75,7.95,0.0063289999999999996,6374257.0,50277221.58,1173418010.0,1590000000.0,0.04318609627442142,16.14,2013-03-31 00:00:00,2013-04-25 00:00:00,70.32598379078244,9.912645089474395,61.33360724607505,2.5513923661157807
sz300053,2013-05-14,7.95,8.01,7.76,7.9,-0.010025,4128665.0,32452454.65,1166038030.0,1580000000.0,0.027972032353009962,16.04,2013-03-31 00:00:00,2013-04-25 00:00:00,69.88368991729588,9.85030252479497,60.947868188311226,2.535346160267448
sz300053,2013-05-13,7.85,8.3,7.8,7.98,0.015267,9504228.0,76755371.34,1177846010.0,1596000000.0,0.06439189740940754,16.2,2013-03-31 00:00:00,2013-04-25 00:00:00,70.59136838535912,9.950051794030122,61.56505789369553,2.5610203896739296
sz300053,2013-05-10,8.05,8.08,7.76,7.86,-0.047273,8233875.0,65092841.15,1160134040.0,1572000000.0,0.055785155222236225,15.96,2013-03-31 00:00:00,2013-04-25 00:00:00,69.52985607269726,9.80042864983312,60.63927803592112,2.5225092410902055
sz300053,2013-05-09,8.08,8.25,7.99,8.25,0.017263,7835221.0,63614132.67,1217697940.0,1650000000.0,0.053084242919882084,16.75,2013-03-31 00:00:00,2013-04-25 00:00:00,72.97983165450046,10.286712405372285,63.648115394988416,2.6476726712796066
sz300053,2013-05-08,8.15,8.26,7.96,8.11,-0.013382,9335815.0,75467198.35,1197033970.0,1622000000.0,0.06325088639715044,16.46,2013-03-31 00:00:00,2013-04-25 00:00:00,71.74136054737117,10.11214642169457,62.56800394292175,2.60274154400544
sz300053,2013-05-07,7.89,8.5,7.71,8.22,0.019851,13912763.0,111880456.67,1213269950.0,1644000000.0,0.09426007119025738,16.69,2013-03-31 00:00:00,2013-04-25 00:00:00,72.71442498248683,10.249302588939765,63.416645492907854,2.638043846762821
sz300053,2013-05-06,7.66,8.21,7.55,8.06,0.078983,19748259.0,157380112.75,1189653990.0,1612000000.0,0.13379601873986907,16.36,2013-03-31 00:00:00,2013-04-25 00:00:00,71.29906719950937,10.04980393110343,62.18226534357259,2.586695357226517
sz300053,2013-05-03,7.47,7.47,7.41,7.47,0.100147,6990508.0,52212553.84,1102570130.0,1494000000.0,0.0473612456379532,15.16,2013-03-31 00:00:00,2013-04-25 00:00:00,66.07988003472656,9.314144829995866,57.63044027901514,2.3973457943512706
sz300053,2013-05-02,6.72,6.81,6.56,6.79,0.010417000000000001,1343369.0,9044379.34,1002202300.0,1358000000.0,0.009101431427567069,13.78,2013-03-31 00:00:00,2013-04-25 00:00:00,60.064591399809814,8.466272988969536,52.38430889600676,2.179114058713309
sz300053,2013-04-26,6.71,6.83,6.64,6.72,0.0029850000000000002,1696536.0,11384436.08,991870320.0,1344000000.0,0.01149416580990144,13.64,2013-03-31 00:00:00,2013-04-25 00:00:00,59.44534919722234,8.37898905993222,51.84424737114157,2.1566482538529232
sz300053,2013-04-25,6.73,6.96,6.62,6.7,-0.013255000000000001,3548117.0,24191410.7,988918330.0,1340000000.0,0.024038773656870127,13.6,2013-03-31 00:00:00,2013-04-25 00:00:00,59.26843292494139,8.354052214073212,51.68995286184895,2.150229817846651
sz300053,2013-04-24,6.51,6.87,6.43,6.79,0.052713,4403140.0,29617293.87,1002202300.0,1358000000.0,0.02983162241794895,13.78,2012-12-31 00:00:00,2013-04-20 00:00:00,52.550714793086975,8.291454735301405,45.70104324050594,2.1754014998043347
sz300053,2013-04-23,6.55,6.67,6.41,6.45,-0.016768,3188868.0,20771350.44,952018390.0,1290000000.0,0.0216048332847856,13.09,2012-12-31 00:00:00,2013-04-20 00:00:00,49.91931779420125,7.876272768837666,43.41263311130949,2.0664715832371545
sz300053,2013-04-22,6.42,6.61,6.31,6.56,0.020218,2722922.0,17730370.36,968254360.0,1312000000.0,0.01844801227644356,13.32,2012-12-31 00:00:00,2013-04-20 00:00:00,50.77063988377234,8.010594416005242,44.15299045526334,2.1017131086428784
sz300053,2013-04-19,6.4,6.48,6.35,6.43,-0.003101,2133743.0,13695098.6,949066390.0,1286000000.0,0.014456277911179637,13.05,2012-09-30 00:00:00,2012-10-26 00:00:00,37.052404884072836,6.953240852353291,177.1018616569013,2.1032590484352287
sz300053,2013-04-18,6.23,6.5,6.2,6.45,0.02707,2115924.0,13416193.26,952018390.0,1290000000.0,0.014335552698724652,13.09,2012-09-30 00:00:00,2012-10-26 00:00:00,37.16766180332495,6.974869923987576,177.65276287457536,2.1098015430201342
sz300053,2013-04-17,6.12,6.31,6.08,6.28,0.026144,1175279.0,7287647.77,926926430.0,1256000000.0,0.00796260833775125,12.75,2012-09-30 00:00:00,2012-10-26 00:00:00,36.188051255829635,6.7910365641948225,172.9704527194596,2.0541944979603475
sz300053,2013-04-16,6.01,6.13,5.97,6.12,0.006579000000000001,732510.0,4441762.63,903310470.0,1224000000.0,0.004962813283897838,12.42,2012-09-30 00:00:00,2012-10-26 00:00:00,35.2660555008163,6.618015175447914,168.56352784741676,2.0018579243852206
sz300053,2013-04-15,6.17,6.18,6.0,6.08,-0.016181,1116538.0,6765453.35,897406480.0,1216000000.0,0.007564633408931926,12.34,2012-09-30 00:00:00,2012-10-26 00:00:00,35.0355565741152,6.574759830522904,167.4617966870129,1.9887737816755773
sz300053,2013-04-12,6.35,6.38,6.17,6.18,-0.028301999999999997,975751.0,6119233.91,912166460.0,1236000000.0,0.006610790293692667,12.55,2012-09-30 00:00:00,2012-10-26 00:00:00,35.61179096369881,6.682895766927559,170.21606279916622,2.0214834046461565
sz300053,2013-04-11,6.36,6.44,6.29,6.36,-0.004695,860324.0,5465542.64,938734410.0,1272000000.0,0.0058287632601003725,12.91,2012-09-30 00:00:00,2012-10-26 00:00:00,36.64903186349957,6.877544017716985,175.17383260968555,2.080361804435284
sz300053,2013-04-10,6.43,6.53,6.32,6.39,-0.010836,1193122.0,7662283.57,943162400.0,1278000000.0,0.008083496097808819,12.97,2012-09-30 00:00:00,2012-10-26 00:00:00,36.82191073439757,6.909986403883217,176.00015332956787,2.0901751768907864
sz300053,2013-04-09,6.32,6.51,6.25,6.46,0.014129,1553692.0,9965616.06,953494390.0,1292000000.0,0.010526386337731886,13.11,2012-09-30 00:00:00,2012-10-26 00:00:00,37.225283910855595,6.985683267772802,177.9281831218765,2.1130724297394425
sz300053,2013-04-08,6.15,6.43,6.02,6.37,-0.01849,2064908.0,12974591.14,940210410.0,1274000000.0,0.013989915257373082,12.93,2012-09-30 00:00:00,2012-10-26 00:00:00,36.70665557424706,6.888357662361298,175.44926051998954,2.0836327821603
sz300053,2013-04-03,6.46,6.58,6.34,6.49,0.0015429999999999999,1660497.0,10691279.26,957922380.0,1298000000.0,0.011249998700312232,13.17,2012-09-30 00:00:00,2012-10-26 00:00:00,37.398147318159836,7.018122752046641,178.75442992938386,2.1228849244126904
sz300053,2013-04-02,6.68,6.74,6.46,6.48,-0.034276999999999995,2330402.0,15336849.47,956446380.0,1296000000.0,0.015788658178621576,13.15,2012-09-30 00:00:00,2012-10-26 00:00:00,37.340530879013514,7.007310471988362,178.47903677563903,2.1196143594560493
sz300053,2013-04-01,6.9,6.98,6.64,6.71,-0.024709000000000002,2624306.0,17668212.59,990394320.0,1342000000.0,0.017779881108365,13.62,2012-09-30 00:00:00,2012-10-26 00:00:00,38.6658812920615,7.256025249464247,184.81390292624178,2.1948471346918828
sz300053,2013-03-29,6.88,7.04,6.78,6.88,0.0,2335923.0,16146285.98,1015486280.0,1376000000.0,0.01582606339102878,13.97,2012-09-30 00:00:00,2012-10-26 00:00:00,39.64548149430426,7.439856667870664,189.49616363346098,2.2504535925091926
sz300053,2013-03-28,6.78,7.17,6.69,6.88,0.004379999999999999,4552691.0,31709939.29,1015486280.0,1376000000.0,0.030844842216873673,13.97,2012-09-30 00:00:00,2012-10-26 00:00:00,39.64548149430426,7.439856667870664,189.49616363346098,2.2504535925091926
sz300053,2013-03-27,6.64,7.05,6.63,6.85,0.030075,3743439.0,25717454.26,1011058290.0,1370000000.0,0.02536209574029604,13.91,2012-09-30 00:00:00,2012-10-26 00:00:00,39.47259154334442,7.407412202424047,188.66978995346483,2.240639591100174
sz300053,2013-03-26,6.77,6.8,6.43,6.65,-0.017725,1727414.0,11411326.18,981538340.0,1330000000.0,0.011703366676435687,13.5,2012-09-30 00:00:00,2012-10-26 00:00:00,38.32011411144278,7.191138705845736,183.16121637110385,2.1752198539913827
sz300053,2013-03-25,6.66,6.85,6.62,6.77,0.016517,2228658.0,15099374.0,999250310.0,1354000000.0,0.01509933448006636,13.74,2012-09-30 00:00:00,2012-10-26 00:00:00,39.011594626192036,7.320901688270328,186.4663321077131,2.2144713588265845
sz300053,2013-03-22,6.7,6.77,6.59,6.66,-0.016248,2344188.0,15633457.73,983014340.0,1332000000.0,0.015882059340049912,13.52,2012-09-30 00:00:00,2012-10-26 00:00:00,38.37770999028254,7.201947127564349,183.43651125137416,2.178489251853717
sz300053,2013-03-21,6.65,6.89,6.63,6.77,0.022659000000000002,3264474.0,22227319.07,999250310.0,1354000000.0,0.022117069926152935,13.74,2012-09-30 00:00:00,2012-10-26 00:00:00,39.01156997930631,7.320897063044698,186.46621430134235,2.2144699597598954
sz300053,2013-03-20,6.51,6.62,6.42,6.62,0.024768000000000002,2013153.0,13191288.75,977110350.0,1324000000.0,0.013639270999432152,13.44,2012-09-30 00:00:00,2012-10-26 00:00:00,38.14719273903256,7.158688343861148,182.33469250389655,2.165404068961301
sz300053,2013-03-19,6.56,6.63,6.28,6.46,-0.01374,2152551.0,13805940.07,953494390.0,1292000000.0,0.014583703486708505,13.11,2012-09-30 00:00:00,2012-10-26 00:00:00,37.22519900995403,6.985667335300429,177.92777731535,2.1130676103872306
sz300053,2013-03-18,6.65,6.74,6.53,6.55,-0.032496,2401282.0,15877516.58,966778360.0,1310000000.0,0.016268875836236135,13.3,2012-09-30 00:00:00,2012-10-26 00:00:00,37.743798805542184,7.082987584714404,180.4065634978099,2.1425056378513077
sz300053,2013-03-15,6.71,7.09,6.6,6.77,0.0,5195064.0,35582546.96,881000410.0,1354000000.0,0.03992118832271599,13.74,2012-09-30 00:00:00,2012-10-26 00:00:00,39.01151706405573,7.320887132987981,186.46596137877455,2.2144669560552797
sz300053,2013-03-14,6.82,6.89,6.7,6.77,-0.025899000000000002,3526406.0,23989662.78,881000410.0,1354000000.0,0.027098476174375444,13.74,2012-09-30 00:00:00,2012-10-26 00:00:00,39.01151706405573,7.320887132987981,186.46596137877455,2.2144669560552797
sz300053,2013-03-13,7.0,7.07,6.72,6.95,-0.027972000000000004,5961738.0,41009732.29,904424350.0,1390000000.0,0.04581265320864039,14.11,2012-09-30 00:00:00,2012-10-26 00:00:00,40.0487393648664,7.515531893497676,191.423642290455,2.2733443000831324
sz300053,2013-03-12,7.27,7.27,6.95,7.15,0.081694,12654180.0,90375081.65,930450950.0,1430000000.0,0.09724036178371359,14.51,2012-09-30 00:00:00,2012-10-26 00:00:00,41.201219887561265,7.731805970093122,196.9322306460874,2.338764212639073
sz300053,2013-03-11,6.61,6.61,6.61,6.61,0.099834,255001.0,1685556.61,860179130.0,1322000000.0,0.0019595413922679104,13.42,2012-09-30 00:00:00,2012-10-26 00:00:00,38.08953353495652,7.14786803855168,182.05909494375246,2.1621310764773334
