code,date,open,high,low,close,change,volume,money,traded_market_value,market_value,turnover,adjust_price,report_type,report_date,PE_TTM,PS_TTM,PC_TTM,PB
sz300319,2014-07-18,26.2,28.22,26.2,26.59,0.016437,2020252.0,54117360.01,635607360.0,1475904540.0,0.08451522757697456,27.76,2014-03-31 00:00:00,2014-04-25 00:00:00,56.39152737920823,8.63505321560768,52.132650599908274,4.606147123551241
sz300319,2014-07-17,26.95,27.24,26.16,26.16,-0.031111,2071467.0,54934422.26,625328640.0,1452036960.0,0.08665775602409638,27.31,2014-03-31 00:00:00,2014-04-25 00:00:00,55.47960904533014,8.495414094142264,51.289603389003226,4.531660224442087
sz300319,2014-07-16,27.95,28.0,26.8,27.0,-0.037776,1876847.0,51017789.68,645408000.0,1498662000.0,0.07851602242302544,28.19,2014-03-31 00:00:00,2014-04-25 00:00:00,57.26105781501302,8.768201614573252,52.9365111885915,4.677171713624664
sz300319,2014-07-15,29.45,29.45,27.7,28.06,-0.058388999999999996,1721541.0,48870743.79,670746240.0,1557498360.0,0.07201895080321286,29.29,2014-03-31 00:00:00,2014-04-25 00:00:00,59.509072539255946,9.112432879010763,55.01474832117209,4.8607930311701475
sz300319,2014-07-14,29.7,29.96,29.19,29.8,-0.001006,629659.0,18667167.65,712339200.0,1654078800.0,0.026341156291834002,31.11,2014-03-31 00:00:00,2014-04-25 00:00:00,63.19921128709833,9.677491956881093,58.42619544713485,5.162209268126803
sz300319,2014-07-11,29.81,30.17,29.74,29.83,-0.001673,732983.0,21963913.56,713056320.0,1655743980.0,0.030663612784471217,31.14,2014-03-31 00:00:00,2014-04-25 00:00:00,63.26285371793857,9.68723731762262,58.48503138871189,5.167407680253137
sz300319,2014-07-10,30.12,30.4,29.6,29.88,-0.014837000000000001,659219.0,19792575.93,714251520.0,1658519280.0,0.027577769410977244,31.19,2014-03-31 00:00:00,2014-04-25 00:00:00,63.36886983717616,9.703471224982016,58.58304081599705,5.176067240746907
sz300319,2014-07-09,30.85,31.0,29.8,30.33,-0.023816999999999998,1265745.0,38426564.62,725008320.0,1683496980.0,0.0529511797188755,31.66,2014-03-31 00:00:00,2014-04-25 00:00:00,64.32323365491412,9.849609886873557,59.46532788583925,5.254021152587852
sz300319,2014-07-08,29.65,31.18,29.39,31.07,0.047186,2047945.0,62485771.85,742697280.0,1724571420.0,0.08567373661311914,32.44,2014-03-31 00:00:00,2014-04-25 00:00:00,65.89259765322088,10.0899215483916,60.91616826541667,5.3822092298143405
sz300319,2014-07-07,29.8,29.93,29.21,29.67,-0.008687,771558.0,22766483.06,709231680.0,1646863020.0,0.032277359437751,30.98,2014-03-31 00:00:00,2014-04-25 00:00:00,62.92348986065598,9.635271621652315,58.1712974251152,5.139687915818528
sz300319,2014-07-04,29.47,29.94,28.91,29.93,0.015265,1314411.0,38717941.23,715446720.0,1661294580.0,0.05498707329317269,31.25,2014-03-31 00:00:00,2014-04-25 00:00:00,63.474896284681,9.719706713875754,58.68105979152417,5.184727644869509
sz300319,2014-07-03,29.49,29.69,29.07,29.48,0.000679,853386.0,25143444.75,704689920.0,1636316880.0,0.03570055220883534,30.78,2014-03-31 00:00:00,2014-04-25 00:00:00,62.52052053865838,9.573566225444345,57.798761694261266,5.106772758707835
sz300319,2014-07-02,29.75,29.89,28.71,29.46,-0.008081,1046486.0,30573460.18,704211840.0,1635206760.0,0.04377869812583668,30.76,2014-03-31 00:00:00,2014-04-25 00:00:00,62.478097910177354,9.567070184788872,57.7595429645883,5.103307612838716
sz300319,2014-07-01,29.78,29.92,29.37,29.7,-0.0036899999999999997,927029.0,27491565.23,709948800.0,1648528200.0,0.038781333668005354,31.01,2014-03-31 00:00:00,2014-04-25 00:00:00,62.98709663810992,9.64501152290547,58.23010040596893,5.144883415721158
sz300319,2014-06-30,28.98,30.27,28.63,29.81,0.024751,1540815.0,45423730.87,712578240.0,1590065400.0,0.06445845883534136,31.12,2014-03-31 00:00:00,2014-04-25 00:00:00,63.22037983971848,9.680733429259439,58.445765279851585,5.163938348226113
sz300319,2014-06-27,29.3,29.98,29.09,29.09,-0.011217,1665342.0,49129407.33,531648839.99999994,1551660600.0,0.09112179908076168,30.37,2014-03-31 00:00:00,2014-04-25 00:00:00,61.69340633941171,9.44691288835965,57.0341139260675,5.039212792401386
sz300319,2014-06-26,28.94,29.97,28.88,29.42,0.017289,1752957.0,51864774.22,537679920.0,1569262800.0,0.09591579120157584,30.71,2014-03-31 00:00:00,2014-04-25 00:00:00,62.393271667708404,9.554081015106096,57.681123083697344,5.096378874233666
sz300319,2014-06-25,28.54,29.25,28.3,28.92,0.012251,1480972.0,42835453.44,528541920.00000006,1542592800.0,0.08103370540599694,30.19,2014-03-31 00:00:00,2014-04-25 00:00:00,61.33288737783305,9.391707779309613,56.70082256241574,5.009765046347367
sz300319,2014-06-24,28.5,28.83,28.15,28.57,-0.005222999999999999,1497265.0,42609142.32,522145320.0,1523923800.0,0.08192520245130225,29.83,2014-03-31 00:00:00,2014-04-25 00:00:00,60.59059203481454,9.278042480876396,56.014587846705744,4.949133215326404
sz300319,2014-06-23,27.46,29.28,27.45,28.72,0.051628999999999994,2625777.0,75317780.4,524886720.0,1531924800.0,0.14367350623768876,29.98,2014-03-31 00:00:00,2014-04-25 00:00:00,60.90871827034053,9.326756128133638,56.308688124781476,4.975118257987874
sz300319,2014-06-20,26.12,28.15,25.92,27.31,0.06679700000000001,1476129.0,40105193.71,499117560.0,1456715400.0,0.08076871306631649,28.51,2014-03-31 00:00:00,2014-04-25 00:00:00,57.91844678146051,8.86886547264638,53.544251941303905,4.730868260563255
sz300319,2014-06-19,26.85,27.12,25.11,25.6,-0.058477,1039959.0,27345773.4,467865600.0,1365504000.0,0.05690298752462246,26.73,2014-03-31 00:00:00,2014-04-25 00:00:00,54.29191006485818,8.313545569256737,50.19160340843094,4.434647135831142
sz300319,2014-06-18,27.91,28.0,26.89,27.19,-0.028582,1135187.0,30969641.02,496924440.0,1450314600.0,0.06211353687896695,28.39,2014-03-31 00:00:00,2014-04-25 00:00:00,57.6639233081488,8.829891111801558,53.308950932086574,4.7100783898334315
sz300319,2014-06-17,27.42,28.25,27.24,27.99,0.023025999999999998,1202742.0,33556015.71,511545240.0,1492986600.0,0.06580991464215365,29.22,2014-03-31 00:00:00,2014-04-25 00:00:00,59.36056703514738,9.08969270880461,54.87745844948989,4.84866287204214
sz300319,2014-06-16,27.32,27.52,27.12,27.36,0.001464,757630.0,20717265.14,500031360.0,1459382400.0,0.041454913547822284,28.56,2014-03-31 00:00:00,2014-04-25 00:00:00,58.02449501297854,8.885104297255994,53.642291055642666,4.739530444037728
sz300319,2014-06-13,26.65,27.38,26.56,27.32,0.025141,1064120.0,28886319.9,499300320.0,1457248800.0,0.058224994528343184,28.52,2014-03-31 00:00:00,2014-04-25 00:00:00,57.93967133414535,8.872115520134518,53.563873544773124,4.73260191483441
sz300319,2014-06-12,27.09,27.17,26.65,26.65,-0.015879,986592.0,26537027.21,487055400.0,1421511000.0,0.05398292843072883,27.82,2014-03-31 00:00:00,2014-04-25 00:00:00,56.51873384651023,8.654531932811699,52.250250009289566,4.616537544429897
sz300319,2014-06-11,27.69,27.69,26.95,27.08,-0.019906,1103107.0,30023046.72,494914080.0,1444447200.0,0.0603582293718538,28.27,2014-03-31 00:00:00,2014-04-25 00:00:00,57.430675543464915,8.79417463178989,53.09331881881351,4.691026351871261
sz300319,2014-06-10,27.43,27.76,27.08,27.63,0.003268,809858.0,22229230.76,504965880.0,1473784200.0,0.04431265047056249,28.85,2014-03-31 00:00:00,2014-04-25 00:00:00,58.59710960730798,8.972786928386347,54.171659880392596,4.786302489221708
sz300319,2014-06-09,28.0,28.0,27.28,27.54,-0.019231,888805.0,24597743.19,503321040.0,1468983600.0,0.04863235937841979,28.75,2014-03-31 00:00:00,2014-04-25 00:00:00,58.406238021453866,8.943559376344453,53.995203555174285,4.770711803049342
sz300319,2014-06-06,27.9,28.2,27.7,28.08,0.004651,1014256.0,28313312.31,513190080.0,1497787200.0,0.055496607572773034,29.32,2014-03-31 00:00:00,2014-04-25 00:00:00,59.551472386926854,9.118925431314054,55.05394599051793,4.864256316267483
sz300319,2014-06-05,27.14,28.18,27.03,27.95,0.027574,1546656.0,42970210.45,510814200.0,1490853000.0,0.08462770847012475,29.18,2014-03-31 00:00:00,2014-04-25 00:00:00,59.27578073074815,9.07670965471,54.79907549041204,4.84173739564036
sz300319,2014-06-04,26.75,27.25,26.58,27.2,0.013035,1114403.0,30006142.79,497107200.0,1450848000.0,0.06097630772597943,28.4,2014-03-31 00:00:00,2014-04-25 00:00:00,57.68516985710825,8.83314452750848,53.32859287059816,4.7118138407942975
sz300319,2014-06-03,26.85,27.56,26.53,26.85,0.005995,1383833.0,37408592.01,490710600.0,1432179000.0,0.0757185926898665,28.03,2014-03-31 00:00:00,2014-04-25 00:00:00,56.94291890912779,8.719486027144653,52.64239919706444,4.651185636028665
sz300319,2014-05-30,25.3,26.88,25.29,26.69,0.055358000000000004,1596966.0,41779745.74,487786440.0,1423644600.0,0.08738049901510177,27.86,2014-03-31 00:00:00,2014-04-25 00:00:00,56.60358044436383,8.667524219449055,52.32868870825843,4.6234679456942285
sz300319,2014-05-29,25.98,26.1,25.13,25.29,-0.025434000000000002,584682.0,14971621.11,462200040.0,1348968600.0,0.03199179251477347,26.4,2014-03-31 00:00:00,2014-04-25 00:00:00,53.63448274837906,8.212875838766612,49.58382720200959,4.380947456402688
sz300319,2014-05-28,25.56,26.07,25.42,25.95,0.011302,680570.0,17519218.36,474262200.0,1384173000.0,0.03723845480411469,27.09,2014-03-31 00:00:00,2014-04-25 00:00:00,55.034223180758474,8.427213589194178,50.87785455475523,4.495280418568561
sz300319,2014-05-27,26.02,26.26,25.65,25.66,-0.020611,592977.0,15345603.56,468962160.0,1368704400.0,0.03244566644780039,26.79,2014-03-31 00:00:00,2014-04-25 00:00:00,54.41917763512628,8.333033642961428,50.30925930607795,4.445042547694519
sz300319,2014-05-26,25.61,26.38,25.61,26.2,0.019852,899849.0,23407193.78,478831200.0,1397508000.0,0.04923664915736485,27.35,2014-03-31 00:00:00,2014-04-25 00:00:00,55.56441580937327,8.508400281156343,51.368005262544244,4.538587372019206
sz300319,2014-05-23,25.16,25.74,25.16,25.69,0.016218,617457.0,15717409.03,469510440.0,1370304600.0,0.033785128036769536,26.82,2014-03-31 00:00:00,2014-04-25 00:00:00,54.482822810930685,8.342779424030489,50.36809778531027,4.450241184033769
sz300319,2014-05-22,25.6,25.72,25.12,25.28,-0.0125,544051.0,13869115.97,462017280.0,1348435200.0,0.029768603633180128,26.39,2014-03-31 00:00:00,2014-04-25 00:00:00,53.61332195545708,8.20963555460589,49.564264542952664,4.37921901012752
sz300319,2014-05-21,24.95,25.68,24.85,25.6,0.017893,798098.0,20290559.94,467865600.0,1365504000.0,0.0436691836288028,26.73,2014-03-31 00:00:00,2014-04-25 00:00:00,54.29197160046286,8.313554992005965,50.19166029666092,4.434652162154451
sz300319,2014-05-20,24.9,25.64,24.9,25.15,0.014931,580165.0,14688255.91,459641400.0,1341501000.0,0.03174463777631867,26.26,2014-03-31 00:00:00,2014-04-25 00:00:00,53.33760188984783,8.16741542775711,49.309367778991444,4.356697768974197
sz300319,2014-05-19,24.85,24.88,24.42,24.78,-0.0008060000000000001,354089.0,8722463.67,452879280.0,1321765200.0,0.019374534909170498,25.87,2014-03-31 00:00:00,2014-04-25 00:00:00,52.55293403181874,8.047261762382968,48.58396066234201,4.292604885429843
sz300319,2014-05-16,25.6,25.6,24.5,24.8,-0.028594,638043.0,15956089.29,453244800.0,1322832000.0,0.03491152330925804,25.89,2014-03-31 00:00:00,2014-04-25 00:00:00,52.595325864465494,8.053753087371389,48.62315092198512,4.296067515847616
sz300319,2014-05-15,24.93,25.85,24.83,25.53,0.024478,1001711.0,25455692.78,466586280.0,1361770200.0,0.054810188224994526,26.65,2014-03-31 00:00:00,2014-04-25 00:00:00,54.14350525368949,8.29082081783661,50.054406625020974,4.422525201458109
sz300319,2014-05-14,24.7,24.97,24.55,24.92,0.012597,360970.0,8970036.71,455437920.0,1329232800.0,0.01975103961479536,26.02,2014-03-31 00:00:00,2014-04-25 00:00:00,52.849846706019534,8.092727045223624,48.85844949820393,4.316857171611405
sz300319,2014-05-13,24.51,25.04,24.48,24.61,-0.0008119999999999999,516438.0,12794014.73,449772360.0,1312697400.0,0.028257715036112935,25.69,2014-03-31 00:00:00,2014-04-25 00:00:00,52.19237930392796,7.992051176552591,48.25063623356965,4.263154217928164
sz300319,2014-05-12,24.4,24.65,24.18,24.63,0.01567,486685.0,11908355.39,450137880.0,1313764200.0,0.026629732983147296,25.71,2014-03-31 00:00:00,2014-04-25 00:00:00,52.23479395662073,7.998545995901263,48.28984758981258,4.266618712322569
sz300319,2014-05-09,23.97,24.4,23.8,24.25,0.012949,653170.0,15704280.22,443193000.0,1293495000.0,0.03573922083606916,25.32,2014-03-31 00:00:00,2014-04-25 00:00:00,51.42890304589161,7.875142512726833,47.54482025639487,4.200792297028138
sz300319,2014-05-08,23.84,24.25,23.81,23.94,0.005038,364256.0,8750679.41,437527440.0,1276959600.0,0.01993083825782447,24.99,2014-03-31 00:00:00,2014-04-25 00:00:00,50.77146336675549,7.774470889182806,46.93703262098573,4.147091607798752
sz300319,2014-05-07,24.02,24.35,23.71,23.82,-0.015233000000000002,298612.0,7165079.38,435334320.0,1270558800.0,0.016339023856423725,24.87,2014-03-31 00:00:00,2014-04-25 00:00:00,50.51695892767784,7.735499442989025,46.70174920847343,4.126303291814589
sz300319,2014-05-06,23.8,24.32,23.61,24.29,0.020588,495613.0,11942514.58,443924040.0,1295628600.0,0.02711824250383016,25.25,2014-03-31 00:00:00,2014-04-25 00:00:00,51.29838726082195,7.855157050336806,47.42416145999351,4.190131565958841
sz300319,2014-05-05,23.5,23.85,23.32,23.8,0.012766,207599.0,4921410.66,434968800.0,1269492000.0,0.011359104836944627,24.74,2014-03-31 00:00:00,2014-04-25 00:00:00,50.263561065603305,7.69669744337265,46.46748880056743,4.105605362750533
sz300319,2014-04-30,22.92,23.7,22.88,23.5,0.027098,265195.0,6208726.52,429486000.0,1253490000.0,0.014510560297658131,24.43,2014-03-31 00:00:00,2014-04-25 00:00:00,49.62998468116356,7.599679929394005,45.881762224015645,4.053853864318641
sz300319,2014-04-29,22.53,22.9,22.53,22.88,0.012389,159192.0,3622149.04,418154880.0,1220419200.0,0.008710439921208141,23.79,2014-03-31 00:00:00,2014-04-25 00:00:00,48.320593245399714,7.399177030228862,44.67126040944061,3.946900747853311
sz300319,2014-04-28,23.56,23.59,22.6,22.6,-0.033775,337793.0,7771079.56,413037600.0,1205484000.0,0.018482873714160648,23.5,2014-03-31 00:00:00,2014-04-25 00:00:00,47.72927525427451,7.308630408102877,44.124600730984454,3.8986009803082724
sz300319,2014-04-25,23.56,23.92,23.39,23.39,-0.007215999999999999,264300.0,6249133.77,427475640.0,1247622600.0,0.014461588969139856,24.32,2014-03-31 00:00:00,2014-04-25 00:00:00,49.39768196255998,7.564108161249064,45.66700378378168,4.034879019181115
sz300319,2014-04-24,23.63,23.78,23.4,23.56,-0.0033840000000000003,169883.0,4002942.09,430582560.0,1256690400.0,0.00929541475158678,24.49,2013-12-31 00:00:00,2014-03-28 00:00:00,50.37564360951454,7.942905189478346,43.54009953088912,4.145154266733726
sz300319,2014-04-23,23.41,23.67,23.31,23.64,0.00297,171661.0,4043535.52,432044640.0,1260957600.0,0.00939270080980521,24.58,2013-12-31 00:00:00,2014-03-28 00:00:00,50.54669362072709,7.9698752473152625,43.68793951821878,4.159229098001363
sz300319,2014-04-22,24.13,24.13,23.3,23.57,-0.025227,402513.0,9536744.5,430765320.0,1257223800.0,0.022024130006565987,24.5,2013-12-31 00:00:00,2014-03-28 00:00:00,50.39701448769863,7.9462748111262185,43.558570563644764,4.146912767083127
sz300319,2014-04-21,24.3,24.37,24.0,24.18,-0.006573999999999999,314331.0,7604831.58,441913680.0,1289761200.0,0.017199113591595535,25.14,2013-12-31 00:00:00,2014-03-28 00:00:00,51.70128274757162,8.15192338229128,44.685860773374685,4.25423433669493
sz300319,2014-04-18,24.13,24.42,24.0,24.34,0.002884,186173.0,4524658.2,444837840.0,1298295600.0,0.010186747647187569,25.3,2013-12-31 00:00:00,2014-03-28 00:00:00,52.04341616544323,8.20586876354281,44.981569612003995,4.28238674717083
sz300319,2014-04-17,24.16,24.37,24.16,24.27,0.004553,284665.0,6919338.24,443558520.0,1294561800.0,0.015575891880061282,25.23,2013-12-31 00:00:00,2014-03-28 00:00:00,51.89375457724246,8.182271093708554,44.85221582157457,4.270071859926801
sz300319,2014-04-16,24.02,24.16,23.94,24.16,0.006247,199579.0,4800570.18,441548160.0,1288694400.0,0.010920277960166338,25.12,2013-12-31 00:00:00,2014-03-28 00:00:00,51.658553184593,8.145186061570223,44.648929246714275,4.250718339327841
sz300319,2014-04-15,24.26,24.3,24.0,24.01,-0.007851,319120.0,7703327.56,438806760.0,1280693400.0,0.01746115123659444,24.96,2013-12-31 00:00:00,2014-03-28 00:00:00,51.33784566273789,8.094618976822018,44.371738993223616,4.224328956337601
sz300319,2014-04-14,23.83,24.26,23.83,24.2,0.008333,403393.0,9717970.03,442279200.0,1290828000.0,0.02207228058656161,25.16,2013-12-31 00:00:00,2014-03-28 00:00:00,51.74408850156367,8.15867271631783,44.72285815257952,4.2577566034311385
sz300319,2014-04-11,24.06,24.15,23.77,24.0,-0.007034,287077.0,6863209.78,438624000.0,1280160000.0,0.01570786824250383,24.95,2013-12-31 00:00:00,2014-03-28 00:00:00,51.3164683706312,8.091248343868374,44.35326241685983,4.222569928219287
sz300319,2014-04-10,24.35,24.58,24.15,24.17,-0.001652,519535.0,12619012.25,441730920.0,1289227800.0,0.02842717224775662,25.13,2013-12-31 00:00:00,2014-03-28 00:00:00,51.67998538784933,8.148565352558268,44.66745328325423,4.252481885804033
sz300319,2014-04-09,23.7,24.25,23.7,24.21,0.024112,503300.0,12080820.9,442461960.0,1291361400.0,0.02753884876340556,25.17,2013-12-31 00:00:00,2014-03-28 00:00:00,51.76550199714862,8.162049057601426,44.74136601991914,4.2595186105486595
sz300319,2014-04-08,23.42,23.75,23.22,23.64,0.009825,298561.0,7021983.43,432044640.0,1260957600.0,0.016336233311446707,24.58,2013-12-31 00:00:00,2014-03-28 00:00:00,50.54671949664551,7.969879327262475,43.68796188299634,4.159231227198451
sz300319,2014-04-04,23.34,23.45,23.02,23.41,0.006016,218377.0,5097929.53,427841160.0,1248689400.0,0.01194884000875465,24.34,2013-12-31 00:00:00,2014-03-28 00:00:00,50.054929811249984,7.892337115106554,43.262903852644115,4.118764367289828
sz300319,2014-04-03,22.96,23.3,22.77,23.27,0.016156999999999998,372995.0,8631954.83,425282520.0,1241221800.0,0.020409006347121908,24.19,2013-12-31 00:00:00,2014-03-28 00:00:00,49.755600120922516,7.845140748364393,43.004190641743385,4.094134056804095
sz300319,2014-04-02,23.4,23.5,22.82,22.9,-0.017588999999999997,322002.0,7412048.95,418520400.0,1221486000.0,0.017618844386080103,23.81,2013-12-31 00:00:00,2014-03-28 00:00:00,48.96448100138316,7.7204022098596905,42.32041962191215,4.0290369074897825
sz300319,2014-04-01,23.05,23.35,23.02,23.31,0.01746,288485.0,6699014.3,426013560.0,1243355400.0,0.015784909170496825,24.23,2013-12-31 00:00:00,2014-03-28 00:00:00,49.84113675578059,7.85862761090795,43.07812068666999,4.101172429349613
sz300319,2014-03-31,23.45,23.45,22.77,22.91,-0.023028,589549.0,13581281.87,418703160.0,1222019400.0,0.03225809805209017,23.82,2013-12-31 00:00:00,2014-03-28 00:00:00,48.9858439209213,7.723770576639818,42.33888377594204,4.030794752962881
sz300319,2014-03-28,25.09,25.41,23.45,23.45,-0.10015299999999999,1802723.0,43098439.29,428572200.0,1250823000.0,0.09863881593346466,24.38,2013-12-31 00:00:00,2014-03-28 00:00:00,50.14047886830053,7.905825936300957,43.336844634177886,4.125803761994081
sz300319,2014-03-27,26.55,26.8,26.05,26.06,-0.018456,704136.0,18480734.91,476272560.0,1390040400.0,0.03852790544977019,27.09,2013-09-30 00:00:00,2013-10-28 00:00:00,49.332720486317015,9.439236763546308,58.46962291105225,4.625683303525912
sz300319,2014-03-26,26.07,26.63,26.07,26.55,0.018803,554677.0,14670765.18,485227800.0,1416177000.0,0.03035002188662727,27.6,2013-09-30 00:00:00,2013-10-28 00:00:00,50.260325045354065,9.616723003295123,59.56902890858917,4.712660159428322
sz300319,2014-03-25,26.0,26.29,25.84,26.06,-0.004203,307867.0,8021619.25,476272560.0,1390040400.0,0.016845425694900416,27.09,2013-09-30 00:00:00,2013-10-28 00:00:00,49.33272187592114,9.439237029430739,58.46962455802465,4.625683433822165
sz300319,2014-03-24,26.12,26.47,25.9,26.17,-0.0007639999999999999,393443.0,10311944.17,478282920.0,1395907800.0,0.021527850733202014,27.21,2013-09-30 00:00:00,2013-10-28 00:00:00,49.540942457068184,9.479077592552233,58.71640962768982,4.645207239851259
sz300319,2014-03-21,25.42,26.25,25.26,26.19,0.015903999999999998,368643.0,9504363.29,478648440.0,1396974600.0,0.020170879842416285,27.23,2013-09-30 00:00:00,2013-10-28 00:00:00,49.5788206760647,9.486325144962986,58.76130326338305,4.6487588916444755
sz300319,2014-03-20,26.8,27.07,25.78,25.78,-0.038419,724103.0,19131902.53,471155280.0,1375105200.0,0.03962043116655723,26.8,2013-09-30 00:00:00,2013-10-28 00:00:00,48.80266312177597,9.337816511169349,57.84139373738369,4.575982466497302
sz300319,2014-03-19,26.39,26.94,26.22,26.81,0.017457,846171.0,22581617.58,489979560.0,1430045400.0,0.04629957321076822,27.87,2013-09-30 00:00:00,2013-10-28 00:00:00,50.75252435496955,9.710899561419525,60.152388345218654,4.758811235348142
sz300319,2014-03-18,26.25,26.66,26.25,26.35,0.0007599999999999999,585230.0,15478551.64,481572600.0,1405509000.0,0.03202177719413438,27.39,2013-09-30 00:00:00,2013-10-28 00:00:00,49.88173884003898,9.544284978548994,59.12032483458135,4.677162017999917
sz300319,2014-03-17,25.36,26.33,25.36,26.33,0.038249,719093.0,18704133.11,481207080.0,1404442200.0,0.03934630115999124,27.37,2013-09-30 00:00:00,2013-10-28 00:00:00,49.84385750833265,9.53703683055777,59.075427509674,4.673610074343416
sz300319,2014-03-14,25.44,25.48,25.2,25.36,-0.0027530000000000002,318446.0,8083015.26,463479360.0,1352702400.0,0.017424272269643246,26.37,2013-09-30 00:00:00,2013-10-28 00:00:00,48.00761427011502,9.185693249459206,56.899094060937216,4.501434698558262
sz300319,2014-03-13,25.18,25.55,25.1,25.43,0.008727,326626.0,8284413.87,464758680.0,1356436200.0,0.01787185379732983,26.44,2013-09-30 00:00:00,2013-10-28 00:00:00,48.140144086785945,9.21105127361547,57.056169696110615,4.513861358879256
sz300319,2014-03-12,25.38,25.59,24.85,25.21,-0.005522999999999999,403277.0,10155618.81,460737960.0,1344701400.0,0.022065933464653097,26.21,2013-09-30 00:00:00,2013-10-28 00:00:00,47.723659708509786,9.131361878501785,56.56254833677558,4.474809694673838
sz300319,2014-03-11,25.29,25.77,25.13,25.35,0.0019760000000000003,338008.0,8607868.88,463296600.0,1352169000.0,0.01849463777631867,26.35,2013-09-30 00:00:00,2013-10-28 00:00:00,47.98870130582184,9.182074475831804,56.87667823064342,4.499661324167214
sz300319,2014-03-10,26.4,26.42,25.29,25.3,-0.047439999999999996,611845.0,15740641.0,462382800.0,1349502000.0,0.03347805865616109,26.3,2013-09-30 00:00:00,2013-10-28 00:00:00,47.89406263804906,9.163966478071137,56.76451155580915,4.490787528011863
sz300319,2014-03-07,26.71,27.2,26.38,26.56,-0.0056159999999999995,566551.0,15175083.68,485410560.0,1416710400.0,0.030999726417159115,27.61,2013-09-30 00:00:00,2013-10-28 00:00:00,50.27931325905881,9.620356175013791,59.59153392522166,4.714440589581614
sz300319,2014-03-06,26.69,26.9,26.2,26.71,-0.00373,552589.0,14696995.9,488151960.0,1424711400.0,0.03023577369227402,27.77,2013-09-30 00:00:00,2013-10-28 00:00:00,50.563276620559876,9.674689229727942,59.92809007910592,4.7410664185884075
sz300319,2014-03-05,26.45,27.3,26.29,26.81,0.020166999999999997,801445.0,21480986.42,489979560.0,1430045400.0,0.0438523199824907,27.87,2013-09-30 00:00:00,2013-10-28 00:00:00,50.75258375797712,9.71091092748747,60.15245875024433,4.758816805272072
sz300319,2014-03-04,26.5,26.5,26.0,26.28,-0.010542000000000001,468086.0,12295380.32,480293280.0,1401775200.0,0.025612059531626177,27.32,2013-09-30 00:00:00,2013-10-28 00:00:00,49.74928982997599,9.518942415788267,58.963344972190164,4.664742934511772
sz300319,2014-03-03,26.02,26.6,26.0,26.56,0.020753,636794.0,16785056.34,485410560.0,1416710400.0,0.03484318231560517,27.61,2013-09-30 00:00:00,2013-10-28 00:00:00,50.27933457506634,9.620360253581525,59.59155918916232,4.714442588277393
sz300319,2014-02-28,25.09,26.08,25.0,26.02,0.021193,764589.0,19482944.89,475541520.0,1387906800.0,0.04183568614576494,27.05,2013-09-30 00:00:00,2013-10-28 00:00:00,49.25710193853591,9.424768042397647,58.37999906849386,4.618592929217345
sz300319,2014-02-27,26.2,26.67,25.46,25.48,-0.028963,1093130.0,28552039.92,465672480.0,1359103200.0,0.059812322171153426,26.49,2013-09-30 00:00:00,2013-10-28 00:00:00,48.23486053913011,9.229174154540468,57.16842856197981,4.522742448506153
sz300319,2014-02-26,26.8,26.8,25.0,26.24,-0.022719,1182792.0,30754581.96,479562240.0,1399641600.0,0.06471831910702561,27.28,2013-09-30 00:00:00,2013-10-28 00:00:00,49.6735557338496,9.50445158582059,58.873584180602606,4.657641725810811
sz300319,2014-02-25,29.72,30.11,26.71,26.85,-0.09535,2192020.0,62306305.93,490710600.0,1432179000.0,0.11993981177500547,27.91,2013-09-30 00:00:00,2013-10-28 00:00:00,50.82832443672762,9.725403016962973,60.24222734362237,4.765918631192884
sz300319,2014-02-24,29.05,29.7,28.95,29.68,0.014353999999999999,1065676.0,31289060.78,542431680.0,1583131200.0,0.05831013350842635,30.86,2013-09-30 00:00:00,2013-10-28 00:00:00,56.18562365194011,10.750459312400345,66.59175078054759,5.268245875413567
sz300319,2014-02-21,29.0,29.55,28.77,29.26,0.008966,839045.0,24459620.64,534755760.0,1560728400.0,0.04590966294594003,30.42,2013-09-30 00:00:00,2013-10-28 00:00:00,55.39054772982619,10.598330871076907,65.64941901993544,5.193695569213083
sz300319,2014-02-20,29.77,30.09,28.92,29.0,-0.033333,1257600.0,36878821.0,530004000.0,1546860000.0,0.06881155613919895,30.15,2013-09-30 00:00:00,2013-10-28 00:00:00,54.89832930923955,10.50415065629259,65.06603693279598,5.147542701352754
sz300319,2014-02-19,30.78,31.12,29.5,30.0,-0.031945999999999995,1800378.0,54387610.1,548280000.0,1600200000.0,0.09851050558108995,31.19,2013-09-30 00:00:00,2013-10-28 00:00:00,56.79135556426313,10.86635900086854,67.30967016852337,5.325042337591698
sz300319,2014-02-18,31.29,31.35,30.55,30.99,-0.009588,1739423.0,53772012.05,566373240.0,1653006600.0,0.09517525716787043,32.22,2013-09-30 00:00:00,2013-10-28 00:00:00,58.66548308695913,11.224951294936584,69.53090444182182,5.50076993390007
sz300319,2014-02-17,30.44,31.4,30.15,31.29,0.037811000000000004,2212365.0,68388481.78,571856040.0,1669008600.0,0.12105302035456336,32.53,2013-09-30 00:00:00,2013-10-28 00:00:00,59.233413051294946,11.333618024556028,70.20402059125072,5.554021895837359
sz300319,2014-02-14,28.93,30.15,28.62,30.15,0.036439,1599648.0,47216550.95,551021400.0,1608201000.0,0.08752724885095207,31.35,2013-09-30 00:00:00,2013-10-28 00:00:00,57.075337466354604,10.92069560310695,67.64624829689676,5.351669905057239
sz300319,2014-02-13,29.88,30.75,28.91,29.09,-0.030333,2497657.0,74560180.51,531648839.99999994,1551660600.0,0.13666321952287155,30.24,2013-09-30 00:00:00,2013-10-28 00:00:00,55.06868949002749,10.53674707639036,65.26794948559129,5.163516526353445
sz300319,2014-02-12,28.33,30.08,28.33,30.0,0.053741,3187034.0,93680795.63,548280000.0,1600200000.0,0.17438356314291967,31.19,2013-09-30 00:00:00,2013-10-28 00:00:00,56.791341243981165,10.866356260850745,67.3096531959851,5.325040994850237
sz300319,2014-02-11,28.9,29.16,28.12,28.47,-0.018276,2058926.0,59020509.87,520317720.0,1518589800.0,0.1126573648500766,29.6,2013-09-30 00:00:00,2013-10-28 00:00:00,53.89497157648907,10.31216993630384,63.87684753272873,5.05346284793914
sz300319,2014-02-10,28.4,29.3,28.01,29.0,0.02546,2187810.0,62799332.05,530004000.0,1546860000.0,0.11970945502298096,30.15,2013-09-30 00:00:00,2013-10-28 00:00:00,54.89829277524953,10.504143665942609,65.06599363235362,5.147539275742612
sz300319,2014-02-07,27.1,28.29,27.1,28.28,0.035897000000000005,1059940.0,29550085.01,516845280.0,1508455200.0,0.057996279273363975,29.4,2013-09-30 00:00:00,2013-10-28 00:00:00,53.535284433570816,10.243348025220495,63.450542812351166,5.019736777390256
sz300319,2014-01-30,28.13,28.17,27.3,27.3,-0.029851,1257864.0,34720336.05,498934800.0,1456182000.0,0.06882600131319763,28.38,2013-09-30 00:00:00,2013-10-28 00:00:00,51.680123056221625,9.88838468034997,61.25178740005151,4.845787541995252
sz300319,2014-01-29,27.8,28.25,27.51,28.14,0.01223,1347327.0,37649814.67,514286640.0,1500987600.0,0.07372110965200263,29.26,2013-09-30 00:00:00,2013-10-28 00:00:00,53.27029462095165,10.192645336283366,63.136474294207915,4.994890003489415
sz300319,2014-01-28,28.0,28.49,27.3,27.8,-0.01138,1515790.0,41969572.21,508072800.0,1482852000.0,0.08293882687677828,28.9,2013-09-30 00:00:00,2013-10-28 00:00:00,52.62667044145269,10.06949540745025,62.373644620499206,4.934540572290304
sz300319,2014-01-27,28.88,28.94,27.87,28.12,-0.0406,2271609.0,64614759.25,513921120.0,1499920800.0,0.1242946487196323,29.23,2013-09-30 00:00:00,2013-10-28 00:00:00,53.23245578832381,10.185405319991755,63.091627339624125,4.991342044759669
sz300319,2014-01-24,28.55,29.8,28.38,29.31,0.019124000000000002,2836821.0,83085663.53,535669560.00000006,1563395400.0,0.1552211096520026,30.47,2013-09-30 00:00:00,2013-10-28 00:00:00,55.485153000129046,10.616432478623885,65.76154611176165,5.202566233854147
sz300319,2014-01-23,27.4,28.95,27.31,28.76,0.047723,2805215.0,79502579.03,525617760.0,1534058400.0,0.1534917377982053,29.9,2013-09-30 00:00:00,2013-10-28 00:00:00,54.443966583192086,10.41721368412861,64.52752178514258,5.104939373279549
sz300319,2014-01-22,27.13,27.58,27.0,27.45,0.013288999999999999,1379424.0,37774021.31,501676200.0,1464183000.0,0.07547734734077478,28.54,2013-09-30 00:00:00,2013-10-28 00:00:00,51.96408457501849,9.942717382484313,61.58834136994472,4.8724131982208565
sz300319,2014-01-21,26.36,27.09,26.2,27.09,0.031606999999999996,784192.0,20991973.49,495096840.0,1444980600.0,0.042908295031735606,28.16,2013-09-30 00:00:00,2013-10-28 00:00:00,51.282590233406744,9.812321442830537,60.78062760964021,4.8085128706823586
sz300319,2014-01-20,27.0,27.4,25.8,26.26,-0.035268,933089.0,24886290.48,479927760.0,1400708400.0,0.05105542788356314,27.3,2013-09-30 00:00:00,2013-10-28 00:00:00,49.711363177456874,9.511685596191708,58.918393932612155,4.661186741348556
sz300319,2014-01-17,27.15,27.82,27.0,27.22,-0.001101,1062136.0,29135302.54,497472720.0,1451914800.0,0.058116436857080324,28.3,2013-09-30 00:00:00,2013-10-28 00:00:00,51.52867654173063,9.859407168199777,61.07229150957173,4.831587157209003
sz300319,2014-01-16,27.71,28.28,27.08,27.25,-0.022597,1536439.0,42399742.01,498021000.0,1453515000.0,0.08406866929306193,28.33,2013-09-30 00:00:00,2013-10-28 00:00:00,51.585472146563994,9.87027434024839,61.13960621601556,4.836912597979378
sz300319,2014-01-15,27.58,28.25,27.23,27.88,0.006498,1984842.0,55196436.51,509534880.0,1487119200.0,0.10860374261326329,28.99,2013-09-30 00:00:00,2013-10-28 00:00:00,52.77809884619139,10.098469454512,62.55311904712342,4.9487392590153485
sz300319,2014-01-14,26.46,27.79,26.2,27.7,0.046863,1833019.0,49986215.97,506245200.0,1477518000.0,0.10029650908295032,28.8,2013-09-30 00:00:00,2013-10-28 00:00:00,52.43736087522419,10.033273244966212,62.14927307070996,4.916789957869116
sz300319,2014-01-13,25.88,26.64,25.59,26.46,0.022411,896235.0,23598010.26,483582960.0,1411376400.0,0.049038903479973736,27.51,2013-09-30 00:00:00,2013-10-28 00:00:00,50.08999350939347,9.584132064048694,59.367150305923445,4.696689020310312
sz300319,2014-01-10,25.47,26.35,25.13,25.88,0.014902,923142.0,23853665.34,472982880.0,1380439200.0,0.05051116217990807,26.91,2013-09-30 00:00:00,2013-10-28 00:00:00,48.99203305656285,9.37405022446814,58.06583683657889,4.593738741377306
sz300319,2014-01-09,26.5,26.58,25.41,25.5,-0.039548,1142642.0,29781872.02,466038000.0,1360170000.0,0.06252144889472533,26.51,2013-09-30 00:00:00,2013-10-28 00:00:00,48.27267367348065,9.236409253768484,57.21324505871394,4.526287997636527
sz300319,2014-01-08,25.84,26.66,25.65,26.55,0.041176,1439936.0,37946956.53,485227800.0,1416177000.0,0.07878835631429197,27.6,2013-09-30 00:00:00,2013-10-28 00:00:00,50.26037081861524,9.616731761471145,59.569083159506086,4.712664451358868
sz300319,2014-01-07,24.98,25.86,24.91,25.5,0.016341,896219.0,22767438.83,466038000.0,1360170000.0,0.049038028014882905,26.51,2013-09-30 00:00:00,2013-10-28 00:00:00,48.27269435581999,9.23641321109125,57.213269571624856,4.526289936916397
sz300319,2014-01-06,27.5,27.5,25.02,25.09,-0.087636,1720139.0,44892232.64,458544840.0,1338300600.0,0.09412010286714817,26.08,2013-09-30 00:00:00,2013-10-28 00:00:00,47.4965531803007,9.087907711182812,56.29337945790326,4.453515047524795
sz300319,2014-01-03,27.32,27.86,27.26,27.5,0.002918,1341344.0,36909076.92,502590000.0,1466850000.0,0.07339374042460058,28.59,2013-09-30 00:00:00,2013-10-28 00:00:00,52.05877608092901,9.960835490202172,61.700570669056724,4.881291948745014
sz300319,2014-01-02,26.68,27.59,26.55,27.42,0.026581999999999998,1288331.0,35180596.94,501127920.0,1462582800.0,0.07049305099584154,28.51,2013-09-30 00:00:00,2013-10-28 00:00:00,51.90731054874776,9.931854339240267,61.521052238624414,4.867089780764742
sz300319,2013-12-31,27.23,27.37,26.4,26.71,-0.034345999999999995,1774720.0,47615930.34,488151960.0,1424711400.0,0.0971065878748085,27.77,2013-09-30 00:00:00,2013-10-28 00:00:00,50.563238541828866,9.674681943809913,59.928044947821434,4.741062848135602
sz300319,2013-12-30,28.1,28.55,27.51,27.66,-0.009667,2337430.0,65435117.53,505514160.0,1475384400.0,0.12789614795360035,28.76,2013-09-30 00:00:00,2013-10-28 00:00:00,52.361651835780584,10.01878720930055,62.05954197654795,4.909691098608406
sz300319,2013-12-27,26.99,27.99,26.6,27.93,0.028729,2418780.0,66622252.83,510448680.0,1489786200.0,0.1323473407747866,29.04,2013-09-30 00:00:00,2013-10-28 00:00:00,52.87277293171143,10.116584229042704,62.665327699418214,4.957616376116322
sz300319,2013-12-26,27.15,28.3,27.05,27.15,-0.019856,3917557.0,108722475.51,496193400.0,1448181000.0,0.21435527467717225,28.23,2013-09-30 00:00:00,2013-10-28 00:00:00,51.396211180701066,9.834061476873602,60.915292267855,4.819166540572223
sz300319,2013-12-25,26.09,27.95,26.09,27.7,0.07115199999999999,3975382.0,108656878.58,506245200.0,1477518000.0,0.21751926023199825,28.8,2013-09-30 00:00:00,2013-10-28 00:00:00,52.43740836111946,10.033282330834655,62.14932935145755,4.916794410384823
sz300319,2013-12-24,24.81,26.2,24.81,25.86,0.042742,1830107.0,47139670.5,472617360.0,1379372400.0,0.10013717443641935,26.89,2013-09-30 00:00:00,2013-10-28 00:00:00,48.954217852479815,9.366814729221113,58.02101788677755,4.5901929981784315
sz300319,2013-12-23,25.34,25.35,24.24,24.8,-0.020537,951152.0,23471629.55,453244800.0,1322832000.0,0.05204377325454147,25.78,2013-09-30 00:00:00,2013-10-28 00:00:00,46.94758420825076,8.982868944783192,55.64273606201491,4.402040963324036
sz300319,2013-12-20,25.0,25.57,25.0,25.32,0.015237,1208964.0,30629766.73,462748320.0,1350568800.0,0.06615036112934997,26.32,2013-09-30 00:00:00,2013-10-28 00:00:00,47.93196293096397,9.171218254066964,56.80943135372639,4.49434124956638
sz300319,2013-12-19,25.11,25.59,24.9,24.94,-0.005185,1201383.0,30418151.67,455803440.0,1330299600.0,0.06573555482600131,25.93,2013-09-30 00:00:00,2013-10-28 00:00:00,47.21258477672107,9.033573691726135,55.95681732809816,4.426888745747427
sz300319,2013-12-18,26.15,26.44,24.86,25.07,-0.044588,2017328.0,50806469.16,458179320.0,1337233800.0,0.11038126504705625,26.06,2013-09-30 00:00:00,2013-10-28 00:00:00,47.458657918026034,9.080656897740921,56.24846562235004,4.449961797668338
sz300319,2013-12-17,27.51,27.65,26.0,26.24,-0.048931,1946652.0,51683436.28,479562240.0,1399641600.0,0.10651411687458963,27.28,2013-09-30 00:00:00,2013-10-28 00:00:00,49.67349993304044,9.504440908991011,58.873518044937725,4.6576364936470736
sz300319,2013-12-16,27.0,28.09,26.9,27.59,0.019586000000000003,3074824.0,85083211.48,504234840.0,1471650600.0,0.168243817027796,28.68,2013-09-30 00:00:00,2013-10-28 00:00:00,52.22912315829918,9.993429403114824,61.90246769155311,4.897264545103535
sz300319,2013-12-13,26.4,28.05,26.25,27.06,0.017293,3350519.0,91517922.63,494548560.0,1443380400.0,0.18332890129131102,28.13,2013-09-30 00:00:00,2013-10-28 00:00:00,51.22581435827794,9.80145804582921,60.713336287035226,4.803189279868038
sz300319,2013-12-12,26.43,26.97,26.25,26.6,0.009105,1822106.0,48647785.59,486141600.0,1418844000.0,0.09969938717443642,27.65,2013-09-30 00:00:00,2013-10-28 00:00:00,50.35502491246665,9.634842710830812,59.68126811747965,4.721539693940721
sz300319,2013-12-11,26.07,26.72,26.01,26.36,-0.000379,1516056.0,39951369.07,481755360.0,1406042400.0,0.08295338148391333,27.4,2013-09-30 00:00:00,2013-10-28 00:00:00,49.900679228094845,9.547908999391353,59.14277316778695,4.678937963780499
sz300319,2013-12-10,28.0,28.15,26.08,26.37,-0.066549,3457792.0,92572595.77,481938120.0,1406575800.0,0.1891985117093456,27.42,2013-09-30 00:00:00,2013-10-28 00:00:00,49.91959875602338,9.551529028893306,59.16519677736557,4.680711953610918
sz300319,2013-12-09,27.31,28.38,27.08,28.25,0.034799000000000004,3598119.0,100563409.91,516297000.0,1506855000.0,0.19687672357189756,29.37,2013-09-30 00:00:00,2013-10-28 00:00:00,53.47854226523232,10.232491077617684,63.38329143936379,5.014416347093653
sz300319,2013-12-06,27.21,27.58,26.8,27.3,0.0033079999999999997,2449014.0,66736048.62,498934800.0,1456182000.0,0.1340016414970453,28.38,2013-09-30 00:00:00,2013-10-28 00:00:00,51.68012557533619,9.888385162352963,61.25179038573074,4.8457877782000685
sz300319,2013-12-05,27.75,28.08,27.04,27.21,-0.042575999999999996,3948200.0,108309399.4,497289960.0,1451381400.0,0.21603195447581527,28.29,2013-09-30 00:00:00,2013-10-28 00:00:00,51.509731383918194,9.855782234720508,61.04983752320398,4.829810764192121
sz300319,2013-12-04,29.7,30.91,27.91,28.42,-0.067585,7432929.0,221273879.32,519403920.0,1515922800.0,0.4067043663821405,29.55,2013-09-30 00:00:00,2013-10-28 00:00:00,53.80033442228123,10.294062228146052,63.76468265178643,5.044589193703229
sz300319,2013-12-03,30.48,31.36,30.48,30.48,-0.100089,7371944.0,225590415.63,557052480.0,1625803200.0,0.4033674764718757,31.69,2013-09-30 00:00:00,2013-10-28 00:00:00,57.699988119325866,11.040215170440256,68.38659036135887,5.41024028324644
sz300319,2013-12-02,33.87,33.87,33.87,33.87,-0.09992000000000001,429300.0,14540391.0,619008120.0,1806625800.0,0.023489822718319106,35.21,2013-09-30 00:00:00,2013-10-28 00:00:00,64.1174384126051,12.268118925582925,75.99261522679339,6.011972609787456
sz300319,2013-11-29,37.02,37.63,36.1,37.63,0.099971,6742657.0,251682356.99,687725880.0,2007184200.0,0.3689350514335741,39.12,2013-09-30 00:00:00,2013-10-28 00:00:00,71.23526621256455,13.630031692275049,84.4287343644936,6.679375844133251
sz300319,2013-11-28,31.19,34.21,31.18,34.21,0.1,3696112.0,121703335.0,625221960.0,1824761400.0,0.20223856423725103,35.57,2013-09-30 00:00:00,2013-10-28 00:00:00,64.7610402570291,12.391264580861721,76.75541842875275,6.072319946737914
sz300319,2013-11-27,30.1,32.0,29.92,31.1,0.013359000000000001,3550543.0,110242588.69,568383600.0,1658874000.0,0.19427352812431603,32.33,2013-09-30 00:00:00,2013-10-28 00:00:00,58.87367296093554,11.264785982601564,69.77765311704795,5.520290860670831
sz300319,2013-11-26,29.33,32.32,29.0,30.69,0.025735,5035164.0,153125263.32,560890440.0,1637004600.0,0.2755068942875903,31.91,2013-09-30 00:00:00,2013-10-28 00:00:00,58.09754781961333,11.116283550648454,68.8577820072136,5.447517474725968
sz300319,2013-11-25,27.82,30.6,27.72,29.92,0.075485,4982607.0,148705716.94,546817920.0,1595932800.0,0.2726311556139199,31.11,2013-09-30 00:00:00,2013-10-28 00:00:00,56.63991949149959,10.837383486620281,67.13018665368111,5.310842931874186
sz300319,2013-11-22,28.42,29.08,27.75,27.82,-0.030662000000000002,1988639.0,56326201.03,508438320.0,1483918800.0,0.10881150142263077,28.92,2013-09-30 00:00:00,2013-10-28 00:00:00,52.66453692194646,10.076740713836344,62.41852434360415,4.938091123422628
sz300319,2013-11-21,28.45,29.58,28.34,28.7,0.005959000000000001,2152770.0,62219822.09,524521199.99999994,1530858000.0,0.11779218647406435,29.84,2013-09-30 00:00:00,2013-10-28 00:00:00,54.33041614168274,10.395487140539569,64.39294069107386,5.09429231436571
sz300319,2013-11-20,28.98,28.98,28.17,28.53,-0.013144,1624497.0,46156122.59,521414280.0,1521790200.0,0.08888690085357846,29.66,2013-09-30 00:00:00,2013-10-28 00:00:00,54.00857901930668,10.333907386423867,64.01149618530562,5.064115251581535
sz300319,2013-11-19,28.61,29.78,28.45,28.91,0.010839,2507926.0,72763233.47,528359160.00000006,1542059400.0,0.1372251039614795,30.06,2013-09-30 00:00:00,2013-10-28 00:00:00,54.72792283707724,10.47154537888392,64.86406951501094,5.131564535840625
sz300319,2013-11-18,28.45,28.95,27.8,28.6,-0.006944,3059385.0,86888425.11,522693600.0,1525524000.0,0.16739904793171373,29.73,2013-09-30 00:00:00,2013-10-28 00:00:00,54.141087588703286,10.359261345163691,64.16854663800164,5.076539919651522
sz300319,2013-11-15,28.81,29.89,28.29,28.8,-0.001041,3965603.0,115317327.71,526348800.00000006,1536192000.0,0.21698418691179688,29.94,2013-09-30 00:00:00,2013-10-28 00:00:00,54.51967219240735,10.431699063460357,64.6172488137644,5.112037910904845
sz300319,2013-11-14,27.28,29.16,26.92,28.83,0.03705,4101727.0,115689120.18,526897079.99999994,1537792200.0,0.2244324250383016,29.97,2013-09-30 00:00:00,2013-10-28 00:00:00,54.57648631466092,10.442569778599882,64.6845854672358,5.117365087961414
sz300319,2013-11-13,26.7,28.51,26.62,27.8,0.018315,3827410.0,105465559.87,508072800.0,1482852000.0,0.2094227402057343,28.9,2013-09-30 00:00:00,2013-10-28 00:00:00,52.62666825578411,10.069494989248232,62.37364203002343,4.934540367351056
sz300319,2013-11-12,27.5,29.06,26.92,27.3,-0.016925,4231658.0,118085046.18,498934800.0,1456182000.0,0.23154180345808711,28.38,2013-09-30 00:00:00,2013-10-28 00:00:00,51.68014637492732,9.88838914211048,61.25181503760961,4.845789728474054
sz300319,2013-11-11,25.98,28.62,25.5,27.77,0.060733,5146062.0,140531415.65,507524520.0,1481251800.0,0.2815748522652659,28.87,2013-09-30 00:00:00,2013-10-28 00:00:00,52.56989179353286,10.058631479907922,62.30635001155518,4.929216721485191
sz300319,2013-11-08,26.81,27.28,25.7,26.18,-0.029651999999999998,2370444.0,62646441.41,478465680.0,1396441200.0,0.1297025607353907,27.22,2013-09-30 00:00:00,2013-10-28 00:00:00,49.55996635678618,9.482717592370486,58.73895693973431,4.646991016104139
sz300319,2013-11-07,25.51,27.58,25.22,26.98,0.041297,3248637.0,86175140.48,493086480.0,1439113200.0,0.1777542678923178,28.05,2013-09-30 00:00:00,2013-10-28 00:00:00,51.07442521320822,9.772491510644103,60.53390839135476,4.788994274326467
sz300319,2013-11-06,25.66,27.49,25.53,25.91,0.000772,3509811.0,93245911.98,473531160.0,1382039400.0,0.19204481286933683,26.94,2013-09-30 00:00:00,2013-10-28 00:00:00,49.04885466222243,9.384922371469528,58.1331823594563,4.599066620115555
sz300319,2013-11-05,25.66,26.8,25.28,25.89,-0.01409,2769945.0,71897108.24,473165640.0,1380972600.0,0.15156188443860802,26.92,2013-09-30 00:00:00,2013-10-28 00:00:00,49.011018156205836,9.37768280034766,58.088338162394926,4.59551887954055
sz300319,2013-11-04,25.5,27.8,24.76,26.26,0.00229,4607352.0,121254483.57,479927760.0,1400708400.0,0.2520984898227183,27.3,2013-09-30 00:00:00,2013-10-28 00:00:00,49.71145252224426,9.51170269126762,58.91849982492816,4.661195118763934
sz300319,2013-11-01,24.0,26.97,23.41,26.2,0.008468,3838353.0,96394418.06,478831200.0,1397508000.0,0.2100215036112935,27.24,2013-09-30 00:00:00,2013-10-28 00:00:00,49.59787339217618,9.48997065845975,58.783884728899,4.650545369866939
sz300319,2013-10-31,26.8,27.83,25.5,25.98,0.026876999999999998,6251683.0,168169409.32,474810480.0,1385773200.0,0.3420706390895163,27.01,2013-09-30 00:00:00,2013-10-28 00:00:00,49.181405252498045,9.41028437041111,58.29028261570919,4.611495228273917
sz300319,2013-10-30,22.71,25.3,22.53,25.3,0.1,3442332.0,83874607.03,462382800.0,1349502000.0,0.18835259356533157,26.3,2013-09-30 00:00:00,2013-10-28 00:00:00,47.89415407346551,9.16398397316437,56.764619925959174,4.490796101455108
sz300319,2013-10-29,23.63,24.2,21.98,23.0,-0.001303,4520570.0,105221617.42,420348000.0,1226820000.0,0.24735007660319544,23.91,2013-09-30 00:00:00,2013-10-28 00:00:00,43.54014006678682,8.33089452105852,51.60419993269016,4.082541910413734
sz300319,2013-10-28,21.13,23.03,21.13,23.03,0.09980900000000001,1483334.0,33647331.73,420896280.0,1228420200.0,0.08116294594003064,23.94,2013-09-30 00:00:00,2013-10-28 00:00:00,43.59694688858264,8.34176383934118,51.67152793358762,4.087868402942768
sz300319,2013-10-25,21.63,21.75,20.8,20.94,-0.031004000000000004,476218.0,10086618.12,382699440.0,1116939600.0,0.02605701466404027,21.77,2013-06-30 00:00:00,2013-08-23 00:00:00,41.3519350181198,7.991386635129344,49.08259032413696,3.8241498029144645
sz300319,2013-10-24,21.56,21.85,21.4,21.61,0.002784,272231.0,5883921.05,394944360.0,1152677400.0,0.014895546071350406,22.47,2013-06-30 00:00:00,2013-08-23 00:00:00,42.675031700976895,8.247079074763306,50.65303708594974,3.946507315731401
sz300319,2013-10-23,22.22,22.22,21.34,21.55,-0.027966,493182.0,10733666.34,393847800.0,1149477000.0,0.026985226526592253,22.4,2013-06-30 00:00:00,2013-08-23 00:00:00,42.556554253933946,8.224182949432087,50.51241053502025,3.9355507424643807
sz300319,2013-10-22,22.18,22.69,22.09,22.17,-0.001351,973850.0,21762102.98,405178920.0,1182547800.0,0.05328572991901948,23.05,2013-06-30 00:00:00,2013-08-23 00:00:00,43.780931792441365,8.460797615548518,51.96568282078637,4.0487788929856166
sz300319,2013-10-21,21.57,22.4,21.57,22.2,0.030162,849829.0,18776818.28,405727200.0,1184148000.0,0.04649972641715912,23.08,2013-06-30 00:00:00,2013-08-23 00:00:00,43.84015984839655,8.472243616674646,52.035983434406255,4.054256193102498
sz300319,2013-10-18,21.24,21.67,21.18,21.55,0.014594999999999999,381861.0,8196896.35,393847800.0,1149477000.0,0.020894123440577807,22.4,2013-06-30 00:00:00,2013-08-23 00:00:00,42.556568625513805,8.224185726783405,50.51242759333605,3.9355520715212737
sz300319,2013-10-17,21.36,21.64,21.2,21.24,-0.0018800000000000002,463534.0,9920594.62,388182240.0,1132941600.0,0.025362989713285183,22.08,2013-06-30 00:00:00,2013-08-23 00:00:00,41.944390249817715,8.105880402311668,49.78580378706386,3.8789389574374744
sz300319,2013-10-16,22.24,22.24,21.21,21.28,-0.043595999999999996,852919.0,18344353.01,388913280.0,1135075200.0,0.046668800612825564,22.12,2013-06-30 00:00:00,2013-08-23 00:00:00,42.023394230971945,8.121148160854073,49.87957739256188,3.886245098222132
sz300319,2013-10-15,22.78,22.88,22.0,22.25,-0.028807999999999997,1255194.0,28205864.25,406641000.0,1186815000.0,0.06867990807616546,23.13,2013-06-30 00:00:00,2013-08-23 00:00:00,43.93895700035962,8.491336465399634,52.153250501421866,4.063392769396753
sz300319,2013-10-14,22.26,23.17,22.07,22.91,0.033378,1827235.0,41555511.42,418703160.0,1222019400.0,0.09998002845261546,23.82,2013-06-30 00:00:00,2013-08-23 00:00:00,45.24229709507453,8.7432108845621,53.700247223434566,4.183923229800856
sz300319,2013-10-11,21.98,22.27,21.77,22.17,0.018841999999999998,720455.0,15858833.98,405178920.0,1182547800.0,0.03942082512584811,23.05,2013-06-30 00:00:00,2013-08-23 00:00:00,43.78097568854236,8.460806098602932,51.96573492316903,4.048782952415143
sz300319,2013-10-10,22.73,22.73,21.72,21.76,-0.042675,1161328.0,25717397.1,397685760.0,1160678400.0,0.06354388268767783,22.62,2013-06-30 00:00:00,2013-08-23 00:00:00,42.97131026061191,8.304335803395356,51.004704285030485,3.9739066041791986
sz300319,2013-10-09,22.2,22.83,22.18,22.73,0.018369,956124.0,21628938.36,415413480.0,1212418200.0,0.052315824031516744,23.63,2013-06-30 00:00:00,2013-08-23 00:00:00,44.886856877875246,8.674520986493988,53.27835822216122,4.151052781635494
sz300319,2013-10-08,21.66,22.4,21.66,22.32,0.023384000000000002,712217.0,15751477.31,407920320.0,1190548800.0,0.03897007003720727,23.2,2013-06-30 00:00:00,2013-08-23 00:00:00,44.077202740730755,8.518052873264981,52.317340985596786,4.07617747755037
sz300319,2013-09-30,21.5,21.81,21.5,21.81,0.012065000000000001,520633.0,11314617.01,398599560.0,1163345400.0,0.028487251039614796,22.67,2013-06-30 00:00:00,2013-08-23 00:00:00,43.07005263003013,8.323418065227697,51.12190632802231,3.983038114285909
sz300319,2013-09-27,21.59,21.71,21.4,21.55,0.003259,469754.0,10134448.74,393847800.0,1149477000.0,0.02570332676734515,22.4,2013-06-30 00:00:00,2013-08-23 00:00:00,42.55660716458936,8.224193174576433,50.51247333720889,3.9355556355430816
sz300319,2013-09-26,21.68,22.05,21.34,21.48,-0.01105,495595.0,10764366.14,392568480.0,1145743200.0,0.027117257605602976,22.33,2013-06-30 00:00:00,2013-08-23 00:00:00,42.41836571073807,8.197477595094023,50.34838794090947,3.9227713237988215
sz300319,2013-09-25,22.16,22.19,21.71,21.72,-0.020738999999999997,571341.0,12549331.09,396954720.0,1158544800.0,0.0312618187787262,22.58,2013-06-30 00:00:00,2013-08-23 00:00:00,42.892325912066404,8.289071838914023,50.91095398241516,3.966602278981568
sz300319,2013-09-24,22.19,22.34,21.89,22.18,-0.005381,555588.0,12280304.39,405361680.0,1183081200.0,0.030399868680236374,23.06,2013-06-30 00:00:00,2013-08-23 00:00:00,43.80070881212097,8.464619584476479,51.98915711175586,4.050607834868914
sz300319,2013-09-23,22.1,22.47,21.54,22.3,0.023875,956958.0,21289782.9,407554800.0,1189482000.0,0.052361457649376233,23.18,2013-06-30 00:00:00,2013-08-23 00:00:00,44.03767554422445,8.510414122871651,52.27042426472434,4.072522076160735
sz300319,2013-09-18,21.2,22.02,20.98,21.78,0.039122000000000004,1056201.0,22888507.67,398051280.0,1161745200.0,0.057791694024950754,22.64,2013-06-30 00:00:00,2013-08-23 00:00:00,43.010792864582534,8.311965936146162,51.05156807688862,3.9775578817343273
sz300319,2013-09-17,21.39,21.46,20.96,20.96,-0.020561000000000003,358933.0,7606728.46,383064960.0,1118006400.0,0.01963958196541913,21.79,2013-06-30 00:00:00,2013-08-23 00:00:00,41.39147555780989,7.999027964133337,49.129522882672696,3.8278064382568426
sz300319,2013-09-16,21.15,21.64,20.97,21.4,0.01518,629119.0,13447129.61,391106400.0,1141476000.0,0.03442323265484789,22.25,2013-06-30 00:00:00,2013-08-23 00:00:00,42.2603914667579,8.166948594178235,50.16088075181067,3.9081621604376005
sz300319,2013-09-13,20.87,21.17,20.73,21.08,0.010062,345310.0,7246613.5,385258080.0,1124407200.0,0.018894178157145985,21.92,2013-06-30 00:00:00,2013-08-23 00:00:00,41.62847127283625,8.044828103566102,49.41082443685916,3.849723359835301
sz300319,2013-09-12,20.84,21.09,20.4,20.87,0.004815,618232.0,12862559.95,381420120.0,1113205800.0,0.03382753337710659,21.7,2013-06-30 00:00:00,2013-08-23 00:00:00,41.21377823622337,7.964687418758554,48.91860542903223,3.811373321474623
sz300319,2013-09-11,21.78,21.78,20.72,20.77,-0.045057,1069272.0,22471265.47,379592520.0,1107871800.0,0.05850689428759028,21.59,2013-06-30 00:00:00,2013-08-23 00:00:00,41.016284824792,7.926521219088642,48.68419104913067,3.7931094992358028
sz300319,2013-09-10,21.96,22.15,21.55,21.75,-0.012262,709152.0,15440714.0,397503000.0,1160145000.0,0.03880236375574524,22.61,2013-06-30 00:00:00,2013-08-23 00:00:00,42.951552945874255,8.300517642507083,50.98125338279946,3.9720794845721707
sz300319,2013-09-09,22.14,22.2,21.83,22.02,-0.005869,685807.0,15058671.23,402437520.0,1174546800.0,0.03752500547165682,22.89,2013-06-30 00:00:00,2013-08-23 00:00:00,43.48476311114309,8.4035621212377,51.614146041561085,4.021389765881408
sz300319,2013-09-06,22.14,22.16,21.83,22.15,0.001809,538690.0,11860501.14,404813400.0,1181481000.0,0.029475268111184068,23.03,2013-06-30 00:00:00,2013-08-23 00:00:00,43.74148186822772,8.453173798259686,51.91885781809549,4.045130637593445
sz300319,2013-09-05,21.8,22.37,21.63,22.11,0.014219999999999998,800588.0,17699939.14,404082360.0,1179347400.0,0.04380542788356314,22.99,2013-06-30 00:00:00,2013-08-23 00:00:00,43.66249641221802,8.437909619757544,51.82510620097792,4.037826209979592
sz300319,2013-09-04,21.85,21.98,21.42,21.8,-0.006834000000000001,680375.0,14750181.04,398416800.0,1162812000.0,0.0372277850733202,22.66,2013-06-30 00:00:00,2013-08-23 00:00:00,43.050320849734796,8.31960483894771,51.09848573384268,3.981213356056469
sz300319,2013-09-03,21.67,22.04,21.61,21.95,0.013388999999999998,568928.0,12427658.3,401158200.0,1170813000.0,0.031129787699715476,22.82,2013-06-30 00:00:00,2013-08-23 00:00:00,43.346551180502345,8.37685224720511,51.45009568777292,4.008608184388581
sz300319,2013-09-02,21.57,21.68,21.21,21.66,0.014519999999999998,617051.0,13270414.01,395858160.0,1155344400.0,0.033762913110089735,22.52,2013-06-30 00:00:00,2013-08-23 00:00:00,42.77385207506924,8.266176411235081,50.77033171642175,3.9556460395648467
sz300319,2013-08-30,22.72,22.94,21.32,21.35,-0.063596,1429463.0,31472619.36,390192600.0,1138809000.0,0.07821530969577588,22.2,2013-06-30 00:00:00,2013-08-23 00:00:00,42.16166470357335,8.147869348297796,50.04369723260432,3.8990320935662637
sz300319,2013-08-29,22.7,23.78,22.61,22.8,0.000878,814497.0,18798709.12,416692800.0,1216152000.0,0.044566480630334866,23.7,2013-06-30 00:00:00,2013-08-23 00:00:00,45.02507967028478,8.70123295959628,53.44242146830249,4.1638353676044355
sz300319,2013-08-28,23.04,23.25,22.57,22.78,-0.021897999999999997,1047363.0,24008617.16,416327280.0,1215085200.0,0.05730810899540381,23.68,2013-06-30 00:00:00,2013-08-23 00:00:00,44.98558232899992,8.693599978814882,53.39554018402092,4.160182727169981
sz300319,2013-08-27,23.04,23.33,22.7,23.29,0.006481999999999999,1339243.0,30792643.4,425648040.0,1242288600.0,0.07327878091486102,24.21,2013-06-30 00:00:00,2013-08-23 00:00:00,45.99273115585074,8.888234538744305,54.59097331773263,4.2533219717064075
sz300319,2013-08-26,23.02,23.25,22.8,23.14,-0.0008640000000000001,1510818.0,34873756.46,422906640.0,1234287600.0,0.08266677609980302,24.06,2013-06-30 00:00:00,2013-08-23 00:00:00,45.696526272552056,8.830992048287307,54.23939356862083,4.2259294967087415
sz300319,2013-08-23,23.98,24.0,22.62,23.16,-0.042975,2518382.0,58664796.59,423272160.0,1235354400.0,0.1377972203983366,24.08,2013-06-30 00:00:00,2013-08-23 00:00:00,45.736042213024106,8.83862862341794,54.28629692916763,4.2295838571613285
sz300319,2013-08-22,23.95,24.25,23.72,24.2,0.004149,1349746.0,32404872.51,442279200.0,1290828000.0,0.0738534690304224,25.16,2013-03-31 00:00:00,2013-04-18 00:00:00,40.722439571897056,8.210120569805971,112.80977403408916,4.4305332195906875
sz300319,2013-08-21,23.4,24.15,23.04,24.1,0.027280000000000002,990779.0,23388895.45,440451600.0,1285494000.0,0.05421202670168527,25.06,2013-03-31 00:00:00,2013-04-18 00:00:00,40.554180277923955,8.17619752626948,112.34366018796928,4.412226890223152
sz300319,2013-08-20,23.32,23.85,23.06,23.46,0.003851,780106.0,18304015.57,428754960.0,1251356400.0,0.04268472313416503,24.39,2013-03-31 00:00:00,2013-04-18 00:00:00,39.47724113963472,7.95907398788011,109.36031090644155,4.2950577157378245
sz300319,2013-08-19,22.53,23.48,22.53,23.37,0.029062,775480.0,17961596.76,427110120.0,1246555800.0,0.04243160428977894,24.3,2013-03-31 00:00:00,2013-04-18 00:00:00,39.3257974934873,7.928541175812059,108.94077996280481,4.2785809006892705
sz300319,2013-08-16,23.65,23.8,22.62,22.71,-0.035669,1545916.0,35890792.13,415047960.0,1211351400.0,0.0845872182096739,23.61,2013-03-31 00:00:00,2013-04-18 00:00:00,38.21518770830844,7.704629240815479,105.86415586505458,4.157748416217167
sz300319,2013-08-15,24.4,24.42,23.55,23.55,-0.042683,1076477.0,25831659.77,430399800.0,1256157000.0,0.05890112716130444,24.48,2013-03-31 00:00:00,2013-04-18 00:00:00,39.628703949482535,7.989610663574518,109.77989493758324,4.311536615764884
sz300319,2013-08-14,24.3,24.6,23.78,24.6,-0.004854,1917125.0,46402580.38,449589600.0,1312164000.0,0.10489850076603195,25.58,2013-03-31 00:00:00,2013-04-18 00:00:00,41.395592002944205,8.345835980740464,114.67454869973399,4.503771076628624
sz300319,2013-08-13,23.39,25.2,23.39,24.72,0.048791,3237540.0,79216425.12,451782720.0,1318564800.0,0.17714707813525934,25.7,2013-03-31 00:00:00,2013-04-18 00:00:00,41.5975062985172,8.386544266610592,115.23389402131345,4.525739013801617
sz300319,2013-08-12,23.1,23.68,22.71,23.57,0.013763,1768469.0,41104599.0,430765320.0,1257223800.0,0.09676455460713504,24.5,2013-03-31 00:00:00,2013-04-18 00:00:00,39.66234101791225,7.996392290371095,109.87307673436695,4.315196272471462
sz300319,2013-08-09,23.0,23.68,22.2,23.25,0.007802,1819649.0,41956768.71,424917000.0,1240155000.0,0.09956494856642592,24.17,2013-03-31 00:00:00,2013-04-18 00:00:00,39.123879070268146,7.887832057760143,108.38142320677214,4.256612514435289
sz300319,2013-08-08,22.25,23.5,22.0,23.07,0.040126,1887525.0,43392796.88,421627320.0,1230553800.0,0.10327889034799738,23.98,2013-03-31 00:00:00,2013-04-18 00:00:00,38.820997646629145,7.826767616813761,107.54237757691703,4.223659522838106
sz300319,2013-08-07,22.78,23.78,22.01,22.18,-0.026766,1383868.0,31357840.69,405361680.0,1183081200.0,0.07572050776975268,23.06,2013-03-31 00:00:00,2013-04-18 00:00:00,37.32336048385402,7.524826431426347,103.3936057524925,4.06071910791395
sz300319,2013-08-06,22.82,22.91,22.54,22.79,-0.000439,1153766.0,26264635.08,416510040.0,1215618600.0,0.06313011599912453,23.69,2013-03-31 00:00:00,2013-04-18 00:00:00,38.349832089563265,7.731775124406203,106.23714929039933,4.17239749938242
sz300319,2013-08-05,22.49,22.98,22.35,22.8,0.013784000000000001,1709547.0,38903178.84,416692800.0,1216152000.0,0.09354054497701904,23.7,2013-03-31 00:00:00,2013-04-18 00:00:00,38.36667505991456,7.735170864415681,106.28380788205955,4.174229986346426
sz300319,2013-08-02,22.28,24.0,22.01,22.49,0.010332,2002471.0,45911307.97,411027240.0,1199616600.0,0.10956834099365288,23.38,2013-03-31 00:00:00,2013-04-18 00:00:00,37.8450193136946,7.629998958768024,104.83871108841682,4.117474714876567
sz300319,2013-08-01,21.23,22.47,21.23,22.26,0.04507,1464193.0,32211186.21,406823760.0,1187348400.0,0.08011561610855768,23.14,2013-03-31 00:00:00,2013-04-18 00:00:00,37.458003224380306,7.551971984226991,103.76659463267205,4.075368012570688
sz300319,2013-07-31,21.38,21.65,21.3,21.3,-0.0023420000000000003,787662.0,16889773.89,389278800.0,1136142000.0,0.04309816152330926,22.14,2013-03-31 00:00:00,2013-04-18 00:00:00,35.84257822383219,7.226283391760352,99.29152557500652,3.8996124781791535
sz300319,2013-07-30,21.41,21.81,20.86,21.35,-0.005589,1342836.0,28698876.79,390192600.0,1138809000.0,0.07347537754432042,22.2,2013-03-31 00:00:00,2013-04-18 00:00:00,35.92671859879056,7.2432470764133114,99.5246122168183,3.908766810048286
sz300319,2013-07-29,22.1,22.33,21.37,21.47,-0.037219999999999996,1080461.0,23595132.47,392385720.0,1145209800.0,0.05911911796892099,22.32,2013-03-31 00:00:00,2013-04-18 00:00:00,36.12864157656196,7.2839571127162825,100.08398158992438,3.9307356918299234
sz300319,2013-07-26,21.81,22.48,21.55,22.3,0.015944999999999997,1961861.0,43131965.28,407554800.0,1189482000.0,0.10734630115999125,23.18,2013-03-31 00:00:00,2013-04-18 00:00:00,37.5253345276823,7.565546763244233,103.95311658938115,4.082693545597046
sz300319,2013-07-25,24.3,24.3,21.95,21.95,-0.099302,3625338.0,83033664.0,401158200.0,1170813000.0,0.1983660538411031,22.82,2013-03-31 00:00:00,2013-04-18 00:00:00,36.93638388661029,7.4468074189490885,102.32159869813931,4.018616702279203
sz300319,2013-07-24,23.08,24.59,23.0,24.37,0.050884,3753319.0,89677794.82,445386120.0,1299895800.0,0.20536873495294375,25.34,2013-03-31 00:00:00,2013-04-18 00:00:00,41.00862207600138,8.26781831307396,113.60256012352566,4.461669396711443
sz300319,2013-07-23,22.97,23.35,22.49,23.19,0.004331000000000001,2578965.0,59234186.2,423820440.0,1236954600.0,0.14111211424819436,24.11,2013-03-31 00:00:00,2013-04-18 00:00:00,39.022976918481376,7.867489002662483,108.10190289653822,4.245634529321451
sz300319,2013-07-22,21.7,23.1,21.48,23.09,0.042908999999999996,2308395.0,51787136.96,421992840.0,1231620600.0,0.1263074523965857,24.01,2013-03-31 00:00:00,2013-04-18 00:00:00,38.85469722480076,7.833561846306129,107.63573253891217,4.227325980499905
sz300319,2013-07-19,22.38,23.45,22.06,22.14,-0.011165999999999999,2702098.0,61445142.79,404630640.0,1180947600.0,0.14784952943751367,23.02,2013-03-31 00:00:00,2013-04-18 00:00:00,37.25607624903108,7.51126114196553,103.20721418542956,4.053398695859279
sz300319,2013-07-18,21.77,22.65,21.53,22.39,0.010835,2104450.0,46542221.11,409199640.0,1194282600.0,0.11514828189975924,23.28,2013-03-31 00:00:00,2013-04-18 00:00:00,37.67677512002123,7.596078959628743,104.37263907332226,4.099170028396352
sz300319,2013-07-17,23.6,23.64,22.1,22.15,-0.049356,3074134.0,70312344.27,404813400.0,1181481000.0,0.168206062595754,23.03,2013-03-31 00:00:00,2013-04-18 00:00:00,37.27292299932356,7.514657644055403,103.25388324832666,4.055231594074555
sz300319,2013-07-16,23.1,24.02,22.65,23.3,0.000429,3046246.0,70634319.57,425830800.0,1242822000.0,0.16668012694243817,24.22,2013-03-31 00:00:00,2013-04-18 00:00:00,39.20807683983022,7.904807313837149,108.61466884378027,4.265773090741176
sz300319,2013-07-15,22.5,23.29,22.2,23.29,0.032816000000000005,4050525.0,92467989.16,425648040.0,1242288600.0,0.22163082731451084,24.21,2013-03-31 00:00:00,2013-04-18 00:00:00,39.191263787665314,7.90141760568431,108.5680931318267,4.263943858825739
sz300319,2013-07-12,21.89,23.25,21.76,22.55,0.025466,3002070.0,68245152.43,412123800.0,1202817000.0,0.16426296782665792,23.44,2013-03-31 00:00:00,2013-04-18 00:00:00,37.946026966725256,7.650363284151592,105.1185236594192,4.128464178349037
sz300319,2013-07-11,21.7,22.17,21.35,21.99,0.005027,2016701.0,43985658.62,401889240.0,1172946600.0,0.11034695775880937,22.86,2013-03-31 00:00:00,2013-04-18 00:00:00,37.00369097242156,7.46037731543668,102.50805356727496,4.025939600483133
sz300319,2013-07-10,22.6,22.98,21.64,21.88,-0.033996,3540590.0,78260734.43,399878880.0,1167079200.0,0.19372893412125192,22.75,2013-03-31 00:00:00,2013-04-18 00:00:00,36.818603850863276,7.423061584849642,101.99532307816106,4.005802431659183
sz300319,2013-07-09,22.08,22.9,21.7,22.65,0.034247,1604659.0,36006261.19,413951400.0,1208151000.0,0.08780143357408624,23.55,2013-03-31 00:00:00,2013-04-18 00:00:00,38.11433891667454,7.684296943749344,105.58478337373454,4.146776236598588
sz300319,2013-07-08,22.32,22.81,21.42,21.9,-0.03863,2158339.0,47749393.02,400244400.0,1168146000.0,0.11809690304224119,22.77,2013-03-31 00:00:00,2013-04-18 00:00:00,36.8522595827443,7.429846974416503,102.08855657665389,4.009464118918004
sz300319,2013-07-05,23.7,24.75,22.6,22.78,-0.034337,3082897.0,73031643.48,416327280.0,1215085200.0,0.16868554388268767,23.68,2013-03-31 00:00:00,2013-04-18 00:00:00,38.33306591920312,7.7283948681740675,106.19070345096465,4.17057336812882
sz300319,2013-07-04,23.75,24.28,23.48,23.59,-0.022784,2147955.0,51165134.37,431130840.0,1258290600.0,0.11752872619829284,24.53,2013-03-31 00:00:00,2013-04-18 00:00:00,39.69611129265915,8.003200773120712,109.96662754083425,4.318870421802243
sz300319,2013-07-03,22.89,24.78,22.62,24.14,0.037833,3665989.0,86552260.62,441182640.0,1287627600.0,0.20059033705405996,25.1,2013-03-31 00:00:00,2013-04-18 00:00:00,40.62163461574428,8.189797110486026,112.5305229763269,4.419565809199034
sz300319,2013-07-02,23.25,23.65,22.71,23.26,0.001291,3498136.0,80994535.33,425099760.0,1240688400.0,0.19140599693587218,24.18,2013-03-31 00:00:00,2013-04-18 00:00:00,39.14081997368003,7.891247542221173,108.42835309373174,4.258455656352259
sz300319,2013-07-01,21.32,23.23,21.1,23.23,0.059763,2809052.0,63055261.73,424551480.0,1239088200.0,0.15370168527029984,24.15,2013-03-31 00:00:00,2013-04-18 00:00:00,39.09035432624486,7.8810730768789234,108.28855257236084,4.252965078435999
sz300319,2013-06-28,22.4,23.28,21.32,21.92,-0.042795,2523062.0,56348686.78,400609920.0,1169212800.0,0.13805329393740426,22.79,2013-03-31 00:00:00,2013-04-18 00:00:00,36.88593990000109,7.436637320682948,102.18185818183956,4.01312848102453
sz300319,2013-06-27,23.0,23.65,22.16,22.9,0.011038,4097023.0,93888580.01,418520400.0,1221486000.0,0.2241750383015977,23.81,2013-03-31 00:00:00,2013-04-18 00:00:00,38.535047246933615,7.7691166685119155,106.75023446580363,4.192548598288277
sz300319,2013-06-26,20.45,22.65,20.15,22.65,0.100049,3776232.0,81692623.75,413951400.0,1208151000.0,0.20662245567957976,23.55,2013-03-31 00:00:00,2013-04-18 00:00:00,38.11434114932734,7.684297393878286,105.58478955865519,4.146776479507473
sz300319,2013-06-25,21.25,21.38,19.22,20.59,-0.035597000000000004,3332703.0,67305738.13,376302840.0,1098270600.0,0.18235407091267236,21.41,2013-03-31 00:00:00,2013-04-18 00:00:00,34.647857640275426,6.9854137350956975,95.98189676883048,3.7696288797203334
sz300319,2013-06-24,21.7,22.43,20.5,21.35,-0.025113999999999997,2784651.0,60470205.69,390192600.0,1138809000.0,0.15236654629021668,22.2,2013-03-31 00:00:00,2013-04-18 00:00:00,35.92674187064477,7.2432517682915725,99.52467668477854,3.9087693419870466
sz300319,2013-06-21,20.42,22.18,20.02,21.9,0.054913,3108213.0,65342784.1,400244400.0,1168146000.0,0.17007074852265266,22.77,2013-03-31 00:00:00,2013-04-18 00:00:00,36.85224925852332,7.429844892932684,102.08852797637728,4.009462995660053
sz300319,2013-06-20,21.3,22.3,20.47,20.76,-0.03036,2973220.0,63992117.73,379409760.0,1107338400.0,0.16268439483475597,21.58,2013-03-31 00:00:00,2013-04-18 00:00:00,34.93392275810737,7.043087811916892,96.77435767345484,3.800752285411264
sz300319,2013-06-19,22.02,22.2,21.2,21.41,-0.045475,2473109.0,53387519.23,391289160.0,1142009400.0,0.13532003720726635,22.26,2013-03-31 00:00:00,2013-04-18 00:00:00,36.02772447311102,7.263611043188082,99.80441986041711,3.919756080000066
sz300319,2013-06-18,20.92,22.5,20.8,22.43,0.060019,4216478.0,91135567.22,409930680.0,1196416200.0,0.2307112059531626,23.32,2013-03-31 00:00:00,2013-04-18 00:00:00,37.744139203384954,7.609660347490198,104.55925183773826,4.106499127838523
sz300319,2013-06-17,21.39,22.16,21.04,21.16,-0.021729,4196869.0,90404720.08,386720160.0,1128674400.0,0.22963826876778287,22.0,2013-03-31 00:00:00,2013-04-18 00:00:00,35.60704025435861,7.178796179587534,98.63903556232319,3.873986341601918
sz300319,2013-06-14,21.25,21.92,20.92,21.63,0.034928,5439183.0,116607144.3,395309880.0,1153744200.0,0.2976134274458306,22.49,2013-03-31 00:00:00,2013-04-18 00:00:00,36.397930894771086,7.338248991933251,100.82996998001902,3.9600339186196027
sz300319,2013-06-13,18.86,20.9,18.62,20.9,0.1,3610302.0,72114245.7,381968400.0,1114806000.0,0.19754333552199607,21.73,2013-03-31 00:00:00,2013-04-18 00:00:00,35.16952956608681,7.090588902738405,97.42703838336486,3.8263859115026393
sz300319,2013-06-07,18.45,19.18,18.45,19.0,0.025918,1627627.0,30743595.68,347244000.0,1013460000.0,0.08905816371197199,19.75,2013-03-31 00:00:00,2013-04-18 00:00:00,31.972299605533458,6.445989911580368,88.57003489396804,3.47853264682058
sz300319,2013-06-06,18.57,18.8,18.43,18.52,-0.011212,1092989.0,20284592.62,338471520.0,987856800.0,0.05980460713504049,19.25,2013-03-31 00:00:00,2013-04-18 00:00:00,31.164576121613475,6.28314340091544,86.33246993811204,3.3906536846225332
sz300319,2013-06-05,18.59,18.88,18.53,18.73,0.0010689999999999999,862107.0,16138036.54,342309480.0,999058200.0,0.0471715364412344,19.47,2013-03-31 00:00:00,2013-04-18 00:00:00,31.517955437984156,6.354388808233353,87.31140541563211,3.4291007623702288
sz300319,2013-06-04,19.72,19.72,18.25,18.71,-0.051217,3524676.0,66439300.62,341943960.0,997991400.0,0.19285817465528562,19.45,2013-03-31 00:00:00,2013-04-18 00:00:00,31.484298722649644,6.347603220390756,87.21816919276506,3.4254389681133155
sz300319,2013-06-03,19.61,19.94,19.31,19.72,-0.007548999999999999,2002604.0,39214689.96,360402720.0,1051864800.0,0.1095756182972204,20.5,2013-03-31 00:00:00,2013-04-18 00:00:00,33.18387736990401,6.690258173250106,91.92636165779219,3.610350278317924
sz300319,2013-05-31,20.25,20.67,19.87,19.87,-0.017795,2128591.0,43359156.85,363144120.0,1059865800.0,0.11646919457211644,20.66,2013-03-31 00:00:00,2013-04-18 00:00:00,33.43628790731635,6.74114709265254,92.62559225371548,3.637812122027107
sz300319,2013-05-30,20.2,20.48,20.08,20.23,-0.012206999999999999,2059155.0,41759918.93,369723480.0,1079068200.0,0.1126698949441891,21.03,2013-03-31 00:00:00,2013-04-18 00:00:00,34.04206648033389,6.8632791450385,94.30372707705162,3.703719816155596
sz300319,2013-05-29,20.1,20.61,19.86,20.48,0.012358,2153780.0,43805363.8,374292480.0,1092403200.0,0.11784745020792296,21.29,2013-03-31 00:00:00,2013-04-18 00:00:00,34.46275330998892,6.948094535027582,95.46911860789822,3.749489838615576
sz300319,2013-05-28,21.24,21.35,20.08,20.23,-0.052459000000000006,2422967.0,49726468.25,369723480.0,1079068200.0,0.13257643904574304,21.03,2013-03-31 00:00:00,2013-04-18 00:00:00,34.04206151380136,6.863278143727397,94.30371331870565,3.703719275805175
sz300319,2013-05-27,21.59,21.8,21.01,21.35,-0.017034999999999998,2205718.0,47070191.92,390192600.0,1138809000.0,0.12068931932589189,22.2,2013-03-31 00:00:00,2013-04-18 00:00:00,35.926742498531844,7.2432518948809586,99.5246784241586,3.908769410300109
sz300319,2013-05-24,21.25,22.32,21.17,21.72,0.020197,4175941.0,90322412.67,396954720.0,1158544800.0,0.22849316042897788,22.58,2013-03-31 00:00:00,2013-04-18 00:00:00,36.5493608607955,7.368779045928348,101.2494630268205,3.976509245293687
sz300319,2013-05-23,19.41,21.29,19.1,21.29,0.100258,3715912.0,77010612.44,389096040.0,1135608600.0,0.20332195228715255,22.13,2013-03-31 00:00:00,2013-04-18 00:00:00,35.82578743203077,7.222898171557404,99.24501152896988,3.8977856681539813
sz300319,2013-05-22,19.05,19.95,18.86,19.35,0.015747999999999998,2316290.0,45019286.43,258129000.0,1032129000.0,0.17363493253373316,20.12,2013-03-31 00:00:00,2013-04-18 00:00:00,32.5612605698216,6.564731337156743,90.20158138270286,3.542610613287048
sz300319,2013-05-21,18.73,19.15,18.51,19.05,0.016541999999999998,1385373.0,26141757.24,254127000.0,1016127000.0,0.10385104947526237,19.81,2013-03-31 00:00:00,2013-04-18 00:00:00,32.05643581855106,6.4629527571373435,88.80311000632328,3.4876865258775287
sz300319,2013-05-20,18.2,18.74,18.15,18.74,0.041111,1292712.0,23857582.09,249991600.0,999591600.0,0.09690494752623686,19.48,2013-03-31 00:00:00,2013-04-18 00:00:00,31.534787365943615,6.357782321967359,87.35803341753049,3.4309320479404968
sz300319,2013-05-17,17.83,18.22,17.64,18.0,0.008969,785992.0,14116218.73,240120000.0,960120000.0,0.058919940029985005,18.71,2013-03-31 00:00:00,2013-04-18 00:00:00,30.289553530741312,6.106728602394326,83.9084722162483,3.2954526923070615
sz300319,2013-05-16,18.18,18.4,17.69,17.84,-0.025137,1486075.0,26786841.46,237985600.0,951585600.0,0.11139992503748126,18.55,2013-03-31 00:00:00,2013-04-18 00:00:00,30.020301447062607,6.052444230094608,83.16258697368136,3.266158516571928
sz300319,2013-05-15,17.5,18.4,17.5,18.3,0.043925,1080488.0,19420889.42,244122000.0,976122000.0,0.08099610194902548,19.03,2013-03-31 00:00:00,2013-04-18 00:00:00,30.794379771375674,6.208507482686908,85.3069477184808,3.35037694175687
sz300319,2013-05-14,18.07,18.07,17.5,17.53,-0.026111000000000002,661651.0,11683755.42,233850200.0,935050200.0,0.04959902548725637,18.23,2013-03-31 00:00:00,2013-04-18 00:00:00,29.498651504059847,5.947273494443478,81.71750625617818,3.209403876482382
sz300319,2013-05-13,17.47,18.19,17.47,18.0,0.022147,897517.0,16105848.28,240120000.0,960120000.0,0.06728013493253374,18.71,2013-03-31 00:00:00,2013-04-18 00:00:00,30.289541728122867,6.106726222848271,83.90843952049791,3.295451408201943
sz300319,2013-05-10,17.84,18.2,17.4,17.61,-0.010674,1293410.0,22907492.24,234917400.0,939317400.0,0.09695727136431784,18.31,2013-03-31 00:00:00,2013-04-18 00:00:00,29.63325405066284,5.97441094367862,82.0903837906856,3.2240484081075844
sz300319,2013-05-09,17.3,17.9,17.21,17.8,0.035673,1342327.0,23665463.66,237452000.0,949452000.0,0.10062421289355322,18.51,2013-03-31 00:00:00,2013-04-18 00:00:00,29.952972074586977,6.038869840354565,82.97607036576981,3.258833193616244
sz300319,2013-05-08,17.25,17.41,17.1,17.38,0.007536,614401.0,10621706.15,231849200.0,927049200.0,0.04605704647676162,17.87,2013-03-31 00:00:00,2013-04-18 00:00:00,28.92126382998009,5.830865379665747,80.1180202301014,3.1465850646065343
sz300319,2013-05-07,17.39,17.45,17.12,17.25,-0.011461,655073.0,11319332.03,230115000.0,920115000.0,0.04910592203898051,17.73,2013-03-31 00:00:00,2013-04-18 00:00:00,28.704943376693333,5.787252643742503,79.51876680347044,3.1230497616030934
sz300319,2013-05-06,17.26,17.69,17.1,17.45,0.011594,922057.0,16126068.44,232783000.0,930783000.0,0.06911971514242879,17.94,2013-03-31 00:00:00,2013-04-18 00:00:00,29.03774497181531,5.854349341545963,80.44069763911233,3.159258017744463
sz300319,2013-05-03,17.2,17.36,17.05,17.25,0.002907,676573.0,11668772.34,230115000.0,920115000.0,0.05071761619190405,17.73,2013-03-31 00:00:00,2013-04-18 00:00:00,28.704939898630585,5.7872519425243345,79.51875716850071,3.123049383195692
sz300319,2013-05-02,16.65,17.2,16.65,17.2,0.021985,397131.0,6756685.3,229448000.0,917448000.0,0.02976994002998501,17.68,2013-03-31 00:00:00,2013-04-18 00:00:00,28.62173651059429,5.770477165404505,79.28826617871918,3.1139969939343253
sz300319,2013-04-26,16.94,16.94,16.55,16.83,0.007784,361978.0,6048501.3,224512200.0,897712200.0,0.02713478260869565,17.3,2013-03-31 00:00:00,2013-04-18 00:00:00,28.006024071384893,5.646342329294955,77.58261244413488,3.04700851180235
sz300319,2013-04-25,16.92,17.2,16.67,16.7,-0.013002000000000001,767337.0,13021785.01,222778000.0,890778000.0,0.05752151424287856,17.17,2013-03-31 00:00:00,2013-04-18 00:00:00,27.78970897671018,5.602730673730636,76.98337386199313,3.0234737918069254
sz300319,2013-04-24,16.26,16.95,16.26,16.92,0.034862,485767.0,8127640.93,225712800.0,902512800.0,0.036414317841079465,17.4,2013-03-31 00:00:00,2013-04-18 00:00:00,28.155790565644697,5.6765370079074495,77.99749732217607,3.063302855534587
sz300319,2013-04-23,16.65,16.65,16.26,16.35,-0.020958,754890.0,12402923.02,218109000.0,872109000.0,0.05658845577211395,16.81,2013-03-31 00:00:00,2013-04-18 00:00:00,27.207290020934863,5.485308193660072,75.36995012105582,2.9601075849094722
sz300319,2013-04-22,16.54,16.8,16.54,16.7,0.0,504036.0,8423254.05,222778000.0,890778000.0,0.037783808095952026,17.17,2013-03-31 00:00:00,2013-04-18 00:00:00,27.78970669382403,5.602730213474061,76.98336753791546,3.0234735434327358
sz300319,2013-04-19,16.49,16.77,16.43,16.7,0.010896,814427.0,13556838.58,222778000.0,890778000.0,0.06105149925037481,17.17,2013-03-31 00:00:00,2013-04-18 00:00:00,27.78970669382403,5.602730213474061,76.98336753791546,3.0234735434327358
sz300319,2013-04-18,15.77,16.55,15.7,16.52,0.050891000000000006,1251206.0,20412440.34,220376800.0,881176800.0,0.09379355322338831,16.98,2013-03-31 00:00:00,2013-04-18 00:00:00,27.490173760529302,5.542340867383055,76.15359793481768,2.9908848619766384
sz300319,2013-04-17,15.6,15.9,15.57,15.72,0.0044729999999999995,436302.0,6831316.52,209704800.0,838504800.0,0.03270629685157421,16.16,2012-12-31 00:00:00,2013-03-28 00:00:00,31.85100205947167,6.616497360750855,97.45652725274907,2.9024866462699395
sz300319,2013-04-16,15.86,15.87,15.32,15.65,-0.015722999999999997,827520.0,12857080.41,208771000.0,834771000.0,0.062032983508245876,16.09,2012-12-31 00:00:00,2013-03-28 00:00:00,31.70916695567892,6.587033559638591,97.02254540714293,2.889561637067337
sz300319,2013-04-15,16.18,16.18,15.86,15.9,-0.017912,138690.0,2215944.66,212106000.0,848106000.0,0.01039655172413793,16.35,2012-12-31 00:00:00,2013-03-28 00:00:00,32.215694317431904,6.692255899140783,98.57239924039975,2.935719962030341
sz300319,2013-04-12,16.21,16.37,16.11,16.19,-0.004305,156808.0,2542017.2,215974600.0,863574600.0,0.011754722638680661,16.64,2012-12-31 00:00:00,2013-03-28 00:00:00,32.80326642564811,6.814313889530045,100.3702308147536,2.9892636525752687
sz300319,2013-04-11,16.35,16.44,16.21,16.26,-0.006111999999999999,168811.0,2752272.51,216908400.0,867308400.0,0.01265449775112444,16.72,2012-12-31 00:00:00,2013-03-28 00:00:00,32.945095059880906,6.8437763467026,100.80419286503759,3.0021880722262027
sz300319,2013-04-10,16.37,16.63,16.15,16.36,-0.012077,195531.0,3194760.03,218242400.0,872642400.0,0.014657496251874062,16.82,2012-12-31 00:00:00,2013-03-28 00:00:00,33.1476937641675,6.885862739768062,101.42409694556892,3.020650286778996
sz300319,2013-04-09,16.38,16.59,16.28,16.56,0.011607,250687.0,4122989.73,220910400.0,883310400.0,0.01879212893553223,17.03,2012-12-31 00:00:00,2013-03-28 00:00:00,33.552912285843625,6.970039911782661,102.66396970772914,3.0575766398585675
sz300319,2013-04-08,16.0,16.38,15.79,16.37,0.013622,378755.0,6099456.48,218375800.0,873175800.0,0.028392428785607195,16.83,2012-12-31 00:00:00,2013-03-28 00:00:00,33.16793209798235,6.890066905213844,101.48602145668146,3.022494545667011
sz300319,2013-04-03,16.45,16.5,16.11,16.15,-0.018237,403946.0,6583888.67,215441000.0,861441000.0,0.030280809595202393,16.6,2012-12-31 00:00:00,2013-03-28 00:00:00,32.72219042008002,6.797471745102064,100.12215742819458,2.98187543844452
sz300319,2013-04-02,16.73,16.9,16.42,16.45,-0.014969999999999999,497862.0,8296083.88,219443000.0,877443000.0,0.03732098950524738,16.91,2012-12-31 00:00:00,2013-03-28 00:00:00,33.33003018048146,6.923739991323837,101.98200322093477,3.0372660595729517
sz300319,2013-04-01,16.63,16.85,16.57,16.7,0.004209,373439.0,6238931.36,222778000.0,890778000.0,0.02799392803598201,17.17,2012-12-31 00:00:00,2013-03-28 00:00:00,33.83656353662473,7.028963576057417,103.53187539560702,3.0834249307868307
sz300319,2013-03-29,16.85,17.07,16.58,16.63,-0.013056,508287.0,8508531.1,221844200.0,887044200.0,0.03810247376311844,17.1,2012-12-31 00:00:00,2013-03-28 00:00:00,33.69474236600622,6.999502669322241,103.09793618221609,3.070501191272764
sz300319,2013-03-28,17.69,17.69,16.84,16.85,-0.072137,1276301.0,21932749.23,224779000.0,898779000.0,0.09567473763118442,17.32,2012-12-31 00:00:00,2013-03-28 00:00:00,34.14048047914189,7.092097088915116,104.46178930336076,3.1111199736487216
sz300319,2013-03-27,18.15,18.28,18.0,18.16,0.000551,479234.0,8691041.38,242254400.0,968654400.0,0.03592458770614693,18.67,2012-09-30 00:00:00,2012-10-23 00:00:00,47.41657445163759,10.480894864344881,517.9847238272121,3.4228706293734326
sz300319,2013-03-26,18.35,18.42,17.83,18.15,-0.013587,585983.0,10542958.65,242121000.0,968121000.0,0.0439267616191904,18.66,2012-09-30 00:00:00,2012-10-23 00:00:00,47.390462306906485,10.475123071532467,517.6994714184605,3.420985666271317
sz300319,2013-03-25,18.68,18.69,18.32,18.4,-0.015516,571905.0,10551910.2,245456000.0,981456000.0,0.042871439280359816,18.92,2012-09-30 00:00:00,2012-10-23 00:00:00,48.04322561331459,10.619408981362236,524.8303412652311,3.468106833822463
sz300319,2013-03-22,18.36,18.98,18.3,18.69,0.016866,1249951.0,23331861.26,249324600.0,996924600.0,0.09369947526236881,19.22,2012-09-30 00:00:00,2012-10-23 00:00:00,48.80041281860811,10.786776607199544,533.1019511391055,3.5227660721986975
sz300319,2013-03-21,18.28,18.57,18.18,18.38,-0.0010869999999999999,981653.0,18040557.8,245189200.0,980389200.0,0.07358718140929535,18.9,2012-09-30 00:00:00,2012-10-23 00:00:00,47.99099666879226,10.607864366789277,524.259785595256,3.4643365715823893
sz300319,2013-03-20,17.41,18.46,17.41,18.4,0.049031,1418364.0,25857417.55,245456000.0,981456000.0,0.10632413793103447,18.92,2012-09-30 00:00:00,2012-10-23 00:00:00,48.04321964855024,10.619407662918869,524.8302761053825,3.4681064032427145
sz300319,2013-03-19,17.59,17.63,17.28,17.54,0.005734,188642.0,3289112.61,233983600.0,935583600.0,0.014141079460269865,18.03,2012-09-30 00:00:00,2012-10-23 00:00:00,45.79771203000696,10.123063725398838,500.300063682944,3.3060094537174916
sz300319,2013-03-18,17.52,17.65,17.43,17.44,-0.011898,235595.0,4127874.18,232649600.0,930249600.0,0.017660794602698652,17.93,2012-09-30 00:00:00,2012-10-23 00:00:00,45.53660513615625,10.065349014151694,497.44769857929043,3.287160873270161
sz300319,2013-03-15,17.49,17.85,17.32,17.65,0.00742,374335.0,6589926.65,235451000.0,941451000.0,0.02806109445277361,18.15,2012-09-30 00:00:00,2012-10-23 00:00:00,46.08492355663307,10.186548569025964,503.4375991337842,3.326742454999748
sz300319,2013-03-14,17.72,18.09,17.4,17.52,-0.023955,482364.0,8512307.45,233716800.0,934516800.0,0.0361592203898051,18.01,2012-09-30 00:00:00,2012-10-23 00:00:00,45.745492005948925,10.111521082593123,499.7296054612616,3.3022398354209246
sz300319,2013-03-13,18.66,18.66,17.5,17.95,0.008994,657597.0,11868310.94,239453000.0,957453000.0,0.04929512743628186,18.45,2012-09-30 00:00:00,2012-10-23 00:00:00,46.8682202213514,10.35968739411925,511.9944320817807,3.3832864626333055
sz300319,2013-03-12,18.25,18.37,17.31,17.79,-0.025205,811617.0,14478228.54,237318600.0,948918600.0,0.06084085457271364,18.29,2012-09-30 00:00:00,2012-10-23 00:00:00,46.45044491974323,10.267342911969001,507.4306012541013,3.3531284255736957
sz300319,2013-03-11,18.17,18.27,18.01,18.25,0.004403,210383.0,3819353.99,243455000.0,973455000.0,0.015770839580209896,18.76,2012-09-30 00:00:00,2012-10-23 00:00:00,47.65150100251154,10.532822708332523,520.551091515756,3.439829323676974
sz300319,2013-03-08,18.08,18.4,18.0,18.17,-0.013036,470594.0,8574419.87,242387800.0,969187800.0,0.03527691154422789,18.68,2012-09-30 00:00:00,2012-10-23 00:00:00,47.44261118546194,10.48664998843345,518.2691524375733,3.424750148771931
sz300319,2013-03-07,18.47,18.6,18.02,18.41,-0.009683,642997.0,11774867.34,245589400.0,981989400.0,0.04820067466266867,18.93,2012-09-30 00:00:00,2012-10-23 00:00:00,48.069241821851605,10.62515956856932,525.1145456547284,3.4699848715575556
sz300319,2013-03-06,17.96,18.64,17.96,18.59,0.035078,1095527.0,20209982.69,247990600.0,991590600.0,0.08212346326836582,19.11,2012-09-30 00:00:00,2012-10-23 00:00:00,48.539247353980194,10.72904894954779,530.2489462007906,3.503913263689864
sz300319,2013-03-05,17.65,17.98,17.56,17.96,0.023362,569099.0,10157811.31,239586400.0,957986400.0,0.042661094452773614,18.46,2012-09-30 00:00:00,2012-10-23 00:00:00,46.89428946802095,10.365449704802721,512.2792158666213,3.3851683290436703
sz300319,2013-03-04,18.26,18.26,17.48,17.55,-0.044118,827684.0,14797721.94,234117000.0,936117000.0,0.06204527736131934,18.04,2012-09-30 00:00:00,2012-10-23 00:00:00,45.823754905909105,10.128820207123892,500.5845593901486,3.3078894164955024
sz300319,2013-03-01,17.98,18.38,17.77,18.36,0.022841,790130.0,14360279.63,244922400.0,979322400.0,0.059230134932533735,18.88,2012-09-30 00:00:00,2012-10-23 00:00:00,47.93871514047665,10.596308129166458,523.6886554931974,3.4605625134645304
sz300319,2013-02-28,17.86,17.95,17.61,17.95,0.014698,505031.0,9014808.66,239453000.0,957453000.0,0.03785839580209895,18.45,2012-09-30 00:00:00,2012-10-23 00:00:00,46.868198615891075,10.359682618477805,511.9941960609688,3.383284902995216
sz300319,2013-02-27,18.16,18.18,17.53,17.69,-0.012835,548436.0,9748637.25,235984600.0,943584600.0,0.041112143928035985,18.19,2012-09-30 00:00:00,2012-10-23 00:00:00,46.18930816448941,10.209621600198092,504.57790994066096,3.3342776895147286
sz300319,2013-02-26,18.35,18.4,17.84,17.92,-0.023433000000000002,668781.0,12142225.76,239052800.0,955852800.0,0.05013350824587707,18.42,2012-09-30 00:00:00,2012-10-23 00:00:00,46.789855965810595,10.342365866089352,511.1383709315677,3.3776295649812638
sz300319,2013-02-25,18.49,18.62,18.13,18.35,-0.00542,703600.0,12886885.67,244789000.0,978789000.0,0.052743628185907054,18.87,2012-09-30 00:00:00,2012-10-23 00:00:00,47.912591727767364,10.590533845695534,523.4032799916112,3.45867673695841
sz300319,2013-02-22,18.1,18.47,17.92,18.45,0.012623,1191257.0,21752292.1,246123000.0,984123000.0,0.08929962518740629,18.97,2012-09-30 00:00:00,2012-10-23 00:00:00,48.17369314461116,10.648247346312548,526.2555852637406,3.4775249220358444
sz300319,2013-02-21,17.9,18.4,17.82,18.22,0.008301000000000001,1423999.0,25867194.33,243054800.0,971854800.0,0.10674655172413793,18.73,2012-09-30 00:00:00,2012-10-23 00:00:00,47.57317693219605,10.51551006278995,519.6954693540839,3.43417532688458
sz300319,2013-02-20,17.86,18.07,17.56,18.07,0.023796,817057.0,14604536.67,241053800.0,963853800.0,0.06124865067466267,18.58,2012-09-30 00:00:00,2012-10-23 00:00:00,47.18152310886933,10.428939436527338,515.4169928960539,3.4059029266901257
sz300319,2013-02-19,17.98,18.04,17.55,17.65,-0.021619,535920.0,9487197.88,235451000.0,941451000.0,0.040173913043478254,18.15,2012-09-30 00:00:00,2012-10-23 00:00:00,46.08488713461405,10.186540518352619,503.43720125499016,3.3267398257954963
sz300319,2013-02-18,17.91,18.27,17.78,18.04,0.006135,848153.0,15252313.51,240653600.0,962253600.0,0.0635796851574213,18.55,2012-09-30 00:00:00,2012-10-23 00:00:00,47.10321146323779,10.41162953731994,514.5615064632185,3.40024982680111
sz300319,2013-02-08,17.65,18.11,17.62,17.93,0.010140999999999999,843209.0,15106143.36,239186200.0,956386200.0,0.06320907046476762,18.43,2012-09-30 00:00:00,2012-10-23 00:00:00,46.81599533187673,10.348143675868487,511.4239207096647,3.379516493115844
sz300319,2013-02-07,17.43,17.75,17.42,17.75,0.014865999999999999,521787.0,9187785.22,236785000.0,946785000.0,0.03911446776611694,18.25,2012-09-30 00:00:00,2012-10-23 00:00:00,46.346000540396574,10.244256668988278,506.28963749581965,3.3455888763210724
sz300319,2013-02-06,17.66,17.67,17.43,17.49,-0.003986,523855.0,9183837.12,233316600.0,932916600.0,0.03926949025487256,17.98,2012-09-30 00:00:00,2012-10-23 00:00:00,45.66711323504441,10.094196346107053,498.87338574335894,3.2965818899451484
sz300319,2013-02-05,16.99,17.56,16.97,17.56,0.031122000000000004,823503.0,14309922.93,234250400.0,936650400.0,0.06173185907046476,18.05,2012-09-30 00:00:00,2012-10-23 00:00:00,45.84987082013347,10.13459283313995,500.8698529773266,3.309774651706852
sz300319,2013-02-04,17.25,17.28,16.94,17.03,-0.009884,650299.0,11097146.25,227180200.0,908380200.0,0.04874805097451274,17.51,2012-09-30 00:00:00,2012-10-23 00:00:00,44.46599996909528,9.82870391005133,485.7522708053233,3.2098768639470903
sz300319,2013-02-01,17.03,17.3,17.01,17.2,0.008206,542561.0,9313961.93,229448000.0,917448000.0,0.04067173913043478,17.68,2012-09-30 00:00:00,2012-10-23 00:00:00,44.90988931508558,9.926820604910263,490.60137479378506,3.2419200012393397
sz300319,2013-01-31,17.28,17.47,16.86,17.06,-0.017847,1087221.0,18596325.73,227580400.0,909980400.0,0.08150082458770613,17.54,2012-09-30 00:00:00,2012-10-23 00:00:00,44.544358310787274,9.846024130892163,486.6082673518955,3.2155333346948347
sz300319,2013-01-30,17.69,17.75,17.27,17.37,-0.017534,792030.0,13823962.99,231715800.0,926515800.0,0.05937256371814093,17.86,2012-09-30 00:00:00,2012-10-23 00:00:00,45.353787353688546,10.024939221172428,495.4505737414593,3.2739637660271206
sz300319,2013-01-29,17.9,17.9,17.59,17.68,-0.002257,751633.0,13343640.6,235851200.0,943051200.0,0.056344302848575716,18.18,2012-09-30 00:00:00,2012-10-23 00:00:00,46.16321313275833,10.203853590019834,504.2928444765104,3.3323939617524885
sz300319,2013-01-28,17.42,17.76,17.29,17.72,0.027842000000000002,704937.0,12389400.91,236384800.0,945184800.0,0.052843853073463266,18.22,2012-09-30 00:00:00,2012-10-23 00:00:00,46.267639194420134,10.226935784084514,505.43360813005995,3.33993218870239
sz300319,2013-01-25,17.23,17.37,17.0,17.24,0.002326,421258.0,7262575.75,229981600.0,919581600.0,0.03157856071964017,17.72,2012-09-30 00:00:00,2012-10-23 00:00:00,45.014349670883405,9.949910379303935,491.74251308086264,3.2494607037875376
sz300319,2013-01-24,17.6,17.81,17.0,17.2,-0.026599,1131447.0,19708300.89,229448000.0,917448000.0,0.08481611694152924,17.68,2012-09-30 00:00:00,2012-10-23 00:00:00,44.909889268445,9.926820594600892,490.60137428427737,3.241919997872486
sz300319,2013-01-23,17.41,17.72,17.28,17.67,0.015517,951356.0,16667897.82,235717800.0,942517800.0,0.07131604197901051,18.17,2012-09-30 00:00:00,2012-10-23 00:00:00,46.137089717850095,10.198079306062859,504.0074689509024,3.330508185087632
sz300319,2013-01-22,18.55,18.55,17.36,17.4,-0.064013,2068751.0,36818442.31,232116000.0,928116000.0,0.15507878560719637,17.89,2012-09-30 00:00:00,2012-10-23 00:00:00,45.43211951926959,10.042253656081442,496.30628433684757,3.2796183471942193
sz300319,2013-01-21,18.4,18.65,18.35,18.59,0.009777,988757.0,18294853.78,247990600.0,991590600.0,0.07411971514242878,19.11,2012-09-30 00:00:00,2012-10-23 00:00:00,48.5392633864248,10.729052493337452,530.249121341266,3.5039144210274493
sz300319,2013-01-18,18.88,19.04,18.25,18.41,-0.02541,1711567.0,31706765.62,245589400.0,981989400.0,0.12830337331334332,18.93,2012-09-30 00:00:00,2012-10-23 00:00:00,48.06928993869419,10.625170204250496,525.1150712892709,3.4699883449785935
sz300319,2013-01-17,18.86,19.2,18.63,18.89,0.001591,952508.0,17957194.66,251992600.0,1007592600.0,0.0714023988005997,19.42,2012-09-30 00:00:00,2012-10-23 00:00:00,49.32257661036353,10.902194978658201,538.806135184304,3.560459624025071
sz300319,2013-01-16,19.09,19.26,18.5,18.86,-0.026831999999999998,1267384.0,23972463.24,251592400.0,1005992400.0,0.09500629685157422,19.39,2012-09-30 00:00:00,2012-10-23 00:00:00,49.24422904195777,10.884877139129847,537.9502563264887,3.5548039309708965
sz300319,2013-01-15,19.6,19.6,18.92,19.38,0.0,1954044.0,37468070.6,258529200.0,1033729200.0,0.14648005997001498,19.92,2012-09-30 00:00:00,2012-10-23 00:00:00,50.60198140707234,11.184992867757517,552.7825168177422,3.6528162978754914
sz300319,2013-01-14,18.8,19.54,18.65,19.38,0.017322999999999998,2852555.0,54501590.59,258529200.0,1033729200.0,0.2138347076461769,19.92,2012-09-30 00:00:00,2012-10-23 00:00:00,50.60198140707234,11.184992867757517,552.7825168177422,3.6528162978754914
sz300319,2013-01-11,17.99,19.5,17.99,19.05,0.07445,4538819.0,86774845.95,254127000.0,1016127000.0,0.34024130434782607,19.59,2012-09-30 00:00:00,2012-10-23 00:00:00,49.74032967609338,10.994534545820272,543.3697231044047,3.5906160559384697
sz300319,2013-01-10,17.63,17.96,17.45,17.73,0.001129,742212.0,13177462.86,236518200.0,945718200.0,0.05563808095952024,18.23,2012-09-30 00:00:00,2012-10-23 00:00:00,46.29375929647111,10.232709335772045,505.71894746559144,3.3418177262212945
sz300319,2013-01-09,18.06,18.06,17.44,17.71,-0.025852999999999998,1436338.0,25526267.28,236251400.0,944651400.0,0.10767151424287856,18.21,2012-09-30 00:00:00,2012-10-23 00:00:00,46.241552583604225,10.221169635253844,505.1486346570637,3.3380490688225946
sz300319,2013-01-08,18.16,18.4,17.72,18.18,0.00055,1449094.0,26265584.22,242521200.0,969721200.0,0.10862773613193404,18.69,2012-09-30 00:00:00,2012-10-23 00:00:00,47.468762500530445,10.49243043940375,518.5548327481004,3.426637939471758
sz300319,2013-01-07,18.27,18.27,17.88,18.17,-0.009269,1282474.0,23137482.89,242387800.0,969187800.0,0.09613748125937033,18.68,2012-09-30 00:00:00,2012-10-23 00:00:00,47.44266903256253,10.486662774877567,518.2697843666987,3.4247543245932315
sz300319,2013-01-04,17.9,18.9,17.84,18.34,0.033822000000000005,2006024.0,36977036.82,244655600.0,978255600.0,0.15037661169415292,18.86,2012-09-30 00:00:00,2012-10-23 00:00:00,47.88652927238828,10.584773036149635,523.1185703956962,3.4567953607924156
