code,date,open,high,low,close,change,volume,money,traded_market_value,market_value,turnover,adjust_price,report_type,report_date,PE_TTM,PS_TTM,PC_TTM,PB
sz300216,2014-12-01,37.8,37.99,36.61,37.0,-0.020387,3652965.0,135455167.79,4512329820.0,6689513420.0,0.02995341883054107,98.65,2014-09-30 00:00:00,2014-10-25 00:00:00,68.68107560880797,13.304822898741525,51.20356032459473,7.362747477776765
sz300216,2014-11-28,36.09,38.23,35.78,37.77,0.047712,6607416.0,246804290.41,4606235060.0,6828727620.0,0.05417919386858212,100.71,2014-09-30 00:00:00,2014-10-25 00:00:00,70.11041667353128,13.581713287534493,52.2691719327885,7.515975673839329
sz300216,2014-11-27,35.83,36.28,35.51,36.05,0.004178,3487526.0,125570042.67,4396472700.0,6517755640.0,0.028596859546062912,96.12,2014-09-30 00:00:00,2014-10-25 00:00:00,66.9176421321234,12.96321249306536,49.888873977570654,7.17370391275401
sz300216,2014-11-26,36.3,36.3,35.38,35.9,-0.006640999999999999,3408095.0,121724543.11,4378179470.0,6490635990.0,0.027945544795129194,95.72,2014-09-30 00:00:00,2014-10-25 00:00:00,66.63922345652206,12.909277531538592,49.68130548326159,7.1438568787147405
sz300216,2014-11-25,36.06,36.3,35.58,36.14,0.003889,3949349.0,141733500.17,4407448640.0,6534027430.0,0.03238369508487341,96.36,2014-09-30 00:00:00,2014-10-25 00:00:00,67.08473316950072,12.995581186196121,50.013444769979024,7.191616403248716
sz300216,2014-11-24,36.1,36.49,35.46,36.0,-0.000278,2924528.0,105261898.36,4390374960.0,6508715760.0,0.023980413736689132,95.99,2014-09-30 00:00:00,2014-10-25 00:00:00,66.82485132270672,12.945237158885217,49.819695972342586,7.16375655401017
sz300216,2014-11-21,36.56,36.56,35.57,36.01,-0.007989,3332691.0,119725311.47,4391594510.0,6510523740.0,0.027327250418208576,96.01,2014-09-30 00:00:00,2014-10-25 00:00:00,66.84343379730237,12.9488369355533,49.83354969915895,7.165748632129903
sz300216,2014-11-20,36.9,36.9,35.91,36.3,-0.015993,3031390.0,110354989.7,4426961420.0,6562955060.0,0.024856655967876038,96.79,2014-09-30 00:00:00,2014-10-25 00:00:00,67.38174657065532,13.053118297633091,50.23487612451772,7.223456828734663
sz300216,2014-11-19,36.67,37.66,36.33,36.89,0.009579,3627488.0,134242752.47,4498914790.0,6669625680.0,0.029744513636365183,98.36,2014-09-30 00:00:00,2014-10-25 00:00:00,68.47689759387416,13.265269756854465,51.051340208471814,7.340859189756438
sz300216,2014-11-18,36.65,36.79,35.94,36.54,-0.00436,2251431.0,81794675.37,4456230580.0,6606346500.0,0.01846118311499043,97.43,2014-09-30 00:00:00,2014-10-25 00:00:00,67.82718102681827,13.139407373622534,50.566959305286474,7.271208285588783
sz300216,2014-11-17,37.2,37.28,36.5,36.7,-0.0073030000000000005,3478277.0,128134497.05,4475743360.0,6635274120.0,0.028521020003255952,97.85,2014-09-30 00:00:00,2014-10-25 00:00:00,68.124202549936,13.196946058437323,50.788396714963724,7.303049581765281
sz300216,2014-11-14,37.1,37.49,35.62,36.97,-0.006183,3774364.0,138504492.09,4508671170.0,6684089490.0,0.030948860943434027,98.57,2014-09-30 00:00:00,2014-10-25 00:00:00,68.62537365372918,13.29403237688572,51.16203304227143,7.356776117753234
sz300216,2014-11-13,36.6,39.0,36.6,37.2,0.020856,7111090.0,268474763.42,4536720790.0,6725672950.0,0.058309197379546034,99.19,2014-09-30 00:00:00,2014-10-25 00:00:00,69.05232417409762,13.376740765035937,51.48033595950908,7.402546060042476
sz300216,2014-11-12,35.49,36.8,34.56,36.44,0.020728,4963440.0,178478148.21,4444035100.0,6588266730.0,0.04069899303900637,97.16,2014-09-30 00:00:00,2014-10-25 00:00:00,67.64159114909216,13.103455105358579,50.42859713760715,7.25131268273143
sz300216,2014-11-11,35.42,35.8,34.21,35.7,0.015647,5010737.0,174652869.9,4353788500.0,6454476460.0,0.04108681689521666,95.19,2014-09-30 00:00:00,2014-10-25 00:00:00,66.26798828786137,12.837362260424499,49.40453983588883,7.104059732594216
sz300216,2014-11-10,36.4,36.45,34.75,35.15,-0.031147,4385327.0,154527129.28,4286713330.0,6355037750.0,0.035958607955246684,93.72,2014-09-30 00:00:00,2014-10-25 00:00:00,65.24706742387991,12.639590586517262,48.64341630102667,6.994614991817251
sz300216,2014-11-07,36.8,36.8,35.9,36.28,-0.0049369999999999995,3719994.0,134906858.59,4424522320.0,6559339100.0,0.030503040228758528,96.73,2014-09-30 00:00:00,2014-10-25 00:00:00,67.34465127721121,13.045932237932135,50.207220601088785,7.219480139729403
sz300216,2014-11-06,35.5,36.74,35.23,36.46,0.022147,3993667.0,144362575.76,4446474200.0,6591882680.0,0.03274709180140976,97.21,2014-09-30 00:00:00,2014-10-25 00:00:00,67.67878142108712,13.110659564200594,50.45632347006047,7.255299553625653
sz300216,2014-11-05,34.77,35.97,34.6,35.67,0.019143,3258916.0,115774875.71,4350129860.0,6449052530.0,0.0267223134621549,95.11,2014-09-30 00:00:00,2014-10-25 00:00:00,66.21237593133583,12.8265890955025,49.36307935165927,7.098097977713238
sz300216,2014-11-04,36.38,36.58,34.9,35.0,-0.031544,4356599.0,155633253.05,4268420099.9999995,6327918100.0,0.035723045395648856,93.32,2014-09-30 00:00:00,2014-10-25 00:00:00,64.96868048089016,12.585661772197328,48.43587146421972,6.964771359576859
sz300216,2014-11-03,36.45,36.98,35.6,36.14,-0.014722,5441353.0,196281472.43,4407448640.0,6534027430.0,0.04461776267459807,96.36,2014-09-30 00:00:00,2014-10-25 00:00:00,67.08480352322682,12.995594815043045,50.01349722054458,7.191623945307644
sz300216,2014-10-31,37.56,38.19,36.29,36.68,-0.019513,5659735.0,208963092.85,4473304260.0,6631658170.0,0.04640844166499866,97.8,2014-09-30 00:00:00,2014-10-25 00:00:00,68.0871830318213,13.189774677850357,50.760797684049145,7.299081016025571
sz300216,2014-10-30,36.55,37.99,35.4,37.41,0.025493000000000002,7560641.0,281001537.68,4562331310.0,6763640460.0,0.06199540554848481,99.75,2014-09-30 00:00:00,2014-10-25 00:00:00,69.44220885317326,13.452268798923756,51.77100531067637,7.444342470655471
sz300216,2014-10-29,36.6,38.5,36.45,36.48,-0.003551,10207433.0,383357740.34,4448913290.0,6595498640.0,0.08369845208648694,97.27,2014-09-30 00:00:00,2014-10-25 00:00:00,67.71592673296966,13.117855313418772,50.48401628355959,7.2592816047066835
sz300216,2014-10-28,36.5,36.94,35.85,36.61,-0.010005,8411713.0,306104527.34,4464767420.0,6619002330.0,0.06897398765958564,97.61,2014-09-30 00:00:00,2014-10-25 00:00:00,67.95724290251648,13.164602818025578,50.66392387724769,7.285151176534557
sz300216,2014-10-27,36.58,38.63,35.85,36.98,0.052961,12835463.0,483462745.61,4509890720.0,6685897470.0,0.10524765481235429,98.6,2014-09-30 00:00:00,2014-10-25 00:00:00,68.64402638651356,13.297645763893332,51.17593914842771,7.358775727690096
sz300216,2014-10-24,36.0,36.31,34.66,35.12,0.00114,7994238.0,282696087.54,4283054679.9999995,6349613820.0,0.06555079482664929,93.64,2014-06-30 00:00:00,2014-07-30 00:00:00,95.20863161017388,14.384102392814016,59.98991095082191,7.47336405137989
sz300216,2014-10-23,32.57,35.08,32.12,35.08,0.100031,9898321.0,337893461.87,4278176490.0,6342381910.0,0.08116380927519892,93.53,2014-06-30 00:00:00,2014-07-30 00:00:00,95.10021736238077,14.367723188379264,59.921600326449756,7.464854117685729
sz300216,2014-10-22,32.9,32.99,31.6,31.89,-0.023875,2495954.0,80757270.0,3889140490.0,5765637380.0,0.020466211818437035,85.03,2014-06-30 00:00:00,2014-07-30 00:00:00,86.45230667352172,13.061198446570382,54.47264697672134,6.7860397731388735
sz300216,2014-10-21,33.65,33.68,32.2,32.67,-0.027679000000000002,4913863.0,161095679.47,3984265280.0,5906659550.0,0.04029247375064343,87.11,2014-06-30 00:00:00,2014-07-30 00:00:00,88.5668399779964,13.380661745750169,55.804991140193465,6.952019232310282
sz300216,2014-10-20,33.68,34.29,33.05,33.6,-0.001486,3357864.0,113159179.93,4097683300.0,6074801380.0,0.027533662838218856,89.59,2014-06-30 00:00:00,2014-07-30 00:00:00,91.08806657266108,13.761568191729037,57.393588269916485,7.149921921166243
sz300216,2014-10-17,33.1,34.8,32.81,33.65,0.030628,6307284.0,212264608.07,4103781040.0,6083841260.0,0.051718184896141536,89.72,2014-06-30 00:00:00,2014-07-30 00:00:00,91.22362487923162,13.782048315525909,57.47900206698803,7.160562517066604
sz300216,2014-10-16,32.98,33.49,32.5,32.65,-0.016566,4463313.0,147147313.19,3981826180.0,5903043600.0,0.03659807406510145,87.05,2014-06-30 00:00:00,2014-07-30 00:00:00,88.5126591546432,13.372476117014003,55.77085239969031,6.947766329913998
sz300216,2014-10-15,33.21,34.0,32.8,33.2,0.016845,8322204.0,277653232.58,4048901350.0,6002482310.0,0.06824003573216227,88.52,2014-06-30 00:00:00,2014-07-30 00:00:00,90.00365978260179,13.59773621515425,56.710315486031924,7.064801837148195
sz300216,2014-10-14,33.13,33.21,32.26,32.65,-0.010606,3769491.0,123206979.33,3981826180.0,5903043600.0,0.03090890349965,87.05,2014-06-30 00:00:00,2014-07-30 00:00:00,88.51266395822549,13.372476842738322,55.770855426374645,6.947766706969298
sz300216,2014-10-13,33.18,33.8,32.73,33.0,-0.014925,3689049.0,121951616.03,4024510380.0,5966322780.0,0.030249298797932284,87.99,2014-06-30 00:00:00,2014-07-30 00:00:00,89.4614925481916,13.515825690006531,56.36870187849799,7.0222446335527575
sz300216,2014-10-10,33.48,34.3,33.05,33.5,0.004799,4289503.0,144285282.34,4085487810.0,6056721610.0,0.035172874619346865,89.32,2014-06-30 00:00:00,2014-07-30 00:00:00,90.8169353076584,13.720605730534762,57.22275144379665,7.128639579273413
sz300216,2014-10-09,34.0,34.0,32.81,33.34,-0.013609,4905336.0,163549601.57,4065975030.0,6027793980.0,0.040222554500045714,88.89,2014-06-30 00:00:00,2014-07-30 00:00:00,90.3831863961433,13.655075025487447,56.94945102831178,7.094592629245662
sz300216,2014-10-08,35.0,35.0,32.88,33.8,-0.035663,8311193.0,280752516.93,4122074270.0,6110960910.0,0.06814974816065117,90.12,2014-06-30 00:00:00,2014-07-30 00:00:00,91.63018153667592,13.843470819875128,57.735168942449576,7.192475021817578
sz300216,2014-09-30,33.61,36.5,33.41,35.05,0.040677,8530265.0,300895314.19,4274517840.0,6336957980.0,0.06994608501856199,93.45,2014-06-30 00:00:00,2014-07-30 00:00:00,95.01883836944546,14.35542846523065,59.8703243186247,7.458466305676935
sz300216,2014-09-29,33.5,33.99,33.01,33.68,0.000297,5121040.0,171822588.86,4107439680.0,6089265190.0,0.0419912745255458,89.8,2014-06-30 00:00:00,2014-07-30 00:00:00,91.3048317291969,13.794317031346564,57.53016960942222,7.166936816780744
sz300216,2014-09-26,30.66,33.67,30.66,33.67,0.086129,9334628.0,305505326.99,4106220140.0,6087457210.0,0.07654166460739244,89.77,2014-06-30 00:00:00,2014-07-30 00:00:00,91.27772224568994,13.790221335609887,57.51308822222022,7.1648088685467854
sz300216,2014-09-25,30.78,31.95,30.45,31.0,0.018062,6631259.0,208330210.26,3780600660.0,5604727460.0,0.054374700606437495,82.65,2014-06-30 00:00:00,2014-07-30 00:00:00,84.03948540706484,12.696669857456975,52.95235485123794,6.596646317837738
sz300216,2014-09-24,29.75,30.58,29.53,30.45,0.019076,5415635.0,163170217.29,3713525490.0,5505288750.0,0.04440688132990303,81.19,2014-06-30 00:00:00,2014-07-30 00:00:00,82.54849449941639,12.47141122785938,52.01289788955677,6.479611573595458
sz300216,2014-09-23,30.93,31.11,29.08,29.88,-0.034884,8206707.0,244701686.39,3644011220.0,5402234080.0,0.06729298851061166,79.67,2014-06-30 00:00:00,2014-07-30 00:00:00,81.00327600631982,12.237959904716996,51.03927272309108,6.358320256384663
sz300216,2014-09-22,30.55,31.5,30.33,30.96,0.016081,6046468.0,186785869.05,3775722470.0,5597495550.0,0.049579557493270955,82.55,2014-06-30 00:00:00,2014-07-30 00:00:00,83.93112952880257,12.68029947148011,52.88408100486479,6.588140965836919
sz300216,2014-09-19,30.48,30.8,30.0,30.47,0.00894,3375236.0,102402923.27,3715964580.0,5508904700.0,0.0276761090440749,81.24,2014-06-30 00:00:00,2014-07-30 00:00:00,82.6027939985125,12.47961478610476,52.04711140633945,6.483873791397456
sz300216,2014-09-18,30.9,31.15,29.45,30.2,-0.022337,5935621.0,178442125.22,3683036770.0,5460089330.0,0.04867063931050571,80.52,2014-06-30 00:00:00,2014-07-30 00:00:00,81.87086843470624,12.369035607771286,51.58593316385459,6.4264215824503506
sz300216,2014-09-17,31.37,31.4,30.26,30.89,0.0,3624188.0,112226799.85,3767185630.0,5584839720.0,0.029717454438261914,82.36,2014-06-30 00:00:00,2014-07-30 00:00:00,83.74140008848266,12.651635182850619,52.76453457260281,6.573248228121909
sz300216,2014-09-16,31.8,32.73,30.4,30.89,-0.040087,6041122.0,190470977.59,3767185630.0,5584839720.0,0.0495357215991504,82.36,2014-06-30 00:00:00,2014-07-30 00:00:00,83.74140008848266,12.651635182850619,52.76453457260281,6.573248228121909
sz300216,2014-09-15,31.78,32.88,31.33,32.18,0.006569,4379433.0,141048451.45,3924507390.0,5940428000.0,0.03591027865028431,85.8,2014-06-30 00:00:00,2014-07-30 00:00:00,87.23853108404894,13.17998108458852,54.96803832493447,6.847754148680047
sz300216,2014-09-12,31.9,32.64,31.15,31.97,0.012029,5549355.0,176814054.63,3851517330.0,5901662000.0,0.04606311335226421,85.24,2014-06-30 00:00:00,2014-07-30 00:00:00,86.66920110200985,13.093966816570468,54.609309769061504,6.803064815904372
sz300216,2014-09-11,32.02,33.49,31.17,31.59,-0.024699000000000002,7732732.0,248899916.69,3805737650.0,5831514000.0,0.06418650636099417,84.23,2014-06-30 00:00:00,2014-07-30 00:00:00,85.63904898180766,12.938331625447953,53.96022225554949,6.722203430834858
sz300216,2014-09-10,33.4,33.4,31.98,32.39,-0.035438,6335523.0,206122960.39,3902115940.0,5979194000.0,0.052588798776183984,86.36,2014-06-30 00:00:00,2014-07-30 00:00:00,87.80781418434685,13.265988269721813,55.32673734113827,6.892439801491907
sz300216,2014-09-09,33.0,34.3,32.6,33.58,0.02597,8303083.0,277932520.47,4045478640.0,6198868000.0,0.06892077599500068,89.53,2014-06-30 00:00:00,2014-07-30 00:00:00,91.03387256013283,13.753380570374754,57.35944121905929,7.145667983490855
sz300216,2014-09-05,29.44,32.73,29.0,32.73,0.100168,10152151.0,318140980.5,3943076710.0,6041958000.0,0.08426919552117969,87.27,2014-06-30 00:00:00,2014-07-30 00:00:00,88.72956573791907,13.405246323357167,55.90752285062847,6.9647923267647736
sz300216,2014-09-04,29.33,31.35,28.7,29.75,0.015705,9887241.0,299539966.83,3584067590.0,5491850000.0,0.08207027695869988,79.32,2014-06-30 00:00:00,2014-07-30 00:00:00,80.65092398426339,12.184726626621723,50.817259591833675,6.33066252314626
sz300216,2014-09-03,27.0,30.0,26.9,29.29,0.074074,11729756.0,333429333.61,3528650070.0,5406934000.0,0.0973643026155892,78.1,2014-06-30 00:00:00,2014-07-30 00:00:00,79.40388595533484,11.996324352663146,50.031514654189614,6.2327767640665925
sz300216,2014-09-02,27.48,27.48,26.2,27.27,0.069412,14315040.0,385977579.84,3285294890.0,5034042000.0,0.11882377499451807,72.71,2014-06-30 00:00:00,2014-07-30 00:00:00,73.92776098791596,11.168992408961715,46.58106858018127,5.802930490884793
sz300216,2014-09-01,25.5,25.5,25.5,25.5,0.10008600000000001,1132044.0,28867122.0,3072057930.0,4707300000.0,0.009396672412359098,67.99,2014-06-30 00:00:00,2014-07-30 00:00:00,69.12935425066856,10.444050009689171,43.55764530431795,5.426281443339698
sz300216,2014-08-15,23.02,23.56,22.8,23.18,0.011784999999999999,3663226.0,84788070.23,2792560890.0,4279028000.0,0.030407064348738334,61.8,2014-06-30 00:00:00,2014-07-30 00:00:00,62.839954558705905,9.49384867154856,39.59476377693921,4.932597490868621
sz300216,2014-08-14,23.0,23.88,22.68,22.91,-0.009511,6437740.0,149828165.93,2760033220.0,4229186000.0,0.05343726384568661,61.08,2014-06-30 00:00:00,2014-07-30 00:00:00,62.1080116415107,9.383266871468308,39.13357460027497,4.875143919774083
sz300216,2014-08-13,23.55,23.55,22.67,23.13,-0.015745,5369620.0,123476886.26,2786537250.0,4269798000.0,0.0445712005464847,61.67,2014-06-30 00:00:00,2014-07-30 00:00:00,62.704393124518006,9.47336807523184,39.50934800919039,4.921956649467166
sz300216,2014-08-12,22.4,23.99,22.17,23.5,0.04398,12630526.0,293828940.1,2831112210.0,4338100000.0,0.10484125636263636,62.66,2014-06-30 00:00:00,2014-07-30 00:00:00,63.707467195511335,9.624912319705604,40.1413739419057,5.0006925537255755
sz300216,2014-08-11,20.78,22.58,20.45,22.51,0.088491,10740026.0,231161990.3,2711844080.0,4155346000.0,0.08914892528039445,60.02,2014-06-30 00:00:00,2014-07-30 00:00:00,61.023647192006884,9.219441291696782,38.45032849470843,4.790027159261266
sz300216,2014-08-08,20.86,20.88,20.27,20.68,-0.009579,4269474.0,87789504.36,2491378740.0,3817528000.0,0.035439301500983345,55.14,2014-06-30 00:00:00,2014-07-30 00:00:00,56.06261070785782,8.469928820446636,35.32443400515798,4.400612553765962
sz300216,2014-08-07,21.4,21.45,20.6,20.88,-0.019258,4698863.0,99023591.93,2515473320.0,3854448000.0,0.03900349833167779,55.67,2014-06-30 00:00:00,2014-07-30 00:00:00,56.604828358705866,8.551846962500429,35.666079379534544,4.443173714779838
sz300216,2014-08-06,21.72,21.9,21.24,21.29,-0.021149,6998435.0,150375101.27,2564867190.0,3930134000.0,0.05809138256004592,56.77,2014-06-30 00:00:00,2014-07-30 00:00:00,57.71632943088587,8.719772338189278,36.36642397239493,4.530420553805015
sz300216,2014-08-05,21.11,21.8,20.62,21.75,0.030806,9326338.0,198861436.2,2620284710.0,4015050000.0,0.07741443161724208,57.99,2014-06-30 00:00:00,2014-07-30 00:00:00,58.96334521892083,8.908171251997778,37.15215489629671,4.628304567094497
sz300216,2014-08-04,21.16,21.29,20.91,21.1,0.0018989999999999999,3771339.0,79599047.34,2541977350.0,3895060000.0,0.03130446968774132,56.26,2014-06-30 00:00:00,2014-07-30 00:00:00,57.201204900748365,8.641947419783914,36.04184967520242,4.489986056633834
sz300216,2014-08-01,21.19,21.55,20.72,21.06,-0.005666,7754015.0,164662547.55,2537158430.0,3887676000.0,0.06436316864138437,56.15,2014-06-30 00:00:00,2014-07-30 00:00:00,57.092785700702734,8.625567467163771,35.973535930470455,4.481475734214561
sz300216,2014-07-31,21.59,21.6,20.97,21.18,-0.009818,4979476.0,105303376.8,2551615170.0,3909828000.0,0.041332761664056104,56.47,2014-06-30 00:00:00,2014-07-30 00:00:00,57.418116750209414,8.674718421741357,36.17852344430589,4.507012466851742
sz300216,2014-07-30,21.15,21.55,20.88,21.39,0.013744,6543188.0,138599962.66,2576914480.0,3948594000.0,0.05431254797404064,57.03,2014-06-30 00:00:00,2014-07-30 00:00:00,57.98743741070775,8.760731281462759,36.537246126778605,4.551701067936746
sz300216,2014-07-29,20.6,21.24,20.43,21.1,0.023278,8078932.0,169063732.76,2541977350.0,3895060000.0,0.06706018257794469,56.26,2014-03-31 00:00:00,2014-04-24 00:00:00,45.747419720806874,8.220196031687431,35.24588425460752,4.447563320730715
sz300216,2014-07-28,20.53,20.7,19.92,20.62,0.018272,6393058.0,130098525.77,2484150370.0,3806452000.0,0.053066375349894786,54.98,2014-03-31 00:00:00,2014-04-24 00:00:00,44.706736312914835,8.033199220238712,34.44409462004217,4.346388098572152
sz300216,2014-07-25,20.3,20.65,19.9,20.25,0.013513999999999998,4489922.0,91542164.67,2439575420.0,3738150000.0,0.03726915747495111,53.99,2014-03-31 00:00:00,2014-04-24 00:00:00,43.90451305045689,7.889050489691078,33.82602548242726,4.2683959674548175
sz300216,2014-07-24,20.7,20.7,19.78,19.98,-0.017699,5424795.0,108755178.78,2407047740.0,3688308000.0,0.04502918753908886,53.27,2014-03-31 00:00:00,2014-04-24 00:00:00,43.319098749950065,7.783859413576011,33.37499578933025,4.211481999710727
sz300216,2014-07-23,20.69,21.28,19.97,20.34,-0.004405,7389432.0,153641427.39,2450417970.0,3754764000.0,0.06133690199798853,54.23,2014-03-31 00:00:00,2014-04-24 00:00:00,44.09961788693086,7.924108204690835,33.97634308560233,4.287364056140356
sz300216,2014-07-22,20.32,20.6,20.02,20.43,0.011386,5429974.0,110556687.3,2461260530.0,3771378000.0,0.045072176418479354,54.47,2014-03-31 00:00:00,2014-04-24 00:00:00,44.29473619989138,7.959168341233972,34.12667107167306,4.306333455009674
sz300216,2014-07-21,20.45,20.75,19.48,20.2,-0.010773999999999999,6895906.0,137411776.43,2433551770.0,3728920000.0,0.05724032786859513,53.86,2014-03-31 00:00:00,2014-04-24 00:00:00,43.79607410018666,7.869565468806145,33.74247920346243,4.257853534663989
sz300216,2014-07-18,21.2,21.29,20.4,20.42,-0.027156,4339508.0,90682776.27,2460055800.0,3769532000.0,0.036020627402028854,54.45,2014-03-31 00:00:00,2014-04-24 00:00:00,44.273072179852385,7.955275608208988,34.10998012937633,4.3042272793719425
sz300216,2014-07-17,21.0,21.3,20.61,20.99,0.009134999999999999,3982664.0,83405223.15,2528725330.0,3874754000.0,0.03305859927459974,55.97,2014-03-31 00:00:00,2014-04-24 00:00:00,45.508912199543175,8.17733943798696,35.062127257172094,4.424375623812185
sz300216,2014-07-16,21.89,21.89,20.75,20.8,-0.051095,7852557.0,166024317.75,2505835490.0,3839680000.0,0.06518112871008942,55.46,2014-03-31 00:00:00,2014-04-24 00:00:00,45.09695154715987,8.103315649528518,34.744734111067494,4.384324816612431
sz300216,2014-07-15,21.6,22.12,21.22,21.92,0.023821000000000002,9192930.0,199471407.04,2640765090.0,4046432000.0,0.0763070620567769,58.45,2014-03-31 00:00:00,2014-04-24 00:00:00,47.52525442184399,8.539649016001094,36.615608634233666,4.620404378322837
sz300216,2014-07-14,22.4,22.55,21.41,21.41,-0.10004199999999999,16140476.0,352809373.15,2579323930.0,3952286000.0,0.13397603423932875,57.09,2014-03-31 00:00:00,2014-04-24 00:00:00,46.41949561675721,8.34095903092542,35.763681966118746,4.512902527221884
sz300216,2014-07-11,25.0,25.31,23.72,23.79,-0.049161,7642321.0,187163034.17,2866049340.0,4391634000.0,0.06343603860985868,63.43,2014-03-31 00:00:00,2014-04-24 00:00:00,51.579624401091166,9.268164770939775,39.739278906480905,5.014570154631531
sz300216,2014-07-10,24.93,25.57,24.58,25.02,0.00361,7778355.0,196008696.93,3014230960.0,4618692000.0,0.06456520574654305,66.71,2014-03-31 00:00:00,2014-04-24 00:00:00,54.24643330899465,9.747354463731268,41.79390928062575,5.273837268592823
sz300216,2014-07-09,25.4,25.74,24.88,24.93,-0.021200999999999998,5855890.0,147578280.83,3003388400.0,4602078000.0,0.048607545297837604,66.47,2014-03-31 00:00:00,2014-04-24 00:00:00,54.051308086801306,9.712293085691922,41.64357597136911,5.254867198008014
sz300216,2014-07-08,25.2,25.88,24.8,25.47,0.000786,7249027.0,183874310.79,3068443740.0,4701762000.0,0.0601714528062359,67.91,2014-03-31 00:00:00,2014-04-24 00:00:00,55.22207121870917,9.922663474004286,42.54558491719864,5.368688768590911
sz300216,2014-07-07,25.23,25.87,24.91,25.45,0.009921,7741869.0,196618538.02,3066034290.0,4698070000.0,0.06426234915004815,67.86,2014-03-31 00:00:00,2014-04-24 00:00:00,55.17870075991188,9.914870385880985,42.512170351302515,5.364472293368323
sz300216,2014-07-04,26.5,26.89,24.9,25.2,-0.049056999999999996,17682220.0,451555724.13,3035916070.0,4651920000.0,0.14677347256177606,67.19,2014-03-31 00:00:00,2014-04-24 00:00:00,54.63665054980723,9.817471253574272,42.09455031760158,5.311774181711562
sz300216,2014-07-03,26.18,28.5,26.12,26.5,0.020408000000000003,19790957.0,542556533.55,3192530790.0,4891900000.0,0.16427730693867482,70.66,2014-03-31 00:00:00,2014-04-24 00:00:00,57.455231859120076,10.323932405595574,44.266113024231295,5.58579660580241
sz300216,2014-07-02,26.05,26.48,25.65,25.97,-0.012172,7797913.0,202396472.84,3128680170.0,4794062000.0,0.0647275495117163,69.24,2014-03-31 00:00:00,2014-04-24 00:00:00,56.30613623091947,10.117455376276522,43.3807977046743,5.4740815495394095
sz300216,2014-07-01,25.29,26.78,25.03,26.29,0.050339999999999996,13754627.0,358196436.1,3167231490.0,4853134000.0,0.11417199689120293,70.1,2014-03-31 00:00:00,2014-04-24 00:00:00,56.999939494445876,10.242122491239895,43.91533516429409,5.541533090314721
sz300216,2014-06-30,24.76,25.69,24.61,25.03,0.0012,7519685.0,189189635.03,3219886980.0,4620538000.0,0.05845475841825976,66.74,2014-03-31 00:00:00,2014-04-24 00:00:00,54.26808413889394,9.75124482666555,41.810590060641395,5.275942161885409
sz300216,2014-06-27,25.81,26.15,25.0,25.0,-0.045801999999999995,10558174.0,269214155.33,3216027750.0,4615000000.0,0.08207464938696503,66.66,2014-03-31 00:00:00,2014-04-24 00:00:00,54.203040490305575,9.739557357836146,41.7604774876562,5.269618619541958
sz300216,2014-06-26,25.36,26.29,25.11,26.2,0.014324000000000002,10256807.0,264222722.87,3370397080.0,4836520000.0,0.07973195354180641,69.86,2014-03-31 00:00:00,2014-04-24 00:00:00,56.80481460902829,10.207061173714624,43.76500211450475,5.522563052471247
sz300216,2014-06-25,26.5,27.27,25.5,25.83,0.039437,12048008.0,316915261.34,3322799870.0,4768218000.0,0.09365597051139886,68.87,2014-03-31 00:00:00,2014-04-24 00:00:00,56.00263289543409,10.062919908938982,43.14696498801641,5.444574960733696
sz300216,2014-06-24,24.7,25.35,24.28,24.85,0.003635,6917128.0,171324626.0,3196731580.0,4587310000.0,0.05377074255324246,66.26,2014-03-31 00:00:00,2014-04-24 00:00:00,53.877852044360644,9.68112536780871,41.50993757968632,5.2380038046882085
sz300216,2014-06-23,23.08,25.15,22.97,24.76,0.07186100000000001,10606805.0,256336379.16,3185153880.0,4570696000.0,0.08245268570823334,66.02,2014-03-31 00:00:00,2014-04-24 00:00:00,53.68271537397624,9.646061932683406,41.35959545022475,5.219032621110471
sz300216,2014-06-20,23.0,23.35,22.6,23.1,0.014938,5885493.0,135473945.01,2971609640.0,4264260000.0,0.04575126102363836,61.59,2014-03-31 00:00:00,2014-04-24 00:00:00,50.083653919655845,8.99935899588044,38.58671548850528,4.869131931388932
sz300216,2014-06-19,24.12,24.94,22.06,22.76,-0.06066900000000001,10533466.0,249492702.7,2927871660.0,4201496000.0,0.0818825802494362,60.68,2014-03-31 00:00:00,2014-04-24 00:00:00,49.346515668598336,8.866905166503217,38.01879079165947,4.797467363906891
sz300216,2014-06-18,25.4,25.4,24.22,24.23,-0.047937,9552231.0,236148382.91,3116974100.0,4472858000.0,0.07425488621480686,64.6,2014-03-31 00:00:00,2014-04-24 00:00:00,52.533681597432995,9.439596017275292,40.474327783986126,5.107323578064485
sz300216,2014-06-17,25.3,26.49,25.09,25.45,0.003549,11236037.0,289721911.89,3273916250.0,4698070000.0,0.08734406130578325,67.86,2014-03-31 00:00:00,2014-04-24 00:00:00,55.178787115383116,9.914885902797705,42.51223688346898,5.36448068884568
sz300216,2014-06-16,25.07,25.98,24.6,25.36,-0.008988,10519854.0,266056435.33,3262338550.0,4681456000.0,0.08177676637515134,67.62,2014-03-31 00:00:00,2014-04-24 00:00:00,54.98365014103259,9.879822413053779,42.361894519818144,5.345509475716363
sz300216,2014-06-13,25.31,26.35,25.09,25.59,-0.023282,14534838.0,372583904.76,3291926000.0,4723914000.0,0.11298750470697094,68.23,2014-03-31 00:00:00,2014-04-24 00:00:00,55.48232528065512,9.96942762857945,42.746096434572074,5.393990663802621
sz300216,2014-06-12,25.5,26.97,24.86,26.2,0.032716,20147143.0,520924639.97,3370397080.0,4836520000.0,0.1566151210290035,69.86,2014-03-31 00:00:00,2014-04-24 00:00:00,56.80485593657035,10.207068599718086,43.765033955115065,5.522567070334141
sz300216,2014-06-11,22.92,25.37,22.78,25.37,0.100173,17269417.0,426928023.51,3263624960.0,4683302000.0,0.13424493152852957,67.64,2014-03-31 00:00:00,2014-04-24 00:00:00,55.00530246124816,9.88371304377785,42.37857644804096,5.347614513897471
sz300216,2014-06-10,23.3,23.49,22.6,23.06,-0.015792,10016805.0,231412045.45,2966464000.0,4256876000.0,0.0778662823145671,61.48,2014-03-31 00:00:00,2014-04-24 00:00:00,49.996957261492646,8.983780772458376,38.51992045618367,4.860703283844877
sz300216,2014-06-09,22.68,23.58,22.29,23.43,0.013847,12714026.0,289477508.65,3014061210.0,4325178000.0,0.09883330444374087,62.47,2014-03-31 00:00:00,2014-04-24 00:00:00,50.79917787855072,9.127929027663233,39.13798755566269,4.938695157776484
sz300216,2014-06-06,21.78,23.74,21.6,23.11,0.070899,18814072.0,433192195.81,2972896050.0,4266106000.0,0.14625240728480904,61.62,2014-03-31 00:00:00,2014-04-24 00:00:00,50.10536883627483,9.0032608743363,38.60344564383254,4.871243055191251
sz300216,2014-06-05,21.02,21.64,20.66,21.58,0.00046399999999999995,8697428.0,183777966.6,2776075150.0,3983668000.0,0.06761001993768072,57.54,2014-03-31 00:00:00,2014-04-24 00:00:00,46.7881367302377,8.407198880880737,36.04769977732031,4.5487418096302745
sz300216,2014-06-04,21.94,22.68,21.0,21.57,-0.013716999999999998,12374932.0,270963032.25,2774788740.0,3981822000.0,0.09619733545552733,57.51,2014-03-31 00:00:00,2014-04-24 00:00:00,46.76643710342171,8.40329974979683,36.0309814019498,4.546632172302325
sz300216,2014-06-03,21.68,22.17,21.16,21.87,0.007370000000000001,9871013.0,214495594.06,2813381080.0,4037202000.0,0.07673295873234492,58.31,2014-03-31 00:00:00,2014-04-24 00:00:00,47.41685409098779,8.52017093450544,36.53209210941464,4.609865700110745
sz300216,2014-05-30,21.36,21.85,20.81,21.71,0.009767,10406841.0,222187232.22,2792798500.0,4007666000.0,0.08089825245537766,57.89,2014-03-31 00:00:00,2014-04-24 00:00:00,47.06994857002669,8.457836678187201,36.26482038319053,4.576139551615339
sz300216,2014-05-29,22.8,23.68,21.5,21.5,-0.056603999999999995,15863169.0,357148318.89,2765783870.0,3968900000.0,0.1233133713734472,57.33,2014-03-31 00:00:00,2014-04-24 00:00:00,46.61466315499188,8.37602801258825,35.9140478775703,4.531876711771467
sz300216,2014-05-28,22.8,23.09,21.89,22.79,0.012889,15251357.0,345070436.05,2931730900.0,4207034000.0,0.1185574112651335,60.76,2014-03-31 00:00:00,2014-04-24 00:00:00,49.41155480306455,8.878591824205584,38.06889988676049,4.803790467387467
sz300216,2014-05-27,22.01,23.75,22.0,22.5,0.0,26111679.0,595625572.15,2894424980.0,4153500000.0,0.20298082747337262,59.99,2014-03-31 00:00:00,2014-04-24 00:00:00,48.782793379200044,8.765611853031857,37.584473606447,4.742662293091807
sz300216,2014-05-26,22.8,23.84,22.2,22.5,0.038301999999999996,26121421.0,605017687.08,2894424980.0,4153500000.0,0.20305655754118043,59.99,2014-03-31 00:00:00,2014-04-24 00:00:00,48.782793379200044,8.765611853031857,37.584473606447,4.742662293091807
sz300216,2014-05-23,19.9,21.67,19.4,21.67,0.1,14086327.0,292192405.63,2787652850.0,4000282000.0,0.10950097537790619,57.78,2014-03-31 00:00:00,2014-04-24 00:00:00,46.9832412719999,8.442256542924753,36.19801715343609,4.567709869663939
sz300216,2014-05-22,19.85,20.25,19.13,19.7,-0.002532,13691788.0,270520980.87,2534229870.0,3636620000.0,0.1064340006378348,52.53,2014-03-31 00:00:00,2014-04-24 00:00:00,42.71203751999991,7.674778675386139,32.90728832130553,4.152463517876308
sz300216,2014-05-21,19.8,20.22,19.3,19.75,-0.012006000000000001,13435779.0,264848416.48,2540661920.0,3645850000.0,0.10444389832473264,52.66,2014-03-31 00:00:00,2014-04-24 00:00:00,42.82045892199038,7.694260543081219,32.990821080280796,4.163004244623695
sz300216,2014-05-20,18.5,20.25,18.29,19.99,0.085823,25778618.0,506976721.44,2571535790.0,3690154000.0,0.20039175648416696,53.3,2014-03-31 00:00:00,2014-04-24 00:00:00,43.340808670893125,7.7877603943760985,33.39172209576252,4.213592637833524
sz300216,2014-05-19,18.3,19.0,17.77,18.41,-0.0048649999999999995,13025382.0,240718243.91,2368282840.0,3398486000.0,0.10125365035368833,49.09,2014-03-31 00:00:00,2014-04-24 00:00:00,39.91516911217862,7.172219039729402,30.752454217457654,3.8805520216771274
sz300216,2014-05-16,19.01,19.39,17.63,18.5,-0.038961,17935651.0,330842019.22,2379860540.0,3415100000.0,0.13942394435431918,49.33,2014-03-31 00:00:00,2014-04-24 00:00:00,40.11030574965067,7.207282468940799,30.902796321562054,3.899523202055126
sz300216,2014-05-15,18.13,19.45,18.0,19.25,0.040541,17285062.0,324480237.26,2476341370.0,3553550000.0,0.1343665487848309,51.33,2014-03-31 00:00:00,2014-04-24 00:00:00,41.73639753397174,7.499469292027482,32.15561108504655,4.057611816019044
sz300216,2014-05-14,18.2,19.47,17.9,18.5,0.03352,17502886.0,324130150.61,2379860540.0,3415100000.0,0.13605981760595098,49.33,2014-03-31 00:00:00,2014-04-24 00:00:00,40.1102864125217,7.207278994318804,30.902781423362036,3.899521322099796
sz300216,2014-05-13,16.1,17.9,16.1,17.9,0.10018400000000001,11232975.0,193630413.26,2302675870.0,3304340000.0,0.08732025862589161,47.73,2014-03-31 00:00:00,2014-04-24 00:00:00,38.80939547616079,6.973526389734889,29.900516122921694,3.773048728713325
sz300216,2014-05-12,15.38,16.6,15.16,16.27,0.071805,9890797.0,157299014.99,2092990860.0,3003442000.0,0.07688675104391043,43.38,2014-03-31 00:00:00,2014-04-24 00:00:00,35.27536800767944,6.338509185495235,27.177741289567653,3.42947064192292
sz300216,2014-05-09,15.75,15.99,14.88,15.18,-0.05125,10236871.0,157477260.62,1336350960.0,2802228000.0,0.1162836009636271,40.47,2014-03-31 00:00:00,2014-04-24 00:00:00,32.912113684559635,5.913864168850897,25.35698311686142,3.1997150992231984
sz300216,2014-05-08,16.7,16.96,15.91,16.0,-0.068142,12634271.0,207154772.86,1408538560.0,2953600000.0,0.14351636635350615,42.66,2014-03-31 00:00:00,2014-04-24 00:00:00,34.68997489808657,6.233321917102395,26.726727922910587,3.372558734359102
sz300216,2014-05-07,17.51,18.17,17.11,17.17,-0.035393,12368766.0,217950242.21,1511537940.0,3169582000.0,0.14050041788564038,45.78,2014-03-31 00:00:00,2014-04-24 00:00:00,37.226674984908186,6.689132804678819,28.681116568093625,3.6191766710798237
sz300216,2014-05-06,16.2,17.89,16.08,17.8,0.092025,17747438.0,300355607.31,1566999150.0,3285880000.0,0.20159832020330068,47.46,2014-03-31 00:00:00,2014-04-24 00:00:00,38.592582248426744,6.934567968798504,29.733473391851415,3.751970150620743
sz300216,2014-05-05,15.99,16.39,15.52,16.3,0.017478,9498787.0,151819745.71,1434948660.0,3008980000.0,0.10789948965839656,43.46,2014-03-31 00:00:00,2014-04-24 00:00:00,35.3403834604764,6.350191587920151,27.227832139238036,3.4357914430720387
sz300216,2014-04-30,16.05,16.28,15.82,16.02,-0.004939,8489678.0,136363285.41,1410299230.0,2957292000.0,0.0964367268072606,42.71,2014-03-31 00:00:00,2014-04-24 00:00:00,34.73331458810549,6.241109476490057,26.7601187831462,3.3767722182416113
sz300216,2014-04-29,15.91,16.4,15.5,16.2,0.0037170000000000003,11377986.0,181243107.23,1426145290.0,2990520000.0,0.12924585909476305,42.93,2014-03-31 00:00:00,2014-04-24 00:00:00,34.90571390910255,6.272087315742509,26.892943028765274,3.3935328771217153
sz300216,2014-04-28,15.75,16.29,15.58,16.14,0.015094,10530782.0,168206491.79,1420863270.0,2979444000.0,0.1196222219749547,42.77,2014-03-31 00:00:00,2014-04-24 00:00:00,34.77644984502858,6.248860301999976,26.793352138865114,3.380965827142228
sz300216,2014-04-25,16.37,16.79,15.88,15.9,-0.025138,11336704.0,184972894.76,1399735190.0,2935140000.0,0.12877692501250898,42.13,2014-03-31 00:00:00,2014-04-24 00:00:00,34.25933937647999,6.155942505817172,26.394946811689472,3.3306923567100464
sz300216,2014-04-24,16.72,16.9,16.16,16.31,-0.034911000000000005,11474788.0,189672765.99,1435828990.0,3010826000.0,0.13034546146056014,43.22,2014-03-31 00:00:00,2014-04-24 00:00:00,35.142758027782385,6.314680955681083,27.075572554566158,3.416578302067417
sz300216,2014-04-23,17.6,17.8,16.68,16.9,-0.039227,10157947.0,175020403.76,1487768850.0,3119740000.0,0.1153870806610852,44.78,2013-12-31 00:00:00,2014-03-22 00:00:00,36.867974927507774,6.774219766698125,30.74407041484548,3.5918553571232286
sz300216,2014-04-22,17.75,18.1,16.79,17.59,-0.010686,11293705.0,197873265.11,1548512080.0,3247114000.0,0.12828848642239846,46.61,2013-12-31 00:00:00,2014-03-22 00:00:00,38.37324209517521,7.050801559471513,31.999307239946877,3.738505721042565
sz300216,2014-04-21,17.33,18.09,17.28,17.78,0.010801999999999999,11236786.0,198431988.74,1565238470.0,3282188000.0,0.12764192735436666,47.11,2013-12-31 00:00:00,2014-03-22 00:00:00,38.787727753953966,7.126960256775416,32.34494532569728,3.778886906525699
sz300216,2014-04-18,17.71,18.05,17.29,17.59,-0.001703,12975925.0,229892504.59,1548512080.0,3247114000.0,0.1473973136522125,46.61,2013-12-31 00:00:00,2014-03-22 00:00:00,38.37322022903987,7.0507975417296525,31.99928900585602,3.7385035907385413
sz300216,2014-04-17,18.5,19.27,17.42,17.62,-0.077004,24558800.0,449280135.26,1551153090.0,3252652000.0,0.27897056634171424,46.69,2013-12-31 00:00:00,2014-03-22 00:00:00,38.43868130329939,7.062825533613395,32.053876757974855,3.7448811232915062
sz300216,2014-04-16,18.15,19.8,17.8,19.09,0.06055599999999999,23469815.0,448003710.7,1680562570.0,3524014000.0,0.26660046840743334,50.58,2013-12-31 00:00:00,2014-03-22 00:00:00,41.645555672288275,7.652065159126796,34.72807764928001,4.057310241096935
sz300216,2014-04-15,17.2,18.4,16.5,18.0,0.061321,17689944.0,309195001.31,1584605880.0,3322800000.0,0.20094522935886114,47.7,2013-12-31 00:00:00,2014-03-22 00:00:00,39.26766306756859,7.215144847727791,32.745161640950606,3.8256445120266487
sz300216,2014-04-14,15.28,16.96,15.2,16.96,0.09987,16455160.0,266860373.08,1493050870.0,3130816000.0,0.18691895849469617,44.94,2013-12-31 00:00:00,2014-03-22 00:00:00,36.998856206151196,6.79826824092597,30.85321183784228,3.6046064404893987
sz300216,2014-04-11,14.91,15.77,14.89,15.42,0.019841,13831799.0,211580350.58,1357479040.0,2846532000.0,0.15711943558259286,40.86,2013-12-31 00:00:00,2014-03-22 00:00:00,33.63929937733659,6.180974334172193,28.051689597718166,3.2773022634396782
sz300216,2014-04-10,15.12,15.95,14.78,15.12,0.0,19488154.0,298287698.22,1331068940.0,2791152000.0,0.22137162067653685,40.06,2013-12-31 00:00:00,2014-03-22 00:00:00,32.98484702746467,6.060723518834988,27.505944159646617,3.213542369290584
sz300216,2014-04-09,13.86,15.39,13.73,15.12,0.080772,20976396.0,308062774.37,1331068940.0,2791152000.0,0.23827699526968152,40.06,2013-12-31 00:00:00,2014-03-22 00:00:00,32.98484702746467,6.060723518834988,27.505944159646617,3.213542369290584
sz300216,2014-04-08,13.6,14.36,13.42,13.99,0.06387799999999999,19747492.0,273254465.86,1231590900.0,2582554000.0,0.22431751735093206,37.07,2013-12-31 00:00:00,2014-03-22 00:00:00,30.51970908523228,5.607772517084998,25.450274581175876,2.973376780015196
sz300216,2014-04-04,12.51,13.15,12.22,13.15,0.100418,18009566.0,231562894.31,1157642630.0,2427490000.0,0.20457590862907318,34.84,2013-12-31 00:00:00,2014-03-22 00:00:00,28.68722643501631,5.27106728129071,23.92217395338176,2.7948475107250985
sz300216,2013-12-30,12.12,12.34,11.9,11.95,-0.0049960000000000004,4882814.0,59216139.76,1055497610.0000001,2205970000.0,0.05528162901287857,31.66,2013-09-30 00:00:00,2013-10-26 00:00:00,30.192330542774894,4.822263054034471,-123.70935934670857,2.6605013582715413
sz300216,2013-12-27,11.75,12.15,11.7,12.01,0.021259,5076223.0,60821135.13,1060797179.9999999,2217046000.0,0.05747134266514548,31.82,2013-09-30 00:00:00,2013-10-26 00:00:00,30.343928811115227,4.846476048372138,-124.33051459763838,2.6738599626449155
sz300216,2013-12-26,12.4,12.4,11.7,11.76,-0.050081,7959160.0,95806053.03,1038715640.0,2170896000.0,0.09011101594657803,31.16,2013-09-30 00:00:00,2013-10-26 00:00:00,29.712275545297743,4.745589559917845,-121.74239306350141,2.6181996561547223
sz300216,2013-12-25,12.33,12.5,12.13,12.38,-0.003221,8257090.0,101549595.88,1093477860.0,2285348000.0,0.09348408224744487,32.8,2013-09-30 00:00:00,2013-10-26 00:00:00,31.27874644606303,4.995783387760267,-128.16081483105552,2.7562346433271916
sz300216,2013-12-24,12.14,12.48,11.9,12.42,0.016367,8488637.0,103423577.21,1097010910.0,2292732000.0,0.09610558161176354,32.91,2013-09-30 00:00:00,2013-10-26 00:00:00,31.37982084901771,5.011926803995937,-128.57495476033856,2.7651411630132574
sz300216,2013-12-23,11.69,12.48,11.46,12.22,0.055268,11473585.0,138578765.98,1079345680.0,2255812000.0,0.12990018980758786,32.38,2013-09-30 00:00:00,2013-10-26 00:00:00,30.874497941213864,4.931217566091715,-126.50445632368874,2.7206128918129546
sz300216,2013-12-20,11.39,11.87,11.32,11.58,0.022065,7839044.0,91047712.18,1022816930.0,2137668000.0,0.0887511018418516,30.68,2013-09-30 00:00:00,2013-10-26 00:00:00,29.257494722870266,4.672952810178755,-119.87898460266844,2.578125075159063
sz300216,2013-12-19,11.63,11.93,11.27,11.33,-0.026632,6998787.0,81018266.61,1000735390.0,2091518000.0,0.07923798588755815,30.02,2013-09-30 00:00:00,2013-10-26 00:00:00,28.625865011393863,4.5720700837801465,-117.29095957954577,2.522466844240888
sz300216,2013-12-18,11.07,11.75,10.92,11.64,0.052440999999999995,9898237.0,112962945.31,1028116500.0,2148744000.0,0.11206461396155007,30.84,2013-09-30 00:00:00,2013-10-26 00:00:00,29.409087838714505,4.6971649815692995,-120.50011874187949,2.59148322550247
sz300216,2013-12-17,10.85,11.2,10.78,11.06,0.019355,4858473.0,53690062.12,976887330.0,2041676000.0,0.05500604801579319,29.31,2013-09-30 00:00:00,2013-10-26 00:00:00,27.943692652333485,4.463114779421649,-114.49584227702978,2.4623548735772074
sz300216,2013-12-16,11.0,11.04,10.8,10.85,-0.018987,2853105.0,31117510.65,958338840.0,2002910000.0,0.03230192491206972,28.75,2013-09-30 00:00:00,2013-10-26 00:00:00,27.41311187204996,4.3783714009561425,-112.32185281578036,2.415600917812938
sz300216,2013-12-13,10.8,11.25,10.73,11.06,0.019355,4013026.0,44442824.53,963326000.0,2041676000.0,0.04607377726750861,29.31,2013-09-30 00:00:00,2013-10-26 00:00:00,27.943678495646804,4.463112518341901,-114.49578427174804,2.462353626111925
sz300216,2013-12-12,10.82,10.97,10.72,10.85,-0.0018399999999999998,1904091.0,20686297.61,945035000.0,2002910000.0,0.02186097588978186,28.75,2013-09-30 00:00:00,2013-10-26 00:00:00,27.413097984163326,4.3783691828086395,-112.32179591187372,2.415599694033899
sz300216,2013-12-11,10.79,11.2,10.79,10.87,0.001843,2728127.0,29967101.21,946777000.0,2006602000.0,0.03132177956371986,28.8,2013-09-30 00:00:00,2013-10-26 00:00:00,27.463631065323522,4.386440232837059,-112.52884899402272,2.420052590800973
sz300216,2013-12-10,10.89,10.98,10.69,10.85,-0.004587,1758297.0,18985086.3,945035000.0,2002910000.0,0.020187106773823193,28.75,2013-09-30 00:00:00,2013-10-26 00:00:00,27.413108705978406,4.378370895277064,-112.32183984319173,2.415600638823621
sz300216,2013-12-09,10.67,11.1,10.63,10.9,0.021556,3435034.0,37514872.48,949390000.0,2012140000.0,0.039437818599311135,28.88,2013-09-30 00:00:00,2013-10-26 00:00:00,27.539432080933643,4.398547030505995,-112.83943432845635,2.4267320587772323
sz300216,2013-12-06,10.5,10.77,10.5,10.67,0.012334,2310269.0,24583997.9,929357000.0,1969682000.0,0.026524328358208955,28.27,2013-09-30 00:00:00,2013-10-26 00:00:00,26.958318565926536,4.305732657344282,-110.4583932045393,2.375525236773346
sz300216,2013-12-05,10.5,10.66,10.44,10.54,0.0,2282441.0,24108485.3,918034000.0,1945684000.0,0.026204833524684272,27.93,2013-09-30 00:00:00,2013-10-26 00:00:00,26.629865801135335,4.253272790743255,-109.11259841568032,2.3465824883618907
sz300216,2013-12-04,10.31,10.76,10.25,10.54,0.028293000000000002,3651955.0,38691272.85,918034000.0,1945684000.0,0.041928300803673935,27.93,2013-09-30 00:00:00,2013-10-26 00:00:00,26.629865801135335,4.253272790743255,-109.11259841568032,2.3465824883618907
sz300216,2013-12-03,9.89,10.35,9.81,10.25,0.025,2282819.0,23229101.06,892775000.0,1892150000.0,0.026209173363949484,27.16,2013-09-30 00:00:00,2013-10-26 00:00:00,25.89715752332782,4.136245983142213,-106.110416404352,2.2820173708873743
sz300216,2013-12-02,10.61,10.61,9.89,10.0,-0.09008200000000001,6230755.0,63921307.32,871000000.0,1846000000.0,0.07153564867967853,26.5,2013-09-30 00:00:00,2013-10-26 00:00:00,25.265519534953974,4.035361934772891,-103.5223574676605,2.226358410621829
sz300216,2013-11-29,10.58,11.1,10.58,10.99,0.037771,5390084.0,58935277.22,957229000.0,2028754000.0,0.06188385763490241,29.12,2013-09-30 00:00:00,2013-10-26 00:00:00,27.76680924539791,4.434863289629274,-113.77108428194683,2.4467681819920353
sz300216,2013-11-28,10.59,10.77,10.58,10.59,0.0009449999999999999,3040718.0,32430687.28,922389000.0,1954914000.0,0.03491065442020666,28.06,2013-09-30 00:00:00,2013-10-26 00:00:00,26.75620078552774,4.273450780209964,-109.63024046918522,2.3577149313211057
sz300216,2013-11-27,10.38,10.72,10.38,10.58,0.008579999999999999,3155847.0,33411871.12,921518000.0,1953068000.0,0.036232456946039035,28.03,2013-09-30 00:00:00,2013-10-26 00:00:00,26.73094004718315,4.269416181918052,-109.52673770205678,2.355488994221566
sz300216,2013-11-26,10.3,10.55,10.26,10.49,0.018447,3055587.0,31946178.21,913679000.0,1936454000.0,0.035081366245694606,27.8,2013-09-30 00:00:00,2013-10-26 00:00:00,26.503539676756578,4.233096216381498,-108.59499266499115,2.3354508261333424
sz300216,2013-11-25,10.11,10.37,10.1,10.3,0.017787,2310814.0,23794429.18,897130000.0,1901380000.0,0.026530585533869114,27.29,2013-09-30 00:00:00,2013-10-26 00:00:00,26.023484458942466,4.156422687073062,-106.6280254789804,2.2931491046007717
sz300216,2013-11-22,10.22,10.26,10.08,10.12,-0.012683,1350194.0,13713095.63,881452000.0,1868152000.0,0.015501653272101033,26.82,2013-09-30 00:00:00,2013-10-26 00:00:00,25.568694097038446,4.083784413706464,-104.76457793131608,2.253073683001229
sz300216,2013-11-21,10.3,10.31,10.15,10.25,-0.006783,1809504.0,18509372.18,892775000.0,1892150000.0,0.020775017221584386,27.16,2013-09-30 00:00:00,2013-10-26 00:00:00,25.897147620306797,4.136244401450056,-106.11037582794188,2.282016498248515
sz300216,2013-11-20,10.13,10.4,10.12,10.32,0.016749,2136841.0,21927592.96,898872000.0,1905072000.0,0.024533191733639496,27.35,2013-09-30 00:00:00,2013-10-26 00:00:00,26.074007613952233,4.164492151715139,-106.83503788994939,2.297601126690859
sz300216,2013-11-19,10.22,10.34,10.02,10.15,-0.002947,2749369.0,27980069.46,884065000.0,1873690000.0,0.03156566016073479,26.89,2013-09-30 00:00:00,2013-10-26 00:00:00,25.644488083049243,4.09589008862083,-105.07513446283144,2.259752531540094
sz300216,2013-11-18,10.13,10.26,10.07,10.18,0.014955000000000001,1907172.0,19442925.34,886678000.0,1879228000.0,0.02189634902411022,26.97,2013-09-30 00:00:00,2013-10-26 00:00:00,25.720285765199286,4.107996353875701,-105.38570613882256,2.266431705777019
sz300216,2013-11-15,9.91,10.16,9.91,10.03,0.014156,1932336.0,19451979.29,873613000.0,1851538000.0,0.022185258323765788,26.58,2013-09-30 00:00:00,2013-10-26 00:00:00,25.341306526101437,4.047466492480653,-103.83288533858402,2.2330366427841817
sz300216,2013-11-14,9.6,9.97,9.6,9.89,0.031283,1635699.0,16091908.18,861419000.0,1825694000.0,0.01877955223880597,26.21,2013-09-30 00:00:00,2013-10-26 00:00:00,24.98758231090822,3.990970316677762,-102.38354389125935,2.2018670133432936
sz300216,2013-11-13,9.89,9.89,9.59,9.59,-0.030333999999999996,1573536.0,15294183.22,835289000.0,1770314000.0,0.01806585533869116,25.41,2013-09-30 00:00:00,2013-10-26 00:00:00,24.22960749950132,3.869907985177456,-99.27783536745913,2.1350754481003698
sz300216,2013-11-12,9.61,9.94,9.6,9.89,0.028067,1628612.0,15968422.83,861419000.0,1825694000.0,0.018698185993111367,26.21,2013-09-30 00:00:00,2013-10-26 00:00:00,24.98758077472173,3.9909700713209046,-102.38353759692423,2.201866877976922
sz300216,2013-11-11,9.36,9.65,9.35,9.62,0.028877,1063372.0,10148564.56,837902000.0,1775852000.0,0.012208633754305396,25.49,2013-09-30 00:00:00,2013-10-26 00:00:00,24.30540108253813,3.8820135957295623,-99.58839024783815,2.1417542611297917
sz300216,2013-11-08,9.61,9.67,9.35,9.35,-0.027055000000000003,1444688.0,13675935.23,814385000.0,1726010000.0,0.01658654420206659,24.78,2013-09-30 00:00:00,2013-10-26 00:00:00,23.623232983668725,3.7730589718008685,-96.79329040093047,2.081642665867535
sz300216,2013-11-07,9.88,9.93,9.61,9.61,-0.029293,1344789.0,13119992.36,837031000.0,1774006000.0,0.015439598163030999,25.46,2013-09-30 00:00:00,2013-10-26 00:00:00,24.28013195367542,3.877977657319652,-99.48485310159411,2.1395275846708035
sz300216,2013-11-06,10.03,10.14,9.88,9.9,-0.012961000000000002,1431567.0,14384881.7,862290000.0,1827540000.0,0.016435901262916188,26.23,2013-09-30 00:00:00,2013-10-26 00:00:00,25.012832866843873,3.9950032886541993,-102.48700493722009,2.2040920531847443
sz300216,2013-11-05,9.86,10.05,9.86,10.03,0.014156,1209541.0,12043411.9,873613000.0,1851538000.0,0.013886808266360505,26.58,2013-09-30 00:00:00,2013-10-26 00:00:00,25.34128121264091,4.047462449461672,-103.83278161979425,2.233034412201285
sz300216,2013-11-04,9.77,9.93,9.76,9.89,0.011247,925407.0,9133648.46,861419000.0,1825694000.0,0.010624649827784155,26.21,2013-09-30 00:00:00,2013-10-26 00:00:00,24.987557350783224,3.9909663300928773,-102.38344162021843,2.2018648138957766
sz300216,2013-11-01,9.83,9.89,9.6,9.78,-0.005086,1121590.0,10924883.15,851838000.0,1805388000.0,0.012877037887485648,25.91,2013-09-30 00:00:00,2013-10-26 00:00:00,24.709647940397574,3.9465791543439703,-101.2447420068672,2.1773758675138484
sz300216,2013-10-31,10.0,10.0,9.81,9.83,-0.01994,1518928.0,15000437.2,856193000.0,1814618000.0,0.01743889781859931,26.05,2013-09-30 00:00:00,2013-10-26 00:00:00,24.83596365152925,3.9667540655212115,-101.76230509055777,2.1885066121432084
sz300216,2013-10-30,9.78,10.05,9.72,10.03,0.020346,2156200.0,21357216.5,873613000.0,1851538000.0,0.024755453501722157,26.58,2013-09-30 00:00:00,2013-10-26 00:00:00,25.341268546343333,4.047460426424108,-103.83272972119846,2.23303329606678
sz300216,2013-10-29,10.35,10.38,9.5,9.83,-0.049323,3341545.0,33253245.7,856193000.0,1814618000.0,0.03836446613088404,26.05,2013-09-30 00:00:00,2013-10-26 00:00:00,24.83595618186707,3.966752872480617,-101.76227448453609,2.1885059539281575
sz300216,2013-10-28,10.3,10.38,10.21,10.34,0.0038829999999999997,1323117.0,13647269.5,900614000.0,1908764000.0,0.015190780711825488,27.4,2013-09-30 00:00:00,2013-10-26 00:00:00,26.12449463052863,4.172555844393645,-107.04190222813436,2.3020499643182255
sz300216,2013-10-25,10.46,10.47,10.19,10.3,-0.0077069999999999994,2240701.0,23122778.48,897130000.0,1901380000.0,0.02572561423650976,27.29,2013-06-30 00:00:00,2013-07-31 00:00:00,25.59247948452597,4.513290747258961,-23.061693282810502,2.3519828258758486
sz300216,2013-10-24,10.41,10.53,10.37,10.38,-0.001923,2031275.0,21207352.28,904098000.0,1916148000.0,0.02332118254879449,27.5,2013-06-30 00:00:00,2013-07-31 00:00:00,25.791252668844756,4.548344840948149,-23.24081020707644,2.3702503452869754
sz300216,2013-10-23,10.76,10.85,10.3,10.4,-0.038817000000000004,3392807.0,35852968.73,905840000.0,1919840000.0,0.03895300803673938,27.56,2013-06-30 00:00:00,2013-07-31 00:00:00,25.84094480570613,4.5571081599397125,-23.285588393557248,2.374817118606055
sz300216,2013-10-22,11.02,11.23,10.72,10.82,-0.013674,5342834.0,58528098.85,942422000.0,1997372000.0,0.06134137772675086,28.67,2013-06-30 00:00:00,2013-07-31 00:00:00,26.88452126775664,4.741145192892209,-24.225967785070324,2.4707231802955887
sz300216,2013-10-21,10.66,11.05,10.65,10.97,0.030047000000000004,3994328.0,43558601.45,955487000.0,2025062000.0,0.04585910447761194,29.07,2013-06-30 00:00:00,2013-07-31 00:00:00,27.25723672270288,4.806874393346835,-24.561826196481007,2.5049762251989596
sz300216,2013-10-18,10.6,10.65,10.4,10.65,0.005666,2534567.0,26715431.82,927615000.0,1965990000.0,0.029099506314580942,28.22,2013-06-30 00:00:00,2013-07-31 00:00:00,26.46212912877071,4.666655398585535,-23.84534511190364,2.4319047822079574
sz300216,2013-10-17,10.61,10.74,10.5,10.59,-0.0037630000000000003,3132323.0,33294414.7,922389000.0,1954914000.0,0.03596237657864523,28.06,2013-06-30 00:00:00,2013-07-31 00:00:00,26.313039447262522,4.640363101253832,-23.710998593870773,2.4182032426351867
sz300216,2013-10-16,11.0,11.06,10.11,10.63,-0.044065,5706613.0,61044044.24,925873000.0,1962298000.0,0.06551794489092996,28.17,2013-06-30 00:00:00,2013-07-31 00:00:00,26.41242941916684,4.657890744123969,-23.800560101532835,2.4273373129437936
sz300216,2013-10-15,11.35,11.57,11.02,11.12,-0.006256,7164184.0,80990529.36,968552000.0,2052752000.0,0.08225239954075775,29.47,2013-06-30 00:00:00,2013-07-31 00:00:00,27.629942850891375,4.872601949006962,-24.897676203437303,2.539228412960917
sz300216,2013-10-14,10.95,11.23,10.84,11.19,0.024725,4815035.0,53419656.26,974649000.0,2065674000.0,0.055281687715269805,29.65,2013-06-30 00:00:00,2013-07-31 00:00:00,27.80388394887554,4.903276848974143,-25.054416633898974,2.555213830685686
sz300216,2013-10-11,10.91,11.02,10.78,10.92,0.000917,3919321.0,42686517.83,951132000.0,2015832000.0,0.04499794489092997,28.94,2013-06-30 00:00:00,2013-07-31 00:00:00,27.133020028666756,4.784968502743804,-24.449893028762816,2.4935605461813526
sz300216,2013-10-10,11.16,11.37,10.84,10.91,-0.021525,4503876.0,49866882.26,950261000.0,2013986000.0,0.05170925373134328,28.91,2013-06-30 00:00:00,2013-07-31 00:00:00,27.108161844255573,4.780584706567881,-24.42749301766562,2.4912760460471275
sz300216,2013-10-09,10.85,11.24,10.84,11.15,0.019196,5209659.0,57566095.33,971165000.0,2058290000.0,0.059812388059701495,29.54,2013-06-30 00:00:00,2013-07-31 00:00:00,27.70450123330241,4.88575048577417,-24.964861665004847,2.546080427243545
sz300216,2013-10-08,11.01,11.01,10.78,10.94,0.000915,4022738.0,43828066.84,952874000.0,2019524000.0,0.0461852812858783,28.99,2013-06-30 00:00:00,2013-07-31 00:00:00,27.1827020840961,4.7937300438523796,-24.4946621307431,2.4981263930034503
sz300216,2013-09-30,10.83,11.17,10.7,10.93,0.010166,5343995.0,58532452.45,952003000.0,2017678000.0,0.06135470723306544,28.96,2013-06-30 00:00:00,2013-07-31 00:00:00,27.157852648922333,4.7893477906239585,-24.472270003689726,2.495842696935754
sz300216,2013-09-27,10.52,10.95,10.44,10.82,0.036398,5912939.0,63809749.49,942422000.0,1997372000.0,0.06788678530424799,28.67,2013-06-30 00:00:00,2013-07-31 00:00:00,26.884544370848296,4.74114926717387,-24.225988603546078,2.47072530350037
sz300216,2013-09-26,10.31,10.67,10.31,10.44,0.010648999999999999,4100362.0,43128653.77,909324000.0,1927224000.0,0.047076486796785305,27.66,2013-06-30 00:00:00,2013-07-31 00:00:00,25.940366896547747,4.574641467055966,-23.37517884398279,2.3839541406876217
sz300216,2013-09-25,10.4,10.55,10.31,10.33,-0.014313,2222088.0,23167037.58,899743000.0,1906918000.0,0.02551191733639495,27.37,2013-06-30 00:00:00,2013-07-31 00:00:00,25.66703860247005,4.52643941373906,-23.12887940717578,2.3588349077549395
sz300216,2013-09-24,10.5,10.59,10.28,10.48,-0.001905,2827760.0,29453258.45,912808000.0,1934608000.0,0.032465671641791045,27.77,2013-06-30 00:00:00,2013-07-31 00:00:00,26.0397454795184,4.59216710146229,-23.464730088938765,2.393087164338111
sz300216,2013-09-23,10.33,10.58,10.33,10.5,0.017442,3297442.0,34633716.0,914550000.0,1938300000.0,0.03785811710677382,27.82,2013-06-30 00:00:00,2013-07-31 00:00:00,26.089445873908193,4.60093187668738,-23.509515716378466,2.3976546965350103
sz300216,2013-09-18,10.1,10.35,10.1,10.32,0.025845,1740204.0,17868654.12,898872000.0,1895519810.0,0.019979380022962113,27.35,2013-06-30 00:00:00,2013-07-31 00:00:00,25.642194713711636,4.522058138633336,-23.106492278064465,2.356551721410174
sz300216,2013-09-17,10.34,10.35,10.05,10.06,-0.023301,1762233.0,17944316.64,876226000.0,1847764460.0,0.020232296211251437,26.66,2013-06-30 00:00:00,2013-07-31 00:00:00,24.996168732812112,4.408130018310113,-22.52435044091892,2.2971810764883336
sz300216,2013-09-16,10.22,10.44,10.2,10.3,0.009804,1958187.0,20247997.69,897130000.0,1891846320.0,0.022482055109070035,27.29,2013-06-30 00:00:00,2013-07-31 00:00:00,25.592499565180383,4.513294288527083,-23.06171137773144,2.351984671314636
sz300216,2013-09-13,10.15,10.28,10.07,10.2,0.004926,1654944.0,16867834.75,888420000.0,1873478880.0,0.019000505166475317,27.03,2013-06-30 00:00:00,2013-07-31 00:00:00,25.34402672714743,4.469475550232603,-22.837809493457588,2.3291496877756837
sz300216,2013-09-12,10.2,10.3,10.12,10.15,-0.003925,2040715.0,20803384.35,884065000.0,1864295160.0,0.023429563719862226,26.89,2013-06-30 00:00:00,2013-07-31 00:00:00,25.219794021796062,4.447566835998474,-22.725861897749272,2.317732537296959
sz300216,2013-09-11,10.54,10.56,10.14,10.19,-0.033207,3654116.0,37425990.97,887549000.0,1871642140.0,0.041953111366245695,27.0,2013-06-30 00:00:00,2013-07-31 00:00:00,25.319171770997226,4.465092323367693,-22.81541239138546,2.3268654843229264
sz300216,2013-09-10,10.63,10.69,10.43,10.54,-0.00566,3061047.0,32213069.4,918034000.0,1935928180.0,0.03514405281285878,27.93,2013-06-30 00:00:00,2013-07-31 00:00:00,26.188824051267673,4.6184574395632705,-23.599066595833296,2.4067876829092953
sz300216,2013-09-09,10.65,10.68,10.51,10.6,-0.0009429999999999999,3098389.0,32765681.55,923260000.0,1946948640.0,0.03557277841561424,28.09,2013-06-30 00:00:00,2013-07-31 00:00:00,26.337896545716426,4.64474670591877,-23.733397626398713,2.4204876429684967
sz300216,2013-09-06,10.61,10.79,10.46,10.61,0.008555,3314894.0,35363682.5,924131000.0,1948785380.0,0.03805848450057405,28.11,2013-06-30 00:00:00,2013-07-31 00:00:00,26.362756625214004,4.649130836297399,-23.75579934518122,2.422772317263677
sz300216,2013-09-05,10.46,10.67,10.39,10.52,0.000951,3216785.0,34003734.45,916292000.0,1932254690.0,0.036932089552238805,27.88,2013-06-30 00:00:00,2013-07-31 00:00:00,26.139136314047324,4.609694896458198,-23.55429237392231,2.402221313923064
sz300216,2013-09-04,10.47,10.68,10.41,10.51,0.006705,3259747.0,34373001.4,915421000.0,1930417940.0,0.03742533869115958,27.85,2013-06-30 00:00:00,2013-07-31 00:00:00,26.11430161321316,4.6053152416633765,-23.531913524160835,2.39993897196073
sz300216,2013-09-03,10.41,10.48,10.31,10.44,0.0019190000000000001,2273403.0,23694638.17,909324000.0,1917560740.0,0.02610106773823192,27.66,2013-06-30 00:00:00,2013-07-31 00:00:00,25.940371422823134,4.57464226527471,-23.375182922664372,2.383954556658336
sz300216,2013-09-02,10.23,10.45,10.11,10.42,0.022571,2362550.0,24298957.79,907582000.0,1913887250.0,0.027124569460390355,27.61,2013-06-30 00:00:00,2013-07-31 00:00:00,25.890687194097662,4.565880340900522,-23.33041186230062,2.3793885101074395
sz300216,2013-08-30,10.83,10.87,10.11,10.19,-0.063419,5975062.0,62431524.4,887549000.0,1871642140.0,0.06860002296211251,27.0,2013-06-30 00:00:00,2013-07-31 00:00:00,25.3192073646697,4.465098600391094,-22.815444465274897,2.3268687554286593
sz300216,2013-08-29,10.73,10.93,10.66,10.88,0.014925,2620553.0,28333446.11,947648000.0,1998377470.0,0.03008671641791045,28.83,2013-06-30 00:00:00,2013-07-31 00:00:00,27.033654712907587,4.767445208039769,-24.360353739051828,2.484428741805204
sz300216,2013-08-28,11.0,11.03,10.72,10.72,-0.032491,3972765.0,43182442.07,933712000.0,1968989570.0,0.04561153846153846,28.41,2013-06-30 00:00:00,2013-07-31 00:00:00,26.636110759817313,4.697337446648539,-24.00212206719888,2.4478939249749523
sz300216,2013-08-27,11.2,11.2,10.97,11.08,-0.011597,4186485.0,46313995.68,965068000.0,2035112350.0,0.04806526980482204,29.36,2013-06-30 00:00:00,2013-07-31 00:00:00,27.53060773575989,4.85508398025087,-24.80816412787776,2.5300993840625283
sz300216,2013-08-26,11.16,11.22,11.03,11.21,0.013562000000000001,5270234.0,58823660.41,976391000.0,2058990020.0,0.06050785304247991,29.7,2013-06-30 00:00:00,2013-07-31 00:00:00,27.85362623925655,4.912049012650579,-25.099240014323875,2.559785213179774
sz300216,2013-08-23,11.19,11.25,10.75,11.06,-0.0045,6665787.0,73743762.6,963326000.0,2031438860.0,0.07653027554535018,29.31,2013-06-30 00:00:00,2013-07-31 00:00:00,27.48092986838156,4.8463231777144165,-24.76339879980097,2.5255339221278756
sz300216,2013-08-22,11.15,11.23,10.91,11.11,-0.010686,8131858.0,89980723.4,967681000.0,2040622580.0,0.09336231917336395,29.44,2013-06-30 00:00:00,2013-07-31 00:00:00,27.605153057138676,4.868230213675957,-24.87533781999093,2.536950198018961
sz300216,2013-08-21,11.6,11.61,10.99,11.23,-0.010573,15487555.0,173928114.25,978133000.0,2062663510.0,0.17781349024110218,29.76,2013-06-30 00:00:00,2013-07-31 00:00:00,27.90332802036429,4.920814032426467,-25.144026891351913,2.5643528728178926
sz300216,2013-08-20,10.7,11.79,10.7,11.35,0.05876900000000001,21218716.0,244730969.11,988585000.0,2084704440.0,0.24361327210103328,30.07,2013-06-30 00:00:00,2013-07-31 00:00:00,28.20150250636408,4.973397767017139,-25.41271553267893,2.591755503759138
sz300216,2013-08-19,10.49,10.75,10.37,10.72,0.029779000000000003,2557570.0,27047423.15,933712000.0,1968989570.0,0.029363605051664753,28.41,2013-06-30 00:00:00,2013-07-31 00:00:00,26.63612412751419,4.6973398040716505,-24.00213411299247,2.4478951534840343
sz300216,2013-08-16,10.8,11.3,10.41,10.41,-0.046702999999999995,3895158.0,42038949.47,906711000.0,1912050500.0,0.04472052812858783,27.58,2013-06-30 00:00:00,2013-07-31 00:00:00,25.86586454716419,4.561502811837929,-23.308043874455073,2.3771072759145744
sz300216,2013-08-15,11.13,11.24,10.9,10.92,-0.023256,2950127.0,32591483.83,951132000.0,2005724450.0,0.03387057405281286,28.94,2013-06-30 00:00:00,2013-07-31 00:00:00,27.133059840914417,4.784975523722333,-24.449928904061455,2.4935642049797435
sz300216,2013-08-14,11.33,11.35,11.09,11.18,-0.008865000000000001,3990878.0,44733552.36,973778000.0,2053479790.0,0.04581949483352468,29.62,2013-06-30 00:00:00,2013-07-31 00:00:00,27.779090366477206,4.8989044455070445,-25.032074836458122,2.552935267562169
sz300216,2013-08-13,11.27,11.54,11.2,11.28,-0.002653,4484960.0,50912309.48,982488000.0,2071847230.0,0.05149207807118255,29.89,2013-06-30 00:00:00,2013-07-31 00:00:00,28.027554638346142,4.942721673139426,-25.255969001657817,2.5757694638592814
sz300216,2013-08-12,11.55,11.58,11.2,11.31,-0.02584,5886511.0,66846713.44,985101000.0,2077357460.0,0.06758336394948335,29.97,2013-06-30 00:00:00,2013-07-31 00:00:00,28.102109534942347,4.955869595175426,-25.32315132211539,2.5826211577909004
sz300216,2013-08-09,11.25,11.77,10.75,11.61,0.050679,10297275.0,116603966.84,1011231000.0,2132459779.9999998,0.11822359357060849,30.76,2013-06-30 00:00:00,2013-07-31 00:00:00,28.847529702453752,5.087326101641851,-25.994858464847038,2.651126260358566
sz300216,2013-08-08,11.3,11.49,10.97,11.05,0.0054600000000000004,4108170.0,45886527.38,962455000.0,2029602120.0,0.047166130884041334,29.28,2013-06-30 00:00:00,2013-07-31 00:00:00,27.456082878266105,4.8419413556774735,-24.74100887601926,2.5232504507642832
sz300216,2013-08-07,11.04,11.16,10.78,10.99,-0.015233000000000002,4577533.0,50081057.19,957229000.0,2018581660.0,0.05255491389207807,29.12,2013-06-30 00:00:00,2013-07-31 00:00:00,27.3069867307164,4.815647918044949,-24.60665653135805,2.5095483169537163
sz300216,2013-08-06,10.9,11.41,10.82,11.16,0.019178,6900617.0,76723013.42,972036000.0,2049806300.0,0.07922637198622273,29.57,2013-06-30 00:00:00,2013-07-31 00:00:00,27.729388505825643,4.890139411703427,-24.98728788775218,2.5483676006138674
sz300216,2013-08-05,10.7,10.95,10.55,10.95,0.027205,5956276.0,64144813.42,953745000.0,2011234680.0,0.06838433983926522,29.01,2013-06-30 00:00:00,2013-07-31 00:00:00,27.20760113132902,4.7981210462779105,-24.51709896382397,2.500414648485218
sz300216,2013-08-02,10.78,10.91,10.66,10.66,-0.011132,4005541.0,43275413.16,928486000.0,1957969100.0,0.04598784156142365,28.25,2013-06-30 00:00:00,2013-07-31 00:00:00,26.487021705822126,4.67104525998015,-23.867776114625578,2.434192443071459
sz300216,2013-08-01,10.23,10.81,10.23,10.78,0.052734,3631267.0,38232977.77,938938000.0,1980010030.0,0.04169078071182549,28.56,2013-06-30 00:00:00,2013-07-31 00:00:00,26.78519449089477,4.723628694608533,-24.13646322322654,2.4615949176952427
sz300216,2013-07-31,10.2,10.4,10.15,10.24,-0.0048590000000000005,1726455.0,17739019.51,891904000.0,1880825860.0,0.019821526980482205,27.13,2013-06-30 00:00:00,2013-07-31 00:00:00,25.44345911777787,4.487010673739551,-22.927409225147603,2.3382876564215107
sz300216,2013-07-30,10.38,10.55,10.01,10.29,-0.006756999999999999,2269113.0,23273222.42,896259000.0,1890009580.0,0.026051814006888635,27.27,2013-03-31 00:00:00,2013-04-23 00:00:00,25.29363712563279,4.736766745480651,155.80697822717195,2.3872881703786275
sz300216,2013-07-29,10.58,10.78,10.31,10.36,-0.024482,2597837.0,27442045.73,902356000.0,1902866780.0,0.029825912743972446,27.45,2013-03-31 00:00:00,2013-04-23 00:00:00,25.46570892081071,4.76899081642725,156.86692806007386,2.403528814578736
sz300216,2013-07-26,10.65,10.77,10.39,10.62,0.0009429999999999999,3172068.0,33525582.19,925002000.0,1950622130.0,0.03641869115958668,28.14,2013-03-31 00:00:00,2013-04-23 00:00:00,26.104806800910605,4.888675366756175,160.80372485189804,2.463848759919075
sz300216,2013-07-25,11.44,11.44,10.61,10.61,-0.066843,7928369.0,86511028.31,924131000.0,1948785380.0,0.09102605051664753,28.11,2013-03-31 00:00:00,2013-04-23 00:00:00,26.08021315990082,4.884069689039411,160.65222979919739,2.4615275394493743
sz300216,2013-07-24,11.2,11.54,11.16,11.37,0.004417,4704462.0,53439670.7,990327000.0,2088377930.0,0.05401219288174512,30.13,2013-03-31 00:00:00,2013-04-23 00:00:00,27.94836577328447,5.233920646835859,172.15991499736631,2.6378493002242642
sz300216,2013-07-23,10.93,11.4,10.8,11.32,0.038532,5932158.0,65743489.02,985972000.0,2079194210.0,0.06810743972445465,30.0,2013-03-31 00:00:00,2013-04-23 00:00:00,27.825460713313767,5.210904083499044,171.40282870298526,2.626249157694727
sz300216,2013-07-22,10.32,10.93,10.22,10.9,0.043062,3503641.0,37212933.07,949390000.0,2002050960.0,0.040225499425947185,28.88,2013-03-31 00:00:00,2013-04-23 00:00:00,26.7930701348767,5.017567184736768,165.04337728927496,2.528809085993236
sz300216,2013-07-19,10.78,11.1,10.44,10.45,-0.028810000000000002,4720564.0,51197393.73,910195000.0,1919397480.0,0.05419706084959816,27.69,2013-03-31 00:00:00,2013-04-23 00:00:00,25.68693916073704,4.810420842420458,158.22969036286906,2.4244091779714303
sz300216,2013-07-18,10.37,10.84,10.3,10.76,0.026718000000000002,4043176.0,43001113.75,937196000.0,1976336540.0,0.04641993111366246,28.51,2013-03-31 00:00:00,2013-04-23 00:00:00,26.448932918107722,4.953120236432066,162.92351688430594,2.4963283991509697
sz300216,2013-07-17,10.66,11.0,10.47,10.48,-0.013183000000000002,5787146.0,62174848.08,912808000.0,1924907710.0,0.06644254879448909,27.77,2013-03-31 00:00:00,2013-04-23 00:00:00,25.760659614526798,4.824226551430934,158.68380303482158,2.4313671321151182
sz300216,2013-07-16,10.5,10.68,10.36,10.62,0.012393000000000001,3997190.0,41965236.94,925002000.0,1950622130.0,0.04589196326061998,28.14,2013-03-31 00:00:00,2013-04-23 00:00:00,26.10479918214502,4.888673939981714,160.80367792085218,2.4638480408374788
sz300216,2013-07-15,10.0,10.56,9.95,10.49,0.031465,5200336.0,53451995.59,913679000.0,1926744460.0,0.05970535017221584,27.8,2013-03-31 00:00:00,2013-04-23 00:00:00,25.785242669738942,4.82883024673394,158.83523287977314,2.433687353465975
sz300216,2013-07-12,10.0,10.34,9.85,10.17,-0.020231,5946882.0,60112347.93,885807000.0,1867968650.0,0.0682764867967853,26.95,2013-03-31 00:00:00,2013-04-23 00:00:00,24.998659837938217,4.681526030193889,153.98993943543712,2.359447342824017
sz300216,2013-07-11,10.14,10.49,10.07,10.38,0.023669,2021680.0,20883710.13,904098000.0,1906540270.0,0.023211021814006888,27.5,2013-03-31 00:00:00,2013-04-23 00:00:00,25.514850784152404,4.778193666255913,157.16963838969912,2.4081669687691867
sz300216,2013-07-10,9.75,10.15,9.68,10.14,0.04,2591625.0,25710033.21,883194000.0,1862458420.0,0.02975459242250287,26.87,2013-03-31 00:00:00,2013-04-23 00:00:00,24.92490324914831,4.667713554142904,153.53560417449305,2.3524859781522998
sz300216,2013-07-09,9.64,9.82,9.64,9.75,-0.0020469999999999998,816650.0,7952153.7,849225000.0,1790825400.0,0.009376004592422504,25.84,2013-03-31 00:00:00,2013-04-23 00:00:00,23.96625312418107,4.488186109752792,147.63038862932024,2.2620057482233653
sz300216,2013-07-08,9.93,9.93,9.52,9.77,-0.035538,2456359.0,23787095.28,850967000.0,1794498890.0,0.028201595866819747,25.89,2013-03-31 00:00:00,2013-04-23 00:00:00,24.015412673924594,4.49739227173303,147.93320790590363,2.266645571708653
sz300216,2013-07-05,10.4,10.49,10.08,10.13,-0.019361,1851971.0,19030487.64,882323000.0,1860621670.0,0.021262583237657864,26.84,2013-03-31 00:00:00,2013-04-23 00:00:00,24.90032025515219,4.663109870303889,153.38417470662776,2.350165762579192
sz300216,2013-07-04,10.4,10.57,10.3,10.33,-0.020853,1815777.0,18917999.38,899743000.0,1897356550.0,0.02084703788748565,27.37,2013-03-31 00:00:00,2013-04-23 00:00:00,25.39193347924383,4.755174809796356,156.41247666738496,2.3965656705262504
sz300216,2013-07-03,10.03,10.67,10.0,10.55,0.039409,3360779.0,34493767.03,918905000.0,1937764920.0,0.03858529276693456,27.95,2013-03-31 00:00:00,2013-04-23 00:00:00,25.932708244261413,4.856446284159944,159.74361017026553,2.4476055898922744
sz300216,2013-07-02,9.94,10.23,9.87,10.15,0.024218,2980322.0,30034930.37,884065000.0,1864295160.0,0.03421724454649828,26.89,2013-03-31 00:00:00,2013-04-23 00:00:00,24.94947440734245,4.6723150214784965,153.6869607346728,2.354805076627462
sz300216,2013-07-01,9.65,9.93,9.51,9.91,0.026943,2013967.0,19622797.8,863161000.0,1820213300.0,0.023122468427095293,26.26,2013-03-31 00:00:00,2013-04-23 00:00:00,24.359535184250277,4.561836465946212,150.05297772024392,2.2991248705133693
sz300216,2013-06-28,9.8,9.95,9.4,9.65,-0.027218,2747717.0,26556238.65,840515000.0,1772457960.0,0.031546693455797935,25.57,2013-03-31 00:00:00,2013-04-23 00:00:00,23.720435490821085,4.442151576033151,146.11616975844223,2.238804754025656
sz300216,2013-06-27,10.09,10.35,9.66,9.92,-0.013916999999999999,2935390.0,29398715.13,864032000.0,1822050050.0,0.03370137772675086,26.29,2013-03-31 00:00:00,2013-04-23 00:00:00,24.38412253806206,4.566440966252614,150.20443404425885,2.301445497578755
sz300216,2013-06-26,9.72,10.1,9.55,10.06,0.031795,2831959.0,28058460.72,876226000.0,1847764460.0,0.032513880597014926,26.66,2013-03-31 00:00:00,2013-04-23 00:00:00,24.728265813386965,4.63088904914963,152.32433176949493,2.3339267562454227
sz300216,2013-06-25,10.04,10.23,9.1,9.75,-0.035608,4401561.0,42114756.55,849225000.0,1790825400.0,0.05053456946039036,25.84,2013-03-31 00:00:00,2013-04-23 00:00:00,23.966258620546682,4.488187139063117,147.6304224865355,2.262006266986584
sz300216,2013-06-24,10.7,10.92,10.02,10.11,-0.075023,2744855.0,28218374.68,880581000.0,1856948180.0,0.0315138346727899,26.79,2013-03-31 00:00:00,2013-04-23 00:00:00,24.851158678780706,4.653903328794844,153.08134294616247,2.345525747814772
sz300216,2013-06-21,10.88,11.0,10.7,10.93,-0.019731,1261683.0,13739119.83,952003000.0,2007561190.0,0.01448545350172216,28.96,2013-03-31 00:00:00,2013-04-23 00:00:00,26.86678552956528,5.031371946323902,165.4974587975295,2.5357665626440142
sz300216,2013-06-20,11.1,11.17,10.72,11.15,0.000898,1932104.0,21220810.66,971165000.0,2047969560.0,0.022182594718714123,29.54,2013-03-31 00:00:00,2013-04-23 00:00:00,27.407564178368666,5.132644148008252,168.82861622425017,2.5868068485732114
sz300216,2013-06-19,11.3,11.3,11.02,11.14,-0.02109,1584365.0,17620152.82,970294000.0,2046132820.0,0.018190183696900116,29.52,2013-03-31 00:00:00,2013-04-23 00:00:00,27.382974267476477,5.128039168834639,168.67714414880456,2.5844859801630253
sz300216,2013-06-18,11.49,11.6,11.24,11.38,-0.010435,1694575.0,19303939.32,991198000.0,2090214670.0,0.019455510907003443,30.15,2013-03-31 00:00:00,2013-04-23 00:00:00,27.9729232181472,5.238519546061068,172.31118708441488,2.64016710439471
sz300216,2013-06-17,11.31,11.75,11.26,11.5,0.010545,2632400.0,30187377.36,1001650000.0,2112255600.0,0.03022273249138921,30.47,2013-03-31 00:00:00,2013-04-23 00:00:00,28.26789874151491,5.29375993094043,174.1282150080236,2.66800776542694
sz300216,2013-06-14,11.05,11.43,11.05,11.38,0.029863999999999998,1777690.0,20105947.05,991198000.0,2090214670.0,0.0204097588978186,30.15,2013-03-31 00:00:00,2013-04-23 00:00:00,27.972924255243363,5.238519740279186,172.31119347285235,2.6401672022789087
sz300216,2013-06-13,11.1,11.12,10.68,11.05,-0.01865,1426060.0,15585012.72,962455000.0,2029602120.0,0.016372675086107923,29.28,2013-03-31 00:00:00,2013-04-23 00:00:00,27.16176529643076,5.086613125887677,167.3145128607781,2.5636076241900962
sz300216,2013-06-07,11.2,11.36,10.9,11.26,0.0,2224406.0,24660041.5,980746000.0,2068173740.0,0.02553853042479908,29.84,2013-03-31 00:00:00,2013-04-23 00:00:00,27.677959236185618,5.183281322553295,170.49423025503447,2.612327532674475
sz300216,2013-06-06,11.3,11.6,11.22,11.26,-0.006178,2260017.0,25811089.18,980746000.0,2068173740.0,0.025947382319173363,29.84,2013-03-31 00:00:00,2013-04-23 00:00:00,27.677959236185618,5.183281322553295,170.49423025503447,2.612327532674475
sz300216,2013-06-05,11.2,11.38,11.17,11.33,0.015233000000000002,2065826.0,23267586.91,986843000.0,2081030950.0,0.023717864523536164,30.02,2013-03-31 00:00:00,2013-04-23 00:00:00,27.85001663898125,5.215502698222918,171.55409143190076,2.6285668184790385
sz300216,2013-06-04,11.56,11.57,11.14,11.16,-0.03876,3665146.0,41344546.22,972036000.0,2049806300.0,0.04207974741676234,29.57,2013-03-31 00:00:00,2013-04-23 00:00:00,27.43214280759318,5.1372470144517735,168.98001880543754,2.589126652186285
sz300216,2013-06-03,12.0,12.25,11.55,11.61,-0.046798,5057074.0,60058236.51,1011231000.0,2132459779.9999998,0.058060551090700345,30.76,2013-03-31 00:00:00,2013-04-23 00:00:00,28.53828680412091,5.344395795484763,175.79378594881356,2.693527789299535
sz300216,2013-05-31,12.26,12.47,12.18,12.18,-0.011364,3814022.0,47086313.31,1060878000.0,2237154190.0,0.043789001148105626,32.27,2013-03-31 00:00:00,2013-04-23 00:00:00,29.939390395866678,5.606781978515324,184.42448289954655,2.82576808409921
sz300216,2013-05-30,12.0,12.56,11.88,12.32,0.02924,4830431.0,59350408.59,1073072000.0,2262868610.0,0.05545845005740528,32.64,2013-03-31 00:00:00,2013-04-23 00:00:00,30.28353245872766,5.67122983435291,186.54437315609238,2.858249228329951
sz300216,2013-05-29,11.8,12.19,11.8,11.97,0.0067280000000000005,2765248.0,33179850.58,1042587000.0,2198582570.0,0.03174796785304248,31.72,2013-03-31 00:00:00,2013-04-23 00:00:00,29.42319814496877,5.51011409812377,181.24477590852703,2.7770483350141375
sz300216,2013-05-28,12.31,12.31,11.88,11.89,-0.037247,5139611.0,61677930.44,1035619000.0,2183888620.0,0.05900816303099885,31.51,2013-03-31 00:00:00,2013-04-23 00:00:00,29.226561836929903,5.473289804320302,180.03351045021793,2.7584892195450386
sz300216,2013-05-27,11.9,12.41,11.84,12.35,0.043956,4314277.0,52450248.69,1075685000.0,2268378840.0,0.049532456946039034,32.72,2013-03-31 00:00:00,2013-04-23 00:00:00,30.357279423621538,5.685040508126491,186.99864913453186,2.86520968466994
sz300216,2013-05-24,11.54,11.85,11.47,11.83,0.023356000000000002,3561160.0,41506981.33,1030393000.0,2172868150.0,0.040885878300803674,31.35,2013-03-31 00:00:00,2013-04-23 00:00:00,29.0790794091145,5.445670610759927,179.12502934465806,2.7445693924551797
sz300216,2013-05-23,11.38,11.86,11.35,11.56,0.005217,2525142.0,29363299.12,1006876000.0,2123276060.0,0.02899129735935706,30.63,2013-03-31 00:00:00,2013-04-23 00:00:00,28.415409113851386,5.321384357701452,175.03686824981537,2.6819302300032244
sz300216,2013-05-22,11.83,11.85,11.41,11.5,-0.028716000000000002,4946184.0,57491508.38,1001650000.0,2112255600.0,0.056787416762342134,30.47,2013-03-31 00:00:00,2013-04-23 00:00:00,28.26793529541521,5.293766776428823,174.12844017740986,2.6680112154920033
sz300216,2013-05-21,11.6,11.9,11.6,11.84,0.013874000000000001,4153461.0,48962846.81,1031264000.0,2174704900.0,0.047686119402985075,31.37,2013-03-31 00:00:00,2013-04-23 00:00:00,29.103676468896023,5.450276928713767,179.27654545674574,2.7468909355986537
sz300216,2013-05-20,15.28,15.47,15.0,15.28,0.001967,3496366.0,53324488.44,1023760000.0,2158880640.0,0.0521845671641791,30.94,2013-03-31 00:00:00,2013-04-23 00:00:00,28.705417506412065,5.375694542629328,176.82329900633192,2.7093020785607025
sz300216,2013-05-17,15.05,15.38,14.89,15.25,0.013288999999999999,4113827.0,62657869.13,1021750000.0,2154642000.0,0.061400402985074626,30.88,2013-03-31 00:00:00,2013-04-23 00:00:00,28.649064795958413,5.365141309673201,176.47617037919602,2.7039833433243836
sz300216,2013-05-16,14.63,15.06,14.25,15.05,0.030116000000000004,5659382.0,83121434.83,1008350000.0,2126384400.0,0.0844683880597015,30.48,2013-03-31 00:00:00,2013-04-23 00:00:00,28.273340375705654,5.294778991653121,174.16173508169533,2.6685213629323745
sz300216,2013-05-15,14.29,14.64,14.28,14.61,0.023109,1958734.0,28259312.01,978870000.0,2064217680.0,0.029234835820895522,29.59,2013-03-31 00:00:00,2013-04-23 00:00:00,27.44675393422261,5.139983255917898,169.07002229039773,2.590505693467896
sz300216,2013-05-14,14.74,14.84,14.22,14.28,-0.034483,2275386.0,32963620.79,956760000.0,2017592640.0,0.033960985074626866,28.92,2013-03-31 00:00:00,2013-04-23 00:00:00,26.82681311006218,5.023886268147282,165.2512315798197,2.53199384764272
sz300216,2013-05-13,14.42,14.94,14.42,14.79,0.028512,3789535.0,55957704.17,990930000.0,2089649520.0,0.05656022388059701,29.95,2013-03-31 00:00:00,2013-04-23 00:00:00,27.784920524508816,5.203312078551991,171.15310406737495,2.6224228549499595
sz300216,2013-05-10,14.4,14.53,14.3,14.38,-0.006906,1867687.0,26906625.77,905940000.0,2031721440.0,0.029645825396825396,29.12,2013-03-31 00:00:00,2013-04-23 00:00:00,27.014678024669443,5.059067933628379,166.40846588797697,2.5497250930956175
sz300216,2013-05-09,14.31,14.51,14.14,14.48,0.0076549999999999995,2898511.0,41528533.54,912240000.0,2045850240.0,0.04600811111111111,29.32,2013-03-31 00:00:00,2013-04-23 00:00:00,27.20253875732755,5.094248815951339,167.56567443562943,2.567455943843803
sz300216,2013-05-08,14.38,14.54,14.18,14.37,0.0063030000000000004,2884190.0,41366818.34,905310000.0,2030308560.0,0.04578079365079365,29.1,2013-03-31 00:00:00,2013-04-23 00:00:00,26.995885255695203,5.055548591483533,166.2927037881313,2.547951376060063
sz300216,2013-05-07,14.25,14.49,14.18,14.28,0.013484999999999999,2970633.0,42583701.49,899640000.0,2017592640.0,0.047152904761904764,28.92,2013-03-31 00:00:00,2013-04-23 00:00:00,26.826795960754566,5.023883056577922,165.25112594132312,2.531992229040421
sz300216,2013-05-06,13.89,14.33,13.87,14.09,0.023983,3057569.0,43268141.57,887670000.0,1990747920.0,0.04853284126984127,28.53,2013-03-31 00:00:00,2013-04-23 00:00:00,26.469850033058773,4.957037407142605,163.05236480196862,2.4983026182335424
sz300216,2013-05-03,13.4,13.86,13.4,13.76,0.023048,2601288.0,35737609.09,866880000.0,1944122880.0,0.04129028571428572,27.87,2013-03-31 00:00:00,2013-04-23 00:00:00,25.849892071507796,4.840937210034349,159.23346852630226,2.4397891549308355
sz300216,2013-05-02,13.14,13.45,12.98,13.45,0.019712,1304596.0,17334251.47,847350000.0,1900323600.0,0.020707873015873016,27.24,2013-03-31 00:00:00,2013-04-23 00:00:00,25.26752612928015,4.731876910989856,155.64613637512832,2.3848237374305365
sz300216,2013-04-26,13.7,13.77,13.18,13.19,-0.0337,1907493.0,25590210.42,830970000.0,1863588720.0,0.030277666666666668,26.71,2013-03-31 00:00:00,2013-04-23 00:00:00,24.779080886838784,4.640405242842936,152.63734895257517,2.338722832947476
sz300216,2013-04-25,13.52,13.9,13.4,13.65,0.010362999999999999,3086859.0,42152420.93,859950000.0,1928581200.0,0.048997761904761905,27.64,2013-03-31 00:00:00,2013-04-23 00:00:00,25.643258705204165,4.802240756331301,157.96062191097505,2.4202864875788848
sz300216,2013-04-24,13.2,13.69,13.1,13.51,0.032875,3642369.0,48829123.45,851130000.0,1908800880.0,0.05781538095238095,27.36,2013-03-31 00:00:00,2013-04-23 00:00:00,25.380243244461813,4.7529855669015015,156.3404656652857,2.395462311643325
sz300216,2013-04-23,13.8,13.8,13.08,13.08,-0.047342,3073030.0,40902247.72,824040000.0,1848047040.0,0.04877825396825397,26.49,2013-03-31 00:00:00,2013-04-23 00:00:00,24.572424779825063,4.601704530462546,151.3643622561159,2.319218019260148
sz300216,2013-04-22,13.6,13.76,13.45,13.73,0.015533000000000002,2949358.0,40084310.02,864990000.0,1939884240.0,0.04681520634920635,27.8,2012-12-31 00:00:00,2013-04-09 00:00:00,27.240477020500517,5.321122399859115,-43.08010640629187,2.475492588612402
sz300216,2013-04-19,13.17,13.64,13.08,13.52,0.025019,2925170.0,39232071.58,851760000.0,1910213760.0,0.04643126984126984,27.38,2012-12-31 00:00:00,2013-04-09 00:00:00,26.823822584298604,5.2397336175772855,-42.421178244618204,2.4376288989253934
sz300216,2013-04-18,13.05,13.28,13.01,13.19,0.001519,1724357.0,22701272.75,830970000.0,1863588720.0,0.02737074603174603,26.71,2012-12-31 00:00:00,2013-04-09 00:00:00,26.169097923354208,5.111840480593322,-41.385748210148506,2.378130453118814
sz300216,2013-04-17,12.8,13.17,12.73,13.17,0.025700999999999998,2332583.0,30262074.18,829710000.0,1860762960.0,0.03702512698412699,26.67,2012-12-31 00:00:00,2013-04-09 00:00:00,26.12940735358411,5.104087371875442,-41.32297860564652,2.3745235518435632
sz300216,2013-04-16,12.57,12.84,12.39,12.84,0.007059,1780224.0,22435771.54,808920000.0,1814137920.0,0.02825752380952381,26.0,2012-12-31 00:00:00,2013-04-09 00:00:00,25.47468253768312,4.976194204622441,-40.287548326117,2.3150250919552224
sz300216,2013-04-15,12.84,12.84,12.53,12.75,0.004728,1063657.0,13476852.76,803250000.0,1801422000.0,0.016883444444444444,25.82,2012-12-31 00:00:00,2013-04-09 00:00:00,25.2961172460433,4.9413134728178205,-40.00515195844235,2.298797877736282
sz300216,2013-04-12,12.7,13.04,12.63,12.69,0.000789,1898868.0,24315090.73,799470000.0,1792944720.0,0.030140761904761906,25.7,2012-12-31 00:00:00,2013-04-09 00:00:00,25.177080011747755,4.9180608809725825,-39.8168976662762,2.2879803068455162
sz300216,2013-04-11,13.04,13.12,12.5,12.68,-0.027607,1492353.0,19190614.14,798840000.0,1791531840.0,0.023688142857142856,25.68,2012-12-31 00:00:00,2013-04-09 00:00:00,25.15723095652306,4.914183590119977,-39.78550690133105,2.286176513576305
sz300216,2013-04-10,13.12,13.16,12.74,13.04,-0.006097999999999999,1280563.0,16576315.67,821520000.0,1842395520.0,0.020326396825396824,26.41,2012-12-31 00:00:00,2013-04-09 00:00:00,25.87146447632085,5.053701116852936,-40.91504864939489,2.3510828580381644
sz300216,2013-04-09,13.07,13.26,12.97,13.12,0.013127000000000002,2181831.0,28612057.32,826560000.0,1853698560.0,0.03463223809523809,26.57,2012-12-31 00:00:00,2013-04-09 00:00:00,26.030196615280836,5.084707664189163,-41.16607940158577,2.3655077241399702
sz300216,2013-04-08,12.57,13.09,12.4,12.95,0.019685,2330957.0,29915409.87,815850000.0,1829679600.0,0.03699931746031746,26.23,2012-09-30 00:00:00,2012-10-24 00:00:00,30.136334731046365,6.145189558111524,-24.605207566749733,2.439174033020471
sz300216,2013-04-03,12.78,12.84,12.5,12.7,0.005542,2041180.0,25851531.71,800100000.0,1794357600.0,0.03239968253968254,25.72,2012-09-30 00:00:00,2012-10-24 00:00:00,29.55455334838344,6.026556787744769,-24.130204491337754,2.3920858235832356
sz300216,2013-04-02,13.0,13.4,12.63,12.63,-0.043182,5855342.0,76080382.52,795690000.0,1784467440.0,0.09294193650793652,25.58,2012-09-30 00:00:00,2012-10-24 00:00:00,29.391664742381163,5.993341688109267,-23.997211942751026,2.3789019489819774
sz300216,2013-04-01,13.75,13.95,13.17,13.2,-0.045552999999999996,3924304.0,53057147.42,831600000.0,1865001600.0,0.06229053968253968,26.73,2012-09-30 00:00:00,2012-10-24 00:00:00,30.718135259141402,6.263826232480228,-25.080226273702024,2.4862637920502926
sz300216,2013-03-29,14.33,14.47,13.74,13.83,-0.033543,2590868.0,36284380.78,871290000.0,1954013040.0,0.04112488888888889,28.01,2012-09-30 00:00:00,2012-10-24 00:00:00,32.18422317754826,6.56278057606156,-26.277233071822767,2.6049259854662363
sz300216,2013-03-28,14.55,14.65,14.03,14.31,-0.023874,1358228.0,19540773.28,901530000.0,2021831280.0,0.021559174603174604,28.98,2012-09-30 00:00:00,2012-10-24 00:00:00,33.301246902395306,6.790556202771112,-27.189241809850586,2.695335628451381
sz300216,2013-03-27,14.32,14.85,14.32,14.66,0.023743,1439753.0,21074749.04,923580000.0,2071282080.0,0.022853222222222223,29.69,2012-09-30 00:00:00,2012-10-24 00:00:00,34.11572573868057,6.956639002312317,-27.854233787288308,2.7612578995451216
sz300216,2013-03-26,14.44,14.54,13.98,14.32,-0.016484,1500799.0,21331436.33,902160000.0,2023244160.0,0.02382220634920635,29.0,2012-09-30 00:00:00,2012-10-24 00:00:00,33.32450208566072,6.795298236288127,-27.20822881063734,2.6972178559903424
sz300216,2013-03-25,14.8,14.85,14.46,14.56,-0.016216,1497259.0,21855017.28,917280000.0,2057153280.0,0.023766015873015873,29.49,2012-09-30 00:00:00,2012-10-24 00:00:00,33.88302995137926,6.909189312922338,-27.664246245752324,2.7424239727572735
sz300216,2013-03-22,14.5,14.96,14.43,14.8,0.019284,1542797.0,22768305.94,932400000.0,2091062400.0,0.024488841269841268,29.97,2012-09-30 00:00:00,2012-10-24 00:00:00,34.44153386452641,7.023075505316551,-28.120244124474805,2.787628150851481
sz300216,2013-03-21,14.49,14.65,14.35,14.52,0.008333,1691285.0,24535334.1,914760000.0,2051501760.0,0.02684579365079365,29.4,2012-09-30 00:00:00,2012-10-24 00:00:00,33.78992887608009,6.89020479602991,-27.588232646126894,2.734888559863081
sz300216,2013-03-20,13.81,14.44,13.7,14.4,0.047273,2197214.0,31235841.42,907200000.0,2034547200.0,0.0348764126984127,29.16,2012-09-30 00:00:00,2012-10-24 00:00:00,33.51068434344615,6.833263213670396,-27.360239768138996,2.7122870716946497
sz300216,2013-03-19,14.06,14.27,13.35,13.75,-0.017856999999999998,1833782.0,25208798.22,866250000.0,1942710000.0,0.029107650793650793,27.85,2012-09-30 00:00:00,2012-10-24 00:00:00,31.998040953453543,6.524815605549265,-26.125222141828345,2.5898567724887873
sz300216,2013-03-18,14.11,14.33,13.96,14.0,-0.007795999999999999,1419728.0,20082554.38,882000000.0,1978032000.0,0.02253536507936508,28.35,2012-09-30 00:00:00,2012-10-24 00:00:00,32.57981877736088,6.643447650239595,-26.600222311647435,2.6369446938875374
sz300216,2013-03-15,14.0,14.58,13.88,14.11,0.011470000000000001,1719695.0,24506630.84,888930000.0,1993573680.0,0.027296746031746033,28.57,2012-09-30 00:00:00,2012-10-24 00:00:00,32.83580672660146,6.695646913577846,-26.809227045695675,2.6576638411934814
sz300216,2013-03-14,13.99,14.18,13.83,13.95,-0.003571,1314863.0,18404857.72,878850000.0,1970967600.0,0.02087084126984127,28.25,2012-09-30 00:00:00,2012-10-24 00:00:00,32.463450944270676,6.619718739634242,-26.5052122610613,2.62752611663567
sz300216,2013-03-13,14.21,14.33,13.89,14.0,-0.014778,2044052.0,28638089.61,882000000.0,1978032000.0,0.032445269841269844,28.35,2012-09-30 00:00:00,2012-10-24 00:00:00,32.5797933864537,6.643442472704268,-26.600201580906717,2.636942638798821
sz300216,2013-03-12,14.95,15.22,14.1,14.21,-0.052667,3022298.0,44155511.69,895230000.0,2007702480.0,0.047972984126984135,28.78,2012-09-30 00:00:00,2012-10-24 00:00:00,33.06847937465231,6.74309188457451,-26.99919569488574,2.676495895137158
sz300216,2013-03-11,14.86,15.41,14.82,15.0,0.008742,1485343.0,22420927.88,945000000.0,2119320000.0,0.023576873015873016,30.38,2012-09-30 00:00:00,2012-10-24 00:00:00,34.90692224872597,7.117974233531939,-28.500216602700153,2.8252957462024
sz300216,2013-03-08,15.4,15.49,14.75,14.87,-0.025557,2443424.0,36786708.29,936810000.0,2100952560.0,0.038784507936507936,30.11,2012-09-30 00:00:00,2012-10-24 00:00:00,34.60441049220313,7.056288162416097,-28.253226893199802,2.800811055951274
sz300216,2013-03-07,16.05,16.15,15.0,15.26,-0.052174,4733123.0,73035491.56,961380000.0,2156054880.0,0.0751289365079365,30.9,2012-09-30 00:00:00,2012-10-24 00:00:00,35.5119904316652,7.241355484534341,-28.99423249302402,2.874268742195566
sz300216,2013-03-06,16.21,16.42,15.8,16.1,-0.006786,4394095.0,70854918.58,1014300000.0,2274736800.0,0.06974753968253969,32.6,2012-09-30 00:00:00,2012-10-24 00:00:00,37.46678233311304,7.639962909367691,-30.590248097249933,3.032485648416024
sz300216,2013-03-05,15.36,16.25,15.33,16.21,0.059476999999999995,4136487.0,65771923.55,1021230000.0,2290278480.0,0.0656585238095238,32.83,2012-09-30 00:00:00,2012-10-24 00:00:00,37.722769043844565,7.692161920157881,-30.799251820101137,3.0532046954795478
sz300216,2013-03-04,15.41,15.92,15.18,15.3,-0.015444,3894204.0,60714495.22,963900000.0,2161706400.0,0.061812761904761905,30.98,2012-09-30 00:00:00,2012-10-24 00:00:00,35.6050853806591,7.260338752193658,-29.070241090746787,2.88180365923899
sz300216,2013-03-01,14.85,15.54,14.85,15.54,0.057862000000000004,3604516.0,54999913.05,979020000.0,2195615520.0,0.05721453968253968,31.47,2012-09-30 00:00:00,2012-10-24 00:00:00,36.16359595661304,7.374226303220599,-29.526244409405653,2.9270083766073136
sz300216,2013-02-28,14.18,14.69,14.14,14.69,0.038163,1444292.0,20922624.38,925470000.0,2075520720.0,0.02292526984126984,29.75,2012-09-30 00:00:00,2012-10-24 00:00:00,34.18555157157836,6.9708773953697145,-27.911244008581125,2.7669094613544236
sz300216,2013-02-27,14.48,14.78,14.01,14.15,-0.021438,1844306.0,26270220.61,891450000.0,1999225200.0,0.029274698412698412,28.66,2012-09-30 00:00:00,2012-10-24 00:00:00,32.92888647695821,6.714627082037903,-26.885223234290887,2.665197528089928
sz300216,2013-02-26,14.6,15.34,14.3,14.46,-0.004818,2787380.0,41604465.18,910980000.0,2043024480.0,0.04424412698412698,29.28,2012-09-30 00:00:00,2012-10-24 00:00:00,33.65028120544044,6.861728824579233,-27.474215465438967,2.7235857596043256
sz300216,2013-02-25,14.26,14.62,14.12,14.53,0.020365,1210746.0,17463006.17,915390000.0,2052914640.0,0.019218190476190476,29.42,2012-09-30 00:00:00,2012-10-24 00:00:00,33.81319317013415,6.894948687354908,-27.607227085537083,2.736771524810864
sz300216,2013-02-22,14.6,14.8,14.1,14.24,-0.025325,1689116.0,24480407.95,897120000.0,2011941120.0,0.02681136507936508,28.84,2012-09-30 00:00:00,2012-10-24 00:00:00,33.13833105813522,6.757335548901529,-27.056227022229383,2.68214954924058
sz300216,2013-02-21,14.85,15.34,14.5,14.61,-0.020777,2281466.0,33951746.96,920430000.0,2064217680.0,0.036213746031746034,29.59,2012-09-30 00:00:00,2012-10-24 00:00:00,33.999364976156386,6.93291153348709,-27.759229509558967,2.7518398945705798
sz300216,2013-02-20,14.46,14.98,14.46,14.92,0.02543,1388869.0,20583592.56,939960000.0,2108016960.0,0.022045539682539684,30.21,2012-09-30 00:00:00,2012-10-24 00:00:00,34.72075816862593,7.080012962815507,-28.348220486609243,2.810228001763214
sz300216,2013-02-19,14.85,15.0,14.49,14.55,-0.031292,1270627.0,18663428.78,916650000.0,2055740400.0,0.02016868253968254,29.47,2012-09-30 00:00:00,2012-10-24 00:00:00,33.85970584888869,6.904433225881344,-27.645202974956106,2.740536167035501
sz300216,2013-02-18,14.88,15.09,14.56,15.02,0.008054,1376510.0,20423657.48,946260000.0,2122145759.9999998,0.02184936507936508,30.42,2012-09-30 00:00:00,2012-10-24 00:00:00,34.95346982670597,7.127465888463133,-28.538220986051638,2.829063213099821
sz300216,2013-02-08,14.18,14.92,14.14,14.9,0.043417000000000004,1414609.0,20577004.54,938700000.0,2105191200.0000002,0.022454111111111112,30.17,2012-09-30 00:00:00,2012-10-24 00:00:00,34.67420378938625,7.070519921019243,-28.310210550279685,2.806459984385579
sz300216,2013-02-07,13.91,14.34,13.9,14.28,0.01637,1122697.0,15968056.4,899640000.0,2017592640.0,0.017820587301587303,28.92,2012-09-30 00:00:00,2012-10-24 00:00:00,33.23139625805047,6.7763127503378255,-27.132211330924914,2.6896820584536947
sz300216,2013-02-06,14.2,14.35,13.95,14.05,-0.012648999999999999,1076148.0,15150604.7,885150000.0,1985096400.0,0.017081714285714287,28.45,2012-09-30 00:00:00,2012-10-24 00:00:00,32.69616011693622,6.667171158473612,-26.695210731254278,2.64636112680785
sz300216,2013-02-05,13.72,14.38,13.69,14.23,0.022269999999999998,1198110.0,16849253.05,896490000.0,2010528240.0,0.019017619047619047,28.82,2012-09-30 00:00:00,2012-10-24 00:00:00,33.11503215871176,6.752584601092834,-27.037204328809384,2.6802637834041287
sz300216,2013-02-04,14.35,14.4,13.81,13.92,-0.025892000000000002,1823892.0,25730058.43,876960000.0,1966728960.0,0.028950666666666666,28.19,2012-09-30 00:00:00,2012-10-24 00:00:00,32.39362610534572,6.605480549260797,-26.4482028513107,2.6218746352765208
sz300216,2013-02-01,13.9,14.48,13.87,14.29,0.022175,1837174.0,26240296.28,900270000.0,2019005520.0,0.02916149206349206,28.94,2012-09-30 00:00:00,2012-10-24 00:00:00,33.25465564942051,6.7810556419419585,-27.151201767474138,2.691564626588141
sz300216,2013-01-31,14.21,14.28,13.8,13.98,-0.021693,1977784.0,27629642.94,880740000.0,1975206240.0,0.031393396825396824,28.31,2012-09-30 00:00:00,2012-10-24 00:00:00,32.533231246528736,6.633947848403608,-26.562185308263395,2.6331739932870013
sz300216,2013-01-30,14.41,14.59,14.07,14.29,-0.014483000000000001,1826932.0,26060684.99,900270000.0,2019005520.0,0.02899892063492063,28.94,2012-09-30 00:00:00,2012-10-24 00:00:00,33.25462380063593,6.781049147561664,-27.15117576411433,2.691562048811878
sz300216,2013-01-29,14.4,14.7,14.17,14.5,0.0,2979396.0,42958480.19,913500000.0,2048676000.0,0.047292,29.36,2012-09-30 00:00:00,2012-10-24 00:00:00,33.74332842623306,6.880702359839214,-27.550185094842938,2.7311168136235877
sz300216,2013-01-28,13.85,14.86,13.8,14.5,0.043164999999999995,5387507.0,77041567.83,913500000.0,2048676000.0,0.08551598412698412,29.36,2012-09-30 00:00:00,2012-10-24 00:00:00,33.74332842623306,6.880702359839214,-27.550185094842938,2.7311168136235877
sz300216,2013-01-25,13.09,13.97,12.87,13.9,0.059451,4352913.0,58266643.57,875700000.0,1963903200.0,0.06909385714285714,28.15,2012-09-30 00:00:00,2012-10-24 00:00:00,32.34706726762599,6.595986598322619,-26.410189274796355,2.6181062570385203
sz300216,2013-01-24,13.16,13.49,12.73,13.12,0.05128200000000001,6634663.0,86691174.3,826560000.0,1853698560.0,0.10531211111111109,26.57,2012-09-30 00:00:00,2012-10-24 00:00:00,30.531914423249393,6.225853388521621,-24.92818381859695,2.4711914539119983
sz300216,2013-01-23,12.05,12.53,12.05,12.48,0.020442,2496822.0,30631484.98,786240000.0,1763274240.0,0.03963209523809524,25.27,2012-09-30 00:00:00,2012-10-24 00:00:00,29.042554160776454,5.92215351211342,-23.712176008527635,2.3506456439965664
sz300216,2013-01-22,12.64,12.72,12.19,12.23,-0.036249,2437611.0,30228093.03,770490000.0,1727952240.0,0.03869223809523809,24.77,2012-09-30 00:00:00,2012-10-24 00:00:00,28.460759318781914,5.803517997214364,-23.23716194406702,2.3035563451882286
sz300216,2013-01-21,12.66,12.88,12.46,12.69,0.00237,2330994.0,29674784.66,799470000.0,1792944720.0,0.03699990476190476,25.7,2012-09-30 00:00:00,2012-10-24 00:00:00,29.531237133639195,6.021802309117565,-24.111167660595957,2.3901986562797113
sz300216,2013-01-18,12.68,12.7,12.45,12.66,0.0,2238670.0,28151902.0,797580000.0,1788706080.0,0.035534444444444445,25.64,2012-09-30 00:00:00,2012-10-24 00:00:00,29.461413583446426,6.007564381533331,-24.054159303047733,2.384547279227941
sz300216,2013-01-17,12.12,12.68,11.97,12.66,0.043693,4549380.0,56725610.74,797580000.0,1788706080.0,0.07221238095238096,25.64,2012-09-30 00:00:00,2012-10-24 00:00:00,29.461413583446426,6.007564381533331,-24.054159303047733,2.384547279227941
sz300216,2013-01-16,12.0,12.3,11.73,12.13,0.0,2158407.0,25852509.01,764190000.0,1713823440.0,0.034260428571428574,24.56,2012-09-30 00:00:00,2012-10-24 00:00:00,28.22804558758795,5.756064648831918,-23.04715975200345,2.28472096605797
sz300216,2013-01-15,11.6,12.29,11.57,12.13,0.040309,3892877.0,46180367.83,764190000.0,1713823440.0,0.06179169841269842,24.56,2012-09-30 00:00:00,2012-10-24 00:00:00,28.22804558758795,5.756064648831918,-23.04715975200345,2.28472096605797
sz300216,2013-01-14,11.12,11.77,11.1,11.66,0.048561,4351476.0,50004827.38,734580000.0,1647418080.0,0.06907104761904762,23.61,2012-09-30 00:00:00,2012-10-24 00:00:00,27.134289511662356,5.533033597548343,-22.154148192511503,2.1961945595567958
sz300216,2013-01-11,11.56,11.56,11.1,11.12,-0.035559,1829896.0,20673712.49,700560000.0,1571122560.0,0.02904596825396825,22.52,2012-09-30 00:00:00,2012-10-24 00:00:00,25.87764518388759,5.276787518845678,-21.128144373585805,2.0944843071187997
sz300216,2013-01-10,11.17,11.6,11.16,11.53,0.026713999999999998,2494666.0,28614045.33,726390000.0,1629050640.0,0.03959787301587302,23.35,2012-09-30 00:00:00,2012-10-24 00:00:00,26.83175558057734,5.471343004751642,-21.907140378297694,2.171708074541418
sz300216,2013-01-09,11.38,11.38,11.09,11.23,-0.008826,1987174.0,22373665.86,707490000.0,1586664240.0,0.03154244444444444,22.74,2012-09-30 00:00:00,2012-10-24 00:00:00,26.133622002405094,5.328984512485116,-21.33714001980853,2.1152025535265113
sz300216,2013-01-08,11.12,11.48,11.08,11.33,0.019802,3251618.0,36747018.0,713790000.0,1600793040.0,0.051612984126984125,22.94,2012-09-30 00:00:00,2012-10-24 00:00:00,26.366331241946515,5.376436944961345,-21.527138544603197,2.1340375691114892
sz300216,2013-01-07,10.77,11.12,10.73,11.11,0.027752,1940245.0,21286905.6,699930000.0,1569709680.0,0.030797539682539683,22.5,2012-09-30 00:00:00,2012-10-24 00:00:00,25.85436314298904,5.27204000870889,-21.1091354445306,2.092599905777287
sz300216,2013-01-04,11.12,11.12,10.66,10.81,-0.021719,1685099.0,18280380.64,681030000.0,1448540000.0,0.026747603174603174,21.89,2012-09-30 00:00:00,2012-10-24 00:00:00,25.15622751693895,5.129681098853507,-20.53913341402459,2.036094219011286
