index_code,date,open,high,low,close,volume,money,change
sz399005,2014-12-31,5388.73,5464.83,5381.23,5461.19,15282381.0,26946663400.0,0.012946568510161516
sz399005,2014-12-30,5491.4,5500.14,5380.07,5391.39,16092626.0,28015913100.0,-0.01939960531461149
sz399005,2014-12-29,5577.32,5579.74,5462.17,5498.05,18787257.0,31537055099.999996,-0.012138831143396644
sz399005,2014-12-26,5519.98,5566.04,5498.91,5565.61,15323539.000000002,25831765299.999996,0.00847643431669387
sz399005,2014-12-25,5470.35,5518.83,5463.26,5518.83,12666465.0,21688562500.0,0.01202028870698002
sz399005,2014-12-24,5414.39,5457.22,5393.58,5453.28,13715679.999999998,22705959400.0,0.012491645005569874
sz399005,2014-12-23,5433.04,5510.79,5381.15,5386.0,14259066.0,23910341000.0,-0.01232666204554378
sz399005,2014-12-22,5646.06,5646.06,5435.25,5453.22,21222951.0,35247932100.0,-0.03791889770030776
sz399005,2014-12-19,5749.18,5750.03,5600.87,5668.15,19083650.0,33409291100.0,-0.016084543666602613
sz399005,2014-12-18,5775.47,5809.41,5758.54,5760.81,19742081.0,35435040600.0,-0.005575588932369535
sz399005,2014-12-17,5839.42,5839.42,5724.76,5793.11,23711622.0,39649932400.0,-0.009772181844287853
sz399005,2014-12-16,5885.76,5898.03,5820.2,5850.28,21043719.0,36180761200.0,-0.0054231594408876704
sz399005,2014-12-15,5758.9,5888.85,5753.82,5882.18,23101418.0,39742108600.0,0.017926518406739422
sz399005,2014-12-12,5737.36,5790.26,5727.45,5778.59,21122559.0,34736637000.0,0.00910511748116205
sz399005,2014-12-11,5680.47,5753.47,5660.41,5726.45,23060461.0,38910110200.0,0.004332003332310208
sz399005,2014-12-10,5500.05,5707.21,5500.05,5701.75,26203331.0,42311614200.0,0.038759336855529236
sz399005,2014-12-09,5693.36,5717.04,5479.45,5489.0,33617038.0,55975912800.0,-0.03936351926523296
sz399005,2014-12-08,5667.95,5737.08,5624.45,5713.92,26498189.0,46677589800.00001,0.0028450026414121865
sz399005,2014-12-05,5827.1,5827.1,5557.49,5697.71,30845677.0,52081613300.0,-0.019848307870684923
sz399005,2014-12-04,5701.74,5817.29,5701.74,5813.09,27940983.0,46707852100.0,0.02023412545192871
sz399005,2014-12-03,5615.53,5698.57,5580.75,5697.8,29063411.0,45834950599.99999,0.014791397657954564
sz399005,2014-12-02,5543.83,5627.05,5539.6,5614.75,19027313.0,30568774900.000004,0.010872539770558687
sz399005,2014-12-01,5578.65,5578.68,5517.6,5554.36,20676395.0,33387560000.0,-0.005877720504009143
sz399005,2014-11-28,5595.41,5595.41,5526.92,5587.2,23277466.0,36354454100.0,-0.0020861315120167534
sz399005,2014-11-27,5601.58,5605.65,5559.99,5598.88,21352089.0,33432340000.0,0.0031012779558441395
sz399005,2014-11-26,5588.4,5601.52,5546.6,5581.57,19238466.0,30142669100.0,0.0013401266572181658
sz399005,2014-11-25,5483.49,5574.1,5481.13,5574.1,18743465.0,30294812599.999996,0.017970305166462808
sz399005,2014-11-24,5470.22,5494.43,5445.44,5475.7,19336180.0,29275201700.0,0.009280507248380143
sz399005,2014-11-21,5387.23,5427.77,5383.9,5425.35,12169152.0,18171324800.0,0.008067737781799478
sz399005,2014-11-20,5401.16,5403.64,5375.57,5381.93,10491888.0,15757817100.0,-0.006690438486724348
sz399005,2014-11-19,5389.71,5447.21,5385.23,5418.18,13406132.0,20623212700.0,0.005388614881038478
sz399005,2014-11-18,5387.79,5409.07,5371.92,5389.14,10396548.0,16171924800.0,0.001148067234384209
sz399005,2014-11-17,5333.67,5406.65,5307.72,5382.96,12203011.0,18786357900.0,0.011030703031236433
sz399005,2014-11-14,5293.67,5327.14,5272.45,5324.23,12179974.0,17625003900.0,0.0017969096916463645
sz399005,2014-11-13,5421.14,5421.14,5286.94,5314.68,14520382.0,22874018400.0,-0.019717499326764476
sz399005,2014-11-12,5355.18,5421.58,5349.77,5421.58,11593176.0,18288469100.0,0.009599573931616812
sz399005,2014-11-11,5544.21,5550.01,5338.67,5370.03,19459781.0,30774974100.0,-0.029599752793273426
sz399005,2014-11-10,5502.54,5533.86,5475.0,5533.83,14097670.000000002,22725617900.0,0.006907004714449272
sz399005,2014-11-07,5556.46,5577.23,5471.13,5495.87,17000202.0,26865491500.0,-0.009606824792131485
sz399005,2014-11-06,5515.46,5550.33,5490.19,5549.18,12792831.0,20423888200.0,0.006266977597731094
sz399005,2014-11-05,5522.36,5531.91,5489.76,5514.62,13615006.0,21689422700.0,-0.0016402108739101973
sz399005,2014-11-04,5575.68,5575.68,5503.2,5523.68,14839432.0,24059210099.999996,-0.009288902998312198
sz399005,2014-11-03,5556.67,5578.64,5542.36,5575.47,13502824.0,22036941200.0,0.003219026986566176
sz399005,2014-10-31,5574.88,5584.02,5509.73,5557.58,16413588.0,26213756600.0,-0.0019681999231396796
sz399005,2014-10-30,5574.97,5606.43,5550.06,5568.54,15434939.000000002,26025021600.0,-0.0012859348854227237
sz399005,2014-10-29,5552.5,5582.07,5529.22,5575.71,16284566.0,26958268000.0,0.006547593258524387
sz399005,2014-10-28,5451.41,5539.44,5451.41,5539.44,11788589.0,20314062100.0,0.018109103072831534
sz399005,2014-10-27,5396.22,5440.91,5369.27,5440.91,8581855.0,14412321900.0,0.005553645816007036
sz399005,2014-10-24,5405.5,5442.32,5394.55,5410.86,8786326.0,14786136399.999998,0.0014899654068900592
sz399005,2014-10-23,5457.39,5476.02,5379.06,5402.81,10935621.0,17520829200.0,-0.012115405361423304
sz399005,2014-10-22,5520.43,5547.16,5466.92,5469.07,10863262.0,18376507100.0,-0.00878830497538785
sz399005,2014-10-21,5560.53,5577.72,5510.24,5517.56,11260983.0,19114525600.0,-0.006823905088138349
sz399005,2014-10-20,5492.13,5557.13,5492.13,5555.47,11250899.0,19293013200.0,0.01389215874145644
sz399005,2014-10-17,5518.81,5544.81,5393.36,5479.35,14952698.000000002,25014835800.0,-0.008339622436624783
sz399005,2014-10-16,5587.71,5636.87,5525.43,5525.43,16903304.0,29663146900.0,-0.015345163716199095
sz399005,2014-10-15,5577.84,5611.54,5536.72,5611.54,14457454.999999998,25356489800.0,0.006155407452830275
sz399005,2014-10-14,5593.92,5632.75,5547.7,5577.21,14380067.000000002,25599117599.999996,-0.004082091830994949
sz399005,2014-10-13,5611.12,5611.12,5538.39,5600.07,14504206.0,25222104100.0,-0.007243486446383951
sz399005,2014-10-10,5655.81,5674.47,5609.83,5640.93,16491048.000000002,28314789200.0,-0.006234673168531657
sz399005,2014-10-09,5678.98,5696.19,5608.06,5676.32,18701400.0,32680297000.0,0.0016764252261409762
sz399005,2014-10-08,5625.93,5666.82,5586.06,5666.82,17740768.0,30683919600.0,0.011065515272623339
sz399005,2014-09-30,5576.23,5621.01,5569.85,5604.8,14805022.0,24675199700.000004,0.007204328707156371
sz399005,2014-09-29,5532.17,5570.12,5531.77,5564.71,16137726.999999998,26633327500.0,0.009960379902828276
sz399005,2014-09-26,5484.73,5515.87,5472.07,5509.83,14501679.999999998,24223551700.0,0.003663210509825543
sz399005,2014-09-25,5508.53,5552.48,5473.69,5489.72,18893571.0,30233121800.0,0.0016713620505932614
sz399005,2014-09-24,5409.73,5486.98,5396.48,5480.56,15040989.000000002,24396522799.999996,0.0110857545563392
sz399005,2014-09-23,5352.31,5422.07,5352.31,5420.47,13239338.0,21172460500.0,0.011572354743713653
sz399005,2014-09-22,5434.9,5434.9,5343.61,5358.46,13487619.0,21617849600.0,-0.015036046071327469
sz399005,2014-09-19,5403.5,5447.92,5381.98,5440.26,12821152.0,20159972700.0,0.007769083714933567
sz399005,2014-09-18,5368.63,5401.65,5348.06,5398.32,14192074.0,20783811700.0,0.0038175533072135615
sz399005,2014-09-17,5347.5,5377.79,5292.9,5377.79,17515351.0,26955036600.0,0.007172969703099108
sz399005,2014-09-16,5553.33,5555.55,5339.18,5339.49,22168656.0,36344975600.0,-0.038397536333675486
sz399005,2014-09-15,5507.05,5563.0,5485.9,5552.7,19459991.0,31939079900.000004,0.007685537216329141
sz399005,2014-09-12,5455.01,5511.14,5439.84,5510.35,17088278.0,27107415700.0,0.009508193717997049
sz399005,2014-09-11,5484.46,5541.32,5434.21,5458.45,21233913.0,35186582500.0,-0.0037143170037234885
sz399005,2014-09-10,5465.51,5486.61,5434.18,5478.8,16622422.0,27370353500.0,0.0006757867436211207
sz399005,2014-09-09,5463.54,5484.9,5427.11,5475.1,16106791.0,27587732799.999996,0.004786181735431327
sz399005,2014-09-05,5440.69,5456.51,5406.84,5449.02,18182814.0,30211639600.0,0.0038910075719893467
sz399005,2014-09-04,5392.64,5430.4,5367.42,5427.9,16408845.000000002,30276823100.0,0.00679058258784071
sz399005,2014-09-03,5370.61,5404.45,5356.29,5391.29,17071948.0,31004891700.0,0.007789338308141547
sz399005,2014-09-02,5303.07,5351.26,5293.08,5349.62,16447779.0,28551268600.0,0.011199594735339824
sz399005,2014-09-01,5213.77,5290.37,5213.77,5290.37,13025656.0,22037132599.999996,0.016786372555991358
sz399005,2014-08-29,5141.16,5203.03,5136.56,5203.03,9591574.0,16015225900.0,0.013181210981161762
sz399005,2014-08-28,5189.29,5202.41,5120.64,5135.34,11451621.0,18093468300.0,-0.011274764627736245
sz399005,2014-08-27,5155.33,5209.18,5155.33,5193.9,11222773.0,19347667600.0,0.008410703260603558
sz399005,2014-08-26,5218.4,5243.45,5130.98,5150.58,14660662.0,23368257500.0,-0.01409022259910142
sz399005,2014-08-25,5270.85,5272.94,5208.08,5224.19,13970843.0,22844406800.0,-0.006407525466537889
sz399005,2014-08-22,5219.9,5265.9,5208.52,5257.88,13480022.0,23094407500.0,0.006373718078773738
sz399005,2014-08-21,5217.82,5229.55,5155.98,5224.58,14398666.0,23544883800.0,0.0023559656965255193
sz399005,2014-08-20,5203.3,5250.26,5191.03,5212.3,15642807.999999998,24876894300.0,0.001121683447102173
sz399005,2014-08-19,5194.22,5225.04,5177.29,5206.46,15841589.000000002,26144916100.0,0.0035794899275041203
sz399005,2014-08-18,5123.28,5187.89,5123.28,5187.89,15741115.0,23949867200.000004,0.015942488759380424
sz399005,2014-08-15,5043.37,5120.44,5035.82,5106.48,13607144.0,20553113300.0,0.013586659865066242
sz399005,2014-08-14,5074.23,5094.71,5034.32,5038.03,13213994.0,19686128500.0,-0.0079063759063287
sz399005,2014-08-13,5086.98,5100.19,5023.33,5078.18,13005275.0,20564376000.0,-0.0008303163859592066
sz399005,2014-08-12,5063.28,5082.4,5048.39,5082.4,12592024.0,19787144700.0,0.003259052209976687
sz399005,2014-08-11,5010.16,5067.28,5010.16,5065.89,12188171.0,18324317800.0,0.014360744628236555
sz399005,2014-08-08,4972.42,5013.23,4972.42,4994.17,10514801.0,15847220800.0,0.005049224403712582
sz399005,2014-08-07,5025.07,5047.29,4968.03,4969.08,12858752.0,19375169100.0,-0.010238064886225917
sz399005,2014-08-06,4973.8,5032.23,4954.7,5020.48,13785275.0,21187736000.0,0.006229205916542968
sz399005,2014-08-05,4951.25,4989.4,4920.86,4989.4,13696576.0,19771428100.0,0.0080614203454894
sz399005,2014-08-04,4901.1,4949.5,4891.86,4949.5,10798141.0,16451131800.0,0.012198738202603199
sz399005,2014-08-01,4930.26,4967.84,4886.17,4889.85,13234972.0,20652198200.0,-0.012295181306961389
sz399005,2014-07-31,4908.75,4950.72,4896.17,4950.72,12768147.0,19907634200.0,0.007191727174149731
sz399005,2014-07-30,4890.52,4922.9,4882.12,4915.37,13507296.0,21114190099.999996,0.004742271834380141
sz399005,2014-07-29,4820.38,4910.28,4812.51,4892.17,17340727.0,25207681500.0,0.0157379935511599
sz399005,2014-07-28,4732.57,4824.64,4732.57,4816.37,17524943.0,22698605700.0,0.02172700177133824
sz399005,2014-07-25,4669.83,4714.59,4669.83,4713.95,10431414.0,14124142800.0,0.010183373585374689
sz399005,2014-07-24,4694.37,4714.94,4621.12,4666.43,12521821.0,17927456800.0,-0.005752722422620593
sz399005,2014-07-23,4730.14,4748.61,4676.27,4693.43,9686245.0,14805551600.0,-0.007949626297811818
sz399005,2014-07-22,4676.52,4733.1,4671.32,4731.04,9023185.0,14407075500.0,0.010100923836344089
sz399005,2014-07-21,4680.8,4689.53,4646.46,4683.73,8090730.0,13558754100.0,0.0029765537503505524
sz399005,2014-07-18,4654.9,4698.71,4651.09,4669.83,7652567.0,12523940400.0,0.0004177485282397253
sz399005,2014-07-17,4703.61,4704.56,4647.46,4667.88,7224305.0,11442557900.0,-0.008150880533079441
sz399005,2014-07-16,4741.6,4758.17,4687.9,4706.24,9292532.0,14081627900.0,-0.008889216481167583
sz399005,2014-07-15,4751.79,4764.45,4719.86,4748.45,11239019.0,17230991600.0,-0.0008753085146897543
sz399005,2014-07-14,4716.2,4752.61,4685.41,4752.61,10718919.0,17512686900.0,0.008502845599188458
sz399005,2014-07-11,4687.71,4729.55,4681.94,4712.54,9433997.0,15804758200.0,0.0031867540026013774
sz399005,2014-07-10,4743.22,4763.97,4688.38,4697.57,10011156.0,17613837600.0,-0.010983759111025004
sz399005,2014-07-09,4833.17,4844.23,4749.74,4749.74,11148925.0,19543247600.0,-0.020059954982184824
sz399005,2014-07-08,4817.76,4847.29,4777.39,4846.97,9859165.0,16543727600.0,0.005047038649035995
sz399005,2014-07-07,4847.68,4866.51,4806.75,4822.63,9120164.0,15512274800.0,-0.004750652647219522
sz399005,2014-07-04,4869.58,4873.71,4838.46,4845.65,9302735.0,15869413300.0,-0.0031372791046925252
sz399005,2014-07-03,4839.57,4878.66,4827.51,4860.9,10764878.0,17402483300.0,0.0034059945504087974
sz399005,2014-07-02,4833.31,4852.68,4797.62,4844.4,11121385.0,17705259900.0,0.0028277241168019884
sz399005,2014-07-01,4797.6,4834.85,4784.65,4830.74,10872935.0,17109985100.0,0.007512430340040677
sz399005,2014-06-30,4745.51,4794.72,4733.04,4794.72,10387573.0,15174733400.0,0.011471750971449257
sz399005,2014-06-27,4736.62,4770.47,4722.82,4740.34,9614694.0,14090590400.0,0.001800575677012306
sz399005,2014-06-26,4666.61,4733.59,4666.61,4731.82,8410989.0,12851118700.000002,0.014789206624260753
sz399005,2014-06-25,4697.45,4697.45,4651.0,4662.86,6559896.000000001,10439564300.0,-0.007160666795841153
sz399005,2014-06-24,4672.05,4697.49,4663.73,4696.49,7118841.0,11130367200.0,0.005431245611330793
sz399005,2014-06-23,4637.84,4686.42,4637.84,4671.12,7587566.0,10836936900.0,0.008539221041677036
sz399005,2014-06-20,4582.82,4632.56,4577.18,4631.57,7426682.000000001,9890711500.0,0.010516279506127546
sz399005,2014-06-19,4705.54,4715.32,4560.24,4583.37,8736508.0,12463523300.0,-0.026155483833956272
sz399005,2014-06-18,4728.42,4736.04,4703.79,4706.47,8972489.0,13205439700.0,-0.004692661345920279
sz399005,2014-06-17,4774.53,4774.53,4727.11,4728.66,8753610.0,13237550000.0,-0.011131581864074813
sz399005,2014-06-16,4747.15,4787.49,4743.23,4781.89,9282925.0,14579873400.0,0.0076237275349737565
sz399005,2014-06-13,4690.01,4757.88,4685.35,4745.71,9915756.0,14627620500.0,0.01107650221998746
sz399005,2014-06-12,4698.2,4715.95,4680.58,4693.72,8338732.000000001,12191725200.0,-0.002730226045718931
sz399005,2014-06-11,4679.51,4712.86,4673.03,4706.57,8068342.999999999,11736931600.0,0.0032784858426113672
sz399005,2014-06-10,4622.62,4691.44,4599.52,4691.19,8881424.0,12855812500.0,0.01495214275823864
sz399005,2014-06-09,4639.0,4658.97,4619.36,4622.08,8650410.0,11827473799.999998,-0.006444456864270975
sz399005,2014-06-06,4646.08,4680.25,4628.97,4652.06,8077233.0,11237946500.0,0.0014573901737029438
sz399005,2014-06-05,4591.33,4646.37,4578.53,4645.29,6179818.0,9072845500.0,0.010792721005986161
sz399005,2014-06-04,4649.36,4649.36,4556.45,4595.69,6904792.999999999,9582288900.0,-0.012811121875355824
sz399005,2014-06-03,4654.15,4682.43,4652.5,4655.33,6718028.999999999,10164157800.0,0.0007588460380927309
sz399005,2014-05-30,4630.17,4673.6,4601.56,4651.8,8071607.000000001,11533418200.0,0.0035379902489538484
sz399005,2014-05-29,4696.55,4704.88,4632.59,4635.4,8375242.0,12928518200.0,-0.011342453365411287
sz399005,2014-05-28,4614.6,4691.67,4603.66,4688.58,9643008.0,13717336200.000002,0.016858063046943483
sz399005,2014-05-27,4617.96,4639.0,4600.65,4610.85,7093839.0,11027346800.0,-0.0033202124417178736
sz399005,2014-05-26,4615.67,4630.53,4598.93,4626.21,8839260.0,13920405900.0,0.009025416427653754
sz399005,2014-05-23,4543.83,4585.25,4526.99,4584.83,7165833.0,10115909600.0,0.01049766375738348
sz399005,2014-05-22,4546.52,4602.01,4534.3,4537.2,7390484.0,9893005300.0,-5.730078061294552e-05
sz399005,2014-05-21,4465.88,4537.5,4435.58,4537.46,5910724.0,7522924399.999999,0.012871110317424828
sz399005,2014-05-20,4491.98,4528.8,4467.76,4479.8,5427494.0,7458715600.000001,0.0032135619030557727
sz399005,2014-05-19,4492.23,4492.23,4432.71,4465.45,4612201.0,6171167300.0,-0.007629261875024995
sz399005,2014-05-16,4496.47,4514.27,4456.49,4499.78,6064447.0,7533508900.0,-0.0008504288781666647
sz399005,2014-05-15,4597.47,4598.51,4499.25,4503.61,6136175.0,8259771600.0,-0.021626447918386527
sz399005,2014-05-14,4597.37,4616.27,4582.97,4603.16,5622441.0,7310202200.0,0.0006543264893537071
sz399005,2014-05-13,4612.62,4632.46,4588.1,4600.15,7733633.0,10108722900.0,-0.00231412199999137
sz399005,2014-05-12,4524.22,4612.85,4511.04,4610.82,9064334.0,11863149500.0,0.025433340894837286
sz399005,2014-05-09,4542.36,4545.3,4455.83,4496.46,6412336.0,9144218400.0,-0.009862923203963647
sz399005,2014-05-08,4546.13,4619.15,4539.4,4541.25,6244415.0,8392066400.0,-0.0037010872903741054
sz399005,2014-05-07,4633.04,4633.04,4557.17,4558.12,6123526.0,8590981900.0,-0.018706095358244745
sz399005,2014-05-06,4596.66,4679.4,4591.91,4645.01,6839335.000000001,10792815800.0,0.010186661215222603
sz399005,2014-05-05,4545.27,4604.0,4515.17,4598.17,5407222.0,7828947600.0,0.010082881727138338
sz399005,2014-04-30,4512.77,4558.69,4507.34,4552.27,4872794.0,7046344900.0,0.005226780903590633
sz399005,2014-04-29,4459.28,4529.47,4459.28,4528.6,5681576.0,7635343300.0,0.011261296467083737
sz399005,2014-04-28,4569.99,4575.08,4474.16,4478.17,7650578.999999999,10298454700.0,-0.02312518269352426
sz399005,2014-04-25,4666.46,4675.74,4584.18,4584.18,6852134.0,9522446900.0,-0.018221302733195444
sz399005,2014-04-24,4720.29,4723.72,4662.49,4669.26,5948155.0,8743699500.0,-0.012457277249500742
sz399005,2014-04-23,4726.56,4759.7,4705.63,4728.16,5684879.0,8765919500.0,0.00036391025803772514
sz399005,2014-04-22,4751.62,4777.95,4654.29,4726.44,8040639.999999999,11285766100.000002,-0.005565035168076826
sz399005,2014-04-21,4791.49,4851.39,4747.73,4752.89,8351705.0,11886835400.0,-0.014747006133875473
sz399005,2014-04-18,4803.71,4832.94,4783.14,4824.03,6725005.0,9611540000.0,0.0013928906528941631
sz399005,2014-04-17,4811.96,4837.35,4810.53,4817.32,6968666.0,10413437600.0,0.0036271513424208646
sz399005,2014-04-16,4791.49,4821.2,4781.39,4799.91,6137616.0,8646098800.0,-0.0010010989193960373
sz399005,2014-04-15,4847.22,4854.1,4797.37,4804.72,7809524.000000001,10919278100.0,-0.010282945800306531
sz399005,2014-04-14,4825.02,4855.06,4822.39,4854.64,7882552.0,11460464400.0,0.0049953317558601995
sz399005,2014-04-11,4845.75,4845.75,4800.22,4830.51,8712684.0,12459070200.0,-0.006433844324826854
sz399005,2014-04-10,4849.33,4880.41,4840.28,4861.79,9379118.0,13796902600.0,0.0035938551476142333
sz399005,2014-04-09,4814.37,4860.32,4814.37,4844.38,7876510.000000001,11890033600.000002,0.0072565017423922296
sz399005,2014-04-08,4741.48,4812.48,4731.21,4809.48,8656741.0,12010215100.0,0.010174247643371936
sz399005,2014-04-04,4693.56,4761.42,4680.33,4761.04,6680756.0,9787958800.0,0.012623120622584638
sz399005,2014-04-03,4691.03,4738.35,4679.0,4701.69,7029266.0,10003776300.0,0.0037316858125489016
sz399005,2014-04-02,4679.75,4701.56,4670.14,4684.21,7274858.0,10906982700.0,0.0012868224676638729
sz399005,2014-04-01,4590.68,4678.69,4588.95,4678.19,6307592.0,9099320500.0,0.01810003003251337
sz399005,2014-03-31,4606.52,4638.73,4572.17,4595.02,6443031.0,8907653400.0,-0.0033186416561105103
sz399005,2014-03-28,4702.48,4719.15,4598.33,4610.32,8183107.000000001,11850883700.000002,-0.021877864150174786
sz399005,2014-03-27,4806.07,4806.07,4713.44,4713.44,8702605.0,12692125400.0,-0.020203175051916378
sz399005,2014-03-26,4789.16,4820.68,4781.54,4810.63,7651488.0,10996676200.000002,0.006490069273434429
sz399005,2014-03-25,4769.1,4809.72,4751.91,4779.61,9512238.0,12805487300.0,-0.0014081711533842078
sz399005,2014-03-24,4798.93,4806.13,4759.37,4786.35,9532161.0,13051765200.0,-0.003105434823358788
sz399005,2014-03-21,4680.57,4809.45,4630.07,4801.26,10644961.0,14399072900.0,0.019652899301721094
sz399005,2014-03-20,4841.22,4876.11,4708.72,4708.72,10151797.0,14540652400.0,-0.031047822866079544
sz399005,2014-03-19,4922.31,4922.31,4827.39,4859.6,10149194.0,15097199200.0,-0.014747564036542427
sz399005,2014-03-18,4923.31,4969.4,4920.76,4932.34,9088350.0,13868106700.0,0.0025386952854253853
sz399005,2014-03-17,4857.46,4920.29,4840.14,4919.85,8095108.0,12319889200.0,0.017601737421790276
sz399005,2014-03-14,4841.31,4871.6,4808.11,4834.75,7366375.999999999,11093742500.0,-0.005991089436644392
sz399005,2014-03-13,4794.02,4865.94,4794.02,4863.89,8690430.0,12224651000.0,0.014891956632418824
sz399005,2014-03-12,4802.25,4849.6,4729.73,4792.52,11752862.0,15191382100.0,-0.004422692212613266
sz399005,2014-03-11,4798.11,4865.52,4775.58,4813.81,9721564.0,13864520600.0,-0.0009235699194314329
sz399005,2014-03-10,4956.21,4956.21,4818.26,4818.26,11244556.0,16192639200.0,-0.03540462572395797
sz399005,2014-03-07,5016.9,5047.01,4972.64,4995.11,10178167.0,15101624500.0,-0.0052197430157807645
sz399005,2014-03-06,5032.45,5041.48,4953.41,5021.32,10638250.0,15411370900.0,-0.004579317344709621
sz399005,2014-03-05,5053.79,5088.28,5039.38,5044.42,10443668.0,15225433100.0,-0.0011029724811335573
sz399005,2014-03-04,5074.42,5074.48,5000.47,5049.99,10548263.0,16055222700.0,-0.009456278686595265
sz399005,2014-03-03,5041.11,5098.2,5033.08,5098.2,11416012.0,17710936000.0,0.013719875924600444
sz399005,2014-02-28,4937.48,5029.2,4902.59,5029.2,11552299.0,17516140000.0,0.017753826290557218
sz399005,2014-02-27,5081.57,5132.06,4936.93,4941.47,12421607.0,20900644700.0,-0.023268546941308643
sz399005,2014-02-26,5013.86,5059.19,4948.75,5059.19,11410515.0,18270730500.0,0.0024411169695275348
sz399005,2014-02-25,5279.41,5302.27,5012.19,5046.87,15902604.999999998,26163423800.0,-0.04157764902265759
sz399005,2014-02-24,5254.08,5265.81,5167.81,5265.81,11497802.0,18395934000.0,-0.002708276910897589
sz399005,2014-02-21,5289.2,5332.08,5241.49,5280.11,10453281.0,16668581700.0,-0.003773506587599118
sz399005,2014-02-20,5408.57,5425.52,5287.77,5300.11,14372131.0,22055746400.0,-0.020963868774937278
sz399005,2014-02-19,5388.36,5424.41,5351.05,5413.6,16483332.0,25013003000.0,0.005006841011912844
sz399005,2014-02-18,5426.04,5426.09,5361.85,5386.63,16600126.0,26457458100.0,-0.004799902450019378
sz399005,2014-02-17,5359.67,5412.61,5332.77,5412.61,15190397.0,25045874800.0,0.01543428749385578
sz399005,2014-02-14,5251.52,5330.34,5231.41,5330.34,11716978.0,19595215700.0,0.014470025559968791
sz399005,2014-02-13,5324.39,5351.82,5248.86,5254.31,13819785.999999998,22729313300.0,-0.01378628166433915
sz399005,2014-02-12,5266.92,5327.76,5238.07,5327.76,13893782.999999998,22021655600.0,0.01128637321337056
sz399005,2014-02-11,5308.85,5323.34,5215.93,5268.3,15726744.0,25858775299.999996,-0.004491626150069705
sz399005,2014-02-10,5149.03,5300.39,5149.03,5292.07,15295367.000000002,24861917000.0,0.03530191993927567
sz399005,2014-02-07,4995.43,5111.62,4980.0,5111.62,9860968.0,15506850600.0,0.016186235139755922
sz399005,2014-01-30,5082.76,5091.98,5017.61,5030.2,8752567.0,13893893600.000002,-0.011027684225634049
sz399005,2014-01-29,5050.27,5091.13,5034.86,5086.29,9974921.0,15940592700.0,0.007936602301912066
sz399005,2014-01-28,5092.22,5116.26,5003.15,5046.24,10341221.0,17143771700.0,-0.007222183967971363
sz399005,2014-01-27,5089.51,5133.83,5051.81,5082.95,12756012.0,19890032600.0,-0.0040110357368197125
sz399005,2014-01-24,5022.14,5121.49,5019.18,5103.42,13209843.0,20594857400.0,0.016524382227923295
sz399005,2014-01-23,4990.69,5042.04,4987.21,5020.46,11936670.0,18251685200.0,0.007058795210690638
sz399005,2014-01-22,4877.96,4985.27,4871.08,4985.27,12104116.0,17194814000.0,0.022852382798955295
sz399005,2014-01-21,4816.67,4880.79,4816.52,4873.89,8589317.0,12622829000.0,0.011820757948494576
sz399005,2014-01-20,4856.85,4884.43,4781.96,4816.95,8018094.0,12355292200.0,-0.010106593946318743
sz399005,2014-01-17,4917.78,4934.27,4865.99,4866.13,7913267.999999999,12366698899.999998,-0.013319626425944087
sz399005,2014-01-16,4962.6,4995.39,4930.48,4931.82,9164527.0,13557201299.999998,-0.006184370409329287
sz399005,2014-01-15,4903.62,4963.24,4903.08,4962.51,9135833.0,13844423600.000002,0.012346006417801814
sz399005,2014-01-14,4825.34,4902.68,4792.41,4901.99,8386009.0,13195515600.0,0.01511703275426135
sz399005,2014-01-13,4862.4,4888.13,4796.68,4828.99,7915434.0,12798443700.000002,-0.006444033405276772
sz399005,2014-01-10,4930.51,4947.95,4847.76,4860.31,8365048.0,13078292500.0,-0.017048867352531194
sz399005,2014-01-09,5005.56,5063.34,4944.18,4944.61,10467229.0,15980483799.999998,-0.014994382335832834
sz399005,2014-01-08,4992.56,5039.1,4969.12,5019.88,10526087.0,15566354700.0,0.006290468076576072
sz399005,2014-01-07,4928.31,4994.97,4920.14,4988.5,8754112.0,13010197200.0,0.007625107306973744
sz399005,2014-01-06,5057.95,5057.95,4944.39,4950.75,9794913.0,14126382200.0,-0.023256777472413726
sz399005,2014-01-03,5044.4,5084.21,5039.96,5068.63,11020943.0,16780358799.999998,0.0018302674048349399
sz399005,2014-01-02,4975.65,5071.17,4969.68,5059.37,8856671.0,15082070700.0,0.015966312305968566
sz399005,2013-12-31,4927.58,4985.69,4920.18,4979.86,7120675.0,10779728600.000002,0.006005902875277913
sz399005,2013-12-30,4967.05,4972.78,4936.87,4950.13,7772147.0,11183875400.0,0.0007277829104443967
sz399005,2013-12-27,4867.61,4963.01,4859.68,4946.53,7533792.999999999,10811520200.0,0.01638451628280646
sz399005,2013-12-26,4950.36,4956.31,4866.73,4866.79,7087349.000000001,10390552300.0,-0.01854499621880512
sz399005,2013-12-25,4907.64,4959.53,4888.08,4958.75,5875042.0,8982330800.0,0.010587348169886601
sz399005,2013-12-24,4876.72,4950.1,4866.42,4906.8,6304683.0,9684866300.0,0.006940311677864575
sz399005,2013-12-23,4869.62,4884.49,4794.74,4872.98,6572530.0,10090485800.0,-0.001260470616687881
sz399005,2013-12-20,4930.94,4940.54,4849.32,4879.13,7832203.0,11318849400.0,-0.008725985762116806
sz399005,2013-12-19,4967.88,4984.32,4919.6,4922.08,6291838.0,9660060400.0,-0.007609147106144909
sz399005,2013-12-18,4952.25,4976.84,4933.44,4959.82,6423946.0,9396125900.0,0.002117454044377576
sz399005,2013-12-17,4969.6,4978.78,4939.77,4949.34,6694799.000000001,9970139500.0,-0.004391320353156258
sz399005,2013-12-16,5054.06,5060.15,4966.05,4971.17,9369494.0,13115488899.999998,-0.016085297400859733
sz399005,2013-12-13,5003.58,5066.31,4989.67,5052.44,7010949.000000001,10243736200.0,0.0024841664153398835
sz399005,2013-12-12,5001.05,5056.59,5001.05,5039.92,7493705.0,10738450900.0,0.00719234681540315
sz399005,2013-12-11,5024.19,5024.19,4973.52,5003.93,8269117.0,11101577600.0,-0.00766275926759552
sz399005,2013-12-10,5035.86,5064.21,5017.58,5042.57,9934779.0,13292518000.0,0.0032689101377993968
sz399005,2013-12-09,5008.92,5033.53,5008.16,5026.14,7737078.999999999,11351402400.0,0.006288628214137892
sz399005,2013-12-06,4998.19,5022.11,4980.45,4994.73,8254017.0,11952893899.999998,-0.001876453802067135
sz399005,2013-12-05,5045.05,5065.64,5000.81,5004.12,9229258.0,13420909400.0,-0.00830160859768414
sz399005,2013-12-04,4974.35,5080.31,4966.49,5046.01,11230568.0,16233215100.0,0.01396764794534322
sz399005,2013-12-03,4847.53,4980.84,4841.41,4976.5,9282469.0,12760323700.000002,0.020981775583015283
sz399005,2013-12-02,5009.12,5061.11,4854.15,4874.23,14400804.0,19775614600.0,-0.04829750136188182
sz399005,2013-11-29,5102.81,5130.88,5093.63,5121.59,9638339.0,14329853600.000002,0.004168357733715267
sz399005,2013-11-28,5065.38,5141.05,5062.36,5100.33,11059269.0,15542273799.999998,0.009085135554891766
sz399005,2013-11-27,4975.62,5059.53,4972.68,5054.41,9704732.0,14110016600.0,0.015131339788354126
sz399005,2013-11-26,4966.29,4993.23,4936.95,4979.07,8084424.000000001,11398763300.0,0.0014985055173162287
sz399005,2013-11-25,4984.78,5046.6,4967.49,4971.62,8396004.0,11848016600.0,-0.0060119679548311655
sz399005,2013-11-22,5031.94,5045.53,4995.55,5001.69,8984756.0,12641911299.999998,-0.005649975845458677
sz399005,2013-11-21,5017.78,5044.03,4973.6,5030.11,11608747.0,15901233899.999998,-0.0013440860215054862
sz399005,2013-11-20,5033.02,5040.98,4993.13,5036.88,8743423.0,12519226600.0,0.0050643519904221
sz399005,2013-11-19,5016.46,5032.59,4984.61,5011.5,10289652.0,14966063300.0,-0.00013367463593616513
sz399005,2013-11-18,4953.76,5012.17,4940.08,5012.17,11429004.0,16195076000.0,0.01907964695333586
sz399005,2013-11-15,4841.58,4973.25,4840.53,4918.33,10504407.0,14405896600.0,0.015785125673805744
sz399005,2013-11-14,4773.63,4842.64,4725.48,4841.9,7628611.0,10050144200.0,0.014401360943274488
sz399005,2013-11-13,4841.41,4847.03,4772.0,4773.16,6978074.000000001,9294402700.0,-0.01726370750729367
sz399005,2013-11-12,4839.37,4870.58,4802.05,4857.01,6698405.0,9368701100.0,0.004248975490338092
sz399005,2013-11-11,4783.24,4859.24,4754.78,4836.46,6331249.0,8763841300.0,0.010121136173767864
sz399005,2013-11-08,4822.55,4846.55,4757.03,4788.0,7530995.0,10313356000.0,-0.013678312458800135
sz399005,2013-11-07,4909.24,4916.51,4835.49,4854.4,8260766.0,11609036000.0,-0.013680149053280077
sz399005,2013-11-06,4964.56,5010.31,4921.69,4921.73,9806776.0,13006926600.0,-0.011240176146317338
sz399005,2013-11-05,4881.3,4978.22,4835.81,4977.68,9375026.0,12416240500.0,0.01530811013680422
sz399005,2013-11-04,4882.5,4941.57,4882.5,4902.63,7689928.999999999,10401665000.0,0.00784049304243628
sz399005,2013-11-01,4870.72,4894.23,4807.89,4864.49,8695813.0,11057569100.0,-0.005023470817439035
sz399005,2013-10-31,4954.91,4964.78,4882.65,4889.05,10682932.0,14076203500.0,-0.02236988394135475
sz399005,2013-10-30,4938.59,5001.6,4925.7,5000.92,9784970.0,13821332500.0,0.010178708138320669
sz399005,2013-10-29,5001.96,5059.49,4816.83,4950.53,14468054.999999998,19467345700.0,-0.00944428770661876
sz399005,2013-10-28,4995.77,5025.93,4968.32,4997.73,7982284.0,11901583899.999998,-0.002668076869350222
sz399005,2013-10-25,5167.83,5180.96,4974.09,5011.1,11656478.0,17220608900.0,-0.027924074451266212
sz399005,2013-10-24,5179.39,5205.27,5144.15,5155.05,8024439.0,11720012500.0,-0.006793428523537148
sz399005,2013-10-23,5330.99,5347.86,5168.65,5190.31,13618201.999999998,19518181600.0,-0.02634891394676564
sz399005,2013-10-22,5394.27,5412.6,5324.02,5330.77,15835301.0,24009928100.0,-0.011359379230789224
sz399005,2013-10-21,5266.76,5392.25,5265.51,5392.02,13387154.0,20032555300.0,0.025966835060079463
sz399005,2013-10-18,5227.8,5255.84,5197.93,5255.55,9744927.0,14793186399.999998,0.007352617021806784
sz399005,2013-10-17,5256.17,5287.05,5200.76,5217.19,11987494.0,17280592900.0,-0.0026495636631269637
sz399005,2013-10-16,5318.74,5330.93,5200.12,5231.05,13656167.000000002,19276687000.0,-0.020169590895212752
sz399005,2013-10-15,5390.21,5391.63,5299.96,5338.73,14401456.0,21666602300.0,-0.010411685110011337
sz399005,2013-10-14,5356.29,5415.02,5352.49,5394.9,14236372.0,21103284600.0,0.00840571745798524
sz399005,2013-10-11,5360.0,5396.1,5327.14,5349.93,13372714.000000002,19799352600.0,0.0010197437355927708
sz399005,2013-10-10,5352.98,5383.97,5310.55,5344.48,14311647.0,21275952799.999996,0.00036125071361037264
sz399005,2013-10-09,5298.27,5342.55,5273.9,5342.55,11249830.0,16628929500.0,0.0043350020396693
sz399005,2013-10-08,5245.07,5345.22,5230.32,5319.49,13318293.0,19859779800.0,0.016234566368198644
sz399005,2013-09-30,5180.85,5234.51,5180.85,5234.51,10086166.0,14282384000.0,0.013506946125175556
sz399005,2013-09-27,5150.72,5202.29,5133.2,5164.75,11442921.0,15756648000.0,0.00342716592417891
sz399005,2013-09-26,5202.58,5232.35,5137.06,5147.11,13309860.0,18207996500.0,-0.014673338744505937
sz399005,2013-09-25,5274.99,5280.76,5213.57,5223.76,14204460.999999998,20243333700.0,-0.012454533767893516
sz399005,2013-09-24,5233.53,5294.86,5225.15,5289.64,15251598.000000002,21552844200.0,0.014326175039741651
sz399005,2013-09-23,5063.25,5216.39,5063.25,5214.93,12634362.0,17933053500.0,0.03251628487140401
sz399005,2013-09-18,5034.18,5050.7,4988.9,5050.7,9884733.0,14065523600.000002,0.004442800435927374
sz399005,2013-09-17,5079.06,5099.77,5027.26,5028.36,12070178.0,15716601600.0,-0.01130974383980754
sz399005,2013-09-16,5059.83,5095.97,5050.81,5085.88,12396976.0,16529599500.0,0.010938509397020235
sz399005,2013-09-13,4991.46,5036.83,4989.76,5030.85,10669635.0,14686875100.0,0.01108183555713671
sz399005,2013-09-12,4948.29,5005.15,4936.84,4975.71,11969525.0,16153688700.000002,0.0022075633214160284
sz399005,2013-09-11,5025.96,5025.96,4933.35,4964.75,14309356.0,20857452300.0,-0.01714782326378783
sz399005,2013-09-10,5046.29,5051.43,4990.67,5051.37,13114381.0,17980426800.0,0.00041193910430981084
sz399005,2013-09-09,5024.69,5050.62,5006.8,5049.29,12250103.0,17251070000.0,0.007024233806069757
sz399005,2013-09-06,4985.52,5025.02,4977.15,5014.07,9218262.0,13448666200.000002,0.003964543366698159
sz399005,2013-09-05,4993.83,5008.58,4961.16,4994.27,9814327.0,13779282300.0,0.00019025417958395963
sz399005,2013-09-04,5006.57,5029.15,4983.88,4993.32,9727602.0,13648902000.0,-0.003901948580456782
sz399005,2013-09-03,4945.45,5014.05,4945.32,5012.88,10139758.0,13711665600.0,0.01568030732510861
sz399005,2013-09-02,4860.56,4935.49,4854.71,4935.49,9462464.0,12663846600.0,0.015252996087498527
sz399005,2013-08-30,4938.48,4974.53,4834.58,4861.34,12238220.0,15927861399.999998,-0.01724601497983469
sz399005,2013-08-29,4985.98,4996.63,4925.04,4946.65,9860337.0,13659895600.0,-0.007137394850879497
sz399005,2013-08-28,5031.15,5037.8,4978.22,4982.21,12325780.0,17515578700.0,-0.015989982560332794
sz399005,2013-08-27,5056.23,5071.7,5020.16,5063.17,10636676.0,14912135700.0,0.001695485300518218
sz399005,2013-08-26,4955.31,5054.6,4955.31,5054.6,12181160.0,17433859800.0,0.020739514125891256
sz399005,2013-08-23,4951.37,4991.71,4856.03,4951.9,13392014.000000002,18627775700.0,0.0037377418687898345
sz399005,2013-08-22,4909.83,4948.84,4895.37,4933.46,9386523.0,13187621299.999998,0.002222438913402014
sz399005,2013-08-21,4895.37,4924.3,4868.91,4922.52,10775616.0,13441783400.0,0.00796127478683939
sz399005,2013-08-20,4891.03,4956.01,4865.06,4883.64,10184982.0,14640249900.0,-0.003901875878330019
sz399005,2013-08-19,4791.85,4906.23,4787.9,4902.77,8764667.0,12400611700.0,0.019553978796940763
sz399005,2013-08-16,4915.16,5004.73,4802.49,4808.74,12211576.0,17082042500.0,-0.02638164501603557
sz399005,2013-08-15,5018.43,5033.8,4938.06,4939.04,8769766.0,13320459400.0,-0.01540571574381211
sz399005,2013-08-14,5039.17,5068.1,4995.64,5016.32,10577078.0,14549292400.0,-0.004483112419154223
sz399005,2013-08-13,5019.08,5038.91,4976.94,5038.91,10383502.0,14378148100.0,0.003083556620788075
sz399005,2013-08-12,4982.15,5034.68,4949.7,5023.42,13136056.0,19158304300.0,0.011917184031456918
sz399005,2013-08-09,4995.87,5034.32,4906.26,4964.26,12110819.0,16660950800.0,-0.004018626524540103
sz399005,2013-08-08,4919.59,4997.89,4902.82,4984.29,11325129.0,16420379900.0,0.009971469560777102
sz399005,2013-08-07,5016.02,5034.06,4924.17,4935.08,14425617.000000002,18948419900.0,-0.014102008322562254
sz399005,2013-08-06,4934.42,5024.25,4915.99,5005.67,13533573.000000002,18275865000.0,0.016220814207727807
sz399005,2013-08-05,4833.77,4925.77,4831.72,4925.77,10614146.0,15018307900.0,0.020827850047769436
sz399005,2013-08-02,4817.93,4886.78,4817.93,4825.27,11705674.0,16894678700.000002,0.00631072719347836
sz399005,2013-08-01,4635.31,4795.01,4630.05,4795.01,11159765.0,15847845200.0,0.03701004351323989
sz399005,2013-07-31,4656.38,4700.02,4611.39,4623.88,8520988.0,12288577600.0,-0.0007239752508518826
sz399005,2013-07-30,4690.15,4713.25,4565.31,4627.23,9022018.0,13051148400.0,-0.01171487885726008
sz399005,2013-07-29,4750.16,4772.72,4678.55,4682.08,9777079.0,13229454700.0,-0.02103832563196517
sz399005,2013-07-26,4794.16,4830.1,4712.53,4782.7,9437429.0,13002007800.0,-0.007252513678896788
sz399005,2013-07-25,4926.03,4950.68,4805.83,4817.64,12097648.0,17596493600.0,-0.02109536600927364
sz399005,2013-07-24,4876.04,4941.39,4843.58,4921.46,13338797.0,19641088400.0,0.006746473341406878
sz399005,2013-07-23,4764.11,4888.48,4764.11,4888.48,13377626.999999998,18935015500.0,0.03009703623318205
sz399005,2013-07-22,4643.27,4752.77,4622.37,4745.65,10723910.0,14679794400.0,0.01388479402477416
sz399005,2013-07-19,4746.82,4824.12,4680.66,4680.66,13926163.0,18704677300.0,-0.014112215280790985
sz399005,2013-07-18,4766.46,4801.06,4710.75,4747.66,9478105.0,13894337500.0,-0.006952665816059689
sz399005,2013-07-17,4865.38,4896.28,4754.4,4780.9,11322241.0,16636779400.0,-0.020752854234344364
sz399005,2013-07-16,4840.6,4885.97,4815.35,4882.22,11672806.0,17045532200.0,0.013102085875312364
sz399005,2013-07-15,4706.67,4819.08,4700.12,4819.08,11055303.0,16104587700.0,0.027231083722526472
sz399005,2013-07-12,4716.54,4783.37,4690.82,4691.33,11022690.0,15573988300.0,-0.00602150537634405
sz399005,2013-07-11,4596.52,4771.1,4595.63,4719.75,13262371.0,18343593600.0,0.0279790647073046
sz399005,2013-07-10,4472.17,4591.29,4462.99,4591.29,8458149.0,12332422400.0,0.027026241088744518
sz399005,2013-07-09,4468.02,4502.39,4418.98,4470.47,6486500.0,9585858200.0,-1.78948898904574e-05
sz399005,2013-07-08,4577.46,4607.21,4470.55,4470.55,9026809.0,13247225500.0,-0.03861620775377839
sz399005,2013-07-05,4709.15,4742.21,4650.12,4650.12,9403633.0,14460820700.0,-0.010974707128455163
sz399005,2013-07-04,4675.55,4778.41,4655.08,4701.72,10932992.0,17092841100.000002,-0.0022875331564986556
sz399005,2013-07-03,4666.76,4728.49,4610.91,4712.5,10266895.0,16456438200.0,0.008875967664588646
sz399005,2013-07-02,4584.53,4691.14,4576.25,4671.04,9415144.0,15030966600.0,0.0191967811898599
sz399005,2013-07-01,4433.81,4583.53,4421.28,4583.06,8397099.0,13501771800.0,0.028385122156999953
sz399005,2013-06-28,4418.24,4546.12,4384.23,4456.56,8797828.0,11795905200.0,0.0005163596197796938
sz399005,2013-06-27,4546.15,4601.55,4449.24,4454.26,10841115.0,14997923500.0,-0.018033271164843545
sz399005,2013-06-26,4421.48,4536.06,4378.96,4536.06,10972100.0,16040081000.0,0.0328616903550758
sz399005,2013-06-25,4325.04,4407.63,4040.92,4391.74,13004952.0,16495469000.0,0.0036886369869273405
sz399005,2013-06-24,4661.87,4661.87,4326.09,4375.6,10121266.0,13345367300.0,-0.06398672006023887
sz399005,2013-06-21,4583.63,4704.65,4538.36,4674.72,7613456.0,10910506299.999998,-0.0019407277408776125
sz399005,2013-06-20,4818.54,4826.23,4679.37,4683.81,7758864.0,11157310200.0,-0.03554860031504481
sz399005,2013-06-19,4842.25,4864.87,4769.38,4856.45,7936321.000000001,11483224300.0,-0.0016507417031214056
sz399005,2013-06-18,4878.77,4889.67,4803.01,4864.48,7702977.0,11143662100.0,-0.0022070708313847165
sz399005,2013-06-17,4873.1,4924.71,4844.71,4875.24,9331573.0,13976562300.0,0.0036479520413708055
sz399005,2013-06-14,4725.69,4872.22,4725.69,4857.52,9024309.0,13361204600.0,0.029218454028078655
sz399005,2013-06-13,4779.49,4779.49,4608.4,4719.62,8241814.999999999,10986613500.0,-0.0255021029788588
sz399005,2013-06-07,4923.01,4944.93,4810.52,4843.13,9592955.0,13226562500.0,-0.015946001410107602
sz399005,2013-06-06,4975.78,4988.66,4914.37,4921.61,8287669.0,11610626800.0,-0.013739010895420511
sz399005,2013-06-05,4951.46,5009.5,4946.61,4990.17,8297107.000000001,11524531200.000002,0.00632003920279578
sz399005,2013-06-04,5063.08,5063.08,4918.79,4958.83,10651042.0,14686079900.0,-0.02177845550507662
sz399005,2013-06-03,5125.3,5147.61,5051.14,5069.23,10688556.0,15673336100.000002,-0.012227249521627126
sz399005,2013-05-31,5206.06,5218.61,5130.48,5131.98,10970225.0,15588696399.999998,-0.012731428043769366
sz399005,2013-05-30,5178.9,5210.64,5155.36,5198.16,11479928.0,16779275100.0,0.0004022270677646045
sz399005,2013-05-29,5166.21,5201.52,5152.17,5196.07,11766700.0,17432299300.0,0.007488196686346926
sz399005,2013-05-28,5196.17,5209.91,5115.54,5157.45,12328243.0,18171011300.0,-0.007065641153990554
sz399005,2013-05-27,5164.48,5201.96,5152.44,5194.15,12158720.0,17610759200.0,0.0071881762547798544
sz399005,2013-05-24,5070.96,5157.1,5070.96,5157.08,11392725.0,15883064600.0,0.017661290004301833
sz399005,2013-05-23,5050.16,5138.05,5043.09,5067.58,12355135.0,17521660600.0,-0.00033732534536390357
sz399005,2013-05-22,5120.82,5149.37,5045.48,5069.29,13129596.0,19134004700.0,-0.010997608112906399
sz399005,2013-05-21,5014.25,5126.23,5010.38,5125.66,15009879.999999998,21869839000.0,0.020641178813221694
sz399005,2013-05-20,4950.58,5033.49,4937.65,5022.0,15328685.0,22131276000.0,0.017468363662886066
sz399005,2013-05-17,4854.69,4947.99,4846.44,4935.78,11783298.0,16692090100.0,0.016902429878815184
sz399005,2013-05-16,4794.97,4891.52,4777.04,4853.74,11769895.0,16832269600.0,0.010311810499146645
sz399005,2013-05-15,4711.28,4804.2,4711.06,4804.2,8570730.0,12815822700.0,0.019913383152174058
sz399005,2013-05-14,4761.97,4766.14,4675.46,4710.4,8549762.0,11973038400.0,-0.011578863433202358
sz399005,2013-05-13,4748.79,4771.36,4734.93,4765.58,8391320.0,11860890000.0,0.0030772728038122033
sz399005,2013-05-10,4730.64,4775.45,4701.75,4750.96,9569868.0,13202031100.000002,0.0017564094184028267
sz399005,2013-05-09,4725.59,4751.7,4696.1,4742.63,10351526.0,13987938700.000002,0.0022231097755547324
sz399005,2013-05-08,4690.09,4733.71,4690.09,4732.11,7954302.0,11036685300.0,0.01131397234979703
sz399005,2013-05-07,4684.19,4720.71,4655.13,4679.17,7988087.0,11821390500.0,-0.003220934369201678
sz399005,2013-05-06,4602.64,4696.89,4602.64,4694.29,9001027.0,12709937600.0,0.021661631945955717
sz399005,2013-05-03,4513.38,4627.26,4513.38,4594.76,8249585.000000001,11538077000.0,0.020300488082179102
sz399005,2013-05-02,4437.09,4510.6,4423.07,4503.34,6048346.0,8714806100.0,0.004940640899758986
sz399005,2013-04-26,4566.75,4587.54,4472.4,4481.2,6748053.0,9511116400.0,-0.02019433439159002
sz399005,2013-04-25,4646.38,4669.38,4573.07,4573.56,8628063.0,12911332000.0,-0.019758881208808754
sz399005,2013-04-24,4559.58,4679.62,4546.39,4665.75,8680665.0,12931030600.0,0.022784815676233583
sz399005,2013-04-23,4696.11,4696.11,4554.63,4561.81,8128600.999999999,11858186000.0,-0.027867399170605434
sz399005,2013-04-22,4640.1,4692.58,4633.35,4692.58,7318861.0,11163344900.0,0.007257280355115192
sz399005,2013-04-19,4577.74,4680.52,4575.0,4658.77,7601359.0,10948826700.0,0.01904097363793067
sz399005,2013-04-18,4544.07,4608.07,4531.0,4571.72,5133280.0,7813182800.0,0.0022558715139768815
sz399005,2013-04-17,4485.21,4566.01,4482.61,4561.43,5372173.0,8442369200.0,0.016116888092883253
sz399005,2013-04-16,4397.12,4494.43,4389.06,4489.08,5156444.0,7091656600.0,0.011662418616600556
sz399005,2013-04-15,4482.98,4503.64,4424.88,4437.33,4924798.0,6911868400.0,-0.013466284265990724
sz399005,2013-04-12,4518.28,4548.03,4495.59,4497.9,4514212.0,6765887900.0,-0.004807915692213838
sz399005,2013-04-11,4565.08,4575.76,4518.68,4519.63,5051647.0,7246930000.0,-0.0066463437416892646
sz399005,2013-04-10,4567.5,4588.5,4512.72,4549.87,5869064.0,9187695100.0,-0.004448383002932044
sz399005,2013-04-09,4547.91,4583.41,4542.35,4570.2,6081732.0,8908533400.0,0.0069447504560795625
sz399005,2013-04-08,4423.94,4539.07,4388.56,4538.68,6535764.0,9790452700.0,0.013457901353382207
sz399005,2013-04-03,4501.46,4528.96,4452.96,4478.41,6378207.0,9477279400.0,-0.0044526546980731
sz399005,2013-04-02,4607.13,4642.17,4494.06,4498.44,6801596.000000001,10104937300.0,-0.024601574188512387
sz399005,2013-04-01,4611.14,4641.64,4592.77,4611.9,6384008.0,9094080000.0,-0.0005850994669095444
sz399005,2013-03-29,4614.12,4646.69,4593.7,4614.6,5082231.0,7490181600.0,0.0008740784761971376
sz399005,2013-03-28,4666.98,4666.98,4601.93,4610.57,7563242.999999999,10374316100.0,-0.01998265519982656
sz399005,2013-03-27,4708.31,4756.65,4676.7,4704.58,7033489.0,9764965300.0,-0.001419999278326367
sz399005,2013-03-26,4712.1,4721.93,4644.21,4711.27,7176036.0,9645829400.0,-0.0041598410467240665
sz399005,2013-03-25,4732.52,4748.16,4686.67,4730.95,6830712.0,9670186400.0,0.0015708590820848745
sz399005,2013-03-22,4695.07,4740.1,4693.29,4723.53,7321445.0,10001786800.0,0.005128281514992228
sz399005,2013-03-21,4646.18,4721.86,4639.9,4699.43,7157475.999999999,10208718800.0,0.011471913183660476
sz399005,2013-03-20,4518.16,4646.13,4515.1,4646.13,7676553.999999999,10406948600.0,0.0286604319987247
sz399005,2013-03-19,4517.48,4543.53,4459.71,4516.68,5799282.0,8462529600.0,0.0010816082273150673
sz399005,2013-03-18,4561.18,4588.05,4508.48,4511.8,6014990.0,8917112100.0,-0.014527194532480414
sz399005,2013-03-15,4564.05,4663.51,4524.35,4578.31,7684948.0,11030930600.0,0.0029793787557150786
sz399005,2013-03-14,4509.0,4573.76,4500.02,4564.71,5296915.0,7717386300.0,0.010311811107274638
sz399005,2013-03-13,4541.17,4541.17,4460.34,4518.12,6583092.0,8551943900.0,-0.006646366264689507
sz399005,2013-03-12,4667.04,4698.89,4499.54,4548.35,9012774.0,11630768500.0,-0.026289029468117953
sz399005,2013-03-11,4640.72,4689.12,4613.53,4671.15,5769862.0,7942352000.0,0.005110384300899495
sz399005,2013-03-08,4705.21,4734.05,4644.5,4647.4,6888953.999999999,9298077800.0,-0.011706663547725205
sz399005,2013-03-07,4768.59,4778.35,4656.82,4702.45,11392143.0,15240983500.0,-0.017184048220671544
sz399005,2013-03-06,4721.44,4786.87,4721.44,4784.67,12019378.0,15847872300.0,0.016077860079507955
sz399005,2013-03-05,4576.46,4708.96,4560.4,4708.96,10177710.0,13570540500.0,0.02868951837522915
sz399005,2013-03-04,4669.88,4688.86,4548.21,4577.63,11688825.0,14943640900.0,-0.027449472362502947
sz399005,2013-03-01,4650.84,4706.95,4640.15,4706.83,10459907.0,13074853100.0,0.010806376449314925
sz399005,2013-02-28,4587.75,4656.51,4560.62,4656.51,9845683.0,12493619400.0,0.017496132364895223
sz399005,2013-02-27,4588.38,4640.56,4543.89,4576.44,7600330.0,10144604500.0,-0.0007336564915499943
sz399005,2013-02-26,4628.71,4684.69,4576.76,4579.8,9144819.0,12851580000.0,-0.014995096268001884
sz399005,2013-02-25,4603.7,4661.36,4595.6,4649.52,7198405.0,10087251800.0,0.010875095119034839
sz399005,2013-02-22,4598.88,4652.84,4593.64,4599.5,7800450.0,11059566399.999998,-0.0008385179521044339
sz399005,2013-02-21,4654.56,4665.54,4571.88,4603.36,10462225.0,13999240600.0,-0.018052512910650464
sz399005,2013-02-20,4586.08,4687.99,4574.7,4687.99,8913067.0,11641755600.0,0.022890719777965973
sz399005,2013-02-19,4665.05,4680.48,4565.58,4583.08,9198010.0,11610375500.0,-0.018341254864834178
sz399005,2013-02-18,4703.96,4712.0,4639.02,4668.71,9627256.0,12633573700.000002,-0.0024955185358486176
sz399005,2013-02-08,4615.72,4708.93,4615.72,4680.39,8075553.999999999,12030969400.0,0.013964683173271597
sz399005,2013-02-07,4546.79,4623.95,4541.74,4615.93,8258164.0,12349077500.0,0.015704490643758673
sz399005,2013-02-06,4512.24,4560.12,4512.24,4544.56,7900823.0,11271047200.0,0.008186065497397976
sz399005,2013-02-05,4427.58,4507.66,4424.07,4507.66,8406565.0,11775420000.0,0.01501698953156616
sz399005,2013-02-04,4501.95,4519.22,4435.43,4440.97,10151156.0,13611080800.0,-0.012975207529976607
sz399005,2013-02-01,4457.09,4515.1,4451.29,4499.35,9158887.0,11963402800.0,0.006311603554358891
sz399005,2013-01-31,4520.2,4531.89,4453.66,4471.13,9639346.0,12884964800.0,-0.009332520910651954
sz399005,2013-01-30,4515.24,4530.93,4491.71,4513.25,9719879.0,13154007200.0,-0.0025944808717809353
sz399005,2013-01-29,4490.33,4534.72,4470.05,4524.99,10485360.0,14678823200.0,0.00780858498907544
sz399005,2013-01-28,4402.83,4489.93,4402.83,4489.93,9567407.0,12769312500.0,0.02058708539423937
sz399005,2013-01-25,4396.17,4423.99,4377.67,4399.36,7098842.999999999,9485558800.0,-0.000488468730049596
sz399005,2013-01-24,4500.37,4548.06,4366.75,4401.51,12192192.0,15225101900.0,-0.020763809167845815
sz399005,2013-01-23,4477.42,4509.58,4445.23,4494.84,8202078.0,10479686900.0,0.001490591891982307
sz399005,2013-01-22,4549.11,4549.24,4448.39,4488.15,10464383.0,13687522000.0,-0.015106462818658795
sz399005,2013-01-21,4572.34,4576.66,4534.04,4556.99,9602229.0,12883902100.0,-0.0020541480431940373
sz399005,2013-01-18,4517.36,4581.53,4496.21,4566.37,9753603.0,12659018700.000002,0.014196715121767012
sz399005,2013-01-17,4540.36,4545.79,4479.02,4502.45,9321694.0,12004719500.0,-0.011432598824903772
sz399005,2013-01-16,4546.24,4585.48,4475.42,4554.52,12466923.0,16461136100.000002,0.0012442677945685432
sz399005,2013-01-15,4465.58,4576.64,4465.58,4548.86,14549587.0,18730209600.0,0.020358448666472073
sz399005,2013-01-14,4269.62,4458.1,4269.62,4458.1,12249436.0,15762516299.999998,0.04339176633042352
sz399005,2013-01-11,4345.38,4358.83,4263.48,4272.7,11019502.0,13017872300.0,-0.014925854882142375
sz399005,2013-01-10,4308.62,4355.55,4299.64,4337.44,10165540.0,12109241399.999998,0.005855493380393817
sz399005,2013-01-09,4273.29,4344.8,4265.55,4312.19,10664047.0,13793503500.0,0.009821439025818002
sz399005,2013-01-08,4205.76,4283.75,4192.86,4270.25,10721331.0,13426907100.0,0.015488261928316094
sz399005,2013-01-07,4163.79,4206.82,4138.86,4205.12,8996975.0,10975029000.0,0.007759889185523283
sz399005,2013-01-04,4253.42,4258.42,4117.59,4172.74,9029128.0,12213674800.0,-0.015073407921446624
